,t1_pm,t2_pm,stint_start,t2_points_scored,t2_players,t2_id,t1_id,t1_players,stint_end,t1_points_scored,margin_per_100,num_poss
0,-4,4,0,19,"[1630180, 203924, 203486, 201961, 202709]",1610612765,1610612737,"[1628989, 1628381, 203991, 1629164, 203992]",479,15,-12.903225806451612,31.0
1,-4,4,480,27,"[1630180, 203924, 203486, 201961, 202709]",1610612765,1610612737,"[1628989, 1628381, 203991, 1629164, 203992]",673,23,-9.30232558139535,43.0
2,-4,4,674,27,"[1630165, 1630180, 1630191, 201961, 203924]",1610612765,1610612737,"[1629164, 1630168, 201568, 203524, 203992]",698,23,-9.090909090909092,44.0
3,-6,6,699,29,"[1630165, 1630180, 1630191, 201961, 203924]",1610612765,1610612737,"[1627739, 1628989, 1630168, 201568, 203524]",814,23,-11.538461538461538,52.0
4,-3,3,815,31,"[1630165, 1630191, 1628977, 1629635, 1628402]",1610612765,1610612737,"[1628989, 201568, 203524, 1630168, 1627739]",907,28,-5.084745762711865,59.0
5,-8,8,908,36,"[1630165, 1630191, 1628977, 1629635, 1628402]",1610612765,1610612737,"[1627739, 1628989, 201568, 203524, 203991]",978,28,-12.121212121212121,66.0
6,-9,9,979,38,"[1630165, 1630191, 1628977, 1629635, 1628402]",1610612765,1610612737,"[1627739, 201568, 203524, 203991, 203992]",1042,29,-12.857142857142856,70.0
7,-8,8,1043,38,"[1630165, 1630191, 1628977, 1629635, 1628402]",1610612765,1610612737,"[1629164, 201568, 203524, 203991, 203992]",1086,30,-11.11111111111111,72.0
8,-9,9,1087,45,"[1630165, 1630191, 1628977, 1629635, 1628402]",1610612765,1610612737,"[1628381, 1629164, 203524, 203991, 203992]",1223,36,-11.11111111111111,81.0
9,-10,10,1224,54,"[1628402, 1628977, 1629635, 202709, 203486]",1610612765,1610612737,"[1628381, 1629164, 203524, 203991, 203992]",1438,44,-10.526315789473683,95.0
10,-11,11,1439,68,"[1630180, 201961, 202709, 203486, 203924]",1610612765,1610612737,"[1628381, 1630219, 201568, 203524, 203992]",1861,57,-8.799999999999999,125.0
11,-11,11,1862,70,"[1630180, 203924, 203486, 201961, 202709]",1610612765,1610612737,"[1628989, 1628381, 203991, 1629164, 203992]",1933,59,-8.527131782945736,129.0
12,-15,15,1934,74,"[1628402, 1630180, 1630191, 202709, 203924]",1610612765,1610612737,"[1628381, 1628989, 1629164, 201568, 203524]",2014,59,-11.194029850746269,134.0
13,-7,7,2015,74,"[1628402, 1628977, 1630165, 1630191, 203924]",1610612765,1610612737,"[1628381, 1628989, 1629164, 201568, 203524]",2158,67,-4.895104895104895,143.0
14,-13,13,2159,82,"[1628402, 1628977, 1630165, 1630191, 203924]",1610612765,1610612737,"[1627739, 1628989, 1630168, 201568, 203524]",2292,69,-8.441558441558442,154.0
15,-14,14,2293,87,"[1630165, 1630191, 1628977, 1629635, 1628402]",1610612765,1610612737,"[203992, 201568, 203524, 1630168, 1627739]",2507,73,-8.433734939759036,166.0
16,-16,16,2508,94,"[1630165, 1630191, 1628977, 1629635, 1628402]",1610612765,1610612737,"[1627739, 1628989, 201568, 203991, 203992]",2682,78,-9.03954802259887,177.0
17,-20,20,2683,98,"[1630165, 1630191, 1628977, 1629635, 1628402]",1610612765,1610612737,"[1628381, 1629164, 203524, 203991, 203992]",2718,78,-11.11111111111111,180.0
18,-16,16,2719,100,"[1630165, 1630191, 1628977, 1629635, 1628402]",1610612765,1610612737,"[1628981, 1630168, 1630219, 1630233, 203524]",2862,84,-8.333333333333332,192.0
19,-14,14,2863,100,"[1628402, 1629076, 1629686, 1630191, 1630240]",1610612765,1610612737,"[1628981, 1630168, 1630219, 1630233, 203524]",9999999,86,-7.253886010362693,193.0
