,t2_pm,stint_end,t1_points_scored,t1_players,stint_start,t2_players,t1_id,t2_id,t2_points_scored,t1_pm,margin_per_100,num_poss
0,5,152,3,"[1626220, 202711, 203497, 1628378, 201144]",0,"[1630529, 1627742, 202685, 1628404, 1628984]",1610612762,1610612740,8,-5,-62.5,8.0
1,2,292,8,"[1626220, 202711, 203497, 1628378, 201144]",153,"[1630529, 1627742, 202685, 1628404, 1628984]",1610612762,1610612740,10,-2,-11.76470588235294,17.0
2,4,334,8,"[1626220, 202711, 203497, 1628378, 201144]",293,"[1626195, 1627742, 1628404, 1628984, 1630529]",1610612762,1610612740,12,-4,-19.047619047619047,21.0
3,4,378,8,"[1626220, 1628378, 202711, 203497, 204060]",335,"[1626195, 1627742, 1628404, 1628984, 1630529]",1610612762,1610612740,12,-4,-17.391304347826086,23.0
4,4,427,10,"[1626220, 1628378, 202711, 203497, 204060]",379,"[1626195, 1627742, 1628404, 1630529, 1630631]",1610612762,1610612740,14,-4,-16.0,25.0
5,6,448,10,"[1626220, 1628378, 200752, 202711, 204060]",428,"[1626195, 1627742, 1628404, 1630529, 1630631]",1610612762,1610612740,16,-6,-23.076923076923077,26.0
6,6,478,10,"[1626220, 1628378, 200752, 202711, 204060]",449,"[1627742, 1628404, 1629637, 1630529, 1630631]",1610612762,1610612740,16,-6,-22.22222222222222,27.0
7,3,515,13,"[1626220, 1628378, 200752, 202711, 204060]",479,"[1627742, 1629637, 1630529, 1630631, 202066]",1610612762,1610612740,16,-3,-10.344827586206897,29.0
8,1,719,23,"[1626220, 1628378, 200752, 203903, 204060]",516,"[1629109, 1629637, 1629638, 1630631, 202066]",1610612762,1610612740,24,-1,-2.3255813953488373,43.0
9,0,858,27,"[200752, 201144, 203497, 203903, 204060]",720,"[1629109, 1629637, 1629638, 1630631, 202066]",1610612762,1610612740,27,0,0.0,50.0
10,0,939,31,"[203497, 201144, 204060, 200752, 203903]",859,"[202685, 1628404, 1628984, 202066, 1629638]",1610612762,1610612740,31,0,0.0,55.0
11,0,1014,31,"[1630235, 200752, 203497, 203903, 204060]",940,"[202685, 1628404, 1628984, 202066, 1629638]",1610612762,1610612740,31,0,0.0,59.0
12,0,1027,34,"[1630235, 202711, 203497, 203903, 204060]",1015,"[1627742, 1628404, 1628984, 202066, 202685]",1610612762,1610612740,34,0,0.0,61.0
13,-2,1085,36,"[1630235, 202711, 203497, 203903, 204060]",1028,"[1627742, 1628984, 1630529, 202066, 202685]",1610612762,1610612740,34,2,3.1746031746031744,63.0
14,0,1167,38,"[1626220, 1628378, 200752, 202711, 203903]",1086,"[1627742, 1628984, 1630529, 202066, 202685]",1610612762,1610612740,38,0,0.0,68.0
15,4,1210,38,"[1626220, 1628378, 200752, 202711, 203903]",1168,"[1627742, 1629637, 1629638, 1630529, 202066]",1610612762,1610612740,42,-4,-5.633802816901409,71.0
16,1,1267,41,"[1626220, 1628378, 202711, 203497, 203903]",1211,"[1627742, 1628404, 1629637, 1629638, 1630529]",1610612762,1610612740,42,-1,-1.3513513513513513,74.0
17,-5,1439,52,"[1626220, 1628378, 201144, 202711, 203497]",1268,"[1627742, 1628404, 1629637, 1629638, 1630529]",1610612762,1610612740,47,5,5.681818181818182,88.0
18,-12,1698,67,"[1626220, 1628378, 201144, 202711, 203497]",1440,"[1627742, 1628404, 1629638, 1630529, 202685]",1610612762,1610612740,55,12,11.320754716981133,106.0
19,-12,1729,67,"[1626220, 202711, 203497, 1628378, 201144]",1699,"[1630529, 1627742, 202685, 1628404, 1628984]",1610612762,1610612740,55,12,11.11111111111111,108.0
20,-10,1772,67,"[1628378, 201144, 202711, 203497, 204060]",1730,"[1630529, 1627742, 202685, 1628404, 1628984]",1610612762,1610612740,57,10,8.928571428571429,112.0
21,-5,1846,69,"[1628378, 200752, 202711, 203497, 204060]",1773,"[1630529, 1627742, 202685, 1628404, 1628984]",1610612762,1610612740,64,5,4.201680672268908,119.0
22,-10,1936,76,"[1628378, 1630235, 200752, 202711, 204060]",1847,"[1630529, 1627742, 202685, 1628404, 1628984]",1610612762,1610612740,66,10,8.064516129032258,124.0
23,-9,1960,76,"[1628378, 200752, 202711, 203903, 204060]",1937,"[1630529, 1627742, 202685, 1628404, 1628984]",1610612762,1610612740,67,9,7.199999999999999,125.0
24,-8,1981,76,"[1628378, 200752, 202711, 203903, 204060]",1961,"[1627742, 1629637, 1629638, 1630631, 202066]",1610612762,1610612740,68,8,6.25,128.0
25,-7,2100,80,"[201144, 202711, 203497, 203903, 204060]",1982,"[1629109, 1629637, 1629638, 1630631, 202066]",1610612762,1610612740,73,7,5.185185185185185,135.0
26,-5,2159,82,"[200752, 201144, 203497, 203903, 204060]",2101,"[1629109, 1629637, 1629638, 1630631, 202066]",1610612762,1610612740,77,5,3.597122302158273,139.0
27,-8,2261,87,"[200752, 201144, 202711, 203903, 204060]",2160,"[1629109, 1629637, 1629638, 1630631, 202066]",1610612762,1610612740,79,8,5.405405405405405,148.0
28,-8,2281,87,"[202711, 201144, 204060, 200752, 203903]",2262,"[1628404, 1630631, 1629637, 202066, 1629638]",1610612762,1610612740,79,8,5.369127516778524,149.0
29,-12,2334,93,"[202711, 201144, 204060, 200752, 203903]",2282,"[1628404, 1628984, 1629638, 202066, 202685]",1610612762,1610612740,81,12,7.894736842105263,152.0
30,-12,2377,95,"[1628378, 202711, 203497, 203903, 204060]",2335,"[1628404, 1628984, 1629638, 202066, 202685]",1610612762,1610612740,83,12,7.6923076923076925,156.0
31,-15,2491,100,"[1626220, 1628378, 203497, 203903, 204060]",2378,"[1628404, 1628984, 1629638, 202066, 202685]",1610612762,1610612740,85,15,9.090909090909092,165.0
32,-13,2531,100,"[1626220, 1628378, 203497, 203903, 204060]",2492,"[1628404, 1628984, 1629638, 1630529, 202685]",1610612762,1610612740,87,13,7.738095238095238,168.0
33,-8,2567,100,"[1626220, 1628378, 203497, 203903, 204060]",2532,"[1627742, 1628404, 1628984, 1630529, 202685]",1610612762,1610612740,92,8,4.678362573099415,171.0
34,-12,2797,109,"[1626220, 1628378, 202711, 203497, 203903]",2568,"[1627742, 1628404, 1628984, 1630529, 202685]",1610612762,1610612740,97,12,6.451612903225806,186.0
35,-11,2873,115,"[1626220, 1628378, 201144, 202711, 203497]",2798,"[1627742, 1628404, 1628984, 1630529, 202685]",1610612762,1610612740,104,11,5.670103092783505,194.0
36,-11,9999999,115,"[1626220, 1628378, 201144, 202711, 203497]",2874,"[1627742, 1628404, 1628984, 1629638, 202685]",1610612762,1610612740,104,11,5.641025641025641,195.0
