,stint_start,t1_points_scored,t2_pm,stint_end,t1_id,t2_points_scored,t1_players,t2_id,t1_pm,t2_players,margin_per_100,num_poss
0,0,8,1,297,1610612759,9,"[201942, 200746, 1626168, 1627854, 1627749]",1610612737,-1,"[1629631, 203953, 203458, 1629629, 1629027]",-5.0,20.0
1,298,8,1,331,1610612759,9,"[201942, 200746, 1626168, 1627854, 1627749]",1610612737,-1,"[1629631, 203953, 203458, 1629629, 1629027]",-4.545454545454546,22.0
2,332,14,2,481,1610612759,16,"[1626168, 1627854, 1628401, 200746, 201942]",1610612737,-2,"[1628981, 1628989, 1629027, 1629631, 203953]",-6.0606060606060606,33.0
3,482,14,2,506,1610612759,16,"[1628401, 200746, 200752, 201942, 201988]",1610612737,-2,"[1628981, 1628989, 1629027, 1629631, 203953]",-5.714285714285714,35.0
4,507,18,-2,602,1610612759,16,"[1628401, 200746, 200752, 201942, 201988]",1610612737,2,"[1627761, 1627820, 1628981, 1628989, 1713]",4.761904761904762,42.0
5,603,21,1,719,1610612759,22,"[1628401, 200746, 200752, 201158, 201988]",1610612737,-1,"[1627745, 1627761, 1627820, 1628989, 1713]",-1.9230769230769231,52.0
6,720,21,1,773,1610612759,22,"[1627751, 1628401, 200752, 201158, 201988]",1610612737,-1,"[1627745, 1627761, 1627820, 1628989, 1713]",-1.7857142857142856,56.0
7,774,23,1,859,1610612759,24,"[1628401, 200752, 201988, 201158, 1627751]",1610612737,-1,"[203953, 1629629, 1627820, 1627761, 1627745]",-1.6129032258064515,62.0
8,860,23,1,900,1610612759,24,"[1627749, 1627751, 200752, 201158, 201988]",1610612737,-1,"[203953, 1629629, 1627820, 1627761, 1627745]",-1.5151515151515151,66.0
9,901,25,0,933,1610612759,25,"[1626168, 1627749, 1627751, 1627854, 201942]",1610612737,0,"[1627745, 1627761, 1629027, 1629629, 203953]",0.0,69.0
10,934,36,-3,1132,1610612759,33,"[1626168, 1627751, 1627854, 201942, 201988]",1610612737,3,"[1627761, 1629027, 1629629, 203458, 203953]",3.571428571428571,84.0
11,1133,36,-3,1136,1610612759,33,"[1626168, 1627854, 200746, 201942, 201988]",1610612737,3,"[1629027, 1629629, 1629631, 203458, 203953]",3.571428571428571,84.0
12,1137,41,-1,1282,1610612759,40,"[1626168, 1627854, 200746, 201942, 201988]",1610612737,1,"[1628989, 1629629, 1629631, 1713, 203458]",1.0752688172043012,93.0
13,1283,43,-1,1312,1610612759,42,"[1627854, 1628401, 200746, 200752, 201942]",1610612737,1,"[1628989, 1629629, 1629631, 1713, 203458]",1.0526315789473684,95.0
14,1313,45,-1,1435,1610612759,44,"[1627854, 1628401, 200746, 200752, 201942]",1610612737,1,"[1627745, 1628989, 1629629, 1629631, 1713]",0.9803921568627451,102.0
15,1436,49,-1,1564,1610612759,48,"[1627854, 200746, 200752, 201942, 201988]",1610612737,1,"[1627745, 1627761, 1628989, 1629631, 1713]",0.9090909090909091,110.0
16,1565,56,-2,1690,1610612759,54,"[201942, 200746, 1626168, 1627854, 1627749]",1610612737,2,"[1629631, 203953, 203458, 1629629, 1629027]",1.694915254237288,118.0
17,1691,64,-1,1820,1610612759,63,"[201942, 200746, 1626168, 1627854, 1627749]",1610612737,1,"[1627745, 1629027, 1629629, 1629631, 203953]",0.7874015748031495,127.0
18,1821,67,-4,1865,1610612759,63,"[1626168, 1627854, 1628401, 200746, 201942]",1610612737,4,"[1627745, 1629027, 1629629, 1629631, 203953]",3.076923076923077,130.0
19,1866,70,-7,1888,1610612759,63,"[1628401, 200746, 200752, 201942, 201988]",1610612737,7,"[1627745, 1628989, 1629027, 1629631, 203953]",5.303030303030303,132.0
20,1889,70,-7,1914,1610612759,63,"[1628401, 200746, 200752, 201942, 201988]",1610612737,7,"[1627745, 1627761, 1628989, 1629027, 1713]",5.223880597014925,134.0
21,1915,72,-9,1954,1610612759,63,"[1628401, 200746, 200752, 201942, 201988]",1610612737,9,"[1627745, 1627761, 1628989, 1629629, 1713]",6.61764705882353,136.0
22,1955,72,-8,1975,1610612759,64,"[1627751, 1628401, 200752, 201942, 201988]",1610612737,8,"[1627761, 1628989, 1629629, 1713, 203458]",5.797101449275362,138.0
23,1976,73,-5,2037,1610612759,68,"[1627751, 1628401, 1629022, 200752, 201988]",1610612737,5,"[1627761, 1628989, 1629629, 1713, 203458]",3.4965034965034967,143.0
24,2038,75,-7,2095,1610612759,68,"[1627751, 1628401, 1629022, 200752, 201988]",1610612737,7,"[1627761, 1628981, 1628989, 1629629, 1713]",4.72972972972973,148.0
25,2096,78,-8,2159,1610612759,70,"[1627751, 1628401, 1629022, 200752, 201988]",1610612737,8,"[1627761, 1628981, 1628989, 1629631, 203953]",5.194805194805195,154.0
26,2160,80,-1,2293,1610612759,79,"[1627751, 1627854, 1628401, 200752, 201988]",1610612737,1,"[1627761, 1628981, 1628989, 1629631, 203953]",0.6211180124223602,161.0
27,2294,87,-1,2430,1610612759,86,"[1627854, 1627749, 200752, 201158, 1627751]",1610612737,1,"[1629631, 203953, 1629027, 1628989, 1628981]",0.5882352941176471,170.0
28,2431,87,6,2539,1610612759,93,"[1627749, 1627751, 1627854, 201158, 201942]",1610612737,-6,"[1629631, 203953, 1629027, 1628989, 1628981]",-3.3707865168539324,178.0
29,2540,88,5,2565,1610612759,93,"[1626168, 1627749, 200746, 201158, 201942]",1610612737,-5,"[1627745, 1627761, 1628989, 1629631, 1713]",-2.7777777777777777,180.0
30,2566,90,5,2624,1610612759,95,"[1626168, 1627749, 200746, 201942, 201988]",1610612737,-5,"[1627745, 1627761, 1628989, 1629629, 1713]",-2.7027027027027026,185.0
31,2625,93,7,2663,1610612759,100,"[1626168, 1627749, 200746, 201942, 201988]",1610612737,-7,"[1627745, 1627761, 1629027, 1629629, 1713]",-3.723404255319149,188.0
32,2664,96,10,2822,1610612759,106,"[1627854, 200746, 200752, 201942, 201988]",1610612737,-10,"[1627761, 1628981, 1629027, 1629631, 1713]",-5.05050505050505,198.0
33,2823,100,8,2855,1610612759,108,"[1627854, 200746, 200752, 201942, 201988]",1610612737,-8,"[1628981, 1629027, 1629629, 1629631, 203953]",-3.9603960396039604,202.0
34,2856,100,8,2864,1610612759,108,"[1627854, 200746, 200752, 201942, 201988]",1610612737,-8,"[1627761, 1628981, 1629027, 1629629, 1629631]",-3.9603960396039604,202.0
35,2865,100,8,9999999,1610612759,108,"[1627854, 200746, 200752, 201942, 201988]",1610612737,-8,"[1627761, 1628989, 1629629, 1629631, 1713]",-3.9215686274509802,204.0
