,TEAM_ID_1,TEAM_1_PLAYERS,TEAM_ID_2,TEAM_2_PLAYERS,PERIOD
0,1610612759,[ 201942 1629640 1627751 1628401 1627749],1610612745,[1630256  200782  202326  203506  202322],1
1,1610612759,[1628401 1627749  201988  200752 1629234],1610612745,[1630256  202322  201569 1628021 1627863],2
2,1610612759,[ 201942 1629640 1627751 1628401 1627749],1610612745,[1630256  200782  202326  203506  202322],3
3,1610612759,[1628401 1627749  201988  200752 1629234],1610612745,[1630256  202322  201569 1628021 1627863],4
