,team1_id,team1_player1,team1_player2,team1_player3,team1_player4,team1_player5,team2_id,team2_player1,team2_player2,team2_player3,team2_player4,team2_player5,game_id,period,possession_start,possession_end,team1_points,team2_points,possession_team
0,1610612740,1629026,203944,1626143,203546,203901,1610612756,1628969,1627733,1629034,1628367,1629059,0021801189,1,0,25,0,0,1610612740
1,1610612740,1629026,203944,1626143,203546,203901,1610612756,1628969,1627733,1629034,1628367,1629059,0021801189,1,31,31,0,2,1610612756
2,1610612740,1629026,203944,1626143,203546,203901,1610612756,1628969,1627733,1629034,1628367,1629059,0021801189,1,43,43,2,0,1610612740
3,1610612740,1629026,203944,1626143,203546,203901,1610612756,1628969,1627733,1629034,1628367,1629059,0021801189,1,61,63,0,0,1610612756
4,1610612740,1629026,203944,1626143,203546,203901,1610612756,1628969,1627733,1629034,1628367,1629059,0021801189,1,72,72,2,0,1610612740
5,1610612740,1629026,203944,1626143,203546,203901,1610612756,1628969,1627733,1629034,1628367,1629059,0021801189,1,89,92,0,0,1610612756
6,1610612740,1629026,203944,1626143,203546,203901,1610612756,1628969,1627733,1629034,1628367,1629059,0021801189,1,101,101,3,0,1610612740
7,1610612740,1629026,203944,1626143,203546,203901,1610612756,1628969,1627733,1629034,1628367,1629059,0021801189,1,116,118,0,0,1610612756
8,1610612740,1629026,203944,1626143,203546,203901,1610612756,1628969,1627733,1629034,1628367,1629059,0021801189,1,129,129,2,0,1610612740
9,1610612740,1629026,203944,1626143,203546,203901,1610612756,1628969,1627733,1629034,1628367,1629059,0021801189,1,145,145,0,2,1610612756
10,1610612740,1629026,203944,1626143,203546,203901,1610612756,1628969,1627733,1629034,1628367,1629059,0021801189,1,161,169,0,0,1610612740
11,1610612740,1629026,203944,1626143,203546,203901,1610612756,1628969,1627733,1629034,1628367,1629059,0021801189,1,174,174,0,2,1610612756
12,1610612740,1629026,203944,1626143,203546,203901,1610612756,1628969,1627733,1629034,1628367,1629059,0021801189,1,184,186,0,0,1610612740
13,1610612740,1629026,203944,1626143,203546,203901,1610612756,1628969,1627733,1629034,1628367,1629059,0021801189,1,191,191,0,2,1610612756
14,1610612740,1629026,203944,1626143,203546,203901,1610612756,1628969,1627733,1629034,1628367,1629059,0021801189,1,211,213,0,0,1610612740
15,1610612740,1629026,203944,1626143,203546,203901,1610612756,1628969,1627733,1629034,1628367,1629059,0021801189,1,220,221,0,0,1610612756
16,1610612740,1629026,203944,1626143,203546,203901,1610612756,1628969,1627733,1629034,1628367,1629059,0021801189,1,230,232,1,0,1610612740
17,1610612740,1629026,203944,1626143,203546,203901,1610612756,1628969,1627733,1629034,1628367,1629059,0021801189,1,244,248,0,0,1610612756
18,1610612740,1629026,203944,1626143,203546,203901,1610612756,1628969,1627733,1629034,1628367,1629059,0021801189,1,265,269,2,0,1610612740
19,1610612740,1629026,203944,1626143,203546,203901,1610612756,1628969,1627733,1629034,1628367,1629059,0021801189,1,281,289,0,0,1610612756
20,1610612740,1629026,203944,1626143,203546,203901,1610612756,1628969,1627733,1629034,1628367,1629059,0021801189,1,310,310,2,0,1610612740
21,1610612740,1629026,203944,1626143,203546,203901,1610612756,1628969,1627733,1629034,1628367,1629059,0021801189,1,323,323,0,2,1610612756
22,1610612740,1629026,203944,1626143,203546,203901,1610612756,1628969,1627733,1629034,1628367,1629059,0021801189,1,343,350,0,0,1610612740
23,1610612740,1629026,203944,1626143,203546,203901,1610612756,1628969,1627733,1629034,1628367,1629059,0021801189,1,355,355,0,2,1610612756
24,1610612740,1629026,203944,1626143,203546,203901,1610612756,1627733,1628367,1628969,1629059,203584,0021801189,1,369,369,0,0,1610612740
25,1610612740,1629026,203944,1626143,203546,203901,1610612756,1627733,1628367,1628969,1629059,203584,0021801189,1,375,377,0,0,1610612756
26,1610612740,1629026,203944,1626143,203546,203901,1610612756,1627733,1628367,1628969,1629059,203584,0021801189,1,391,391,2,0,1610612740
27,1610612740,1629026,203944,1626143,203546,203901,1610612756,1627733,1628367,1628969,1629059,203584,0021801189,1,407,407,0,3,1610612756
28,1610612740,1629026,203944,1626143,203546,203901,1610612756,1627733,1628367,1628969,1629059,203584,0021801189,1,427,427,2,0,1610612740
29,1610612740,1629026,203944,1626143,203546,203901,1610612756,1627733,1628367,1628969,1629059,203584,0021801189,1,440,444,0,2,1610612756
30,1610612740,1629026,203944,1626143,203546,203901,1610612756,1627733,1628367,1628969,1629059,203584,0021801189,1,450,450,3,0,1610612740
31,1610612740,1629026,203944,1626143,203546,203901,1610612756,1627733,1628367,1628969,1629059,203584,0021801189,1,474,474,0,3,1610612756
32,1610612740,1629026,203944,1626143,203546,203901,1610612756,1627733,1628367,1628969,1629059,203584,0021801189,1,487,487,2,0,1610612740
33,1610612740,1629026,203944,1626143,203546,203901,1610612756,1627733,1628367,1628969,1629059,203584,0021801189,1,503,503,0,3,1610612756
34,1610612740,1629026,203944,1626143,203546,203901,1610612756,1627733,1628367,1628969,1629059,203584,0021801189,1,514,524,2,0,1610612740
35,1610612740,1627767,1629026,203524,203546,203944,1610612756,1627733,1628367,1629059,203584,2037,0021801189,1,541,545,0,1,1610612756
36,1610612740,1626174,1627767,1629026,203524,203546,1610612756,1627733,1628367,1629059,203584,2037,0021801189,1,553,562,4,0,1610612740
37,1610612740,1626174,1627767,1629026,203524,203546,1610612756,1627733,1628367,1629059,203584,2037,0021801189,1,579,579,0,0,1610612756
38,1610612740,1626174,1627767,1629026,203524,203546,1610612756,1627733,1628367,1629059,203584,2037,0021801189,1,584,584,2,0,1610612740
39,1610612740,1626174,1627767,1629026,203524,203546,1610612756,1627733,1628367,1629059,203584,2037,0021801189,1,595,595,0,3,1610612756
40,1610612740,1626174,1627767,1629026,203524,203546,1610612756,1627733,1628367,1629059,203584,2037,0021801189,1,605,605,2,0,1610612740
41,1610612740,1626174,1627767,1629026,203524,203546,1610612756,1627733,1628367,1629059,203584,2037,0021801189,1,617,617,0,2,1610612756
42,1610612740,1626174,1627767,1629026,203524,203546,1610612756,1627733,1628367,1629059,203584,2037,0021801189,1,635,636,0,0,1610612740
43,1610612740,1626174,1627767,1629026,203524,203546,1610612756,1627733,1628367,1629059,203584,2037,0021801189,1,642,642,0,0,1610612756
44,1610612740,1626174,1627767,1629026,203524,203546,1610612756,1627733,1628367,1629059,203584,2037,0021801189,1,652,658,2,0,1610612740
45,1610612740,1626174,1627767,1629026,203524,203546,1610612756,1627733,1628367,1629059,203584,2037,0021801189,1,678,678,0,0,1610612756
46,1610612740,1626174,1627767,1629026,203524,203546,1610612756,1627733,1628367,1629001,203584,2037,0021801189,1,696,697,0,0,1610612740
47,1610612740,1626174,1627767,1629026,203524,203546,1610612756,1627733,1628367,1629001,203584,2037,0021801189,1,717,717,0,2,1610612756
48,1610612740,1626174,1627767,1629026,203524,203546,1610612756,1627733,1628367,1629001,203584,2037,0021801189,1,720,720,3,0,1610612740
49,1610612740,1626174,1627767,1629026,203524,203546,1610612756,1627733,1628367,1629001,203584,2037,0021801189,1,720,720,0,0,154
50,1610612740,203901,203524,1627767,1626174,1629541,1610612756,1628969,1629034,203584,2037,1629001,0021801189,2,720,730,0,2,1610612756
51,1610612740,203901,203524,1627767,1626174,1629541,1610612756,1628969,1629034,203584,2037,1629001,0021801189,2,748,750,1,0,1610612740
52,1610612740,203901,203524,1627767,1626174,1629541,1610612756,1628969,1629034,203584,2037,1629001,0021801189,2,761,761,0,2,1610612756
53,1610612740,203901,203524,1627767,1626174,1629541,1610612756,1628969,1629034,203584,2037,1629001,0021801189,2,780,780,2,0,1610612740
54,1610612740,203901,203524,1627767,1626174,1629541,1610612756,1628969,1629034,203584,2037,1629001,0021801189,2,792,792,0,2,1610612756
55,1610612740,203901,203524,1627767,1626174,1629541,1610612756,1628969,1629034,203584,2037,1629001,0021801189,2,804,804,2,0,1610612740
56,1610612740,203901,203524,1627767,1626174,1629541,1610612756,1628969,1629034,203584,2037,1629001,0021801189,2,815,816,0,0,1610612756
57,1610612740,203901,203524,1627767,1626174,1629541,1610612756,1628969,1629034,203584,2037,1629001,0021801189,2,827,827,2,0,1610612740
58,1610612740,203901,203524,1627767,1626174,1629541,1610612756,1628969,1629034,203584,2037,1629001,0021801189,2,843,843,0,0,1610612756
59,1610612740,203901,203524,1627767,1626174,1629541,1610612756,1628969,1629034,203584,2037,1629001,0021801189,2,864,864,2,0,1610612740
60,1610612740,203901,203524,1627767,1626174,1629541,1610612756,1628969,1629034,203584,2037,1629001,0021801189,2,879,879,0,2,1610612756
61,1610612740,203901,203524,1627767,1626174,1629541,1610612756,1628969,1629034,203584,2037,1629001,0021801189,2,885,885,0,0,1610612740
62,1610612740,203901,203524,1627767,1626174,1629541,1610612756,1628969,1629034,203584,2037,1629001,0021801189,2,900,902,0,0,1610612756
63,1610612740,203901,203524,1627767,1626174,1629541,1610612756,1628969,1629034,203584,2037,1629001,0021801189,2,906,906,3,0,1610612740
64,1610612740,203901,203524,1627767,1626174,1629541,1610612756,1628969,1629034,203584,2037,1629001,0021801189,2,908,923,0,2,1610612756
65,1610612740,203901,203524,1627767,1626174,1629541,1610612756,1628367,1628969,1629001,1629034,2037,0021801189,2,948,950,0,0,1610612740
66,1610612740,203901,203524,1627767,1626174,1629541,1610612756,1628367,1628969,1629001,1629034,2037,0021801189,2,963,965,0,0,1610612756
67,1610612740,203901,203524,1627767,1626174,1629541,1610612756,1628367,1628969,1629001,1629034,2037,0021801189,2,981,981,0,0,1610612740
68,1610612740,203901,203524,1627767,1626174,1629541,1610612756,1628367,1628969,1629001,1629034,2037,0021801189,2,991,991,0,3,1610612756
69,1610612740,203901,203524,1627767,1626174,1629541,1610612756,1628367,1628969,1629001,1629034,2037,0021801189,2,996,1009,3,0,1610612740
70,1610612740,1626143,1629541,203524,203901,203944,1610612756,1628367,1628969,1629001,1629034,2037,0021801189,2,1029,1029,0,2,1610612756
71,1610612740,1626143,1629541,203524,203901,203944,1610612756,1628367,1628969,1629001,1629034,2037,0021801189,2,1047,1047,2,0,1610612740
72,1610612740,1626143,1629541,203524,203901,203944,1610612756,1628367,1628969,1629001,1629034,2037,0021801189,2,1054,1054,0,3,1610612756
73,1610612740,1626143,1629541,203524,203901,203944,1610612756,1628367,1628969,1629001,1629034,2037,0021801189,2,1067,1067,0,0,1610612740
74,1610612740,1626143,1629541,203524,203901,203944,1610612756,1628367,1628969,1629001,1629034,2037,0021801189,2,1082,1084,0,0,1610612756
75,1610612740,1626143,1629541,203524,203901,203944,1610612756,1628367,1628969,1629001,1629034,2037,0021801189,2,1096,1096,3,0,1610612740
76,1610612740,1626143,1629541,203524,203901,203944,1610612756,1628367,1628969,1629001,1629034,2037,0021801189,2,1108,1110,0,0,1610612756
77,1610612740,1626143,1629541,203524,203901,203944,1610612756,1628367,1628969,1629001,1629034,2037,0021801189,2,1117,1117,0,0,1610612740
78,1610612740,1626143,1629541,203524,203901,203944,1610612756,1628367,1628969,1629001,1629034,2037,0021801189,2,1122,1122,0,2,1610612756
79,1610612740,1626143,1629541,203524,203901,203944,1610612756,1628367,1628969,1629001,1629034,2037,0021801189,2,1145,1145,0,0,1610612740
80,1610612740,1626143,1629541,203524,203901,203944,1610612756,1628367,1628969,1629001,1629034,2037,0021801189,2,1152,1152,0,2,1610612756
81,1610612740,1626143,1629541,203524,203901,203944,1610612756,1628367,1628969,1629001,1629034,2037,0021801189,2,1158,1177,2,0,1610612740
82,1610612740,1626143,203524,203546,203901,203944,1610612756,1628367,1628969,1629001,1629034,2037,0021801189,2,1194,1200,0,0,1610612756
83,1610612740,1626143,203524,203546,203901,203944,1610612756,1628367,1628969,1629001,1629034,2037,0021801189,2,1208,1208,2,0,1610612740
84,1610612740,1626143,203524,203546,203901,203944,1610612756,1628367,1628969,1629001,1629034,2037,0021801189,2,1223,1225,0,0,1610612756
85,1610612740,1626143,203524,203546,203901,203944,1610612756,1628367,1628969,1629001,1629034,2037,0021801189,2,1240,1242,0,0,1610612740
86,1610612740,1626143,203524,203546,203901,203944,1610612756,1628367,1628969,1629001,1629034,2037,0021801189,2,1247,1247,0,0,1610612756
87,1610612740,1626143,203524,203546,203901,203944,1610612756,1628367,1628969,1629001,1629034,2037,0021801189,2,1252,1252,0,0,1610612740
88,1610612740,1626143,203524,203546,203901,203944,1610612756,1628367,1628969,1629001,1629034,2037,0021801189,2,1256,1263,0,2,1610612756
89,1610612740,1626143,1629026,203546,203901,203944,1610612756,1627733,1628367,1628969,1629001,2037,0021801189,2,1273,1273,3,0,1610612740
90,1610612740,1626143,1629026,203546,203901,203944,1610612756,1627733,1628367,1628969,1629001,2037,0021801189,2,1286,1286,0,3,1610612756
91,1610612740,1626143,1629026,203546,203901,203944,1610612756,1627733,1628367,1628969,203584,2037,0021801189,2,1298,1314,0,0,1610612740
92,1610612740,1626143,1629026,203546,203901,203944,1610612756,1627733,1628367,1628969,203584,2037,0021801189,2,1321,1321,0,0,1610612756
93,1610612740,1626143,1629026,203546,203901,203944,1610612756,1627733,1628367,1628969,203584,2037,0021801189,2,1335,1335,2,0,1610612740
94,1610612740,1626143,1629026,203546,203901,203944,1610612756,1627733,1628367,1628969,203584,2037,0021801189,2,1349,1349,0,0,1610612756
95,1610612740,1626143,1629026,203546,203901,203944,1610612756,1627733,1628367,1628969,203584,2037,0021801189,2,1355,1362,2,0,1610612740
96,1610612740,1626143,1629026,203546,203901,203944,1610612756,1627733,1628367,1628969,203584,2037,0021801189,2,1372,1372,0,3,1610612756
97,1610612740,1626143,1629026,203546,203901,203944,1610612756,1627733,1628367,1628969,203584,2037,0021801189,2,1386,1386,2,0,1610612740
98,1610612740,1626143,1629026,203546,203901,203944,1610612756,1627733,1628367,1628969,203584,2037,0021801189,2,1394,1397,0,0,1610612756
99,1610612740,1626143,1629026,203546,203901,203944,1610612756,1627733,1628367,1628969,203584,2037,0021801189,2,1403,1405,2,0,1610612740
100,1610612740,1626143,1629026,203546,203901,203944,1610612756,1627733,1628367,1628969,203584,2037,0021801189,2,1428,1428,0,3,1610612756
101,1610612740,1626143,1629026,203546,203901,203944,1610612756,1627733,1628367,1628969,203584,2037,0021801189,2,1437,1437,3,0,1610612740
102,1610612740,1629026,203524,203546,203901,203944,1610612756,1627733,1628367,1628969,203584,2037,0021801189,2,1437,1437,0,1,1610612756
103,1610612740,1629026,203524,203546,203901,203944,1610612756,1627733,1628367,1628969,203584,2037,0021801189,2,1440,1440,0,0,1610612740
104,1610612740,1629026,203944,1626143,203546,203901,1610612756,1628969,1627733,1629034,1628367,1629059,0021801189,3,1440,1458,0,2,1610612756
105,1610612740,1629026,203944,1626143,203546,203901,1610612756,1628969,1627733,1629034,1628367,1629059,0021801189,3,1477,1477,2,0,1610612740
106,1610612740,1629026,203944,1626143,203546,203901,1610612756,1628969,1627733,1629034,1628367,1629059,0021801189,3,1490,1492,0,0,1610612756
107,1610612740,1629026,203944,1626143,203546,203901,1610612756,1628969,1627733,1629034,1628367,1629059,0021801189,3,1501,1501,2,0,1610612740
108,1610612740,1629026,203944,1626143,203546,203901,1610612756,1628969,1627733,1629034,1628367,1629059,0021801189,3,1518,1520,0,0,1610612756
109,1610612740,1629026,203944,1626143,203546,203901,1610612756,1628969,1627733,1629034,1628367,1629059,0021801189,3,1529,1529,2,0,1610612740
110,1610612740,1629026,203944,1626143,203546,203901,1610612756,1628969,1627733,1629034,1628367,1629059,0021801189,3,1549,1558,0,2,1610612756
111,1610612740,1629026,203944,1626143,203546,203901,1610612756,1628969,1627733,1629034,1628367,1629059,0021801189,3,1579,1580,0,0,1610612740
112,1610612740,1629026,203944,1626143,203546,203901,1610612756,1628969,1627733,1629034,1628367,1629059,0021801189,3,1586,1588,0,0,1610612756
113,1610612740,1629026,203944,1626143,203546,203901,1610612756,1628969,1627733,1629034,1628367,1629059,0021801189,3,1593,1593,2,0,1610612740
114,1610612740,1629026,203944,1626143,203546,203901,1610612756,1628969,1627733,1629034,1628367,1629059,0021801189,3,1610,1614,0,2,1610612756
115,1610612740,1629026,203944,1626143,203546,203901,1610612756,1628969,1627733,1629034,1628367,1629059,0021801189,3,1624,1626,0,0,1610612740
116,1610612740,1629026,203944,1626143,203546,203901,1610612756,1628969,1627733,1629034,1628367,1629059,0021801189,3,1632,1635,0,2,1610612756
117,1610612740,1629026,203944,1626143,203546,203901,1610612756,1628969,1627733,1629034,1628367,1629059,0021801189,3,1657,1658,0,0,1610612740
118,1610612740,1629026,203944,1626143,203546,203901,1610612756,1628969,1627733,1629034,1628367,1629059,0021801189,3,1670,1677,0,3,1610612756
119,1610612740,1629026,203944,1626143,203546,203901,1610612756,1628969,1627733,1629034,1628367,1629059,0021801189,3,1690,1691,0,0,1610612740
120,1610612740,1629026,203944,1626143,203546,203901,1610612756,1628969,1627733,1629034,1628367,1629059,0021801189,3,1691,1710,0,2,1610612756
121,1610612740,1629026,203944,1626143,203546,203901,1610612756,1628969,1627733,1629034,1628367,1629059,0021801189,3,1717,1725,0,0,1610612740
122,1610612740,1629026,203944,1626143,203546,203901,1610612756,1628969,1627733,1629034,1628367,1629059,0021801189,3,1728,1728,0,2,1610612756
123,1610612740,1629026,203944,1626143,203546,203901,1610612756,1628969,1627733,1629034,1628367,1629059,0021801189,3,1749,1750,0,0,1610612740
124,1610612740,1629026,203944,1626143,203546,203901,1610612756,1628969,1627733,1629034,1628367,1629059,0021801189,3,1763,1763,0,2,1610612756
125,1610612740,1629026,203944,1626143,203546,203901,1610612756,1628969,1627733,1629034,1628367,1629059,0021801189,3,1785,1789,0,0,1610612740
126,1610612740,1629026,203944,1626143,203546,203901,1610612756,1628969,1627733,1629034,1628367,1629059,0021801189,3,1789,1802,0,3,1610612756
127,1610612740,1629026,203944,1626143,203546,203901,1610612756,1628969,1627733,1629034,1628367,1629059,0021801189,3,1818,1833,0,0,1610612740
128,1610612740,1626143,1627767,203524,203546,203901,1610612756,1628969,1627733,1629034,1628367,1629059,0021801189,3,1836,1836,0,1,1610612756
129,1610612740,1626143,1627767,203524,203546,203901,1610612756,1628969,1627733,1629034,1628367,1629059,0021801189,3,1851,1855,2,0,1610612740
130,1610612740,1626143,1627767,203524,203546,203901,1610612756,1628969,1627733,1629034,1628367,1629059,0021801189,3,1878,1879,0,0,1610612756
131,1610612740,1626143,1627767,203524,203546,203901,1610612756,1628969,1627733,1629034,1628367,1629059,0021801189,3,1887,1903,0,0,1610612740
132,1610612740,1626143,1627767,203524,203546,203901,1610612756,1627733,1628367,1628969,1629059,203584,0021801189,3,1923,1923,0,2,1610612756
133,1610612740,1626174,1627767,203524,203546,203901,1610612756,1627733,1628367,1628969,1629059,203584,0021801189,3,1938,1938,2,0,1610612740
134,1610612740,1626174,1627767,203524,203546,203901,1610612756,1627733,1628367,1628969,1629059,203584,0021801189,3,1955,1957,0,0,1610612756
135,1610612740,1626174,1627767,203524,203546,203901,1610612756,1627733,1628367,1628969,1629059,203584,0021801189,3,1967,1967,2,0,1610612740
136,1610612740,1626174,1627767,203524,203546,203901,1610612756,1627733,1628367,1628969,1629059,203584,0021801189,3,1968,1980,0,2,1610612756
137,1610612740,1626174,1627767,203524,203546,203901,1610612756,1627733,1628367,1628969,1629059,203584,0021801189,3,1995,1997,0,0,1610612740
138,1610612740,1626174,1627767,203524,203546,203901,1610612756,1627733,1628367,1628969,1629059,203584,0021801189,3,2006,2006,0,2,1610612756
139,1610612740,1626174,1627767,203524,203546,203901,1610612756,1627733,1628367,1628969,1629059,203584,0021801189,3,2024,2024,2,0,1610612740
140,1610612740,1626174,1627767,203524,203546,203901,1610612756,1627733,1628367,1629059,203584,2037,0021801189,3,2038,2038,0,2,1610612756
141,1610612740,1626174,1627767,203524,203546,203901,1610612756,1627733,1628367,1629059,203584,2037,0021801189,3,2051,2051,2,0,1610612740
142,1610612740,1626174,1627767,203524,203546,203901,1610612756,1627733,1628367,1629059,203584,2037,0021801189,3,2075,2075,0,2,1610612756
143,1610612740,1626174,1627767,203524,203546,203901,1610612756,1627733,1628367,1629059,203584,2037,0021801189,3,2087,2091,0,0,1610612740
144,1610612740,1626174,1627767,203524,203546,203901,1610612756,1627733,1628367,1629059,203584,2037,0021801189,3,2099,2102,0,0,1610612756
145,1610612740,1626174,1627767,203524,203546,203901,1610612756,1627733,1628367,1629059,203584,2037,0021801189,3,2112,2112,3,0,1610612740
146,1610612740,1626174,1627767,203524,203546,203901,1610612756,1627733,1628367,1629059,203584,2037,0021801189,3,2131,2134,0,0,1610612756
147,1610612740,1626174,1627767,203524,203546,203901,1610612756,1627733,1628367,1629059,203584,2037,0021801189,3,2149,2149,2,0,1610612740
148,1610612740,1626174,1627767,203524,203546,203901,1610612756,1627733,1628367,1629059,203584,2037,0021801189,3,2158,2160,0,0,1610612740
149,1610612740,1629026,203944,203524,1627767,1629541,1610612756,1628969,1629034,203584,2037,1629001,0021801189,4,2160,2173,0,0,1610612740
150,1610612740,1629026,203944,203524,1627767,1629541,1610612756,1628969,1629034,203584,2037,1629001,0021801189,4,2177,2179,0,0,1610612756
151,1610612740,1629026,203944,203524,1627767,1629541,1610612756,1628969,1629034,203584,2037,1629001,0021801189,4,2196,2203,0,0,1610612740
152,1610612740,1629026,203944,203524,1627767,1629541,1610612756,1628969,1629034,203584,2037,1629001,0021801189,4,2216,2219,0,0,1610612756
153,1610612740,1629026,203944,203524,1627767,1629541,1610612756,1628969,1629034,203584,2037,1629001,0021801189,4,2231,2231,2,0,1610612740
154,1610612740,1629026,203944,203524,1627767,1629541,1610612756,1628969,1629034,203584,2037,1629001,0021801189,4,2247,2249,0,2,1610612756
155,1610612740,1629026,203944,203524,1627767,1629541,1610612756,1628969,1629034,203584,2037,1629001,0021801189,4,2267,2280,0,0,1610612740
156,1610612740,1629026,203944,203524,1627767,1629541,1610612756,1628969,1629034,203584,2037,1629001,0021801189,4,2283,2283,0,3,1610612756
157,1610612740,1629026,203944,203524,1627767,1629541,1610612756,1628969,1629034,203584,2037,1629001,0021801189,4,2308,2308,2,0,1610612740
158,1610612740,1629026,203944,203524,1627767,1629541,1610612756,1628969,1629034,203584,2037,1629001,0021801189,4,2318,2322,0,0,1610612756
159,1610612740,1629026,203944,203524,1627767,1629541,1610612756,1628969,1629034,203584,2037,1629001,0021801189,4,2332,2333,0,0,1610612740
160,1610612740,1629026,203944,203524,1627767,1629541,1610612756,1628969,1629034,203584,2037,1629001,0021801189,4,2341,2343,0,0,1610612756
161,1610612740,1629026,203944,203524,1627767,1629541,1610612756,1628969,1629034,203584,2037,1629001,0021801189,4,2362,2367,0,0,1610612740
162,1610612740,1629026,203944,203524,1627767,1629541,1610612756,1628969,1629034,203584,2037,1629001,0021801189,4,2370,2372,0,0,1610612756
163,1610612740,1629026,203944,203524,1627767,1629541,1610612756,1628969,1629034,203584,2037,1629001,0021801189,4,2380,2380,2,0,1610612740
164,1610612740,1629026,203944,203524,1627767,1629541,1610612756,1628969,1629034,203584,2037,1629001,0021801189,4,2380,2395,0,0,1610612756
165,1610612740,1629026,203944,203524,1627767,1629541,1610612756,1628367,1629001,1629034,203584,2037,0021801189,4,2417,2419,0,0,1610612740
166,1610612740,1629026,203944,203524,1627767,1629541,1610612756,1628367,1629001,1629034,203584,2037,0021801189,4,2427,2427,0,2,1610612756
167,1610612740,1629026,203944,203524,1627767,1629541,1610612756,1628367,1629001,1629034,203584,2037,0021801189,4,2447,2450,2,0,1610612740
168,1610612740,1629026,203944,203524,1627767,1629541,1610612756,1628367,1629001,1629034,203584,2037,0021801189,4,2464,2467,0,0,1610612756
169,1610612740,1629026,203944,203524,1627767,1629541,1610612756,1628367,1629001,1629034,203584,2037,0021801189,4,2482,2498,0,0,1610612740
170,1610612740,1629026,203944,203524,1627767,1629541,1610612756,1628367,1629001,1629034,203584,2037,0021801189,4,2498,2512,0,0,1610612756
171,1610612740,1629026,203944,203524,1627767,1629541,1610612756,1628367,1629001,1629034,203584,2037,0021801189,4,2529,2529,2,0,1610612740
172,1610612740,1627767,1629026,203546,203901,203944,1610612756,1627733,1628367,1629001,203584,2037,0021801189,4,2546,2546,0,2,1610612756
173,1610612740,1627767,1629026,203546,203901,203944,1610612756,1627733,1628367,1629001,203584,2037,0021801189,4,2567,2567,2,0,1610612740
174,1610612740,1627767,1629026,203546,203901,203944,1610612756,1627733,1628367,1629001,203584,2037,0021801189,4,2587,2587,0,3,1610612756
175,1610612740,1627767,1629026,203546,203901,203944,1610612756,1627733,1628367,1629001,203584,2037,0021801189,4,2594,2617,0,0,1610612740
176,1610612740,1626174,1627767,1629026,203546,203901,1610612756,1627733,1628367,1628969,1629001,2037,0021801189,4,2620,2639,0,0,1610612756
177,1610612740,1626174,1627767,1629026,203546,203901,1610612756,1627733,1628367,1628969,1629001,2037,0021801189,4,2646,2646,2,0,1610612740
178,1610612740,1626174,1627767,1629026,203546,203901,1610612756,1627733,1628367,1628969,1629001,1629034,0021801189,4,2650,2659,0,2,1610612756
179,1610612740,1626174,1627767,1629026,203546,203901,1610612756,1627733,1628367,1628969,1629001,2037,0021801189,4,2678,2680,0,0,1610612740
180,1610612740,1626174,1627767,1629026,203546,203901,1610612756,1627733,1628367,1628969,1629001,2037,0021801189,4,2688,2688,0,2,1610612756
181,1610612740,1626174,1627767,1629026,203546,203901,1610612756,1627733,1628367,1628969,1629001,2037,0021801189,4,2694,2705,2,0,1610612740
182,1610612740,1626174,1629026,203546,203901,203944,1610612756,1627733,1628367,1628969,1629001,2037,0021801189,4,2721,2721,0,3,1610612756
183,1610612740,1626174,1629026,203546,203901,203944,1610612756,1627733,1628367,1628969,1629001,2037,0021801189,4,2739,2739,0,0,1610612740
184,1610612740,1626174,1629026,203546,203901,203944,1610612756,1627733,1628367,1628969,1629001,2037,0021801189,4,2753,2756,0,0,1610612756
185,1610612740,1626174,1629026,203546,203901,203944,1610612756,1627733,1628367,1628969,1629001,2037,0021801189,4,2768,2771,1,0,1610612740
186,1610612740,1626174,1629026,203546,203901,203944,1610612756,1627733,1628367,1628969,1629001,2037,0021801189,4,2785,2786,0,0,1610612756
187,1610612740,1626174,1629026,203546,203901,203944,1610612756,1627733,1628367,1628969,1629001,2037,0021801189,4,2801,2808,0,0,1610612740
188,1610612740,1626174,1629026,203546,203901,203944,1610612756,1627733,1628367,1628969,1629001,2037,0021801189,4,2817,2820,0,0,1610612756
189,1610612740,1626174,1629026,203546,203901,203944,1610612756,1627733,1628367,1628969,1629001,2037,0021801189,4,2839,2841,0,0,1610612740
190,1610612740,1626174,1629026,203546,203901,203944,1610612756,1627733,1628367,1628969,1629001,2037,0021801189,4,2850,2850,0,2,1610612756
191,1610612740,1626174,1629026,203546,203901,203944,1610612756,1627733,1628367,1628969,1629001,2037,0021801189,4,2850,2873,1,0,1610612740
192,1610612740,1629026,203524,203546,203901,203944,1610612756,1627733,1628367,1628969,1629001,1629034,0021801189,4,2873,2879,0,0,1610612740
193,1610612740,1629026,203944,203546,203901,203524,1610612756,1628969,1627733,1628367,2037,1629001,0021801189,5,2880,2904,0,2,1610612756
194,1610612740,1629026,203944,203546,203901,203524,1610612756,1628969,1627733,1628367,2037,1629001,0021801189,5,2925,2927,0,0,1610612740
195,1610612740,1629026,203944,203546,203901,203524,1610612756,1628969,1627733,1628367,2037,1629001,0021801189,5,2943,2943,0,2,1610612756
196,1610612740,1629026,203944,203546,203901,203524,1610612756,1628969,1627733,1628367,2037,1629001,0021801189,5,2955,2955,2,0,1610612740
197,1610612740,1629026,203944,203546,203901,203524,1610612756,1628969,1627733,1628367,2037,1629001,0021801189,5,2974,2974,0,3,1610612756
198,1610612740,1629026,203944,203546,203901,203524,1610612756,1628969,1627733,1628367,2037,1629001,0021801189,5,2991,2991,2,0,1610612740
199,1610612740,1629026,203944,203546,203901,203524,1610612756,1628969,1627733,1628367,2037,1629001,0021801189,5,3008,3024,0,0,1610612756
200,1610612740,1629026,203944,203546,203901,203524,1610612756,1628969,1627733,1628367,2037,1629001,0021801189,5,3034,3036,0,0,1610612740
201,1610612740,1629026,203944,203546,203901,203524,1610612756,1628969,1627733,1628367,2037,1629001,0021801189,5,3053,3053,0,2,1610612756
202,1610612740,1629026,203944,203546,203901,203524,1610612756,1628969,1627733,1628367,2037,1629001,0021801189,5,3067,3077,0,0,1610612740
203,1610612740,1629026,203944,203546,203901,203524,1610612756,1628969,1627733,1628367,2037,1629001,0021801189,5,3083,3097,0,3,1610612756
204,1610612740,1629026,203944,203546,203901,203524,1610612756,1628969,1627733,1628367,2037,1629001,0021801189,5,3098,3110,0,0,1610612740
205,1610612740,1629026,203944,203546,203901,203524,1610612756,1628969,1627733,1628367,2037,1629001,0021801189,5,3136,3137,0,0,1610612756
206,1610612740,1629026,1629541,203546,203901,203944,1610612756,1628969,1627733,1628367,2037,1629001,0021801189,5,3150,3157,3,0,1610612740
207,1610612740,1629026,1629541,203546,203901,203944,1610612756,1628969,1627733,1628367,2037,1629001,0021801189,5,3158,3158,0,2,1610612756
208,1610612740,1629026,1629541,203546,203901,203944,1610612756,1628969,1627733,1628367,2037,1629001,0021801189,5,3166,3169,2,0,1610612740
209,1610612740,1629026,1629541,203546,203901,203944,1610612756,1628367,1628969,1629001,1629034,2037,0021801189,5,3169,3169,0,2,1610612756
210,1610612740,1629026,1629541,203546,203901,203944,1610612756,1628367,1628969,1629001,1629034,2037,0021801189,5,3169,3178,0,0,1610612740
