,stint_start,t1_points_scored,t2_pm,stint_end,t1_id,t2_points_scored,t1_players,t2_id,t1_pm,t2_players,margin_per_100,num_poss
0,0,9,7,279,1610612764,16,"[1629067, 1629060, 1628418, 203078, 202397]",1610612760,-7,"[1628390, 201568, 203500, 1628983, 101108]",-36.84210526315789,19.0
1,280,18,3,527,1610612764,21,"[1629067, 1629060, 1628418, 203078, 202397]",1610612760,-3,"[1628390, 201568, 203500, 1628983, 101108]",-8.108108108108109,37.0
2,528,22,1,611,1610612764,23,"[1629067, 1629060, 1628418, 203078, 202397]",1610612760,-1,"[101108, 1628977, 1628983, 201568, 203500]",-2.3255813953488373,43.0
3,612,28,-5,718,1610612764,23,"[1629021, 1629060, 202397, 202722, 203078]",1610612760,5,"[1627846, 1628977, 1629647, 203457, 203471]",10.0,50.0
4,719,28,-4,719,1610612764,24,"[1629021, 1629060, 1629185, 1629726, 202722]",1610612760,4,"[1627846, 1628977, 1629647, 203457, 203471]",7.8431372549019605,51.0
5,720,30,-6,764,1610612764,24,"[1629021, 1629060, 1629185, 1629726, 202722]",1610612760,6,"[1627846, 1629126, 1629647, 203457, 203471]",11.11111111111111,54.0
6,765,38,-10,948,1610612764,28,"[1629021, 202722, 1629185, 1629726, 1629678]",1610612760,10,"[203471, 1629647, 1627846, 1629126, 203488]",14.492753623188406,69.0
7,949,38,-10,1006,1610612764,28,"[1629021, 202722, 1629185, 1629726, 1629678]",1610612760,10,"[101108, 1627846, 1629126, 203471, 203488]",13.698630136986301,73.0
8,1007,38,-10,1039,1610612764,28,"[1629021, 202722, 1629185, 1629726, 1629678]",1610612760,10,"[1628390, 1628983, 201568, 203471, 203500]",13.333333333333334,75.0
9,1040,40,-10,1080,1610612764,30,"[1629021, 1629185, 1629726, 202722, 203078]",1610612760,10,"[1628390, 1628983, 201568, 203471, 203500]",12.987012987012985,77.0
10,1081,40,-10,1108,1610612764,30,"[1628418, 1629060, 1629185, 202722, 203078]",1610612760,10,"[1628390, 1628983, 201568, 203471, 203500]",12.345679012345679,81.0
11,1109,40,-7,1153,1610612764,33,"[1628418, 1629060, 1629185, 202722, 203078]",1610612760,7,"[1628977, 1628983, 201568, 203471, 203500]",8.235294117647058,85.0
12,1154,42,-7,1194,1610612764,35,"[1628418, 1629060, 202397, 202722, 203078]",1610612760,7,"[1628977, 1628983, 201568, 203471, 203500]",8.045977011494253,87.0
13,1195,48,-8,1317,1610612764,40,"[1628418, 1629060, 1629067, 202397, 203078]",1610612760,8,"[1628977, 1628983, 201568, 203471, 203500]",8.421052631578947,95.0
14,1318,48,-4,1377,1610612764,44,"[1628418, 1629060, 1629067, 202397, 203078]",1610612760,4,"[101108, 1628977, 1628983, 201568, 203500]",4.0,100.0
15,1378,52,-8,1434,1610612764,44,"[1628418, 1629060, 1629067, 202397, 203078]",1610612760,8,"[101108, 1628983, 201568, 203471, 203500]",7.766990291262135,103.0
16,1435,52,-6,1437,1610612764,46,"[1628418, 1629060, 1629067, 202397, 202722]",1610612760,6,"[101108, 1628983, 201568, 203471, 203500]",5.769230769230769,104.0
17,1438,65,-6,1809,1610612764,59,"[1628418, 1629060, 202397, 202722, 203078]",1610612760,6,"[101108, 1628983, 201568, 203471, 203500]",4.545454545454546,132.0
18,1810,67,-6,1918,1610612764,61,"[1629067, 1629060, 1628418, 203078, 202397]",1610612760,6,"[1628390, 201568, 203500, 1628983, 101108]",4.316546762589928,139.0
19,1919,71,-8,2039,1610612764,63,"[1629067, 1629060, 1628418, 203078, 202397]",1610612760,8,"[101108, 1628390, 1628983, 1629647, 203500]",5.442176870748299,147.0
20,2040,73,-10,2072,1610612764,63,"[1629021, 1629067, 202397, 202722, 203078]",1610612760,10,"[1628390, 1628983, 1629647, 203457, 203471]",6.666666666666667,150.0
21,2073,73,-7,2079,1610612764,66,"[1629021, 1629067, 1629726, 202397, 202722]",1610612760,7,"[1627846, 1628977, 1629647, 203457, 203471]",4.635761589403973,151.0
22,2080,78,-8,2158,1610612764,70,"[1629021, 1629678, 1629726, 202397, 202722]",1610612760,8,"[1627846, 1628977, 1629647, 203457, 203471]",5.031446540880504,159.0
23,2159,78,-6,2334,1610612764,72,"[1629021, 1629185, 1629678, 1629726, 202722]",1610612760,6,"[1627846, 1628977, 1629647, 203457, 203471]",3.488372093023256,172.0
24,2335,78,-4,2399,1610612764,74,"[1629021, 202722, 1629185, 1629726, 1629678]",1610612760,4,"[1628977, 203471, 1629647, 1627846, 203488]",2.2857142857142856,175.0
25,2400,80,-4,2443,1610612764,76,"[1629021, 202722, 1629185, 1629726, 1629678]",1610612760,4,"[1628977, 1628983, 1629647, 203471, 203488]",2.2346368715083798,179.0
26,2444,80,-2,2497,1610612764,78,"[1628418, 1629060, 1629185, 202722, 203078]",1610612760,2,"[1628977, 1628983, 201568, 203471, 203488]",1.0869565217391304,184.0
27,2498,80,-2,2550,1610612764,78,"[1628418, 1629060, 1629185, 202722, 203078]",1610612760,2,"[101108, 1628390, 1628983, 201568, 203488]",1.06951871657754,187.0
28,2551,88,-5,2685,1610612764,83,"[1628418, 1629060, 202397, 202722, 203078]",1610612760,5,"[101108, 1628390, 1628983, 201568, 203488]",2.564102564102564,195.0
29,2686,94,-11,2802,1610612764,83,"[1628418, 1629060, 202397, 202722, 203078]",1610612760,11,"[101108, 1628390, 1628983, 201568, 203500]",5.445544554455446,202.0
30,2803,97,-14,2859,1610612764,83,"[1628418, 1629060, 202397, 202722, 203078]",1610612760,14,"[101108, 1628983, 201568, 203471, 203500]",6.796116504854369,206.0
31,2860,97,-12,9999999,1610612764,85,"[1628418, 1629060, 202397, 202722, 203078]",1610612760,12,"[1628390, 1628983, 1629647, 203471, 203488]",5.797101449275362,207.0
