,TEAM_ID_1,TEAM_1_PLAYERS,TEAM_ID_2,TEAM_2_PLAYERS,PERIOD
0,1610612740,[1628404  202066  202685 1629638 1628984],1610612742,[1627827  204001  203939  203501 1629029],1
1,1610612740,[ 202685  203107 1630530 1630230 1630184],1610612742,[ 204001  203501 1628973 1628373 1628425],2
2,1610612740,[1628404  202066  202685 1629638 1628984],1610612742,[1627827  204001  203939  203501 1629029],3
3,1610612740,[ 202685  203107 1630530 1630230 1630184],1610612742,[ 203501  203493 1628973 1628373 1626246],4
