,TEAM_ID_1,TEAM_1_PLAYERS,TEAM_ID_2,TEAM_2_PLAYERS,PERIOD
0,1610612763,[1628415  203937  202685 1630217 1629630],1610612753,[1628407 1629021 1628976  203914 1630175],1
1,1610612763,[ 203937  202685 1629001 1626159 1626145],1610612753,[1628407 1629021 1630181 1628964 1626184],2
2,1610612763,[1628415  203937  202685 1630217 1629630],1610612753,[1628407 1629021 1628976  203914 1630175],3
3,1610612763,[ 203937  202685 1629001 1626159 1626145],1610612753,[1628407 1630181 1628964 1629743 1626184],4
