,TEAM_ID_1,TEAM_1_PLAYERS,TEAM_ID_2,TEAM_2_PLAYERS,PERIOD
0,1610612744,[ 203952  203110 1629346 1626162 1629673],1610612763,[1628415  203937  202685 1628960 1629630],1
1,1610612744,[ 203110 1626162 1629673 1627814 1630185],1610612763,[1628415  202685 1628960 1630217 1626145],2
2,1610612744,[ 203952  203110 1629346 1626162 1629673],1610612763,[1628415  203937  202685 1628960 1629630],3
3,1610612744,[1626162 1627814 1629308 1630185 1628539],1610612763,[1628415 1629634 1629001 1630217 1626145],4
