,stint_start,t1_points_scored,t2_pm,stint_end,t1_id,t2_points_scored,t1_players,t2_id,t1_pm,t2_players,margin_per_100,num_poss
0,0,11,-1,288,1610612755,10,"[1629003, 202699, 201143, 1626196, 1627732]",1610612766,1,"[1628970, 1629023, 203469, 1628407, 1626179]",4.545454545454546,22.0
1,289,11,-1,349,1610612755,10,"[1629003, 202699, 201143, 1626196, 1627732]",1610612766,1,"[1628970, 1629023, 203469, 1628407, 1626179]",3.7037037037037033,27.0
2,350,13,-3,362,1610612755,10,"[1627732, 1629003, 1629680, 202699, 203124]",1610612766,3,"[1628407, 1628970, 1628984, 1629023, 203469]",10.344827586206897,29.0
3,363,16,-6,420,1610612755,10,"[1627732, 1629003, 1629680, 202699, 203124]",1610612766,6,"[1628370, 1628407, 1628984, 1629023, 202687]",17.647058823529413,34.0
4,421,16,-4,453,1610612755,12,"[1627732, 1629680, 202699, 203124, 203516]",1610612766,4,"[1628370, 1628407, 1628984, 1629023, 202687]",11.11111111111111,36.0
5,454,19,-7,512,1610612755,12,"[1627732, 1629680, 202699, 203124, 203516]",1610612766,7,"[1628370, 1628984, 1628997, 1629023, 202687]",17.5,40.0
6,513,23,-11,549,1610612755,12,"[1627732, 1629680, 202699, 203124, 203516]",1610612766,11,"[1628370, 1628970, 1628984, 1628997, 202687]",25.581395348837212,43.0
7,550,31,-17,713,1610612755,14,"[1627732, 1629680, 203118, 203124, 203516]",1610612766,17,"[1628370, 1628970, 1628984, 1628997, 202687]",30.909090909090907,55.0
8,714,31,-17,719,1610612755,14,"[1626196, 201143, 203118, 203516, 203526]",1610612766,17,"[1626179, 1628370, 1628970, 1628997, 202687]",30.357142857142854,56.0
9,720,38,-18,925,1610612755,20,"[1626196, 201143, 203118, 203516, 203526]",1610612766,18,"[1626179, 1628370, 1628407, 1628970, 1628997]",25.352112676056336,71.0
10,926,38,-16,998,1610612755,22,"[202699, 201143, 1626196, 203118, 203526]",1610612766,16,"[1628970, 203469, 1628407, 1626179, 1628997]",21.333333333333336,75.0
11,999,40,-16,1048,1610612755,24,"[202699, 201143, 1626196, 203118, 203526]",1610612766,16,"[1626179, 1628970, 1628984, 1629023, 203469]",20.51282051282051,78.0
12,1049,50,-22,1201,1610612755,28,"[1627732, 1629680, 202699, 203124, 203516]",1610612766,22,"[1628407, 1628970, 1628984, 1629023, 203469]",25.287356321839084,87.0
13,1202,50,-22,1201,1610612755,28,"[1627732, 1629680, 202699, 203124, 203516]",1610612766,22,"[1628407, 1628984, 1628997, 1629023, 203469]",25.287356321839084,87.0
14,1202,50,-19,1272,1610612755,31,"[1626196, 1627732, 1629680, 202699, 203124]",1610612766,19,"[1628407, 1628984, 1628997, 1629023, 203469]",20.212765957446805,94.0
15,1273,58,-19,1420,1610612755,39,"[1626196, 1627732, 1629680, 201143, 202699]",1610612766,19,"[1628407, 1628984, 1628997, 1629023, 203077]",18.446601941747574,103.0
16,1421,66,-21,1600,1610612755,45,"[1626196, 1627732, 1629680, 201143, 203118]",1610612766,21,"[1628407, 1628970, 1628984, 1629023, 203077]",17.94871794871795,117.0
17,1601,73,-23,1780,1610612755,50,"[1629003, 202699, 201143, 1626196, 1627732]",1610612766,23,"[1628970, 1629023, 203469, 1628407, 1626179]",18.11023622047244,127.0
18,1781,76,-26,1839,1610612755,50,"[1626196, 1627732, 201143, 202699, 203118]",1610612766,26,"[1628970, 1629023, 203469, 1628407, 1626179]",19.696969696969695,132.0
19,1840,78,-24,1952,1610612755,54,"[1627732, 1629680, 202699, 203118, 203124]",1610612766,24,"[1628407, 1628970, 1628984, 1629023, 203469]",17.142857142857142,140.0
20,1953,82,-23,2079,1610612755,59,"[1629680, 202699, 203124, 203516, 203526]",1610612766,23,"[1628407, 1628970, 1628984, 1629023, 202687]",15.54054054054054,148.0
21,2080,88,-22,2159,1610612755,66,"[1626196, 1628413, 203124, 203516, 203526]",1610612766,22,"[1626179, 1628984, 1628997, 1629023, 202687]",14.193548387096774,155.0
22,2160,88,-17,2258,1610612755,71,"[1626196, 1628413, 1629003, 203124, 203526]",1610612766,17,"[1626179, 1628984, 1628997, 1629023, 202687]",10.493827160493826,162.0
23,2259,88,-15,2371,1610612755,73,"[1629003, 1629680, 203526, 1628413, 1627788]",1610612766,15,"[1628970, 1626179, 1628984, 202687, 1628997]",8.823529411764707,170.0
24,2372,90,-17,2383,1610612755,73,"[1629003, 1629680, 203526, 1628413, 1627788]",1610612766,17,"[1626179, 1628970, 1628984, 1628997, 203077]",9.941520467836257,171.0
25,2384,90,-15,2411,1610612755,75,"[1627788, 1628413, 1629003, 1629680, 203504]",1610612766,15,"[1628424, 1628984, 1628997, 1629023, 203077]",8.720930232558139,172.0
26,2412,90,-13,2424,1610612755,77,"[1627788, 1628413, 1629003, 1629015, 203504]",1610612766,13,"[1628424, 1628984, 1628997, 1629023, 203077]",7.471264367816093,174.0
27,2425,92,-15,2483,1610612755,77,"[1628413, 1629003, 1629015, 1629621, 203504]",1610612766,15,"[1628424, 1628984, 1628997, 1629023, 203077]",8.47457627118644,177.0
28,2484,94,-11,2584,1610612755,83,"[1628413, 1629003, 1629015, 203504, 203658]",1610612766,11,"[1628424, 1628984, 1628997, 1629023, 203077]",5.9459459459459465,185.0
29,2585,94,-9,2655,1610612755,85,"[1628413, 1629003, 1629015, 203504, 203658]",1610612766,9,"[1628424, 1628997, 1629023, 1629616, 203077]",4.761904761904762,189.0
30,2656,100,-13,2852,1610612755,87,"[1627788, 1628413, 1629015, 203504, 203658]",1610612766,13,"[1626195, 1628424, 1629616, 1629759, 203077]",6.341463414634147,205.0
31,2853,100,-13,9999999,1610612755,87,"[1627788, 1629015, 1629621, 203504, 203658]",1610612766,13,"[1626195, 1628424, 1629616, 1629759, 203077]",6.310679611650485,206.0
