,TEAM_ID_1,TEAM_1_PLAYERS,TEAM_ID_2,TEAM_2_PLAYERS,PERIOD
0,1610612761,[1630567 1627783  203920 1629018 1627832],1610612744,[ 203952  203110 1626172 1629673  201939],1
1,1610612761,[1629018 1627832 1630625 1630173 1628449],1610612744,[1626172  201939  203490 1627814 1629308],2
2,1610612761,[1630567 1627783  203920 1629018 1627832],1610612744,[ 203952  203110 1626172 1629673  201939],3
3,1610612761,[1629004 1630625 1630173 1628449 1630201],1610612744,[ 201939 1629185  203490 1627814 1629308],4
