,TEAM_ID_1,TEAM_1_PLAYERS,TEAM_ID_2,TEAM_2_PLAYERS,PERIOD
0,1610612746,[ 202695  202694 1627826  202331 1629013],1610612742,[1627827  204001 1628467  203501 1629029],1
1,1610612746,[1627826  202331  101150  202704  203210],1610612742,[1628467 1629029  203552 1626246 1626153],2
2,1610612746,[ 202695  202694 1627826  202331 1629013],1610612742,[1627827  204001 1628467  203501 1629029],3
3,1610612746,[ 202331 1626149  101150  202704  203210],1610612742,[ 204001 1628467 1629029  203504  203552],4
