,t1_pm,stint_start,t1_points_scored,t2_id,t2_points_scored,t1_players,t2_players,stint_end,t2_pm,t1_id,margin_per_100,num_poss
0,0,0,8,1610612757,8,"[202331, 202694, 1627826, 1628379, 202704]","[203503, 203496, 203994, 1626181, 1628372]",233,0,1610612746,0.0,15.0
1,4,234,14,1610612757,10,"[202331, 202694, 1627826, 1628379, 202704]","[203503, 203496, 203994, 1626181, 1628372]",370,-4,1610612746,16.0,25.0
2,4,371,19,1610612757,15,"[202331, 202694, 1627826, 1628379, 202704]","[1626181, 1628372, 203469, 203496, 203503]",501,-4,1610612746,11.11111111111111,36.0
3,3,502,22,1610612757,19,"[1627826, 1630527, 202331, 202694, 202704]","[1626181, 1628372, 203469, 203496, 203503]",587,-3,1610612746,6.976744186046512,43.0
4,1,588,27,1610612757,26,"[1628392, 1629611, 1630527, 202331, 202339]","[1626181, 1626204, 1628372, 203463, 203469]",719,-1,1610612746,1.9230769230769231,52.0
5,6,720,34,1610612757,28,"[1628379, 1628392, 1629611, 1630527, 202339]","[1626181, 1626204, 1628372, 203463, 203469]",861,-6,1610612746,9.67741935483871,62.0
6,6,862,36,1610612757,30,"[1628379, 1630527, 1628392, 202339, 1629611]","[203503, 203994, 203463, 1626204, 1629604]",933,-6,1610612746,9.090909090909092,66.0
7,6,934,36,1610612757,30,"[1627826, 1628379, 1629611, 1630527, 202339]","[203503, 203994, 203463, 1626204, 1629604]",963,-6,1610612746,8.823529411764707,68.0
8,0,964,36,1610612757,36,"[1627826, 1628379, 202331, 202694, 202704]","[1626204, 1628372, 203463, 203503, 203994]",1031,0,1610612746,0.0,72.0
9,-2,1032,36,1610612757,38,"[1627826, 1628379, 202331, 202694, 202704]","[1626181, 1626204, 1628372, 203503, 203994]",1101,2,1610612746,-2.631578947368421,76.0
10,1,1102,41,1610612757,40,"[1627826, 1628379, 202331, 202694, 202704]","[1626181, 1626204, 1628372, 203496, 203994]",1221,-1,1610612746,1.1904761904761905,84.0
11,3,1222,43,1610612757,40,"[1627826, 1628379, 202331, 202694, 202704]","[1626181, 1626204, 1628372, 203469, 203496]",1266,-3,1610612746,3.4482758620689653,87.0
12,3,1267,43,1610612757,40,"[1627826, 1628379, 202331, 202694, 202704]","[1626181, 1626204, 1628372, 203496, 203503]",1308,-3,1610612746,3.3707865168539324,89.0
13,-1,1309,48,1610612757,49,"[1627826, 1630527, 202331, 202339, 202694]","[1626181, 1626204, 1628372, 203496, 203503]",1439,1,1610612746,-1.0101010101010102,99.0
14,0,1440,62,1610612757,62,"[1627826, 1630527, 202331, 202339, 202694]","[1626181, 1626204, 1628372, 203469, 203503]",1734,0,1610612746,0.0,120.0
15,2,1735,64,1610612757,62,"[202331, 202694, 1627826, 1628379, 202704]","[203503, 203496, 203994, 1626181, 1628372]",1771,-2,1610612746,1.6528925619834711,121.0
16,3,1772,68,1610612757,65,"[1628379, 1628392, 202331, 202694, 202704]","[203503, 203496, 203994, 1626181, 1628372]",1855,-3,1610612746,2.34375,128.0
17,4,1856,71,1610612757,67,"[1628379, 201586, 202331, 202694, 202704]","[203503, 203496, 203994, 1626181, 1628372]",1899,-4,1610612746,3.0534351145038165,131.0
18,6,1900,75,1610612757,69,"[1630527, 201586, 202331, 202694, 202704]","[203503, 203496, 203994, 1626181, 1628372]",1965,-6,1610612746,4.37956204379562,137.0
19,3,1966,75,1610612757,72,"[1629611, 1630527, 201586, 202331, 202704]","[1626181, 1626204, 1628372, 203503, 203994]",2044,-3,1610612746,2.112676056338028,142.0
20,3,2045,77,1610612757,74,"[1629611, 1630527, 201586, 202331, 202339]","[1626181, 1626204, 1629604, 203503, 203994]",2156,-3,1610612746,2.027027027027027,148.0
21,1,2157,77,1610612757,76,"[1628379, 1629611, 1630527, 201586, 202339]","[1626181, 1626204, 1629604, 203503, 203994]",2190,-1,1610612746,0.6666666666666667,150.0
22,3,2191,82,1610612757,79,"[1628379, 1630527, 202339, 1629611, 201586]","[203503, 1626181, 203469, 1626204, 1629604]",2299,-3,1610612746,1.8867924528301887,159.0
23,3,2300,82,1610612757,79,"[1628379, 1628392, 1629611, 1630527, 202339]","[203503, 1626181, 203469, 1626204, 1629604]",2315,-3,1610612746,1.875,160.0
24,5,2316,84,1610612757,79,"[1628379, 1628392, 1629611, 202331, 202704]","[203503, 1626181, 203469, 1626204, 1629604]",2412,-5,1610612746,2.9940119760479043,167.0
25,3,2413,84,1610612757,81,"[1628379, 1628392, 1629611, 202331, 202704]","[1626181, 1626204, 1628372, 203469, 203496]",2474,-3,1610612746,1.744186046511628,172.0
26,5,2475,86,1610612757,81,"[1628379, 1628392, 1629611, 202331, 202704]","[1626181, 1626204, 1628372, 203496, 203994]",2513,-5,1610612746,2.8901734104046244,173.0
27,4,2514,92,1610612757,88,"[1628379, 1628392, 202331, 202694, 202704]","[1626181, 1626204, 1628372, 203496, 203994]",2730,-4,1610612746,2.13903743315508,187.0
28,9,2731,97,1610612757,88,"[1627826, 1628379, 202331, 202694, 202704]","[1626181, 1626204, 1628372, 203496, 203994]",2793,-9,1610612746,4.712041884816754,191.0
29,9,2794,97,1610612757,88,"[1628379, 1628392, 202331, 202694, 202704]","[1626181, 1626204, 1628372, 203496, 203994]",2804,-9,1610612746,4.6875,192.0
30,12,2805,102,1610612757,90,"[1628392, 1629611, 202331, 202694, 202704]","[1626181, 1626204, 1628372, 203496, 203994]",2860,-12,1610612746,6.122448979591836,196.0
31,12,2861,102,1610612757,90,"[1627826, 1629611, 202331, 202694, 202704]","[1626181, 1626204, 1628372, 203496, 203994]",9999999,-12,1610612746,6.091370558375635,197.0
