,team1_id,team1_player1,team1_player2,team1_player3,team1_player4,team1_player5,team2_id,team2_player1,team2_player2,team2_player3,team2_player4,team2_player5,game_id,period,possession_start,possession_end,team1_points,team2_points,possession_team
0,1610612751,203925,1627752,1628386,1627747,203915,1610612755,203922,202699,203954,1626196,203526,0021900822,1,0,25,0,0,1610612755
1,1610612751,203925,1627752,1628386,1627747,203915,1610612755,203922,202699,203954,1626196,203526,0021900822,1,36,36,3,0,1610612751
2,1610612751,203925,1627752,1628386,1627747,203915,1610612755,203922,202699,203954,1626196,203526,0021900822,1,54,54,0,2,1610612755
3,1610612751,203925,1627752,1628386,1627747,203915,1610612755,203922,202699,203954,1626196,203526,0021900822,1,67,69,0,0,1610612751
4,1610612751,203925,1627752,1628386,1627747,203915,1610612755,203922,202699,203954,1626196,203526,0021900822,1,75,75,0,2,1610612755
5,1610612751,203925,1627752,1628386,1627747,203915,1610612755,203922,202699,203954,1626196,203526,0021900822,1,92,96,0,0,1610612751
6,1610612751,203925,1627752,1628386,1627747,203915,1610612755,203922,202699,203954,1626196,203526,0021900822,1,99,99,0,2,1610612755
7,1610612751,203925,1627752,1628386,1627747,203915,1610612755,203922,202699,203954,1626196,203526,0021900822,1,115,115,0,0,1610612751
8,1610612751,203925,1627752,1628386,1627747,203915,1610612755,203922,202699,203954,1626196,203526,0021900822,1,118,118,0,2,1610612755
9,1610612751,203925,1627752,1628386,1627747,203915,1610612755,203922,202699,203954,1626196,203526,0021900822,1,119,137,0,0,1610612751
10,1610612751,203925,1627752,1628386,1627747,203915,1610612755,203922,202699,203954,1626196,203526,0021900822,1,142,142,0,3,1610612755
11,1610612751,203925,1627752,1628386,1627747,203915,1610612755,203922,202699,203954,1626196,203526,0021900822,1,155,158,0,0,1610612751
12,1610612751,203925,1627752,1628386,1627747,203915,1610612755,203922,202699,203954,1626196,203526,0021900822,1,168,168,0,2,1610612755
13,1610612751,203925,1627752,1628386,1627747,203915,1610612755,203922,202699,203954,1626196,203526,0021900822,1,180,180,0,0,1610612751
14,1610612751,203925,1627752,1628386,1627747,203915,1610612755,203922,202699,203954,1626196,203526,0021900822,1,184,196,0,0,1610612755
15,1610612751,203925,1627752,1628386,1627747,203915,1610612755,203922,202699,203954,1626196,203526,0021900822,1,207,212,1,0,1610612751
16,1610612751,203925,1627752,1628386,1627747,203915,1610612755,203922,202699,203954,1626196,203526,0021900822,1,222,222,0,2,1610612755
17,1610612751,203925,1627752,1628386,1627747,203915,1610612755,203922,202699,203954,1626196,203526,0021900822,1,234,237,0,0,1610612751
18,1610612751,203925,1627752,1628386,1627747,203915,1610612755,203922,202699,203954,1626196,203526,0021900822,1,249,249,0,3,1610612755
19,1610612751,203925,1627752,1628386,1627747,203915,1610612755,203922,202699,203954,1626196,203526,0021900822,1,266,279,0,0,1610612751
20,1610612751,203925,1627752,1628386,1627747,203915,1610612755,203922,202699,203954,1626196,203526,0021900822,1,293,293,0,2,1610612755
21,1610612751,203925,1627752,1628386,1627747,203915,1610612755,203922,202699,203954,1626196,203526,0021900822,1,311,312,0,0,1610612751
22,1610612751,203925,1627752,1628386,1627747,203915,1610612755,203922,202699,203954,1626196,203526,0021900822,1,321,323,0,0,1610612755
23,1610612751,203925,1627752,1628386,1627747,203915,1610612755,203922,202699,203954,1626196,203526,0021900822,1,335,338,0,0,1610612751
24,1610612751,203925,1627752,1628386,1627747,203915,1610612755,203922,202699,203954,1626196,203526,0021900822,1,350,350,0,0,1610612755
25,1610612751,203925,1627752,1628386,1627747,203915,1610612755,203922,202699,203954,1626196,203526,0021900822,1,350,365,2,0,1610612751
26,1610612751,1627752,201599,202066,203915,203925,1610612755,1629680,201143,202692,202699,203526,0021900822,1,375,375,0,2,1610612755
27,1610612751,1627752,201599,202066,203915,203925,1610612755,1629680,201143,202692,202699,203526,0021900822,1,390,408,0,0,1610612751
28,1610612751,1627752,201599,202066,203915,203925,1610612755,1629680,201143,202692,202699,203526,0021900822,1,415,418,0,0,1610612755
29,1610612751,1627752,201599,202066,203915,203925,1610612755,1629680,201143,202692,202699,203526,0021900822,1,424,430,3,0,1610612751
30,1610612751,201163,201599,202066,203915,203925,1610612755,1629680,201143,202692,202699,203526,0021900822,1,444,447,0,0,1610612755
31,1610612751,201163,201599,202066,203915,203925,1610612755,1629680,201143,202692,202699,203526,0021900822,1,461,461,3,0,1610612751
32,1610612751,201163,201599,202066,203915,203925,1610612755,1629680,201143,202692,202699,203526,0021900822,1,478,478,0,2,1610612755
33,1610612751,1627789,201163,201599,202066,203915,1610612755,1629680,201143,202692,202699,203526,0021900822,1,491,494,0,0,1610612751
34,1610612751,1627789,201163,201599,202066,203915,1610612755,1629680,201143,202692,202699,203526,0021900822,1,499,502,0,0,1610612755
35,1610612751,1627789,201163,201599,202066,203915,1610612755,1629680,201143,202692,202699,203526,0021900822,1,512,514,0,0,1610612751
36,1610612751,1627789,201163,201599,202066,203915,1610612755,1629680,201143,202692,202699,203526,0021900822,1,519,519,0,0,1610612755
37,1610612751,1627747,1627789,201163,201599,202066,1610612755,1626196,1629680,201143,202692,202699,0021900822,1,527,527,3,0,1610612751
38,1610612751,1627747,1627789,201163,201599,202066,1610612755,1626196,1629680,201143,202692,202699,0021900822,1,545,548,0,0,1610612755
39,1610612751,1627747,1627789,201163,201599,202066,1610612755,1626196,1629680,201143,202692,202699,0021900822,1,557,557,3,0,1610612751
40,1610612751,1627747,1627789,201163,201599,202066,1610612755,1626196,1629680,201143,202692,202699,0021900822,1,570,572,0,0,1610612755
41,1610612751,1627747,1627789,201163,201599,202066,1610612755,1626196,1629680,201143,202692,202699,0021900822,1,580,582,0,0,1610612751
42,1610612751,1627747,1627789,201163,201599,202066,1610612755,1626196,1629680,201143,202692,202699,0021900822,1,588,603,0,0,1610612755
43,1610612751,1627747,1627789,201163,201599,202066,1610612755,1626196,1627788,1629680,202699,203954,0021900822,1,622,622,0,0,1610612751
44,1610612751,1627747,1627789,201163,201599,202066,1610612755,1626196,1627788,1629680,202699,203954,0021900822,1,628,628,0,2,1610612755
45,1610612751,1627747,1627789,201163,201599,202066,1610612755,1626196,1627788,1629680,202699,203954,0021900822,1,649,649,2,0,1610612751
46,1610612751,1627747,1627789,201163,201599,202066,1610612755,1626196,1627788,1629680,202699,203954,0021900822,1,673,675,0,0,1610612755
47,1610612751,1627747,1627789,201163,201599,202066,1610612755,1626196,1627788,1629680,202699,203954,0021900822,1,689,689,0,0,1610612751
48,1610612751,1627747,1627789,201163,201599,202066,1610612755,1626196,1627788,1629680,202699,203954,0021900822,1,709,709,0,0,1610612755
49,1610612751,1627747,201163,201599,202066,203925,1610612755,1626196,1627788,1629680,202699,203954,0021900822,1,716,719,0,0,1610612751
50,1610612751,1627747,201599,202066,201163,1627789,1610612755,203922,203954,1626196,201143,1627788,0021900822,2,720,756,3,0,1610612751
51,1610612751,1627747,201599,202066,201163,1627789,1610612755,203922,203954,1626196,201143,1627788,0021900822,2,783,785,0,0,1610612755
52,1610612751,1627747,201599,202066,201163,1627789,1610612755,203922,203954,1626196,201143,1627788,0021900822,2,788,788,2,0,1610612751
53,1610612751,1627747,201599,202066,201163,1627789,1610612755,203922,203954,1626196,201143,1627788,0021900822,2,813,816,0,0,1610612755
54,1610612751,1627747,201599,202066,201163,1627789,1610612755,203922,203954,1626196,201143,1627788,0021900822,2,830,830,3,0,1610612751
55,1610612751,1627747,201599,202066,201163,1627789,1610612755,203922,203954,1626196,201143,1627788,0021900822,2,831,853,0,0,1610612755
56,1610612751,1627747,201599,202066,201163,1627789,1610612755,203922,203954,1626196,201143,1627788,0021900822,2,861,861,3,0,1610612751
57,1610612751,1627747,201599,202066,201163,1627789,1610612755,203922,203954,1626196,201143,1627788,0021900822,2,872,872,0,0,1610612755
58,1610612751,1627747,201599,202066,201163,1627789,1610612755,203922,203954,1626196,201143,1627788,0021900822,2,876,910,2,0,1610612751
59,1610612751,1627747,201599,202066,201163,1627789,1610612755,1627788,201143,203526,203922,203954,0021900822,2,918,932,0,0,1610612755
60,1610612751,1627747,201599,202066,201163,1627789,1610612755,1627788,201143,203526,203922,203954,0021900822,2,946,946,3,0,1610612751
61,1610612751,1627747,201599,202066,201163,1627789,1610612755,1627788,201143,203526,203922,203954,0021900822,2,948,962,0,2,1610612755
62,1610612751,1627747,201599,202066,201163,1627789,1610612755,1627788,202692,202699,203526,203954,0021900822,2,981,981,1,0,1610612751
63,1610612751,1627747,201599,202066,201163,1627789,1610612755,1627788,202692,202699,203526,203954,0021900822,2,994,994,0,0,1610612755
64,1610612751,1627747,201599,202066,201163,1627789,1610612755,1627788,202692,202699,203526,203954,0021900822,2,1008,1008,2,0,1610612751
65,1610612751,1627747,201599,202066,201163,1627789,1610612755,1627788,202692,202699,203526,203954,0021900822,2,1023,1027,0,0,1610612755
66,1610612751,1627747,201599,202066,201163,1627789,1610612755,1627788,202692,202699,203526,203954,0021900822,2,1037,1040,2,0,1610612751
67,1610612751,1627747,201599,202066,201163,1627789,1610612755,1627788,202692,202699,203526,203954,0021900822,2,1055,1070,0,0,1610612755
68,1610612751,1627747,201599,202066,201163,1627789,1610612755,1627788,202692,202699,203526,203954,0021900822,2,1075,1075,3,0,1610612751
69,1610612751,1627747,201599,202066,201163,1627789,1610612755,1627788,202692,202699,203526,203954,0021900822,2,1098,1098,0,0,1610612755
70,1610612751,1627747,1627789,1628386,201163,202066,1610612755,1629680,201143,202692,202699,203526,0021900822,2,1109,1111,0,0,1610612751
71,1610612751,1627747,1627789,1628386,201163,202066,1610612755,1629680,201143,202692,202699,203526,0021900822,2,1127,1130,0,0,1610612755
72,1610612751,1627747,1627789,1628386,201163,202066,1610612755,1629680,201143,202692,202699,203526,0021900822,2,1137,1137,0,0,1610612751
73,1610612751,1627747,1627789,1628386,201163,202066,1610612755,1629680,201143,202692,202699,203526,0021900822,2,1149,1151,0,2,1610612755
74,1610612751,1627752,1628386,202066,203915,203925,1610612755,1629680,201143,202692,202699,203526,0021900822,2,1151,1165,2,0,1610612751
75,1610612751,1627752,1628386,202066,203915,203925,1610612755,1629680,201143,202692,202699,203526,0021900822,2,1179,1179,0,0,1610612755
76,1610612751,1627752,1628386,202066,203915,203925,1610612755,1629680,201143,202692,202699,203526,0021900822,2,1192,1192,0,0,1610612751
77,1610612751,1627752,1628386,202066,203915,203925,1610612755,1629680,201143,202692,202699,203526,0021900822,2,1204,1207,0,0,1610612755
78,1610612751,1627752,1628386,202066,203915,203925,1610612755,1629680,201143,202692,202699,203526,0021900822,2,1214,1225,2,0,1610612751
79,1610612751,1627752,1628386,202066,203915,203925,1610612755,1626196,1629680,201143,202692,202699,0021900822,2,1238,1242,0,0,1610612755
80,1610612751,1627752,1628386,202066,203915,203925,1610612755,1626196,1629680,201143,202692,202699,0021900822,2,1251,1251,2,0,1610612751
81,1610612751,1627752,1628386,202066,203915,203925,1610612755,1626196,1629680,201143,202692,202699,0021900822,2,1252,1267,0,3,1610612755
82,1610612751,1627752,1628386,202066,203915,203925,1610612755,1626196,1629680,202692,202699,203954,0021900822,2,1282,1282,0,0,1610612751
83,1610612751,1627752,201599,202066,203915,203925,1610612755,1626196,1629680,202692,202699,203954,0021900822,2,1300,1300,0,2,1610612755
84,1610612751,1627752,201599,202066,203915,203925,1610612755,1626196,1629680,202692,202699,203954,0021900822,2,1318,1318,0,0,1610612751
85,1610612751,1627747,1627752,201599,203915,203925,1610612755,1626196,1629680,202692,202699,203954,0021900822,2,1330,1330,0,2,1610612755
86,1610612751,1627747,1627752,201599,203915,203925,1610612755,1626196,1629680,202692,202699,203954,0021900822,2,1347,1347,0,0,1610612751
87,1610612751,1627747,1627752,201599,203915,203925,1610612755,1626196,1629680,202692,202699,203954,0021900822,2,1356,1356,0,0,1610612755
88,1610612751,1627747,1627752,201599,203915,203925,1610612755,1626196,1629680,202692,202699,203954,0021900822,2,1372,1372,0,0,1610612751
89,1610612751,1627747,1627752,201599,203915,203925,1610612755,1626196,1629680,202692,202699,203954,0021900822,2,1373,1389,0,2,1610612755
90,1610612751,1627747,1627752,201599,203915,203925,1610612755,1626196,1629680,202692,202699,203954,0021900822,2,1405,1405,2,0,1610612751
91,1610612751,1627747,1627752,201599,203915,203925,1610612755,1626196,1629680,202692,202699,203954,0021900822,2,1410,1410,0,3,1610612755
92,1610612751,1627747,1627752,201599,203915,203925,1610612755,1626196,1629680,202692,202699,203954,0021900822,2,1433,1439,0,0,1610612755
93,1610612751,203925,1627752,1627747,203915,201599,1610612755,203922,202699,203954,1626196,203526,0021900822,3,1440,1458,0,0,1610612751
94,1610612751,203925,1627752,1627747,203915,201599,1610612755,203922,202699,203954,1626196,203526,0021900822,3,1469,1474,0,2,1610612755
95,1610612751,203925,1627752,1627747,203915,201599,1610612755,203922,202699,203954,1626196,203526,0021900822,3,1495,1504,0,0,1610612751
96,1610612751,203925,1627752,1627747,203915,201599,1610612755,203922,202699,203954,1626196,203526,0021900822,3,1510,1510,0,2,1610612755
97,1610612751,203925,1627752,1627747,203915,201599,1610612755,203922,202699,203954,1626196,203526,0021900822,3,1533,1536,3,0,1610612751
98,1610612751,203925,1627752,1627747,203915,201599,1610612755,203922,202699,203954,1626196,203526,0021900822,3,1550,1550,0,2,1610612755
99,1610612751,203925,1627752,1627747,203915,201599,1610612755,203922,202699,203954,1626196,203526,0021900822,3,1565,1577,2,0,1610612751
100,1610612751,203925,1627752,1627747,203915,201599,1610612755,203922,202699,203954,1626196,203526,0021900822,3,1594,1594,0,2,1610612755
101,1610612751,203925,1627752,1627747,203915,201599,1610612755,203922,202699,203954,1626196,203526,0021900822,3,1619,1619,2,0,1610612751
102,1610612751,203925,1627752,1627747,203915,201599,1610612755,203922,202699,203954,1626196,203526,0021900822,3,1630,1638,0,2,1610612755
103,1610612751,203925,1627752,1627747,203915,201599,1610612755,203922,202699,203954,1626196,203526,0021900822,3,1650,1650,0,0,1610612751
104,1610612751,203925,1627752,1627747,203915,201599,1610612755,203922,202699,203954,1626196,203526,0021900822,3,1661,1663,0,0,1610612755
105,1610612751,203925,1627752,1627747,203915,201599,1610612755,203922,202699,203954,1626196,203526,0021900822,3,1668,1668,2,0,1610612751
106,1610612751,203925,1627752,1627747,203915,201599,1610612755,203922,202699,203954,1626196,203526,0021900822,3,1686,1686,0,0,1610612755
107,1610612751,203925,1627752,1627747,203915,201599,1610612755,203922,202699,203954,1626196,203526,0021900822,3,1693,1693,2,0,1610612751
108,1610612751,203925,1627752,1627747,203915,201599,1610612755,203922,202699,203954,1626196,203526,0021900822,3,1693,1709,0,2,1610612755
109,1610612751,203925,1627752,1627747,203915,201599,1610612755,1626196,202692,202699,203526,203954,0021900822,3,1731,1734,0,0,1610612751
110,1610612751,203925,1627752,1627747,203915,201599,1610612755,1626196,202692,202699,203526,203954,0021900822,3,1739,1755,0,2,1610612755
111,1610612751,203925,1627752,1627747,203915,201599,1610612755,1626196,202692,202699,203526,203954,0021900822,3,1768,1771,0,0,1610612751
112,1610612751,203925,1627752,1627747,203915,201599,1610612755,1626196,202692,202699,203526,203954,0021900822,3,1789,1792,0,0,1610612755
113,1610612751,203925,1627752,1627747,203915,201599,1610612755,1626196,202692,202699,203526,203954,0021900822,3,1799,1801,0,0,1610612751
114,1610612751,203925,1627752,1627747,203915,201599,1610612755,1626196,202692,202699,203526,203954,0021900822,3,1811,1815,0,0,1610612755
115,1610612751,203925,1627752,1627747,203915,201599,1610612755,1626196,202692,202699,203526,203954,0021900822,3,1816,1820,1,0,1610612751
116,1610612751,1627752,1628386,202066,203915,203925,1610612755,1629003,1629680,201143,202692,202699,0021900822,3,1838,1838,0,2,1610612755
117,1610612751,1627752,1628386,202066,203915,203925,1610612755,1629003,1629680,201143,202692,202699,0021900822,3,1850,1852,0,0,1610612751
118,1610612751,1627752,1628386,202066,203915,203925,1610612755,1629003,1629680,201143,202692,202699,0021900822,3,1869,1869,0,2,1610612755
119,1610612751,1628386,201163,202066,203915,203925,1610612755,1629003,1629680,201143,202692,202699,0021900822,3,1883,1883,2,0,1610612751
120,1610612751,1628386,201163,202066,203915,203925,1610612755,1629003,1629680,201143,202692,202699,0021900822,3,1899,1901,0,0,1610612755
121,1610612751,1628386,201163,202066,203915,203925,1610612755,1629003,1629680,201143,202692,202699,0021900822,3,1907,1910,0,0,1610612751
122,1610612751,1628386,201163,202066,203915,203925,1610612755,1629003,1629680,201143,202692,202699,0021900822,3,1912,1912,0,2,1610612755
123,1610612751,1628386,201163,202066,203915,203925,1610612755,1629003,1629680,201143,202692,202699,0021900822,3,1913,1933,0,0,1610612751
124,1610612751,1628386,201163,202066,203915,203925,1610612755,1629003,1629680,201143,202692,202699,0021900822,3,1945,1945,0,2,1610612755
125,1610612751,1628386,201163,202066,203915,203925,1610612755,1629003,1629680,201143,202692,202699,0021900822,3,1953,1953,3,0,1610612751
126,1610612751,1628386,201163,202066,203915,203925,1610612755,1629003,1629680,201143,202692,202699,0021900822,3,1970,1974,0,0,1610612755
127,1610612751,1628386,201163,202066,203915,203925,1610612755,1629003,1629680,201143,202692,202699,0021900822,3,1980,1980,2,0,1610612751
128,1610612751,201163,201599,202066,203915,203925,1610612755,1627788,1629003,201143,202692,203954,0021900822,3,1992,1992,0,2,1610612755
129,1610612751,201163,201599,202066,203915,203925,1610612755,1627788,1629003,201143,202692,203954,0021900822,3,2015,2015,2,0,1610612751
130,1610612751,1627747,1627789,201163,201599,202066,1610612755,1627788,1629003,201143,202692,203954,0021900822,3,2026,2026,0,3,1610612755
131,1610612751,1627747,1627789,201163,201599,202066,1610612755,1627788,1629003,201143,202692,203954,0021900822,3,2047,2047,0,0,1610612751
132,1610612751,1627747,1627789,201163,201599,202066,1610612755,1627788,1629003,201143,202692,203954,0021900822,3,2060,2060,0,2,1610612755
133,1610612751,1627747,1627789,201163,201599,202066,1610612755,1627788,1629003,201143,202692,203954,0021900822,3,2075,2078,0,0,1610612751
134,1610612751,1627747,1627789,201163,201599,202066,1610612755,1627788,1629003,201143,202692,203954,0021900822,3,2085,2087,0,0,1610612755
135,1610612751,1627747,1627789,201163,201599,202066,1610612755,1627788,1629003,201143,202692,203954,0021900822,3,2098,2098,0,0,1610612751
136,1610612751,1627747,1627789,201163,201599,202066,1610612755,1627788,1629003,201143,202692,203954,0021900822,3,2098,2098,0,2,1610612755
137,1610612751,1627747,1627789,1628386,201163,202066,1610612755,1627788,1629003,201143,202692,203954,0021900822,3,2108,2116,2,0,1610612751
138,1610612751,1627747,1627789,1628386,201163,202066,1610612755,1627788,1629003,201143,202692,203954,0021900822,3,2125,2125,0,3,1610612755
139,1610612751,1627747,1627789,1628386,201163,202066,1610612755,1627788,1629003,201143,202692,203954,0021900822,3,2129,2129,3,0,1610612751
140,1610612751,1627747,1627789,1628386,201163,202066,1610612755,1627788,1629003,201143,202692,203954,0021900822,3,2152,2152,0,1,1610612755
141,1610612751,1627747,1628386,202066,203915,203925,1610612755,1627788,1629003,1629680,202692,203954,0021900822,3,2160,2160,0,0,1610612755
142,1610612751,1627747,201599,202066,201163,1627789,1610612755,202699,203954,1626196,203526,1627788,0021900822,4,2160,2176,0,0,1610612755
143,1610612751,1627747,201599,202066,201163,1627789,1610612755,202699,203954,1626196,203526,1627788,0021900822,4,2188,2193,0,0,1610612751
144,1610612751,1627747,201599,202066,201163,1627789,1610612755,202699,203954,1626196,203526,1627788,0021900822,4,2200,2223,0,2,1610612755
145,1610612751,1627747,201599,202066,201163,1627789,1610612755,202699,203954,1626196,203526,1627788,0021900822,4,2240,2241,0,0,1610612751
146,1610612751,1627747,201599,202066,201163,1627789,1610612755,202699,203954,1626196,203526,1627788,0021900822,4,2252,2256,0,2,1610612755
147,1610612751,1627747,201599,202066,201163,1627789,1610612755,202699,203954,1626196,203526,1627788,0021900822,4,2277,2281,0,0,1610612751
148,1610612751,1627747,201599,202066,201163,1627789,1610612755,202699,203954,1626196,203526,1627788,0021900822,4,2289,2289,0,2,1610612755
149,1610612751,1627747,201599,202066,201163,1627789,1610612755,202699,203954,1626196,203526,1627788,0021900822,4,2290,2314,2,0,1610612751
150,1610612751,1627747,201599,202066,201163,1627789,1610612755,202699,203954,1626196,203526,1627788,0021900822,4,2331,2331,0,2,1610612755
151,1610612751,1627747,201599,202066,201163,1627789,1610612755,202699,203954,1626196,203526,1627788,0021900822,4,2342,2355,2,0,1610612751
152,1610612751,1627747,201163,201599,202066,203915,1610612755,202699,203954,1626196,203526,1627788,0021900822,4,2368,2368,0,2,1610612755
153,1610612751,1627747,201163,201599,202066,203915,1610612755,202699,203954,1626196,203526,1627788,0021900822,4,2376,2389,2,0,1610612751
154,1610612751,1627747,201163,201599,202066,203915,1610612755,202699,203954,1626196,203526,1627788,0021900822,4,2407,2410,0,0,1610612755
155,1610612751,1627747,201163,201599,202066,203915,1610612755,202699,203954,1626196,203526,1627788,0021900822,4,2416,2418,0,0,1610612751
156,1610612751,1627747,201163,201599,202066,203915,1610612755,202699,203954,1626196,203526,1627788,0021900822,4,2426,2426,0,2,1610612755
157,1610612751,1627747,201163,201599,202066,203915,1610612755,202699,203954,1626196,203526,1627788,0021900822,4,2443,2443,3,0,1610612751
158,1610612751,1627747,201163,201599,202066,203915,1610612755,202699,203954,1626196,203526,1627788,0021900822,4,2458,2461,0,0,1610612755
159,1610612751,1627747,201163,201599,202066,203915,1610612755,202699,203954,1626196,203526,1627788,0021900822,4,2476,2480,0,0,1610612751
160,1610612751,1627747,201163,201599,202066,203915,1610612755,202699,203954,1626196,203526,1627788,0021900822,4,2483,2483,0,0,1610612755
161,1610612751,1627752,201599,202066,203915,203925,1610612755,1626196,1627788,1629003,201143,202699,0021900822,4,2495,2497,2,0,1610612751
162,1610612751,1627752,201599,202066,203915,203925,1610612755,1626196,1627788,1629003,201143,202699,0021900822,4,2509,2509,0,2,1610612755
163,1610612751,1627752,201599,202066,203915,203925,1610612755,1626196,1627788,1629003,201143,202699,0021900822,4,2517,2517,2,0,1610612751
164,1610612751,1627752,201599,202066,203915,203925,1610612755,1626196,1627788,1629003,201143,202699,0021900822,4,2534,2534,0,2,1610612755
165,1610612751,1627752,201599,202066,203915,203925,1610612755,1626196,1627788,1629003,201143,202699,0021900822,4,2553,2559,0,0,1610612751
166,1610612751,1627752,201163,202066,203915,203925,1610612755,1626196,1629003,201143,202692,202699,0021900822,4,2564,2564,0,0,1610612755
167,1610612751,1627752,201163,202066,203915,203925,1610612755,1626196,1629003,201143,202692,202699,0021900822,4,2573,2573,2,0,1610612751
168,1610612751,1627752,201163,202066,203915,203925,1610612755,1626196,1629003,201143,202692,202699,0021900822,4,2575,2586,0,2,1610612755
169,1610612751,1627752,201163,202066,203915,203925,1610612755,1626196,1629003,201143,202692,202699,0021900822,4,2599,2601,0,0,1610612751
170,1610612751,1627752,201163,202066,203915,203925,1610612755,1626196,1629003,201143,202692,202699,0021900822,4,2615,2620,0,0,1610612755
171,1610612751,1627752,201163,202066,203915,203925,1610612755,1626196,1629003,201143,202692,202699,0021900822,4,2626,2626,3,0,1610612751
172,1610612751,201163,201599,202066,203915,203925,1610612755,1626196,202692,202699,203526,203954,0021900822,4,2635,2635,0,0,1610612755
173,1610612751,201163,201599,202066,203915,203925,1610612755,1626196,202692,202699,203526,203954,0021900822,4,2645,2645,0,0,1610612751
174,1610612751,201163,201599,202066,203915,203925,1610612755,1626196,202692,202699,203526,203954,0021900822,4,2662,2665,0,0,1610612755
175,1610612751,201163,201599,202066,203915,203925,1610612755,1626196,202692,202699,203526,203954,0021900822,4,2672,2672,2,0,1610612751
176,1610612751,201163,201599,202066,203915,203925,1610612755,1626196,202692,202699,203526,203954,0021900822,4,2691,2694,0,0,1610612755
177,1610612751,201163,201599,202066,203915,203925,1610612755,1626196,202692,202699,203526,203954,0021900822,4,2699,2712,1,0,1610612751
178,1610612751,201163,201599,202066,203915,203925,1610612755,1626196,202692,202699,203526,203954,0021900822,4,2723,2726,0,0,1610612755
179,1610612751,201163,201599,202066,203915,203925,1610612755,1626196,202692,202699,203526,203954,0021900822,4,2744,2744,2,0,1610612751
180,1610612751,201163,201599,202066,203915,203925,1610612755,1626196,202692,202699,203526,203954,0021900822,4,2751,2752,0,2,1610612755
181,1610612751,201163,201599,202066,203915,203925,1610612755,1626196,202692,202699,203526,203954,0021900822,4,2774,2777,0,0,1610612751
182,1610612751,201163,201599,202066,203915,203925,1610612755,1626196,202692,202699,203526,203954,0021900822,4,2777,2783,0,2,1610612755
183,1610612751,1627747,201163,201599,203915,203925,1610612755,1626196,1629680,202692,202699,203954,0021900822,4,2807,2810,0,0,1610612751
184,1610612751,1627747,201163,201599,203915,203925,1610612755,1626196,1629680,202692,202699,203954,0021900822,4,2813,2815,0,0,1610612755
185,1610612751,1627747,201163,201599,203915,203925,1610612755,1626196,1629680,202692,202699,203954,0021900822,4,2832,2832,0,0,1610612751
186,1610612751,1627747,201163,201599,203915,203925,1610612755,1626196,1629680,202692,202699,203954,0021900822,4,2845,2845,0,2,1610612755
187,1610612751,1628386,201163,201599,203915,203925,1610612755,1626196,1629003,1629680,202699,203954,0021900822,4,2845,2850,2,0,1610612751
188,1610612751,1627747,201163,202066,203915,203925,1610612755,1626196,1629003,1629680,202699,203954,0021900822,4,2864,2864,0,2,1610612755
189,1610612751,1627747,1628386,201163,203915,203925,1610612755,1626196,1629003,1629680,202699,203954,0021900822,4,2864,2880,0,0,1610612755
190,1610612751,203925,1627747,203915,201599,201163,1610612755,202699,203954,1626196,202692,1629003,0021900822,5,2880,2892,0,0,1610612755
191,1610612751,203925,1627747,203915,201599,201163,1610612755,202699,203954,1626196,202692,1629003,0021900822,5,2909,2912,0,0,1610612751
192,1610612751,203925,1627747,203915,201599,201163,1610612755,202699,203954,1626196,202692,1629003,0021900822,5,2921,2924,0,0,1610612755
193,1610612751,203925,1627747,203915,201599,201163,1610612755,202699,203954,1626196,202692,1629003,0021900822,5,2941,2944,0,0,1610612751
194,1610612751,203925,1627747,203915,201599,201163,1610612755,202699,203954,1626196,202692,1629003,0021900822,5,2952,2956,0,0,1610612755
195,1610612751,203925,1627747,203915,201599,201163,1610612755,202699,203954,1626196,202692,1629003,0021900822,5,2958,2958,1,0,1610612751
196,1610612751,203925,1627747,203915,201599,201163,1610612755,202699,203954,1626196,202692,1629003,0021900822,5,2978,2978,0,3,1610612755
197,1610612751,203925,1627747,203915,201599,201163,1610612755,202699,203954,1626196,202692,1629003,0021900822,5,2995,2995,0,0,1610612751
198,1610612751,203925,1627747,203915,201599,201163,1610612755,202699,203954,1626196,202692,1629003,0021900822,5,3009,3009,0,0,1610612755
199,1610612751,203925,1627747,203915,201599,201163,1610612755,202699,203954,1626196,202692,1629003,0021900822,5,3031,3031,0,0,1610612751
200,1610612751,203925,1627747,203915,201599,201163,1610612755,202699,203954,1626196,202692,1629003,0021900822,5,3041,3041,0,2,1610612755
201,1610612751,203925,1627747,203915,201599,201163,1610612755,202699,203954,1626196,202692,1629003,0021900822,5,3068,3071,0,0,1610612751
202,1610612751,203925,1627747,203915,201599,201163,1610612755,202699,203954,1626196,202692,1629003,0021900822,5,3088,3088,0,2,1610612755
203,1610612751,203925,1627747,203915,201599,201163,1610612755,202699,203954,1626196,202692,1629003,0021900822,5,3088,3098,0,0,1610612751
204,1610612751,1627747,1627752,201163,203915,203925,1610612755,202699,203954,1626196,202692,1629003,0021900822,5,3115,3118,0,0,1610612755
205,1610612751,1627747,1627752,201163,203915,203925,1610612755,202699,203954,1626196,202692,1629003,0021900822,5,3121,3122,0,0,1610612751
206,1610612751,1627747,1627752,201163,203915,203925,1610612755,202699,203954,1626196,202692,1629003,0021900822,5,3139,3139,0,2,1610612755
207,1610612751,1627747,1627752,201163,203915,203925,1610612755,202699,203954,1626196,202692,1629003,0021900822,5,3149,3154,0,0,1610612751
208,1610612751,1627747,1627752,201163,203915,203925,1610612755,202699,203954,1626196,202692,1629003,0021900822,5,3179,3179,0,0,1610612755
