,TEAM_ID_1,TEAM_1_PLAYERS,TEAM_ID_2,TEAM_2_PLAYERS,PERIOD
0,1610612759,[1629640 1629677 1629234 1628401 1627749],1610612756,[1628969  203109 1629028 1626164  101108],1
1,1610612759,[1627749 1630170 1629022  203476  200752],1610612756,[ 101108 1629661  203967 1628470 1628975],2
2,1610612759,[1629640 1629677 1629234 1628401 1627749],1610612756,[1628969  203109 1629028 1626164  101108],3
3,1610612759,[1627749 1630170 1629022  203476  200752],1610612756,[1628969 1626166 1629661 1628470 1628975],4
