,team1_id,team1_player1,team1_player2,team1_player3,team1_player4,team1_player5,team2_id,team2_player1,team2_player2,team2_player3,team2_player4,team2_player5,game_id,period,possession_start,possession_end,team1_points,team2_points,possession_team
0,1610612758,1629610,1628963,1626158,1627741,1628368,1610612749,203114,203507,201572,1628978,201571,0022000471,1,0,20,2,0,1610612758
1,1610612758,1629610,1628963,1626158,1627741,1628368,1610612749,203114,203507,201572,1628978,201571,0022000471,1,43,47,0,0,1610612749
2,1610612758,1629610,1628963,1626158,1627741,1628368,1610612749,203114,203507,201572,1628978,201571,0022000471,1,50,53,0,0,1610612758
3,1610612758,1629610,1628963,1626158,1627741,1628368,1610612749,203114,203507,201572,1628978,201571,0022000471,1,57,60,0,0,1610612749
4,1610612758,1629610,1628963,1626158,1627741,1628368,1610612749,203114,203507,201572,1628978,201571,0022000471,1,66,66,3,0,1610612758
5,1610612758,1629610,1628963,1626158,1627741,1628368,1610612749,203114,203507,201572,1628978,201571,0022000471,1,86,90,0,1,1610612749
6,1610612758,1629610,1628963,1626158,1627741,1628368,1610612749,203114,203507,201572,1628978,201571,0022000471,1,103,106,0,0,1610612758
7,1610612758,1629610,1628963,1626158,1627741,1628368,1610612749,203114,203507,201572,1628978,201571,0022000471,1,110,119,0,0,1610612749
8,1610612758,1629610,1628963,1626158,1627741,1628368,1610612749,203114,203507,201572,1628978,201571,0022000471,1,125,130,0,0,1610612758
9,1610612758,1629610,1628963,1626158,1627741,1628368,1610612749,203114,203507,201572,1628978,201571,0022000471,1,132,132,0,2,1610612749
10,1610612758,1629610,1628963,1626158,1627741,1628368,1610612749,203114,203507,201572,1628978,201571,0022000471,1,149,149,2,0,1610612758
11,1610612758,1629610,1628963,1626158,1627741,1628368,1610612749,203114,203507,201572,1628978,201571,0022000471,1,172,175,0,0,1610612749
12,1610612758,1629610,1628963,1626158,1627741,1628368,1610612749,203114,203507,201572,1628978,201571,0022000471,1,180,184,0,0,1610612758
13,1610612758,1629610,1628963,1626158,1627741,1628368,1610612749,203114,203507,201572,1628978,201571,0022000471,1,196,196,0,2,1610612749
14,1610612758,1629610,1628963,1626158,1627741,1628368,1610612749,203114,203507,201572,1628978,201571,0022000471,1,204,204,0,0,1610612758
15,1610612758,1629610,1628963,1626158,1627741,1628368,1610612749,203114,203507,201572,1628978,201571,0022000471,1,209,209,0,2,1610612749
16,1610612758,1629610,1628963,1626158,1627741,1628368,1610612749,203114,203507,201572,1628978,201571,0022000471,1,232,235,0,0,1610612758
17,1610612758,1629610,1628963,1626158,1627741,1628368,1610612749,203114,203507,201572,1628978,201571,0022000471,1,242,242,0,1,1610612749
18,1610612758,1629610,1628963,1626158,1627741,1628368,1610612749,203114,203507,201572,1628978,201571,0022000471,1,251,251,3,0,1610612758
19,1610612758,1629610,1628963,1626158,1627741,1628368,1610612749,203114,203507,201572,1628978,201571,0022000471,1,265,268,0,0,1610612749
20,1610612758,1629610,1628963,1626158,1627741,1628368,1610612749,203114,203507,201572,1628978,201571,0022000471,1,276,276,2,0,1610612758
21,1610612758,1629610,1628963,1626158,1627741,1628368,1610612749,203114,203507,201572,1628978,201571,0022000471,1,276,295,0,2,1610612749
22,1610612758,1629610,1628963,1626158,1627741,1628368,1610612749,1626192,201571,201572,203114,203507,0022000471,1,314,318,0,0,1610612758
23,1610612758,1629610,1628963,1626158,1627741,1628368,1610612749,1626192,201571,201572,203114,203507,0022000471,1,324,324,0,2,1610612749
24,1610612758,1629610,1628963,1626158,1627741,1628368,1610612749,1626192,201571,201572,203114,203507,0022000471,1,336,357,0,0,1610612758
25,1610612758,1629610,1628963,1626158,1627741,1628368,1610612749,1626192,201571,201572,203114,203507,0022000471,1,360,360,0,3,1610612749
26,1610612758,1629610,1628963,1626158,1627741,1628368,1610612749,1626192,201571,201572,203114,203507,0022000471,1,360,369,2,0,1610612758
27,1610612758,1627741,1628368,1628963,1629610,202355,1610612749,1626171,1626192,1627854,201571,203507,0022000471,1,384,395,0,0,1610612749
28,1610612758,1627741,1628368,1628963,1629610,202355,1610612749,1626171,1626192,1627854,201571,203507,0022000471,1,403,403,2,0,1610612758
29,1610612758,1627741,1628368,1628963,1629610,202355,1610612749,1626171,1626192,1627854,201571,203507,0022000471,1,427,433,0,2,1610612749
30,1610612758,1627741,1628368,1630169,202355,203953,1610612749,1626171,1626192,1627854,203507,203648,0022000471,1,446,449,0,0,1610612758
31,1610612758,1627741,1628368,1630169,202355,203953,1610612749,1626171,1626192,1627854,203507,203648,0022000471,1,453,453,0,0,1610612749
32,1610612758,1627741,1628368,1630169,202355,203953,1610612749,1626171,1626192,1627854,203507,203648,0022000471,1,461,467,0,0,1610612758
33,1610612758,1627741,1628368,1630169,202355,203953,1610612749,1626171,1626192,1627854,203507,203648,0022000471,1,477,477,0,3,1610612749
34,1610612758,1627741,1628368,1630169,202355,203953,1610612749,1626171,1626192,1627854,203507,203648,0022000471,1,489,489,2,0,1610612758
35,1610612758,1627741,1628368,1630169,202355,203953,1610612749,1626171,1626192,1627854,203507,203648,0022000471,1,502,502,0,3,1610612749
36,1610612758,1627741,1628368,1630169,202355,203953,1610612749,1626171,1626192,1627854,203507,203648,0022000471,1,509,512,1,0,1610612758
37,1610612758,1627741,1628368,1630169,202355,203953,1610612749,1626171,1626192,1627854,1628978,203648,0022000471,1,524,524,0,2,1610612749
38,1610612758,1627741,1628368,1630169,202355,203953,1610612749,1626171,1626192,1627854,1628978,203648,0022000471,1,546,554,2,0,1610612758
39,1610612758,1627741,1628368,1630169,202355,203953,1610612749,1626171,1626192,1627854,1628978,203648,0022000471,1,567,570,0,0,1610612749
40,1610612758,1627741,1628368,1630169,202355,203953,1610612749,1626171,1626192,1627854,1628978,203648,0022000471,1,578,581,0,0,1610612758
41,1610612758,1627741,1628368,1630169,202355,203953,1610612749,1626171,1626192,1627854,1628978,203648,0022000471,1,594,594,0,0,1610612749
42,1610612758,1627741,1628368,1630169,202355,203953,1610612749,1626171,1626192,1627854,1628978,203648,0022000471,1,602,602,2,0,1610612758
43,1610612758,1627741,1628368,1630169,202355,203953,1610612749,1626171,1626192,1627854,1628978,203648,0022000471,1,611,630,0,0,1610612749
44,1610612758,1628368,1629610,1630169,202355,203953,1610612749,1626171,1627854,1628978,203114,203648,0022000471,1,639,642,0,0,1610612758
45,1610612758,1628368,1629610,1630169,202355,203953,1610612749,1626171,1627854,1628978,203114,203648,0022000471,1,651,655,0,0,1610612749
46,1610612758,1628368,1629610,1630169,202355,203953,1610612749,1626171,1627854,1628978,203114,203648,0022000471,1,662,662,0,0,1610612758
47,1610612758,1628368,1629610,1630169,202355,203953,1610612749,1626171,1627854,1628978,203114,203648,0022000471,1,674,674,0,3,1610612749
48,1610612758,1628368,1629610,1630169,202355,203953,1610612749,1626171,1627854,1628978,203114,203648,0022000471,1,687,690,2,0,1610612758
49,1610612758,1628368,1629610,1630169,202355,203953,1610612749,1626171,1627854,1628978,203114,203648,0022000471,1,702,705,0,0,1610612749
50,1610612758,1628368,1629610,1630169,202355,203953,1610612749,1626171,1627854,1628978,203114,203648,0022000471,1,719,719,0,0,1610612758
51,1610612758,1629610,1626158,1630169,203953,202709,1610612749,203114,203507,1628978,1627854,1626171,0022000471,2,720,736,0,2,1610612749
52,1610612758,1629610,1626158,1630169,203953,202709,1610612749,203114,203507,1628978,1627854,1626171,0022000471,2,752,752,2,0,1610612758
53,1610612758,1629610,1626158,1630169,203953,202709,1610612749,203114,203507,1628978,1627854,1626171,0022000471,2,767,767,0,0,1610612749
54,1610612758,1629610,1626158,1630169,203953,202709,1610612749,203114,203507,1628978,1627854,1626171,0022000471,2,782,782,0,0,1610612758
55,1610612758,1629610,1626158,1630169,203953,202709,1610612749,203114,203507,1628978,1627854,1626171,0022000471,2,785,785,0,2,1610612749
56,1610612758,1629610,1626158,1630169,203953,202709,1610612749,1626192,1627854,1628978,203114,203507,0022000471,2,797,800,0,0,1610612758
57,1610612758,1629610,1626158,1630169,203953,202709,1610612749,1626192,1627854,1628978,203114,203507,0022000471,2,804,804,0,2,1610612749
58,1610612758,1629610,1626158,1630169,203953,202709,1610612749,1626192,1627854,1628978,203114,203507,0022000471,2,814,820,2,0,1610612758
59,1610612758,1629610,1626158,1630169,203953,202709,1610612749,1626192,1627854,1628978,203114,203507,0022000471,2,825,829,0,0,1610612749
60,1610612758,1629610,1626158,1630169,203953,202709,1610612749,1626192,1627854,1628978,203114,203507,0022000471,2,838,838,0,0,1610612758
61,1610612758,1629610,1626158,1630169,203953,202709,1610612749,1626192,1627854,1628978,203114,203507,0022000471,2,842,842,0,2,1610612749
62,1610612758,1626158,1628963,1629610,1630169,202709,1610612749,1626192,1627854,1628978,203114,203507,0022000471,2,854,854,2,0,1610612758
63,1610612758,1626158,1628963,1629610,1630169,202709,1610612749,1626192,1627854,1628978,203114,203507,0022000471,2,863,863,0,3,1610612749
64,1610612758,1626158,1628963,1629610,1630169,202709,1610612749,1626192,1627854,1628978,203114,203507,0022000471,2,892,892,2,0,1610612758
65,1610612758,1626158,1628963,1629610,1630169,202709,1610612749,1626192,1627854,1628978,203114,203507,0022000471,2,904,904,0,2,1610612749
66,1610612758,1626158,1628963,1629610,1630169,202709,1610612749,1626192,1627854,1628978,203114,203507,0022000471,2,909,917,2,0,1610612758
67,1610612758,1626158,1628963,1629610,1630169,202709,1610612749,1626192,1628978,201572,203114,203507,0022000471,2,922,922,0,2,1610612749
68,1610612758,1626158,1628963,1629610,1630169,202709,1610612749,1626192,1628978,201572,203114,203507,0022000471,2,938,940,0,0,1610612758
69,1610612758,1626158,1628963,1629610,1630169,202709,1610612749,1626192,1628978,201572,203114,203507,0022000471,2,956,958,0,0,1610612749
70,1610612758,1626158,1628963,1629610,1630169,202709,1610612749,1626192,1628978,201572,203114,203507,0022000471,2,966,970,2,0,1610612758
71,1610612758,1626158,1628963,1629610,1630169,202709,1610612749,1626192,1628978,201572,203114,203507,0022000471,2,976,976,0,3,1610612749
72,1610612758,1626158,1628963,1629610,1630169,202709,1610612749,1626192,1628978,201572,203114,203507,0022000471,2,995,995,2,0,1610612758
73,1610612758,1626158,1628963,1629610,1630169,202709,1610612749,1626192,1628978,201571,201572,203507,0022000471,2,1017,1019,0,1,1610612749
74,1610612758,1626158,1627741,1630169,202709,203953,1610612749,1626192,1628978,201571,201572,203507,0022000471,2,1031,1035,0,0,1610612758
75,1610612758,1626158,1627741,1630169,202709,203953,1610612749,1626192,1628978,201571,201572,203507,0022000471,2,1038,1038,0,3,1610612749
76,1610612758,1626158,1627741,1630169,202709,203953,1610612749,1626192,1628978,201571,201572,203507,0022000471,2,1038,1056,0,0,1610612758
77,1610612758,1627741,1628368,202355,202709,203953,1610612749,1626192,1628978,201571,201572,203507,0022000471,2,1060,1060,0,2,1610612749
78,1610612758,1627741,1628368,202355,202709,203953,1610612749,1626192,1628978,201571,201572,203507,0022000471,2,1067,1067,2,0,1610612758
79,1610612758,1627741,1628368,202355,202709,203953,1610612749,1626192,1628978,201571,201572,203507,0022000471,2,1083,1083,0,2,1610612749
80,1610612758,1627741,1628368,202355,202709,203953,1610612749,1626192,1628978,201571,201572,203507,0022000471,2,1096,1099,0,0,1610612758
81,1610612758,1627741,1628368,202355,202709,203953,1610612749,1626192,1628978,201571,201572,203507,0022000471,2,1103,1103,0,2,1610612749
82,1610612758,1627741,1628368,202355,202709,203953,1610612749,1626192,1628978,201571,201572,203507,0022000471,2,1120,1123,0,0,1610612758
83,1610612758,1627741,1628368,202355,202709,203953,1610612749,1626192,1628978,201571,201572,203507,0022000471,2,1130,1130,0,2,1610612749
84,1610612758,1627741,1628368,202355,202709,203953,1610612749,1626192,1628978,201571,201572,203507,0022000471,2,1139,1149,0,0,1610612758
85,1610612758,1627741,1628368,1629610,1630169,202355,1610612749,1626171,1626192,201571,201572,203114,0022000471,2,1162,1165,0,0,1610612749
86,1610612758,1627741,1628368,1629610,1630169,202355,1610612749,1626171,1626192,201571,201572,203114,0022000471,2,1172,1174,0,0,1610612758
87,1610612758,1627741,1628368,1629610,1630169,202355,1610612749,1626171,1626192,201571,201572,203114,0022000471,2,1176,1176,0,0,1610612749
88,1610612758,1626158,1627741,1628368,1629610,1630169,1610612749,1626171,1626192,201571,201572,203114,0022000471,2,1190,1190,2,0,1610612758
89,1610612758,1626158,1627741,1628368,1629610,1630169,1610612749,1626171,1626192,201571,201572,203114,0022000471,2,1202,1207,0,2,1610612749
90,1610612758,1626158,1627741,1628368,1629610,1630169,1610612749,1626171,1626192,201571,201572,203114,0022000471,2,1218,1218,3,0,1610612758
91,1610612758,1626158,1627741,1628368,1629610,1630169,1610612749,1626171,1626192,201571,201572,203114,0022000471,2,1231,1231,0,2,1610612749
92,1610612758,1626158,1627741,1628368,1629610,1630169,1610612749,1626171,1626192,201571,201572,203114,0022000471,2,1247,1247,2,0,1610612758
93,1610612758,1626158,1627741,1628368,1629610,1630169,1610612749,1626171,1627854,201571,201572,203114,0022000471,2,1262,1262,0,2,1610612749
94,1610612758,1626158,1627741,1628368,1629610,1630169,1610612749,1626171,1627854,201571,201572,203114,0022000471,2,1277,1280,2,0,1610612758
95,1610612758,1626158,1627741,1628368,1629610,1630169,1610612749,1626171,1627854,201571,201572,203114,0022000471,2,1293,1293,0,0,1610612749
96,1610612758,1626158,1627741,1628368,1629610,1630169,1610612749,1626171,1627854,201571,201572,203114,0022000471,2,1299,1299,3,0,1610612758
97,1610612758,1626158,1627741,1628368,1629610,1630169,1610612749,1626171,1627854,201571,201572,203114,0022000471,2,1319,1322,0,0,1610612749
98,1610612758,1626158,1627741,1628368,1629610,1630169,1610612749,1626171,1627854,201571,201572,203114,0022000471,2,1326,1326,3,0,1610612758
99,1610612758,1626158,1627741,1628368,1629610,1630169,1610612749,1626171,1627854,201571,201572,203114,0022000471,2,1327,1351,0,0,1610612749
100,1610612758,1626158,1627741,1628368,1629610,1630169,1610612749,1626192,1628978,201571,203114,203507,0022000471,2,1359,1359,0,0,1610612758
101,1610612758,1627741,1628368,1629610,1630169,203953,1610612749,1626192,1628978,201571,203114,203507,0022000471,2,1373,1373,0,2,1610612749
102,1610612758,1627741,1628368,1629610,1630169,203953,1610612749,1626192,1628978,201571,203114,203507,0022000471,2,1383,1386,0,0,1610612758
103,1610612758,1627741,1628368,1629610,1630169,203953,1610612749,1626192,1628978,201571,203114,203507,0022000471,2,1395,1395,0,0,1610612749
104,1610612758,1627741,1628368,1629610,1630169,203953,1610612749,1626192,1628978,201571,203114,203507,0022000471,2,1407,1409,0,0,1610612758
105,1610612758,1627741,1628368,1629610,1630169,203953,1610612749,1626192,1628978,201571,203114,203507,0022000471,2,1414,1415,0,2,1610612749
106,1610612758,1627741,1628368,1629610,1630169,203953,1610612749,1626192,1628978,203114,203507,203648,0022000471,2,1437,1437,0,0,1610612758
107,1610612758,1627741,1628368,1629610,1630169,203953,1610612749,1626192,1628978,203114,203507,203648,0022000471,2,1440,1440,0,2,1610612749
108,1610612758,1629610,1628963,1626158,1627741,1628368,1610612749,203114,203507,201572,1628978,201571,0022000471,3,1440,1464,0,3,1610612749
109,1610612758,1629610,1628963,1626158,1627741,1628368,1610612749,203114,203507,201572,1628978,201571,0022000471,3,1474,1486,0,0,1610612758
110,1610612758,1629610,1628963,1626158,1627741,1628368,1610612749,203114,203507,201572,1628978,201571,0022000471,3,1490,1490,0,2,1610612749
111,1610612758,1629610,1628963,1626158,1627741,1628368,1610612749,203114,203507,201572,1628978,201571,0022000471,3,1500,1516,0,0,1610612758
112,1610612758,1629610,1628963,1626158,1627741,1628368,1610612749,203114,203507,201572,1628978,201571,0022000471,3,1533,1533,0,3,1610612749
113,1610612758,1629610,1628963,1626158,1627741,1628368,1610612749,203114,203507,201572,1628978,201571,0022000471,3,1534,1546,0,0,1610612758
114,1610612758,1629610,1628963,1626158,1627741,1628368,1610612749,203114,203507,201572,1628978,201571,0022000471,3,1550,1550,0,0,1610612749
115,1610612758,1629610,1628963,1626158,1627741,1628368,1610612749,203114,203507,201572,1628978,201571,0022000471,3,1561,1561,2,0,1610612758
116,1610612758,1629610,1628963,1626158,1627741,1628368,1610612749,203114,203507,201572,1628978,201571,0022000471,3,1578,1578,0,2,1610612749
117,1610612758,1629610,1628963,1626158,1627741,1628368,1610612749,203114,203507,201572,1628978,201571,0022000471,3,1587,1587,1,0,1610612758
118,1610612758,1629610,1628963,1626158,1627741,1628368,1610612749,203114,203507,201572,1628978,201571,0022000471,3,1601,1607,0,2,1610612749
119,1610612758,1629610,1628963,1626158,1627741,1628368,1610612749,203114,203507,201572,1628978,201571,0022000471,3,1625,1625,3,0,1610612758
120,1610612758,1629610,1628963,1626158,1627741,1628368,1610612749,203114,203507,201572,1628978,201571,0022000471,3,1640,1646,0,0,1610612749
121,1610612758,1629610,1628963,1626158,1627741,1628368,1610612749,203114,203507,201572,1628978,201571,0022000471,3,1652,1652,2,0,1610612758
122,1610612758,1629610,1628963,1626158,1627741,1628368,1610612749,203114,203507,201572,1628978,201571,0022000471,3,1665,1668,0,0,1610612749
123,1610612758,1629610,1628963,1626158,1627741,1628368,1610612749,203114,203507,201572,1628978,201571,0022000471,3,1673,1676,0,0,1610612758
124,1610612758,1629610,1628963,1626158,1627741,1628368,1610612749,203114,203507,201572,1628978,201571,0022000471,3,1697,1699,0,0,1610612749
125,1610612758,1629610,1628963,1626158,1627741,1628368,1610612749,203114,203507,201572,1628978,201571,0022000471,3,1703,1708,0,0,1610612758
126,1610612758,1629610,1628963,1626158,1627741,1628368,1610612749,203114,203507,201572,1628978,201571,0022000471,3,1708,1708,0,2,1610612749
127,1610612758,1627741,1628368,1628963,1629610,1630169,1610612749,1626192,201571,201572,203114,203507,0022000471,3,1717,1717,3,0,1610612758
128,1610612758,1627741,1628368,1628963,1629610,1630169,1610612749,1626192,201571,201572,203114,203507,0022000471,3,1734,1734,0,0,1610612749
129,1610612758,1627741,1628368,1628963,1629610,1630169,1610612749,1626192,201571,201572,203114,203507,0022000471,3,1742,1746,0,0,1610612758
130,1610612758,1627741,1628368,1628963,1629610,1630169,1610612749,1626192,201571,201572,203114,203507,0022000471,3,1759,1759,0,2,1610612749
131,1610612758,1627741,1628368,1628963,1629610,1630169,1610612749,1626192,201571,201572,203114,203507,0022000471,3,1767,1767,3,0,1610612758
132,1610612758,1627741,1628368,1628963,1629610,1630169,1610612749,1626171,1626192,201571,203114,203507,0022000471,3,1780,1780,0,0,1610612749
133,1610612758,1627741,1628368,1628963,1629610,1630169,1610612749,1626171,1626192,1627854,201571,203507,0022000471,3,1800,1804,0,0,1610612758
134,1610612758,1627741,1628368,1628963,1629610,1630169,1610612749,1626171,1626192,1627854,201571,203507,0022000471,3,1814,1817,0,0,1610612749
135,1610612758,1627741,1628368,1628963,1629610,1630169,1610612749,1626171,1626192,1627854,201571,203507,0022000471,3,1825,1825,2,0,1610612758
136,1610612758,1627741,1628368,1628963,1629610,1630169,1610612749,1626171,1626192,1627854,201571,203507,0022000471,3,1848,1848,0,2,1610612749
137,1610612758,1627741,1628368,1628963,1629610,1630169,1610612749,1626171,1626192,1627854,201571,203507,0022000471,3,1861,1864,0,0,1610612758
138,1610612758,1627741,1628368,1628963,1629610,1630169,1610612749,1626171,1626192,1627854,201571,203507,0022000471,3,1867,1878,0,0,1610612749
139,1610612758,1626158,1628368,1629610,1630169,202709,1610612749,1626171,1626192,1627854,201571,203507,0022000471,3,1883,1883,0,0,1610612758
140,1610612758,1626158,1628368,1629610,1630169,202709,1610612749,1626171,1626192,1627854,201571,203507,0022000471,3,1887,1898,0,0,1610612749
141,1610612758,1626158,1628368,1629610,1630169,202709,1610612749,1626171,1626192,1627854,201571,203507,0022000471,3,1901,1914,0,0,1610612758
142,1610612758,1626158,1628368,1629610,1630169,202709,1610612749,1626171,1626192,1627854,203114,203648,0022000471,3,1929,1944,0,0,1610612749
143,1610612758,1626158,1628368,1629610,1630169,202709,1610612749,1626171,1626192,1627854,203114,203648,0022000471,3,1944,1944,1,0,1610612758
144,1610612758,1626158,1628368,1629610,1630169,202709,1610612749,1626171,1626192,1627854,203114,203648,0022000471,3,1954,1954,0,2,1610612749
145,1610612758,1626158,1628368,1629610,1630169,202709,1610612749,1626171,1626192,1627854,203114,203648,0022000471,3,1973,1973,0,0,1610612758
146,1610612758,1626158,1628368,1629610,1630169,202709,1610612749,1626171,1626192,1627854,203114,203648,0022000471,3,1976,1976,0,2,1610612749
147,1610612758,1626158,1628368,1629610,1630169,202709,1610612749,1626171,1626192,1627854,203114,203648,0022000471,3,1992,1995,0,0,1610612758
148,1610612758,1626158,1628368,1629610,1630169,202709,1610612749,1626171,1626192,1627854,203114,203648,0022000471,3,2002,2002,0,3,1610612749
149,1610612758,1626158,1628368,1629610,1630169,202709,1610612749,1626171,1626192,1627854,203114,203648,0022000471,3,2021,2030,2,0,1610612758
150,1610612758,1628963,1629610,1629657,1630169,202709,1610612749,1626171,1627854,1628978,203114,203648,0022000471,3,2042,2046,0,0,1610612749
151,1610612758,1628963,1629610,1629657,1630169,202709,1610612749,1626171,1627854,1628978,203114,203648,0022000471,3,2051,2051,3,0,1610612758
152,1610612758,1628963,1629610,1629657,1630169,202709,1610612749,1626171,1627854,1628978,203114,203648,0022000471,3,2062,2064,0,0,1610612749
153,1610612758,1628963,1629610,1629657,1630169,202709,1610612749,1626171,1627854,1628978,203114,203648,0022000471,3,2074,2081,2,0,1610612758
154,1610612758,1628963,1629610,1629657,1630169,202709,1610612749,1626171,1627854,1628978,203114,203648,0022000471,3,2096,2103,0,2,1610612749
155,1610612758,1628963,1629610,1629657,1630169,202709,1610612749,1626171,1627854,1628978,203114,203648,0022000471,3,2116,2116,2,0,1610612758
156,1610612758,1628963,1629610,1629657,1630169,202709,1610612749,1626171,1627854,1628978,203114,203648,0022000471,3,2123,2123,0,0,1610612749
157,1610612758,1628963,1629610,1629657,1630169,202709,1610612749,1626171,1627854,1628978,203114,203648,0022000471,3,2138,2138,0,0,1610612758
158,1610612758,1628963,1629610,1629657,1630169,202709,1610612749,1626171,1627854,1628978,203114,203648,0022000471,3,2144,2160,0,2,1610612749
159,1610612758,1628963,1630169,203953,202709,1629657,1610612749,203114,1628978,1627854,1626171,203648,0022000471,4,2160,2175,2,0,1610612758
160,1610612758,1628963,1630169,203953,202709,1629657,1610612749,203114,1628978,1627854,1626171,203648,0022000471,4,2194,2199,0,0,1610612749
161,1610612758,1628963,1630169,203953,202709,1629657,1610612749,203114,1628978,1627854,1626171,203648,0022000471,4,2214,2214,2,0,1610612758
162,1610612758,1628963,1630169,203953,202709,1629657,1610612749,203114,1628978,1627854,1626171,203648,0022000471,4,2239,2239,0,2,1610612749
163,1610612758,1628963,1630169,203953,202709,1629657,1610612749,203114,1628978,1627854,1626171,203648,0022000471,4,2259,2259,3,0,1610612758
164,1610612758,1628963,1630169,203953,202709,1629657,1610612749,203114,1628978,1627854,1626171,203648,0022000471,4,2267,2267,0,3,1610612749
165,1610612758,1628963,1630169,203953,202709,1629657,1610612749,1626171,1626192,1628978,203114,203507,0022000471,4,2282,2285,0,0,1610612758
166,1610612758,1628963,1630169,203953,202709,1629657,1610612749,1626171,1626192,1628978,203114,203507,0022000471,4,2299,2302,0,2,1610612749
167,1610612758,1628963,1630169,203953,202709,1629657,1610612749,1626171,1626192,1628978,203114,203507,0022000471,4,2312,2318,2,0,1610612758
168,1610612758,1628963,1630169,203953,202709,1629657,1610612749,1626171,1626192,1628978,203114,203507,0022000471,4,2318,2330,0,2,1610612749
169,1610612758,1628963,1630169,203953,202709,1629657,1610612749,1626171,1626192,1628978,203114,203507,0022000471,4,2348,2348,2,0,1610612758
170,1610612758,1628963,1630169,203953,202709,1629657,1610612749,1626171,1626192,1628978,203114,203507,0022000471,4,2361,2361,0,2,1610612749
171,1610612758,1628963,1630169,203953,202709,1629657,1610612749,1626171,1626192,1628978,203114,203507,0022000471,4,2361,2379,0,0,1610612758
172,1610612758,1628368,1628963,1629610,1629657,1630169,1610612749,1626171,1626192,1628978,201571,203507,0022000471,4,2387,2397,0,0,1610612749
173,1610612758,1627741,1628368,1628963,1629610,1630169,1610612749,1626171,1626192,1628978,201571,203507,0022000471,4,2416,2419,0,0,1610612758
174,1610612758,1627741,1628368,1628963,1629610,1630169,1610612749,1626171,1626192,1628978,201571,203507,0022000471,4,2425,2429,0,2,1610612749
175,1610612758,1627741,1628368,1628963,1629610,1630169,1610612749,1626171,1626192,1628978,201571,203507,0022000471,4,2438,2438,3,0,1610612758
176,1610612758,1627741,1628368,1628963,1629610,1630169,1610612749,1626171,1626192,1628978,201571,203507,0022000471,4,2446,2457,0,0,1610612749
177,1610612758,1627741,1628368,1628963,1629610,1630169,1610612749,1626192,1628978,201571,201572,203507,0022000471,4,2463,2467,0,0,1610612758
178,1610612758,1627741,1628368,1628963,1629610,1630169,1610612749,1626192,1628978,201571,201572,203507,0022000471,4,2469,2469,0,1,1610612749
179,1610612758,1627741,1628368,1628963,1629610,1630169,1610612749,1626192,1627854,201571,201572,203507,0022000471,4,2481,2481,0,0,1610612758
180,1610612758,1627741,1628368,1628963,1629610,1630169,1610612749,1626192,1627854,201571,201572,203507,0022000471,4,2501,2504,0,0,1610612749
181,1610612758,1627741,1628368,1628963,1629610,1630169,1610612749,1626192,1627854,201571,201572,203507,0022000471,4,2508,2508,2,0,1610612758
182,1610612758,1627741,1628368,1628963,1629610,1630169,1610612749,1626192,1627854,201571,201572,203507,0022000471,4,2526,2528,0,3,1610612749
183,1610612758,1627741,1628368,1628963,1629610,1630169,1610612749,1626192,1627854,201571,201572,203507,0022000471,4,2540,2543,0,0,1610612758
184,1610612758,1627741,1628368,1628963,1629610,1630169,1610612749,1626192,1627854,201571,201572,203507,0022000471,4,2560,2560,0,3,1610612749
185,1610612758,1627741,1628368,1628963,1629610,1630169,1610612749,1626192,1627854,201571,201572,203507,0022000471,4,2574,2577,0,0,1610612758
186,1610612758,1627741,1628368,1628963,1629610,1630169,1610612749,1626192,1627854,201571,201572,203507,0022000471,4,2579,2579,0,0,1610612749
187,1610612758,1627741,1628368,1628963,1629610,1630169,1610612749,1626192,1627854,201571,201572,203507,0022000471,4,2597,2601,0,0,1610612758
188,1610612758,1627741,1628368,1628963,1629610,1630169,1610612749,1626192,1627854,201571,201572,203507,0022000471,4,2614,2614,0,0,1610612749
189,1610612758,1627741,1628368,1628963,1629610,1630169,1610612749,1626192,1627854,201571,201572,203507,0022000471,4,2621,2621,3,0,1610612758
190,1610612758,1627741,1628368,1628963,1629610,1630169,1610612749,1626192,1627854,201571,201572,203507,0022000471,4,2639,2639,0,0,1610612749
191,1610612758,1627741,1628368,1628963,1629610,1630169,1610612749,1627854,201571,201572,203114,203507,0022000471,4,2654,2654,2,0,1610612758
192,1610612758,1627741,1628368,1628963,1629610,1630169,1610612749,1627854,201571,201572,203114,203507,0022000471,4,2674,2675,0,1,1610612749
193,1610612758,1627741,1628368,1628963,1629610,1630169,1610612749,1627854,1628978,201572,203114,203507,0022000471,4,2685,2685,2,0,1610612758
194,1610612758,1627741,1628368,1628963,1629610,1630169,1610612749,1627854,1628978,201572,203114,203507,0022000471,4,2691,2695,0,1,1610612749
195,1610612758,1627741,1628368,1628963,1629610,1630169,1610612749,1627854,1628978,201572,203114,203507,0022000471,4,2700,2713,0,0,1610612758
196,1610612758,1627741,1628368,1628963,1629610,1630169,1610612749,1627854,1628978,201572,203114,203507,0022000471,4,2720,2720,0,3,1610612749
197,1610612758,1627741,1629610,1629657,1630169,203953,1610612749,1628978,1630241,201572,203114,203507,0022000471,4,2735,2735,2,0,1610612758
198,1610612758,1627741,1629610,1629657,1630169,203953,1610612749,1628978,1630241,201572,203114,203507,0022000471,4,2744,2747,0,1,1610612749
199,1610612758,1627741,1629610,1629657,1630169,203953,1610612749,1626171,1627854,1628978,1630241,203507,0022000471,4,2759,2759,2,0,1610612758
200,1610612758,1627741,1629610,1629657,1630169,203953,1610612749,1626171,1627854,1628978,1630241,203507,0022000471,4,2771,2774,0,0,1610612749
201,1610612758,1627741,1629610,1629657,1630169,203953,1610612749,1626171,1627854,1628978,1630241,203507,0022000471,4,2781,2792,3,0,1610612758
202,1610612758,1629610,1629657,1629713,1630169,203953,1610612749,1626171,1626192,1627854,1630241,203648,0022000471,4,2799,2799,0,3,1610612749
203,1610612758,1629610,1629657,1629713,1630169,203953,1610612749,1626171,1626192,1627854,1630241,203648,0022000471,4,2816,2819,0,0,1610612758
204,1610612758,1629610,1629657,1629713,1630169,203953,1610612749,1626171,1626192,1627854,1630241,203648,0022000471,4,2825,2838,0,0,1610612749
205,1610612758,1629610,1629657,1629713,1630169,203953,1610612749,1626171,1626192,1627854,1630241,203648,0022000471,4,2848,2848,3,0,1610612758
206,1610612758,1629610,1629657,1629713,1630169,203953,1610612749,1626171,1626192,1627854,1630241,203648,0022000471,4,2873,2873,0,0,1610612749
207,1610612758,1629610,1629657,1629713,1630169,203953,1610612749,1626171,1626192,1627854,1630241,203648,0022000471,4,2878,2879,0,0,1610612758
