,stint_end,t1_players,t2_pm,t2_points_scored,stint_start,t1_pm,t1_points_scored,t2_id,t1_id,t2_players,margin_per_100,num_poss
0,307,"[202711, 1627777, 203497, 1626220, 204060]",-6,11,0,6,17,1610612744,1610612762,"[203952, 203110, 1626172, 203145, 201939]",28.57142857142857,21.0
1,327,"[202711, 1627777, 203497, 1626220, 204060]",-6,11,308,6,17,1610612744,1610612762,"[203952, 203110, 1626172, 203145, 201939]",27.27272727272727,22.0
2,395,"[1626220, 1630235, 202324, 202711, 203903]",0,17,328,0,17,1610612744,1610612762,"[203952, 203110, 1626172, 203145, 201939]",0.0,28.0
3,559,"[1626220, 1630235, 202324, 202711, 203903]",0,24,396,0,24,1610612744,1610612762,"[1626172, 1628539, 201939, 203110, 203145]",0.0,39.0
4,599,"[1626220, 1630235, 202324, 202711, 203903]",-2,24,560,2,26,1610612744,1610612762,"[1628539, 1629308, 201939, 203110, 203145]",4.651162790697675,43.0
5,719,"[1627777, 1629671, 203497, 203903, 204060]",1,31,600,-1,30,1610612744,1610612762,"[1629308, 1629673, 201939, 203110, 203952]",-1.9230769230769231,52.0
6,860,"[1627777, 1629671, 203497, 203903, 204060]",0,35,720,0,35,1610612744,1610612762,"[1626172, 1629308, 1629673, 201939, 203952]",0.0,62.0
7,954,"[1627777, 203497, 204060, 1630235, 1629671]",0,39,861,0,39,1610612744,1610612762,"[203952, 1626172, 1628539, 1629308, 1629673]",0.0,67.0
8,1017,"[1627777, 1629671, 203497, 203903, 204060]",-2,39,955,2,41,1610612744,1610612762,"[203952, 1626172, 1628539, 1629308, 1629673]",2.8169014084507045,71.0
9,1055,"[1626220, 1627777, 202324, 202711, 203903]",1,42,1018,-1,41,1610612744,1610612762,"[1628539, 1629308, 1629673, 203110, 203952]",-1.36986301369863,73.0
10,1196,"[1626220, 1627777, 202324, 202711, 203903]",-1,46,1056,1,47,1610612744,1610612762,"[1629308, 1629673, 203110, 203145, 203952]",1.1764705882352942,85.0
11,1382,"[1626220, 1630235, 202324, 202711, 203903]",7,54,1197,-7,47,1610612744,1610612762,"[1629308, 1629673, 201939, 203110, 203145]",-7.291666666666667,96.0
12,1428,"[1626220, 202711, 203497, 203903, 204060]",5,54,1383,-5,49,1610612744,1610612762,"[1626172, 201939, 203110, 203145, 203952]",-5.1020408163265305,98.0
13,1435,"[1626220, 202711, 203497, 203903, 204060]",5,54,1429,-5,49,1610612744,1610612762,"[1629308, 201939, 203110, 203145, 203952]",-5.05050505050505,99.0
14,1713,"[1626220, 202711, 203497, 203903, 204060]",0,59,1436,0,59,1610612744,1610612762,"[1628539, 1629673, 201939, 203110, 203952]",0.0,117.0
15,1780,"[202711, 1627777, 203497, 1626220, 204060]",4,63,1714,-4,59,1610612744,1610612762,"[203952, 203110, 1626172, 203145, 201939]",-3.278688524590164,122.0
16,1890,"[1626220, 1630235, 202324, 202711, 203903]",8,71,1781,-8,63,1610612744,1610612762,"[203952, 203110, 1626172, 203145, 201939]",-6.25,128.0
17,1928,"[1626220, 1630235, 202324, 202711, 203903]",11,74,1891,-11,63,1610612744,1610612762,"[1628539, 1629308, 201939, 203110, 203145]",-8.333333333333332,132.0
18,1949,"[1627777, 1630235, 202324, 202711, 203903]",10,77,1929,-10,67,1610612744,1610612762,"[1628539, 1629308, 201939, 203110, 203145]",-7.462686567164178,134.0
19,2079,"[1627777, 202711, 203497, 203903, 204060]",13,84,1950,-13,71,1610612744,1610612762,"[1628539, 1629308, 201939, 203110, 203145]",-9.15492957746479,142.0
20,2159,"[1627777, 1629671, 203497, 203903, 204060]",11,86,2080,-11,75,1610612744,1610612762,"[1628539, 1629308, 201939, 203110, 203145]",-7.38255033557047,149.0
21,2331,"[1627777, 1629671, 203497, 203903, 204060]",13,96,2160,-13,83,1610612744,1610612762,"[1626172, 1629308, 1629673, 201939, 203952]",-8.024691358024691,162.0
22,2369,"[1627777, 203497, 204060, 203903, 1629744]",15,98,2332,-15,83,1610612744,1610612762,"[203952, 1626172, 1628539, 1629308, 1629673]",-9.090909090909092,165.0
23,2398,"[1627777, 1629744, 1630235, 202324, 204060]",16,101,2370,-16,85,1610612744,1610612762,"[203952, 1626172, 1628539, 1629308, 1629673]",-9.523809523809524,168.0
24,2476,"[1627777, 1629744, 1630235, 202324, 203903]",13,105,2399,-13,92,1610612744,1610612762,"[1628539, 1629308, 1629673, 203110, 203952]",-7.471264367816093,174.0
25,2554,"[1626220, 1630235, 202324, 202711, 203903]",12,110,2477,-12,98,1610612744,1610612762,"[1628539, 1629308, 1629673, 203110, 203952]",-6.70391061452514,179.0
26,2662,"[1626220, 1630235, 202324, 202711, 203903]",9,112,2555,-9,103,1610612744,1610612762,"[1629308, 1629673, 201939, 203110, 203145]",-4.891304347826087,184.0
27,2698,"[1626220, 1630235, 202324, 202711, 203903]",9,112,2663,-9,103,1610612744,1610612762,"[1629308, 201939, 203110, 203145, 203952]",-4.864864864864865,185.0
28,2866,"[1626220, 1630235, 202711, 203497, 203903]",1,117,2699,-1,116,1610612744,1610612762,"[1626172, 201939, 203110, 203145, 203952]",-0.5076142131979695,197.0
29,2872,"[1626220, 202711, 203497, 203903, 204060]",1,117,2867,-1,116,1610612744,1610612762,"[1626172, 201939, 203110, 203145, 203952]",-0.5050505050505051,198.0
30,2874,"[1626220, 202711, 203497, 203903, 204060]",1,117,2873,-1,116,1610612744,1610612762,"[1626172, 1629308, 203110, 203145, 203952]",-0.5050505050505051,198.0
31,9999999,"[1626220, 202324, 202711, 203497, 203903]",3,119,2875,-3,116,1610612744,1610612762,"[1629308, 201939, 203110, 203145, 203952]",-1.5,200.0
