,TEAM_ID_1,TEAM_1_PLAYERS,TEAM_ID_2,TEAM_2_PLAYERS,PERIOD
0,1610612742,[ 203915 1627827  203939 1628973 1629029],1610612738,[1628369  201143 1629057 1627759  203935],1
1,1610612742,[ 203915 1628973 1628467 1630182  202722],1610612738,[1628369  201143 1628401 1629684 1630202],2
2,1610612742,[ 203915 1627827  203939 1628973 1629029],1610612738,[1628369  201143 1629057 1627759  203935],3
3,1610612742,[ 203915  203939 1628973 1628467 1630182],1610612738,[1628369 1629057 1628401 1629684 1630202],4
