,team1_id,team1_player1,team1_player2,team1_player3,team1_player4,team1_player5,team2_id,team2_player1,team2_player2,team2_player3,team2_player4,team2_player5,game_id,period,possession_start,possession_end,team1_points,team2_points,possession_team
0,1610612751,203925,202498,1628386,1627747,204020,1610612738,202330,1628369,1628464,1627759,203935,0021901267,1,0,18,2,0,1610612751
1,1610612751,203925,202498,1628386,1627747,204020,1610612738,202330,1628369,1628464,1627759,203935,0021901267,1,25,25,0,0,1610612738
2,1610612751,203925,202498,1628386,1627747,204020,1610612738,202330,1628369,1628464,1627759,203935,0021901267,1,46,50,0,0,1610612751
3,1610612751,203925,202498,1628386,1627747,204020,1610612738,202330,1628369,1628464,1627759,203935,0021901267,1,55,55,0,3,1610612738
4,1610612751,203925,202498,1628386,1627747,204020,1610612738,202330,1628369,1628464,1627759,203935,0021901267,1,74,74,3,0,1610612751
5,1610612751,203925,202498,1628386,1627747,204020,1610612738,202330,1628369,1628464,1627759,203935,0021901267,1,94,94,0,0,1610612738
6,1610612751,203925,202498,1628386,1627747,204020,1610612738,202330,1628369,1628464,1627759,203935,0021901267,1,101,117,2,0,1610612751
7,1610612751,203925,202498,1628386,1627747,204020,1610612738,202330,1628369,1628464,1627759,203935,0021901267,1,135,142,0,2,1610612738
8,1610612751,203925,202498,1628386,1627747,204020,1610612738,202330,1628369,1628464,1627759,203935,0021901267,1,157,157,2,0,1610612751
9,1610612751,203925,202498,1628386,1627747,204020,1610612738,202330,1628369,1628464,1627759,203935,0021901267,1,170,177,0,3,1610612738
10,1610612751,203925,202498,1628386,1627747,204020,1610612738,202330,1628369,1628464,1627759,203935,0021901267,1,201,204,0,0,1610612751
11,1610612751,203925,202498,1628386,1627747,204020,1610612738,202330,1628369,1628464,1627759,203935,0021901267,1,210,210,0,3,1610612738
12,1610612751,203925,202498,1628386,1627747,204020,1610612738,202330,1628369,1628464,1627759,203935,0021901267,1,229,229,0,0,1610612751
13,1610612751,203925,202498,1628386,1627747,204020,1610612738,202330,1628369,1628464,1627759,203935,0021901267,1,233,235,0,0,1610612738
14,1610612751,203925,202498,1628386,1627747,204020,1610612738,202330,1628369,1628464,1627759,203935,0021901267,1,239,239,3,0,1610612751
15,1610612751,203925,202498,1628386,1627747,204020,1610612738,202330,1628369,1628464,1627759,203935,0021901267,1,265,269,0,0,1610612738
16,1610612751,203925,202498,1628386,1627747,204020,1610612738,202330,1628369,1628464,1627759,203935,0021901267,1,278,282,0,0,1610612751
17,1610612751,203925,202498,1628386,1627747,204020,1610612738,202330,1628369,1628464,1627759,203935,0021901267,1,288,292,0,0,1610612738
18,1610612751,203925,202498,1628386,1627747,204020,1610612738,202330,1628369,1628464,1627759,203935,0021901267,1,300,300,2,0,1610612751
19,1610612751,203925,202498,1628386,1627747,204020,1610612738,202330,1628369,1628464,1627759,203935,0021901267,1,301,317,0,0,1610612738
20,1610612751,203925,202498,1628386,1627747,204020,1610612738,202330,1628369,1628464,1627759,203935,0021901267,1,335,339,0,0,1610612751
21,1610612751,203925,202498,1628386,1627747,204020,1610612738,202330,1628369,1628464,1627759,203935,0021901267,1,341,341,0,0,1610612738
22,1610612751,203925,202498,1628386,1627747,204020,1610612738,1627759,1628464,1629641,202330,203935,0021901267,1,351,351,0,0,1610612751
23,1610612751,1627747,1628386,1629066,203925,204020,1610612738,1627759,1628464,1629641,202330,203935,0021901267,1,363,363,0,3,1610612738
24,1610612751,1627747,1628386,1629066,203925,204020,1610612738,1627759,1628464,1629641,202330,203935,0021901267,1,379,379,0,0,1610612751
25,1610612751,1627747,1628386,1629066,203925,204020,1610612738,1627759,1628464,1629641,202330,203935,0021901267,1,400,403,0,0,1610612738
26,1610612751,1627747,1628386,1629066,203925,204020,1610612738,1627759,1628464,1629641,202330,203935,0021901267,1,416,416,0,0,1610612751
27,1610612751,1627747,1628386,1629066,203925,204020,1610612738,1627759,1628464,1629641,202330,203935,0021901267,1,423,423,0,1,1610612738
28,1610612751,1627747,1628386,1629066,1629185,202066,1610612738,1627759,1628464,1629641,202330,203935,0021901267,1,440,440,2,0,1610612751
29,1610612751,1627747,1628386,1629066,1629185,202066,1610612738,1627759,1628464,1629641,202330,203935,0021901267,1,460,460,0,3,1610612738
30,1610612751,1627747,1628386,1629066,1629185,202066,1610612738,1627759,1628464,1629641,202330,203935,0021901267,1,461,476,0,0,1610612751
31,1610612751,1627747,1628386,1629066,1629185,202066,1610612738,1627759,1628464,1629641,202330,203935,0021901267,1,481,481,0,0,1610612738
32,1610612751,1627747,1628386,1629066,1629185,202066,1610612738,1627759,1628464,1629641,202330,203935,0021901267,1,487,490,0,0,1610612751
33,1610612751,1627747,1628386,1629066,1629185,202066,1610612738,1627759,1628464,1629641,202330,203935,0021901267,1,499,499,0,2,1610612738
34,1610612751,1627747,1628386,1629066,1629185,202066,1610612738,1627759,1629057,1629641,202954,203935,0021901267,1,517,517,3,0,1610612751
35,1610612751,1627747,1627789,1629066,1629185,202066,1610612738,1627759,1629057,1629641,202954,203935,0021901267,1,539,539,0,3,1610612738
36,1610612751,1627747,1627789,1629066,1629185,202066,1610612738,1627759,1629057,1629641,202954,203935,0021901267,1,548,548,3,0,1610612751
37,1610612751,1627747,1627789,1629066,1629185,202066,1610612738,1627759,1629057,1629641,202954,203935,0021901267,1,562,563,0,0,1610612738
38,1610612751,1627789,1629066,1629185,202066,203925,1610612738,1627759,1629057,1629641,202954,203935,0021901267,1,573,579,2,0,1610612751
39,1610612751,1627789,1629066,1629185,202066,203925,1610612738,1627759,1629057,1629641,202954,203935,0021901267,1,586,586,0,3,1610612738
40,1610612751,1627789,1629066,1629185,202066,203925,1610612738,1628369,1629057,1629641,202954,203935,0021901267,1,602,606,0,0,1610612751
41,1610612751,1627789,1629066,1629185,202066,203925,1610612738,1628369,1629057,1629641,202954,203935,0021901267,1,607,607,0,2,1610612738
42,1610612751,1627789,1629066,1629185,202066,203925,1610612738,1628369,1629057,1629641,202954,203935,0021901267,1,621,623,0,0,1610612751
43,1610612751,1627789,1629066,1629185,202066,203925,1610612738,1628369,1629057,1629641,202954,203935,0021901267,1,628,628,0,0,1610612738
44,1610612751,1627789,1629066,1629185,202066,203925,1610612738,1628369,1629057,1629641,202954,203935,0021901267,1,630,646,1,0,1610612751
45,1610612751,1627789,1629066,1629185,202066,203925,1610612738,1629057,1629641,202330,202954,203935,0021901267,1,649,665,0,2,1610612738
46,1610612751,1627789,1629066,1629185,202066,203925,1610612738,1629057,1629641,202330,202954,203935,0021901267,1,682,682,0,0,1610612751
47,1610612751,1627789,1629066,1629185,202066,203925,1610612738,1629057,1629641,202330,202954,203935,0021901267,1,692,692,0,2,1610612738
48,1610612751,1627789,1629066,1629185,202066,203925,1610612738,1629057,1629641,202330,202954,203935,0021901267,1,714,717,0,0,1610612751
49,1610612751,1627789,1629066,1629185,202066,203925,1610612738,1629057,1629641,202330,202954,203935,0021901267,1,717,717,0,2,1610612738
50,1610612751,1627789,1629066,1629185,202066,203925,1610612738,1629057,1629641,202330,202954,203935,0021901267,1,720,720,0,0,1610612738
51,1610612751,203925,1629066,1629185,202066,1627789,1610612738,202330,1629641,1629057,202954,1628400,0021901267,2,720,740,0,2,1610612738
52,1610612751,1627789,1629058,1629066,1629185,203925,1610612738,202330,1629641,1629057,202954,1628400,0021901267,2,755,755,0,0,1610612751
53,1610612751,1627789,1629058,1629066,1629185,203925,1610612738,202330,1629641,1629057,202954,1628400,0021901267,2,763,763,0,3,1610612738
54,1610612751,1627789,1629058,1629066,1629185,203925,1610612738,202330,1629641,1629057,202954,1628400,0021901267,2,781,781,0,0,1610612751
55,1610612751,1627789,1628386,1629058,1629185,203925,1610612738,202330,1629641,1629057,202954,1628400,0021901267,2,793,793,0,2,1610612738
56,1610612751,1627789,1628386,1629058,1629185,203925,1610612738,202330,1629641,1629057,202954,1628400,0021901267,2,803,819,0,0,1610612751
57,1610612751,1627747,1627789,1628386,1629058,203925,1610612738,202330,1629641,1629057,202954,1628400,0021901267,2,824,824,0,2,1610612738
58,1610612751,1627747,1627789,1628386,1629058,203925,1610612738,202330,1629641,1629057,202954,1628400,0021901267,2,836,836,2,0,1610612751
59,1610612751,1627747,1627789,1628386,1629058,203925,1610612738,202330,1629641,1629057,202954,1628400,0021901267,2,846,849,0,0,1610612738
60,1610612751,1627747,1627789,1628386,1629058,203925,1610612738,202330,1629641,1629057,202954,1628400,0021901267,2,854,858,2,0,1610612751
61,1610612751,1627747,1627789,1628386,1629058,203925,1610612738,1628400,1629641,202330,202683,202954,0021901267,2,865,865,0,2,1610612738
62,1610612751,1627747,1627789,1628386,1629058,203925,1610612738,1628400,1629641,202330,202683,202954,0021901267,2,880,883,0,0,1610612751
63,1610612751,1627747,1627789,1628386,1629058,203925,1610612738,1628400,1629641,202330,202683,202954,0021901267,2,886,889,0,2,1610612738
64,1610612751,1627747,1627789,1628386,1629058,203925,1610612738,1628400,1629641,202330,202683,202954,0021901267,2,890,902,0,0,1610612751
65,1610612751,1627747,1627789,1628386,1629058,203925,1610612738,1628400,1629641,202330,202683,202954,0021901267,2,913,917,0,0,1610612738
66,1610612751,1627747,1627789,1628386,1629058,203925,1610612738,1628400,1629641,202330,202683,202954,0021901267,2,928,928,2,0,1610612751
67,1610612751,1627747,1627789,1628386,1629058,203925,1610612738,1628400,1629641,202330,202683,202954,0021901267,2,937,939,0,0,1610612738
68,1610612751,1627747,1627789,1628386,1629058,203925,1610612738,1628400,1629035,202330,202683,202954,0021901267,2,955,955,2,0,1610612751
69,1610612751,1627747,1627789,1628386,1629058,203925,1610612738,1628400,1629035,202330,202683,202954,0021901267,2,967,967,0,2,1610612738
70,1610612751,1627747,1627789,1628386,1629058,203925,1610612738,1628400,1629035,202330,202683,202954,0021901267,2,976,979,0,0,1610612751
71,1610612751,1627747,1627789,1628386,1629058,203925,1610612738,1628400,1629035,202330,202683,202954,0021901267,2,983,983,0,1,1610612738
72,1610612751,1627747,1627789,1628386,203925,204020,1610612738,1628400,1629035,202330,202683,202954,0021901267,2,984,994,2,0,1610612751
73,1610612751,1627747,1627789,1628386,203925,204020,1610612738,1628400,1629035,202330,202683,202954,0021901267,2,1014,1014,0,3,1610612738
74,1610612751,1627747,1627789,1628386,203925,204020,1610612738,1628400,1629035,202330,202683,202954,0021901267,2,1030,1039,0,0,1610612751
75,1610612751,1627747,1627789,1628386,203925,204020,1610612738,1627759,1628400,1629035,202683,202954,0021901267,2,1039,1051,0,2,1610612738
76,1610612751,1627747,1627789,1628386,203925,204020,1610612738,1627759,1628400,1629035,202683,203935,0021901267,2,1061,1061,2,0,1610612751
77,1610612751,1627747,1627789,1628386,203925,204020,1610612738,1627759,1628400,1629035,202683,203935,0021901267,2,1073,1073,0,3,1610612738
78,1610612751,1627747,1627789,1628386,203925,204020,1610612738,1627759,1628400,1629035,202683,203935,0021901267,2,1084,1084,2,0,1610612751
79,1610612751,1627747,1627789,1628386,203925,204020,1610612738,1627759,1628400,1629035,202683,203935,0021901267,2,1094,1097,0,1,1610612738
80,1610612751,1627747,1627789,1628386,203925,204020,1610612738,1627759,1628400,1629035,202683,203935,0021901267,2,1110,1115,2,0,1610612751
81,1610612751,1627747,1627789,1628386,203925,204020,1610612738,1627759,1628400,1629035,202683,203935,0021901267,2,1124,1124,0,3,1610612738
82,1610612751,1627747,1627789,1628386,203925,204020,1610612738,1627759,1628400,1629035,202683,203935,0021901267,2,1139,1140,0,0,1610612751
83,1610612751,1627747,1627789,1628386,203925,204020,1610612738,1627759,1628400,1629035,202683,203935,0021901267,2,1140,1140,0,0,1610612738
84,1610612751,1627747,1627789,1628386,1629066,204020,1610612738,1627759,1628400,1628464,1629035,203935,0021901267,2,1147,1151,0,0,1610612751
85,1610612751,1627747,1627789,1628386,1629066,204020,1610612738,1627759,1628400,1628464,1629035,203935,0021901267,2,1153,1153,0,0,1610612738
86,1610612751,1627747,1627789,1628386,1629066,204020,1610612738,1627759,1628400,1628464,1629035,203935,0021901267,2,1169,1169,0,0,1610612751
87,1610612751,1627747,1627789,1628386,1629066,204020,1610612738,1627759,1628400,1628464,1629035,203935,0021901267,2,1174,1179,0,0,1610612738
88,1610612751,1627747,1627789,1628386,1629066,204020,1610612738,1627759,1628400,1628464,1629035,203935,0021901267,2,1181,1181,0,0,1610612751
89,1610612751,1627747,1628386,1629066,1629185,204020,1610612738,1627759,1628400,1628464,1629035,203935,0021901267,2,1204,1208,0,0,1610612738
90,1610612751,1627747,1628386,1629066,1629185,204020,1610612738,1627759,1628400,1628464,1629035,203935,0021901267,2,1215,1226,2,0,1610612751
91,1610612751,1627747,1628386,1629066,1629185,204020,1610612738,1627759,1628400,1628464,1629035,203935,0021901267,2,1238,1238,0,0,1610612738
92,1610612751,1627747,1628386,1629066,1629185,204020,1610612738,1627759,1628400,1628464,1629035,203935,0021901267,2,1247,1247,2,0,1610612751
93,1610612751,1627747,1628386,1629066,1629185,204020,1610612738,1627759,1628400,1628464,1629035,203935,0021901267,2,1248,1266,0,1,1610612738
94,1610612751,1627747,1628386,1629066,1629185,204020,1610612738,1627759,1628464,1629641,202330,203935,0021901267,2,1275,1275,1,0,1610612751
95,1610612751,1627747,1628386,1629066,1629185,204020,1610612738,1627759,1628464,1629641,202330,203935,0021901267,2,1285,1285,0,0,1610612738
96,1610612751,1627747,1628386,1629066,1629185,204020,1610612738,1627759,1628464,1629641,202330,203935,0021901267,2,1288,1288,0,0,1610612751
97,1610612751,1627747,1628386,1629066,1629185,204020,1610612738,1627759,1628464,1629641,202330,203935,0021901267,2,1292,1292,0,2,1610612738
98,1610612751,1627747,1628386,1629066,1629185,204020,1610612738,1627759,1628464,1629641,202330,203935,0021901267,2,1304,1308,0,0,1610612751
99,1610612751,1627747,1628386,1629066,1629185,204020,1610612738,1627759,1628464,1629641,202330,203935,0021901267,2,1309,1309,0,0,1610612738
100,1610612751,1627747,1628386,1629066,1629185,204020,1610612738,1627759,1628464,1629641,202330,203935,0021901267,2,1314,1314,2,0,1610612751
101,1610612751,1627747,1628386,1629066,1629185,204020,1610612738,1627759,1628464,1629641,202330,203935,0021901267,2,1322,1322,0,2,1610612738
102,1610612751,1627747,1628386,1629066,1629185,204020,1610612738,1627759,1628464,1629641,202330,203935,0021901267,2,1339,1339,3,0,1610612751
103,1610612751,1627747,1628386,1629066,1629185,204020,1610612738,1627759,1628464,1629641,202330,203935,0021901267,2,1359,1359,0,2,1610612738
104,1610612751,1627747,1628386,1629066,1629185,204020,1610612738,1627759,1628464,1629641,202330,203935,0021901267,2,1359,1361,1,0,1610612751
105,1610612751,1627747,1628386,1629066,1629185,204020,1610612738,1627759,1628464,1629641,202330,203935,0021901267,2,1370,1386,0,0,1610612738
106,1610612751,1627747,1628386,1629066,1629185,204020,1610612738,1627759,1628464,1629641,202330,203935,0021901267,2,1394,1394,0,0,1610612751
107,1610612751,1627747,1628386,1629066,1629185,204020,1610612738,1627759,1628464,1629641,202330,203935,0021901267,2,1399,1403,0,0,1610612738
108,1610612751,1627747,1628386,1629066,1629185,204020,1610612738,1627759,1628464,1629641,202330,203935,0021901267,2,1408,1408,0,0,1610612751
109,1610612751,1627747,1628386,1629066,1629185,204020,1610612738,1627759,1628464,1629641,202330,203935,0021901267,2,1414,1415,0,2,1610612738
110,1610612751,1627747,1628386,1629066,1629185,204020,1610612738,1627759,1628464,1629641,202330,203935,0021901267,2,1439,1439,0,0,1610612751
111,1610612751,1627747,1628386,1629066,1629185,204020,1610612738,1627759,1628464,1629641,202330,203935,0021901267,2,1440,1440,0,0,1610612751
112,1610612751,1627747,1628386,1629066,1629185,204020,1610612738,1627759,1628464,1629641,202330,203935,0021901267,2,1440,1456,0,0,1610612738
113,1610612751,203925,202498,1628386,1627747,204020,1610612738,202330,1628369,1628464,1627759,203935,0021901267,3,1461,1461,2,0,1610612751
114,1610612751,203925,202498,1628386,1627747,204020,1610612738,202330,1628369,1628464,1627759,203935,0021901267,3,1476,1476,0,3,1610612738
115,1610612751,203925,202498,1628386,1627747,204020,1610612738,202330,1628369,1628464,1627759,203935,0021901267,3,1497,1505,0,0,1610612751
116,1610612751,203925,202498,1628386,1627747,204020,1610612738,202330,1628369,1628464,1627759,203935,0021901267,3,1517,1519,0,0,1610612738
117,1610612751,203925,202498,1628386,1627747,204020,1610612738,202330,1628369,1628464,1627759,203935,0021901267,3,1523,1526,0,0,1610612751
118,1610612751,203925,202498,1628386,1627747,204020,1610612738,202330,1628369,1628464,1627759,203935,0021901267,3,1529,1529,0,2,1610612738
119,1610612751,203925,202498,1628386,1627747,204020,1610612738,202330,1628369,1628464,1627759,203935,0021901267,3,1541,1544,0,0,1610612751
120,1610612751,203925,202498,1628386,1627747,204020,1610612738,202330,1628369,1628464,1627759,203935,0021901267,3,1552,1555,0,0,1610612738
121,1610612751,203925,202498,1628386,1627747,204020,1610612738,202330,1628369,1628464,1627759,203935,0021901267,3,1569,1572,0,0,1610612751
122,1610612751,203925,202498,1628386,1627747,204020,1610612738,202330,1628369,1628464,1627759,203935,0021901267,3,1577,1577,0,2,1610612738
123,1610612751,203925,202498,1628386,1627747,204020,1610612738,202330,1628369,1628464,1627759,203935,0021901267,3,1597,1597,2,0,1610612751
124,1610612751,203925,202498,1628386,1627747,204020,1610612738,202330,1628369,1628464,1627759,203935,0021901267,3,1616,1619,0,0,1610612738
125,1610612751,203925,202498,1628386,1627747,204020,1610612738,202330,1628369,1628464,1627759,203935,0021901267,3,1628,1631,0,0,1610612751
126,1610612751,203925,202498,1628386,1627747,204020,1610612738,202330,1628369,1628464,1627759,203935,0021901267,3,1646,1646,0,3,1610612738
127,1610612751,203925,202498,1628386,1627747,204020,1610612738,202330,1628369,1628464,1627759,203935,0021901267,3,1671,1671,2,0,1610612751
128,1610612751,203925,202498,1628386,1627747,204020,1610612738,202330,1628369,1628464,1627759,203935,0021901267,3,1686,1686,0,0,1610612738
129,1610612751,203925,202498,1628386,1627747,204020,1610612738,202330,1628369,1628464,1627759,203935,0021901267,3,1689,1689,2,0,1610612751
130,1610612751,203925,202498,1628386,1627747,204020,1610612738,202330,1628369,1628464,1627759,203935,0021901267,3,1707,1709,0,0,1610612738
131,1610612751,203925,202498,1628386,1627747,204020,1610612738,202330,1628369,1628464,1627759,203935,0021901267,3,1726,1730,2,0,1610612751
132,1610612751,203925,202498,1628386,1627747,204020,1610612738,202330,1628369,1628464,1627759,203935,0021901267,3,1750,1750,0,3,1610612738
133,1610612751,203925,202498,1628386,1627747,204020,1610612738,202330,1628369,1628464,1627759,203935,0021901267,3,1763,1769,0,0,1610612751
134,1610612751,203925,202498,1628386,1627747,204020,1610612738,202330,1628369,1628464,1627759,203935,0021901267,3,1777,1777,0,2,1610612738
135,1610612751,203925,202498,1628386,1627747,204020,1610612738,202330,1628369,1628464,1627759,203935,0021901267,3,1777,1800,3,0,1610612751
136,1610612751,1626147,1627747,1628386,203925,204020,1610612738,1627759,1628369,1628464,1629641,203935,0021901267,3,1818,1818,0,2,1610612738
137,1610612751,1626147,1627747,1628386,203925,204020,1610612738,1627759,1628369,1628464,1629641,203935,0021901267,3,1837,1837,2,0,1610612751
138,1610612751,1626147,1627747,1628386,203925,204020,1610612738,1627759,1628369,1628464,1629641,203935,0021901267,3,1855,1860,0,0,1610612738
139,1610612751,1626147,1627747,1628386,203925,204020,1610612738,1627759,1628369,1628464,1629641,203935,0021901267,3,1876,1879,0,0,1610612751
140,1610612751,1626147,1627747,1628386,203925,204020,1610612738,1627759,1628369,1628464,1629641,203935,0021901267,3,1881,1881,0,0,1610612738
141,1610612751,1626147,1628386,1629185,203925,204020,1610612738,1628369,1628464,1629641,202954,203935,0021901267,3,1893,1896,0,0,1610612751
142,1610612751,1626147,1628386,1629185,203925,204020,1610612738,1628369,1628464,1629641,202954,203935,0021901267,3,1918,1918,0,3,1610612738
143,1610612751,1626147,1628386,1629185,203925,204020,1610612738,1628369,1628464,1629641,202954,203935,0021901267,3,1931,1934,0,0,1610612751
144,1610612751,1626147,1628386,1629185,203925,204020,1610612738,1628369,1628464,1629641,202954,203935,0021901267,3,1938,1938,0,3,1610612738
145,1610612751,1626147,1629185,1629725,1629743,204020,1610612738,1628369,1629057,1629641,202954,203935,0021901267,3,1958,1962,0,0,1610612751
146,1610612751,1626147,1629185,1629725,1629743,204020,1610612738,1628369,1629057,1629641,202954,203935,0021901267,3,1971,1971,0,2,1610612738
147,1610612751,1626147,1629185,1629725,1629743,204020,1610612738,1628369,1629057,1629641,202954,203935,0021901267,3,1983,1983,3,0,1610612751
148,1610612751,1626147,1629185,1629725,1629743,204020,1610612738,1628369,1629057,1629641,202330,202954,0021901267,3,1998,1998,0,3,1610612738
149,1610612751,1626147,1629185,1629725,1629743,204020,1610612738,1628369,1629057,1629641,202330,202954,0021901267,3,2020,2022,0,0,1610612751
150,1610612751,1626147,1629185,1629725,1629743,204020,1610612738,1628369,1629057,1629641,202330,202954,0021901267,3,2037,2037,0,0,1610612738
151,1610612751,1626147,1629185,1629725,1629743,204020,1610612738,1628369,1629057,1629641,202330,202954,0021901267,3,2046,2046,3,0,1610612751
152,1610612751,1626147,1629185,1629725,1629743,204020,1610612738,1628369,1629057,1629641,202330,202954,0021901267,3,2058,2061,0,0,1610612738
153,1610612751,1626147,1629185,1629725,1629743,204020,1610612738,1628369,1629057,1629641,202330,202954,0021901267,3,2067,2070,0,0,1610612751
154,1610612751,1626147,1629185,1629725,1629743,204020,1610612738,1628369,1629057,1629641,202330,202954,0021901267,3,2075,2075,0,2,1610612738
155,1610612751,1626147,1629185,1629725,1629743,204020,1610612738,1628369,1629057,1629641,202330,202954,0021901267,3,2083,2083,0,0,1610612751
156,1610612751,1626147,1629058,1629725,1629743,202498,1610612738,1628369,1629057,1629641,202330,202954,0021901267,3,2091,2091,0,2,1610612738
157,1610612751,1626147,1629058,1629725,1629743,202498,1610612738,1628369,1629057,1629641,202330,202954,0021901267,3,2100,2100,2,0,1610612751
158,1610612751,1626147,1629058,1629725,1629743,202498,1610612738,1628369,1629057,1629641,202330,202954,0021901267,3,2111,2113,0,0,1610612738
159,1610612751,1626147,1629058,1629725,1629743,202498,1610612738,1628369,1629057,1629641,202330,202954,0021901267,3,2119,2119,2,0,1610612751
160,1610612751,1626147,1629058,1629725,1629743,202498,1610612738,1628369,1629057,1629641,202330,202954,0021901267,3,2134,2134,0,3,1610612738
161,1610612751,1626147,1629058,1629725,1629743,202498,1610612738,1628369,1629057,1629641,202330,202954,0021901267,3,2157,2160,0,0,1610612751
162,1610612751,1626147,1629058,1629725,1629743,202498,1610612738,1628369,1629057,1629641,202330,202954,0021901267,3,2160,2160,0,0,1610612751
163,1610612751,202498,1629058,1626147,1629743,1629725,1610612738,202330,203935,1629641,1629057,1628400,0021901267,4,2160,2172,2,0,1610612751
164,1610612751,202498,1629058,1626147,1629743,1629725,1610612738,202330,203935,1629641,1629057,1628400,0021901267,4,2187,2187,0,2,1610612738
165,1610612751,202498,1629058,1626147,1629743,1629725,1610612738,202330,203935,1629641,1629057,1628400,0021901267,4,2203,2203,0,0,1610612751
166,1610612751,202498,1629058,1626147,1629743,1629725,1610612738,202330,203935,1629641,1629057,1628400,0021901267,4,2218,2218,0,2,1610612738
167,1610612751,202498,1629058,1626147,1629743,1629725,1610612738,202330,203935,1629641,1629057,1628400,0021901267,4,2235,2237,0,0,1610612751
168,1610612751,202498,1629058,1626147,1629743,1629725,1610612738,202330,203935,1629641,1629057,1628400,0021901267,4,2247,2247,0,0,1610612738
169,1610612751,202498,1629058,1626147,1629743,1629725,1610612738,202330,203935,1629641,1629057,1628400,0021901267,4,2251,2251,3,0,1610612751
170,1610612751,202498,1629058,1626147,1629743,1629725,1610612738,202330,203935,1629641,1629057,1628400,0021901267,4,2266,2266,0,2,1610612738
171,1610612751,202498,1629058,1626147,1629743,1629725,1610612738,202330,203935,1629641,1629057,1628400,0021901267,4,2283,2283,2,0,1610612751
172,1610612751,202498,1629058,1626147,1629743,1629725,1610612738,202330,203935,1629641,1629057,1628400,0021901267,4,2296,2296,0,3,1610612738
173,1610612751,202498,1629058,1626147,1629743,1629725,1610612738,202330,203935,1629641,1629057,1628400,0021901267,4,2307,2314,3,0,1610612751
174,1610612751,202498,1629058,1626147,1629743,1629725,1610612738,202330,203935,1629641,1629057,1628400,0021901267,4,2330,2330,0,3,1610612738
175,1610612751,202498,1629058,1626147,1629743,1629725,1610612738,202330,203935,1629641,1629057,1628400,0021901267,4,2339,2339,0,0,1610612751
176,1610612751,202498,1629058,1626147,1629743,1629725,1610612738,202330,203935,1629641,1629057,1628400,0021901267,4,2343,2343,0,2,1610612738
177,1610612751,202498,1629058,1626147,1629743,1629725,1610612738,202330,203935,1629641,1629057,1628400,0021901267,4,2360,2360,0,0,1610612751
178,1610612751,202498,1629058,1626147,1629743,1629725,1610612738,202330,203935,1629641,1629057,1628400,0021901267,4,2361,2381,0,0,1610612738
179,1610612751,202498,1629058,1626147,1629743,1629725,1610612738,202330,203935,1629641,1629057,1628400,0021901267,4,2391,2391,2,0,1610612751
180,1610612751,202498,1629058,1626147,1629743,1629725,1610612738,202330,203935,1629641,1629057,1628400,0021901267,4,2407,2410,0,0,1610612738
181,1610612751,202498,1629058,1626147,1629743,1629725,1610612738,202330,203935,1629641,1629057,1628400,0021901267,4,2418,2418,2,0,1610612751
182,1610612751,202498,1629058,1626147,1629743,1629725,1610612738,202330,203935,1629641,1629057,1628400,0021901267,4,2438,2442,0,0,1610612738
183,1610612751,202498,1629058,1626147,1629743,1629725,1610612738,202330,203935,1629641,1629057,1628400,0021901267,4,2450,2450,2,0,1610612751
184,1610612751,202498,1629058,1626147,1629743,1629725,1610612738,202330,203935,1629641,1629057,1628400,0021901267,4,2463,2463,0,3,1610612738
185,1610612751,202498,1629058,1626147,1629743,1629725,1610612738,202330,203935,1629641,1629057,1628400,0021901267,4,2466,2490,0,0,1610612751
186,1610612751,202498,1629058,1626147,1629743,1629725,1610612738,1628400,1629057,1629641,1629750,202954,0021901267,4,2495,2501,0,0,1610612738
187,1610612751,202498,1629058,1626147,1629743,1629725,1610612738,1628400,1629057,1629641,1629750,202954,0021901267,4,2504,2507,0,0,1610612751
188,1610612751,202498,1629058,1626147,1629743,1629725,1610612738,1628400,1629057,1629641,1629750,202954,0021901267,4,2517,2522,0,0,1610612738
189,1610612751,202498,1629058,1626147,1629743,1629725,1610612738,1628400,1629057,1629641,1629750,202954,0021901267,4,2527,2530,0,0,1610612751
190,1610612751,202498,1629058,1626147,1629743,1629725,1610612738,1628400,1629057,1629641,1629750,202954,0021901267,4,2534,2542,0,2,1610612738
191,1610612751,202498,1629058,1626147,1629743,1629725,1610612738,1628400,1629035,1629684,1629750,202954,0021901267,4,2557,2557,3,0,1610612751
192,1610612751,202498,1629058,1626147,1629743,1629725,1610612738,1628400,1629035,1629684,1629750,202954,0021901267,4,2567,2567,0,2,1610612738
193,1610612751,202498,1629058,1626147,1629743,1629725,1610612738,1628400,1629035,1629684,1629750,202954,0021901267,4,2591,2591,3,0,1610612751
194,1610612751,202498,1629058,1626147,1629743,1629725,1610612738,1628400,1629035,1629684,1629750,202954,0021901267,4,2601,2601,0,3,1610612738
195,1610612751,202498,1629058,1626147,1629743,1629725,1610612738,1628400,1629035,1629684,1629750,202954,0021901267,4,2616,2616,2,0,1610612751
196,1610612751,202498,1629058,1626147,1629743,1629725,1610612738,1628400,1629035,1629684,1629750,202954,0021901267,4,2625,2631,0,0,1610612738
197,1610612751,202498,1629058,1626147,1629743,1629725,1610612738,1628400,1629035,1629684,1629750,202954,0021901267,4,2640,2645,3,0,1610612751
198,1610612751,202498,1629058,1626147,1629743,1629725,1610612738,1628400,1629035,1629684,1629750,202954,0021901267,4,2662,2662,0,3,1610612738
199,1610612751,202498,1629058,1626147,1629743,1629725,1610612738,1628400,1629035,1629684,1629750,202954,0021901267,4,2677,2680,0,0,1610612751
200,1610612751,202498,1629058,1626147,1629743,1629725,1610612738,1628400,1629035,1629684,1629750,202954,0021901267,4,2696,2698,0,0,1610612738
201,1610612751,202498,1629058,1626147,1629743,1629725,1610612738,1628400,1629035,1629684,1629750,202954,0021901267,4,2704,2704,3,0,1610612751
202,1610612751,202498,1629058,1626147,1629743,1629725,1610612738,1629035,1629057,1629684,1629750,202954,0021901267,4,2724,2724,0,2,1610612738
203,1610612751,202498,1629058,1626147,1629743,1629725,1610612738,1629035,1629057,1629684,1629750,202954,0021901267,4,2744,2747,0,0,1610612751
204,1610612751,202498,1629058,1626147,1629743,1629725,1610612738,1629035,1629057,1629684,1629750,202954,0021901267,4,2754,2754,0,3,1610612738
205,1610612751,202498,1629058,1626147,1629743,1629725,1610612738,1629035,1629057,1629684,1629750,202954,0021901267,4,2770,2770,2,0,1610612751
206,1610612751,202498,1629058,1626147,1629743,1629725,1610612738,1629035,1629057,1629684,1629750,202954,0021901267,4,2779,2779,0,3,1610612738
207,1610612751,202498,1629058,1626147,1629743,1629725,1610612738,1629035,1629057,1629684,1629750,202954,0021901267,4,2785,2785,2,0,1610612751
208,1610612751,202498,1629058,1626147,1629743,1629725,1610612738,1629035,1629057,1629684,1629750,202954,0021901267,4,2794,2794,0,2,1610612738
209,1610612751,202498,1629058,1626147,1629743,1629725,1610612738,1629035,1629057,1629684,1629750,202954,0021901267,4,2811,2811,2,0,1610612751
210,1610612751,202498,1629058,1626147,1629743,1629725,1610612738,1629035,1629057,1629684,1629750,202954,0021901267,4,2818,2818,0,2,1610612738
211,1610612751,202498,1629058,1626147,1629743,1629725,1610612738,1629035,1629057,1629684,1629750,202954,0021901267,4,2835,2835,0,0,1610612751
212,1610612751,202498,1629058,1626147,1629743,1629725,1610612738,1629035,1629057,1629684,1629750,202954,0021901267,4,2838,2838,0,2,1610612738
213,1610612751,202498,1629058,1626147,1629743,1629725,1610612738,1629035,1629057,1629684,1629750,202954,0021901267,4,2841,2841,2,0,1610612751
214,1610612751,202498,1629058,1626147,1629743,1629725,1610612738,1629035,1629057,1629684,1629750,202954,0021901267,4,2860,2860,0,2,1610612738
215,1610612751,202498,1629058,1626147,1629743,1629725,1610612738,1629035,1629057,1629684,1629750,202954,0021901267,4,2871,2874,0,0,1610612751
