,stint_end,t1_players,t2_pm,t2_points_scored,stint_start,t1_pm,t1_points_scored,t2_id,t1_id,t2_players,margin_per_100,num_poss
0,426,"[1626181, 203496, 203994, 203468, 203081]",12,21,0,-12,9,1610612743,1610612757,"[1629008, 203932, 203999, 203085, 1630267]",-44.44444444444444,27.0
1,506,"[1626181, 203496, 203994, 203468, 203081]",11,26,427,-11,15,1610612743,1610612757,"[1629008, 203932, 203999, 203085, 1630267]",-32.35294117647059,34.0
2,571,"[1629014, 203081, 203468, 203994, 2546]",11,31,507,-11,20,1610612743,1610612757,"[1628420, 1630267, 203085, 203932, 203999]",-27.500000000000004,40.0
3,716,"[1626181, 1629014, 203081, 203994, 2546]",13,38,572,-13,25,1610612743,1610612757,"[1628420, 203085, 203210, 203932, 203999]",-27.659574468085108,47.0
4,909,"[1626181, 1629014, 203081, 203994, 2546]",15,47,717,-15,32,1610612743,1610612757,"[1628420, 1629008, 1630210, 203210, 203999]",-25.423728813559322,59.0
5,975,"[203496, 203468, 2546, 1629014, 1626178]",22,54,910,-22,32,1610612743,1610612757,"[1629008, 1628420, 203210, 1630210, 200794]",-34.375,64.0
6,1047,"[1626178, 203081, 203468, 203496, 2546]",18,57,976,-18,39,1610612743,1610612757,"[1629008, 1628420, 203210, 1630210, 200794]",-26.08695652173913,69.0
7,1073,"[1626181, 203081, 203468, 203496, 2546]",20,59,1048,-20,39,1610612743,1610612757,"[1629008, 1628420, 203210, 1630210, 200794]",-28.57142857142857,70.0
8,1114,"[1626181, 203081, 203468, 203496, 203994]",20,59,1074,-20,39,1610612743,1610612757,"[1630210, 1630267, 203085, 203210, 203999]",-27.77777777777778,72.0
9,1272,"[1626181, 203081, 203468, 203496, 203994]",8,59,1115,-8,51,1610612743,1610612757,"[1630210, 1630267, 203085, 203932, 203999]",-9.411764705882353,85.0
10,1439,"[1626181, 203081, 203468, 203496, 203994]",5,65,1273,-5,60,1610612743,1610612757,"[1629008, 1630267, 203085, 203932, 203999]",-5.208333333333334,96.0
11,1657,"[1626181, 203081, 203468, 203496, 203994]",2,69,1440,-2,67,1610612743,1610612757,"[1628420, 1629008, 203085, 203932, 203999]",-1.8018018018018018,111.0
12,1773,"[1626181, 203496, 203994, 203468, 203081]",4,75,1658,-4,71,1610612743,1610612757,"[1629008, 203932, 203999, 203085, 1630267]",-3.389830508474576,118.0
13,1914,"[1626181, 202683, 203081, 203468, 203496]",2,82,1774,-2,80,1610612743,1610612757,"[1629008, 203932, 203999, 203085, 1630267]",-1.550387596899225,129.0
14,2140,"[1626181, 202683, 203081, 203468, 203496]",-4,90,1915,4,94,1610612743,1610612757,"[1628420, 1630267, 203085, 203932, 203999]",2.7777777777777777,144.0
15,2159,"[1626181, 1629014, 202683, 203081, 2546]",-2,92,2141,2,94,1610612743,1610612757,"[1628420, 1630210, 203085, 203210, 203999]",1.3793103448275863,145.0
16,2345,"[1626181, 1629014, 203081, 203468, 2546]",-1,97,2160,1,98,1610612743,1610612757,"[1627885, 1628420, 1630267, 203085, 203999]",0.641025641025641,156.0
17,2427,"[1626181, 203468, 2546, 1629014, 1626178]",5,103,2346,-5,98,1610612743,1610612757,"[1629008, 1628420, 203210, 1630210, 200794]",-3.125,160.0
18,2519,"[1626178, 203081, 203468, 203496, 2546]",0,105,2428,0,105,1610612743,1610612757,"[1628420, 1629008, 200794, 203085, 203210]",0.0,166.0
19,2571,"[1626181, 203081, 203468, 203496, 2546]",-1,107,2520,1,108,1610612743,1610612757,"[1628420, 1629008, 200794, 203085, 203210]",0.5952380952380952,168.0
20,2639,"[1626181, 203081, 203468, 203496, 203994]",2,110,2572,-2,108,1610612743,1610612757,"[1628420, 1629008, 203085, 203210, 203999]",-1.1627906976744187,172.0
21,2866,"[1626181, 203081, 203468, 203496, 203994]",4,119,2640,-4,115,1610612743,1610612757,"[1628420, 1629008, 203085, 203932, 203999]",-2.13903743315508,187.0
22,2867,"[1626181, 203081, 203468, 203496, 2546]",1,119,2867,-1,118,1610612743,1610612757,"[1628420, 1629008, 203085, 203932, 203999]",-0.5319148936170213,188.0
23,2879,"[1626181, 202683, 203081, 203468, 203496]",0,121,2868,0,121,1610612743,1610612757,"[1628420, 1629008, 203085, 203932, 203999]",0.0,190.0
24,3045,"[1626181, 203081, 203468, 203496, 2546]",9,132,2880,-9,123,1610612743,1610612757,"[1628420, 1629008, 203085, 203932, 203999]",-4.545454545454546,198.0
25,3157,"[1626181, 203496, 203468, 203081, 202683]",2,134,3046,-2,132,1610612743,1610612757,"[1629008, 203932, 203999, 203085, 1628420]",-0.975609756097561,205.0
26,3178,"[1626181, 203081, 203468, 203496, 2546]",0,135,3158,0,135,1610612743,1610612757,"[1629008, 203932, 203999, 203085, 1628420]",0.0,207.0
27,3324,"[1626181, 203081, 203468, 203496, 2546]",0,140,3179,0,140,1610612743,1610612757,"[1627885, 1628420, 1630267, 203085, 203999]",0.0,215.0
28,3386,"[1626181, 203468, 203081, 2546, 202683]",0,140,3325,0,140,1610612743,1610612757,"[1629008, 203932, 203999, 203085, 1628420]",0.0,216.0
29,3469,"[1626181, 202683, 203081, 203468, 203496]",3,143,3387,-3,140,1610612743,1610612757,"[1629008, 203932, 203999, 203085, 1628420]",-1.3574660633484164,221.0
30,3471,"[1626181, 203081, 203468, 203496, 2546]",3,143,3470,-3,140,1610612743,1610612757,"[1629008, 203932, 203999, 203085, 1628420]",-1.3513513513513513,222.0
31,3476,"[1626178, 1626181, 1629014, 202683, 203081]",5,145,3472,-5,140,1610612743,1610612757,"[1627885, 1628420, 1630267, 203085, 203932]",-2.242152466367713,223.0
32,3479,"[1626181, 1629014, 203081, 203468, 2546]",7,147,3477,-7,140,1610612743,1610612757,"[1627885, 1628420, 1630267, 203085, 203932]",-3.111111111111111,225.0
33,9999999,"[1626181, 1629014, 202683, 203081, 2546]",7,147,3480,-7,140,1610612743,1610612757,"[1627885, 1628420, 1630267, 203085, 203932]",-3.0973451327433628,226.0
