,team1_id,team1_player1,team1_player2,team1_player3,team1_player4,team1_player5,team2_id,team2_player1,team2_player2,team2_player3,team2_player4,team2_player5,game_id,period,possession_start,possession_end,team1_points,team2_points,possession_team
0,1610612760,1628390,201568,203500,1628983,203471,1610612746,1629599,203210,1627826,203585,202704,0021901317,1,0,19,0,0,1610612746
1,1610612760,1628390,201568,203500,1628983,203471,1610612746,1629599,203210,1627826,203585,202704,0021901317,1,27,27,2,0,1610612760
2,1610612760,1628390,201568,203500,1628983,203471,1610612746,1629599,203210,1627826,203585,202704,0021901317,1,47,47,0,2,1610612746
3,1610612760,1628390,201568,203500,1628983,203471,1610612746,1629599,203210,1627826,203585,202704,0021901317,1,71,71,0,0,1610612760
4,1610612760,1628390,201568,203500,1628983,203471,1610612746,1629599,203210,1627826,203585,202704,0021901317,1,80,80,0,0,1610612746
5,1610612760,1628390,201568,203500,1628983,203471,1610612746,1629599,203210,1627826,203585,202704,0021901317,1,99,104,0,0,1610612760
6,1610612760,1628390,201568,203500,1628983,203471,1610612746,1629599,203210,1627826,203585,202704,0021901317,1,111,111,0,2,1610612746
7,1610612760,1628390,201568,203500,1628983,203471,1610612746,1629599,203210,1627826,203585,202704,0021901317,1,118,133,0,0,1610612760
8,1610612760,1628390,201568,203500,1628983,203471,1610612746,1629599,203210,1627826,203585,202704,0021901317,1,142,142,0,2,1610612746
9,1610612760,1628390,201568,203500,1628983,203471,1610612746,1629599,203210,1627826,203585,202704,0021901317,1,166,168,0,0,1610612760
10,1610612760,1628390,201568,203500,1628983,203471,1610612746,1629599,203210,1627826,203585,202704,0021901317,1,188,189,0,0,1610612746
11,1610612760,1628390,201568,203500,1628983,203471,1610612746,1629599,203210,1627826,203585,202704,0021901317,1,198,200,0,0,1610612760
12,1610612760,1628390,201568,203500,1628983,203471,1610612746,1629599,203210,1627826,203585,202704,0021901317,1,207,226,0,0,1610612746
13,1610612760,1628390,201568,203500,1628983,203471,1610612746,1629599,203210,1627826,203585,202704,0021901317,1,234,238,2,0,1610612760
14,1610612760,1628390,201568,203500,1628983,203471,1610612746,1629599,203210,1627826,203585,202704,0021901317,1,251,251,0,0,1610612746
15,1610612760,1628390,201568,203500,1628983,203471,1610612746,1629599,203210,1627826,203585,202704,0021901317,1,267,267,2,0,1610612760
16,1610612760,1628390,201568,203500,1628983,203471,1610612746,1629599,203210,1627826,203585,202704,0021901317,1,277,277,0,0,1610612746
17,1610612760,1628390,201568,203500,1628983,203471,1610612746,1629599,203210,1627826,203585,202704,0021901317,1,280,280,2,0,1610612760
18,1610612760,1628390,201568,203500,1628983,203471,1610612746,1629599,203210,1627826,203585,202704,0021901317,1,280,300,0,0,1610612746
19,1610612760,1628390,201568,203500,1628983,203471,1610612746,1629599,203210,1627826,203585,202704,0021901317,1,316,316,2,0,1610612760
20,1610612760,1628390,201568,203500,1628983,203471,1610612746,1629599,203210,1627826,203585,202704,0021901317,1,342,345,0,0,1610612746
21,1610612760,1628390,201568,203500,1628983,203471,1610612746,1629599,202335,202704,203210,203585,0021901317,1,362,366,0,0,1610612760
22,1610612760,1628390,201568,203500,1628983,203471,1610612746,1629599,202335,202704,203210,203585,0021901317,1,370,370,0,2,1610612746
23,1610612760,1628390,201568,203500,1628983,203471,1610612746,1629599,202335,202704,203210,203585,0021901317,1,382,398,0,0,1610612760
24,1610612760,1628983,201568,203457,203460,203471,1610612746,1629599,1629611,202335,203210,203585,0021901317,1,402,406,0,0,1610612746
25,1610612760,1628983,201568,203457,203460,203471,1610612746,1629599,1629611,202335,203210,203585,0021901317,1,414,414,0,0,1610612760
26,1610612760,1628983,201568,203457,203460,203471,1610612746,1629599,1629611,202335,203210,203585,0021901317,1,419,419,0,3,1610612746
27,1610612760,1628983,201568,203457,203460,203471,1610612746,1629599,1629611,202335,203210,203585,0021901317,1,431,431,0,0,1610612760
28,1610612760,1628983,201568,203457,203460,203471,1610612746,1629599,1629611,202335,203210,203585,0021901317,1,432,441,0,2,1610612746
29,1610612760,1628983,201568,203457,203460,203471,1610612746,1629599,1629611,202335,203210,203585,0021901317,1,453,453,2,0,1610612760
30,1610612760,1628983,201568,203457,203460,203471,1610612746,1629599,1629611,202335,203210,203585,0021901317,1,468,468,0,3,1610612746
31,1610612760,1628983,201568,203457,203460,203471,1610612746,1629599,1629611,202335,203210,203585,0021901317,1,489,510,1,0,1610612760
32,1610612760,1628983,201568,203457,203460,203471,1610612746,1629599,1629611,201149,202335,203585,0021901317,1,526,528,0,0,1610612746
33,1610612760,1628983,201568,203457,203460,203471,1610612746,1629599,1629611,201149,202335,203585,0021901317,1,532,532,3,0,1610612760
34,1610612760,1628983,1629647,203457,203460,203471,1610612746,1629599,1629611,201149,202335,203585,0021901317,1,550,553,0,0,1610612746
35,1610612760,1628983,1629647,203457,203460,203471,1610612746,1629599,1629611,201149,202335,203585,0021901317,1,560,560,2,0,1610612760
36,1610612760,1628983,1629647,203457,203460,203471,1610612746,1629599,1629611,201149,202335,203585,0021901317,1,573,576,0,0,1610612746
37,1610612760,1628983,1629647,203457,203460,203471,1610612746,1629599,1629611,201149,202335,203585,0021901317,1,582,582,2,0,1610612760
38,1610612760,1628983,1629647,203457,203460,203471,1610612746,1629599,1629611,201149,202335,203585,0021901317,1,606,609,0,0,1610612746
39,1610612760,1628983,1629647,203457,203460,203471,1610612746,1629599,1629611,201149,202335,203585,0021901317,1,616,616,1,0,1610612760
40,1610612760,1628390,1629647,203457,203460,203471,1610612746,1629599,1629611,201149,202335,202704,0021901317,1,639,648,0,0,1610612746
41,1610612760,1628390,1629647,203457,203460,203471,1610612746,1629599,1629611,201149,202335,202704,0021901317,1,655,655,1,0,1610612760
42,1610612760,1628390,1629647,203457,203460,203471,1610612746,1629599,1629611,201149,202335,202704,0021901317,1,667,667,0,2,1610612746
43,1610612760,1628390,1629647,203457,203460,203471,1610612746,1629599,1629611,201149,202335,202704,0021901317,1,688,690,0,0,1610612760
44,1610612760,1628390,1629647,203457,203460,203471,1610612746,1629599,1629611,201149,202335,202704,0021901317,1,710,717,0,3,1610612746
45,1610612760,1628390,1629647,203457,203460,203471,1610612746,1629599,1629611,201149,202335,202704,0021901317,1,720,720,0,0,1610612746
46,1610612760,1628983,203460,203457,1629647,1628977,1610612746,203585,202704,202335,1629611,201149,0021901317,2,720,735,2,0,1610612760
47,1610612760,1628983,203460,203457,1629647,1628977,1610612746,203585,202704,202335,1629611,201149,0021901317,2,753,755,0,0,1610612746
48,1610612760,1628983,203460,203457,1629647,1628977,1610612746,203585,202704,202335,1629611,201149,0021901317,2,764,766,0,0,1610612760
49,1610612760,1628983,203460,203457,1629647,1628977,1610612746,203585,202704,202335,1629611,201149,0021901317,2,771,771,0,0,1610612746
50,1610612760,1628983,203460,203457,1629647,1628977,1610612746,203585,202704,202335,1629611,201149,0021901317,2,792,792,3,0,1610612760
51,1610612760,1628983,203460,203457,1629647,1628977,1610612746,203585,202704,202335,1629611,201149,0021901317,2,813,813,0,0,1610612746
52,1610612760,1628983,203460,203457,1629647,1628977,1610612746,203585,202704,202335,1629611,201149,0021901317,2,813,823,0,0,1610612760
53,1610612760,1628983,203460,203457,1629647,1628977,1610612746,203585,202704,202335,1629611,201149,0021901317,2,834,837,0,0,1610612746
54,1610612760,1628983,203460,203457,1629647,1628977,1610612746,203585,202704,202335,1629611,201149,0021901317,2,847,847,2,0,1610612760
55,1610612760,1628983,203460,203457,1629647,1628977,1610612746,203585,202704,202335,1629611,201149,0021901317,2,863,863,0,0,1610612746
56,1610612760,1628390,1628977,1628983,1629647,203457,1610612746,203585,202704,202335,1629611,201149,0021901317,2,887,888,0,0,1610612760
57,1610612760,1628390,1628977,1628983,1629647,203488,1610612746,203585,202704,202335,1629611,201149,0021901317,2,908,910,0,0,1610612746
58,1610612760,1628390,1628977,1628983,1629647,203488,1610612746,203585,202704,202335,1629611,201149,0021901317,2,915,928,0,0,1610612760
59,1610612760,1628390,1628977,1629647,203471,203488,1610612746,1629599,1629611,201149,203210,203585,0021901317,2,935,940,0,0,1610612746
60,1610612760,1628390,1628977,1629647,203471,203488,1610612746,1629599,1629611,201149,203210,203585,0021901317,2,943,943,0,0,1610612760
61,1610612760,1628390,1628977,1629647,203471,203488,1610612746,1629599,1629611,201149,203210,203585,0021901317,2,957,957,0,2,1610612746
62,1610612760,1628390,1628977,1629126,203471,203488,1610612746,1629599,1629611,201149,203210,203585,0021901317,2,970,970,2,0,1610612760
63,1610612760,1628390,1628977,1629126,203471,203488,1610612746,1629599,1629611,201149,203210,203585,0021901317,2,986,989,0,0,1610612746
64,1610612760,1628390,1628977,1629126,203471,203488,1610612746,1629599,1629611,201149,203210,203585,0021901317,2,1008,1008,0,0,1610612760
65,1610612760,1628390,1628977,1629126,203471,203488,1610612746,1629599,1629611,201149,203210,203585,0021901317,2,1016,1016,0,2,1610612746
66,1610612760,1628390,1628977,1629126,203471,203488,1610612746,1629599,1629611,201149,203210,203585,0021901317,2,1031,1035,0,0,1610612760
67,1610612760,1628390,1628977,1629126,203471,203488,1610612746,1629599,1629611,201149,203210,203585,0021901317,2,1044,1044,0,2,1610612746
68,1610612760,1628390,1628977,1629126,203471,203488,1610612746,1629599,1629611,201149,203210,203585,0021901317,2,1053,1053,2,0,1610612760
69,1610612760,1628390,1628977,1629126,203471,203488,1610612746,1629599,1629611,201149,203210,203585,0021901317,2,1070,1078,0,0,1610612746
70,1610612760,1628390,1628977,1629126,203471,203488,1610612746,1629599,1629611,201149,203210,203585,0021901317,2,1083,1083,3,0,1610612760
71,1610612760,1628390,1628977,1629126,203471,203488,1610612746,1629599,1629611,201149,203210,203585,0021901317,2,1101,1101,0,0,1610612746
72,1610612760,1628390,1628977,1629126,203471,203488,1610612746,1629599,1629611,201149,203210,203585,0021901317,2,1101,1127,0,0,1610612760
73,1610612760,1628977,1629126,203460,203471,203488,1610612746,1629599,1629611,201149,203210,203585,0021901317,2,1145,1150,0,0,1610612746
74,1610612760,1628977,1629126,203460,203471,203488,1610612746,1629599,1629611,201149,203210,203585,0021901317,2,1162,1165,0,0,1610612760
75,1610612760,1628977,1629126,203460,203471,203488,1610612746,1629599,1629611,201149,203210,203585,0021901317,2,1177,1177,0,2,1610612746
76,1610612760,1628977,1629126,203460,203471,203488,1610612746,1629599,1629611,201149,203210,203585,0021901317,2,1191,1196,0,0,1610612760
77,1610612760,1628977,1629126,1629647,203471,203488,1610612746,1629599,1629611,201149,203210,203585,0021901317,2,1201,1201,0,2,1610612746
78,1610612760,1628977,1629126,1629647,203471,203488,1610612746,1629599,1629611,201149,203210,203585,0021901317,2,1210,1214,0,0,1610612760
79,1610612760,1628977,1629126,1629647,203471,203488,1610612746,1629599,1629611,201149,203210,203585,0021901317,2,1224,1227,0,0,1610612746
80,1610612760,1628977,1629126,1629647,203471,203488,1610612746,1629599,1629611,202335,203210,203585,0021901317,2,1246,1248,0,0,1610612760
81,1610612760,1628977,1629126,1629647,203471,203488,1610612746,1629599,1629611,202335,203210,203585,0021901317,2,1252,1268,0,0,1610612746
82,1610612760,1628977,1629126,1629647,203471,203488,1610612746,1629599,1629611,202335,203210,203585,0021901317,2,1278,1278,3,0,1610612760
83,1610612760,1628977,1629126,1629647,203471,203488,1610612746,1629599,1629611,202335,203210,203585,0021901317,2,1299,1310,0,4,1610612746
84,1610612760,1628977,1629126,1629647,203457,203471,1610612746,1629599,1629611,202335,203210,203585,0021901317,2,1333,1335,0,0,1610612760
85,1610612760,1628977,1629126,1629647,203457,203471,1610612746,1629599,1629611,202335,203210,203585,0021901317,2,1341,1341,0,0,1610612746
86,1610612760,1628977,1629126,1629647,203457,203471,1610612746,1629599,1629611,202335,203210,203585,0021901317,2,1346,1362,0,0,1610612760
87,1610612760,1628977,1629126,1629647,203457,203471,1610612746,1629599,1629611,202335,203210,203585,0021901317,2,1366,1366,0,0,1610612746
88,1610612760,1628977,1629126,1629647,203457,203471,1610612746,1629599,1629611,202335,203210,203585,0021901317,2,1380,1380,3,0,1610612760
89,1610612760,1628977,1629126,1629647,203457,203471,1610612746,1629599,1629611,202335,203210,203585,0021901317,2,1397,1405,0,0,1610612746
90,1610612760,1628977,1629126,1629647,203457,203471,1610612746,1629599,1629611,202335,203210,203585,0021901317,2,1408,1408,3,0,1610612760
91,1610612760,1628977,1629126,1629647,203457,203471,1610612746,1629599,1629611,202335,203210,203585,0021901317,2,1421,1425,0,0,1610612746
92,1610612760,1628977,1629126,1629647,203457,203471,1610612746,1629599,1629611,202335,203210,203585,0021901317,2,1433,1433,2,0,1610612760
93,1610612760,1628977,1629126,1629647,203457,203471,1610612746,1629599,1629611,202335,203210,203585,0021901317,2,1439,1439,0,2,1610612746
94,1610612760,1628977,1629126,1629647,203457,203471,1610612746,1629599,1629611,202335,203210,203585,0021901317,2,1439,1440,0,0,1610612746
95,1610612760,1628390,203471,203457,1629647,1628977,1610612746,1629599,203210,1627826,203585,202704,0021901317,3,1440,1455,2,0,1610612760
96,1610612760,1628390,203471,203457,1629647,1628977,1610612746,1629599,203210,1627826,203585,202704,0021901317,3,1477,1477,0,2,1610612746
97,1610612760,1628390,203471,203457,1629647,1628977,1610612746,1629599,203210,1627826,203585,202704,0021901317,3,1489,1492,0,0,1610612760
98,1610612760,1628390,203471,203457,1629647,1628977,1610612746,1629599,203210,1627826,203585,202704,0021901317,3,1501,1501,0,3,1610612746
99,1610612760,1628390,203471,203457,1629647,1628977,1610612746,1629599,203210,1627826,203585,202704,0021901317,3,1517,1520,0,0,1610612760
100,1610612760,1628390,203471,203457,1629647,1628977,1610612746,1629599,203210,1627826,203585,202704,0021901317,3,1529,1530,0,0,1610612746
101,1610612760,1628390,203471,203457,1629647,1628977,1610612746,1629599,203210,1627826,203585,202704,0021901317,3,1543,1543,0,0,1610612760
102,1610612760,1628390,203471,203457,1629647,1628977,1610612746,1629599,203210,1627826,203585,202704,0021901317,3,1551,1551,0,3,1610612746
103,1610612760,1628390,203471,203457,1629647,1628977,1610612746,1629599,203210,1627826,203585,202704,0021901317,3,1577,1580,0,0,1610612760
104,1610612760,1628390,203471,203457,1629647,1628977,1610612746,1629599,203210,1627826,203585,202704,0021901317,3,1582,1582,0,2,1610612746
105,1610612760,1628390,203471,203457,1629647,1628977,1610612746,1629599,203210,1627826,203585,202704,0021901317,3,1606,1606,0,0,1610612760
106,1610612760,1628390,203471,203457,1629647,1628977,1610612746,1629599,203210,1627826,203585,202704,0021901317,3,1620,1622,0,0,1610612746
107,1610612760,1628390,203471,203457,1629647,1628977,1610612746,1629599,203210,1627826,203585,202704,0021901317,3,1625,1625,0,0,1610612760
108,1610612760,1628390,203471,203457,1629647,1628977,1610612746,1629599,203210,1627826,203585,202704,0021901317,3,1630,1630,0,3,1610612746
109,1610612760,1628390,203471,203457,1629647,1628977,1610612746,1629599,203210,1627826,203585,202704,0021901317,3,1632,1657,0,0,1610612760
110,1610612760,1628390,203471,203457,1629647,1628977,1610612746,1627826,1629599,202335,202704,203585,0021901317,3,1662,1682,0,0,1610612746
111,1610612760,1628390,203471,203457,1629647,1628977,1610612746,1627826,1629599,202335,202704,203585,0021901317,3,1705,1708,0,0,1610612760
112,1610612760,1628390,203471,203457,1629647,1628977,1610612746,1627826,1629599,202335,202704,203585,0021901317,3,1716,1716,0,2,1610612746
113,1610612760,1628390,203471,203457,1629647,1628977,1610612746,1627826,1629599,202335,202704,203585,0021901317,3,1724,1724,0,0,1610612760
114,1610612760,1628390,1628977,1628985,1629647,203488,1610612746,1627826,1629599,1629611,202335,203585,0021901317,3,1736,1739,0,0,1610612746
115,1610612760,1628390,1628977,1628985,1629647,203488,1610612746,1627826,1629599,1629611,202335,203585,0021901317,3,1740,1740,1,0,1610612760
116,1610612760,1628390,1628977,1628985,1629647,203488,1610612746,1629599,1629611,202335,203210,203585,0021901317,3,1754,1764,0,0,1610612746
117,1610612760,1628977,1628985,1629647,203460,203488,1610612746,1629599,1629611,202335,203210,203585,0021901317,3,1771,1771,3,0,1610612760
118,1610612760,1628977,1628985,1629647,203460,203488,1610612746,1629599,1629611,202335,203210,203585,0021901317,3,1785,1785,0,1,1610612746
119,1610612760,1628977,1628985,1629647,203460,203488,1610612746,1629599,1629611,202335,203210,203585,0021901317,3,1799,1799,2,0,1610612760
120,1610612760,1628977,1628985,1629647,203460,203488,1610612746,1629599,1629611,202335,203210,203585,0021901317,3,1807,1809,0,0,1610612746
121,1610612760,1628977,1628985,1629647,203460,203488,1610612746,1629599,1629611,202335,203210,203585,0021901317,3,1814,1814,1,0,1610612760
122,1610612760,1628977,1628985,1629647,203460,203488,1610612746,1629599,1629611,202335,203210,203585,0021901317,3,1825,1825,0,3,1610612746
123,1610612760,1628977,1628985,1629647,203460,203488,1610612746,1629599,1629611,202335,203210,203585,0021901317,3,1837,1839,0,0,1610612760
124,1610612760,1628977,1628985,1629647,203460,203488,1610612746,1629599,1629611,202335,203210,203585,0021901317,3,1846,1848,0,0,1610612746
125,1610612760,1628977,1628985,1629647,203460,203488,1610612746,1629599,1629611,202335,203210,203585,0021901317,3,1854,1857,0,0,1610612760
126,1610612760,1628977,1628985,1629647,203460,203488,1610612746,1629599,1629611,202335,203210,203585,0021901317,3,1875,1878,0,0,1610612746
127,1610612760,1628977,1628985,1629647,203460,203488,1610612746,1629599,1629611,202335,203210,203585,0021901317,3,1884,1887,0,0,1610612760
128,1610612760,1628977,1628985,1629647,203460,203488,1610612746,1629599,1629611,202335,203210,203585,0021901317,3,1891,1898,0,2,1610612746
129,1610612760,1628985,1629126,1629647,203460,203488,1610612746,1629599,1629611,202335,203210,203585,0021901317,3,1921,1921,3,0,1610612760
130,1610612760,1628985,1629126,1629647,203460,203488,1610612746,1629599,1629611,202335,203210,203585,0021901317,3,1932,1932,0,0,1610612746
131,1610612760,1628985,1629126,1629647,203460,203488,1610612746,1629599,1629611,202335,203210,203585,0021901317,3,1942,1945,0,0,1610612760
132,1610612760,1628985,1629126,1629647,203460,203488,1610612746,1629599,1629611,201149,202335,203585,0021901317,3,1964,1964,0,2,1610612746
133,1610612760,1628977,1628985,1629126,203460,203488,1610612746,1629599,1629611,201149,202335,203585,0021901317,3,1983,1986,0,0,1610612760
134,1610612760,1628977,1628985,1629126,203460,203488,1610612746,1629599,1629611,201149,202335,203585,0021901317,3,1993,1993,0,2,1610612746
135,1610612760,1628977,1628985,1629126,203460,203488,1610612746,1629599,1629611,201149,202335,203585,0021901317,3,2000,2000,0,0,1610612760
136,1610612760,1628977,1628985,1629126,203460,203488,1610612746,1629599,1629611,201149,202335,203585,0021901317,3,2003,2003,0,2,1610612746
137,1610612760,1628977,1628985,1629126,203460,203488,1610612746,1629599,1629611,201149,202335,203585,0021901317,3,2003,2018,0,0,1610612760
138,1610612760,1628977,1628985,1629126,203460,203488,1610612746,1629599,1629611,201149,202335,203585,0021901317,3,2028,2028,0,2,1610612746
139,1610612760,1628977,1628985,1629126,203460,203488,1610612746,1629599,1629611,201149,202335,203585,0021901317,3,2037,2038,0,0,1610612760
140,1610612760,1628977,1628985,1629126,203460,203488,1610612746,1629599,1629611,201149,202335,203585,0021901317,3,2038,2053,0,0,1610612746
141,1610612760,1628977,1628985,1629126,203460,203488,1610612746,1629599,1629611,201149,202335,203585,0021901317,3,2053,2065,2,0,1610612760
142,1610612760,1628977,1628985,1629126,203460,203488,1610612746,1629599,1629611,201149,202335,203585,0021901317,3,2087,2087,0,2,1610612746
143,1610612760,1628977,1628985,1629126,203460,203488,1610612746,1629599,1629611,201149,202335,203585,0021901317,3,2097,2099,0,0,1610612760
144,1610612760,1628977,1628985,1629126,203460,203488,1610612746,1629599,1629611,201149,202335,203585,0021901317,3,2108,2108,0,2,1610612746
145,1610612760,1628977,1628985,1629126,203460,203488,1610612746,1629599,1629611,201149,202335,203585,0021901317,3,2130,2132,0,0,1610612760
146,1610612760,1628977,1628985,1629126,203460,203488,1610612746,1629599,1629611,201149,202335,203585,0021901317,3,2154,2154,0,0,1610612746
147,1610612760,1628977,1628985,1629126,203460,203488,1610612746,1629599,1629611,201149,202335,203585,0021901317,3,2160,2160,2,0,1610612760
148,1610612760,203460,1629647,1628977,1629126,1628985,1610612746,1629599,203585,202335,1629611,201149,0021901317,4,2160,2176,0,2,1610612746
149,1610612760,203460,1629647,1628977,1629126,1628985,1610612746,1629599,203585,202335,1629611,201149,0021901317,4,2195,2197,0,0,1610612760
150,1610612760,203460,1629647,1628977,1629126,1628985,1610612746,1629599,203585,202335,1629611,201149,0021901317,4,2209,2209,0,0,1610612746
151,1610612760,203460,1629647,1628977,1629126,1628985,1610612746,1629599,203585,202335,1629611,201149,0021901317,4,2217,2217,3,0,1610612760
152,1610612760,203460,1629647,1628977,1629126,1628985,1610612746,1629599,203585,202335,1629611,201149,0021901317,4,2233,2235,0,0,1610612746
153,1610612760,203460,1629647,1628977,1629126,1628985,1610612746,1629599,203585,202335,1629611,201149,0021901317,4,2241,2245,0,0,1610612760
154,1610612760,203460,1629647,1628977,1629126,1628985,1610612746,1629599,203585,202335,1629611,201149,0021901317,4,2250,2252,0,0,1610612746
155,1610612760,203460,1629647,1628977,1629126,1628985,1610612746,1629599,203585,202335,1629611,201149,0021901317,4,2258,2258,2,0,1610612760
156,1610612760,203460,1629647,1628977,1629126,1628985,1610612746,1629599,203585,202335,1629611,201149,0021901317,4,2276,2276,0,2,1610612746
157,1610612760,203460,1629647,1628977,1629126,1628985,1610612746,1629599,203585,202335,1629611,201149,0021901317,4,2287,2287,0,0,1610612760
158,1610612760,203460,1629647,1628977,1629126,1628985,1610612746,1629599,1629611,202335,203210,203585,0021901317,4,2305,2305,0,0,1610612746
159,1610612760,203460,1629647,1628977,1629126,1628985,1610612746,1629599,1629611,202335,203210,203585,0021901317,4,2316,2318,0,0,1610612760
160,1610612760,203460,1629647,1628977,1629126,1628985,1610612746,1629599,1629611,202335,203210,203585,0021901317,4,2331,2334,0,0,1610612746
161,1610612760,203460,1629647,1628977,1629126,1628985,1610612746,1629599,1629611,202335,203210,203585,0021901317,4,2344,2344,3,0,1610612760
162,1610612760,203460,1629647,1628977,1629126,1628985,1610612746,1629599,1629611,202335,203210,203585,0021901317,4,2359,2361,0,0,1610612746
163,1610612760,203460,1629647,1628977,1629126,1628985,1610612746,1629599,1629611,202335,203210,203585,0021901317,4,2366,2368,2,0,1610612760
164,1610612760,203460,1629647,1628977,1629126,1628985,1610612746,1629599,1629611,202335,203210,203585,0021901317,4,2368,2386,0,0,1610612746
165,1610612760,203460,1629647,1628977,1629126,1628985,1610612746,1629599,1629611,202335,203210,203585,0021901317,4,2396,2396,2,0,1610612760
166,1610612760,203460,1629647,1628977,1629126,1628985,1610612746,1629599,1629611,202335,203210,203585,0021901317,4,2411,2414,0,0,1610612746
167,1610612760,203460,1629647,1628977,1629126,1628985,1610612746,1629599,1629611,202335,203210,203585,0021901317,4,2420,2420,3,0,1610612760
168,1610612760,203460,1629647,1628977,1629126,1628985,1610612746,1629599,1629611,202335,203210,203585,0021901317,4,2445,2456,0,0,1610612746
169,1610612760,203460,1629647,1628977,1629126,1628985,1610612746,1629599,1629611,202335,203210,203585,0021901317,4,2473,2473,2,0,1610612760
170,1610612760,203460,1629647,1628977,1629126,1628985,1610612746,1629599,1629611,202335,203210,203585,0021901317,4,2473,2473,0,0,1610612760
171,1610612760,203460,1629647,1628977,1629126,1628985,1610612746,1629599,1629611,202335,203210,203585,0021901317,4,2473,2498,0,0,1610612746
172,1610612760,203460,1629647,1628977,1629126,1628985,1610612746,1629599,1629611,202335,203210,203585,0021901317,4,2504,2506,0,0,1610612760
173,1610612760,203460,1629647,1628977,1629126,1628985,1610612746,1629599,1629611,202335,203210,203585,0021901317,4,2509,2511,0,0,1610612746
174,1610612760,1628977,1628985,1628987,1629126,203460,1610612746,1629599,1629611,201149,202335,203585,0021901317,4,2518,2523,0,0,1610612760
175,1610612760,1628977,1628985,1628987,1629126,203460,1610612746,1629599,1629611,201149,202335,203585,0021901317,4,2526,2526,0,3,1610612746
176,1610612760,1628977,1628985,1628987,1629126,203460,1610612746,1629599,1629611,201149,202335,203585,0021901317,4,2541,2545,0,0,1610612760
177,1610612760,1628977,1628985,1628987,1629126,203460,1610612746,1629599,1629611,201149,202335,203585,0021901317,4,2559,2561,0,1,1610612746
178,1610612760,1628977,1628985,1628987,1629126,203460,1610612746,1629599,1629611,201149,202335,203585,0021901317,4,2575,2578,0,0,1610612760
179,1610612760,1628977,1628985,1628987,1629126,203460,1610612746,1629599,1629611,201149,202335,203585,0021901317,4,2583,2583,0,3,1610612746
180,1610612760,1628977,1628985,1628987,1629126,203460,1610612746,1629599,1629611,201149,202335,203585,0021901317,4,2601,2607,2,0,1610612760
181,1610612760,1628977,1628985,1628987,1629126,203460,1610612746,1629599,1629611,201149,202335,203585,0021901317,4,2628,2628,0,0,1610612746
182,1610612760,1628977,1628985,1628987,1629126,203460,1610612746,1629599,1629611,201149,202335,203585,0021901317,4,2636,2639,0,0,1610612760
183,1610612760,1628977,1628985,1628987,1629126,203460,1610612746,1629599,1629611,201149,202335,203585,0021901317,4,2647,2647,0,2,1610612746
184,1610612760,1628977,1628985,1628987,1629126,203460,1610612746,1629599,1629611,201149,202335,203585,0021901317,4,2651,2654,0,0,1610612760
185,1610612760,1628977,1628985,1628987,1629126,203460,1610612746,1629599,1629611,201149,202335,203585,0021901317,4,2661,2661,0,0,1610612746
186,1610612760,1628977,1628985,1628987,1629126,203460,1610612746,1629599,1629611,201149,202335,203585,0021901317,4,2661,2676,3,0,1610612760
187,1610612760,1628977,1628985,1628987,1629126,203460,1610612746,1629599,1629611,201149,202335,203585,0021901317,4,2699,2699,0,3,1610612746
188,1610612760,1628977,1628985,1628987,1629126,203460,1610612746,1629599,1629611,201149,202335,203585,0021901317,4,2712,2716,0,0,1610612760
189,1610612760,1628977,1628985,1628987,1629126,203460,1610612746,1629599,1629611,201149,202335,203585,0021901317,4,2729,2732,0,0,1610612746
190,1610612760,1628977,1628985,1628987,1629126,203460,1610612746,1629599,1629611,201149,202335,203585,0021901317,4,2740,2740,0,0,1610612760
191,1610612760,1628977,1628985,1628987,1629126,203460,1610612746,1629599,1629611,201149,202335,203585,0021901317,4,2740,2741,0,0,1610612746
192,1610612760,1628977,1628985,1628987,1629126,203460,1610612746,1629599,1629611,201149,202335,203585,0021901317,4,2743,2754,0,0,1610612760
193,1610612760,1628977,1628985,1628987,1629126,203460,1610612746,1629599,1629611,201149,202335,203585,0021901317,4,2778,2782,0,0,1610612746
194,1610612760,1628977,1628985,1628987,1629126,203460,1610612746,1629599,1629611,201149,202335,203585,0021901317,4,2784,2787,2,0,1610612760
195,1610612760,1628977,1628985,1628987,1629126,203460,1610612746,1629599,1629611,201149,202335,203585,0021901317,4,2789,2800,0,1,1610612746
196,1610612760,1628977,1628985,1628987,1629126,203460,1610612746,1629599,1629611,201149,202335,203585,0021901317,4,2811,2815,0,0,1610612760
197,1610612760,1628977,1628985,1628987,1629126,203460,1610612746,1629599,1629611,201149,202335,203585,0021901317,4,2820,2820,0,0,1610612746
198,1610612760,1628977,1628985,1628987,1629126,203460,1610612746,1629599,1629611,201149,202335,203585,0021901317,4,2826,2843,0,0,1610612760
199,1610612760,1628977,1628985,1628987,1629126,203460,1610612746,1629599,1629611,201149,202335,203585,0021901317,4,2858,2858,0,0,1610612746
200,1610612760,1628977,1628985,1628987,1629126,203460,1610612746,1629599,1629611,201149,202335,203585,0021901317,4,2876,2880,0,0,1610612746
201,1610612760,1629647,1628977,1629126,1628985,1628987,1610612746,1629599,203585,202335,1629611,201149,0021901317,5,2880,2890,4,0,1610612760
202,1610612760,1629647,1628977,1629126,1628985,1628987,1610612746,1629599,203585,202335,1629611,201149,0021901317,5,2903,2903,0,2,1610612746
203,1610612760,1629647,1628977,1629126,1628985,1628987,1610612746,1629599,203585,202335,1629611,201149,0021901317,5,2912,2912,0,0,1610612760
204,1610612760,1629647,1628977,1629126,1628985,1628987,1610612746,1629599,203585,202335,1629611,201149,0021901317,5,2917,2917,0,2,1610612746
205,1610612760,1629647,1628977,1629126,1628985,1628987,1610612746,1629599,203585,202335,1629611,201149,0021901317,5,2933,2933,3,0,1610612760
206,1610612760,1629647,1628977,1629126,1628985,1628987,1610612746,1629599,203585,202335,1629611,201149,0021901317,5,2950,2950,0,2,1610612746
207,1610612760,1629647,1628977,1629126,1628985,1628987,1610612746,1629599,203585,202335,1629611,201149,0021901317,5,2960,2962,0,0,1610612760
208,1610612760,1629647,1628977,1629126,1628985,1628987,1610612746,1629599,203585,202335,1629611,201149,0021901317,5,2976,2979,0,2,1610612746
209,1610612760,1629647,1628977,1629126,1628985,1628987,1610612746,1629599,203585,202335,1629611,201149,0021901317,5,2995,2995,2,0,1610612760
210,1610612760,1629647,1628977,1629126,1628985,1628987,1610612746,1629599,203585,202335,1629611,201149,0021901317,5,3011,3013,0,0,1610612746
211,1610612760,1629647,1628977,1629126,1628985,1628987,1610612746,1629599,203585,202335,1629611,201149,0021901317,5,3021,3025,0,0,1610612760
212,1610612760,1629647,1628977,1629126,1628985,1628987,1610612746,1629599,203585,202335,1629611,201149,0021901317,5,3030,3030,0,3,1610612746
213,1610612760,1629647,1628977,1629126,1628985,1628987,1610612746,1629599,203585,202335,1629611,201149,0021901317,5,3047,3055,0,0,1610612760
214,1610612760,1629647,1628977,1629126,1628985,1628987,1610612746,1629599,203585,202335,1629611,201149,0021901317,5,3064,3064,0,3,1610612746
215,1610612760,1629647,1628977,1629126,1628985,1628987,1610612746,1629599,203585,202335,1629611,201149,0021901317,5,3074,3078,0,0,1610612760
216,1610612760,1629647,1628977,1629126,1628985,1628987,1610612746,1629599,203585,202335,1629611,201149,0021901317,5,3091,3091,0,2,1610612746
217,1610612760,1629647,1628977,1629126,1628985,1628987,1610612746,1629599,203585,202335,1629611,201149,0021901317,5,3091,3112,0,0,1610612760
218,1610612760,1629647,1628977,1629126,1628985,1628987,1610612746,1629599,203585,202335,1629611,201149,0021901317,5,3119,3124,0,0,1610612746
219,1610612760,1629647,1628977,1629126,1628985,1628987,1610612746,1629599,203585,202335,1629611,201149,0021901317,5,3133,3137,0,0,1610612760
220,1610612760,1629647,1628977,1629126,1628985,1628987,1610612746,1629599,203585,202335,1629611,201149,0021901317,5,3142,3147,0,0,1610612746
221,1610612760,1629647,1628977,1629126,1628985,1628987,1610612746,1629599,203585,202335,1629611,201149,0021901317,5,3150,3150,2,0,1610612760
222,1610612760,1629647,1628977,1629126,1628985,1628987,1610612746,1629599,203585,202335,1629611,201149,0021901317,5,3154,3161,0,0,1610612746
223,1610612760,1629647,1628977,1629126,1628985,1628987,1610612746,1629599,203585,202335,1629611,201149,0021901317,5,3168,3168,3,0,1610612760
224,1610612760,1629647,1628977,1629126,1628985,1628987,1610612746,1629599,203585,202335,1629611,201149,0021901317,5,3169,3169,0,2,1610612746
225,1610612760,1629647,1628977,1629126,1628985,1628987,1610612746,1629599,203585,202335,1629611,201149,0021901317,5,3169,3175,2,0,1610612760
226,1610612760,1629647,1628977,1629126,1628985,1628987,1610612746,1629611,201149,202335,202704,203585,0021901317,5,3175,3177,0,2,1610612746
227,1610612760,1629647,1628977,1629126,1628985,1628987,1610612746,1629611,201149,202335,202704,203585,0021901317,5,3179,3179,0,0,1610612746
