,TEAM_ID_1,TEAM_1_PLAYERS,TEAM_ID_2,TEAM_2_PLAYERS,PERIOD
0,1610612747,[ 203145    2544  201599 1628370  201566],1610612744,[ 203490  203110 1626172 1629673  201939],1
1,1610612747,[   2544    2730    2546  201961 1629134],1610612744,[1629673  202357 1629308    2738  202340],2
2,1610612747,[ 203145  201599 1628370 1629659  200765],1610612744,[ 203110 1626172 1629673  201939 1627814],3
3,1610612747,[ 203145    2730 1629134  200765 1630559],1610612744,[203490 202357   2738 202340 204038],4
