,TEAM_ID_1,TEAM_1_PLAYERS,TEAM_ID_2,TEAM_2_PLAYERS,PERIOD
0,1610612741,[1630172 1628374 1629655  203897 1629632],1610612753,[ 203516 1629109  202696  203095 1630175],1
1,1610612741,[1628374 1629632  203107  202066 1627756],1610612753,[ 202696  203082 1628407 1628412 1629643],2
2,1610612741,[1630172 1628374  203897 1629632  201152],1610612753,[ 203516 1629109  202696  203095 1630175],3
3,1610612741,[ 201152  203107  202066 1627756 1628990],1610612753,[ 203082  203920 1628407 1628412 1629643],4
