,team1_id,team1_player1,team1_player2,team1_player3,team1_player4,team1_player5,team2_id,team2_player1,team2_player2,team2_player3,team2_player4,team2_player5,game_id,period,possession_start,possession_end,team1_points,team2_points,possession_team
0,1610612760,1629652,1629647,1629676,1628983,201588,1610612746,202695,201587,201586,202331,201976,0022000239,1,0,14,2,0,1610612760
1,1610612760,1629652,1629647,1629676,1628983,201588,1610612746,202695,201587,201586,202331,201976,0022000239,1,27,38,0,0,1610612746
2,1610612760,1629652,1629647,1629676,1628983,201588,1610612746,202695,201587,201586,202331,201976,0022000239,1,49,53,0,0,1610612760
3,1610612760,1629652,1629647,1629676,1628983,201588,1610612746,202695,201587,201586,202331,201976,0022000239,1,59,61,0,0,1610612746
4,1610612760,1629652,1629647,1629676,1628983,201588,1610612746,202695,201587,201586,202331,201976,0022000239,1,66,76,0,0,1610612760
5,1610612760,1629652,1629647,1629676,1628983,201588,1610612746,202695,201587,201586,202331,201976,0022000239,1,83,83,0,2,1610612746
6,1610612760,1629652,1629647,1629676,1628983,201588,1610612746,202695,201587,201586,202331,201976,0022000239,1,88,88,2,0,1610612760
7,1610612760,1629652,1629647,1629676,1628983,201588,1610612746,202695,201587,201586,202331,201976,0022000239,1,101,101,0,0,1610612746
8,1610612760,1629652,1629647,1629676,1628983,201588,1610612746,202695,201587,201586,202331,201976,0022000239,1,107,112,0,0,1610612760
9,1610612760,1629652,1629647,1629676,1628983,201588,1610612746,202695,201587,201586,202331,201976,0022000239,1,121,121,0,2,1610612746
10,1610612760,1629652,1629647,1629676,1628983,201588,1610612746,202695,201587,201586,202331,201976,0022000239,1,132,135,0,0,1610612760
11,1610612760,1629652,1629647,1629676,1628983,201588,1610612746,202695,201587,201586,202331,201976,0022000239,1,140,140,0,0,1610612746
12,1610612760,1629652,1629647,1629676,1628983,201588,1610612746,202695,201587,201586,202331,201976,0022000239,1,154,154,2,0,1610612760
13,1610612760,1629652,1629647,1629676,1628983,201588,1610612746,202695,201587,201586,202331,201976,0022000239,1,173,173,0,2,1610612746
14,1610612760,1629652,1629647,1629676,1628983,201588,1610612746,202695,201587,201586,202331,201976,0022000239,1,190,190,0,0,1610612760
15,1610612760,1629652,1629647,1629676,1628983,201588,1610612746,202695,201587,201586,202331,201976,0022000239,1,205,205,0,3,1610612746
16,1610612760,1629652,1629647,1629676,1628983,201588,1610612746,202695,201587,201586,202331,201976,0022000239,1,220,222,0,0,1610612760
17,1610612760,1629652,1629647,1629676,1628983,201588,1610612746,202695,201587,201586,202331,201976,0022000239,1,237,237,0,3,1610612746
18,1610612760,1629652,1629647,1629676,1628983,201588,1610612746,202695,201587,201586,202331,201976,0022000239,1,238,259,0,0,1610612760
19,1610612760,1629652,1629647,1629676,1628983,201588,1610612746,202695,201587,201586,202331,201976,0022000239,1,271,271,0,2,1610612746
20,1610612760,1629652,1629647,1629676,1628983,201588,1610612746,202695,201587,201586,202331,201976,0022000239,1,280,283,0,0,1610612760
21,1610612760,1629652,1629647,1629676,1628983,201588,1610612746,202695,201587,201586,202331,201976,0022000239,1,289,297,0,2,1610612746
22,1610612760,1628983,1629647,1629652,201588,203488,1610612746,1628379,201586,201587,202331,202695,0022000239,1,307,307,2,0,1610612760
23,1610612760,1628983,1629647,1629652,201588,203488,1610612746,1628379,201586,201587,202331,202695,0022000239,1,322,322,0,0,1610612746
24,1610612760,1628983,1629647,1629652,201588,203488,1610612746,1628379,201586,201587,202331,202695,0022000239,1,328,331,0,0,1610612760
25,1610612760,1628983,1629647,1629652,201588,203488,1610612746,1628379,201586,201587,202331,202695,0022000239,1,336,336,0,0,1610612746
26,1610612760,1628983,1629647,1629652,201588,203488,1610612746,1628379,201586,201587,202331,202695,0022000239,1,338,348,0,0,1610612760
27,1610612760,1628983,1629647,1629652,201588,203488,1610612746,1628379,201586,201587,202331,202695,0022000239,1,358,358,0,3,1610612746
28,1610612760,1628983,1629647,1629652,201588,203488,1610612746,1628379,201586,201587,202331,202695,0022000239,1,380,383,0,0,1610612760
29,1610612760,1628983,1629647,1629652,201588,203488,1610612746,1628379,201586,201587,202331,202695,0022000239,1,393,393,0,2,1610612746
30,1610612760,1628983,1629647,1629652,201588,203488,1610612746,1628379,201586,201587,202331,202695,0022000239,1,412,413,0,0,1610612760
31,1610612760,1628983,1629647,1629652,201588,203488,1610612746,1628379,201586,201587,202331,202695,0022000239,1,422,422,0,2,1610612746
32,1610612760,1628983,1629647,1629652,201588,203488,1610612746,1628379,201586,201587,202331,202695,0022000239,1,422,438,0,0,1610612760
33,1610612760,1628977,1628983,1630177,1630197,203488,1610612746,1628379,201586,201587,201976,202695,0022000239,1,446,450,0,2,1610612746
34,1610612760,1628977,1628983,1630177,1630197,203488,1610612746,1628379,201586,201587,201976,202695,0022000239,1,458,468,2,0,1610612760
35,1610612760,1628977,1628983,1630177,1630197,203488,1610612746,1628379,201586,201587,201976,202695,0022000239,1,492,495,0,0,1610612746
36,1610612760,1628977,1628983,1630177,1630197,203488,1610612746,1628379,201586,201587,201976,202695,0022000239,1,500,504,0,0,1610612760
37,1610612760,1628977,1628983,1630177,1630197,203488,1610612746,1628379,201586,201587,201976,202695,0022000239,1,508,512,0,0,1610612746
38,1610612760,1628977,1628983,1630177,1630197,203488,1610612746,1628379,201586,201587,201976,202695,0022000239,1,519,519,2,0,1610612760
39,1610612760,1628977,1628983,1630177,1630197,203488,1610612746,1628379,201586,201587,201976,202695,0022000239,1,539,544,0,0,1610612746
40,1610612760,1628977,1628983,1630177,1630197,203488,1610612746,1628379,201586,201587,201976,202695,0022000239,1,547,550,0,0,1610612760
41,1610612760,1628977,1628983,1630177,1630197,203488,1610612746,1628379,201586,201587,201976,202695,0022000239,1,553,553,0,0,1610612746
42,1610612760,1628977,1628983,1630177,1630197,203488,1610612746,1628379,201586,201587,201976,202695,0022000239,1,558,563,2,0,1610612760
43,1610612760,1628977,1628983,1630177,1630197,203488,1610612746,1627826,1628379,201976,202694,202695,0022000239,1,563,578,0,2,1610612746
44,1610612760,1628977,1628983,1630177,1630197,203488,1610612746,1627826,1628379,201976,202694,202695,0022000239,1,592,592,0,0,1610612760
45,1610612760,1628977,1628983,1630177,1630197,203488,1610612746,101150,1627826,1628379,202694,202695,0022000239,1,611,614,0,0,1610612746
46,1610612760,1628977,1628983,1630177,1630197,203488,1610612746,101150,1627826,1628379,202694,202695,0022000239,1,629,629,0,0,1610612760
47,1610612760,1628977,1628983,1630177,1630197,203488,1610612746,101150,1627826,1628379,202694,202695,0022000239,1,637,637,0,2,1610612746
48,1610612760,1628977,1628983,1630177,1630197,203488,1610612746,101150,1627826,1628379,202694,202695,0022000239,1,647,650,0,0,1610612760
49,1610612760,1628977,1628983,1630177,1630197,203488,1610612746,101150,1627826,1628379,202694,202695,0022000239,1,653,653,0,2,1610612746
50,1610612760,1628977,1628983,1630177,1630197,203488,1610612746,101150,1627826,1628379,202694,202695,0022000239,1,662,662,2,0,1610612760
51,1610612760,1628977,1628983,1630177,1630197,203488,1610612746,101150,1627826,1628379,202694,202695,0022000239,1,679,679,0,2,1610612746
52,1610612760,1628977,1628983,1630177,1630197,203488,1610612746,101150,1627826,1628379,202694,202695,0022000239,1,695,698,0,0,1610612760
53,1610612760,1628977,1628983,1630177,1630197,203488,1610612746,101150,1627826,1628379,202694,202695,0022000239,1,716,716,0,3,1610612746
54,1610612760,1628977,1628983,1630177,1630197,203488,1610612746,101150,1627826,1628379,202694,202695,0022000239,1,720,720,2,0,1610612760
55,1610612760,1628977,1628983,1630177,1630197,203488,1610612746,101150,1627826,1628379,202694,202695,0022000239,1,720,720,0,0,152
56,1610612760,1629647,1628977,1630197,1630177,1629026,1610612746,202331,1628379,1627826,202694,101150,0022000239,2,720,735,0,0,1610612746
57,1610612760,1629647,1628977,1630197,1630177,1629026,1610612746,202331,1628379,1627826,202694,101150,0022000239,2,743,743,3,0,1610612760
58,1610612760,1629647,1628977,1630197,1630177,1629026,1610612746,202331,1628379,1627826,202694,101150,0022000239,2,756,756,0,0,1610612746
59,1610612760,1629647,1628977,1630197,1630177,1629026,1610612746,202331,1628379,1627826,202694,101150,0022000239,2,762,775,0,0,1610612760
60,1610612760,1629647,1628977,1630197,1630177,1629026,1610612746,202331,1628379,1627826,202694,101150,0022000239,2,790,790,0,0,1610612746
61,1610612760,1629647,1628977,1630197,1630177,1629026,1610612746,101150,1627826,201976,202331,202694,0022000239,2,801,803,0,0,1610612760
62,1610612760,1629647,1628977,1630197,1630177,1629026,1610612746,101150,1627826,201976,202331,202694,0022000239,2,809,809,0,2,1610612746
63,1610612760,1629647,1628977,1630197,1630177,1629026,1610612746,101150,1627826,201976,202331,202694,0022000239,2,824,824,2,0,1610612760
64,1610612760,1629647,1628977,1630197,1630177,1629026,1610612746,101150,1627826,201976,202331,202694,0022000239,2,834,834,0,2,1610612746
65,1610612760,1629647,1628977,1630197,1630177,1629026,1610612746,101150,1627826,201976,202331,202694,0022000239,2,850,853,0,0,1610612760
66,1610612760,1629647,1628977,1630197,1630177,1629026,1610612746,101150,1627826,201976,202331,202694,0022000239,2,857,857,0,1,1610612746
67,1610612760,1629647,1628977,1630197,1630177,1629026,1610612746,101150,1627826,201976,202331,202694,0022000239,2,867,877,0,0,1610612760
68,1610612760,1629647,1628977,1630197,1630177,1629026,1610612746,101150,1627826,201976,202331,202694,0022000239,2,884,884,0,2,1610612746
69,1610612760,1629647,1628977,1630197,1630177,1629026,1610612746,101150,1627826,201976,202331,202694,0022000239,2,899,899,2,0,1610612760
70,1610612760,1629647,1628977,1630197,1630177,1629026,1610612746,101150,1627826,201976,202331,202694,0022000239,2,908,908,0,2,1610612746
71,1610612760,1629647,1628977,1630197,1630177,1629026,1610612746,101150,1627826,201976,202331,202694,0022000239,2,915,915,3,0,1610612760
72,1610612760,1629647,1628977,1630197,1630177,1629026,1610612746,101150,1627826,201976,202331,202694,0022000239,2,925,925,0,0,1610612746
73,1610612760,1629647,1628977,1630197,1630177,1629026,1610612746,101150,1627826,201976,202331,202694,0022000239,2,937,940,0,0,1610612760
74,1610612760,1629647,1628977,1630197,1630177,1629026,1610612746,101150,1627826,201976,202331,202694,0022000239,2,948,951,0,2,1610612746
75,1610612760,1629647,1628977,1630197,1630177,1629026,1610612746,101150,1627826,201976,202331,202694,0022000239,2,972,972,0,0,1610612760
76,1610612760,1629647,1628977,1630197,1630177,1629026,1610612746,101150,1627826,201976,202331,202694,0022000239,2,975,975,0,2,1610612746
77,1610612760,1629647,1628977,1630197,1630177,1629026,1610612746,101150,1627826,201976,202331,202694,0022000239,2,993,997,0,0,1610612760
78,1610612760,1629647,1628977,1630197,1630177,1629026,1610612746,101150,1627826,201976,202331,202694,0022000239,2,1000,1000,0,3,1610612746
79,1610612760,1629647,1628977,1630197,1630177,1629026,1610612746,101150,1627826,201976,202331,202694,0022000239,2,1001,1021,0,0,1610612760
80,1610612760,1628977,1628983,1629676,1630177,201588,1610612746,101150,1627826,201976,202331,202694,0022000239,2,1025,1025,0,3,1610612746
81,1610612760,1628977,1628983,1629676,1630177,201588,1610612746,101150,1627826,201976,202331,202694,0022000239,2,1042,1055,3,0,1610612760
82,1610612760,1628977,1628983,1629676,1630177,201588,1610612746,101150,1627826,202331,202694,202695,0022000239,2,1076,1076,0,2,1610612746
83,1610612760,1628977,1628983,1629676,1630177,201588,1610612746,101150,1627826,202331,202694,202695,0022000239,2,1083,1095,0,0,1610612760
84,1610612760,1628983,1629652,1629676,1630177,201588,1610612746,101150,201586,201587,202694,202695,0022000239,2,1102,1104,0,0,1610612746
85,1610612760,1628983,1629652,1629676,1630177,201588,1610612746,101150,201586,201587,202694,202695,0022000239,2,1111,1111,2,0,1610612760
86,1610612760,1628983,1629652,1629676,1630177,201588,1610612746,101150,201586,201587,202694,202695,0022000239,2,1133,1140,0,2,1610612746
87,1610612760,1628983,1629652,1629676,1630177,201588,1610612746,101150,201586,201587,202694,202695,0022000239,2,1157,1157,3,0,1610612760
88,1610612760,1628983,1629652,1629676,1630177,201588,1610612746,101150,201586,201587,202694,202695,0022000239,2,1168,1170,0,0,1610612746
89,1610612760,1628983,1629652,1629676,1630177,201588,1610612746,101150,201586,201587,202694,202695,0022000239,2,1189,1189,3,0,1610612760
90,1610612760,1628983,1629652,1629676,1630177,201588,1610612746,1628379,201586,201587,202694,202695,0022000239,2,1216,1216,0,2,1610612746
91,1610612760,1628983,1629652,1629676,1630177,201588,1610612746,1628379,201586,201587,202694,202695,0022000239,2,1229,1229,2,0,1610612760
92,1610612760,1628983,1629652,1629676,1630177,201588,1610612746,1628379,201586,201587,202694,202695,0022000239,2,1239,1239,0,2,1610612746
93,1610612760,1628983,1629647,1629652,1629676,201588,1610612746,1628379,201586,201587,202331,202695,0022000239,2,1252,1254,0,0,1610612760
94,1610612760,1628983,1629647,1629652,1629676,201588,1610612746,1628379,201586,201587,202331,202695,0022000239,2,1267,1267,0,3,1610612746
95,1610612760,1628983,1629647,1629652,1629676,201588,1610612746,1628379,201586,201587,202331,202695,0022000239,2,1287,1287,2,0,1610612760
96,1610612760,1628983,1629647,1629652,1629676,201588,1610612746,1628379,201586,201587,202331,202695,0022000239,2,1301,1301,0,0,1610612746
97,1610612760,1628983,1629647,1629652,1629676,201588,1610612746,1628379,201586,201587,202331,202695,0022000239,2,1301,1311,2,0,1610612760
98,1610612760,1628983,1629647,1629652,1629676,201588,1610612746,1628379,201586,201587,202331,202695,0022000239,2,1326,1326,0,2,1610612746
99,1610612760,1628983,1629647,1629652,1629676,201588,1610612746,1628379,201586,201587,202331,202695,0022000239,2,1342,1342,3,0,1610612760
100,1610612760,1628983,1629647,1629652,1629676,201588,1610612746,1628379,201586,201587,202331,202695,0022000239,2,1363,1370,0,2,1610612746
101,1610612760,1628983,1629647,1629652,1629676,201588,1610612746,1628379,201586,201587,202331,202695,0022000239,2,1382,1382,2,0,1610612760
102,1610612760,1628983,1629647,1629652,1629676,201588,1610612746,1628379,201586,201587,202331,202695,0022000239,2,1395,1395,0,0,1610612746
103,1610612760,1628983,1629647,1629652,1629676,201588,1610612746,1628379,201586,201587,202331,202695,0022000239,2,1406,1406,3,0,1610612760
104,1610612760,1628983,1629647,1629652,1629676,201588,1610612746,1628379,201586,201587,202331,202695,0022000239,2,1413,1413,0,0,1610612746
105,1610612760,1628983,1629647,1629652,1629676,201588,1610612746,1628379,201586,202331,202694,202695,0022000239,2,1435,1439,0,0,1610612760
106,1610612760,1628983,1629647,1629652,1629676,201588,1610612746,1628379,201586,202331,202694,202695,0022000239,2,1440,1440,0,0,1610612760
107,1610612760,1629652,1629647,1629676,1628983,201588,1610612746,202695,201587,201586,202331,201976,0022000239,3,1440,1481,0,0,1610612746
108,1610612760,1629652,1629647,1629676,1628983,201588,1610612746,202695,201587,201586,202331,201976,0022000239,3,1491,1491,3,0,1610612760
109,1610612760,1629652,1629647,1629676,1628983,201588,1610612746,202695,201587,201586,202331,201976,0022000239,3,1506,1526,0,2,1610612746
110,1610612760,1629652,1629647,1629676,1628983,201588,1610612746,202695,201587,201586,202331,201976,0022000239,3,1549,1549,0,0,1610612760
111,1610612760,1629652,1629647,1629676,1628983,201588,1610612746,202695,201587,201586,202331,201976,0022000239,3,1561,1561,0,3,1610612746
112,1610612760,1629652,1629647,1629676,1628983,201588,1610612746,202695,201587,201586,202331,201976,0022000239,3,1572,1588,0,0,1610612760
113,1610612760,1629652,1629647,1629676,1628983,201588,1610612746,202695,201587,201586,202331,201976,0022000239,3,1596,1596,0,2,1610612746
114,1610612760,1629652,1629647,1629676,1628983,201588,1610612746,202695,201587,201586,202331,201976,0022000239,3,1611,1613,0,0,1610612760
115,1610612760,1629652,1629647,1629676,1628983,201588,1610612746,202695,201587,201586,202331,201976,0022000239,3,1630,1630,0,2,1610612746
116,1610612760,1629652,1629647,1629676,1628983,201588,1610612746,202695,201587,201586,202331,201976,0022000239,3,1645,1645,2,0,1610612760
117,1610612760,1629652,1629647,1629676,1628983,201588,1610612746,202695,201587,201586,202331,201976,0022000239,3,1663,1669,0,0,1610612746
118,1610612760,1629652,1629647,1629676,1628983,201588,1610612746,202695,201587,201586,202331,201976,0022000239,3,1678,1681,0,0,1610612760
119,1610612760,1629652,1629647,1629676,1628983,201588,1610612746,202695,201587,201586,202331,201976,0022000239,3,1699,1699,0,2,1610612746
120,1610612760,1629652,1629647,1629676,1628983,201588,1610612746,202695,201587,201586,202331,201976,0022000239,3,1716,1717,0,0,1610612760
121,1610612760,1629652,1629647,1629676,1628983,201588,1610612746,202695,201587,201586,202331,201976,0022000239,3,1735,1740,0,0,1610612746
122,1610612760,1629652,1629647,1629676,1628983,201588,1610612746,202695,201587,201586,202331,201976,0022000239,3,1745,1745,2,0,1610612760
123,1610612760,1629652,1629647,1629676,1628983,201588,1610612746,202695,201587,201586,202331,201976,0022000239,3,1764,1764,0,2,1610612746
124,1610612760,1629652,1629647,1629676,1628983,201588,1610612746,202695,201587,201586,202331,201976,0022000239,3,1768,1781,2,0,1610612760
125,1610612760,1629652,1629647,1629676,1628983,201588,1610612746,1628379,201586,201587,202331,202695,0022000239,3,1799,1799,0,0,1610612746
126,1610612760,1629652,1629647,1629676,1628983,201588,1610612746,1628379,201586,201587,202331,202695,0022000239,3,1820,1820,3,0,1610612760
127,1610612760,1629652,1629647,1629676,1628983,201588,1610612746,1628379,201586,201587,202331,202695,0022000239,3,1846,1850,0,0,1610612746
128,1610612760,1629652,1629647,1629676,1628983,201588,1610612746,1628379,201586,201587,202331,202695,0022000239,3,1857,1857,2,0,1610612760
129,1610612760,1629652,1629647,1629676,1628983,201588,1610612746,1628379,201586,201587,201976,202695,0022000239,3,1871,1878,0,2,1610612746
130,1610612760,1629652,1629647,1629676,1628983,201588,1610612746,1628379,201586,201587,201976,202695,0022000239,3,1893,1893,2,0,1610612760
131,1610612760,1629652,1629647,1629676,1628983,201588,1610612746,1628379,201586,201587,201976,202695,0022000239,3,1903,1920,0,0,1610612746
132,1610612760,1628977,1628983,1629647,1629652,203488,1610612746,1628379,201586,201587,201976,202695,0022000239,3,1930,1930,3,0,1610612760
133,1610612760,1628977,1628983,1629647,1629652,203488,1610612746,1628379,201586,201587,201976,202695,0022000239,3,1933,1949,0,0,1610612746
134,1610612760,1628977,1628983,1629647,1629652,203488,1610612746,1627826,1628379,201587,201976,202695,0022000239,3,1953,1953,3,0,1610612760
135,1610612760,1628977,1628983,1629647,1629652,203488,1610612746,1627826,1628379,201587,201976,202695,0022000239,3,1956,1965,0,2,1610612746
136,1610612760,1628977,1628983,1629647,1629652,203488,1610612746,101150,1627826,201976,202694,202695,0022000239,3,1981,1984,0,0,1610612760
137,1610612760,1628977,1628983,1629647,1629652,203488,1610612746,101150,1627826,201976,202694,202695,0022000239,3,1988,1993,0,0,1610612746
138,1610612760,1628977,1628983,1629647,1629652,203488,1610612746,101150,1627826,201976,202694,202695,0022000239,3,2003,2004,0,0,1610612760
139,1610612760,1628977,1628983,1629647,1629652,203488,1610612746,101150,1627826,201976,202694,202695,0022000239,3,2018,2018,0,2,1610612746
140,1610612760,1628977,1628983,1629647,1629652,203488,1610612746,101150,1627826,201976,202694,202695,0022000239,3,2043,2045,0,0,1610612760
141,1610612760,1628977,1628983,1629647,1629652,203488,1610612746,101150,1627826,201976,202694,202695,0022000239,3,2064,2064,0,2,1610612746
142,1610612760,1628977,1629026,1630177,1630197,203488,1610612746,101150,1627826,201976,202694,202695,0022000239,3,2076,2076,3,0,1610612760
143,1610612760,1628977,1629026,1630177,1630197,203488,1610612746,101150,1627826,201976,202694,202695,0022000239,3,2092,2096,0,0,1610612746
144,1610612760,1628977,1629026,1630177,1630197,203488,1610612746,101150,1627826,201976,202694,202695,0022000239,3,2104,2106,0,0,1610612760
145,1610612760,1628977,1629026,1630177,1630197,203488,1610612746,101150,1627826,201976,202694,202695,0022000239,3,2118,2119,0,0,1610612746
146,1610612760,1628977,1629026,1630177,1630197,203488,1610612746,101150,1627826,201976,202694,202695,0022000239,3,2119,2132,0,0,1610612760
147,1610612760,1628977,1629026,1630177,1630197,203488,1610612746,101150,1627826,201976,202694,202695,0022000239,3,2152,2152,0,0,1610612746
148,1610612760,1628977,1629026,1630177,1630197,203488,1610612746,101150,1627826,201976,202694,202695,0022000239,3,2158,2158,0,0,1610612760
149,1610612760,1628977,1629026,1630177,1630197,203488,1610612746,101150,1627826,201976,202694,202695,0022000239,3,2160,2160,0,0,1610612760
150,1610612760,203488,1628977,1630197,1630177,1629026,1610612746,202331,201976,1627826,202694,101150,0022000239,4,2160,2176,0,0,1610612760
151,1610612760,203488,1628977,1630197,1630177,1629026,1610612746,202331,201976,1627826,202694,101150,0022000239,4,2178,2178,0,2,1610612746
152,1610612760,203488,1628977,1630197,1630177,1629026,1610612746,202331,201976,1627826,202694,101150,0022000239,4,2191,2196,0,0,1610612760
153,1610612760,203488,1628977,1630197,1630177,1629026,1610612746,202331,201976,1627826,202694,101150,0022000239,4,2199,2206,0,0,1610612746
154,1610612760,203488,1628977,1630197,1630177,1629026,1610612746,202331,201976,1627826,202694,101150,0022000239,4,2210,2210,0,0,1610612760
155,1610612760,203488,1628977,1630197,1630177,1629026,1610612746,202331,201976,1627826,202694,101150,0022000239,4,2219,2230,0,0,1610612746
156,1610612760,203488,1628977,1630197,1630177,1629026,1610612746,202331,201976,1627826,202694,101150,0022000239,4,2250,2253,0,0,1610612760
157,1610612760,203488,1628977,1630197,1630177,1629026,1610612746,202331,201976,1627826,202694,101150,0022000239,4,2253,2268,0,2,1610612746
158,1610612760,203488,1628977,1630197,1630177,1629026,1610612746,202331,201976,1627826,202694,101150,0022000239,4,2280,2280,3,0,1610612760
159,1610612760,203488,1628977,1630197,1630177,1629026,1610612746,202331,201976,1627826,202694,101150,0022000239,4,2302,2302,0,0,1610612746
160,1610612760,203488,1628977,1630197,1630177,1629026,1610612746,202331,201976,1627826,202694,101150,0022000239,4,2302,2324,2,0,1610612760
161,1610612760,203488,1628977,1630197,1630177,1629026,1610612746,101150,201587,201976,202331,202694,0022000239,4,2333,2333,0,2,1610612746
162,1610612760,203488,1628977,1630197,1630177,1629026,1610612746,101150,201587,201976,202331,202694,0022000239,4,2346,2355,0,0,1610612760
163,1610612760,1628977,1628983,1630177,1630197,203488,1610612746,101150,201587,201976,202331,202694,0022000239,4,2368,2368,0,2,1610612746
164,1610612760,1628977,1628983,1629652,1630177,203488,1610612746,101150,201587,201976,202331,202694,0022000239,4,2386,2386,2,0,1610612760
165,1610612760,1628977,1628983,1629652,1630177,203488,1610612746,101150,201587,201976,202331,202694,0022000239,4,2391,2391,0,3,1610612746
166,1610612760,1628977,1628983,1629652,1630177,203488,1610612746,101150,201587,201976,202331,202694,0022000239,4,2406,2425,2,0,1610612760
167,1610612760,1628983,1629647,1629652,1629676,201588,1610612746,101150,201587,201976,202331,202694,0022000239,4,2433,2435,0,0,1610612746
168,1610612760,1628983,1629647,1629652,1629676,201588,1610612746,101150,201587,201976,202331,202694,0022000239,4,2439,2449,2,0,1610612760
169,1610612760,1628983,1629647,1629652,1629676,201588,1610612746,101150,201587,202331,202694,202695,0022000239,4,2462,2466,0,0,1610612746
170,1610612760,1628983,1629647,1629652,1629676,201588,1610612746,101150,201587,202331,202694,202695,0022000239,4,2475,2475,0,0,1610612760
171,1610612760,1628983,1629647,1629652,1629676,201588,1610612746,101150,201587,202331,202694,202695,0022000239,4,2475,2490,0,3,1610612746
172,1610612760,1628983,1629647,1629652,1629676,201588,1610612746,101150,201587,202331,202694,202695,0022000239,4,2509,2509,2,0,1610612760
173,1610612760,1628983,1629647,1629652,1629676,201588,1610612746,101150,201587,202331,202694,202695,0022000239,4,2522,2533,0,2,1610612746
174,1610612760,1628983,1629647,1629652,1629676,201588,1610612746,101150,201587,202331,202694,202695,0022000239,4,2557,2559,0,0,1610612760
175,1610612760,1628983,1629647,1629652,1629676,201588,1610612746,101150,201587,202331,202694,202695,0022000239,4,2571,2574,0,0,1610612746
176,1610612760,1628983,1629647,1629652,1629676,201588,1610612746,101150,201587,202331,202694,202695,0022000239,4,2577,2577,3,0,1610612760
177,1610612760,1628983,1629647,1629652,1629676,201588,1610612746,201586,201587,202331,202694,202695,0022000239,4,2599,2602,0,0,1610612746
178,1610612760,1628983,1629647,1629652,1629676,201588,1610612746,201586,201587,202331,202694,202695,0022000239,4,2615,2617,0,0,1610612760
179,1610612760,1628983,1629647,1629652,1629676,201588,1610612746,201586,201587,202331,202694,202695,0022000239,4,2621,2623,0,2,1610612746
180,1610612760,1628983,1629647,1629652,1629676,201588,1610612746,201586,201587,202331,202694,202695,0022000239,4,2623,2628,2,0,1610612760
181,1610612760,1628983,1629647,1629652,1629676,201588,1610612746,201586,201587,202331,202694,202695,0022000239,4,2641,2641,0,3,1610612746
182,1610612760,1628983,1629647,1629652,1629676,201588,1610612746,201586,201587,202331,202694,202695,0022000239,4,2654,2654,2,0,1610612760
183,1610612760,1628983,1629647,1629652,1629676,201588,1610612746,201586,201587,202331,202694,202695,0022000239,4,2673,2673,0,0,1610612746
184,1610612760,1628983,1629647,1629652,1629676,201588,1610612746,201586,201587,202331,202694,202695,0022000239,4,2694,2694,2,0,1610612760
185,1610612760,1628983,1629647,1629652,1629676,201588,1610612746,201586,201587,202331,202694,202695,0022000239,4,2712,2712,0,2,1610612746
186,1610612760,1628983,1629647,1629652,1629676,201588,1610612746,201586,201587,201976,202331,202695,0022000239,4,2716,2716,2,0,1610612760
187,1610612760,1628983,1629647,1629652,1629676,201588,1610612746,201586,201587,201976,202331,202695,0022000239,4,2733,2733,0,2,1610612746
188,1610612760,1628983,1629647,1629652,1629676,201588,1610612746,201586,201587,201976,202331,202695,0022000239,4,2743,2743,3,0,1610612760
189,1610612760,1628983,1629647,1629652,1629676,201588,1610612746,201586,201587,201976,202331,202695,0022000239,4,2768,2774,0,0,1610612746
190,1610612760,1628983,1629647,1629652,1629676,201588,1610612746,201586,201587,201976,202331,202695,0022000239,4,2788,2791,0,0,1610612760
191,1610612760,1628983,1629647,1629652,1629676,201588,1610612746,201586,201587,201976,202331,202695,0022000239,4,2811,2811,0,2,1610612746
192,1610612760,1628983,1629647,1629652,1629676,201588,1610612746,201586,201587,201976,202331,202695,0022000239,4,2827,2827,0,0,1610612760
193,1610612760,1628983,1629647,1629652,1629676,201588,1610612746,201586,201587,201976,202331,202695,0022000239,4,2829,2837,0,2,1610612746
194,1610612760,1628983,1629647,1629652,1629676,201588,1610612746,1629611,1629662,1630187,201587,201976,0022000239,4,2844,2847,0,0,1610612760
195,1610612760,1628983,1629647,1629652,1629676,201588,1610612746,1629611,1629662,1630187,201587,201976,0022000239,4,2854,2856,0,0,1610612746
196,1610612760,1628983,1629647,1629652,1629676,201588,1610612746,1629611,1629662,1630187,201587,201976,0022000239,4,2864,2864,1,0,1610612760
