,TEAM_ID_1,TEAM_1_PLAYERS,TEAM_ID_2,TEAM_2_PLAYERS,PERIOD
0,1610612740,[1627742 1629627  203500  202339 1628366],1610612757,[1627884  203496  202683  203468  203081],1
1,1610612740,[1629627 1628404 1629638 1629637 1630184],1610612757,[ 203496  203468    2546 1629642 1629018],2
2,1610612740,[1627742 1629627  203500  202339 1628366],1610612757,[1627884  203496  202683  203468  203081],3
3,1610612740,[1629627 1628404 1629638 1629637 1630184],1610612757,[ 203496  203468    2546 1629642 1629018],4
