,TEAM_ID_1,TEAM_1_PLAYERS,TEAM_ID_2,TEAM_2_PLAYERS,PERIOD
0,1610612747,[  2544 203076 201580 201980 203484],1610612749,[ 203114  203507  201572  202083 1628978],1
1,1610612747,[   2544  202340 1627936  200765    2730],1610612749,[203114 203507 201572 201588   2594],2
2,1610612747,[  2544 203076 201580 201980 203484],1610612749,[ 203114  203507  201572  202083 1628978],3
3,1610612747,[  2544 203076 202340 200765   2730],1610612749,[ 203114  203507  202083 1628978  201577],4
