,TEAM_ID_1,TEAM_1_PLAYERS,TEAM_ID_2,TEAM_2_PLAYERS,PERIOD
0,1610612742,[1627827  204001  203939  203501 1629029],1610612761,[1630567 1628384 1630173 1629018 1627832],1
1,1610612742,[ 204001 1628973 1628425 1628467  203493],1610612761,[1628384 1630173 1627832  201609 1628449],2
2,1610612742,[1627827  204001  203939  203501 1629029],1610612761,[1630567 1628384 1630173 1629018 1627832],3
3,1610612742,[1627827  204001  203501 1628973  203493],1610612761,[1630173  203920  201609 1629004 1630625],4
