,t1_points_scored,stint_end,t2_pm,t1_players,t2_id,t1_id,t2_players,t2_points_scored,t1_pm,stint_start,margin_per_100,num_poss
0,9,254,6,"[1628970, 1629023, 203469, 1628998, 1628984]",1610612748,1610612766,"[203524, 1627884, 1628389, 1629130, 1629134]",15,-6,0,-40.0,15.0
1,11,370,13,"[1628970, 1629023, 203469, 1628998, 1628984]",1610612748,1610612766,"[203524, 1627884, 1628389, 1629130, 1629134]",24,-13,255,-54.166666666666664,24.0
2,11,428,15,"[1628970, 1628984, 1628998, 1629667, 203469]",1610612748,1610612766,"[203524, 1627884, 1628389, 1629130, 1629134]",26,-15,371,-53.57142857142857,28.0
3,11,455,18,"[1628970, 1628984, 1628997, 1629667, 202687]",1610612748,1610612766,"[1627884, 1628389, 1629130, 1629134, 201609]",29,-18,429,-60.0,30.0
4,16,518,16,"[1628970, 1628984, 1628997, 1629667, 202687]",1610612748,1610612766,"[1627884, 1629130, 1629134, 201609, 2738]",32,-16,456,-48.484848484848484,33.0
5,18,567,17,"[1628984, 1628997, 1629023, 1629667, 202687]",1610612748,1610612766,"[1627884, 1629130, 1629134, 201609, 2738]",35,-17,519,-47.22222222222222,36.0
6,18,622,20,"[1628984, 1628997, 1629023, 1629667, 202687]",1610612748,1610612766,"[1629130, 1629134, 201609, 203109, 2738]",38,-20,568,-50.0,40.0
7,22,698,18,"[1628997, 1629023, 1629147, 1629667, 202687]",1610612748,1610612766,"[1629639, 201609, 203109, 203524, 2738]",40,-18,623,-38.297872340425535,47.0
8,22,718,18,"[1628997, 1628998, 1629023, 1629147, 202687]",1610612748,1610612766,"[1629639, 201609, 203109, 203524, 2738]",40,-18,699,-37.5,48.0
9,28,888,12,"[1628970, 1628984, 1628997, 1628998, 1629023]",1610612748,1610612766,"[1627884, 1629639, 203109, 203524, 2738]",40,-12,719,-20.33898305084746,59.0
10,35,1005,6,"[1628970, 1629023, 1628998, 1629667, 1628997]",1610612748,1610612766,"[203524, 201609, 2738, 203109, 1629639]",41,-6,889,-9.090909090909092,66.0
11,40,1136,6,"[1628970, 1628984, 1628997, 1628998, 1629023]",1610612748,1610612766,"[1628389, 1629639, 201609, 203109, 2738]",46,-6,1006,-8.0,75.0
12,49,1322,0,"[1628970, 1628984, 1628997, 1628998, 1629023]",1610612748,1610612766,"[1627884, 1628389, 1629130, 1629134, 203109]",49,0,1137,0.0,86.0
13,51,1334,-2,"[1628970, 1628984, 1628997, 1629667, 203469]",1610612748,1610612766,"[1627884, 1628389, 1629130, 1629134, 203109]",49,2,1323,2.2988505747126435,87.0
14,59,1434,-8,"[1628984, 1628997, 1629023, 1629667, 203469]",1610612748,1610612766,"[1627884, 1628389, 1629130, 201609, 203109]",51,8,1335,8.421052631578947,95.0
15,68,1696,-6,"[1628984, 1628998, 1629023, 1629667, 203469]",1610612748,1610612766,"[1627884, 1628389, 1629130, 201609, 203109]",62,6,1435,5.405405405405405,111.0
16,71,1748,-9,"[1628970, 1629023, 203469, 1628998, 1628984]",1610612748,1610612766,"[203524, 1627884, 1628389, 1629130, 1629134]",62,9,1697,7.82608695652174,115.0
17,76,1821,-12,"[1628970, 1628984, 1628998, 1629667, 203469]",1610612748,1610612766,"[203524, 1627884, 1628389, 1629130, 1629134]",64,12,1749,10.084033613445378,119.0
18,81,1921,-15,"[1628970, 1628984, 1628997, 1629667, 203469]",1610612748,1610612766,"[203524, 1627884, 1628389, 1629130, 1629134]",66,15,1822,11.904761904761903,126.0
19,83,2021,-10,"[1628970, 1628984, 1628997, 1629667, 202687]",1610612748,1610612766,"[1627884, 1628389, 1629134, 201609, 203524]",73,10,1922,7.633587786259542,131.0
20,87,2123,-12,"[1628984, 1628997, 1629023, 1629667, 202687]",1610612748,1610612766,"[1628389, 1629134, 201609, 203109, 203524]",75,12,2022,8.695652173913043,138.0
21,87,2158,-10,"[1628997, 1628998, 1629023, 1629667, 202687]",1610612748,1610612766,"[1628389, 1629134, 201609, 203109, 203524]",77,10,2124,7.092198581560284,141.0
22,90,2344,-11,"[1628997, 1628998, 1629023, 1629667, 202687]",1610612748,1610612766,"[1629134, 201609, 203109, 203482, 2738]",79,11,2159,7.236842105263158,152.0
23,93,2451,-9,"[1628970, 1629023, 1628998, 1629667, 1628997]",1610612748,1610612766,"[1629130, 201609, 2738, 203109, 203482]",84,9,2345,5.660377358490567,159.0
24,97,2536,-8,"[1628970, 1628984, 1628997, 1628998, 1629023]",1610612748,1610612766,"[1629130, 201609, 2738, 203109, 203482]",89,8,2452,4.848484848484849,165.0
25,97,2626,-8,"[1628970, 1628984, 1628997, 1628998, 203469]",1610612748,1610612766,"[1628389, 1629130, 201609, 203109, 2738]",89,8,2537,4.761904761904762,168.0
26,103,2748,-8,"[1628984, 1628997, 1629023, 1629667, 203469]",1610612748,1610612766,"[1627884, 1628389, 1629130, 201609, 203109]",95,8,2627,4.624277456647398,173.0
27,105,2843,-7,"[1628984, 1628997, 1629023, 1629667, 203469]",1610612748,1610612766,"[1627884, 1628389, 1629130, 1629134, 203109]",98,7,2749,3.932584269662921,178.0
28,105,2850,-7,"[1628970, 1628984, 1628997, 1628998, 1629023]",1610612748,1610612766,"[1627884, 1628389, 1629130, 1629134, 203109]",98,7,2844,3.932584269662921,178.0
29,109,2869,-11,"[1628970, 1628984, 1628997, 1628998, 1629023]",1610612748,1610612766,"[1627884, 1628389, 203109, 203524, 2738]",98,11,2851,6.077348066298343,181.0
30,109,9999999,-11,"[1628970, 1628984, 1628997, 1628998, 1629023]",1610612748,1610612766,"[1629130, 1629134, 201609, 203109, 2738]",98,11,2870,6.043956043956044,182.0
