,TEAM_ID_1,TEAM_1_PLAYERS,TEAM_ID_2,TEAM_2_PLAYERS,PERIOD
0,1610612759,[1629022 1629640 1627751 1628401 1627749],1610612754,[1627747 1627734 1626167 1630537  204456],1
1,1610612759,[1627751 1628401 1627854 1628966 1630200],1610612754,[1627747 1627734 1628470  202954 1629103],2
2,1610612759,[1629022 1629640 1627751 1628401 1627749],1610612754,[1627747 1627734 1626167 1630537  204456],3
3,1610612759,[1628401 1630170 1628966 1630200  201152],1610612754,[1627747 1627734  203200 1628470  202954],4
