,TEAM_ID_1,TEAM_1_PLAYERS,TEAM_ID_2,TEAM_2_PLAYERS,PERIOD
0,1610612755,[ 201980  202699    2730  203552 1627732],1610612743,[1629008  203932  203999  203115 1627750],1
1,1610612755,[ 203118 1629003 1627788 1629680 1630194],1610612743,[ 203115 1628408  200794  203210 1630267],2
2,1610612755,[ 201980  202699    2730  203552 1627732],1610612743,[1629008  203932  203999  203115 1627750],3
3,1610612755,[ 203118 1629003 1627788 1629680 1630178],1610612743,[1627750 1628408  200794  203210 1630267],4
