,stint_start,t1_points_scored,t2_pm,stint_end,t1_id,t2_points_scored,t1_players,t2_id,t1_pm,t2_players,margin_per_100,num_poss
0,0,10,6,281,1610612737,16,"[1629631, 203953, 1627745, 203459, 1629027]",1610612745,-6,"[203463, 200782, 2199, 201935, 201566]",-33.33333333333333,18.0
1,282,17,9,392,1610612737,26,"[1629631, 203953, 1627745, 203459, 1629027]",1610612745,-9,"[203463, 200782, 2199, 201935, 201566]",-32.142857142857146,28.0
2,393,17,11,440,1610612737,28,"[1629631, 203953, 1627745, 203459, 1629027]",1610612745,-11,"[1628392, 200782, 201566, 201935, 203463]",-36.666666666666664,30.0
3,441,17,11,483,1610612737,28,"[1627761, 1628981, 1629027, 1629631, 1713]",1610612745,-11,"[1628392, 1629109, 200782, 201935, 203085]",-34.375,32.0
4,484,17,13,568,1610612737,30,"[1627761, 1628981, 1629027, 1629631, 1713]",1610612745,-13,"[1628392, 1629109, 200757, 201935, 203085]",-34.21052631578947,38.0
5,569,17,14,599,1610612737,31,"[1627761, 1627820, 1628981, 1713, 202323]",1610612745,-14,"[1628392, 1629109, 200757, 201935, 203085]",-35.0,40.0
6,600,19,14,666,1610612737,33,"[1627761, 1627820, 1628981, 1713, 202323]",1610612745,-14,"[1628392, 200757, 201566, 201935, 203085]",-31.11111111111111,45.0
7,667,21,17,719,1610612737,38,"[1627761, 1627820, 202323, 202718, 203458]",1610612745,-17,"[1628392, 1629109, 200757, 201566, 203085]",-34.0,50.0
8,720,25,16,813,1610612737,41,"[1627761, 1629027, 202323, 202718, 203458]",1610612745,-16,"[1628392, 1629109, 200757, 201566, 203085]",-28.57142857142857,56.0
9,814,28,15,857,1610612737,43,"[203459, 1629027, 202323, 203458, 202718]",1610612745,-15,"[201566, 1628392, 203085, 1629109, 200757]",-25.0,60.0
10,858,32,18,918,1610612737,50,"[203459, 1629027, 202323, 203458, 202718]",1610612745,-18,"[1628392, 200757, 201566, 203085, 203463]",-26.865671641791046,67.0
11,919,32,18,958,1610612737,50,"[203459, 1629027, 202323, 203458, 202718]",1610612745,-18,"[1629109, 200782, 201566, 203085, 203463]",-26.47058823529412,68.0
12,959,33,26,1071,1610612737,59,"[1627745, 1629027, 1629631, 203459, 203953]",1610612745,-26,"[1629109, 200782, 201566, 201935, 203463]",-32.91139240506329,79.0
13,1072,36,26,1159,1610612737,62,"[1627745, 1627761, 1627820, 1629631, 203953]",1610612745,-26,"[1629109, 200782, 201935, 203085, 203463]",-31.32530120481928,83.0
14,1160,41,26,1265,1610612737,67,"[1627745, 1627761, 1629027, 1629631, 203953]",1610612745,-26,"[1629109, 200782, 201935, 203085, 203463]",-28.57142857142857,91.0
15,1266,43,26,1293,1610612737,69,"[1627745, 1627761, 1629027, 1629631, 203953]",1610612745,-26,"[1629109, 200782, 201566, 201935, 203085]",-27.659574468085108,94.0
16,1294,52,29,1439,1610612737,81,"[1627761, 1629027, 202718, 203458, 203953]",1610612745,-29,"[200782, 201566, 201935, 203085, 203463]",-27.358490566037734,106.0
17,1440,56,30,1563,1610612737,86,"[1629027, 202718, 203458, 203459, 203953]",1610612745,-30,"[200782, 201566, 201935, 203085, 203463]",-25.862068965517242,116.0
18,1564,59,41,1733,1610612737,100,"[1629631, 203953, 1627745, 203459, 1629027]",1610612745,-41,"[203463, 200782, 2199, 201935, 201566]",-32.03125,128.0
19,1734,59,42,1761,1610612737,101,"[1629027, 1629631, 1713, 203459, 203953]",1610612745,-42,"[203463, 200782, 2199, 201935, 201566]",-32.30769230769231,130.0
20,1762,60,45,1815,1610612737,105,"[1627761, 1629027, 1713, 203458, 203459]",1610612745,-45,"[1628392, 200782, 201566, 201935, 203463]",-33.582089552238806,134.0
21,1816,65,45,1904,1610612737,110,"[1627761, 1627820, 1713, 202323, 203458]",1610612745,-45,"[1628392, 200782, 201935, 203085, 203463]",-32.142857142857146,140.0
22,1905,65,48,1957,1610612737,113,"[1627761, 1627820, 1628981, 1713, 202323]",1610612745,-48,"[1628392, 200757, 201935, 203085, 203463]",-33.33333333333333,144.0
23,1958,66,53,2058,1610612737,119,"[1627761, 1627820, 1628981, 202323, 202718]",1610612745,-53,"[1628392, 200757, 201935, 203085, 203463]",-35.333333333333336,150.0
24,2059,73,54,2159,1610612737,127,"[1627761, 1627820, 1628981, 202323, 202718]",1610612745,-54,"[1629109, 1629598, 200757, 201566, 201935]",-34.177215189873415,158.0
25,2160,81,51,2313,1610612737,132,"[1627761, 1627820, 1628981, 202323, 202718]",1610612745,-51,"[1629598, 200757, 200782, 201566, 201935]",-30.538922155688624,167.0
26,2314,90,47,2432,1610612737,137,"[1629631, 203459, 1629027, 1713, 1628981]",1610612745,-47,"[203463, 200782, 203085, 200757, 1629598]",-26.704545454545453,176.0
27,2433,93,44,2483,1610612737,137,"[1629631, 203459, 1629027, 1713, 1628981]",1610612745,-44,"[1629109, 1629598, 200757, 200782, 203085]",-24.444444444444443,180.0
28,2484,97,47,2556,1610612737,144,"[1629027, 1629631, 202718, 203458, 203459]",1610612745,-47,"[1628392, 1629109, 1629598, 203085, 203463]",-25.268817204301076,186.0
29,2557,105,47,2776,1610612737,152,"[1629027, 1629631, 1713, 202718, 203458]",1610612745,-47,"[1628392, 1629109, 1629598, 203085, 203463]",-23.5,200.0
30,2777,111,47,2854,1610612737,158,"[1627761, 1627820, 1629631, 1713, 203458]",1610612745,-47,"[1628392, 1629109, 1629598, 203085, 203463]",-22.596153846153847,208.0
31,2855,111,47,9999999,1610612737,158,"[1627761, 1627820, 1628981, 202323, 202718]",1610612745,-47,"[1628392, 1629109, 1629598, 203085, 203463]",-22.48803827751196,209.0
