,team1_id,team1_player1,team1_player2,team1_player3,team1_player4,team1_player5,team2_id,team2_player1,team2_player2,team2_player3,team2_player4,team2_player5,game_id,period,possession_start,possession_end,team1_points,team2_points,possession_team
0,1610612764,1630557,1628398,1629655,203915,1628988,1610612752,202692,203944,1629011,203095,202689,0022100480,1,0,18,0,3,1610612752
1,1610612764,1630557,1628398,1629655,203915,1628988,1610612752,202692,203944,1629011,203095,202689,0022100480,1,37,40,0,0,1610612764
2,1610612764,1630557,1628398,1629655,203915,1628988,1610612752,202692,203944,1629011,203095,202689,0022100480,1,51,51,0,2,1610612752
3,1610612764,1630557,1628398,1629655,203915,1628988,1610612752,202692,203944,1629011,203095,202689,0022100480,1,72,76,0,0,1610612764
4,1610612764,1630557,1628398,1629655,203915,1628988,1610612752,202692,203944,1629011,203095,202689,0022100480,1,84,84,0,3,1610612752
5,1610612764,1630557,1628398,1629655,203915,1628988,1610612752,202692,203944,1629011,203095,202689,0022100480,1,94,94,3,0,1610612764
6,1610612764,1630557,1628398,1629655,203915,1628988,1610612752,202692,203944,1629011,203095,202689,0022100480,1,112,116,0,0,1610612752
7,1610612764,1630557,1628398,1629655,203915,1628988,1610612752,202692,203944,1629011,203095,202689,0022100480,1,123,123,0,0,1610612764
8,1610612764,1630557,1628398,1629655,203915,1628988,1610612752,202692,203944,1629011,203095,202689,0022100480,1,134,138,0,0,1610612752
9,1610612764,1630557,1628398,1629655,203915,1628988,1610612752,202692,203944,1629011,203095,202689,0022100480,1,144,147,0,0,1610612764
10,1610612764,1630557,1628398,1629655,203915,1628988,1610612752,202692,203944,1629011,203095,202689,0022100480,1,156,156,0,3,1610612752
11,1610612764,1630557,1628398,1629655,203915,1628988,1610612752,202692,203944,1629011,203095,202689,0022100480,1,171,171,2,0,1610612764
12,1610612764,1630557,1628398,1629655,203915,1628988,1610612752,202692,203944,1629011,203095,202689,0022100480,1,186,188,0,0,1610612752
13,1610612764,1630557,1628398,1629655,203915,1628988,1610612752,202692,203944,1629011,203095,202689,0022100480,1,195,195,3,0,1610612764
14,1610612764,1630557,1628398,1629655,203915,1628988,1610612752,202692,203944,1629011,203095,202689,0022100480,1,222,225,0,0,1610612752
15,1610612764,1630557,1628398,1629655,203915,1628988,1610612752,202692,203944,1629011,203095,202689,0022100480,1,234,235,0,0,1610612764
16,1610612764,1630557,1628398,1629655,203915,1628988,1610612752,202692,203944,1629011,203095,202689,0022100480,1,235,248,0,0,1610612752
17,1610612764,1630557,1628398,1629655,203915,1628988,1610612752,202692,203944,1629011,203095,202689,0022100480,1,259,263,0,0,1610612764
18,1610612764,1630557,1628398,1629655,203915,1628988,1610612752,202692,203944,1629011,203095,202689,0022100480,1,272,272,0,2,1610612752
19,1610612764,1630557,1628398,1629655,203915,1628988,1610612752,202692,203944,1629011,203095,202689,0022100480,1,293,293,2,0,1610612764
20,1610612764,1630557,1628398,1629655,203915,1628988,1610612752,1629011,201959,202689,203095,203944,0022100480,1,309,313,0,2,1610612752
21,1610612764,1630557,1628398,1629655,203915,1628988,1610612752,1629011,201959,202689,203095,203944,0022100480,1,318,329,2,0,1610612764
22,1610612764,1629655,1630166,1630557,203526,203915,1610612752,1629011,201959,202689,203095,203944,0022100480,1,346,350,0,0,1610612752
23,1610612764,1629655,1630166,1630557,203526,203915,1610612752,1629011,201959,202689,203095,203944,0022100480,1,357,357,3,0,1610612764
24,1610612764,1629655,1630166,1630557,203526,203915,1610612752,1629011,201959,202689,203095,203944,0022100480,1,382,382,0,2,1610612752
25,1610612764,1629655,1630166,1630557,203526,203915,1610612752,1629011,201959,202689,203095,203944,0022100480,1,397,402,3,0,1610612764
26,1610612764,1626149,1630166,1630557,203526,203915,1610612752,1630579,201959,202689,203095,203944,0022100480,1,422,422,0,2,1610612752
27,1610612764,1626149,1630166,1630557,203526,203915,1610612752,1630579,201959,202689,203095,203944,0022100480,1,433,435,0,0,1610612764
28,1610612764,1626149,1630166,1630557,203526,203915,1610612752,1630579,201959,202689,203095,203944,0022100480,1,440,440,0,2,1610612752
29,1610612764,1626149,1630166,1630557,203526,203915,1610612752,1630579,201959,202689,203095,203944,0022100480,1,459,462,0,0,1610612764
30,1610612764,1626149,1630166,1630557,203526,203915,1610612752,1630579,201959,202689,203095,203944,0022100480,1,463,463,0,0,1610612752
31,1610612764,1626149,1630166,1630557,203526,203915,1610612752,1630579,201959,202689,203095,203944,0022100480,1,468,471,2,0,1610612764
32,1610612764,1626149,1630166,1630557,203526,203915,1610612752,1630579,201959,202689,203095,203944,0022100480,1,495,502,0,0,1610612752
33,1610612764,1626149,1630166,1630557,203526,203915,1610612752,1630579,201959,202689,203095,203944,0022100480,1,519,522,0,0,1610612764
34,1610612764,1626149,1630166,1630557,203526,203915,1610612752,1630579,201959,202689,203095,203944,0022100480,1,531,531,0,2,1610612752
35,1610612764,1626149,1630166,1630557,203526,203915,1610612752,1630579,201959,202689,203095,203944,0022100480,1,543,553,0,0,1610612764
36,1610612764,1626149,1628398,1630166,202722,203526,1610612752,1630579,201959,202692,203095,203944,0022100480,1,564,566,0,0,1610612752
37,1610612764,1626149,1628398,1630166,202722,203526,1610612752,1630579,201959,202692,203095,203944,0022100480,1,570,570,0,0,1610612764
38,1610612764,1626149,1628398,1630166,202722,203526,1610612752,1630579,201959,202692,203095,203944,0022100480,1,592,592,0,2,1610612752
39,1610612764,1626149,1628398,1630166,202722,203526,1610612752,1630579,201959,202692,203095,203944,0022100480,1,611,611,2,0,1610612764
40,1610612764,1626149,1628398,1630166,202722,203526,1610612752,1630579,201959,202692,203095,203944,0022100480,1,624,628,0,0,1610612752
41,1610612764,1626149,1628398,1630166,202722,203526,1610612752,1630579,201959,202692,203095,203944,0022100480,1,642,642,2,0,1610612764
42,1610612764,1626149,1628398,1630166,202722,203526,1610612752,1630579,201959,202692,203095,203944,0022100480,1,660,660,0,0,1610612752
43,1610612764,1626149,1628398,1630166,202722,203526,1610612752,1630167,1630579,201959,202692,203095,0022100480,1,675,675,2,0,1610612764
44,1610612764,1626149,1628398,1630166,202722,203526,1610612752,1630167,1630579,201959,202692,203095,0022100480,1,685,689,0,0,1610612752
45,1610612764,1626149,1628398,1630166,202722,203526,1610612752,1630167,1630579,201959,202692,203095,0022100480,1,692,692,3,0,1610612764
46,1610612764,1626149,1628398,1630166,202722,203526,1610612752,1628422,1630167,201959,202692,203095,0022100480,1,712,714,0,2,1610612752
47,1610612764,1626149,1628398,1630166,202722,203526,1610612752,1628422,1630167,201959,202692,203095,0022100480,1,719,719,2,0,1610612764
48,1610612764,1630557,1628398,1628988,1626149,202722,1610612752,202692,202689,1630579,1630167,1628422,0022100480,2,720,735,0,0,1610612764
49,1610612764,1630557,1628398,1628988,1626149,202722,1610612752,202692,202689,1630579,1630167,1628422,0022100480,2,752,752,0,3,1610612752
50,1610612764,1630557,1628398,1628988,1626149,202722,1610612752,202692,202689,1630579,1630167,1628422,0022100480,2,775,775,2,0,1610612764
51,1610612764,1630557,1628398,1628988,1626149,202722,1610612752,202692,202689,1630579,1630167,1628422,0022100480,2,790,790,0,2,1610612752
52,1610612764,1630557,1628398,1628988,1626149,202722,1610612752,202692,202689,1630579,1630167,1628422,0022100480,2,801,803,0,0,1610612764
53,1610612764,1630557,1628398,1628988,1626149,202722,1610612752,202692,202689,1630579,1630167,1628422,0022100480,2,813,816,0,0,1610612752
54,1610612764,1630557,1628398,1628988,1626149,202722,1610612752,202692,202689,1630579,1630167,1628422,0022100480,2,820,820,2,0,1610612764
55,1610612764,1630557,1628398,1628988,1626149,202722,1610612752,202692,202689,1630579,1630167,1628422,0022100480,2,830,830,0,0,1610612752
56,1610612764,1630557,1628398,1628988,1626149,202722,1610612752,202692,202689,1630579,1630167,1628422,0022100480,2,836,836,3,0,1610612764
57,1610612764,1630557,1628398,1628988,1626149,202722,1610612752,202692,202689,1630579,1630167,1628422,0022100480,2,848,867,0,0,1610612752
58,1610612764,1630557,1628398,1628988,1626149,202722,1610612752,202692,202689,1630579,1630167,1628422,0022100480,2,886,890,0,0,1610612764
59,1610612764,1630557,1628398,1628988,1626149,202722,1610612752,202692,202689,1630579,1630167,1628422,0022100480,2,891,904,0,3,1610612752
60,1610612764,1630557,1628398,1628988,1626149,202722,1610612752,1630167,1630579,202689,202692,203095,0022100480,2,918,918,2,0,1610612764
61,1610612764,1630557,1628398,1628988,1626149,202722,1610612752,1630167,1630579,202689,202692,203095,0022100480,2,944,956,0,2,1610612752
62,1610612764,1626149,1628988,1630166,1630557,203915,1610612752,1630167,1630579,202689,202692,203095,0022100480,2,972,974,0,0,1610612764
63,1610612764,1626149,1628988,1630166,1630557,203915,1610612752,1630167,1630579,202689,202692,203095,0022100480,2,980,980,0,2,1610612752
64,1610612764,1626149,1628988,1630166,1630557,203915,1610612752,1630167,1630579,202689,202692,203095,0022100480,2,1004,1004,2,0,1610612764
65,1610612764,1626149,1628988,1630166,1630557,203915,1610612752,1630167,1630579,202689,202692,203095,0022100480,2,1023,1027,0,0,1610612752
66,1610612764,1626149,1628988,1630166,1630557,203915,1610612752,1630167,1630579,202689,202692,203095,0022100480,2,1034,1034,3,0,1610612764
67,1610612764,1626149,1628988,1630166,1630557,203915,1610612752,1630167,1630579,202689,202692,203095,0022100480,2,1049,1053,0,0,1610612752
68,1610612764,1626149,1628988,1630166,1630557,203915,1610612752,1630167,1630579,202689,202692,203095,0022100480,2,1057,1062,0,0,1610612764
69,1610612764,1626149,1628988,1630166,1630557,203915,1610612752,1630167,1630579,202689,202692,203095,0022100480,2,1068,1068,0,2,1610612752
70,1610612764,1626149,1628988,1630166,1630557,203915,1610612752,1630167,1630579,202689,202692,203095,0022100480,2,1079,1082,0,0,1610612764
71,1610612764,1626149,1628988,1630166,1630557,203915,1610612752,1630167,1630579,202689,202692,203095,0022100480,2,1095,1098,0,0,1610612752
72,1610612764,1626149,1628988,1630166,1630557,203915,1610612752,1630167,1630579,202689,202692,203095,0022100480,2,1113,1116,0,0,1610612764
73,1610612764,1626149,1628988,1630166,1630557,203915,1610612752,1630167,1630579,202689,202692,203095,0022100480,2,1123,1123,0,3,1610612752
74,1610612764,1626149,1628988,1630166,1630557,203915,1610612752,1630167,1630579,202689,202692,203095,0022100480,2,1125,1140,0,0,1610612764
75,1610612764,1629655,1630166,1630557,203526,203915,1610612752,1627863,1629011,202689,203095,203944,0022100480,2,1149,1149,0,3,1610612752
76,1610612764,1629655,1630166,1630557,203526,203915,1610612752,1627863,1629011,202689,203095,203944,0022100480,2,1169,1172,0,0,1610612764
77,1610612764,1629655,1630166,1630557,203526,203915,1610612752,1627863,1629011,202689,203095,203944,0022100480,2,1178,1182,0,0,1610612752
78,1610612764,1629655,1630166,1630557,203526,203915,1610612752,1627863,1629011,202689,203095,203944,0022100480,2,1196,1196,2,0,1610612764
79,1610612764,1629655,1630166,1630557,203526,203915,1610612752,1627863,1629011,202689,203095,203944,0022100480,2,1215,1218,0,0,1610612752
80,1610612764,1629655,1630166,1630557,203526,203915,1610612752,1627863,1629011,202689,203095,203944,0022100480,2,1231,1235,0,0,1610612764
81,1610612764,1629655,1630166,1630557,203526,203915,1610612752,1627863,1629011,202689,203095,203944,0022100480,2,1241,1241,0,2,1610612752
82,1610612764,1628398,1629655,1630166,203526,203915,1610612752,1627863,1629011,202689,203095,203944,0022100480,2,1252,1252,0,0,1610612764
83,1610612764,1628398,1629655,1630166,203526,203915,1610612752,1627863,1629011,202689,203095,203944,0022100480,2,1258,1258,0,0,1610612752
84,1610612764,1628398,1629655,1630166,203526,203915,1610612752,1627863,1629011,202689,203095,203944,0022100480,2,1268,1268,3,0,1610612764
85,1610612764,1628398,1629655,1630166,203526,203915,1610612752,1627863,1629011,202689,203095,203944,0022100480,2,1281,1281,0,3,1610612752
86,1610612764,1628398,1629655,1630166,203526,203915,1610612752,1627863,1629011,202689,203095,203944,0022100480,2,1290,1292,1,0,1610612764
87,1610612764,1628398,1629655,1630166,203526,203915,1610612752,1627863,1629011,202689,203095,203944,0022100480,2,1308,1314,0,0,1610612752
88,1610612764,1628398,1629655,1630166,203526,203915,1610612752,1627863,1629011,202689,203095,203944,0022100480,2,1317,1317,2,0,1610612764
89,1610612764,1628398,1629655,1630166,203526,203915,1610612752,1627863,1629011,202689,203095,203944,0022100480,2,1326,1337,0,3,1610612752
90,1610612764,1628398,1629655,1630166,203526,203915,1610612752,1629011,202689,202692,203095,203944,0022100480,2,1349,1352,0,0,1610612764
91,1610612764,1628398,1629655,1630166,203526,203915,1610612752,1629011,202689,202692,203095,203944,0022100480,2,1354,1354,0,2,1610612752
92,1610612764,1628398,1629655,1630166,203526,203915,1610612752,1629011,202689,202692,203095,203944,0022100480,2,1366,1366,2,0,1610612764
93,1610612764,1628398,1629655,1630166,203526,203915,1610612752,1629011,202689,202692,203095,203944,0022100480,2,1383,1383,0,2,1610612752
94,1610612764,1628398,1629655,1630166,203526,203915,1610612752,1629011,202689,202692,203095,203944,0022100480,2,1403,1403,2,0,1610612764
95,1610612764,1629655,1630166,1630264,203526,203915,1610612752,1630579,202689,202692,203095,203944,0022100480,2,1410,1410,0,3,1610612752
96,1610612764,1629655,1630166,1630264,203526,203915,1610612752,1630579,202689,202692,203095,203944,0022100480,2,1410,1422,0,0,1610612764
97,1610612764,1629655,1630166,1630264,203526,203915,1610612752,1630579,202689,202692,203095,203944,0022100480,2,1434,1439,0,2,1610612752
98,1610612764,1628988,1629655,1630166,1630264,203915,1610612752,1630579,202689,202692,203095,203944,0022100480,2,1440,1440,0,0,1610612752
99,1610612764,1630557,1628398,1629655,203915,1628988,1610612752,202692,203944,1629011,203095,202689,0022100480,3,1440,1457,0,0,1610612764
100,1610612764,1630557,1628398,1629655,203915,1628988,1610612752,202692,203944,1629011,203095,202689,0022100480,3,1471,1475,0,0,1610612752
101,1610612764,1630557,1628398,1629655,203915,1628988,1610612752,202692,203944,1629011,203095,202689,0022100480,3,1485,1485,0,0,1610612764
102,1610612764,1630557,1628398,1629655,203915,1628988,1610612752,202692,203944,1629011,203095,202689,0022100480,3,1499,1502,0,0,1610612752
103,1610612764,1630557,1628398,1629655,203915,1628988,1610612752,202692,203944,1629011,203095,202689,0022100480,3,1509,1509,2,0,1610612764
104,1610612764,1630557,1628398,1629655,203915,1628988,1610612752,202692,203944,1629011,203095,202689,0022100480,3,1523,1525,0,2,1610612752
105,1610612764,1630557,1628398,1629655,203915,1628988,1610612752,202692,203944,1629011,203095,202689,0022100480,3,1536,1536,3,0,1610612764
106,1610612764,1630557,1628398,1629655,203915,1628988,1610612752,202692,203944,1629011,203095,202689,0022100480,3,1562,1566,0,0,1610612752
107,1610612764,1630557,1628398,1629655,203915,1628988,1610612752,202692,203944,1629011,203095,202689,0022100480,3,1570,1571,1,0,1610612764
108,1610612764,1630557,1628398,1629655,203915,1628988,1610612752,1630579,202689,202692,203095,203944,0022100480,3,1571,1571,0,0,1610612764
109,1610612764,1630557,1628398,1629655,203915,1628988,1610612752,1630579,202689,202692,203095,203944,0022100480,3,1592,1595,0,0,1610612752
110,1610612764,1630557,1628398,1629655,203915,1628988,1610612752,1630579,202689,202692,203095,203944,0022100480,3,1602,1602,2,0,1610612764
111,1610612764,1630557,1628398,1629655,203915,1628988,1610612752,1630579,202689,202692,203095,203944,0022100480,3,1623,1624,0,0,1610612752
112,1610612764,1630557,1628398,1629655,203915,1628988,1610612752,1630579,202689,202692,203095,203944,0022100480,3,1634,1636,2,0,1610612764
113,1610612764,1630557,1628398,1629655,203915,1628988,1610612752,1630579,202689,202692,203095,203944,0022100480,3,1636,1657,0,0,1610612752
114,1610612764,1630557,1628398,1629655,203915,1628988,1610612752,1630579,202689,202692,203095,203944,0022100480,3,1673,1673,2,0,1610612764
115,1610612764,1630557,1628398,1629655,203915,1628988,1610612752,1630579,202689,202692,203095,203944,0022100480,3,1695,1700,0,0,1610612752
116,1610612764,1630557,1628398,1629655,203915,1628988,1610612752,1630579,202689,202692,203095,203944,0022100480,3,1703,1703,2,0,1610612764
117,1610612764,1630557,1628398,1629655,203915,1628988,1610612752,1630579,202689,202692,203095,203944,0022100480,3,1717,1721,0,2,1610612752
118,1610612764,1630557,1628398,1629655,203915,1628988,1610612752,1630579,202689,202692,203095,203944,0022100480,3,1733,1736,0,0,1610612764
119,1610612764,1630557,1628398,1629655,203915,1628988,1610612752,1630579,202689,202692,203095,203944,0022100480,3,1751,1751,0,2,1610612752
120,1610612764,1630557,1628398,1629655,203915,1628988,1610612752,1630579,202689,202692,203095,203944,0022100480,3,1764,1764,3,0,1610612764
121,1610612764,1630557,1628398,1629655,203915,1628988,1610612752,1630579,202689,202692,203095,203944,0022100480,3,1780,1789,0,2,1610612752
122,1610612764,1630557,1628398,1629655,203915,1628988,1610612752,1630579,202689,202692,203095,203944,0022100480,3,1797,1797,3,0,1610612764
123,1610612764,1630557,1628398,1629655,203915,1628988,1610612752,1630579,202689,202692,203095,203944,0022100480,3,1814,1825,0,0,1610612752
124,1610612764,1630557,1628398,1629655,203915,1628988,1610612752,1630579,202689,202692,203095,203944,0022100480,3,1833,1833,0,0,1610612764
125,1610612764,1628988,1629655,1630166,1630557,203915,1610612752,1630579,202689,202692,203095,203944,0022100480,3,1845,1845,0,0,1610612752
126,1610612764,1628988,1629655,1630166,1630557,203915,1610612752,1630579,202689,202692,203095,203944,0022100480,3,1850,1850,2,0,1610612764
127,1610612764,1626149,1628988,1630166,1630557,203915,1610612752,1630579,202689,202692,203095,203944,0022100480,3,1862,1862,0,3,1610612752
128,1610612764,1626149,1628988,1630166,1630557,203915,1610612752,1630579,202689,202692,203095,203944,0022100480,3,1884,1884,3,0,1610612764
129,1610612764,1626149,1628988,1630166,1630557,203915,1610612752,1630579,202689,202692,203095,203944,0022100480,3,1901,1911,0,0,1610612752
130,1610612764,1626149,1630166,1630557,203526,203915,1610612752,1628422,1630579,202689,203095,203944,0022100480,3,1915,1918,1,0,1610612764
131,1610612764,1626149,1630166,1630557,203526,203915,1610612752,1628422,1630579,202689,203095,203944,0022100480,3,1938,1949,0,4,1610612752
132,1610612764,1626149,1630166,202722,203526,203915,1610612752,1628422,1630579,202689,203095,203944,0022100480,3,1971,1971,2,0,1610612764
133,1610612764,1626149,1630166,202722,203526,203915,1610612752,1628422,1630579,202689,203095,203944,0022100480,3,1987,1987,0,3,1610612752
134,1610612764,1626149,1630166,202722,203526,203915,1610612752,1628422,1630579,202689,203095,203944,0022100480,3,2003,2007,0,0,1610612764
135,1610612764,1626149,1630166,202722,203526,203915,1610612752,1628422,1630579,202689,203095,203944,0022100480,3,2013,2013,0,2,1610612752
136,1610612764,1626149,1630166,202722,203526,203915,1610612752,1628422,1630579,202689,203095,203944,0022100480,3,2030,2033,0,0,1610612764
137,1610612764,1626149,1630166,202722,203526,203915,1610612752,1628422,1630579,202689,203095,203944,0022100480,3,2048,2048,0,0,1610612752
138,1610612764,1626149,1630166,202722,203526,203915,1610612752,1628422,1630579,202689,203095,203944,0022100480,3,2062,2062,3,0,1610612764
139,1610612764,1626149,1628398,1630166,202722,203526,1610612752,1628422,1630579,202689,203095,203944,0022100480,3,2069,2069,0,2,1610612752
140,1610612764,1626149,1628398,1630166,202722,203526,1610612752,1628422,1630579,202689,203095,203944,0022100480,3,2091,2091,2,0,1610612764
141,1610612764,1626149,1628398,1630166,202722,203526,1610612752,1628422,1630579,202689,203095,203944,0022100480,3,2111,2117,0,0,1610612752
142,1610612764,1626149,1628398,1630166,202722,203526,1610612752,1628422,1630579,202689,203095,203944,0022100480,3,2124,2127,0,0,1610612764
143,1610612764,1626149,1628398,1630166,202722,203526,1610612752,1628422,1630579,202689,203095,203944,0022100480,3,2145,2145,0,0,1610612752
144,1610612764,1626149,1628398,1630166,202722,203526,1610612752,1628422,1630579,202689,203095,203944,0022100480,3,2145,2159,0,0,1610612764
145,1610612764,1630557,1628398,203526,1626149,202722,1610612752,202692,1629011,203095,1630167,1628422,0022100480,4,2160,2185,0,2,1610612752
146,1610612764,1630557,1628398,203526,1626149,202722,1610612752,202692,1629011,203095,1630167,1628422,0022100480,4,2203,2203,3,0,1610612764
147,1610612764,1630557,1628398,203526,1626149,202722,1610612752,202692,1629011,203095,1630167,1628422,0022100480,4,2221,2221,0,1,1610612752
148,1610612764,1630557,1628398,203526,1626149,202722,1610612752,202692,1629011,203095,1630167,1628422,0022100480,4,2232,2232,2,0,1610612764
149,1610612764,1630557,1628398,203526,1626149,202722,1610612752,202692,1629011,203095,1630167,1628422,0022100480,4,2258,2260,0,0,1610612752
150,1610612764,1630557,1628398,203526,1626149,202722,1610612752,202692,1629011,203095,1630167,1628422,0022100480,4,2267,2267,2,0,1610612764
151,1610612764,1630557,1628398,203526,1626149,202722,1610612752,202692,1629011,203095,1630167,1628422,0022100480,4,2268,2284,0,2,1610612752
152,1610612764,1630557,1628398,203526,1626149,202722,1610612752,1628422,1629011,1630167,202689,202692,0022100480,4,2294,2294,0,0,1610612764
153,1610612764,1630557,1628398,203526,1626149,202722,1610612752,1628422,1629011,1630167,202689,202692,0022100480,4,2314,2314,0,2,1610612752
154,1610612764,1630557,1628398,203526,1626149,202722,1610612752,1628422,1629011,1630167,202689,202692,0022100480,4,2344,2348,2,0,1610612764
155,1610612764,1630557,1628398,203526,1626149,202722,1610612752,1628422,1629011,1630167,202689,202692,0022100480,4,2366,2366,0,2,1610612752
156,1610612764,1630557,1628398,203526,1626149,202722,1610612752,1628422,1629011,1630167,202689,202692,0022100480,4,2366,2389,1,0,1610612764
157,1610612764,1626149,1628988,1630166,1630557,203915,1610612752,1628422,1629011,1630167,202689,202692,0022100480,4,2409,2409,0,2,1610612752
158,1610612764,1626149,1628988,1630166,1630557,203915,1610612752,1628422,1629011,1630167,202689,202692,0022100480,4,2424,2424,2,0,1610612764
159,1610612764,1626149,1628988,1630166,1630557,203915,1610612752,1628422,1629011,1630167,202689,202692,0022100480,4,2448,2448,0,0,1610612752
160,1610612764,1626149,1628988,1630166,1630557,203915,1610612752,1628422,1629011,1630167,202689,202692,0022100480,4,2448,2460,2,0,1610612764
161,1610612764,1628988,1629655,1630166,1630557,203915,1610612752,1628422,1629011,202689,202692,203944,0022100480,4,2483,2492,0,0,1610612752
162,1610612764,1628988,1629655,1630166,1630557,203915,1610612752,1628422,1629011,202689,202692,203944,0022100480,4,2510,2514,0,0,1610612764
163,1610612764,1628988,1629655,1630166,1630557,203915,1610612752,1628422,1629011,202689,202692,203944,0022100480,4,2521,2521,0,3,1610612752
164,1610612764,1628988,1629655,1630166,1630557,203915,1610612752,1628422,1629011,202689,202692,203944,0022100480,4,2538,2540,2,0,1610612764
165,1610612764,1628398,1628988,1629655,1630166,203915,1610612752,1628422,1629011,202689,202692,203944,0022100480,4,2559,2559,0,2,1610612752
166,1610612764,1628398,1628988,1629655,1630166,203915,1610612752,1628422,1629011,202689,202692,203944,0022100480,4,2582,2586,0,0,1610612764
167,1610612764,1628398,1628988,1629655,1630166,203915,1610612752,1628422,1629011,202689,202692,203944,0022100480,4,2600,2603,0,0,1610612752
168,1610612764,1628398,1628988,1629655,1630166,203915,1610612752,1628422,1629011,202689,202692,203944,0022100480,4,2615,2615,3,0,1610612764
169,1610612764,1628398,1628988,1629655,1630166,203915,1610612752,1628422,1629011,202689,202692,203944,0022100480,4,2634,2634,0,2,1610612752
170,1610612764,1628398,1628988,1629655,1630166,203915,1610612752,1628422,1629011,202689,202692,203944,0022100480,4,2644,2644,0,0,1610612764
171,1610612764,1628398,1628988,1629655,1630166,203915,1610612752,1628422,1629011,202689,202692,203944,0022100480,4,2664,2678,0,0,1610612752
172,1610612764,1628398,1628988,1629655,1630166,203915,1610612752,1628422,1629011,202689,202692,203944,0022100480,4,2683,2695,0,0,1610612764
173,1610612764,1628398,1628988,1629655,1630166,203915,1610612752,1629011,202689,202692,203095,203944,0022100480,4,2700,2717,0,3,1610612752
174,1610612764,1628398,1628988,1629655,1630166,203915,1610612752,1629011,202689,202692,203095,203944,0022100480,4,2734,2734,3,0,1610612764
175,1610612764,1628398,1628988,1629655,1630166,203915,1610612752,1629011,202689,202692,203095,203944,0022100480,4,2751,2754,0,2,1610612752
176,1610612764,1628398,1628988,1629655,1630166,203915,1610612752,1629011,202689,202692,203095,203944,0022100480,4,2769,2769,3,0,1610612764
177,1610612764,1628398,1628988,1629655,1630166,203915,1610612752,1629011,202689,202692,203095,203944,0022100480,4,2789,2793,0,0,1610612752
178,1610612764,1628398,1628988,1629655,1630166,203915,1610612752,1629011,202689,202692,203095,203944,0022100480,4,2804,2804,0,0,1610612764
179,1610612764,1628398,1628988,1629655,1630166,203915,1610612752,1629011,202689,202692,203095,203944,0022100480,4,2812,2812,0,2,1610612752
180,1610612764,1628398,1628988,1629655,1630166,203915,1610612752,1629011,202689,202692,203095,203944,0022100480,4,2824,2824,3,0,1610612764
181,1610612764,1628398,1628988,1629655,1630166,203915,1610612752,1629011,202689,202692,203095,203944,0022100480,4,2824,2832,0,3,1610612752
182,1610612764,1628398,1628988,1629655,1630166,203915,1610612752,1629011,202689,202692,203095,203944,0022100480,4,2843,2855,0,0,1610612764
183,1610612764,1628398,1628988,1629655,1630166,203915,1610612752,1630167,202689,202692,203095,203944,0022100480,4,2861,2865,0,0,1610612752
184,1610612764,1628398,1628988,1629655,1630166,203915,1610612752,1630167,202689,202692,203095,203944,0022100480,4,2865,2865,2,0,1610612764
185,1610612764,1628398,1628988,1629655,1630166,203915,1610612752,1630167,202689,202692,203095,203944,0022100480,4,2870,2870,0,1,1610612752
186,1610612764,1628398,1628988,1629655,1630166,203915,1610612752,1630167,202689,202692,203095,203944,0022100480,4,2870,2874,2,0,1610612764
187,1610612764,1628398,1628988,1630166,1630557,203915,1610612752,1630167,202689,202692,203095,203944,0022100480,4,2874,2876,0,2,1610612752
188,1610612764,1628398,1628988,1630166,1630557,203915,1610612752,1630167,202689,202692,203095,203944,0022100480,4,2876,2877,2,0,1610612764
