,TEAM_ID_1,TEAM_1_PLAYERS,TEAM_ID_2,TEAM_2_PLAYERS,PERIOD
0,1610612744,[ 203952  203110 1630164 1626162  201939],1610612748,[ 202710    2772 1628389 1629130  203506],1
1,1610612744,[1626162  203145 1626172 1627814 1629673],1610612748,[1628389  203506 1629639    2738 1629216],2
2,1610612744,[ 203952  203110 1630164 1626162  201939],1610612748,[ 202710    2772 1628389 1629130  203506],3
3,1610612744,[1626162  203145 1626172 1627814 1629673],1610612748,[1628389  203506 1629639    2738 1629216],4
