,t1_pm,t2_pm,stint_start,t2_points_scored,t2_players,t2_id,t1_id,t1_players,stint_end,t1_points_scored,margin_per_100,num_poss
0,-4,4,0,10,"[1626224, 1627752, 203083, 1630171, 1629012]",1610612739,1610612747,"[2544, 203076, 201188, 203484, 203471]",181,6,-33.33333333333333,12.0
1,-6,6,182,12,"[1626224, 1627752, 203083, 1630171, 1629012]",1610612739,1610612747,"[2544, 203076, 201188, 203484, 203471]",211,6,-40.0,15.0
2,1,-1,212,16,"[1626224, 1627752, 203083, 1630171, 1629012]",1610612739,1610612747,"[1626149, 203076, 203471, 203484, 2544]",386,17,3.8461538461538463,26.0
3,1,-1,387,16,"[1626224, 1628386, 1629012, 1630171, 203083]",1610612739,1610612747,"[1626149, 203076, 203471, 203484, 2544]",403,17,3.7037037037037033,27.0
4,2,-2,404,19,"[1628386, 1629012, 1629636, 1630171, 203083]",1610612739,1610612747,"[1626149, 1628398, 203076, 203471, 203484]",471,21,6.451612903225806,31.0
5,4,-4,472,19,"[1628386, 1629012, 1629636, 1629685, 203083]",1610612739,1610612747,"[1626149, 1628398, 203076, 203471, 203484]",513,23,11.76470588235294,34.0
6,4,-4,514,21,"[1628386, 1629012, 1629636, 1629685, 201580]",1610612739,1610612747,"[1626149, 1628398, 202083, 203076, 203471]",572,25,10.526315789473683,38.0
7,8,-8,573,23,"[1628386, 1628422, 1629636, 1629685, 201580]",1610612739,1610612747,"[1626149, 1628398, 202083, 203076, 203471]",719,31,17.02127659574468,47.0
8,9,-9,720,33,"[1628422, 1629636, 1629685, 1630171, 201580]",1610612739,1610612747,"[1626149, 1628398, 202083, 202693, 2544]",882,42,15.517241379310345,58.0
9,9,-9,883,38,"[1626224, 203083, 1630171, 1629636, 1628422]",1610612739,1610612747,"[2544, 1626149, 1628398, 202083, 202693]",945,47,14.516129032258066,62.0
10,9,-9,946,38,"[1626224, 1629012, 1629636, 1630171, 203083]",1610612739,1610612747,"[1626149, 1627936, 1628398, 202693, 2544]",996,47,14.0625,64.0
11,12,-12,997,40,"[1626224, 1627752, 1629012, 1630171, 203083]",1610612739,1610612747,"[1626149, 1627936, 202083, 202693, 2544]",1106,52,16.901408450704224,71.0
12,8,-8,1107,48,"[1626224, 1627752, 1628386, 1629012, 203083]",1610612739,1610612747,"[1627936, 202083, 202693, 203076, 203484]",1211,56,10.126582278481013,79.0
13,10,-10,1212,55,"[1626224, 1627752, 1628386, 1629636, 1629685]",1610612739,1610612747,"[1627936, 202693, 203076, 203471, 203484]",1439,65,10.1010101010101,99.0
14,0,0,1440,73,"[1626224, 1628386, 1629636, 1629685, 1630171]",1610612739,1610612747,"[1627936, 203076, 203471, 203484, 2544]",1707,73,0.0,120.0
15,0,0,1708,77,"[1626224, 1627752, 203083, 1630171, 1629012]",1610612739,1610612747,"[2544, 203076, 201188, 203484, 203471]",1814,77,0.0,128.0
16,2,-2,1815,77,"[1626224, 1627752, 1628386, 1629012, 1630171]",1610612739,1610612747,"[2544, 203076, 201188, 203484, 203471]",1871,79,1.5151515151515151,132.0
17,2,-2,1872,77,"[1626224, 1627752, 1628386, 1629012, 1629636]",1610612739,1610612747,"[1628398, 201188, 203076, 203471, 203484]",1888,79,1.5037593984962405,133.0
18,0,0,1889,83,"[1626224, 1627752, 1628386, 1629636, 1629685]",1610612739,1610612747,"[1626149, 1628398, 203076, 203471, 203484]",2019,83,0.0,142.0
19,-2,2,2020,85,"[1626224, 1628386, 1629636, 1629685, 201580]",1610612739,1610612747,"[1626149, 1628398, 202083, 203076, 203471]",2065,83,-1.3793103448275863,145.0
20,-2,2,2066,89,"[1627752, 1628386, 1629636, 1629685, 201580]",1610612739,1610612747,"[1626149, 1628398, 202083, 203076, 2544]",2159,87,-1.3245033112582782,151.0
21,2,-2,2160,91,"[1627752, 1628386, 1629636, 1629685, 201580]",1610612739,1610612747,"[1626149, 1628398, 202083, 202693, 2544]",2275,93,1.257861635220126,159.0
22,2,-2,2276,93,"[1627752, 1628386, 1629636, 1629685, 201580]",1610612739,1610612747,"[2544, 1626149, 1628398, 202083, 202693]",2313,95,1.2345679012345678,162.0
23,0,0,2314,95,"[1627752, 1628386, 1629012, 1630171, 203083]",1610612739,1610612747,"[2544, 1626149, 1628398, 202083, 202693]",2371,95,0.0,165.0
24,0,0,2372,95,"[1627752, 1628386, 1629012, 1630171, 203083]",1610612739,1610612747,"[1626149, 1627936, 1628398, 202693, 2544]",2388,95,0.0,166.0
25,2,-2,2389,98,"[1627752, 1628386, 1629012, 1630171, 203083]",1610612739,1610612747,"[1626149, 1627936, 1628398, 203076, 2544]",2559,100,1.1363636363636365,176.0
26,2,-2,2560,98,"[1626224, 1629012, 1630171, 201580, 203083]",1610612739,1610612747,"[1626149, 1627936, 1628398, 203076, 2544]",2575,100,1.1363636363636365,176.0
27,7,-7,2576,98,"[1627752, 1628386, 1629012, 1630171, 203083]",1610612739,1610612747,"[1626149, 1627936, 1628398, 203076, 2544]",2640,105,3.888888888888889,180.0
28,8,-8,2641,100,"[1627752, 1628386, 1629012, 1630171, 203083]",1610612739,1610612747,"[1627936, 203076, 203471, 203484, 2544]",2689,108,4.395604395604396,182.0
29,6,-6,2690,107,"[1627752, 1628386, 1629012, 1629636, 1630171]",1610612739,1610612747,"[1627936, 203076, 203471, 203484, 2544]",2821,113,3.1746031746031744,189.0
30,7,-7,2822,108,"[1628386, 1629012, 1629636, 1630171, 203083]",1610612739,1610612747,"[1627936, 203076, 203471, 203484, 2544]",2879,115,3.6269430051813467,193.0
31,7,-7,2880,108,"[1626224, 1627752, 1629012, 1630171, 203083]",1610612739,1610612747,"[1627936, 203076, 203471, 203484, 2544]",9999999,115,3.608247422680412,194.0
