,TEAM_ID_1,TEAM_1_PLAYERS,TEAM_ID_2,TEAM_2_PLAYERS,PERIOD
0,1610612750,[1630162 1629020 1626157  201976 1626156],1610612741,[1629750  201942  202696  203897 1630245],1
1,1610612750,[1626156 1630183 1629162 1627752 1629675],1610612741,[1629750  201942 1630245 1629632 1628396],2
2,1610612750,[1630162 1629020 1626157  201976 1626156],1610612741,[1629750  201942  202696  203897 1630245],3
3,1610612750,[1627736 1630183 1629162 1627752 1629675],1610612741,[ 201942  203897 1630245 1629632 1628396],4
