,TEAM_ID_1,TEAM_1_PLAYERS,TEAM_ID_2,TEAM_2_PLAYERS,PERIOD
0,1610612755,[1629003 1630194  203954  203552 1630178],1610612741,[1629750  201942  202696  203897 1628366],1
1,1610612755,[1630194 1630178 1627777 1627788  203083],1610612741,[ 201942 1628366 1630245 1627884 1628396],2
2,1610612755,[1629003 1630194  203954  203552 1630178],1610612741,[1629750  201942  202696  203897 1628366],3
3,1610612755,[1630194 1630178 1627777 1627788  203083],1610612741,[ 201942 1628366 1627936 1627884 1628396],4
