,t1_points_scored,stint_end,t2_pm,t1_players,t2_id,t1_id,t2_players,t2_points_scored,t1_pm,stint_start,margin_per_100,num_poss
0,11,280,0,"[203490, 1628374, 1628976, 203897, 203107]",1610612739,1610612741,"[1626224, 201567, 202684, 1629012, 1629636]",11,0,0,0.0,19.0
1,11,323,0,"[203490, 1628374, 1628976, 203897, 203107]",1610612739,1610612741,"[1626224, 201567, 202684, 1629012, 1629636]",11,0,281,0.0,21.0
2,17,415,-6,"[1628436, 201152, 203107, 203490, 203897]",1610612739,1610612741,"[1626224, 201567, 202684, 1629012, 1629636]",11,6,324,23.076923076923077,26.0
3,21,492,-6,"[1628436, 201152, 203107, 203490, 203897]",1610612739,1610612741,"[1626204, 1626224, 1629012, 202684, 203903]",15,6,416,18.75,32.0
4,23,567,-8,"[1627739, 1628436, 1629632, 201152, 203897]",1610612739,1610612741,"[1626204, 1629645, 202684, 203521, 203903]",15,8,493,22.857142857142858,35.0
5,26,707,-3,"[1627739, 1627853, 1628436, 1629632, 201152]",1610612739,1610612741,"[1626204, 1629645, 202684, 203521, 203903]",23,3,568,6.382978723404255,47.0
6,26,719,-1,"[1627739, 1627853, 1628374, 1628976, 1629632]",1610612739,1610612741,"[1626204, 1629645, 201567, 203521, 203903]",25,1,708,2.083333333333333,48.0
7,31,842,-6,"[1627739, 1627853, 1628374, 1628976, 1629632]",1610612739,1610612741,"[1626204, 1629645, 202684, 203521, 203903]",25,6,720,10.714285714285714,56.0
8,31,898,-6,"[1628374, 1628976, 1629632, 1627739, 1627853]",1610612739,1610612741,"[201567, 1629636, 1626204, 1629645, 203521]",25,6,843,9.836065573770492,61.0
9,35,976,-10,"[1628374, 1628976, 1629632, 1627739, 1627853]",1610612739,1610612741,"[1626204, 1629012, 1629636, 1629645, 201567]",25,10,899,15.384615384615385,65.0
10,35,1041,-3,"[1627739, 1627853, 1628436, 1629632, 201152]",1610612739,1610612741,"[1626224, 1629012, 1629636, 201567, 202684]",32,3,977,4.285714285714286,70.0
11,37,1096,-3,"[1627739, 1628436, 1629632, 201152, 203897]",1610612739,1610612741,"[1626224, 1629012, 1629636, 201567, 202684]",34,3,1042,4.10958904109589,73.0
12,42,1156,-8,"[1628436, 201152, 203107, 203490, 203897]",1610612739,1610612741,"[1626224, 1629012, 1629636, 201567, 202684]",34,8,1097,10.38961038961039,77.0
13,44,1205,-9,"[1628436, 201152, 203107, 203490, 203897]",1610612739,1610612741,"[1626204, 1626224, 1629012, 202684, 203903]",35,9,1157,11.39240506329114,79.0
14,47,1305,-4,"[1628374, 201152, 203107, 203490, 203897]",1610612739,1610612741,"[1626204, 1626224, 1629012, 202684, 203903]",43,4,1206,4.651162790697675,86.0
15,49,1338,-3,"[1628374, 1628976, 203107, 203490, 203897]",1610612739,1610612741,"[1626204, 1626224, 1629012, 202684, 203903]",46,3,1306,3.4090909090909087,88.0
16,51,1359,-5,"[1628374, 1628976, 203107, 203490, 203897]",1610612739,1610612741,"[1626204, 1626224, 1629012, 201567, 203903]",46,5,1339,5.617977528089887,89.0
17,53,1439,-3,"[1628374, 1628976, 203107, 203490, 203897]",1610612739,1610612741,"[1626204, 1626224, 201567, 203521, 203903]",50,3,1360,3.125,96.0
18,53,1477,-3,"[1628374, 201152, 203107, 203490, 203897]",1610612739,1610612741,"[1626204, 1626224, 201567, 203521, 203903]",50,3,1440,3.061224489795918,98.0
19,56,1567,-4,"[203490, 1628374, 1628976, 203897, 203107]",1610612739,1610612741,"[1626224, 201567, 202684, 1629012, 1629636]",52,4,1478,3.8095238095238098,105.0
20,64,1712,-4,"[203490, 1628374, 1628976, 203897, 203107]",1610612739,1610612741,"[1626224, 1629636, 201567, 202684, 203903]",60,4,1568,3.4782608695652173,115.0
21,67,1756,-3,"[1628374, 1628436, 203107, 203490, 203897]",1610612739,1610612741,"[1626224, 1629636, 201567, 202684, 203903]",64,3,1713,2.5423728813559325,118.0
22,69,1849,0,"[1628436, 201152, 203107, 203490, 203897]",1610612739,1610612741,"[1626224, 1629636, 201567, 202684, 203903]",69,0,1757,0.0,122.0
23,74,1964,0,"[1628436, 201152, 203107, 203490, 203897]",1610612739,1610612741,"[1626204, 1626224, 1629636, 202684, 203903]",74,0,1850,0.0,129.0
24,76,2044,-2,"[1627739, 1628436, 1629632, 201152, 203897]",1610612739,1610612741,"[1626204, 1626224, 1629645, 202684, 203521]",74,2,1965,1.5037593984962405,133.0
25,82,2133,-2,"[1627739, 1627853, 1628374, 1628976, 1629632]",1610612739,1610612741,"[1626204, 1626224, 1629645, 202684, 203521]",80,2,2045,1.4184397163120568,141.0
26,82,2159,-2,"[1627739, 1627853, 1628374, 1628976, 1629632]",1610612739,1610612741,"[1626204, 1629645, 201567, 203521, 203903]",80,2,2134,1.3986013986013985,143.0
27,90,2394,3,"[1627739, 1627853, 1628374, 1628976, 1629632]",1610612739,1610612741,"[1626204, 1629645, 202684, 203521, 203903]",93,-3,2160,-1.89873417721519,158.0
28,91,2434,5,"[1628374, 1628976, 1629632, 1627739, 1627853]",1610612739,1610612741,"[201567, 1629012, 203903, 1626204, 1629645]",96,-5,2395,-3.125,160.0
29,94,2468,6,"[1627739, 1627853, 1628374, 1628436, 1629632]",1610612739,1610612741,"[1626204, 1629012, 1629636, 1629645, 202684]",100,-6,2435,-3.6585365853658534,164.0
30,96,2572,8,"[1627739, 1628436, 1629632, 201152, 203897]",1610612739,1610612741,"[1626204, 1629012, 1629636, 1629645, 202684]",104,-8,2469,-4.705882352941177,170.0
31,99,2597,5,"[1628436, 201152, 203107, 203490, 203897]",1610612739,1610612741,"[1626204, 1629012, 1629636, 1629645, 202684]",104,-5,2573,-2.923976608187134,171.0
32,106,2800,2,"[1628976, 201152, 203107, 203490, 203897]",1610612739,1610612741,"[1626204, 1629012, 1629636, 1629645, 202684]",108,-2,2598,-1.1049723756906076,181.0
33,106,2851,4,"[1628976, 201152, 203107, 203490, 203897]",1610612739,1610612741,"[1626224, 1629012, 1629636, 201567, 202684]",110,-4,2801,-2.1621621621621623,185.0
34,106,2867,7,"[1628976, 201152, 203107, 203490, 203897]",1610612739,1610612741,"[1626224, 1629012, 201567, 202684, 203903]",113,-7,2852,-3.723404255319149,188.0
35,106,2868,7,"[1628976, 201152, 203107, 203490, 203897]",1610612739,1610612741,"[1626204, 1626224, 1629012, 202684, 203903]",113,-7,2868,-3.723404255319149,188.0
36,111,2878,5,"[1628976, 201152, 203107, 203490, 203897]",1610612739,1610612741,"[1626224, 1629012, 201567, 202684, 203903]",116,-5,2869,-2.6178010471204187,191.0
37,111,9999999,6,"[1628976, 201152, 203107, 203490, 203897]",1610612739,1610612741,"[1626204, 1626224, 1629012, 202684, 203903]",117,-6,2879,-3.125,192.0
