,stint_end,t1_players,t2_pm,t2_points_scored,stint_start,t1_pm,t1_points_scored,t2_id,t1_id,t2_players,margin_per_100,num_poss
0,269,"[1630162, 1629020, 1626157, 1626156, 201937]",-6,6,0,6,12,1610612765,1610612750,"[1630180, 1629635, 1630191, 1628367, 1630165]",33.33333333333333,18.0
1,360,"[1630162, 1629020, 1626157, 1626156, 201937]",-9,8,270,9,17,1610612765,1610612750,"[1630180, 1629635, 1630191, 1628367, 1630165]",36.0,25.0
2,424,"[1630162, 1629020, 1626157, 1626156, 201937]",-10,10,361,10,20,1610612765,1610612750,"[1626143, 1628367, 1629635, 1630165, 1630180]",35.714285714285715,28.0
3,467,"[1626157, 1629020, 1630162, 1630183, 201937]",-10,10,425,10,20,1610612765,1610612750,"[1626143, 1629635, 1629686, 1630165, 1630180]",32.25806451612903,31.0
4,498,"[1626157, 1629006, 1630162, 1630183, 201937]",-8,12,468,8,20,1610612765,1610612750,"[1626143, 1629635, 1629686, 1630165, 1630180]",24.242424242424242,33.0
5,542,"[1626157, 1629006, 1630162, 1630183, 201937]",-10,15,499,10,25,1610612765,1610612750,"[1626143, 1629635, 1629686, 1630180, 1630240]",26.31578947368421,38.0
6,577,"[1626157, 1629006, 1629162, 1630162, 1630183]",-10,15,543,10,25,1610612765,1610612750,"[1626143, 1629635, 1629686, 1630180, 1630240]",24.390243902439025,41.0
7,719,"[1626156, 1626157, 1629006, 1629162, 1630183]",-10,20,578,10,30,1610612765,1610612750,"[1626143, 1628367, 1629076, 1629686, 1630240]",19.607843137254903,51.0
8,939,"[1626156, 1629006, 1629162, 1629675, 1630183]",-12,25,720,12,37,1610612765,1610612750,"[1626143, 1628367, 1629076, 1629686, 1630240]",17.391304347826086,69.0
9,984,"[1626156, 1630183, 1629162, 1629675, 1627823]",-8,29,940,8,37,1610612765,1610612750,"[1630191, 1630165, 1629686, 1630240, 1629076]",11.11111111111111,72.0
10,1055,"[1626156, 1627823, 1629162, 1629675, 1630162]",-7,33,985,7,40,1610612765,1610612750,"[1629076, 1630165, 1630180, 1630191, 1630240]",8.974358974358974,78.0
11,1143,"[1626156, 1626157, 1627823, 1630162, 201937]",-9,38,1056,9,47,1610612765,1610612750,"[1629076, 1630165, 1630180, 1630191, 1630240]",10.843373493975903,83.0
12,1170,"[1626157, 1627823, 1629020, 1630162, 201937]",-9,38,1144,9,47,1610612765,1610612750,"[1629076, 1630165, 1630180, 1630191, 1630240]",10.465116279069768,86.0
13,1224,"[1626157, 1627823, 1629020, 1630162, 201937]",-13,38,1171,13,51,1610612765,1610612750,"[1628367, 1629076, 1630165, 1630180, 1630191]",14.444444444444443,90.0
14,1323,"[1626157, 1627823, 1629020, 1630162, 201937]",-18,38,1225,18,56,1610612765,1610612750,"[1628367, 1629635, 1630165, 1630180, 1630191]",18.367346938775512,98.0
15,1436,"[1626156, 1626157, 1629020, 1630162, 201937]",-22,40,1324,22,62,1610612765,1610612750,"[1628367, 1629635, 1630165, 1630180, 1630191]",20.37037037037037,108.0
16,1811,"[1626156, 1626157, 1630162, 1630183, 201937]",-21,55,1437,21,76,1610612765,1610612750,"[1628367, 1629635, 1630165, 1630180, 1630191]",15.328467153284672,137.0
17,1829,"[1630162, 1629020, 1626157, 1626156, 201937]",-21,55,1812,21,76,1610612765,1610612750,"[1630180, 1629635, 1630191, 1628367, 1630165]",15.217391304347828,138.0
18,1912,"[1626157, 1629020, 1630162, 1630183, 201937]",-20,57,1830,20,77,1610612765,1610612750,"[1630180, 1629635, 1630191, 1628367, 1630165]",13.793103448275861,145.0
19,1951,"[1626157, 1629006, 1630162, 1630183, 201937]",-22,57,1913,22,79,1610612765,1610612750,"[1629635, 1630165, 1630180, 1630191, 1630240]",14.965986394557824,147.0
20,1965,"[1626157, 1629006, 1630162, 1630183, 201937]",-22,57,1952,22,79,1610612765,1610612750,"[1629076, 1630165, 1630180, 1630191, 1630240]",14.76510067114094,149.0
21,2102,"[1626157, 1629006, 1629162, 1630162, 1630183]",-23,61,1966,23,84,1610612765,1610612750,"[1629076, 1630165, 1630180, 1630191, 1630240]",14.64968152866242,157.0
22,2158,"[1626157, 1629006, 1629162, 1630162, 1630183]",-21,65,2103,21,86,1610612765,1610612750,"[1626143, 1629076, 1629686, 1630180, 1630240]",12.962962962962962,162.0
23,2218,"[1626156, 1629006, 1629162, 1629675, 1630183]",-23,67,2159,23,90,1610612765,1610612750,"[1626143, 1629076, 1629686, 1630180, 1630240]",13.77245508982036,167.0
24,2390,"[1626156, 1630183, 1629006, 1629162, 1629675]",-19,78,2219,19,97,1610612765,1610612750,"[1630180, 1626143, 1629686, 1630240, 1629076]",10.43956043956044,182.0
25,2440,"[1626156, 1630183, 1629006, 1629162, 1629675]",-19,81,2391,19,100,1610612765,1610612750,"[1626143, 1628367, 1629076, 1629686, 1630240]",10.27027027027027,185.0
26,2540,"[1626157, 1627823, 1630162, 1630183, 201937]",-25,85,2441,25,110,1610612765,1610612750,"[1626143, 1628367, 1629076, 1629686, 1630240]",13.020833333333334,192.0
27,2587,"[1626157, 1627823, 1630162, 1630183, 201937]",-25,85,2541,25,110,1610612765,1610612750,"[1629076, 1629686, 1630165, 1630191, 1630240]",12.886597938144329,194.0
28,2701,"[1626157, 1627823, 1630162, 1630183, 201937]",-21,89,2588,21,110,1610612765,1610612750,"[1629076, 1630165, 1630180, 1630191, 1630240]",10.552763819095476,199.0
29,2729,"[1626157, 1629020, 1630162, 1630183, 201937]",-24,89,2702,24,113,1610612765,1610612750,"[1629635, 1630165, 1630180, 1630191, 1630240]",11.940298507462686,201.0
30,2872,"[1626156, 1626157, 1629020, 1630162, 201937]",-22,97,2730,22,119,1610612765,1610612750,"[1629635, 1630165, 1630180, 1630191, 1630240]",10.377358490566039,212.0
31,9999999,"[1627774, 1627823, 1629162, 1629669, 1629675]",-19,100,2873,19,119,1610612765,1610612750,"[1629635, 1630165, 1630180, 1630191, 1630240]",8.92018779342723,213.0
