,TEAM_ID_1,TEAM_1_PLAYERS,TEAM_ID_2,TEAM_2_PLAYERS,PERIOD
0,1610612742,[1627827  204001  203939  203501 1628973],1610612746,[ 202331 1629599 1627826  202339  202704],1
1,1610612742,[ 204001 1628973  203493 1628467 1628373],1610612746,[ 202339 1628379 1629611 1626159 1628392],2
2,1610612742,[1627827  204001  203939  203501 1628973],1610612746,[ 202331 1629599 1627826  202339  202704],3
3,1610612742,[ 203501 1628973  203493 1628467 1626246],1610612746,[ 202339 1628379  201586 1629611 1626159],4
