,team1_id,team1_player1,team1_player2,team1_player3,team1_player4,team1_player5,team2_id,team2_player1,team2_player2,team2_player3,team2_player4,team2_player5,game_id,period,possession_start,possession_end,team1_points,team2_points,possession_team
0,1610612763,1628415,203937,202685,1628960,1629630,1610612762,202711,1626220,203497,1628378,201144,0022000691,1,0,26,0,0,1610612763
1,1610612763,1628415,203937,202685,1628960,1629630,1610612762,202711,1626220,203497,1628378,201144,0022000691,1,40,63,0,0,1610612762
2,1610612763,1628415,203937,202685,1628960,1629630,1610612762,202711,1626220,203497,1628378,201144,0022000691,1,67,67,3,0,1610612763
3,1610612763,1628415,203937,202685,1628960,1629630,1610612762,202711,1626220,203497,1628378,201144,0022000691,1,84,84,0,2,1610612762
4,1610612763,1628415,203937,202685,1628960,1629630,1610612762,202711,1626220,203497,1628378,201144,0022000691,1,97,99,0,0,1610612763
5,1610612763,1628415,203937,202685,1628960,1629630,1610612762,202711,1626220,203497,1628378,201144,0022000691,1,106,109,0,0,1610612762
6,1610612763,1628415,203937,202685,1628960,1629630,1610612762,202711,1626220,203497,1628378,201144,0022000691,1,112,112,2,0,1610612763
7,1610612763,1628415,203937,202685,1628960,1629630,1610612762,202711,1626220,203497,1628378,201144,0022000691,1,139,139,0,3,1610612762
8,1610612763,1628415,203937,202685,1628960,1629630,1610612762,202711,1626220,203497,1628378,201144,0022000691,1,156,156,2,0,1610612763
9,1610612763,1628415,203937,202685,1628960,1629630,1610612762,202711,1626220,203497,1628378,201144,0022000691,1,171,171,0,2,1610612762
10,1610612763,1628415,203937,202685,1628960,1629630,1610612762,202711,1626220,203497,1628378,201144,0022000691,1,182,182,2,0,1610612763
11,1610612763,1628415,203937,202685,1628960,1629630,1610612762,202711,1626220,203497,1628378,201144,0022000691,1,200,200,0,2,1610612762
12,1610612763,1628415,203937,202685,1628960,1629630,1610612762,202711,1626220,203497,1628378,201144,0022000691,1,216,216,0,0,1610612763
13,1610612763,1628415,203937,202685,1628960,1629630,1610612762,202711,1626220,203497,1628378,201144,0022000691,1,225,225,0,2,1610612762
14,1610612763,1628415,203937,202685,1628960,1629630,1610612762,202711,1626220,203497,1628378,201144,0022000691,1,237,239,0,0,1610612763
15,1610612763,1628415,203937,202685,1628960,1629630,1610612762,202711,1626220,203497,1628378,201144,0022000691,1,245,245,0,2,1610612762
16,1610612763,1628415,203937,202685,1628960,1629630,1610612762,202711,1626220,203497,1628378,201144,0022000691,1,245,261,0,0,1610612763
17,1610612763,1628415,203937,202685,1628960,1629630,1610612762,202711,1626220,203497,1628378,201144,0022000691,1,278,278,0,0,1610612762
18,1610612763,1628415,203937,202685,1628960,1629630,1610612762,202711,1626220,203497,1628378,201144,0022000691,1,283,287,0,0,1610612763
19,1610612763,1628415,203937,202685,1628960,1629630,1610612762,202711,1626220,203497,1628378,201144,0022000691,1,289,289,0,2,1610612762
20,1610612763,1628415,203937,202685,1628960,1629630,1610612762,202711,1626220,203497,1628378,201144,0022000691,1,289,306,0,0,1610612763
21,1610612763,1628415,203937,202685,1628960,1629630,1610612762,202711,1626220,203497,1628378,201144,0022000691,1,314,314,0,3,1610612762
22,1610612763,1628415,203937,202685,1628960,1629630,1610612762,202711,1626220,203497,1628378,201144,0022000691,1,316,326,2,0,1610612763
23,1610612763,1628415,1628960,1629630,1629634,203937,1610612762,1626220,1628378,202324,202711,204060,0022000691,1,344,344,0,2,1610612762
24,1610612763,1628415,1628960,1629630,1629634,203937,1610612762,1626220,1628378,202324,202711,204060,0022000691,1,364,364,2,0,1610612763
25,1610612763,1628415,1628960,1629630,1629634,203937,1610612762,1626220,1628378,202324,202711,204060,0022000691,1,382,393,0,0,1610612762
26,1610612763,1628415,1628960,1629630,1629634,203937,1610612762,1626220,1628378,202324,202711,204060,0022000691,1,406,406,2,0,1610612763
27,1610612763,1628415,1628960,1629630,1629634,203937,1610612762,1626220,1628378,202324,202711,204060,0022000691,1,421,428,0,2,1610612762
28,1610612763,1626159,1629630,1629634,1630217,203937,1610612762,1626220,1628378,202324,202711,204060,0022000691,1,451,455,0,0,1610612763
29,1610612763,1626159,1629630,1629634,1630217,203937,1610612762,1626220,1628378,202324,202711,204060,0022000691,1,464,464,0,2,1610612762
30,1610612763,1626159,1629630,1629634,1630217,203937,1610612762,1626220,1628378,202324,202711,204060,0022000691,1,478,478,2,0,1610612763
31,1610612763,1626159,1629630,1629634,1630217,203937,1610612762,1626220,1628378,202324,202711,204060,0022000691,1,494,494,0,2,1610612762
32,1610612763,1626159,1629630,1629634,1630217,203937,1610612762,1626220,1628378,202324,202711,204060,0022000691,1,508,508,2,0,1610612763
33,1610612763,1626159,1629630,1629634,1630217,203937,1610612762,1626220,1628378,202324,202711,204060,0022000691,1,532,539,0,0,1610612762
34,1610612763,1626159,1629630,1629634,1630217,203937,1610612762,1626220,1628378,202324,202711,204060,0022000691,1,549,552,0,0,1610612763
35,1610612763,1626159,1629630,1629634,1630217,203937,1610612762,1626220,1628378,202324,202711,204060,0022000691,1,565,565,0,2,1610612762
36,1610612763,1626159,1629630,1629634,1630217,203937,1610612762,1626220,1628378,202324,202711,204060,0022000691,1,577,577,3,0,1610612763
37,1610612763,1626159,1629630,1629634,1630217,203937,1610612762,1626220,1628378,202324,202711,204060,0022000691,1,577,597,0,2,1610612762
38,1610612763,1626145,1626159,1629001,1629634,1630217,1610612762,1627777,201144,203497,203903,204060,0022000691,1,610,610,2,0,1610612763
39,1610612763,1626145,1626159,1629001,1629634,1630217,1610612762,1627777,201144,203497,203903,204060,0022000691,1,622,622,0,3,1610612762
40,1610612763,1626145,1626159,1629001,1629634,1630217,1610612762,1627777,201144,203497,203903,204060,0022000691,1,633,639,0,0,1610612763
41,1610612763,1626145,1626159,1629001,1629634,1630217,1610612762,1627777,201144,203497,203903,204060,0022000691,1,657,661,0,3,1610612762
42,1610612763,1626145,1626159,1629001,1629634,1630217,1610612762,1627777,201144,203497,203903,204060,0022000691,1,672,678,0,0,1610612763
43,1610612763,1626145,1626159,1629001,1629634,1630217,1610612762,1627777,201144,203497,203903,204060,0022000691,1,684,684,0,2,1610612762
44,1610612763,1626145,1626159,1629001,1629634,1630217,1610612762,1627777,201144,203497,203903,204060,0022000691,1,704,704,0,0,1610612763
45,1610612763,1626145,1626159,1629001,1629634,1630217,1610612762,1627777,201144,203497,203903,204060,0022000691,1,720,720,0,0,1610612763
46,1610612763,1628415,202685,1626159,1626145,1629001,1610612762,203497,201144,204060,1627777,203903,0022000691,2,720,740,0,0,1610612762
47,1610612763,1628415,202685,1626159,1626145,1629001,1610612762,203497,201144,204060,1627777,203903,0022000691,2,744,746,0,0,1610612763
48,1610612763,1628415,202685,1626159,1626145,1629001,1610612762,203497,201144,204060,1627777,203903,0022000691,2,754,756,0,0,1610612762
49,1610612763,1628415,202685,1626159,1626145,1629001,1610612762,203497,201144,204060,1627777,203903,0022000691,2,764,764,2,0,1610612763
50,1610612763,1628415,202685,1626159,1626145,1629001,1610612762,203497,201144,204060,1627777,203903,0022000691,2,782,785,0,0,1610612762
51,1610612763,1628415,202685,1626159,1626145,1629001,1610612762,203497,201144,204060,1627777,203903,0022000691,2,793,796,0,0,1610612763
52,1610612763,1628415,202685,1626159,1626145,1629001,1610612762,203497,201144,204060,1627777,203903,0022000691,2,807,807,0,0,1610612762
53,1610612763,1628415,202685,1626159,1626145,1629001,1610612762,203497,201144,204060,1627777,203903,0022000691,2,813,813,2,0,1610612763
54,1610612763,1628415,202685,1626159,1626145,1629001,1610612762,203497,201144,204060,1627777,203903,0022000691,2,827,829,0,0,1610612762
55,1610612763,1628415,202685,1626159,1626145,1629001,1610612762,203497,201144,204060,1627777,203903,0022000691,2,830,841,0,0,1610612763
56,1610612763,1628415,202685,1626159,1626145,1629001,1610612762,203497,201144,204060,1627777,203903,0022000691,2,851,853,0,0,1610612762
57,1610612763,1628415,202685,1626159,1626145,1629001,1610612762,203497,201144,204060,1627777,203903,0022000691,2,873,876,0,0,1610612763
58,1610612763,1628415,202685,1626159,1626145,1629001,1610612762,203497,201144,204060,1627777,203903,0022000691,2,886,890,0,0,1610612762
59,1610612763,1628415,202685,1626159,1626145,1629001,1610612762,203497,201144,204060,1627777,203903,0022000691,2,896,899,0,0,1610612763
60,1610612763,1628415,202685,1626159,1626145,1629001,1610612762,203497,201144,204060,1627777,203903,0022000691,2,910,910,0,2,1610612762
61,1610612763,1628415,202685,1626159,1626145,1629001,1610612762,203497,201144,204060,1627777,203903,0022000691,2,925,930,2,0,1610612763
62,1610612763,1628415,202685,1626159,1626145,1629001,1610612762,203497,201144,204060,1627777,203903,0022000691,2,939,939,0,1,1610612762
63,1610612763,1626145,1628415,1628960,202685,203937,1610612762,1628378,202711,203497,203903,204060,0022000691,2,955,955,2,0,1610612763
64,1610612763,1626145,1628415,1628960,202685,203937,1610612762,1628378,202711,203497,203903,204060,0022000691,2,974,974,0,2,1610612762
65,1610612763,1626145,1628415,1628960,202685,203937,1610612762,1628378,202711,203497,203903,204060,0022000691,2,986,988,0,0,1610612763
66,1610612763,1626145,1628415,1628960,202685,203937,1610612762,1628378,202711,203497,203903,204060,0022000691,2,996,999,0,0,1610612762
67,1610612763,1626145,1628415,1628960,202685,203937,1610612762,1628378,202711,203497,203903,204060,0022000691,2,1013,1014,2,0,1610612763
68,1610612763,1626145,1628415,1628960,202685,203937,1610612762,1626220,1628378,202324,202711,203903,0022000691,2,1023,1023,0,3,1610612762
69,1610612763,1628415,1628960,1629630,1629634,203937,1610612762,1626220,1628378,202324,202711,203903,0022000691,2,1032,1034,0,0,1610612763
70,1610612763,1628960,1629630,1629634,1630217,203937,1610612762,1626220,1628378,202324,202711,203903,0022000691,2,1045,1045,0,2,1610612762
71,1610612763,1628960,1629630,1629634,1630217,203937,1610612762,1626220,1628378,202324,202711,203903,0022000691,2,1062,1064,0,0,1610612763
72,1610612763,1628960,1629630,1629634,1630217,203937,1610612762,1626220,1628378,202324,202711,203903,0022000691,2,1069,1069,0,3,1610612762
73,1610612763,1628960,1629630,1629634,1630217,203937,1610612762,1626220,1628378,202324,202711,203903,0022000691,2,1070,1082,0,0,1610612763
74,1610612763,1628960,1629630,1629634,1630217,203937,1610612762,1626220,1628378,202324,202711,203903,0022000691,2,1087,1087,0,2,1610612762
75,1610612763,1628960,1629630,1629634,1630217,203937,1610612762,1626220,1628378,202324,202711,203903,0022000691,2,1092,1092,3,0,1610612763
76,1610612763,1628960,1629630,1629634,1630217,203937,1610612762,1626220,1628378,202324,202711,203903,0022000691,2,1107,1107,0,2,1610612762
77,1610612763,1628960,1629630,1629634,1630217,203937,1610612762,1626220,1628378,202324,202711,203903,0022000691,2,1124,1124,3,0,1610612763
78,1610612763,1628960,1629630,1629634,1630217,203937,1610612762,1626220,1628378,202324,202711,203903,0022000691,2,1142,1144,0,0,1610612762
79,1610612763,1628960,1629630,1629634,1630217,203937,1610612762,1626220,1628378,202324,202711,203903,0022000691,2,1167,1167,0,0,1610612763
80,1610612763,1628960,1629630,1629634,1630217,203937,1610612762,1626220,1628378,202324,202711,203903,0022000691,2,1191,1191,0,3,1610612762
81,1610612763,1628960,1629630,1629634,1630217,203937,1610612762,1626220,1628378,202324,202711,203903,0022000691,2,1206,1208,2,0,1610612763
82,1610612763,1628960,1629630,1629634,1630217,203937,1610612762,1626220,1628378,202324,202711,203903,0022000691,2,1224,1228,0,2,1610612762
83,1610612763,1628960,1629630,1629634,1630217,203937,1610612762,1626220,1628378,202324,202711,203903,0022000691,2,1244,1254,0,0,1610612763
84,1610612763,1628960,1629630,1629634,1630217,203937,1610612762,1626220,1628378,202324,202711,203903,0022000691,2,1257,1265,0,0,1610612762
85,1610612763,1628960,1629630,1629634,1630217,203937,1610612762,1626220,1628378,202324,202711,203903,0022000691,2,1266,1270,0,0,1610612763
86,1610612763,1628960,1629630,1629634,1630217,203937,1610612762,1626220,1628378,202324,202711,203903,0022000691,2,1273,1287,0,2,1610612762
87,1610612763,1628960,1629630,1629634,1630217,203937,1610612762,1626220,1628378,202324,202711,203903,0022000691,2,1307,1307,2,0,1610612763
88,1610612763,1628960,1629630,1629634,1630217,203937,1610612762,1626220,1628378,202324,202711,203903,0022000691,2,1321,1321,0,2,1610612762
89,1610612763,1628960,1629630,1629634,1630217,203937,1610612762,1626220,1628378,202324,202711,203903,0022000691,2,1336,1336,1,0,1610612763
90,1610612763,1626159,1628415,1629630,1629634,202685,1610612762,1626220,1628378,201144,202711,203497,0022000691,2,1349,1352,0,0,1610612762
91,1610612763,1626159,1628415,1629630,1629634,202685,1610612762,1626220,1628378,201144,202711,203497,0022000691,2,1361,1364,2,0,1610612763
92,1610612763,1626159,1628415,1629630,1629634,202685,1610612762,1626220,1628378,201144,202711,203497,0022000691,2,1364,1379,0,0,1610612762
93,1610612763,1626159,1628415,1629630,1629634,202685,1610612762,1626220,1628378,201144,202711,203497,0022000691,2,1385,1389,0,0,1610612763
94,1610612763,1626159,1628415,1629630,1629634,202685,1610612762,1626220,1628378,201144,202711,203497,0022000691,2,1392,1393,0,2,1610612762
95,1610612763,1626159,1628415,1629630,1629634,202685,1610612762,1626220,1628378,201144,202711,203497,0022000691,2,1393,1411,0,0,1610612763
96,1610612763,1626159,1628415,1629630,1629634,202685,1610612762,1626220,1628378,201144,202711,203497,0022000691,2,1428,1431,0,0,1610612762
97,1610612763,1626159,1628415,1629630,1629634,202685,1610612762,1626220,1628378,201144,202711,203497,0022000691,2,1439,1439,3,0,1610612763
98,1610612763,1628415,203937,202685,1628960,1629630,1610612762,202711,1626220,203497,1628378,201144,0022000691,3,1440,1455,0,2,1610612762
99,1610612763,1628415,203937,202685,1628960,1629630,1610612762,202711,1626220,203497,1628378,201144,0022000691,3,1467,1472,0,0,1610612763
100,1610612763,1628415,203937,202685,1628960,1629630,1610612762,202711,1626220,203497,1628378,201144,0022000691,3,1478,1484,0,3,1610612762
101,1610612763,1628415,203937,202685,1628960,1629630,1610612762,202711,1626220,203497,1628378,201144,0022000691,3,1507,1507,2,0,1610612763
102,1610612763,1628415,203937,202685,1628960,1629630,1610612762,202711,1626220,203497,1628378,201144,0022000691,3,1524,1527,0,0,1610612762
103,1610612763,1628415,203937,202685,1628960,1629630,1610612762,202711,1626220,203497,1628378,201144,0022000691,3,1527,1539,0,0,1610612763
104,1610612763,1628415,203937,202685,1628960,1629630,1610612762,202711,1626220,203497,1628378,201144,0022000691,3,1539,1559,0,0,1610612762
105,1610612763,1628415,203937,202685,1628960,1629630,1610612762,202711,1626220,203497,1628378,201144,0022000691,3,1570,1570,0,0,1610612763
106,1610612763,1628415,203937,202685,1628960,1629630,1610612762,202711,1626220,203497,1628378,201144,0022000691,3,1575,1585,0,0,1610612762
107,1610612763,1628415,203937,202685,1628960,1629630,1610612762,202711,1626220,203497,1628378,201144,0022000691,3,1594,1611,0,0,1610612763
108,1610612763,1628415,203937,202685,1628960,1629630,1610612762,202711,1626220,203497,1628378,201144,0022000691,3,1620,1620,0,2,1610612762
109,1610612763,1628415,203937,202685,1628960,1629630,1610612762,202711,1626220,203497,1628378,201144,0022000691,3,1633,1633,2,0,1610612763
110,1610612763,1628415,203937,202685,1628960,1629630,1610612762,202711,1626220,203497,1628378,201144,0022000691,3,1648,1648,0,0,1610612762
111,1610612763,1628415,203937,202685,1628960,1629630,1610612762,202711,1626220,203497,1628378,201144,0022000691,3,1653,1653,2,0,1610612763
112,1610612763,1628415,203937,202685,1628960,1629630,1610612762,202711,1626220,203497,1628378,201144,0022000691,3,1671,1671,0,0,1610612762
113,1610612763,1628415,203937,202685,1628960,1629630,1610612762,202711,1626220,203497,1628378,201144,0022000691,3,1674,1674,0,0,1610612763
114,1610612763,1628415,203937,202685,1628960,1629630,1610612762,202711,1626220,203497,1628378,201144,0022000691,3,1698,1710,0,2,1610612762
115,1610612763,1628415,203937,202685,1628960,1629630,1610612762,202711,1626220,203497,1628378,201144,0022000691,3,1721,1727,3,0,1610612763
116,1610612763,1628415,203937,202685,1628960,1629630,1610612762,202711,1626220,203497,1628378,201144,0022000691,3,1743,1746,0,0,1610612762
117,1610612763,1628415,203937,202685,1628960,1629630,1610612762,202711,1626220,203497,1628378,201144,0022000691,3,1748,1750,0,0,1610612763
118,1610612763,1628415,203937,202685,1628960,1629630,1610612762,202711,1626220,203497,1628378,201144,0022000691,3,1756,1763,0,2,1610612762
119,1610612763,1628415,203937,202685,1628960,1629630,1610612762,202711,1626220,203497,1628378,201144,0022000691,3,1784,1784,2,0,1610612763
120,1610612763,1628415,203937,202685,1628960,1629630,1610612762,202711,1626220,203497,1628378,201144,0022000691,3,1801,1804,0,0,1610612762
121,1610612763,1628415,203937,202685,1628960,1629630,1610612762,202711,1626220,203497,1628378,201144,0022000691,3,1811,1814,2,0,1610612763
122,1610612763,1628415,203937,202685,1628960,1629630,1610612762,202711,1626220,203497,1628378,201144,0022000691,3,1814,1838,0,0,1610612762
123,1610612763,1626159,1628415,1629630,1629634,203937,1610612762,1626220,1628378,202324,202711,204060,0022000691,3,1856,1856,2,0,1610612763
124,1610612763,1626159,1628415,1629630,1629634,203937,1610612762,1626220,1628378,202324,202711,204060,0022000691,3,1873,1873,0,2,1610612762
125,1610612763,1626159,1628415,1629630,1629634,203937,1610612762,1626220,1628378,202324,202711,204060,0022000691,3,1883,1883,2,0,1610612763
126,1610612763,1626159,1628415,1629630,1629634,203937,1610612762,1626220,1628378,202324,202711,204060,0022000691,3,1899,1899,0,0,1610612762
127,1610612763,1626159,1628415,1629001,1629630,1629634,1610612762,1626220,1628378,202324,202711,204060,0022000691,3,1908,1909,2,0,1610612763
128,1610612763,1626159,1628415,1629001,1629630,1629634,1610612762,1626220,1628378,202324,203903,204060,0022000691,3,1922,1924,0,0,1610612762
129,1610612763,1626159,1628415,1629001,1629630,1629634,1610612762,1626220,1628378,202324,203903,204060,0022000691,3,1927,1927,2,0,1610612763
130,1610612763,1626159,1628415,1629001,1629630,1629634,1610612762,1626220,1628378,202324,203903,204060,0022000691,3,1943,1947,0,3,1610612762
131,1610612763,1626159,1628415,1629001,1629630,1629634,1610612762,1626220,1628378,202324,203903,204060,0022000691,3,1957,1957,2,0,1610612763
132,1610612763,1626159,1628415,1629001,1629630,1629634,1610612762,1626220,1628378,202324,203903,204060,0022000691,3,1975,1977,0,0,1610612762
133,1610612763,1626159,1628415,1629001,1629630,1629634,1610612762,1627777,201144,203497,203903,204060,0022000691,3,1998,2002,0,0,1610612763
134,1610612763,1626159,1628415,1629001,1629630,1629634,1610612762,1627777,201144,203497,203903,204060,0022000691,3,2008,2008,0,0,1610612762
135,1610612763,1626159,1629001,1629630,1630217,202685,1610612762,1627777,201144,203497,203903,204060,0022000691,3,2018,2021,0,0,1610612763
136,1610612763,1626159,1629001,1629630,1630217,202685,1610612762,1627777,201144,203497,203903,204060,0022000691,3,2031,2031,0,2,1610612762
137,1610612763,1626159,1629001,1629630,1630217,202685,1610612762,1627777,201144,203497,203903,204060,0022000691,3,2044,2044,2,0,1610612763
138,1610612763,1626159,1629001,1629630,1630217,202685,1610612762,1627777,201144,203497,203903,204060,0022000691,3,2063,2065,0,1,1610612762
139,1610612763,1626159,1629001,1629630,1630217,202685,1610612762,1627777,201144,203497,203903,204060,0022000691,3,2083,2083,0,0,1610612763
140,1610612763,1626159,1629001,1629630,1630217,202685,1610612762,1627777,201144,203497,203903,204060,0022000691,3,2088,2088,0,3,1610612762
141,1610612763,1626159,1629001,1629630,1630217,202685,1610612762,1627777,201144,203497,203903,204060,0022000691,3,2101,2103,0,0,1610612763
142,1610612763,1626159,1629001,1629630,1630217,202685,1610612762,1627777,201144,203497,203903,204060,0022000691,3,2112,2115,0,0,1610612762
143,1610612763,1626159,1629001,1629630,1630217,202685,1610612762,1627777,201144,203497,203903,204060,0022000691,3,2125,2125,2,0,1610612763
144,1610612763,1626159,1629001,1629630,1630217,202685,1610612762,1627777,201144,203497,203903,204060,0022000691,3,2125,2137,0,0,1610612762
145,1610612763,1626159,1629001,1629630,1630217,202685,1610612762,1627777,201144,203497,203903,204060,0022000691,3,2158,2160,2,0,1610612763
146,1610612763,202685,1630217,1626159,1626145,1629001,1610612762,203497,201144,204060,1627777,203903,0022000691,4,2160,2179,0,0,1610612763
147,1610612763,202685,1630217,1626159,1626145,1629001,1610612762,203497,201144,204060,1627777,203903,0022000691,4,2179,2192,0,2,1610612762
148,1610612763,202685,1630217,1626159,1626145,1629001,1610612762,203497,201144,204060,1627777,203903,0022000691,4,2208,2213,2,0,1610612763
149,1610612763,202685,1630217,1626159,1626145,1629001,1610612762,203497,201144,204060,1627777,203903,0022000691,4,2230,2239,0,0,1610612762
150,1610612763,202685,1630217,1626159,1626145,1629001,1610612762,203497,201144,204060,1627777,203903,0022000691,4,2244,2244,0,0,1610612763
151,1610612763,202685,1630217,1626159,1626145,1629001,1610612762,203497,201144,204060,1627777,203903,0022000691,4,2247,2247,0,0,1610612762
152,1610612763,202685,1630217,1626159,1626145,1629001,1610612762,203497,201144,204060,1627777,203903,0022000691,4,2263,2271,0,0,1610612763
153,1610612763,202685,1630217,1626159,1626145,1629001,1610612762,203497,201144,204060,1627777,203903,0022000691,4,2279,2289,0,2,1610612762
154,1610612763,202685,1630217,1626159,1626145,1629001,1610612762,203497,201144,204060,1627777,203903,0022000691,4,2306,2309,0,0,1610612763
155,1610612763,202685,1630217,1626159,1626145,1629001,1610612762,203497,201144,204060,1627777,203903,0022000691,4,2314,2314,0,2,1610612762
156,1610612763,202685,1630217,1626159,1626145,1629001,1610612762,203497,201144,204060,1627777,203903,0022000691,4,2314,2329,0,0,1610612763
157,1610612763,1626145,1628960,1629001,202685,203937,1610612762,203497,201144,204060,1627777,203903,0022000691,4,2336,2336,0,3,1610612762
158,1610612763,1626145,1628960,1629001,202685,203937,1610612762,203497,201144,204060,1627777,203903,0022000691,4,2358,2361,0,0,1610612763
159,1610612763,1626145,1628960,1629001,202685,203937,1610612762,203497,201144,204060,1627777,203903,0022000691,4,2369,2371,0,1,1610612762
160,1610612763,1628415,1628960,1629630,202685,203937,1610612762,1627777,1628378,202324,203903,204060,0022000691,4,2383,2385,1,0,1610612763
161,1610612763,1628415,1628960,1629630,1629634,203937,1610612762,1626220,1628378,202324,203903,204060,0022000691,4,2393,2406,0,0,1610612762
162,1610612763,1628415,1628960,1629630,1629634,203937,1610612762,1626220,1628378,202324,203903,204060,0022000691,4,2410,2410,3,0,1610612763
163,1610612763,1628415,1628960,1629630,1629634,203937,1610612762,1626220,1628378,202324,203903,204060,0022000691,4,2430,2433,0,0,1610612762
164,1610612763,1628415,1628960,1629630,1629634,203937,1610612762,1626220,1628378,202324,203903,204060,0022000691,4,2437,2439,0,0,1610612763
165,1610612763,1628415,1628960,1629630,1629634,203937,1610612762,1626220,1628378,202324,203903,204060,0022000691,4,2449,2451,0,0,1610612762
166,1610612763,1628415,1628960,1629630,1629634,203937,1610612762,1626220,1628378,202324,203903,204060,0022000691,4,2457,2457,2,0,1610612763
167,1610612763,1628415,1628960,1629630,1629634,203937,1610612762,1626220,1628378,202324,203903,204060,0022000691,4,2477,2478,0,0,1610612762
168,1610612763,1628415,1628960,1629630,1629634,203937,1610612762,1626220,1628378,202324,203903,204060,0022000691,4,2482,2482,2,0,1610612763
169,1610612763,1628415,1628960,1629630,1629634,203937,1610612762,1626220,1628378,202324,202711,203903,0022000691,4,2505,2507,0,0,1610612762
170,1610612763,1628415,1628960,1629630,1629634,203937,1610612762,1626220,1628378,202324,202711,203903,0022000691,4,2512,2514,0,0,1610612763
171,1610612763,1628415,1628960,1629630,1629634,203937,1610612762,1626220,1628378,202324,202711,203903,0022000691,4,2520,2522,0,2,1610612762
172,1610612763,1628415,1628960,1629630,1629634,203937,1610612762,1626220,1628378,202324,202711,203903,0022000691,4,2538,2538,2,0,1610612763
173,1610612763,1628415,1628960,1629630,1629634,203937,1610612762,1626220,1628378,202324,202711,203903,0022000691,4,2561,2565,0,0,1610612762
174,1610612763,1628415,1628960,1629630,1629634,203937,1610612762,1626220,1628378,202324,202711,203903,0022000691,4,2568,2568,1,0,1610612763
175,1610612763,1628415,1628960,1629630,1629634,203937,1610612762,1626220,1628378,202711,203497,203903,0022000691,4,2585,2585,0,2,1610612762
176,1610612763,1628415,1628960,1629630,1629634,203937,1610612762,1626220,1628378,202711,203497,203903,0022000691,4,2599,2602,0,0,1610612763
177,1610612763,1628415,1628960,1629630,1629634,203937,1610612762,1626220,1628378,202711,203497,203903,0022000691,4,2607,2607,0,3,1610612762
178,1610612763,1628415,1628960,1629630,1629634,203937,1610612762,1626220,1628378,202711,203497,203903,0022000691,4,2620,2620,3,0,1610612763
179,1610612763,1628415,1628960,1629630,1629634,203937,1610612762,1626220,1628378,202711,203497,203903,0022000691,4,2644,2644,0,2,1610612762
180,1610612763,1628415,1628960,1629630,1629634,203937,1610612762,1626220,1628378,202711,203497,203903,0022000691,4,2651,2651,3,0,1610612763
181,1610612763,1628415,1628960,1629630,1629634,203937,1610612762,1626220,1628378,202711,203497,203903,0022000691,4,2660,2666,0,2,1610612762
182,1610612763,1628415,1628960,1629630,202685,203937,1610612762,1626220,1628378,201144,202711,203497,0022000691,4,2684,2684,3,0,1610612763
183,1610612763,1628415,1628960,1629630,202685,203937,1610612762,1626220,1628378,201144,202711,203497,0022000691,4,2700,2700,0,3,1610612762
184,1610612763,1628415,1628960,1629630,202685,203937,1610612762,1626220,1628378,201144,202711,203497,0022000691,4,2712,2712,2,0,1610612763
185,1610612763,1628415,1628960,1629630,202685,203937,1610612762,1626220,1628378,201144,202711,203497,0022000691,4,2728,2730,0,0,1610612762
186,1610612763,1628415,1628960,1629630,202685,203937,1610612762,1626220,1628378,201144,202711,203497,0022000691,4,2743,2743,3,0,1610612763
187,1610612763,1628415,1628960,1629630,202685,203937,1610612762,1626220,1628378,201144,202711,203497,0022000691,4,2756,2756,0,3,1610612762
188,1610612763,1628415,1628960,1629630,202685,203937,1610612762,1626220,1628378,201144,202711,203497,0022000691,4,2773,2773,3,0,1610612763
189,1610612763,1628415,1628960,1629630,202685,203937,1610612762,1626220,1628378,201144,202711,203497,0022000691,4,2788,2795,0,2,1610612762
190,1610612763,1628415,1628960,1629630,202685,203937,1610612762,1626220,1628378,201144,202711,203497,0022000691,4,2808,2808,2,0,1610612763
191,1610612763,1628415,1628960,1629630,202685,203937,1610612762,1626220,1628378,201144,202711,203497,0022000691,4,2825,2828,0,0,1610612762
192,1610612763,1628415,1628960,1629630,202685,203937,1610612762,1626220,1628378,201144,202711,203497,0022000691,4,2840,2846,3,0,1610612763
193,1610612763,1628415,1628960,1629630,202685,203937,1610612762,1626220,1628378,201144,202711,203497,0022000691,4,2866,2867,0,0,1610612762
194,1610612763,1628415,1628960,1629630,202685,203937,1610612762,1626220,1628378,201144,202711,203497,0022000691,4,2867,2879,0,0,1610612763
195,1610612763,1628415,1628960,1629630,202685,203937,1610612762,1626220,1628378,201144,202324,203497,0022000691,4,2880,2880,0,0,1610612762
