,TEAM_ID_1,TEAM_1_PLAYERS,TEAM_ID_2,TEAM_2_PLAYERS,PERIOD
0,1610612764,[1629726 1629060 1629021  203078  201566],1610612757,[1627884  203496  202683 1629018  203081],1
1,1610612764,[ 201566  202722  203526 1630166  201577],1610612757,[ 203496 1629018    2546  203918 1629014],2
2,1610612764,[1629726 1629060 1629021  203078  201566],1610612757,[1627884  203496  202683 1629018  203081],3
3,1610612764,[ 201566  202722  203526 1630166  201577],1610612757,[ 203496 1629018    2546  203918 1629014],4
