,team1_id,team1_player1,team1_player2,team1_player3,team1_player4,team1_player5,team2_id,team2_player1,team2_player2,team2_player3,team2_player4,team2_player5,game_id,period,possession_start,possession_end,team1_points,team2_points,possession_team
0,1610612766,1628970,1629023,203469,1628984,1626179,1610612751,203925,1627752,1628386,202066,203915,0021900205,1,0,18,3,0,1610612766
1,1610612766,1628970,1629023,203469,1628984,1626179,1610612751,203925,1627752,1628386,202066,203915,0021900205,1,36,39,0,0,1610612751
2,1610612766,1628970,1629023,203469,1628984,1626179,1610612751,203925,1627752,1628386,202066,203915,0021900205,1,44,47,0,0,1610612766
3,1610612766,1628970,1629023,203469,1628984,1626179,1610612751,203925,1627752,1628386,202066,203915,0021900205,1,59,59,0,3,1610612751
4,1610612766,1628970,1629023,203469,1628984,1626179,1610612751,203925,1627752,1628386,202066,203915,0021900205,1,82,82,2,0,1610612766
5,1610612766,1628970,1629023,203469,1628984,1626179,1610612751,203925,1627752,1628386,202066,203915,0021900205,1,95,95,0,0,1610612751
6,1610612766,1628970,1629023,203469,1628984,1626179,1610612751,203925,1627752,1628386,202066,203915,0021900205,1,97,97,0,0,1610612766
7,1610612766,1628970,1629023,203469,1628984,1626179,1610612751,203925,1627752,1628386,202066,203915,0021900205,1,116,116,0,2,1610612751
8,1610612766,1628970,1629023,203469,1628984,1626179,1610612751,203925,1627752,1628386,202066,203915,0021900205,1,116,133,2,0,1610612766
9,1610612766,1628970,1629023,203469,1628984,1626179,1610612751,203925,1627752,1628386,202066,203915,0021900205,1,157,157,0,2,1610612751
10,1610612766,1628970,1629023,203469,1628984,1626179,1610612751,203925,1627752,1628386,202066,203915,0021900205,1,179,183,0,0,1610612766
11,1610612766,1628970,1629023,203469,1628984,1626179,1610612751,203925,1627752,1628386,202066,203915,0021900205,1,193,196,0,0,1610612751
12,1610612766,1628970,1629023,203469,1628984,1626179,1610612751,203925,1627752,1628386,202066,203915,0021900205,1,201,201,0,0,1610612766
13,1610612766,1628970,1629023,203469,1628984,1626179,1610612751,203925,1627752,1628386,202066,203915,0021900205,1,205,209,0,0,1610612751
14,1610612766,1628970,1629023,203469,1628984,1626179,1610612751,203925,1627752,1628386,202066,203915,0021900205,1,218,221,0,0,1610612766
15,1610612766,1628970,1629023,203469,1628984,1626179,1610612751,203925,1627752,1628386,202066,203915,0021900205,1,230,230,0,1,1610612751
16,1610612766,1628970,1629023,203469,1628984,1626179,1610612751,203925,1627752,1628386,202066,203915,0021900205,1,244,250,0,0,1610612766
17,1610612766,1628970,1629023,203469,1628984,1626179,1610612751,203925,1627752,1628386,202066,203915,0021900205,1,254,258,0,0,1610612751
18,1610612766,1628970,1629023,203469,1628984,1626179,1610612751,203925,1627752,1628386,202066,203915,0021900205,1,271,274,0,0,1610612766
19,1610612766,1628970,1629023,203469,1628984,1626179,1610612751,203925,1627752,1628386,202066,203915,0021900205,1,280,280,0,3,1610612751
20,1610612766,1628970,1629023,203469,1628984,1626179,1610612751,203925,1627752,1628386,202066,203915,0021900205,1,294,295,0,0,1610612766
21,1610612766,1628970,1629023,203469,1628984,1626179,1610612751,203925,1627752,1628386,202066,203915,0021900205,1,295,322,0,0,1610612751
22,1610612766,1626179,1628370,1628970,1629023,203469,1610612751,203925,1627752,1628386,202066,203915,0021900205,1,328,332,2,0,1610612766
23,1610612766,101107,1626179,1628370,1629023,201587,1610612751,1627752,1628386,1629058,203915,203925,0021900205,1,346,346,0,2,1610612751
24,1610612766,101107,1626179,1628370,1629023,201587,1610612751,1627752,1628386,1629058,203915,203925,0021900205,1,357,360,0,0,1610612766
25,1610612766,101107,1626179,1628370,1629023,201587,1610612751,1627752,1628386,1629058,203915,203925,0021900205,1,371,375,0,0,1610612751
26,1610612766,101107,1626179,1628370,1629023,201587,1610612751,1627752,1628386,1629058,203915,203925,0021900205,1,384,386,0,0,1610612766
27,1610612766,101107,1626179,1628370,1629023,201587,1610612751,1627752,1628386,1629058,203915,203925,0021900205,1,395,395,0,2,1610612751
28,1610612766,101107,1626179,1628370,201587,202687,1610612751,1627752,1628386,1629058,203915,203925,0021900205,1,414,417,0,0,1610612766
29,1610612766,101107,1626179,1628370,201587,202687,1610612751,1627752,1628386,1629058,203915,203925,0021900205,1,419,430,0,0,1610612751
30,1610612766,101107,1626179,1628370,201587,202687,1610612751,1629058,201599,202697,203915,203925,0021900205,1,439,443,0,0,1610612766
31,1610612766,101107,1626179,1628370,201587,202687,1610612751,1629058,201599,202697,203915,203925,0021900205,1,449,449,0,0,1610612751
32,1610612766,101107,1626179,1628370,201587,202687,1610612751,1629058,201599,202697,203915,203925,0021900205,1,456,456,2,0,1610612766
33,1610612766,101107,1626179,1628370,201587,202687,1610612751,1629058,201599,202697,203915,203925,0021900205,1,464,473,0,0,1610612751
34,1610612766,101107,1628370,1628984,201587,202687,1610612751,1629058,201599,202066,202697,203915,0021900205,1,480,480,2,0,1610612766
35,1610612766,101107,1628370,1628984,201587,202687,1610612751,1629058,201599,202066,202697,203915,0021900205,1,487,487,0,2,1610612751
36,1610612766,101107,1628370,1628984,201587,202687,1610612751,1629058,201599,202066,202697,203915,0021900205,1,511,516,2,0,1610612766
37,1610612766,101107,1628370,1628984,201587,202687,1610612751,1629058,201599,202066,202697,203915,0021900205,1,534,534,0,2,1610612751
38,1610612766,101107,1628370,1628984,201587,202687,1610612751,1629058,201599,202066,202697,203915,0021900205,1,548,548,2,0,1610612766
39,1610612766,101107,1628370,1628984,201587,202687,1610612751,1629058,201599,202066,202697,203915,0021900205,1,559,564,0,0,1610612751
40,1610612766,101107,1628370,1628984,201587,202687,1610612751,1629058,201599,202066,202697,203915,0021900205,1,578,578,0,0,1610612766
41,1610612766,101107,1628370,1628984,201587,202687,1610612751,1629058,201599,202066,202697,203915,0021900205,1,587,591,0,0,1610612751
42,1610612766,101107,1628370,1628984,201587,202687,1610612751,1629058,201599,202066,202697,203915,0021900205,1,601,603,0,0,1610612766
43,1610612766,101107,1628370,1628984,201587,202687,1610612751,1629058,201599,202066,202697,203915,0021900205,1,620,620,0,2,1610612751
44,1610612766,101107,1628370,1628984,201587,202687,1610612751,1629033,1629058,201599,202066,202697,0021900205,1,633,641,3,0,1610612766
45,1610612766,101107,1628370,1628984,201587,202687,1610612751,1629033,1629058,201599,202066,202697,0021900205,1,659,659,0,2,1610612751
46,1610612766,101107,1628370,1628984,201587,202687,1610612751,1629033,1629058,201599,202066,202697,0021900205,1,675,675,2,0,1610612766
47,1610612766,101107,1628370,1628984,201587,202687,1610612751,1629033,1629058,201599,202066,202697,0021900205,1,682,683,0,0,1610612751
48,1610612766,101107,1628370,1628984,201587,202687,1610612751,1629033,1629058,201599,202066,202697,0021900205,1,683,683,2,0,1610612766
49,1610612766,101107,1628370,1628984,201587,202687,1610612751,201599,202066,202697,203915,203925,0021900205,1,695,695,0,3,1610612751
50,1610612766,101107,1628370,1628984,201587,202687,1610612751,201599,202066,202697,203915,203925,0021900205,1,717,717,2,0,1610612766
51,1610612766,101107,1628370,1628984,201587,202687,1610612751,201599,202066,202697,203915,203925,0021900205,1,720,720,0,0,1610612766
52,1610612766,1628970,1628984,1628370,202687,1628407,1610612751,203925,202066,202697,201599,1629033,0021900205,2,720,734,0,0,1610612751
53,1610612766,1628970,1628984,1628370,202687,1628407,1610612751,203925,202066,202697,201599,1629033,0021900205,2,745,751,0,0,1610612766
54,1610612766,1628970,1628984,1628370,202687,1628407,1610612751,203925,202066,202697,201599,1629033,0021900205,2,754,754,0,0,1610612751
55,1610612766,1628970,1628984,1628370,202687,1628407,1610612751,203925,202066,202697,201599,1629033,0021900205,2,760,779,0,0,1610612766
56,1610612766,1628970,1628984,1628370,202687,1628407,1610612751,203925,202066,202697,201599,1629033,0021900205,2,795,798,0,0,1610612751
57,1610612766,1628970,1628984,1628370,202687,1628407,1610612751,203925,202066,202697,201599,1629033,0021900205,2,805,813,0,0,1610612766
58,1610612766,1628970,1628984,1628370,202687,1628407,1610612751,1629033,1629058,201599,202697,203925,0021900205,2,822,822,0,2,1610612751
59,1610612766,1628970,1628984,1628370,202687,1628407,1610612751,1629033,1629058,201599,202697,203925,0021900205,2,840,840,2,0,1610612766
60,1610612766,1628970,1628984,1628370,202687,1628407,1610612751,1629033,1629058,201599,202697,203925,0021900205,2,856,856,0,2,1610612751
61,1610612766,1628970,1628984,1628370,202687,1628407,1610612751,1629033,1629058,201599,202697,203925,0021900205,2,869,875,0,0,1610612766
62,1610612766,1628970,1628984,1628370,202687,1628407,1610612751,1629033,1629058,201599,202697,203925,0021900205,2,875,904,0,0,1610612751
63,1610612766,1626179,1628407,1628970,201587,202687,1610612751,1627752,1629033,1629058,201599,203925,0021900205,2,918,918,0,0,1610612766
64,1610612766,1626179,1628407,1628970,201587,202687,1610612751,1627752,1629033,1629058,201599,203925,0021900205,2,920,932,0,2,1610612751
65,1610612766,1626179,1628407,1628970,201587,202687,1610612751,1627752,1629033,1629058,201599,203925,0021900205,2,950,952,0,0,1610612766
66,1610612766,1626179,1628407,1628970,201587,202687,1610612751,1627752,1629033,1629058,201599,203925,0021900205,2,965,965,0,0,1610612751
67,1610612766,1626179,1628407,1628970,201587,202687,1610612751,1627752,1629033,1629058,201599,203925,0021900205,2,970,970,2,0,1610612766
68,1610612766,1626179,1628407,1628970,201587,202687,1610612751,1627752,1629033,1629058,201599,203925,0021900205,2,985,988,0,0,1610612751
69,1610612766,1626179,1628407,1628970,201587,202687,1610612751,1627752,1629033,1629058,201599,203925,0021900205,2,993,993,0,0,1610612766
70,1610612766,1626179,1628407,1628970,201587,202687,1610612751,1627752,1629033,1629058,201599,203925,0021900205,2,1005,1010,0,2,1610612751
71,1610612766,1626179,1628407,1628970,201587,202687,1610612751,1627752,1629033,1629058,201599,203925,0021900205,2,1010,1034,0,0,1610612766
72,1610612766,1626179,1628407,1628970,1629023,201587,1610612751,1627752,1629058,201599,203915,203925,0021900205,2,1042,1042,0,2,1610612751
73,1610612766,1626179,1628407,1628970,1629023,201587,1610612751,1627752,1629058,201599,203915,203925,0021900205,2,1055,1058,0,0,1610612766
74,1610612766,1626179,1628407,1628970,1629023,201587,1610612751,1627752,1629058,201599,203915,203925,0021900205,2,1067,1067,0,3,1610612751
75,1610612766,1626179,1628407,1628970,1629023,201587,1610612751,1627752,1629058,201599,203915,203925,0021900205,2,1074,1074,2,0,1610612766
76,1610612766,1626179,1628407,1628970,1629023,201587,1610612751,1627752,1629058,201599,203915,203925,0021900205,2,1079,1079,0,3,1610612751
77,1610612766,1626179,1628970,1628984,201587,203469,1610612751,1627752,1629058,201599,203915,203925,0021900205,2,1097,1097,3,0,1610612766
78,1610612766,1626179,1628970,1628984,201587,203469,1610612751,1627752,1629058,201599,203915,203925,0021900205,2,1113,1113,0,2,1610612751
79,1610612766,1626179,1628970,1628984,201587,203469,1610612751,1627752,1629058,201599,203915,203925,0021900205,2,1128,1128,0,0,1610612766
80,1610612766,1626179,1628970,1628984,201587,203469,1610612751,1627752,1628386,1629058,203915,203925,0021900205,2,1140,1140,0,0,1610612751
81,1610612766,1626179,1628970,1628984,201587,203469,1610612751,1627752,1628386,1629058,203915,203925,0021900205,2,1149,1149,2,0,1610612766
82,1610612766,1626179,1628970,1628984,201587,203469,1610612751,1627752,1628386,1629058,203915,203925,0021900205,2,1163,1165,0,0,1610612751
83,1610612766,1626179,1628970,1628984,201587,203469,1610612751,1627752,1628386,1629058,203915,203925,0021900205,2,1171,1171,2,0,1610612766
84,1610612766,1626179,1628970,1628984,201587,203469,1610612751,1627752,1628386,1629058,203915,203925,0021900205,2,1172,1185,0,0,1610612751
85,1610612766,1626179,1628970,1628984,201587,203469,1610612751,1627752,1628386,1629033,203915,203925,0021900205,2,1193,1196,0,0,1610612766
86,1610612766,1626179,1628970,1628984,201587,203469,1610612751,1627752,1628386,1629033,203915,203925,0021900205,2,1212,1212,0,3,1610612751
87,1610612766,1626179,1628970,1628984,201587,203469,1610612751,1627752,1628386,1629033,203915,203925,0021900205,2,1232,1232,0,0,1610612766
88,1610612766,1626179,1628970,1628984,201587,203469,1610612751,1627752,1628386,1629033,203915,203925,0021900205,2,1243,1243,0,2,1610612751
89,1610612766,1626179,1628970,1628984,201587,203469,1610612751,1627752,1628386,1629033,203915,203925,0021900205,2,1255,1260,3,0,1610612766
90,1610612766,1628370,1628970,1628984,201587,203469,1610612751,1627752,1628386,1629033,1629058,203915,0021900205,2,1271,1271,0,3,1610612751
91,1610612766,1628370,1628970,1628984,201587,203469,1610612751,1627752,1628386,1629033,1629058,203915,0021900205,2,1286,1286,0,0,1610612766
92,1610612766,1628370,1628970,1628984,201587,203469,1610612751,1627752,1628386,1629033,1629058,203915,0021900205,2,1290,1293,0,0,1610612751
93,1610612766,1628370,1628970,1628984,201587,203469,1610612751,1627752,1628386,1629033,1629058,203915,0021900205,2,1299,1299,3,0,1610612766
94,1610612766,1628370,1628970,1628984,201587,203469,1610612751,1627752,1628386,1629033,1629058,203915,0021900205,2,1320,1324,0,2,1610612751
95,1610612766,1628370,1628970,1628984,201587,203469,1610612751,1627752,1628386,1629033,1629058,203915,0021900205,2,1347,1347,3,0,1610612766
96,1610612766,1628370,1628970,1628984,201587,203469,1610612751,1627752,1628386,1629033,1629058,203915,0021900205,2,1360,1360,0,2,1610612751
97,1610612766,1628370,1628970,1628984,201587,203469,1610612751,1627752,1628386,1629033,1629058,203915,0021900205,2,1370,1376,0,0,1610612766
98,1610612766,101107,1628370,1628984,201587,203469,1610612751,1627752,1628386,1629033,1629058,203915,0021900205,2,1390,1392,0,0,1610612751
99,1610612766,101107,1628370,1628984,201587,203469,1610612751,1627752,1628386,1629033,1629058,203915,0021900205,2,1405,1405,3,0,1610612766
100,1610612766,101107,1628370,1628984,201587,203469,1610612751,1627752,1628386,1629033,1629058,203915,0021900205,2,1419,1424,0,0,1610612751
101,1610612766,101107,1628370,1628984,201587,203469,1610612751,1627752,1628386,1629033,1629058,203915,0021900205,2,1436,1439,0,0,1610612766
102,1610612766,101107,1628370,1628984,201587,203469,1610612751,1627752,1628386,1629033,1629058,203915,0021900205,2,1440,1440,0,0,1610612766
103,1610612766,1628970,1629023,203469,1628984,1626179,1610612751,203925,1627752,1628386,202066,203915,0021900205,3,1440,1458,0,0,1610612751
104,1610612766,1628970,1629023,203469,1628984,1626179,1610612751,203925,1627752,1628386,202066,203915,0021900205,3,1464,1466,0,0,1610612766
105,1610612766,1628970,1629023,203469,1628984,1626179,1610612751,203925,1627752,1628386,202066,203915,0021900205,3,1470,1473,0,0,1610612751
106,1610612766,1628970,1629023,203469,1628984,1626179,1610612751,203925,1627752,1628386,202066,203915,0021900205,3,1482,1491,2,0,1610612766
107,1610612766,1628970,1629023,203469,1628984,1626179,1610612751,203925,1627752,1628386,202066,203915,0021900205,3,1492,1511,0,2,1610612751
108,1610612766,1628970,1629023,203469,1628984,1626179,1610612751,203925,1627752,1628386,202066,203915,0021900205,3,1525,1528,0,0,1610612766
109,1610612766,1628970,1629023,203469,1628984,1626179,1610612751,203925,1627752,1628386,202066,203915,0021900205,3,1532,1543,0,3,1610612751
110,1610612766,1628970,1629023,203469,1628984,1626179,1610612751,203925,1627752,1628386,202066,203915,0021900205,3,1558,1558,2,0,1610612766
111,1610612766,1626179,1628970,1628984,201587,203469,1610612751,203925,1627752,1628386,202066,203915,0021900205,3,1565,1565,0,0,1610612751
112,1610612766,1626179,1628970,1628984,201587,203469,1610612751,203925,1627752,1628386,202066,203915,0021900205,3,1574,1574,0,0,1610612766
113,1610612766,1626179,1628970,1628984,201587,203469,1610612751,203925,1627752,1628386,202066,203915,0021900205,3,1578,1578,0,2,1610612751
114,1610612766,1626179,1628970,1628984,201587,203469,1610612751,203925,1627752,1628386,202066,203915,0021900205,3,1591,1591,2,0,1610612766
115,1610612766,1626179,1628970,1628984,201587,203469,1610612751,203925,1627752,1628386,202066,203915,0021900205,3,1605,1605,0,2,1610612751
116,1610612766,1626179,1628970,1628984,201587,203469,1610612751,203925,1627752,1628386,202066,203915,0021900205,3,1629,1632,0,0,1610612766
117,1610612766,1626179,1628970,1628984,201587,203469,1610612751,203925,1627752,1628386,202066,203915,0021900205,3,1638,1642,0,0,1610612751
118,1610612766,1626179,1628970,1628984,201587,203469,1610612751,203925,1627752,1628386,202066,203915,0021900205,3,1648,1648,3,0,1610612766
119,1610612766,1626179,1628970,1628984,201587,203469,1610612751,203925,1627752,1628386,202066,203915,0021900205,3,1659,1662,0,1,1610612751
120,1610612766,1626179,1628970,1628984,201587,203469,1610612751,203925,1627752,1628386,202066,203915,0021900205,3,1668,1668,0,0,1610612766
121,1610612766,1626179,1628970,1628984,201587,202687,1610612751,203925,1627752,1628386,202066,203915,0021900205,3,1685,1685,0,2,1610612751
122,1610612766,1626179,1628970,1628984,201587,202687,1610612751,203925,1627752,1628386,202066,203915,0021900205,3,1703,1703,0,0,1610612766
123,1610612766,1626179,1628970,1628984,201587,202687,1610612751,203925,1627752,1628386,202066,203915,0021900205,3,1716,1716,0,0,1610612751
124,1610612766,1626179,1628970,1628984,201587,202687,1610612751,203925,1627752,1628386,202066,203915,0021900205,3,1726,1727,0,0,1610612766
125,1610612766,1626179,1628970,1628984,201587,202687,1610612751,203925,1627752,1628386,202066,203915,0021900205,3,1736,1738,0,2,1610612751
126,1610612766,1626179,1628970,1628984,201587,202687,1610612751,203925,1627752,1628386,202066,203915,0021900205,3,1738,1756,3,0,1610612766
127,1610612766,101107,1628370,1628984,201587,202687,1610612751,203925,1627752,1628386,202066,203915,0021900205,3,1770,1773,0,0,1610612751
128,1610612766,101107,1628370,1628984,201587,202687,1610612751,203925,1627752,1628386,202066,203915,0021900205,3,1779,1779,1,0,1610612766
129,1610612766,101107,1628370,1628984,201587,202687,1610612751,203925,1627752,1628386,202066,203915,0021900205,3,1802,1808,0,0,1610612751
130,1610612766,101107,1628370,1628984,201587,202687,1610612751,203925,1627752,1628386,202066,203915,0021900205,3,1816,1818,0,0,1610612766
131,1610612766,101107,1628370,1628984,201587,202687,1610612751,203925,1627752,1628386,202066,203915,0021900205,3,1838,1840,0,0,1610612751
132,1610612766,101107,1628370,1628984,201587,202687,1610612751,203925,1627752,1628386,202066,203915,0021900205,3,1854,1856,0,0,1610612766
133,1610612766,101107,1628370,1628984,201587,202687,1610612751,203925,1627752,1628386,202066,203915,0021900205,3,1866,1866,0,3,1610612751
134,1610612766,101107,1628370,1628984,201587,202687,1610612751,203925,1627752,1628386,202066,203915,0021900205,3,1889,1889,3,0,1610612766
135,1610612766,101107,1628370,1628984,201587,202687,1610612751,203925,1627752,1628386,202066,203915,0021900205,3,1892,1912,0,0,1610612751
136,1610612766,101107,1628370,1628984,201587,202687,1610612751,1627752,1628386,1629058,203915,203925,0021900205,3,1918,1924,0,0,1610612766
137,1610612766,101107,1628370,1628984,201587,202687,1610612751,1627752,1628386,1629058,203915,203925,0021900205,3,1928,1928,0,2,1610612751
138,1610612766,101107,1628370,1628984,201587,202687,1610612751,1627752,1628386,1629058,203915,203925,0021900205,3,1945,1945,0,0,1610612766
139,1610612766,101107,1628370,1628984,201587,202687,1610612751,1627752,1628386,1629058,203915,203925,0021900205,3,1949,1949,0,0,1610612751
140,1610612766,101107,1628370,1628984,201587,202687,1610612751,1629058,201599,202697,203915,203925,0021900205,3,1965,1965,2,0,1610612766
141,1610612766,101107,1628370,1628984,201587,202687,1610612751,1629058,201599,202697,203915,203925,0021900205,3,1984,1987,0,0,1610612751
142,1610612766,101107,1628370,1628984,201587,202687,1610612751,1629058,201599,202697,203915,203925,0021900205,3,1999,1999,2,0,1610612766
143,1610612766,101107,1628370,1628984,201587,202687,1610612751,1629058,201599,202697,203915,203925,0021900205,3,2006,2006,0,2,1610612751
144,1610612766,101107,1628370,1628984,201587,202687,1610612751,1629058,201599,202697,203915,203925,0021900205,3,2006,2030,0,0,1610612766
145,1610612766,101107,1628370,1628984,201587,202687,1610612751,1629058,201599,202697,203915,203925,0021900205,3,2044,2044,0,3,1610612751
146,1610612766,101107,1628370,1628984,201587,202687,1610612751,1629058,201599,202066,202697,203915,0021900205,3,2062,2063,0,0,1610612766
147,1610612766,101107,1628370,1628984,201587,202687,1610612751,1629058,201599,202066,202697,203915,0021900205,3,2063,2063,0,2,1610612751
148,1610612766,101107,1626179,1628370,1628984,201587,1610612751,1629033,1629058,201599,202066,202697,0021900205,3,2077,2080,0,0,1610612766
149,1610612766,101107,1626179,1628370,1628984,201587,1610612751,1629033,1629058,201599,202066,202697,0021900205,3,2086,2086,0,0,1610612751
150,1610612766,101107,1626179,1628370,1628984,201587,1610612751,1629033,1629058,201599,202066,202697,0021900205,3,2099,2099,2,0,1610612766
151,1610612766,101107,1626179,1628370,1628984,201587,1610612751,1629033,1629058,201599,202066,202697,0021900205,3,2118,2120,0,0,1610612751
152,1610612766,101107,1626179,1628370,1628984,201587,1610612751,1629033,1629058,201599,202066,202697,0021900205,3,2129,2133,0,0,1610612766
153,1610612766,101107,1626179,1628370,1628984,201587,1610612751,1629033,1629058,201599,202066,202697,0021900205,3,2151,2154,0,0,1610612751
154,1610612766,101107,1626179,1628370,1628984,201587,1610612751,1629033,1629058,201599,202066,202697,0021900205,3,2159,2159,0,0,1610612751
155,1610612766,1628970,1629023,1626179,1628370,1628407,1610612751,203925,202066,202697,201599,1629033,0021900205,4,2160,2177,0,0,1610612766
156,1610612766,1628970,1629023,1626179,1628370,1628407,1610612751,203925,202066,202697,201599,1629033,0021900205,4,2190,2190,0,0,1610612751
157,1610612766,1628970,1629023,1626179,1628370,1628407,1610612751,203925,202066,202697,201599,1629033,0021900205,4,2196,2200,0,0,1610612766
158,1610612766,1628970,1629023,1626179,1628370,1628407,1610612751,203925,202066,202697,201599,1629033,0021900205,4,2205,2208,0,0,1610612751
159,1610612766,1628970,1629023,1626179,1628370,1628407,1610612751,203925,202066,202697,201599,1629033,0021900205,4,2218,2225,2,0,1610612766
160,1610612766,1628970,1629023,1626179,1628370,1628407,1610612751,203925,202066,202697,201599,1629033,0021900205,4,2252,2260,0,2,1610612751
161,1610612766,1628970,1629023,1626179,1628370,1628407,1610612751,203925,202066,202697,201599,1629033,0021900205,4,2272,2272,0,0,1610612766
162,1610612766,1628970,1629023,1626179,1628370,1628407,1610612751,203925,202066,202697,201599,1629033,0021900205,4,2286,2291,0,0,1610612751
163,1610612766,101107,1626179,1628370,1628407,1628970,1610612751,203925,202066,202697,201599,1629033,0021900205,4,2312,2316,0,0,1610612766
164,1610612766,101107,1626179,1628370,1628407,1628970,1610612751,203925,202066,202697,201599,1629033,0021900205,4,2327,2332,0,0,1610612751
165,1610612766,101107,1626179,1628370,1628407,1628970,1610612751,203925,202066,202697,201599,1629033,0021900205,4,2341,2341,2,0,1610612766
166,1610612766,101107,1626179,1628370,1628407,1628970,1610612751,203925,202066,202697,201599,1629033,0021900205,4,2343,2362,0,0,1610612751
167,1610612766,101107,1626179,1628370,1628407,1628970,1610612751,203925,202066,202697,201599,1629033,0021900205,4,2366,2371,0,0,1610612766
168,1610612766,101107,1626179,1628370,1628407,1628970,1610612751,203925,202066,202697,201599,1629033,0021900205,4,2377,2377,0,0,1610612751
169,1610612766,101107,1626179,1628370,1628407,1628970,1610612751,203925,202066,202697,201599,1629033,0021900205,4,2380,2380,2,0,1610612766
170,1610612766,101107,1626179,1628407,1628970,1628984,1610612751,1627752,201599,202066,202697,203915,0021900205,4,2394,2399,0,0,1610612751
171,1610612766,101107,1626179,1628407,1628970,1628984,1610612751,1627752,201599,202066,202697,203915,0021900205,4,2421,2421,2,0,1610612766
172,1610612766,101107,1626179,1628407,1628970,1628984,1610612751,1627752,201599,202066,202697,203915,0021900205,4,2437,2437,0,0,1610612751
173,1610612766,101107,1626179,1628407,1628970,1628984,1610612751,1627752,201599,202066,202697,203915,0021900205,4,2442,2447,0,0,1610612766
174,1610612766,101107,1626179,1628407,1628970,1628984,1610612751,1627752,201599,202066,202697,203915,0021900205,4,2466,2466,0,2,1610612751
175,1610612766,101107,1626179,1628407,1628970,1628984,1610612751,1627752,1628386,202066,202697,203915,0021900205,4,2489,2492,2,0,1610612766
176,1610612766,101107,1626179,1628407,1628970,1628984,1610612751,1627752,1628386,202697,203915,203925,0021900205,4,2506,2506,0,0,1610612751
177,1610612766,101107,1626179,1628407,1628970,1628984,1610612751,1627752,1628386,202697,203915,203925,0021900205,4,2519,2522,0,0,1610612766
178,1610612766,101107,1626179,1628407,1628970,1628984,1610612751,1627752,1628386,202697,203915,203925,0021900205,4,2533,2533,0,3,1610612751
179,1610612766,101107,1626179,1628407,1628970,1628984,1610612751,1627752,1628386,202697,203915,203925,0021900205,4,2543,2559,0,0,1610612766
180,1610612766,101107,1626179,1628407,1628970,1628984,1610612751,1627752,1628386,202697,203915,203925,0021900205,4,2569,2581,0,2,1610612751
181,1610612766,101107,1626179,1628407,1628970,1628984,1610612751,1627752,1628386,202697,203915,203925,0021900205,4,2596,2596,3,0,1610612766
182,1610612766,101107,1626179,1628407,1628970,1628984,1610612751,1627752,1628386,202697,203915,203925,0021900205,4,2617,2619,0,2,1610612751
183,1610612766,101107,1626179,1628407,1628970,1628984,1610612751,1627752,1628386,202066,203915,203925,0021900205,4,2638,2638,0,0,1610612766
184,1610612766,101107,1626179,1628407,1628970,1628984,1610612751,1627752,1628386,202066,203915,203925,0021900205,4,2638,2660,0,0,1610612751
185,1610612766,101107,1626179,1628370,1628970,1628984,1610612751,1627752,1628386,202066,203915,203925,0021900205,4,2667,2667,0,0,1610612766
186,1610612766,101107,1626179,1628370,1628970,1628984,1610612751,1627752,1628386,202066,203915,203925,0021900205,4,2672,2672,0,2,1610612751
187,1610612766,101107,1626179,1628370,1628970,1628984,1610612751,1627752,1628386,202066,203915,203925,0021900205,4,2673,2693,0,0,1610612766
188,1610612766,101107,1626179,1628370,1628970,1628984,1610612751,1627752,1628386,202066,203915,203925,0021900205,4,2717,2717,0,2,1610612751
189,1610612766,101107,1626179,1628370,1628970,1628984,1610612751,1627752,1628386,202066,203915,203925,0021900205,4,2725,2725,0,0,1610612766
190,1610612766,101107,1626179,1628370,1628970,1628984,1610612751,1627752,1628386,202066,203915,203925,0021900205,4,2749,2750,0,0,1610612751
191,1610612766,101107,1626179,1628370,1628970,1628984,1610612751,1627752,1628386,202066,203915,203925,0021900205,4,2761,2761,2,0,1610612766
192,1610612766,101107,1626179,1628370,1628970,1628984,1610612751,1627752,1628386,202066,203915,203925,0021900205,4,2774,2787,0,3,1610612751
193,1610612766,101107,1626179,1628370,1628970,1628984,1610612751,1627752,1628386,202066,203915,203925,0021900205,4,2792,2792,3,0,1610612766
194,1610612766,101107,1626179,1628370,1628970,1628984,1610612751,1627752,1628386,202066,203915,203925,0021900205,4,2802,2805,0,1,1610612751
195,1610612766,101107,1626179,1628370,1628970,1628984,1610612751,1627752,1628386,202066,203915,203925,0021900205,4,2810,2812,0,0,1610612766
196,1610612766,101107,1626179,1628370,1628970,1628984,1610612751,1627752,1628386,202066,203915,203925,0021900205,4,2829,2831,0,0,1610612751
197,1610612766,101107,1626179,1628370,1628970,1628984,1610612751,1627752,1628386,202066,203915,203925,0021900205,4,2836,2846,0,0,1610612766
198,1610612766,101107,1626179,1628370,1628970,1628984,1610612751,1627752,1628386,202066,203915,203925,0021900205,4,2868,2868,0,0,1610612751
199,1610612766,101107,1626179,1628370,1628970,1628984,1610612751,1627752,1628386,202066,203915,203925,0021900205,4,2874,2877,0,0,1610612766
