,stint_end,t2_points_scored,t1_id,t2_id,t2_pm,t1_players,t2_players,t1_points_scored,t1_pm,stint_start,margin_per_100,num_poss
0,311,8,1610612742,1610612748,-4,"[1630182, 1627827, 203939, 1628973, 1629029]","[202710, 200782, 1628389, 1629130, 200768]",12,4,0,23.52941176470588,17.0
1,453,15,1610612742,1610612748,0,"[1630182, 1627827, 203939, 1628973, 1629029]","[202710, 200782, 1628389, 1629130, 200768]",15,0,312,0.0,27.0
2,491,18,1610612742,1610612748,2,"[1627827, 1628973, 1629029, 203915, 203939]","[1628389, 1629130, 1629312, 200768, 202710]",16,-2,454,-6.896551724137931,29.0
3,593,20,1610612742,1610612748,1,"[1627827, 1628973, 1629029, 203915, 203939]","[1629130, 1629216, 1629312, 1630209, 202710]",19,-1,492,-2.7777777777777777,36.0
4,663,26,1610612742,1610612748,6,"[1627827, 1628467, 1628973, 1629029, 203915]","[1629130, 1629216, 1629312, 1630209, 202710]",20,-6,594,-14.634146341463413,41.0
5,719,26,1610612742,1610612748,3,"[1627827, 1628467, 1629029, 1630182, 202722]","[1629216, 1629312, 1629622, 1630209, 202710]",23,-3,664,-6.8181818181818175,44.0
6,873,33,1610612742,1610612748,1,"[1628373, 1628467, 1629029, 1630182, 202722]","[1629216, 1629312, 1629622, 1630209, 200768]",32,-1,720,-1.8518518518518516,54.0
7,976,40,1610612742,1610612748,5,"[1628973, 1628467, 202722, 1628373, 1628425]","[200768, 1629312, 1630209, 1629216, 1629622]",35,-5,874,-8.064516129032258,62.0
8,1034,42,1610612742,1610612748,5,"[1628425, 1628467, 1628973, 202722, 203915]","[200768, 1629312, 1630209, 1629216, 1629622]",37,-5,977,-7.8125,64.0
9,1169,48,1610612742,1610612748,6,"[1628973, 1630182, 202722, 203915, 203939]","[1628389, 1629216, 1629312, 1629622, 200768]",42,-6,1035,-8.21917808219178,73.0
10,1182,49,1610612742,1610612748,7,"[1627827, 1629029, 1630182, 203915, 203939]","[1628389, 1629216, 1629622, 200782, 202710]",42,-7,1170,-9.45945945945946,74.0
11,1320,56,1610612742,1610612748,10,"[1627827, 1628467, 1629029, 1630182, 203915]","[1628389, 1629216, 1629622, 200782, 202710]",46,-10,1183,-12.195121951219512,82.0
12,1383,59,1610612742,1610612748,13,"[1627827, 1628467, 1629029, 1630182, 203915]","[1628389, 1629622, 200768, 200782, 202710]",46,-13,1321,-15.11627906976744,86.0
13,1439,59,1610612742,1610612748,8,"[1628425, 1628467, 1628973, 1629029, 203939]","[1628389, 1629622, 200768, 200782, 202710]",51,-8,1384,-8.98876404494382,89.0
14,1753,70,1610612742,1610612748,8,"[1628425, 1628467, 1628973, 1629029, 203939]","[1629312, 1629622, 1630209, 200768, 202710]",62,-8,1440,-7.4074074074074066,108.0
15,1850,70,1610612742,1610612748,6,"[1627827, 203939, 1628973, 1629029, 1628467]","[202710, 200782, 1628389, 1629130, 200768]",64,-6,1754,-5.357142857142857,112.0
16,1872,70,1610612742,1610612748,6,"[1627827, 1628467, 1628973, 1629029, 1630182]","[202710, 200782, 1628389, 1629130, 200768]",64,-6,1851,-5.263157894736842,114.0
17,1904,70,1610612742,1610612748,6,"[1627827, 1628467, 1629029, 1630182, 203915]","[202710, 200782, 1628389, 1629130, 200768]",64,-6,1873,-5.217391304347826,115.0
18,1934,70,1610612742,1610612748,1,"[1627827, 1628467, 1629029, 1630182, 203915]","[1628389, 1629130, 1629216, 200782, 202710]",69,-1,1905,-0.8547008547008548,117.0
19,1984,74,1610612742,1610612748,5,"[1627827, 1629029, 1630182, 203915, 203939]","[1629130, 1629216, 1630209, 200782, 202710]",69,-5,1935,-4.166666666666666,120.0
20,2082,76,1610612742,1610612748,3,"[1627827, 1628467, 1629029, 1630182, 203915]","[1629216, 1629622, 1630209, 200782, 202710]",73,-3,1985,-2.380952380952381,126.0
21,2159,78,1610612742,1610612748,-3,"[1627827, 1628467, 1628973, 1629029, 203915]","[1629216, 1629622, 1630209, 200782, 202710]",81,3,2083,2.2556390977443606,133.0
22,2159,78,1610612742,1610612748,-3,"[1628467, 1628973, 1629029, 202722, 203915]","[1629216, 1629622, 1630209, 200768, 200782]",81,3,2160,2.2556390977443606,133.0
23,2240,79,1610612742,1610612748,-7,"[1630182, 203939, 1628973, 203915, 202722]","[200768, 1629312, 1630209, 1629216, 1629622]",86,7,2160,5.072463768115942,138.0
24,2319,81,1610612742,1610612748,-6,"[1628467, 1628973, 1630182, 202722, 203915]","[200768, 1629312, 1630209, 1629216, 1629622]",87,6,2241,4.195804195804196,143.0
25,2342,81,1610612742,1610612748,-8,"[1628467, 1628973, 1630182, 202722, 203915]","[1628389, 1629216, 1629312, 1629622, 200768]",89,8,2320,5.517241379310345,145.0
26,2437,85,1610612742,1610612748,-8,"[1627827, 1628467, 1628973, 202722, 203915]","[1628389, 1629216, 1629312, 200768, 202710]",93,8,2343,5.333333333333334,150.0
27,2508,87,1610612742,1610612748,-9,"[1627827, 1628467, 1628973, 202722, 203915]","[1628389, 1629130, 1629216, 200768, 202710]",96,9,2438,5.844155844155844,154.0
28,2548,90,1610612742,1610612748,-6,"[1627827, 1628467, 1628973, 1629029, 203915]","[1628389, 1629216, 200768, 200782, 202710]",96,6,2509,3.821656050955414,157.0
29,2842,99,1610612742,1610612748,-8,"[1627827, 1628973, 1629029, 1630182, 203939]","[1628389, 1629216, 200768, 200782, 202710]",107,8,2549,4.545454545454546,176.0
30,2870,99,1610612742,1610612748,-8,"[1627827, 1628467, 1628973, 1629029, 203939]","[1628389, 1629216, 200768, 200782, 202710]",107,8,2843,4.519774011299435,177.0
31,9999999,99,1610612742,1610612748,-8,"[1627827, 1628467, 1628973, 1629029, 203939]","[1628389, 1629130, 1629216, 200768, 202710]",107,8,2871,4.49438202247191,178.0
