,team1_id,team1_player1,team1_player2,team1_player3,team1_player4,team1_player5,team2_id,team2_player1,team2_player2,team2_player3,team2_player4,team2_player5,game_id,period,possession_start,possession_end,team1_points,team2_points,possession_team
0,1610612753,1628407,1629109,202696,203082,203487,1610612756,1628969,1626163,1629028,1626164,101108,0022000417,1,0,29,0,0,1610612756
1,1610612753,1628407,1629109,202696,203082,203487,1610612756,1628969,1626163,1629028,1626164,101108,0022000417,1,35,38,0,0,1610612753
2,1610612753,1628407,1629109,202696,203082,203487,1610612756,1628969,1626163,1629028,1626164,101108,0022000417,1,47,50,0,0,1610612756
3,1610612753,1628407,1629109,202696,203082,203487,1610612756,1628969,1626163,1629028,1626164,101108,0022000417,1,52,52,0,0,1610612753
4,1610612753,1628407,1629109,202696,203082,203487,1610612756,1628969,1626163,1629028,1626164,101108,0022000417,1,56,56,0,2,1610612756
5,1610612753,1628407,1629109,202696,203082,203487,1610612756,1628969,1626163,1629028,1626164,101108,0022000417,1,70,73,0,0,1610612753
6,1610612753,1628407,1629109,202696,203082,203487,1610612756,1628969,1626163,1629028,1626164,101108,0022000417,1,79,79,0,2,1610612756
7,1610612753,1628407,1629109,202696,203082,203487,1610612756,1628969,1626163,1629028,1626164,101108,0022000417,1,96,98,0,0,1610612753
8,1610612753,1628407,1629109,202696,203082,203487,1610612756,1628969,1626163,1629028,1626164,101108,0022000417,1,109,112,0,0,1610612756
9,1610612753,1628407,1629109,202696,203082,203487,1610612756,1628969,1626163,1629028,1626164,101108,0022000417,1,118,121,0,0,1610612753
10,1610612753,1628407,1629109,202696,203082,203487,1610612756,1628969,1626163,1629028,1626164,101108,0022000417,1,131,135,0,0,1610612756
11,1610612753,1628407,1629109,202696,203082,203487,1610612756,1628969,1626163,1629028,1626164,101108,0022000417,1,154,157,0,0,1610612753
12,1610612753,1628407,1629109,202696,203082,203487,1610612756,1628969,1626163,1629028,1626164,101108,0022000417,1,172,172,0,2,1610612756
13,1610612753,1628407,1629109,202696,203082,203487,1610612756,1628969,1626163,1629028,1626164,101108,0022000417,1,187,188,0,0,1610612753
14,1610612753,1628407,1629109,202696,203082,203487,1610612756,1628969,1626163,1629028,1626164,101108,0022000417,1,195,195,0,2,1610612756
15,1610612753,1628407,1629109,202696,203082,203487,1610612756,1628969,1626163,1629028,1626164,101108,0022000417,1,209,209,2,0,1610612753
16,1610612753,1628407,1629109,202696,203082,203487,1610612756,1628969,1626163,1629028,1626164,101108,0022000417,1,223,226,0,0,1610612756
17,1610612753,1628407,1629109,202696,203082,203487,1610612756,1628969,1626163,1629028,1626164,101108,0022000417,1,232,234,0,0,1610612753
18,1610612753,1628407,1629109,202696,203082,203487,1610612756,1628969,1626163,1629028,1626164,101108,0022000417,1,241,241,0,2,1610612756
19,1610612753,1628407,1629109,202696,203082,203487,1610612756,1628969,1626163,1629028,1626164,101108,0022000417,1,260,262,0,0,1610612753
20,1610612753,1628407,1629109,202696,203082,203487,1610612756,1628969,1626163,1629028,1626164,101108,0022000417,1,268,268,0,0,1610612756
21,1610612753,1628407,1629109,202696,203082,203487,1610612756,1628969,1626163,1629028,1626164,101108,0022000417,1,276,278,0,0,1610612753
22,1610612753,1628407,1629109,202696,203082,203487,1610612756,1628969,1626163,1629028,1626164,101108,0022000417,1,282,282,0,0,1610612756
23,1610612753,1628407,1629109,202696,203082,203487,1610612756,1628969,1626163,1629028,1626164,101108,0022000417,1,298,302,0,0,1610612753
24,1610612753,1628407,1629109,202696,203082,203487,1610612756,1628969,1626163,1629028,1626164,101108,0022000417,1,306,306,0,2,1610612756
25,1610612753,1628407,1629109,202696,203082,203487,1610612756,1628969,1626163,1629028,1626164,101108,0022000417,1,324,327,0,0,1610612753
26,1610612753,1628407,1629109,202696,203082,203487,1610612756,1628969,1626163,1629028,1626164,101108,0022000417,1,336,336,0,0,1610612756
27,1610612753,1628407,1629109,202696,203082,203487,1610612756,1628969,1626163,1629028,1626164,101108,0022000417,1,341,344,0,0,1610612753
28,1610612753,1628407,1629109,202696,203082,203487,1610612756,1628969,1626163,1629028,1626164,101108,0022000417,1,347,347,0,2,1610612756
29,1610612753,1628407,1629109,202696,203082,203487,1610612756,1628969,1626163,1629028,1626164,101108,0022000417,1,347,363,3,0,1610612753
30,1610612753,1628407,1629643,202696,203082,203920,1610612756,1628969,1626163,1629028,1626164,101108,0022000417,1,387,387,0,2,1610612756
31,1610612753,1628407,1629643,202696,203082,203920,1610612756,1628969,1626163,1629028,1626164,101108,0022000417,1,405,407,0,0,1610612753
32,1610612753,1628407,1629643,202696,203082,203920,1610612756,1628969,1626163,1629028,1626164,101108,0022000417,1,422,425,0,0,1610612756
33,1610612753,1628407,1629643,202696,203082,203920,1610612756,1628969,1626163,1629028,1626164,101108,0022000417,1,447,447,3,0,1610612753
34,1610612753,1628407,1629643,202696,203082,203920,1610612756,1628969,1626163,1629028,1626164,101108,0022000417,1,466,466,0,2,1610612756
35,1610612753,1628407,1629643,202696,203082,203920,1610612756,1628969,1626163,1629028,1626164,101108,0022000417,1,481,483,0,0,1610612753
36,1610612753,1628407,1629643,202696,203082,203920,1610612756,1628969,1626163,1629028,1626164,101108,0022000417,1,491,494,0,0,1610612756
37,1610612753,1628407,1629643,202696,203082,203920,1610612756,1628969,1626163,1629028,1626164,101108,0022000417,1,512,514,0,0,1610612753
38,1610612753,1628407,1629643,202696,203082,203920,1610612756,1628969,1626163,1629028,1626164,101108,0022000417,1,519,519,0,3,1610612756
39,1610612753,1628407,1629643,202696,203082,203920,1610612756,1628969,1626163,1629028,1626164,101108,0022000417,1,527,527,0,0,1610612753
40,1610612753,1628407,1629643,202696,203082,203920,1610612756,1628969,1626163,1629028,1626164,101108,0022000417,1,531,531,0,2,1610612756
41,1610612753,1628407,1629643,202696,203082,203920,1610612756,1628969,1626163,1629028,1626164,101108,0022000417,1,549,556,3,0,1610612753
42,1610612753,1628964,1629643,203082,203487,203920,1610612756,1626164,1626166,1629028,1629661,203109,0022000417,1,578,578,0,3,1610612756
43,1610612753,1628964,1629643,203082,203487,203920,1610612756,1626164,1626166,1629028,1629661,203109,0022000417,1,596,598,0,0,1610612753
44,1610612753,1628964,1629643,203082,203487,203920,1610612756,1626164,1626166,1629028,1629661,203109,0022000417,1,606,606,0,2,1610612756
45,1610612753,1628964,1629643,203082,203487,203920,1610612756,1626164,1626166,1629028,1629661,203109,0022000417,1,613,638,0,0,1610612753
46,1610612753,1628964,1629643,203082,203487,203920,1610612756,1626164,1626166,1629661,203109,203967,0022000417,1,655,658,0,0,1610612756
47,1610612753,1628964,1629643,203082,203487,203920,1610612756,1626164,1626166,1629661,203109,203967,0022000417,1,670,670,2,0,1610612753
48,1610612753,1628964,1629643,203082,203487,203920,1610612756,1626164,1626166,1629661,203109,203967,0022000417,1,684,686,0,0,1610612756
49,1610612753,1628964,1629643,203082,203487,203920,1610612756,1626164,1626166,1629661,203109,203967,0022000417,1,702,702,3,0,1610612753
50,1610612753,1628964,1629643,203082,203487,203920,1610612756,1626164,1626166,1629661,203109,203967,0022000417,1,716,720,0,0,1610612756
51,1610612753,1628407,203487,1629643,203920,1628964,1610612756,1626166,1629661,203109,203967,202734,0022000417,2,720,736,2,0,1610612753
52,1610612753,1628407,203487,1629643,203920,1628964,1610612756,1626166,1629661,203109,203967,202734,0022000417,2,754,757,0,0,1610612756
53,1610612753,1628407,203487,1629643,203920,1628964,1610612756,1626166,1629661,203109,203967,202734,0022000417,2,773,773,0,0,1610612753
54,1610612753,1628407,203487,1629643,203920,1628964,1610612756,1626166,1629661,203109,203967,202734,0022000417,2,786,786,0,2,1610612756
55,1610612753,1628407,203487,1629643,203920,1628964,1610612756,1626166,1629661,203109,203967,202734,0022000417,2,801,803,1,0,1610612753
56,1610612753,1628407,203487,1629643,203920,1628964,1610612756,101108,1629661,202734,203109,203967,0022000417,2,812,815,0,0,1610612756
57,1610612753,1628407,203487,1629643,203920,1628964,1610612756,101108,1629661,202734,203109,203967,0022000417,2,832,834,0,0,1610612753
58,1610612753,1628407,203487,1629643,203920,1628964,1610612756,101108,1629661,202734,203109,203967,0022000417,2,838,847,0,0,1610612756
59,1610612753,1628407,203487,1629643,203920,1628964,1610612756,101108,1629661,202734,203109,203967,0022000417,2,855,859,0,0,1610612753
60,1610612753,1628407,203487,1629643,203920,1628964,1610612756,101108,1629661,202734,203109,203967,0022000417,2,865,865,0,3,1610612756
61,1610612753,1628407,203487,1629643,203920,1628964,1610612756,101108,1629661,202734,203109,203967,0022000417,2,881,884,0,0,1610612753
62,1610612753,1628407,203487,1629643,203920,1628964,1610612756,101108,1629661,202734,203109,203967,0022000417,2,892,892,0,3,1610612756
63,1610612753,1628407,203487,1629643,203920,1628964,1610612756,101108,1629661,202734,203109,203967,0022000417,2,914,914,2,0,1610612753
64,1610612753,1628407,1628964,1629109,203487,203920,1610612756,101108,1629661,202734,203109,203967,0022000417,2,926,929,0,0,1610612756
65,1610612753,1628407,1628964,1629109,203487,203920,1610612756,101108,1629661,202734,203109,203967,0022000417,2,942,944,0,0,1610612753
66,1610612753,1628407,1628964,1629109,203487,203920,1610612756,101108,1629661,202734,203109,203967,0022000417,2,950,953,0,3,1610612756
67,1610612753,1628407,1628964,1629109,202696,203487,1610612756,101108,1629661,202734,203109,203967,0022000417,2,966,966,0,0,1610612753
68,1610612753,1628407,1628964,1629109,202696,203487,1610612756,101108,1629661,202734,203109,203967,0022000417,2,970,972,0,0,1610612756
69,1610612753,1628407,1628964,1629109,202696,203487,1610612756,101108,1629661,202734,203109,203967,0022000417,2,980,995,0,0,1610612753
70,1610612753,1628407,1628964,1629109,202696,203082,1610612756,101108,1628969,1629661,203109,203967,0022000417,2,1011,1014,0,0,1610612756
71,1610612753,1628407,1628964,1629109,202696,203082,1610612756,101108,1628969,1629661,203109,203967,0022000417,2,1025,1028,0,0,1610612753
72,1610612753,1628407,1628964,1629109,202696,203082,1610612756,101108,1628969,1629661,203109,203967,0022000417,2,1034,1037,0,0,1610612756
73,1610612753,1628407,1628964,1629109,202696,203082,1610612756,101108,1628969,1629661,203109,203967,0022000417,2,1051,1051,0,0,1610612753
74,1610612753,1628407,1628964,1629109,202696,203082,1610612756,101108,1628969,1629661,203109,203967,0022000417,2,1068,1068,0,3,1610612756
75,1610612753,1628407,1628964,1629109,202696,203082,1610612756,101108,1628969,1629661,203109,203967,0022000417,2,1070,1095,0,0,1610612753
76,1610612753,1628407,1628964,1629109,202696,203082,1610612756,101108,1626163,1626164,1628969,1629028,0022000417,2,1102,1119,0,2,1610612756
77,1610612753,1628407,1628964,1629109,202696,203082,1610612756,1626163,1626164,1626166,1628969,1629028,0022000417,2,1119,1136,1,0,1610612753
78,1610612753,1629109,1629643,202696,203082,203920,1610612756,1626163,1626164,1626166,1628969,1629028,0022000417,2,1150,1150,0,0,1610612756
79,1610612753,1629109,1629643,202696,203082,203920,1610612756,1626163,1626164,1626166,1628969,1629028,0022000417,2,1164,1166,0,0,1610612753
80,1610612753,1629109,1629643,202696,203082,203920,1610612756,1626163,1626164,1626166,1628969,1629028,0022000417,2,1178,1180,0,0,1610612756
81,1610612753,1629109,1629643,202696,203082,203920,1610612756,1626163,1626164,1626166,1628969,1629028,0022000417,2,1184,1190,3,0,1610612753
82,1610612753,1629109,1629643,202696,203082,203920,1610612756,1626163,1626164,1626166,1628969,1629028,0022000417,2,1207,1209,0,0,1610612756
83,1610612753,1629109,1629643,202696,203082,203920,1610612756,1626163,1626164,1626166,1628969,1629028,0022000417,2,1216,1216,2,0,1610612753
84,1610612753,1629109,1629643,202696,203082,203920,1610612756,1626163,1626164,1626166,1628969,1629028,0022000417,2,1217,1232,0,0,1610612756
85,1610612753,1629109,1629643,202696,203082,203920,1610612756,1626163,1626164,1626166,1628969,1629028,0022000417,2,1249,1249,2,0,1610612753
86,1610612753,1629109,1629643,202696,203082,203920,1610612756,1626163,1626164,1626166,1628969,1629028,0022000417,2,1250,1260,0,2,1610612756
87,1610612753,1629109,1629643,202696,203082,203920,1610612756,101108,1626163,1626164,1628969,1629028,0022000417,2,1279,1279,2,0,1610612753
88,1610612753,1629109,1629643,202696,203082,203920,1610612756,101108,1626163,1626164,1628969,1629028,0022000417,2,1298,1298,0,0,1610612756
89,1610612753,1629109,1629643,202696,203082,203920,1610612756,101108,1626163,1626164,1628969,1629028,0022000417,2,1304,1308,0,0,1610612753
90,1610612753,1629109,1629643,202696,203082,203920,1610612756,101108,1626163,1626164,1628969,1629028,0022000417,2,1326,1326,0,1,1610612756
91,1610612753,1629109,1629643,202696,203082,203920,1610612756,101108,1626164,1628969,1629028,1629661,0022000417,2,1344,1344,2,0,1610612753
92,1610612753,1629109,1629643,202696,203082,203920,1610612756,101108,1626164,1628969,1629028,1629661,0022000417,2,1355,1374,0,0,1610612756
93,1610612753,1629109,1629643,202696,203082,203920,1610612756,101108,1626164,1628969,1629028,1629661,0022000417,2,1378,1378,0,0,1610612753
94,1610612753,1629109,1629643,202696,203082,203920,1610612756,101108,1626164,1628969,1629028,1629661,0022000417,2,1388,1388,0,2,1610612756
95,1610612753,1629109,1629643,202696,203082,203920,1610612756,101108,1626164,1628969,1629028,1629661,0022000417,2,1400,1403,0,0,1610612753
96,1610612753,1629109,1629643,202696,203082,203920,1610612756,101108,1626164,1628969,1629028,1629661,0022000417,2,1407,1407,0,3,1610612756
97,1610612753,1629109,1629643,202696,203082,203920,1610612756,101108,1626164,1628969,1629028,1629661,0022000417,2,1420,1420,2,0,1610612753
98,1610612753,1628407,1629643,202696,203082,203920,1610612756,101108,1626164,1628969,1629028,1629661,0022000417,2,1440,1440,0,0,1610612753
99,1610612753,1628407,1629109,202696,203082,203487,1610612756,1628969,1626163,1629028,1626164,101108,0022000417,3,1440,1454,0,0,1610612753
100,1610612753,1628407,1629109,202696,203082,203487,1610612756,1628969,1626163,1629028,1626164,101108,0022000417,3,1469,1469,0,2,1610612756
101,1610612753,1628407,1629109,202696,203082,203487,1610612756,1628969,1626163,1629028,1626164,101108,0022000417,3,1484,1486,0,0,1610612753
102,1610612753,1628407,1629109,202696,203082,203487,1610612756,1628969,1626163,1629028,1626164,101108,0022000417,3,1498,1501,0,0,1610612756
103,1610612753,1628407,1629109,202696,203082,203487,1610612756,1628969,1626163,1629028,1626164,101108,0022000417,3,1501,1518,0,0,1610612753
104,1610612753,1628407,1629109,202696,203082,203487,1610612756,1628969,1626163,1629028,1626164,101108,0022000417,3,1521,1521,0,2,1610612756
105,1610612753,1628407,1629109,202696,203082,203487,1610612756,1628969,1626163,1629028,1626164,101108,0022000417,3,1542,1544,0,0,1610612753
106,1610612753,1628407,1629109,202696,203082,203487,1610612756,1628969,1626163,1629028,1626164,101108,0022000417,3,1551,1551,0,2,1610612756
107,1610612753,1628407,1629109,202696,203082,203487,1610612756,1628969,1626163,1629028,1626164,101108,0022000417,3,1558,1565,2,0,1610612753
108,1610612753,1628407,1629109,202696,203082,203487,1610612756,1628969,1626163,1629028,1626164,101108,0022000417,3,1580,1580,0,3,1610612756
109,1610612753,1628407,1629109,202696,203082,203487,1610612756,1628969,1626163,1629028,1626164,101108,0022000417,3,1588,1588,3,0,1610612753
110,1610612753,1628407,1629109,202696,203082,203487,1610612756,1628969,1626163,1629028,1626164,101108,0022000417,3,1603,1606,0,0,1610612756
111,1610612753,1628407,1629109,202696,203082,203487,1610612756,1628969,1626163,1629028,1626164,101108,0022000417,3,1611,1611,2,0,1610612753
112,1610612753,1628407,1629109,202696,203082,203487,1610612756,1628969,1626163,1629028,1626164,101108,0022000417,3,1631,1633,0,0,1610612756
113,1610612753,1628407,1629109,202696,203082,203487,1610612756,1628969,1626163,1629028,1626164,101108,0022000417,3,1640,1640,3,0,1610612753
114,1610612753,1628407,1629109,202696,203082,203487,1610612756,1628969,1626163,1629028,1626164,101108,0022000417,3,1658,1658,0,2,1610612756
115,1610612753,1628407,1629109,202696,203082,203487,1610612756,1628969,1626163,1629028,1626164,101108,0022000417,3,1671,1671,2,0,1610612753
116,1610612753,1628407,1629109,202696,203082,203487,1610612756,1628969,1626163,1629028,1626164,101108,0022000417,3,1689,1695,0,2,1610612756
117,1610612753,1628407,1629109,202696,203082,203487,1610612756,1628969,1626163,1629028,1626164,101108,0022000417,3,1695,1728,0,0,1610612753
118,1610612753,1628407,1629109,202696,203082,203487,1610612756,1628969,1626163,1629028,1626164,101108,0022000417,3,1744,1747,0,0,1610612756
119,1610612753,1628407,1629109,202696,203082,203487,1610612756,1628969,1626163,1629028,1626164,101108,0022000417,3,1760,1763,0,0,1610612753
120,1610612753,1628407,1629109,202696,203082,203487,1610612756,1628969,1626163,1629028,1626164,101108,0022000417,3,1768,1768,0,2,1610612756
121,1610612753,1628407,1629643,202696,203082,203920,1610612756,1628969,1626163,1629028,1626164,101108,0022000417,3,1781,1781,2,0,1610612753
122,1610612753,1628407,1629643,202696,203082,203920,1610612756,1628969,1626163,1629028,1626164,101108,0022000417,3,1795,1808,0,0,1610612756
123,1610612753,1628407,1629643,202696,203082,203920,1610612756,101108,1626164,1628969,1629028,203109,0022000417,3,1819,1819,2,0,1610612753
124,1610612753,1628407,1629643,202696,203082,203920,1610612756,1626164,1626166,1628969,1629028,203109,0022000417,3,1832,1832,0,2,1610612756
125,1610612753,1628407,1629643,202696,203082,203920,1610612756,1626164,1626166,1628969,1629028,203109,0022000417,3,1852,1852,2,0,1610612753
126,1610612753,1628407,1629643,202696,203082,203920,1610612756,1626164,1626166,1628969,1629028,203109,0022000417,3,1864,1864,0,3,1610612756
127,1610612753,1628407,1629643,202696,203082,203920,1610612756,1626164,1626166,1628969,1629028,203109,0022000417,3,1877,1877,2,0,1610612753
128,1610612753,1628407,1629643,202696,203082,203920,1610612756,1626164,1626166,1628969,1629028,203109,0022000417,3,1898,1898,0,3,1610612756
129,1610612753,1628407,1629643,202696,203082,203920,1610612756,1626164,1626166,1628969,1629028,203109,0022000417,3,1914,1914,0,0,1610612753
130,1610612753,1628407,1629643,202696,203082,203920,1610612756,1626164,1626166,1628969,1629028,203109,0022000417,3,1919,1925,0,2,1610612756
131,1610612753,1628407,1629643,202696,203082,203920,1610612756,1626164,1626166,1628969,1629028,203109,0022000417,3,1936,1939,0,0,1610612753
132,1610612753,1628407,1629643,202696,203082,203920,1610612756,1626164,1626166,1628969,1629028,203109,0022000417,3,1943,1943,0,3,1610612756
133,1610612753,1628407,1629643,202696,203082,203920,1610612756,1626164,1626166,1628969,1629028,203109,0022000417,3,1946,1961,0,0,1610612753
134,1610612753,1629643,202696,203082,203487,203920,1610612756,1626164,1626166,1629028,1629661,203109,0022000417,3,1974,1974,0,0,1610612756
135,1610612753,1629643,202696,203082,203487,203920,1610612756,1626164,1626166,1629028,1629661,203109,0022000417,3,1986,1990,0,0,1610612753
136,1610612753,1629643,202696,203082,203487,203920,1610612756,1626164,1626166,1629028,1629661,203109,0022000417,3,2004,2008,0,0,1610612756
137,1610612753,1629643,202696,203082,203487,203920,1610612756,1626164,1626166,1629028,1629661,203109,0022000417,3,2016,2021,3,0,1610612753
138,1610612753,1629643,202696,203082,203487,203920,1610612756,1626164,1626166,1629028,1629661,203109,0022000417,3,2043,2044,0,0,1610612756
139,1610612753,1629643,202696,203082,203487,203920,1610612756,1626164,1626166,1629028,1629661,203109,0022000417,3,2058,2060,0,0,1610612753
140,1610612753,1629643,202696,203082,203487,203920,1610612756,1626164,1626166,1629028,1629661,203109,0022000417,3,2065,2065,0,2,1610612756
141,1610612753,1628964,1629643,203082,203487,203920,1610612756,1626164,1626166,1629661,203109,203967,0022000417,3,2080,2080,2,0,1610612753
142,1610612753,1628964,1629643,203082,203487,203920,1610612756,1626164,1626166,1629661,203109,203967,0022000417,3,2097,2097,0,0,1610612756
143,1610612753,1628964,1629643,203082,203487,203920,1610612756,1626164,1626166,1629661,203109,203967,0022000417,3,2108,2108,0,0,1610612753
144,1610612753,1628964,1629643,203082,203487,203920,1610612756,1626164,1626166,1629661,203109,203967,0022000417,3,2127,2127,0,2,1610612756
145,1610612753,1628964,1629643,203082,203487,203920,1610612756,1626164,1626166,1629661,203109,203967,0022000417,3,2144,2147,0,0,1610612753
146,1610612753,1628964,1629643,203082,203487,203920,1610612756,1626164,1626166,1629661,203109,203967,0022000417,3,2160,2160,0,0,0
147,1610612753,1628407,203487,1629643,203920,1628964,1610612756,1626166,1629661,203109,203967,202734,0022000417,4,2160,2181,0,0,1610612756
148,1610612753,1628407,203487,1629643,203920,1628964,1610612756,1626166,1629661,203109,203967,202734,0022000417,4,2188,2191,0,0,1610612753
149,1610612753,1628407,203487,1629643,203920,1628964,1610612756,1626166,1629661,203109,203967,202734,0022000417,4,2198,2207,0,3,1610612756
150,1610612753,1628407,203487,1629643,203920,1628964,1610612756,1626166,1629661,203109,203967,202734,0022000417,4,2227,2227,2,0,1610612753
151,1610612753,1628407,203487,1629643,203920,1628964,1610612756,1626166,1629661,203109,203967,202734,0022000417,4,2248,2248,0,2,1610612756
152,1610612753,1628407,203487,1629643,203920,1628964,1610612756,1626166,1629661,203109,203967,202734,0022000417,4,2259,2265,2,0,1610612753
153,1610612753,1628407,203487,1629643,203920,1628964,1610612756,1626166,1629661,203109,203967,202734,0022000417,4,2281,2284,0,0,1610612756
154,1610612753,1628407,203487,1629643,203920,1628964,1610612756,1626166,1629661,203109,203967,202734,0022000417,4,2296,2296,2,0,1610612753
155,1610612753,1628407,203487,1629643,203920,1628964,1610612756,1626166,1629661,203109,203967,202734,0022000417,4,2308,2308,0,3,1610612756
156,1610612753,1628407,203487,1629643,203920,1628964,1610612756,1626166,1629661,203109,203967,202734,0022000417,4,2323,2325,0,0,1610612753
157,1610612753,1628407,203487,1629643,203920,1628964,1610612756,1626166,1629661,203109,203967,202734,0022000417,4,2328,2332,0,0,1610612756
158,1610612753,1628407,203487,1629643,203920,1628964,1610612756,1626166,1629661,203109,203967,202734,0022000417,4,2340,2340,3,0,1610612753
159,1610612753,1628407,203487,1629643,203920,1628964,1610612756,1626166,1629661,203109,203967,202734,0022000417,4,2352,2364,0,2,1610612756
160,1610612753,1628407,1628964,1629109,203487,203920,1610612756,1626166,1629661,203109,203967,202734,0022000417,4,2389,2391,0,0,1610612753
161,1610612753,1628407,1628964,1629109,203487,203920,1610612756,1626166,1629661,203109,203967,202734,0022000417,4,2405,2407,0,0,1610612756
162,1610612753,1628407,1628964,1629109,203487,203920,1610612756,1626166,1629661,203109,203967,202734,0022000417,4,2413,2422,3,0,1610612753
163,1610612753,1628407,1628964,1629109,203487,203920,1610612756,1626166,1629661,203109,203967,202734,0022000417,4,2437,2439,0,0,1610612756
164,1610612753,1628407,1628964,1629109,203487,203920,1610612756,1626166,1629661,203109,203967,202734,0022000417,4,2449,2449,2,0,1610612753
165,1610612753,1628407,1628964,1629109,203082,203920,1610612756,1626166,1629661,203109,203967,202734,0022000417,4,2459,2459,0,0,1610612756
166,1610612753,1628407,1628964,1629109,203082,203920,1610612756,1626166,1629661,203109,203967,202734,0022000417,4,2464,2464,2,0,1610612753
167,1610612753,1628407,1628964,1629109,203082,203920,1610612756,1626166,1629661,203109,203967,202734,0022000417,4,2464,2488,0,0,1610612756
168,1610612753,1628407,1628964,1629109,203082,203920,1610612756,101108,1626164,1628969,203109,203967,0022000417,4,2497,2497,2,0,1610612753
169,1610612753,1628407,1628964,1629109,203082,203920,1610612756,101108,1626164,1628969,203109,203967,0022000417,4,2513,2515,0,0,1610612756
170,1610612753,1628407,1628964,1629109,203082,203920,1610612756,101108,1626164,1628969,203109,203967,0022000417,4,2524,2533,0,0,1610612753
171,1610612753,1628407,1628964,1629109,203082,203920,1610612756,101108,1626164,1628969,203109,203967,0022000417,4,2546,2546,0,2,1610612756
172,1610612753,1628407,1628964,1629109,203082,203920,1610612756,101108,1626164,1628969,203109,203967,0022000417,4,2559,2575,2,0,1610612753
173,1610612753,1628407,1628964,1629109,203082,203920,1610612756,101108,1626164,1628969,1629028,203109,0022000417,4,2589,2592,0,0,1610612756
174,1610612753,1628407,1628964,1629109,203082,203920,1610612756,101108,1626164,1628969,1629028,203109,0022000417,4,2601,2601,2,0,1610612753
175,1610612753,1628407,1628964,1629109,203082,203920,1610612756,101108,1626164,1628969,1629028,203109,0022000417,4,2614,2614,0,2,1610612756
176,1610612753,1628407,1628964,1629109,203082,203920,1610612756,101108,1626164,1628969,1629028,203109,0022000417,4,2640,2640,1,0,1610612753
177,1610612753,1628964,1629109,1629643,203082,203920,1610612756,101108,1626164,1628969,1629028,203109,0022000417,4,2653,2656,0,0,1610612756
178,1610612753,1628964,1629109,1629643,203082,203920,1610612756,101108,1626164,1628969,1629028,203109,0022000417,4,2665,2669,0,0,1610612753
179,1610612753,1628964,1629109,1629643,203082,203920,1610612756,101108,1626164,1628969,1629028,203109,0022000417,4,2675,2675,0,3,1610612756
180,1610612753,1628964,1629109,1629643,203082,203920,1610612756,101108,1626164,1628969,1629028,203109,0022000417,4,2695,2695,2,0,1610612753
181,1610612753,1628964,1629109,1629643,203082,203920,1610612756,101108,1626164,1628969,1629028,203109,0022000417,4,2711,2711,0,2,1610612756
182,1610612753,1628964,1629109,1629643,203487,203920,1610612756,101108,1626164,1628969,1629028,203109,0022000417,4,2729,2732,0,0,1610612753
183,1610612753,1628964,1629109,1629643,203487,203920,1610612756,1626166,1627745,1627846,1628969,1628975,0022000417,4,2753,2756,0,0,1610612756
184,1610612753,1628964,1629109,1629643,203487,203920,1610612756,1626166,1627745,1627846,1628969,1628975,0022000417,4,2765,2765,2,0,1610612753
185,1610612753,1628964,1629109,1629643,203487,203920,1610612756,1626166,1627745,1627846,1628969,1628975,0022000417,4,2781,2781,0,2,1610612756
186,1610612753,1628964,1629109,1629643,203487,203920,1610612756,1626166,1627745,1627846,1628969,1628975,0022000417,4,2784,2786,1,0,1610612753
187,1610612753,1628964,1629109,1629643,203487,203920,1610612756,1626166,1627745,1627846,1628975,204038,0022000417,4,2794,2794,0,2,1610612756
188,1610612753,1628964,1629109,1629643,203487,203920,1610612756,1626166,1627745,1627846,1628975,204038,0022000417,4,2807,2809,0,0,1610612753
189,1610612753,1628964,1629109,1629643,203487,203920,1610612756,1626166,1627745,1627846,1628975,204038,0022000417,4,2816,2817,0,0,1610612756
190,1610612753,1628964,1629109,1629643,203487,203920,1610612756,1626166,1627745,1627846,1628975,204038,0022000417,4,2824,2829,2,0,1610612753
191,1610612753,1628964,1629109,1629643,203487,203920,1610612756,1626166,1627745,1627846,1628975,204038,0022000417,4,2839,2849,0,0,1610612756
192,1610612753,1628964,1629109,1629643,203487,203920,1610612756,1626166,1627745,1627846,1628975,204038,0022000417,4,2859,2859,0,0,1610612753
193,1610612753,1628964,1629109,1629643,203487,203920,1610612756,1626166,1627745,1627846,1628975,204038,0022000417,4,2863,2863,0,2,1610612756
194,1610612753,1628964,1629109,1629643,203487,203920,1610612756,1626166,1627745,1627846,1628975,204038,0022000417,4,2873,2876,0,0,1610612753
