,team1_id,team1_player1,team1_player2,team1_player3,team1_player4,team1_player5,team2_id,team2_player1,team2_player2,team2_player3,team2_player4,team2_player5,game_id,period,possession_start,possession_end,team1_points,team2_points,possession_team
0,1610612742,1627827,1628467,204001,1626196,1629029,1610612751,1627789,203925,201145,1628971,201935,0022000519,1,0,17,2,0,1610612742
1,1610612742,1627827,1628467,204001,1626196,1629029,1610612751,1627789,203925,201145,1628971,201935,0022000519,1,42,45,0,0,1610612751
2,1610612742,1627827,1628467,204001,1626196,1629029,1610612751,1627789,203925,201145,1628971,201935,0022000519,1,63,67,0,0,1610612742
3,1610612742,1627827,1628467,204001,1626196,1629029,1610612751,1627789,203925,201145,1628971,201935,0022000519,1,73,73,0,2,1610612751
4,1610612742,1627827,1628467,204001,1626196,1629029,1610612751,1627789,203925,201145,1628971,201935,0022000519,1,88,89,0,0,1610612742
5,1610612742,1627827,1628467,204001,1626196,1629029,1610612751,1627789,203925,201145,1628971,201935,0022000519,1,104,104,0,0,1610612751
6,1610612742,1627827,1628467,204001,1626196,1629029,1610612751,1627789,203925,201145,1628971,201935,0022000519,1,113,113,2,0,1610612742
7,1610612742,1627827,1628467,204001,1626196,1629029,1610612751,1627789,203925,201145,1628971,201935,0022000519,1,125,125,0,3,1610612751
8,1610612742,1627827,1628467,204001,1626196,1629029,1610612751,1627789,203925,201145,1628971,201935,0022000519,1,140,140,3,0,1610612742
9,1610612742,1627827,1628467,204001,1626196,1629029,1610612751,1627789,203925,201145,1628971,201935,0022000519,1,162,162,0,3,1610612751
10,1610612742,1627827,1628467,204001,1626196,1629029,1610612751,1627789,203925,201145,1628971,201935,0022000519,1,180,180,2,0,1610612742
11,1610612742,1627827,1628467,204001,1626196,1629029,1610612751,1627789,203925,201145,1628971,201935,0022000519,1,208,211,0,0,1610612751
12,1610612742,1627827,1628467,204001,1626196,1629029,1610612751,1627789,203925,201145,1628971,201935,0022000519,1,217,217,3,0,1610612742
13,1610612742,1627827,1628467,204001,1626196,1629029,1610612751,1627789,203925,201145,1628971,201935,0022000519,1,239,239,0,2,1610612751
14,1610612742,1627827,1628467,204001,1626196,1629029,1610612751,1627789,203925,201145,1628971,201935,0022000519,1,246,246,3,0,1610612742
15,1610612742,1627827,1628467,204001,1626196,1629029,1610612751,1627789,203925,201145,1628971,201935,0022000519,1,252,252,0,0,1610612751
16,1610612742,1627827,1628467,204001,1626196,1629029,1610612751,1627789,203925,201145,1628971,201935,0022000519,1,256,256,4,0,1610612742
17,1610612742,1627827,1628467,204001,1626196,1629029,1610612751,1627789,203925,201145,1628971,201935,0022000519,1,269,272,0,0,1610612751
18,1610612742,1627827,1628467,204001,1626196,1629029,1610612751,1627789,203925,201145,1628971,201935,0022000519,1,281,281,2,0,1610612742
19,1610612742,1626196,1627827,1628973,203501,204001,1610612751,1628971,1629013,201145,201935,203925,0022000519,1,303,308,0,0,1610612751
20,1610612742,1626196,1627827,1628973,203501,204001,1610612751,1628971,1629013,201145,201935,203925,0022000519,1,314,317,0,0,1610612742
21,1610612742,1626196,1627827,1628973,203501,204001,1610612751,1628971,1629013,201145,201935,203925,0022000519,1,327,327,0,1,1610612751
22,1610612742,1627827,1628973,1629029,203501,204001,1610612751,1629013,201145,201935,203460,203925,0022000519,1,343,348,0,0,1610612742
23,1610612742,1627827,1628973,1629029,203501,204001,1610612751,1629013,201145,201935,203460,203925,0022000519,1,352,352,0,2,1610612751
24,1610612742,1627827,1628973,1629029,203501,204001,1610612751,1629013,201145,201935,203460,203925,0022000519,1,365,365,0,0,1610612742
25,1610612742,1627827,1628973,1629029,203501,204001,1610612751,1629013,201145,201935,203460,203925,0022000519,1,376,380,0,0,1610612751
26,1610612742,1627827,1628973,1629029,203501,204001,1610612751,1629013,201145,201935,203460,203925,0022000519,1,383,386,0,0,1610612742
27,1610612742,1627827,1628973,1629029,203501,204001,1610612751,1629013,201145,201935,203460,203925,0022000519,1,405,405,0,3,1610612751
28,1610612742,1627827,1628973,1629029,203501,204001,1610612751,1629013,201145,201935,203460,203925,0022000519,1,406,436,0,0,1610612742
29,1610612742,1627827,1628973,1629029,203501,204001,1610612751,1629013,201145,201935,203460,203925,0022000519,1,440,443,0,2,1610612751
30,1610612742,1627827,1628973,1629029,203501,204001,1610612751,1629013,201145,201935,203460,203925,0022000519,1,463,467,0,0,1610612742
31,1610612742,1627827,1628973,1629029,203501,204001,1610612751,1629013,201145,201935,203460,203925,0022000519,1,475,475,0,2,1610612751
32,1610612742,1627827,1628973,1629029,203501,204001,1610612751,1629013,201145,201935,203460,203925,0022000519,1,490,490,3,0,1610612742
33,1610612742,1627827,1628973,1629029,203501,204001,1610612751,1629013,201145,201935,203460,203925,0022000519,1,511,511,0,4,1610612751
34,1610612742,1626161,1627827,1628973,1629029,203501,1610612751,1627789,1629013,201599,201935,203460,0022000519,1,525,525,3,0,1610612742
35,1610612742,1626161,1627827,1628973,1629029,203501,1610612751,1627789,1629013,201599,201935,203460,0022000519,1,552,560,0,0,1610612751
36,1610612742,1626161,1627827,1628973,1629029,203501,1610612751,1627789,1629013,201599,201935,203460,0022000519,1,567,567,3,0,1610612742
37,1610612742,1626161,1627827,1628973,1629029,203501,1610612751,1627789,1629013,201599,201935,203460,0022000519,1,583,586,0,0,1610612751
38,1610612742,1626161,1627827,1628973,1629029,203501,1610612751,1627789,1629013,201599,201935,203460,0022000519,1,594,594,2,0,1610612742
39,1610612742,1626161,1627827,1628973,1629029,203501,1610612751,1627789,1629013,201599,201935,203460,0022000519,1,609,611,0,0,1610612751
40,1610612742,1626161,1627827,1628973,1629029,203501,1610612751,1627789,1629013,201599,201935,203460,0022000519,1,622,626,0,0,1610612742
41,1610612742,1626161,1627827,1628973,1629029,203501,1610612751,1627789,1629013,201599,201935,203460,0022000519,1,640,640,0,0,1610612751
42,1610612742,1626161,1627827,1628973,1629029,203501,1610612751,1627789,1629013,201599,201935,203460,0022000519,1,645,645,2,0,1610612742
43,1610612742,1626161,1627827,1628973,1629029,203501,1610612751,1627789,1629013,201599,201935,203460,0022000519,1,668,670,0,2,1610612751
44,1610612742,1626161,1627827,1628973,1629029,203501,1610612751,1627789,1629013,201599,201935,203460,0022000519,1,690,690,2,0,1610612742
45,1610612742,1626161,1627827,1628973,1629029,203501,1610612751,1627789,1629013,201599,201935,203460,0022000519,1,710,717,0,0,1610612751
46,1610612742,1626161,1627827,1628973,1629029,203501,1610612751,1627789,1629013,201599,201935,203460,0022000519,1,719,719,2,0,1610612742
47,1610612742,1626161,1627827,1628973,1629029,203501,1610612751,1627789,1629013,201599,201935,203460,0022000519,1,720,720,0,0,1610612742
48,1610612742,1628467,1626196,1628973,1626161,203504,1610612751,203925,1628971,1629013,201599,1629185,0022000519,2,720,739,0,0,1610612751
49,1610612742,1628467,1626196,1628973,1626161,203504,1610612751,203925,1628971,1629013,201599,1629185,0022000519,2,752,752,2,0,1610612742
50,1610612742,1628467,1626196,1628973,1626161,203504,1610612751,203925,1628971,1629013,201599,1629185,0022000519,2,764,764,0,3,1610612751
51,1610612742,1628467,1626196,1628973,1626161,203504,1610612751,203925,1628971,1629013,201599,1629185,0022000519,2,779,779,0,0,1610612742
52,1610612742,1628467,1626196,1628973,1626161,203504,1610612751,203925,1628971,1629013,201599,1629185,0022000519,2,788,788,0,3,1610612751
53,1610612742,1628467,1626196,1628973,1626161,203504,1610612751,203925,1628971,1629013,201599,1629185,0022000519,2,799,799,1,0,1610612742
54,1610612742,1628467,1626196,1628973,1626161,203504,1610612751,203925,1628971,1629013,201599,1629185,0022000519,2,814,814,0,3,1610612751
55,1610612742,1628467,1626196,1628973,1626161,203504,1610612751,203925,1628971,1629013,201599,1629185,0022000519,2,831,834,0,0,1610612742
56,1610612742,1628467,1626196,1628973,1626161,203504,1610612751,203925,1628971,1629013,201599,1629185,0022000519,2,843,843,0,0,1610612751
57,1610612742,1628467,1626196,1628973,1626161,203504,1610612751,203925,1628971,1629013,201599,1629185,0022000519,2,859,865,2,0,1610612742
58,1610612742,1628467,1626196,1628973,1626161,203504,1610612751,203925,1628971,1629013,201599,1629185,0022000519,2,865,871,0,0,1610612751
59,1610612742,1628467,1626196,1628973,1626161,203504,1610612751,203925,1628971,1629013,201599,1629185,0022000519,2,883,883,3,0,1610612742
60,1610612742,1628467,1626196,1628973,1626161,203504,1610612751,203925,1628971,1629013,201599,1629185,0022000519,2,896,896,0,2,1610612751
61,1610612742,1628467,1626196,1628973,1626161,203504,1610612751,203925,1628971,1629013,201599,1629185,0022000519,2,917,917,3,0,1610612742
62,1610612742,1628467,1626196,1628973,1626161,203504,1610612751,203925,1628971,1629013,201599,1629185,0022000519,2,930,930,0,2,1610612751
63,1610612742,1628467,1626196,1628973,1626161,203504,1610612751,203925,1628971,1629013,201599,1629185,0022000519,2,942,945,0,0,1610612742
64,1610612742,1628467,1626196,1628973,1626161,203504,1610612751,203925,1628971,1629013,201599,1629185,0022000519,2,954,954,0,3,1610612751
65,1610612742,1628467,1626196,1628973,1626161,203504,1610612751,203925,1628971,1629013,201599,1629185,0022000519,2,955,972,0,0,1610612742
66,1610612742,1626161,1626196,1628467,1629029,203504,1610612751,203925,1628971,1629013,201599,1629185,0022000519,2,991,991,0,3,1610612751
67,1610612742,1626161,1626196,1628467,1629029,203501,1610612751,203925,1628971,1629013,201599,1629185,0022000519,2,1001,1003,0,0,1610612742
68,1610612742,1626161,1626196,1628467,1629029,203501,1610612751,203925,1628971,1629013,201599,1629185,0022000519,2,1021,1027,0,0,1610612751
69,1610612742,1626161,1626196,1628467,1629029,203501,1610612751,203925,1628971,1629013,201599,1629185,0022000519,2,1043,1046,0,0,1610612742
70,1610612742,1627827,1628467,1629029,203501,204001,1610612751,1628971,1629013,1629651,201935,203925,0022000519,2,1048,1048,0,0,1610612751
71,1610612742,1627827,1628467,1629029,203501,204001,1610612751,1628971,1629013,1629651,201935,203925,0022000519,2,1060,1060,2,0,1610612742
72,1610612742,1627827,1628467,1629029,203501,204001,1610612751,1628971,1629013,1629651,201935,203925,0022000519,2,1080,1080,0,0,1610612751
73,1610612742,1627827,1628467,1629029,203501,204001,1610612751,1628971,1629013,1629651,201935,203925,0022000519,2,1086,1086,3,0,1610612742
74,1610612742,1627827,1628467,1629029,203501,204001,1610612751,1628971,1629013,1629651,201935,203925,0022000519,2,1088,1101,0,2,1610612751
75,1610612742,1627827,1628467,1629029,203501,204001,1610612751,1628971,1629013,1629651,201935,203925,0022000519,2,1114,1123,0,0,1610612742
76,1610612742,1627827,1628467,1629029,203501,204001,1610612751,1628971,1629013,1629651,201145,201935,0022000519,2,1135,1135,0,3,1610612751
77,1610612742,1627827,1628467,1629029,203501,204001,1610612751,1628971,1629013,1629651,201145,201935,0022000519,2,1148,1148,3,0,1610612742
78,1610612742,1627827,1628467,1629029,203501,204001,1610612751,1628971,1629013,1629651,201145,201935,0022000519,2,1167,1167,0,0,1610612751
79,1610612742,1627827,1628467,1629029,203501,204001,1610612751,1628971,1629013,1629651,201145,201935,0022000519,2,1178,1178,3,0,1610612742
80,1610612742,1627827,1628467,1629029,203501,204001,1610612751,1627789,1628971,1629651,201145,201935,0022000519,2,1193,1193,0,2,1610612751
81,1610612742,1627827,1628467,1629029,203501,204001,1610612751,1627789,1628971,1629651,201145,201935,0022000519,2,1212,1212,2,0,1610612742
82,1610612742,1627827,1628467,1629029,203501,204001,1610612751,1627789,1628971,1629651,201145,201935,0022000519,2,1224,1224,0,3,1610612751
83,1610612742,1627827,1628467,1629029,203501,204001,1610612751,1627789,1628971,1629651,201145,201935,0022000519,2,1245,1248,0,0,1610612742
84,1610612742,1627827,1628467,1629029,203501,204001,1610612751,1627789,1628971,1629651,201145,201935,0022000519,2,1249,1249,0,0,1610612751
85,1610612742,1627827,1628467,1629029,203501,204001,1610612751,1627789,1628971,1629651,201145,201935,0022000519,2,1253,1253,0,0,1610612742
86,1610612742,1627827,1628467,1629029,203501,204001,1610612751,1627789,1628971,1629651,201145,201935,0022000519,2,1263,1270,0,3,1610612751
87,1610612742,1627827,1628467,1629029,203501,204001,1610612751,1627789,1628971,1629651,201145,201935,0022000519,2,1282,1285,0,0,1610612742
88,1610612742,1627827,1628467,1629029,203501,204001,1610612751,1627789,1628971,1629651,201145,201935,0022000519,2,1289,1289,0,2,1610612751
89,1610612742,1627827,1628467,1629029,203501,204001,1610612751,1627789,1628971,1629651,201145,201935,0022000519,2,1296,1299,0,0,1610612742
90,1610612742,1627827,1628467,1629029,203501,204001,1610612751,1627789,1628971,1629651,201145,201935,0022000519,2,1306,1308,0,0,1610612751
91,1610612742,1627827,1628467,1629029,203501,204001,1610612751,1627789,1628971,1629651,201145,201935,0022000519,2,1309,1333,2,0,1610612742
92,1610612742,1627827,1628467,1629029,203501,204001,1610612751,1627789,1628971,1629651,201145,201935,0022000519,2,1351,1354,0,0,1610612751
93,1610612742,1627827,1628467,1629029,203501,204001,1610612751,1627789,1628971,1629651,201145,201935,0022000519,2,1363,1363,2,0,1610612742
94,1610612742,1627827,1628467,1629029,203501,204001,1610612751,1627789,1628971,1629651,201145,201935,0022000519,2,1376,1384,0,2,1610612751
95,1610612742,1627827,1628467,1629029,203501,204001,1610612751,1627789,1628971,1629651,201145,201935,0022000519,2,1404,1404,2,0,1610612742
96,1610612742,1627827,1628467,1629029,203501,204001,1610612751,1627789,1628971,1629651,201145,201935,0022000519,2,1414,1414,0,2,1610612751
97,1610612742,1627827,1628467,1629029,203501,204001,1610612751,1627789,1628971,1629651,201145,201935,0022000519,2,1435,1438,0,0,1610612742
98,1610612742,1627827,1628467,1629029,203501,204001,1610612751,1627789,1628971,1629651,201145,201935,0022000519,2,1440,1440,0,0,1610612742
99,1610612742,1627827,1628467,204001,1626196,1629029,1610612751,1627789,203925,201145,1628971,201935,0022000519,3,1440,1455,0,2,1610612751
100,1610612742,1627827,1628467,204001,1626196,1629029,1610612751,1627789,203925,201145,1628971,201935,0022000519,3,1470,1470,2,0,1610612742
101,1610612742,1627827,1628467,204001,1626196,1629029,1610612751,1627789,203925,201145,1628971,201935,0022000519,3,1485,1485,0,2,1610612751
102,1610612742,1627827,1628467,204001,1626196,1629029,1610612751,1627789,203925,201145,1628971,201935,0022000519,3,1503,1503,2,0,1610612742
103,1610612742,1627827,1628467,204001,1626196,1629029,1610612751,1627789,203925,201145,1628971,201935,0022000519,3,1514,1528,0,0,1610612751
104,1610612742,1627827,1628467,204001,1626196,1629029,1610612751,1627789,203925,201145,1628971,201935,0022000519,3,1545,1548,0,0,1610612742
105,1610612742,1627827,1628467,204001,1626196,1629029,1610612751,1627789,203925,201145,1628971,201935,0022000519,3,1552,1552,0,2,1610612751
106,1610612742,1627827,1628467,204001,1626196,1629029,1610612751,1627789,203925,201145,1628971,201935,0022000519,3,1565,1565,2,0,1610612742
107,1610612742,1627827,1628467,204001,1626196,1629029,1610612751,1627789,203925,201145,1628971,201935,0022000519,3,1581,1583,0,2,1610612751
108,1610612742,1627827,1628467,204001,1626196,1629029,1610612751,1627789,203925,201145,1628971,201935,0022000519,3,1601,1601,2,0,1610612742
109,1610612742,1627827,1628467,204001,1626196,1629029,1610612751,1627789,203925,201145,1628971,201935,0022000519,3,1616,1618,0,0,1610612751
110,1610612742,1627827,1628467,204001,1626196,1629029,1610612751,1627789,203925,201145,1628971,201935,0022000519,3,1624,1628,0,0,1610612742
111,1610612742,1627827,1628467,204001,1626196,1629029,1610612751,1627789,203925,201145,1628971,201935,0022000519,3,1644,1644,0,0,1610612751
112,1610612742,1627827,1628467,204001,1626196,1629029,1610612751,1627789,203925,201145,1628971,201935,0022000519,3,1653,1653,3,0,1610612742
113,1610612742,1627827,1628467,204001,1626196,1629029,1610612751,1627789,203925,201145,1628971,201935,0022000519,3,1674,1676,0,0,1610612751
114,1610612742,1627827,1628467,204001,1626196,1629029,1610612751,1627789,203925,201145,1628971,201935,0022000519,3,1681,1708,2,0,1610612742
115,1610612742,1627827,1628467,204001,1626196,1629029,1610612751,1627789,203925,201145,1628971,201935,0022000519,3,1722,1733,0,2,1610612751
116,1610612742,1627827,1628467,204001,1626196,1629029,1610612751,1627789,203925,201145,1628971,201935,0022000519,3,1740,1740,0,0,1610612742
117,1610612742,1627827,1628467,204001,1626196,1629029,1610612751,1627789,203925,201145,1628971,201935,0022000519,3,1744,1744,0,0,1610612751
118,1610612742,1627827,1628467,204001,1626196,1629029,1610612751,1627789,203925,201145,1628971,201935,0022000519,3,1744,1761,0,0,1610612742
119,1610612742,1627827,1628467,204001,1626196,1629029,1610612751,1627789,203925,201145,1628971,201935,0022000519,3,1767,1767,0,0,1610612751
120,1610612742,1627827,1628467,204001,1626196,1629029,1610612751,1627789,203925,201145,1628971,201935,0022000519,3,1780,1780,1,0,1610612742
121,1610612742,1626196,1627827,1628973,203501,204001,1610612751,1628971,1629651,201145,201935,203925,0022000519,3,1798,1802,0,0,1610612751
122,1610612742,1626196,1627827,1628973,203501,204001,1610612751,1628971,1629651,201145,201935,203925,0022000519,3,1809,1812,0,0,1610612742
123,1610612742,1626196,1627827,1628973,203501,204001,1610612751,1628971,1629651,201145,201935,203925,0022000519,3,1826,1831,0,0,1610612751
124,1610612742,1626196,1627827,1628973,203501,204001,1610612751,1628971,1629651,201145,201935,203925,0022000519,3,1844,1844,3,0,1610612742
125,1610612742,1626196,1627827,1628973,203501,204001,1610612751,1629013,1629651,201145,201935,203925,0022000519,3,1866,1866,0,2,1610612751
126,1610612742,1626196,1627827,1628973,203501,204001,1610612751,1629013,1629651,201145,201935,203925,0022000519,3,1877,1877,2,0,1610612742
127,1610612742,1626196,1627827,1628973,203501,204001,1610612751,1629013,1629651,201145,201935,203925,0022000519,3,1898,1898,0,0,1610612751
128,1610612742,1626196,1627827,1628973,203501,204001,1610612751,1629013,1629651,201145,201935,203925,0022000519,3,1917,1920,0,0,1610612742
129,1610612742,1626196,1627827,1628973,203501,204001,1610612751,1629013,1629651,201145,201935,203925,0022000519,3,1924,1927,0,0,1610612751
130,1610612742,1626196,1627827,1628973,203501,204001,1610612751,1629013,1629651,201145,201935,203925,0022000519,3,1933,1939,2,0,1610612742
131,1610612742,1626196,1627827,1628973,203501,204001,1610612751,1629013,1629651,201145,201935,203925,0022000519,3,1958,1962,0,0,1610612751
132,1610612742,1626196,1627827,1628973,203501,204001,1610612751,1629013,1629651,201145,201935,203925,0022000519,3,1963,1963,2,0,1610612742
133,1610612742,1626196,1627827,1628973,203501,204001,1610612751,1629013,1629651,201145,201935,203925,0022000519,3,1963,1973,0,3,1610612751
134,1610612742,1626196,1627827,1628973,203501,204001,1610612751,1629013,1629651,201935,203460,203925,0022000519,3,1993,1995,0,0,1610612742
135,1610612742,1626196,1627827,1628973,203501,204001,1610612751,1629013,1629651,201935,203460,203925,0022000519,3,2004,2009,0,0,1610612751
136,1610612742,1626196,1627827,1628973,203501,204001,1610612751,1629013,1629651,201935,203460,203925,0022000519,3,2019,2022,0,0,1610612742
137,1610612742,1626196,1627827,1628973,203501,204001,1610612751,1629013,1629651,201935,203460,203925,0022000519,3,2028,2028,0,0,1610612751
138,1610612742,1627827,1628973,1629029,203501,204001,1610612751,1629013,1629651,201935,203460,203925,0022000519,3,2053,2053,0,0,1610612742
139,1610612742,1627827,1628973,1629029,203501,204001,1610612751,1629013,1629651,201935,203460,203925,0022000519,3,2060,2069,0,1,1610612751
140,1610612742,1626161,1627827,1628973,1629029,203501,1610612751,1627789,1629013,1629651,201935,203460,0022000519,3,2090,2090,3,0,1610612742
141,1610612742,1626161,1627827,1628973,1629029,203501,1610612751,1627789,1629013,1629651,201935,203460,0022000519,3,2110,2114,0,2,1610612751
142,1610612742,1626161,1627827,1628973,1629029,203501,1610612751,1627789,1629013,1629651,201935,203460,0022000519,3,2137,2139,0,0,1610612742
143,1610612742,1626161,1627827,1628973,1629029,203501,1610612751,1627789,1629013,1629651,201935,203460,0022000519,3,2159,2159,0,0,1610612742
144,1610612742,1628467,1629029,203501,1628973,1626161,1610612751,1627789,1629013,203460,201599,1629185,0022000519,4,2160,2175,0,0,1610612742
145,1610612742,1628467,1629029,203501,1628973,1626161,1610612751,1627789,1629013,203460,201599,1629185,0022000519,4,2175,2191,0,0,1610612751
146,1610612742,1626161,1626196,1628467,1628973,1629029,1610612751,1627789,1629013,203460,201599,1629185,0022000519,4,2205,2220,0,0,1610612742
147,1610612742,1626161,1626196,1628467,1628973,1629029,1610612751,1627789,1629013,203460,201599,1629185,0022000519,4,2227,2232,0,2,1610612751
148,1610612742,1626161,1626196,1628467,1628973,1629029,1610612751,1627789,1629013,203460,201599,1629185,0022000519,4,2240,2256,0,0,1610612742
149,1610612742,1626161,1626196,1628467,1628973,1629029,1610612751,1627789,1629013,203460,201599,1629185,0022000519,4,2271,2275,0,0,1610612751
150,1610612742,1626161,1626196,1628467,1628973,1629029,1610612751,1627789,1629013,203460,201599,1629185,0022000519,4,2283,2283,3,0,1610612742
151,1610612742,1626161,1626196,1628467,1628973,1629029,1610612751,1627789,1629013,203460,201599,1629185,0022000519,4,2294,2299,0,0,1610612751
152,1610612742,1626161,1626196,1628467,1628973,1629029,1610612751,1627789,1629013,203460,201599,1629185,0022000519,4,2305,2305,2,0,1610612742
153,1610612742,1626161,1626196,1628467,1628973,1629029,1610612751,1627789,1629013,203460,201599,1629185,0022000519,4,2306,2323,0,0,1610612751
154,1610612742,1626161,1627827,1628467,1628973,1629029,1610612751,1627789,1629013,201599,201935,203925,0022000519,4,2341,2343,0,0,1610612742
155,1610612742,1626161,1627827,1628467,1628973,1629029,1610612751,1627789,1629013,201599,201935,203925,0022000519,4,2351,2357,0,0,1610612751
156,1610612742,1626161,1627827,1628467,1628973,1629029,1610612751,1627789,1629013,201599,201935,203925,0022000519,4,2360,2360,2,0,1610612742
157,1610612742,1626161,1627827,1628467,1628973,1629029,1610612751,1627789,1629013,201599,201935,203925,0022000519,4,2380,2383,0,0,1610612751
158,1610612742,1626161,1627827,1628467,1628973,1629029,1610612751,1627789,1629013,201599,201935,203925,0022000519,4,2397,2397,3,0,1610612742
159,1610612742,1626161,1627827,1628467,1628973,1629029,1610612751,1627789,1629013,201599,201935,203925,0022000519,4,2414,2414,0,0,1610612751
160,1610612742,1626161,1627827,1628467,1628973,1629029,1610612751,1627789,1629013,201599,201935,203925,0022000519,4,2423,2423,2,0,1610612742
161,1610612742,1626161,1627827,1628467,1628973,1629029,1610612751,1627789,1629013,201599,201935,203925,0022000519,4,2423,2442,0,0,1610612751
162,1610612742,1626161,1626196,1627827,1628973,1629029,1610612751,1628971,1629013,1629076,1629185,203460,0022000519,4,2461,2465,0,0,1610612742
163,1610612742,1626161,1626196,1627827,1628973,1629029,1610612751,1628971,1629013,1629076,1629185,203460,0022000519,4,2477,2477,0,2,1610612751
164,1610612742,1626161,1626196,1627827,1628973,1629029,1610612751,1628971,1629013,1629076,1629185,203460,0022000519,4,2498,2501,0,0,1610612742
165,1610612742,1626161,1626196,1627827,1628973,1629029,1610612751,1628971,1629013,1629076,1629185,203460,0022000519,4,2512,2515,0,0,1610612751
166,1610612742,1626161,1626196,1627827,1628973,1629029,1610612751,1628971,1629013,1629076,1629185,203460,0022000519,4,2534,2534,2,0,1610612742
167,1610612742,1626161,1626196,1627827,1628973,1629029,1610612751,1628971,1629013,1629076,1629185,203460,0022000519,4,2542,2542,0,3,1610612751
168,1610612742,1626161,1626196,1627827,1628973,1629029,1610612751,1628971,1629013,1629076,1629185,203460,0022000519,4,2552,2567,0,0,1610612742
169,1610612742,1626196,1628411,1628973,203504,203939,1610612751,1628971,1629076,1629185,202697,203460,0022000519,4,2573,2575,0,0,1610612751
170,1610612742,1626196,1628411,1628973,203504,203939,1610612751,1628971,1629076,1629185,202697,203460,0022000519,4,2592,2596,0,0,1610612742
171,1610612742,1626196,1628411,1628973,203504,203939,1610612751,1628971,1629076,1629185,202697,203460,0022000519,4,2607,2607,0,3,1610612751
172,1610612742,1626196,1628411,1628973,203504,203939,1610612751,1628971,1629076,1629185,202697,203460,0022000519,4,2608,2622,0,0,1610612742
173,1610612742,1628411,1628973,201949,203504,203939,1610612751,1628971,1629076,1629185,202697,203460,0022000519,4,2626,2626,0,0,1610612751
174,1610612742,1628411,1628973,201949,203504,203939,1610612751,1628971,1629076,1629185,202697,203460,0022000519,4,2638,2638,2,0,1610612742
175,1610612742,1628411,1628973,201949,203504,203939,1610612751,1628971,1629076,1629185,202697,203460,0022000519,4,2649,2669,0,3,1610612751
176,1610612742,1628411,1628973,201949,203504,203939,1610612751,1628971,1629076,1629185,202697,203460,0022000519,4,2685,2685,3,0,1610612742
177,1610612742,1628411,1628973,201949,203504,203939,1610612751,1628971,1629076,1629185,202697,203460,0022000519,4,2695,2695,0,0,1610612751
178,1610612742,1628411,1628973,201949,203504,203939,1610612751,1628971,1629076,1629185,202697,203460,0022000519,4,2700,2703,2,0,1610612742
179,1610612742,1626246,1628411,201949,203504,203939,1610612751,1628971,1629076,1629185,202697,203460,0022000519,4,2722,2722,0,0,1610612751
180,1610612742,1626246,1628411,201949,203504,203939,1610612751,1628971,1629076,1629185,202697,203460,0022000519,4,2736,2736,0,0,1610612742
181,1610612742,1626246,1628411,201949,203504,203939,1610612751,1628971,1629076,1629185,202697,203460,0022000519,4,2759,2763,0,0,1610612751
182,1610612742,1626246,1628411,201949,203504,203939,1610612751,1628971,1629076,1629185,202697,203460,0022000519,4,2778,2778,0,0,1610612742
183,1610612742,1626246,1628411,201949,203504,203939,1610612751,1628971,1629076,1629185,202697,203460,0022000519,4,2792,2797,0,0,1610612751
184,1610612742,1626246,1628411,201949,203504,203939,1610612751,1628971,1629076,1629185,202697,203460,0022000519,4,2804,2804,0,0,1610612742
185,1610612742,1626246,1628411,201949,203504,203939,1610612751,1628971,1629076,1629185,202697,203460,0022000519,4,2807,2807,0,2,1610612751
186,1610612742,1626246,1628411,201949,203504,203939,1610612751,1628971,1629076,1629185,202697,203460,0022000519,4,2825,2828,0,0,1610612742
187,1610612742,1626246,1628411,201949,203504,203939,1610612751,1628971,1629076,1629185,202697,203460,0022000519,4,2835,2835,0,1,1610612751
188,1610612742,1626246,1628411,201949,203504,203939,1610612751,1628971,1629076,1629185,202697,203460,0022000519,4,2860,2860,0,0,1610612742
