,team1_id,team1_player1,team1_player2,team1_player3,team1_player4,team1_player5,team2_id,team2_player1,team2_player2,team2_player3,team2_player4,team2_player5,game_id,period,possession_start,possession_end,team1_points,team2_points,possession_team
0,1610612742,203501,1627827,204001,203552,1629029,1610612747,2544,203076,201580,201980,203484,0011900107,1,120,142,2,0,1610612742
1,1610612742,203501,1627827,204001,203552,1629029,1610612747,2544,203076,201580,201980,203484,0011900107,1,158,160,0,0,1610612747
2,1610612742,203501,1627827,204001,203552,1629029,1610612747,2544,203076,201580,201980,203484,0011900107,1,166,166,3,0,1610612742
3,1610612742,203501,1627827,204001,203552,1629029,1610612747,2544,203076,201580,201980,203484,0011900107,1,186,186,0,2,1610612747
4,1610612742,203501,1627827,204001,203552,1629029,1610612747,2544,203076,201580,201980,203484,0011900107,1,205,205,3,0,1610612742
5,1610612742,203501,1627827,204001,203552,1629029,1610612747,2544,203076,201580,201980,203484,0011900107,1,224,224,0,2,1610612747
6,1610612742,203501,1627827,204001,203552,1629029,1610612747,2544,203076,201580,201980,203484,0011900107,1,238,238,3,0,1610612742
7,1610612742,203501,1627827,204001,203552,1629029,1610612747,2544,203076,201580,201980,203484,0011900107,1,252,252,0,2,1610612747
8,1610612742,203501,1627827,204001,203552,1629029,1610612747,2544,203076,201580,201980,203484,0011900107,1,278,281,0,0,1610612742
9,1610612742,203501,1627827,204001,203552,1629029,1610612747,2544,203076,201580,201980,203484,0011900107,1,285,285,0,3,1610612747
10,1610612742,203501,1627827,204001,203552,1629029,1610612747,2544,203076,201580,201980,203484,0011900107,1,298,298,0,0,1610612742
11,1610612742,203501,1627827,204001,203552,1629029,1610612747,2544,203076,201580,201980,203484,0011900107,1,315,315,0,2,1610612747
12,1610612742,203501,1627827,204001,203552,1629029,1610612747,2544,203076,201580,201980,203484,0011900107,1,325,325,3,0,1610612742
13,1610612742,203501,1627827,204001,203552,1629029,1610612747,2544,203076,201580,201980,203484,0011900107,1,337,343,0,3,1610612747
14,1610612742,203501,1627827,204001,203552,1629029,1610612747,2544,203076,201580,201980,203484,0011900107,1,352,352,2,0,1610612742
15,1610612742,203501,1627827,204001,203552,1629029,1610612747,2544,203076,201580,201980,203484,0011900107,1,361,372,0,0,1610612747
16,1610612742,203501,1627827,204001,203552,1629029,1610612747,2544,203076,201580,201980,203484,0011900107,1,376,376,3,0,1610612742
17,1610612742,203501,1627827,204001,203552,1629029,1610612747,2544,203076,201580,201980,203484,0011900107,1,400,400,0,3,1610612747
18,1610612742,203501,1627827,204001,203552,1629029,1610612747,2544,203076,201580,201980,203484,0011900107,1,419,419,0,0,1610612742
19,1610612742,203501,1627827,204001,203552,1629029,1610612747,2544,203076,201580,201980,203484,0011900107,1,419,434,0,0,1610612747
20,1610612742,1626153,1626246,1628382,1628467,200826,1610612747,1628398,201980,203076,203484,2544,0011900107,1,452,452,1,0,1610612742
21,1610612742,1626153,1626246,1628382,1628467,200826,1610612747,1628398,201980,203076,203484,2544,0011900107,1,463,466,0,0,1610612747
22,1610612742,1626153,1626246,1628382,1628467,200826,1610612747,1628398,201980,203076,203484,2544,0011900107,1,476,476,0,0,1610612742
23,1610612742,1626153,1626246,1628382,1628467,200826,1610612747,1628398,201980,203076,203484,2544,0011900107,1,492,492,0,2,1610612747
24,1610612742,1626153,1626246,1628382,1628467,200826,1610612747,1628398,201980,203076,203484,2544,0011900107,1,504,506,0,0,1610612742
25,1610612742,1626153,1626246,1628382,1628467,200826,1610612747,1628398,201980,203076,203484,2544,0011900107,1,507,512,0,2,1610612747
26,1610612742,1626153,1626246,1628382,1628467,200826,1610612747,1626188,1628398,201980,203076,2544,0011900107,1,536,538,0,0,1610612742
27,1610612742,1626153,1626246,1628382,1628467,200826,1610612747,1626188,1628398,201980,203076,2544,0011900107,1,551,554,0,0,1610612747
28,1610612742,1626153,1626246,1628382,1628467,200826,1610612747,1626188,1628398,201980,203076,2544,0011900107,1,560,563,0,0,1610612742
29,1610612742,1626153,1626246,1628382,1628467,200826,1610612747,1626188,1628398,201980,203076,2544,0011900107,1,564,564,0,2,1610612747
30,1610612742,1626153,1626246,1628382,1628467,200826,1610612747,1626188,1628398,203076,203079,2544,0011900107,1,582,584,0,0,1610612742
31,1610612742,1626153,1626246,1628382,1628467,200826,1610612747,1626188,1628398,203076,203079,2544,0011900107,1,590,593,0,1,1610612747
32,1610612742,1626153,1626246,1628382,1628467,200826,1610612747,1626188,1628398,201162,203076,203079,0011900107,1,615,618,0,0,1610612742
33,1610612742,1626153,1626246,1628382,1628467,200826,1610612747,1626188,1628398,201162,203076,203079,0011900107,1,628,628,0,2,1610612747
34,1610612742,1626153,1626246,1628382,1628467,200826,1610612747,1626188,1628398,201162,203076,203079,0011900107,1,640,640,0,0,1610612742
35,1610612742,1626153,1626246,1628382,1628467,200826,1610612747,1626188,1628398,201162,203076,203079,0011900107,1,659,662,0,0,1610612747
36,1610612742,1626153,1626246,1628382,1628467,200826,1610612747,1626188,1628398,201162,203076,203079,0011900107,1,672,672,2,0,1610612742
37,1610612742,1626153,1626246,1628382,1628467,200826,1610612747,1626188,1628398,201162,203076,203079,0011900107,1,691,691,0,0,1610612747
38,1610612742,1626153,1626246,1628382,1628467,200826,1610612747,1626188,1628398,201162,203076,203079,0011900107,1,710,710,0,0,1610612742
39,1610612742,1626153,1626246,1628382,1628467,200826,1610612747,1626188,1628398,201162,203076,203079,0011900107,1,719,719,0,3,1610612747
40,1610612742,1626153,1626246,1628382,1628467,200826,1610612747,1626188,1628398,201162,203076,203079,0011900107,1,720,720,0,0,123
41,1610612742,203501,1627827,204001,203552,1629029,1610612747,1628398,1626188,203079,201162,2730,0011900107,2,840,850,0,0,1610612747
42,1610612742,203501,1627827,204001,203552,1629029,1610612747,1628398,1626188,203079,201162,2730,0011900107,2,859,859,0,0,1610612742
43,1610612742,203501,1627827,204001,203552,1629029,1610612747,1628398,1626188,203079,201162,2730,0011900107,2,875,875,0,2,1610612747
44,1610612742,203501,1627827,204001,203552,1629029,1610612747,1628398,1626188,203079,201162,2730,0011900107,2,892,892,2,0,1610612742
45,1610612742,203501,1627827,204001,203552,1629029,1610612747,1628398,1626188,203079,201162,2730,0011900107,2,896,896,0,0,1610612747
46,1610612742,203501,1627827,204001,203552,1629029,1610612747,1628398,1626188,203079,201162,2730,0011900107,2,911,911,3,0,1610612742
47,1610612742,203501,1627827,204001,203552,1629029,1610612747,1628398,1626188,203079,201162,2730,0011900107,2,927,927,0,0,1610612747
48,1610612742,203501,1627827,204001,203552,1629029,1610612747,1628398,1626188,203079,201162,2730,0011900107,2,946,961,2,0,1610612742
49,1610612742,203501,1627827,204001,203552,1629029,1610612747,1628398,1626188,203079,201162,2730,0011900107,2,981,985,0,1,1610612747
50,1610612742,203501,1627827,204001,203552,1629029,1610612747,1628398,201162,203079,2544,2730,0011900107,2,994,994,2,0,1610612742
51,1610612742,203501,1627827,204001,203552,1629029,1610612747,1628398,201162,203079,2544,2730,0011900107,2,995,1015,0,2,1610612747
52,1610612742,203501,1627827,204001,203552,1629029,1610612747,1628398,201162,203079,2544,2730,0011900107,2,1037,1037,0,0,1610612742
53,1610612742,203501,1627827,204001,203552,1629029,1610612747,1628398,201162,203079,2544,2730,0011900107,2,1037,1046,0,2,1610612747
54,1610612742,1627827,1628467,1629029,203501,203552,1610612747,1628398,201162,203079,2544,2730,0011900107,2,1055,1064,0,0,1610612742
55,1610612742,1627827,1628467,1629029,203501,203552,1610612747,1628398,201162,203079,2544,2730,0011900107,2,1066,1066,0,1,1610612747
56,1610612742,1627827,1628382,1628467,1629029,203501,1610612747,1628398,201162,203079,2544,2730,0011900107,2,1077,1079,0,0,1610612742
57,1610612742,1627827,1628382,1628467,1629029,203501,1610612747,1628398,201162,203079,2544,2730,0011900107,2,1082,1082,0,2,1610612747
58,1610612742,1626246,1627827,1628382,1629029,203501,1610612747,1628398,201980,203079,2544,2730,0011900107,2,1093,1098,1,0,1610612742
59,1610612742,1626246,1627827,1628382,1629029,203501,1610612747,1628398,201980,203484,2544,2730,0011900107,2,1104,1104,0,0,1610612747
60,1610612742,1626246,1627827,1628382,1629029,203501,1610612747,1628398,201980,203484,2544,2730,0011900107,2,1111,1111,0,0,1610612742
61,1610612742,1626246,1627827,1628382,1629029,203501,1610612747,1628398,201980,203484,2544,2730,0011900107,2,1125,1128,0,1,1610612747
62,1610612742,1626246,1627827,1628382,1629029,203501,1610612747,201980,203076,203484,2544,2730,0011900107,2,1140,1140,2,0,1610612742
63,1610612742,1626246,1627827,1628382,1629029,203501,1610612747,201980,203076,203484,2544,2730,0011900107,2,1153,1153,0,2,1610612747
64,1610612742,1626246,1627827,1628382,1629029,203501,1610612747,201980,203076,203484,2544,2730,0011900107,2,1162,1172,2,0,1610612742
65,1610612742,1626153,1626246,1627827,1628382,1629029,1610612747,201980,203076,203484,2544,2730,0011900107,2,1186,1186,0,0,1610612747
66,1610612742,1626153,1626246,1627827,1628382,1629029,1610612747,201980,203076,203484,2544,2730,0011900107,2,1203,1203,0,0,1610612742
67,1610612742,1626153,1626246,1627827,1628382,1629029,1610612747,201980,203076,203484,2544,2730,0011900107,2,1206,1206,0,0,1610612747
68,1610612742,1626153,1626246,1627827,1628382,1629029,1610612747,201980,203076,203484,2544,2730,0011900107,2,1218,1218,0,0,1610612742
69,1610612742,1626153,1626246,1627827,1628382,1629029,1610612747,201980,203076,203484,2544,2730,0011900107,2,1223,1223,0,2,1610612747
70,1610612742,1626153,1626246,1627827,1628382,1629029,1610612747,201980,203076,203484,2544,2730,0011900107,2,1223,1243,0,0,1610612742
71,1610612742,1626153,1626246,1627827,1628382,200826,1610612747,201980,203076,203484,2544,2730,0011900107,2,1251,1251,0,2,1610612747
72,1610612742,1626153,1626246,1627827,1628382,200826,1610612747,201980,203076,203484,2544,2730,0011900107,2,1259,1259,0,0,1610612742
73,1610612742,1626153,1626246,1627827,1628382,200826,1610612747,201980,203076,203484,2544,2730,0011900107,2,1260,1260,0,2,1610612747
74,1610612742,1626153,1626246,1628382,1628499,200826,1610612747,1628398,201980,203076,203484,2544,0011900107,2,1284,1288,2,0,1610612742
75,1610612742,1626153,1626246,1628382,1628499,200826,1610612747,1628398,201980,203076,203484,2544,0011900107,2,1298,1298,0,2,1610612747
76,1610612742,1626153,1626246,1628382,1628499,200826,1610612747,1628398,201980,203076,203484,2544,0011900107,2,1309,1317,2,0,1610612742
77,1610612742,1626153,1626246,1628382,1628499,200826,1610612747,1628398,201980,203076,203484,2544,0011900107,2,1333,1333,0,3,1610612747
78,1610612742,1626153,1626246,1628382,1628499,200826,1610612747,1628398,201980,203076,203484,2544,0011900107,2,1345,1345,2,0,1610612742
79,1610612742,1626153,1626246,1628382,1628499,200826,1610612747,1628398,201980,203076,203484,2544,0011900107,2,1360,1363,0,0,1610612747
80,1610612742,1626153,1626246,1628382,1628499,200826,1610612747,1628398,201980,203076,203484,2544,0011900107,2,1384,1386,0,0,1610612742
81,1610612742,1626153,1626246,1628382,1628499,200826,1610612747,1628398,201980,203076,203484,2544,0011900107,2,1394,1396,0,0,1610612747
82,1610612742,1626153,1626246,1628382,1628499,200826,1610612747,1628398,201980,203076,203484,2544,0011900107,2,1401,1401,0,0,1610612742
83,1610612742,1626153,1626246,1628382,1628499,200826,1610612747,1628398,201980,203076,203484,2544,0011900107,2,1403,1403,0,2,1610612747
84,1610612742,1626153,1626246,1628382,1628499,200826,1610612747,1628398,201980,203076,203484,2544,0011900107,2,1419,1419,2,0,1610612742
85,1610612742,1626153,1626246,1628382,1628499,200826,1610612747,1628398,201980,203076,203484,2544,0011900107,2,1440,1440,0,0,1610612742
86,1610612742,203501,1627827,204001,203552,1629029,1610612747,201580,203484,1628398,1626188,201162,0011900107,3,1560,1576,0,0,1610612747
87,1610612742,203501,1627827,204001,203552,1629029,1610612747,201580,203484,1628398,1626188,201162,0011900107,3,1591,1591,2,0,1610612742
88,1610612742,203501,1627827,204001,203552,1629029,1610612747,201580,203484,1628398,1626188,201162,0011900107,3,1609,1609,0,2,1610612747
89,1610612742,203501,1627827,204001,203552,1629029,1610612747,201580,203484,1628398,1626188,201162,0011900107,3,1619,1622,0,0,1610612742
90,1610612742,203501,1627827,204001,203552,1629029,1610612747,201580,203484,1628398,1626188,201162,0011900107,3,1633,1633,0,2,1610612747
91,1610612742,203501,1627827,204001,203552,1629029,1610612747,201580,203484,1628398,1626188,201162,0011900107,3,1649,1649,3,0,1610612742
92,1610612742,203501,1627827,204001,203552,1629029,1610612747,201580,203484,1628398,1626188,201162,0011900107,3,1661,1663,0,0,1610612747
93,1610612742,203501,1627827,204001,203552,1629029,1610612747,201580,203484,1628398,1626188,201162,0011900107,3,1669,1669,1,0,1610612742
94,1610612742,203501,1627827,204001,203552,1629029,1610612747,201580,203484,1628398,1626188,201162,0011900107,3,1692,1693,0,0,1610612747
95,1610612742,203501,1627827,204001,203552,1629029,1610612747,201580,203484,1628398,1626188,201162,0011900107,3,1693,1704,0,0,1610612742
96,1610612742,203501,1627827,204001,203552,1629029,1610612747,201580,203484,1628398,1626188,201162,0011900107,3,1717,1717,0,2,1610612747
97,1610612742,203501,1627827,204001,203552,1629029,1610612747,201580,203484,1628398,1626188,201162,0011900107,3,1733,1733,2,0,1610612742
98,1610612742,203501,1627827,204001,203552,1629029,1610612747,201580,203484,1628398,1626188,201162,0011900107,3,1744,1760,0,0,1610612747
99,1610612742,203501,1627827,204001,203552,1629029,1610612747,201580,203484,1628398,1626188,201162,0011900107,3,1768,1768,3,0,1610612742
100,1610612742,203501,1627827,204001,203552,1629029,1610612747,201580,203484,1628398,1626188,201162,0011900107,3,1781,1781,0,2,1610612747
101,1610612742,203501,1627827,204001,203552,1629029,1610612747,201580,203484,1628398,1626188,201162,0011900107,3,1793,1795,0,0,1610612742
102,1610612742,203501,1627827,204001,203552,1629029,1610612747,201580,203484,1628398,1626188,201162,0011900107,3,1802,1802,0,2,1610612747
103,1610612742,203501,1627827,204001,203552,1629029,1610612747,201580,203484,1628398,1626188,201162,0011900107,3,1814,1814,3,0,1610612742
104,1610612742,203501,1627827,204001,203552,1629029,1610612747,201580,203484,1628398,1626188,201162,0011900107,3,1835,1839,0,2,1610612747
105,1610612742,203501,1627827,204001,203552,1629029,1610612747,201580,203484,1628398,1626188,201162,0011900107,3,1853,1855,0,0,1610612742
106,1610612742,203501,1627827,204001,203552,1629029,1610612747,201580,203484,1628398,1626188,201162,0011900107,3,1863,1886,0,0,1610612747
107,1610612742,203501,1627827,204001,203552,1629029,1610612747,1626188,1628398,201580,203484,2747,0011900107,3,1890,1890,3,0,1610612742
108,1610612742,1627827,200826,203501,203552,204001,1610612747,1626188,1628398,201580,203079,2747,0011900107,3,1903,1903,0,0,1610612747
109,1610612742,1627827,200826,203501,203552,204001,1610612747,1626188,1628398,201580,203079,2747,0011900107,3,1913,1915,0,0,1610612742
110,1610612742,1627827,200826,203501,203552,204001,1610612747,1626188,1628398,201580,203079,2747,0011900107,3,1922,1922,0,2,1610612747
111,1610612742,1627827,200826,203501,203552,204001,1610612747,1626188,1628398,201580,203079,2747,0011900107,3,1937,1937,3,0,1610612742
112,1610612742,1627827,200826,203501,203552,204001,1610612747,1626188,1628398,201580,203079,2747,0011900107,3,1951,1956,0,3,1610612747
113,1610612742,1627827,200826,203501,203552,204001,1610612747,1626188,1628398,201580,203079,2747,0011900107,3,1968,1968,3,0,1610612742
114,1610612742,1627827,200826,203501,203552,204001,1610612747,1626188,1628398,201580,203079,2747,0011900107,3,1979,1988,0,0,1610612747
115,1610612742,1626153,1626246,1628467,200826,203501,1610612747,1628398,1629659,203079,2730,2747,0011900107,3,1996,1999,3,0,1610612742
116,1610612742,1626153,1626246,1628467,200826,203501,1610612747,1628398,1629659,203079,2730,2747,0011900107,3,2011,2023,0,0,1610612747
117,1610612742,1626153,1626246,1628467,1629729,200826,1610612747,1628398,1629659,203079,2730,2747,0011900107,3,2037,2037,2,0,1610612742
118,1610612742,1626153,1626246,1628467,1629729,200826,1610612747,1628398,1629659,203079,2730,2747,0011900107,3,2052,2052,0,0,1610612747
119,1610612742,1626153,1626246,1628467,1629729,200826,1610612747,1628398,1629659,203079,2730,2747,0011900107,3,2072,2072,3,0,1610612742
120,1610612742,1626153,1626246,1628467,1629729,200826,1610612747,1628398,1629659,203079,2730,2747,0011900107,3,2086,2089,0,0,1610612747
121,1610612742,1626153,1626246,1628467,1629729,200826,1610612747,1628398,1629659,203079,2730,2747,0011900107,3,2107,2109,0,0,1610612742
122,1610612742,1626153,1626246,1628467,1629729,200826,1610612747,1628398,1629659,203079,2730,2747,0011900107,3,2120,2127,0,2,1610612747
123,1610612742,1626153,1626246,1628467,1629729,200826,1610612747,1628398,1629659,203079,2730,2747,0011900107,3,2134,2134,2,0,1610612742
124,1610612742,1626153,1626246,1628467,1629729,200826,1610612747,1628398,1629659,203079,2730,2747,0011900107,3,2156,2158,0,0,1610612747
125,1610612742,1626153,1626246,1628467,1629729,200826,1610612747,1628398,1629659,203079,2730,2747,0011900107,3,2160,2160,0,0,1610612747
126,1610612742,1628467,200826,1626246,1626153,1629729,1610612747,203079,2730,2747,1629659,1629719,0011900107,4,2280,2298,2,0,1610612742
127,1610612742,1628467,200826,1626246,1626153,1629729,1610612747,203079,2730,2747,1629659,1629719,0011900107,4,2305,2305,0,3,1610612747
128,1610612742,1626153,1626246,1628382,1628467,200826,1610612747,203079,2730,2747,1629659,1629719,0011900107,4,2317,2320,0,0,1610612742
129,1610612742,1626153,1626246,1628382,1628467,200826,1610612747,203079,2730,2747,1629659,1629719,0011900107,4,2323,2323,0,2,1610612747
130,1610612742,1626153,1626246,1628382,1628467,200826,1610612747,203079,2730,2747,1629659,1629719,0011900107,4,2340,2344,0,0,1610612742
131,1610612742,1626153,1626246,1628382,1628467,200826,1610612747,203079,2730,2747,1629659,1629719,0011900107,4,2348,2348,0,2,1610612747
132,1610612742,1626153,1626246,1628382,1628467,200826,1610612747,203079,2730,2747,1629659,1629719,0011900107,4,2362,2364,0,0,1610612742
133,1610612742,1626153,1626246,1628382,1628467,200826,1610612747,203079,2730,2747,1629659,1629719,0011900107,4,2370,2377,0,0,1610612747
134,1610612742,1626153,1626246,1628382,1628467,200826,1610612747,203079,2730,2747,1629659,1629719,0011900107,4,2383,2388,2,0,1610612742
135,1610612742,1626153,1626246,1628382,1628467,200826,1610612747,203079,2730,2747,1629659,1629719,0011900107,4,2411,2415,0,0,1610612747
136,1610612742,1626153,1626246,1628382,1628467,200826,1610612747,203079,2730,2747,1629659,1629719,0011900107,4,2417,2417,2,0,1610612742
137,1610612742,1626153,1626246,1628382,1628467,200826,1610612747,1626188,1629659,1629719,2730,2747,0011900107,4,2428,2431,0,0,1610612747
138,1610612742,1626153,1626246,1628382,1628467,200826,1610612747,1626188,1629659,1629719,2730,2747,0011900107,4,2441,2441,3,0,1610612742
139,1610612742,1626153,1626246,1628382,1628467,200826,1610612747,1626188,1629659,1629719,2730,2747,0011900107,4,2456,2459,0,0,1610612747
140,1610612742,1626153,1626246,1628382,1628467,200826,1610612747,1626188,1629659,1629719,2730,2747,0011900107,4,2465,2468,0,0,1610612742
141,1610612742,1626153,1626246,1628382,1628467,200826,1610612747,1626188,1629659,1629719,2730,2747,0011900107,4,2471,2471,0,0,1610612747
142,1610612742,1626153,1626246,1628382,1628467,200826,1610612747,1626188,1629659,1629719,2730,2747,0011900107,4,2471,2489,2,0,1610612742
143,1610612742,1626153,1626246,1628382,1628467,200826,1610612747,1626188,1629659,1629719,2730,2747,0011900107,4,2503,2503,0,2,1610612747
144,1610612742,1626153,1626246,1628382,1628467,200826,1610612747,1626188,1629659,1629719,2730,2747,0011900107,4,2517,2517,3,0,1610612742
145,1610612742,1626153,1626246,1628382,1628467,200826,1610612747,1626188,1629659,1629719,2730,2747,0011900107,4,2530,2544,0,0,1610612747
146,1610612742,1626153,1626246,1628382,1628499,1629729,1610612747,1626188,1628961,1629659,1629719,2747,0011900107,4,2560,2562,0,0,1610612742
147,1610612742,1626153,1626246,1628382,1628499,1629729,1610612747,1626188,1628961,1629659,1629719,2747,0011900107,4,2567,2567,0,2,1610612747
148,1610612742,1626153,1626246,1628382,1628499,1629729,1610612747,1626188,1628961,1629659,1629719,2747,0011900107,4,2583,2583,0,0,1610612742
149,1610612742,1626153,1626246,1628382,1628499,1629729,1610612747,1626188,1628961,1629659,1629719,2747,0011900107,4,2593,2595,0,0,1610612747
150,1610612742,1626153,1626246,1628382,1628499,1629729,1610612747,1626188,1628961,1629659,1629719,2747,0011900107,4,2599,2599,2,0,1610612742
151,1610612742,1626153,1626246,1628382,1628499,1629729,1610612747,1626188,1628961,1629659,1629719,2747,0011900107,4,2608,2608,0,1,1610612747
152,1610612742,1626153,1626246,1628382,1628499,1629729,1610612747,1626188,1628961,1629659,1629719,2747,0011900107,4,2618,2626,2,0,1610612742
153,1610612742,1626153,1626246,1628382,1628499,1629729,1610612747,1626188,1628961,1629659,1629719,2747,0011900107,4,2636,2636,0,3,1610612747
154,1610612742,1626153,1626246,1628382,1628499,1629729,1610612747,1626188,1628961,1629659,1629719,2747,0011900107,4,2651,2651,2,0,1610612742
155,1610612742,1626153,1626246,1628382,1628499,1629729,1610612747,1626188,1628961,1629659,1629719,2747,0011900107,4,2664,2664,0,0,1610612747
156,1610612742,1626153,1626246,1628382,1628499,1629729,1610612747,1626188,1628961,1629659,1629719,2747,0011900107,4,2665,2674,1,0,1610612742
157,1610612742,1626153,1626246,1628382,1628499,1629729,1610612747,1626188,1628961,1629659,1629719,2747,0011900107,4,2680,2684,0,0,1610612747
158,1610612742,1626153,1626246,1628382,1628499,1629729,1610612747,1626188,1628961,1629659,1629719,2747,0011900107,4,2689,2689,3,0,1610612742
159,1610612742,1626153,1626246,1628382,1628499,1629729,1610612747,1626188,1628961,1629659,1629719,2747,0011900107,4,2700,2700,0,3,1610612747
160,1610612742,1626153,1626246,1628382,1628499,1629729,1610612747,1626188,1628961,1629659,1629719,2747,0011900107,4,2721,2721,2,0,1610612742
161,1610612742,1626153,1626246,1628382,1628499,1629729,1610612747,1626188,1628961,1629659,1629719,2747,0011900107,4,2733,2733,0,2,1610612747
162,1610612742,1626153,1626246,1628382,1628499,1629729,1610612747,1626188,1628961,1629659,1629719,2747,0011900107,4,2747,2747,0,0,1610612742
163,1610612742,1626153,1626246,1628382,1628499,1629729,1610612747,1626188,1628961,1629659,1629719,2747,0011900107,4,2749,2751,0,1,1610612747
164,1610612742,1626153,1626246,1628382,1628499,1629729,1610612747,1626188,1628961,1629659,1629719,2747,0011900107,4,2770,2778,0,0,1610612742
165,1610612742,1626153,1626246,1628382,1628499,1629729,1610612747,1626188,1628961,1629659,1629719,2747,0011900107,4,2781,2781,0,2,1610612747
166,1610612742,1626153,1626246,1628382,1628499,1629729,1610612747,1626188,1628961,1629659,1629719,2747,0011900107,4,2789,2792,1,0,1610612742
167,1610612742,1626153,1626246,1628382,1628499,1629729,1610612747,1626188,1628961,1629659,1629719,2747,0011900107,4,2802,2805,0,0,1610612747
168,1610612742,1626153,1626246,1628382,1628499,1629729,1610612747,1626188,1628961,1629659,1629719,2747,0011900107,4,2821,2823,0,0,1610612742
169,1610612742,1626153,1626246,1628382,1628499,1629729,1610612747,1626188,1628961,1629659,1629719,2747,0011900107,4,2826,2826,0,2,1610612747
170,1610612742,1626153,1626246,1628382,1628499,1629729,1610612747,1626188,1628961,1629659,1629719,2747,0011900107,4,2848,2848,0,0,1610612742
171,1610612742,1626153,1626246,1628382,1628499,1629729,1610612747,1626188,1628961,1629659,1629719,2747,0011900107,4,2857,2857,0,3,1610612747
172,1610612742,1626153,1626246,1628382,1628499,1629729,1610612747,1626188,1628961,1629659,1629719,2747,0011900107,4,2862,2862,2,0,1610612742
173,1610612742,1626153,1626246,1628382,1628499,1629729,1610612747,1626188,1628961,1629659,1629719,2747,0011900107,4,2862,2875,0,2,1610612747
174,1610612742,1626153,1626246,1628382,1628499,1629729,1610612747,1626188,1628961,1629659,1629719,2747,0011900107,4,2877,2877,2,0,1610612742
175,1610612742,1626153,1626246,1628382,1628499,1629729,1610612747,1626188,1628961,1629659,1629719,2747,0011900107,4,2880,2880,0,0,0
