,TEAM_ID_1,TEAM_1_PLAYERS,TEAM_ID_2,TEAM_2_PLAYERS,PERIOD
0,1610612762,[ 204060 1626220  203497 1628378  201144],1610612751,[ 203925 1627789 1628386 1627747 1629185],1
1,1610612762,[ 204060  201144  203903 1627777 1628396],1610612751,[ 203925  202066  204020 1629066 1626147],2
2,1610612762,[ 204060  203497 1628378  201144 1628396],1610612751,[ 203925 1627789 1628386 1627747 1629185],3
3,1610612762,[1627777 1628396 1629671 1629730 1628430],1610612751,[ 203925 1627789  202066  204020 1629066],4
