,TEAM_ID_1,TEAM_1_PLAYERS,TEAM_ID_2,TEAM_2_PLAYERS,PERIOD
0,1610612757,[1629642  203496  203994  203468 1629014],1610612753,[1630532 1629643  201577  203914 1630175],1
1,1610612757,[1629642  203468  203463 1630570 1628372],1610612753,[1630532  203082 1630591 1630181 1629021],2
2,1610612757,[1629642  203496  203994  203468 1629014],1610612753,[1630532 1629643  201577  203914 1630175],3
3,1610612757,[1629642  203994  203468  203503 1628372],1610612753,[1630532 1629643  203082 1630591 1630181],4
