,TEAM_ID_1,TEAM_1_PLAYERS,TEAM_ID_2,TEAM_2_PLAYERS,PERIOD
0,1610612765,[ 203924  201933  203486  201961 1626153],1610612749,[ 203114  203507  201572 1628978  201950],1
1,1610612765,[ 201565 1630191 1629004 1630180 1629635],1610612749,[ 203507 1628978 1626171 1627854 1629670],2
2,1610612765,[ 203924  201933  203486  201961 1626153],1610612749,[ 203114  203507  201572 1628978  201950],3
3,1610612765,[1630191 1629004 1630180 1629635 1630240],1610612749,[ 201571 1626171  203648 1627854 1629670],4
