,stint_end,t2_points_scored,t1_id,t2_id,t2_pm,t1_players,t2_players,t1_points_scored,t1_pm,stint_start,margin_per_100,num_poss
0,135,6,1610612748,1610612744,4,"[202710, 1628997, 1630209, 1629639, 200768]","[203952, 203110, 1626172, 1627780, 201939]",2,-4,0,-57.14285714285714,7.0
1,161,8,1610612748,1610612744,4,"[202710, 1628997, 1630209, 1629639, 200768]","[203952, 203110, 1626172, 1627780, 201939]",4,-4,136,-44.44444444444444,9.0
2,308,16,1610612748,1610612744,8,"[1628997, 1629639, 1629735, 200768, 202710]","[203952, 203110, 1626172, 1627780, 201939]",8,-8,162,-47.05882352941176,17.0
3,371,18,1610612748,1610612744,8,"[1628997, 1629639, 1629735, 200768, 202710]","[1626172, 1627780, 1629673, 203110, 203952]",10,-8,309,-38.095238095238095,21.0
4,440,21,1610612748,1610612744,8,"[1628997, 1629657, 1629735, 200768, 202710]","[1626172, 1627780, 1629673, 203110, 203952]",13,-8,372,-32.0,25.0
5,570,28,1610612748,1610612744,10,"[1629657, 1629735, 200768, 200782, 202710]","[1627814, 1629673, 203110, 203490, 203952]",18,-10,441,-28.57142857142857,35.0
6,605,28,1610612748,1610612744,8,"[1629639, 1629657, 1629735, 200782, 202710]","[1627814, 1629673, 203110, 203490, 203952]",20,-8,571,-21.62162162162162,37.0
7,660,30,1610612748,1610612744,7,"[1628997, 1629639, 1629657, 200782, 202710]","[1627814, 1629673, 1630228, 203110, 203490]",23,-7,606,-16.666666666666664,42.0
8,683,33,1610612748,1610612744,10,"[1628997, 1629639, 1629657, 200782, 202710]","[1629673, 1630228, 201939, 202357, 203490]",23,-10,661,-22.727272727272727,44.0
9,719,33,1610612748,1610612744,8,"[1628997, 1629639, 1629657, 200768, 200782]","[1629673, 1630228, 201939, 202357, 203490]",25,-8,684,-17.391304347826086,46.0
10,759,33,1610612748,1610612744,8,"[1628997, 1629639, 1629657, 200768, 200782]","[1627780, 1629673, 1630228, 201939, 203490]",25,-8,720,-16.3265306122449,49.0
11,820,37,1610612748,1610612744,12,"[1628997, 1629639, 200768, 1629657, 200782]","[201939, 1629673, 203490, 1630228, 202357]",25,-12,760,-22.641509433962266,53.0
12,962,40,1610612748,1610612744,5,"[1628997, 1629639, 200768, 1629657, 200782]","[1627780, 1630228, 201939, 202357, 203490]",35,-5,821,-7.6923076923076925,65.0
13,1150,49,1610612748,1610612744,3,"[1628997, 1629639, 1629657, 1630209, 200768]","[1627780, 1630228, 201939, 202357, 203490]",46,-3,963,-3.896103896103896,77.0
14,1186,49,1610612748,1610612744,3,"[1628997, 1629639, 1630209, 200768, 202710]","[1626172, 1627780, 201939, 203110, 203952]",46,-3,1151,-3.79746835443038,79.0
15,1313,55,1610612748,1610612744,3,"[1629657, 1630209, 200768, 200782, 202710]","[1626172, 1627780, 201939, 203110, 203952]",52,-3,1187,-3.3707865168539324,89.0
16,1398,57,1610612748,1610612744,3,"[1629639, 1629657, 1630209, 200782, 202710]","[1626172, 1627780, 201939, 203110, 203952]",54,-3,1314,-3.1578947368421053,95.0
17,1439,59,1610612748,1610612744,5,"[1629639, 1630209, 200768, 200782, 202710]","[1626172, 1627780, 1629673, 203110, 203952]",54,-5,1399,-5.05050505050505,99.0
18,1699,65,1610612748,1610612744,3,"[1628997, 1629639, 1630209, 200782, 202710]","[1626172, 1629673, 203110, 203490, 203952]",62,-3,1440,-2.586206896551724,116.0
19,1818,70,1610612748,1610612744,-2,"[202710, 1628997, 1630209, 1629639, 200768]","[203952, 203110, 1626172, 1627780, 201939]",72,2,1700,1.6,125.0
20,1865,75,1610612748,1610612744,3,"[202710, 1628997, 1630209, 1629639, 200768]","[1626172, 1629673, 201939, 203110, 203952]",72,-3,1819,-2.3255813953488373,129.0
21,1940,80,1610612748,1610612744,6,"[1628997, 1629657, 1630209, 200768, 202710]","[1626172, 1629673, 201939, 203110, 203952]",74,-6,1866,-4.477611940298507,134.0
22,1965,80,1610612748,1610612744,6,"[1628997, 1629657, 1630209, 200768, 202710]","[1629673, 201939, 203110, 203490, 203952]",74,-6,1941,-4.411764705882353,136.0
23,2116,84,1610612748,1610612744,5,"[1628997, 1629657, 200768, 200782, 202710]","[1629308, 1629673, 201939, 203110, 203490]",79,-5,1966,-3.4013605442176873,147.0
24,2159,89,1610612748,1610612744,10,"[1629639, 1629657, 1630209, 200768, 200782]","[1627814, 1629308, 1629673, 203110, 203490]",79,-10,2117,-6.666666666666667,150.0
25,2287,95,1610612748,1610612744,8,"[1628997, 1629639, 1629657, 1630209, 200782]","[1627814, 1629308, 1629673, 202357, 203490]",87,-8,2160,-5.0,160.0
26,2362,97,1610612748,1610612744,8,"[1628997, 1630209, 1629639, 1629657, 200782]","[201939, 1627814, 203490, 202357, 1629308]",89,-8,2288,-4.848484848484849,165.0
27,2372,97,1610612748,1610612744,6,"[1628997, 1629639, 1630209, 200768, 200782]","[201939, 1627814, 203490, 202357, 1629308]",91,-6,2363,-3.614457831325301,166.0
28,2445,101,1610612748,1610612744,10,"[1628997, 1629657, 1630209, 200768, 200782]","[1627814, 1629308, 201939, 202357, 203952]",91,-10,2373,-5.847953216374268,171.0
29,2491,103,1610612748,1610612744,9,"[1628997, 1629657, 1629735, 200768, 200782]","[1627780, 1629308, 201939, 202357, 203952]",94,-9,2446,-5.202312138728324,173.0
30,2542,106,1610612748,1610612744,7,"[1628997, 1629639, 1629735, 200768, 200782]","[1626172, 1627780, 201939, 203110, 203952]",99,-7,2492,-3.954802259887006,177.0
31,2662,108,1610612748,1610612744,4,"[1628997, 1629639, 1629735, 200768, 200782]","[1626172, 1627780, 1629673, 203110, 203952]",104,-4,2543,-2.1739130434782608,184.0
32,2860,115,1610612748,1610612744,8,"[1629639, 1629657, 1630209, 200768, 200782]","[1626172, 1627780, 1629673, 203110, 203952]",107,-8,2663,-4.0,200.0
33,2867,115,1610612748,1610612744,7,"[1628997, 1629639, 1630209, 200768, 200782]","[1627780, 1629673, 201939, 203110, 203952]",108,-7,2861,-3.4653465346534658,202.0
34,2871,115,1610612748,1610612744,7,"[1628997, 1629639, 1630209, 200768, 200782]","[1627780, 1629308, 1629673, 1629683, 1630228]",108,-7,2868,-3.4482758620689653,203.0
35,9999999,115,1610612748,1610612744,7,"[1628997, 1629639, 1629657, 1630209, 200782]","[1627780, 1629308, 1629673, 1629683, 1630228]",108,-7,2872,-3.431372549019608,204.0
