,team1_id,team1_player1,team1_player2,team1_player3,team1_player4,team1_player5,team2_id,team2_player1,team2_player2,team2_player3,team2_player4,team2_player5,game_id,period,possession_start,possession_end,team1_points,team2_points,possession_team
0,1610612764,1629067,1629060,1628418,1628972,202397,1610612760,1628983,201568,203488,1629652,101108,0021901285,1,0,19,0,2,1610612760
1,1610612764,1629067,1629060,1628418,1628972,202397,1610612760,1628983,201568,203488,1629652,101108,0021901285,1,38,40,0,0,1610612764
2,1610612764,1629067,1629060,1628418,1628972,202397,1610612760,1628983,201568,203488,1629652,101108,0021901285,1,45,45,0,3,1610612760
3,1610612764,1629067,1629060,1628418,1628972,202397,1610612760,1628983,201568,203488,1629652,101108,0021901285,1,53,55,0,0,1610612764
4,1610612764,1629067,1629060,1628418,1628972,202397,1610612760,1628983,201568,203488,1629652,101108,0021901285,1,61,63,0,0,1610612760
5,1610612764,1629067,1629060,1628418,1628972,202397,1610612760,1628983,201568,203488,1629652,101108,0021901285,1,69,71,0,0,1610612764
6,1610612764,1629067,1629060,1628418,1628972,202397,1610612760,1628983,201568,203488,1629652,101108,0021901285,1,80,80,0,0,1610612760
7,1610612764,1629067,1629060,1628418,1628972,202397,1610612760,1628983,201568,203488,1629652,101108,0021901285,1,99,102,0,0,1610612764
8,1610612764,1629067,1629060,1628418,1628972,202397,1610612760,1628983,201568,203488,1629652,101108,0021901285,1,111,111,0,2,1610612760
9,1610612764,1628418,1628972,1629010,1629060,202397,1610612760,1628983,201568,203488,1629652,101108,0021901285,1,121,123,0,0,1610612764
10,1610612764,1628418,1628972,1629010,1629060,202397,1610612760,1628983,201568,203488,1629652,101108,0021901285,1,127,127,0,3,1610612760
11,1610612764,1628418,1628972,1629010,1629060,202397,1610612760,1628983,201568,203488,1629652,101108,0021901285,1,128,146,0,0,1610612764
12,1610612764,1628418,1628972,1629010,1629060,202397,1610612760,1628983,201568,203488,1629652,101108,0021901285,1,158,160,0,0,1610612760
13,1610612764,1628418,1628972,1629010,1629060,202397,1610612760,1628983,201568,203488,1629652,101108,0021901285,1,169,169,3,0,1610612764
14,1610612764,1628418,1628972,1629010,1629060,202397,1610612760,1628983,201568,203488,1629652,101108,0021901285,1,198,198,0,3,1610612760
15,1610612764,1628418,1628972,1629010,1629060,202397,1610612760,1628983,201568,203488,1629652,101108,0021901285,1,214,217,2,0,1610612764
16,1610612764,1628418,1628972,1629010,1629060,202397,1610612760,1628983,201568,203488,1629652,101108,0021901285,1,229,232,0,0,1610612760
17,1610612764,1628418,1628972,1629010,1629060,202397,1610612760,1628983,201568,203488,1629652,101108,0021901285,1,238,238,3,0,1610612764
18,1610612764,1628418,1628972,1629010,1629060,202397,1610612760,1628983,201568,203488,1629652,101108,0021901285,1,257,257,0,3,1610612760
19,1610612764,1628418,1628972,1629010,1629060,202397,1610612760,1628983,201568,203488,1629652,101108,0021901285,1,272,272,0,0,1610612764
20,1610612764,1628418,1628972,1629010,1629060,202397,1610612760,1628983,201568,203488,1629652,101108,0021901285,1,284,291,0,2,1610612760
21,1610612764,1628418,1628972,1629010,1629060,202397,1610612760,1628983,201568,203488,1629652,101108,0021901285,1,298,298,0,0,1610612764
22,1610612764,1628418,1628972,1629010,1629060,202397,1610612760,1628983,201568,203488,1629652,101108,0021901285,1,300,320,0,0,1610612760
23,1610612764,1628418,1628972,1629010,1629060,202397,1610612760,1628983,201568,203488,1629652,101108,0021901285,1,325,329,0,0,1610612764
24,1610612764,1628418,1628972,1629010,1629060,202397,1610612760,1628983,201568,203488,1629652,101108,0021901285,1,332,332,0,1,1610612760
25,1610612764,1626170,1629010,1629021,1629060,1629067,1610612760,1628983,201568,203488,1629652,101108,0021901285,1,349,352,0,0,1610612764
26,1610612764,1626170,1629010,1629021,1629060,1629067,1610612760,1628983,201568,203488,1629652,101108,0021901285,1,371,371,0,2,1610612760
27,1610612764,1626170,1629010,1629021,1629060,1629067,1610612760,1628983,201568,203488,1629652,101108,0021901285,1,371,381,0,0,1610612764
28,1610612764,1626170,1629010,1629021,1629060,1629067,1610612760,1628983,201568,203488,1629652,101108,0021901285,1,383,383,0,0,1610612760
29,1610612764,1626170,1629010,1629021,1629060,1629067,1610612760,1628983,201568,203488,1629652,101108,0021901285,1,399,403,0,0,1610612764
30,1610612764,1626170,1629010,1629021,1629060,1629067,1610612760,1628983,201568,203488,1629652,101108,0021901285,1,412,412,0,2,1610612760
31,1610612764,1626170,1629010,1629021,1629060,1629067,1610612760,101108,1628983,1629647,1629652,203488,0021901285,1,432,432,3,0,1610612764
32,1610612764,1626170,1629010,1629021,1629060,1629067,1610612760,1627846,1628977,1628983,1629647,203488,0021901285,1,452,455,0,0,1610612760
33,1610612764,1626170,1629010,1629021,1629060,1629067,1610612760,1627846,1628977,1628983,1629647,203488,0021901285,1,457,457,3,0,1610612764
34,1610612764,1626170,1629010,1629021,1629060,1629067,1610612760,1627846,1628977,1628983,1629647,203488,0021901285,1,474,474,0,0,1610612760
35,1610612764,1626170,1629010,1629021,1629060,1629067,1610612760,1627846,1628977,1628983,1629647,203488,0021901285,1,485,487,0,0,1610612764
36,1610612764,1626170,1629010,1629021,1629060,1629067,1610612760,1627846,1628977,1628983,1629647,203488,0021901285,1,493,497,0,0,1610612760
37,1610612764,1626170,1629010,1629021,1629060,1629067,1610612760,1627846,1628977,1628983,1629647,203488,0021901285,1,513,516,0,0,1610612764
38,1610612764,1626170,1629010,1629021,1629067,1629678,1610612760,1627846,1628977,1628983,1629647,203488,0021901285,1,530,533,0,0,1610612760
39,1610612764,1626170,1629010,1629021,1629067,1629678,1610612760,1627846,1628977,1628983,1629647,203488,0021901285,1,544,544,2,0,1610612764
40,1610612764,1626170,1629010,1629021,1629067,1629678,1610612760,1627846,1628977,1628983,1629647,203488,0021901285,1,559,560,0,0,1610612760
41,1610612764,1626170,1629010,1629021,1629067,1629678,1610612760,1627846,1628977,1628983,1629647,203488,0021901285,1,560,571,2,0,1610612764
42,1610612764,1626170,1629010,1629021,1629067,1629678,1610612760,1627846,1628390,1628977,1628983,1629647,0021901285,1,590,590,0,3,1610612760
43,1610612764,1626170,1629010,1629021,1629067,1629678,1610612760,1627846,1628390,1628977,1628983,1629647,0021901285,1,600,603,2,0,1610612764
44,1610612764,1626170,1629010,1629021,1629067,1629678,1610612760,1627846,1628390,1628977,1628983,1629647,0021901285,1,615,617,0,0,1610612760
45,1610612764,1626170,1629010,1629021,1629067,1629678,1610612760,1627846,1628390,1628977,1628983,1629647,0021901285,1,634,634,0,0,1610612764
46,1610612764,1626170,1629010,1629021,1629067,1629678,1610612760,1627846,1628390,1628977,1628983,1629647,0021901285,1,640,640,0,3,1610612760
47,1610612764,1626170,1629010,1629021,1629067,1629678,1610612760,1627846,1628390,1628977,1628983,1629647,0021901285,1,652,652,3,0,1610612764
48,1610612764,1626170,1629010,1629021,1629067,1629678,1610612760,1627846,1628390,1628977,1628983,1629647,0021901285,1,667,667,0,1,1610612760
49,1610612764,1626170,1628972,1629021,1629067,1629678,1610612760,1627846,1628390,1628977,1628983,1629647,0021901285,1,689,691,0,0,1610612764
50,1610612764,1626170,1628972,1629021,1629067,1629678,1610612760,101108,1627846,1628390,1628977,1629647,0021901285,1,706,706,0,2,1610612760
51,1610612764,1626170,1628972,1629021,1629067,1629678,1610612760,101108,1627846,1628390,1628977,1629647,0021901285,1,720,720,0,0,1610612760
52,1610612764,1629067,1628972,1626170,1629021,1629678,1610612760,101108,1629647,1627846,1628977,1628390,0021901285,2,720,744,0,0,1610612764
53,1610612764,1629067,1628972,1626170,1629021,1629678,1610612760,101108,1629647,1627846,1628977,1628390,0021901285,2,756,756,0,2,1610612760
54,1610612764,1629067,1628972,1626170,1629021,1629678,1610612760,101108,1629647,1627846,1628977,1628390,0021901285,2,768,768,2,0,1610612764
55,1610612764,1629067,1628972,1626170,1629021,1629678,1610612760,101108,1629647,1627846,1628977,1628390,0021901285,2,786,786,0,2,1610612760
56,1610612764,1629067,1628972,1626170,1629021,1629678,1610612760,101108,1629647,1627846,1628977,1628390,0021901285,2,803,803,0,0,1610612764
57,1610612764,1629067,1628972,1626170,1629021,1629678,1610612760,101108,1629647,1627846,1628977,1628390,0021901285,2,818,818,0,2,1610612760
58,1610612764,1629067,1628972,1626170,1629021,1629678,1610612760,101108,1629647,1627846,1628977,1628390,0021901285,2,845,847,0,0,1610612764
59,1610612764,1629067,1628972,1626170,1629021,1629678,1610612760,101108,1629647,1627846,1628977,1628390,0021901285,2,854,854,0,3,1610612760
60,1610612764,1629067,1628972,1626170,1629021,1629678,1610612760,101108,1629647,1627846,1628977,1628390,0021901285,2,856,887,0,0,1610612764
61,1610612764,1626170,1628418,1628972,1629067,1629678,1610612760,101108,1629647,1627846,1628977,1628390,0021901285,2,892,895,0,0,1610612760
62,1610612764,1626170,1628418,1628972,1629067,1629678,1610612760,101108,1629647,1627846,1628977,1628390,0021901285,2,914,914,2,0,1610612764
63,1610612764,1626170,1628418,1628972,1629067,1629678,1610612760,101108,1629647,1627846,1628977,1628390,0021901285,2,920,923,0,0,1610612760
64,1610612764,1626170,1628418,1628972,1629067,1629678,1610612760,101108,1629647,1627846,1628977,1628390,0021901285,2,933,935,0,0,1610612764
65,1610612764,1626170,1628418,1628972,1629067,1629678,1610612760,101108,1629647,1627846,1628977,1628390,0021901285,2,941,944,0,0,1610612760
66,1610612764,1626170,1628418,1628972,1629067,1629678,1610612760,101108,1629647,1627846,1628977,1628390,0021901285,2,951,951,0,0,1610612764
67,1610612764,1626170,1628418,1628972,1629067,1629678,1610612760,101108,1629647,1627846,1628977,1628390,0021901285,2,951,964,0,0,1610612760
68,1610612764,1626170,1628418,1628972,1629067,1629678,1610612760,101108,1629647,1627846,1628977,1628390,0021901285,2,978,980,0,0,1610612764
69,1610612764,1626170,1628418,1628972,1629067,1629678,1610612760,101108,1627846,1628390,1629647,1629652,0021901285,2,991,991,0,2,1610612760
70,1610612764,1628418,1628972,1629067,1629678,202397,1610612760,1627846,1628390,1628983,1629647,1629652,0021901285,2,1007,1007,0,0,1610612764
71,1610612764,1628418,1628972,1629067,1629678,202397,1610612760,1627846,1628390,1628983,1629647,1629652,0021901285,2,1016,1016,0,2,1610612760
72,1610612764,1628418,1628972,1629067,1629678,202397,1610612760,1627846,1628390,1628983,1629647,1629652,0021901285,2,1033,1033,0,0,1610612760
73,1610612764,1628418,1628972,1629067,1629678,202397,1610612760,1627846,1628390,1628983,1629647,1629652,0021901285,2,1033,1033,2,0,1610612764
74,1610612764,1628418,1628972,1629010,1629678,202397,1610612760,1627846,1628390,1628983,1629647,1629652,0021901285,2,1046,1049,0,0,1610612760
75,1610612764,1628418,1628972,1629010,1629678,202397,1610612760,1627846,1628390,1628983,1629647,1629652,0021901285,2,1052,1052,0,0,1610612764
76,1610612764,1628418,1628972,1629010,1629678,202397,1610612760,1627846,1628390,1628983,1629647,1629652,0021901285,2,1052,1070,1,2,1610612760
77,1610612764,1628418,1628972,1629010,1629060,202397,1610612760,1627846,1628390,1628983,1629647,1629652,0021901285,2,1077,1077,3,0,1610612764
78,1610612764,1628418,1628972,1629010,1629060,202397,1610612760,1627846,1628390,1628983,1629647,1629652,0021901285,2,1092,1092,0,2,1610612760
79,1610612764,1628418,1628972,1629010,1629060,202397,1610612760,1627846,1628390,1628983,1629647,1629652,0021901285,2,1103,1107,0,0,1610612764
80,1610612764,1628418,1628972,1629010,1629060,202397,1610612760,1627846,1628390,1628983,1629647,1629652,0021901285,2,1112,1114,0,2,1610612760
81,1610612764,1628418,1628972,1629010,1629060,202397,1610612760,1627846,1628390,1628983,1629647,1629652,0021901285,2,1122,1140,2,0,1610612764
82,1610612764,1628418,1628972,1629010,1629060,202397,1610612760,1628390,1628983,1629652,201568,203488,0021901285,2,1153,1156,0,0,1610612760
83,1610612764,1628418,1628972,1629010,1629060,202397,1610612760,1628390,1628983,1629652,201568,203488,0021901285,2,1165,1169,0,0,1610612764
84,1610612764,1628418,1628972,1629010,1629060,202397,1610612760,1628390,1628983,1629652,201568,203488,0021901285,2,1176,1176,0,3,1610612760
85,1610612764,1628418,1628972,1629010,1629060,202397,1610612760,1628390,1628983,1629652,201568,203488,0021901285,2,1189,1189,2,0,1610612764
86,1610612764,1628418,1628972,1629010,1629060,202397,1610612760,1628390,1628983,1629652,201568,203488,0021901285,2,1200,1205,0,0,1610612760
87,1610612764,1628418,1628972,1629010,1629060,202397,1610612760,1628390,1628983,1629652,201568,203488,0021901285,2,1210,1225,2,0,1610612764
88,1610612764,1628418,1628972,1629010,1629060,202397,1610612760,1628390,1628983,1629652,201568,203488,0021901285,2,1225,1241,0,3,1610612760
89,1610612764,1628418,1628972,1629010,1629060,202397,1610612760,101108,1628983,1629652,201568,203488,0021901285,2,1255,1255,2,0,1610612764
90,1610612764,1628418,1628972,1629060,1629067,202397,1610612760,101108,1628983,1629652,201568,203488,0021901285,2,1271,1273,0,2,1610612760
91,1610612764,1628418,1628972,1629060,1629067,202397,1610612760,101108,1628983,1629652,201568,203488,0021901285,2,1287,1293,3,0,1610612764
92,1610612764,1628418,1628972,1629060,1629067,202397,1610612760,101108,1628983,1629652,201568,203488,0021901285,2,1318,1318,0,2,1610612760
93,1610612764,1628418,1628972,1629060,1629067,202397,1610612760,101108,1628983,1629652,201568,203488,0021901285,2,1330,1330,2,0,1610612764
94,1610612764,1628418,1628972,1629060,1629067,202397,1610612760,101108,1628983,1629652,201568,203488,0021901285,2,1347,1349,0,0,1610612760
95,1610612764,1628418,1628972,1629060,1629067,1629678,1610612760,101108,1628983,1629652,201568,203488,0021901285,2,1369,1387,2,0,1610612764
96,1610612764,1628418,1628972,1629060,1629067,1629678,1610612760,101108,1628983,1629652,201568,203488,0021901285,2,1387,1409,0,3,1610612760
97,1610612764,1628418,1628972,1629060,1629067,1629678,1610612760,101108,1628983,1629652,201568,203488,0021901285,2,1434,1437,0,0,1610612764
98,1610612764,1628418,1628972,1629060,1629067,1629678,1610612760,101108,1628983,1629652,201568,203488,0021901285,2,1439,1439,0,0,1610612760
99,1610612764,1628418,1628972,1629060,1629067,1629678,1610612760,101108,1628983,1629652,201568,203488,0021901285,2,1440,1440,0,0,1610612760
100,1610612764,1629067,1629060,1628418,1628972,202397,1610612760,1628983,201568,203488,1629652,101108,0021901285,3,1440,1455,0,0,1610612764
101,1610612764,1629067,1629060,1628418,1628972,202397,1610612760,1628983,201568,203488,1629652,101108,0021901285,3,1461,1464,0,0,1610612760
102,1610612764,1629067,1629060,1628418,1628972,202397,1610612760,1628983,201568,203488,1629652,101108,0021901285,3,1481,1485,0,0,1610612764
103,1610612764,1629067,1629060,1628418,1628972,202397,1610612760,1628983,201568,203488,1629652,101108,0021901285,3,1493,1493,0,2,1610612760
104,1610612764,1629067,1629060,1628418,1628972,202397,1610612760,1628983,201568,203488,1629652,101108,0021901285,3,1510,1510,2,0,1610612764
105,1610612764,1629067,1629060,1628418,1628972,202397,1610612760,1628983,201568,203488,1629652,101108,0021901285,3,1519,1529,0,3,1610612760
106,1610612764,1629067,1629060,1628418,1628972,202397,1610612760,1628983,201568,203488,1629652,101108,0021901285,3,1544,1544,2,0,1610612764
107,1610612764,1629067,1629060,1628418,1628972,202397,1610612760,1628983,201568,203488,1629652,101108,0021901285,3,1559,1561,0,0,1610612760
108,1610612764,1629067,1629060,1628418,1628972,202397,1610612760,1628983,201568,203488,1629652,101108,0021901285,3,1568,1574,0,0,1610612764
109,1610612764,1629067,1629060,1628418,1628972,202397,1610612760,1628983,201568,203488,1629652,101108,0021901285,3,1587,1587,0,2,1610612760
110,1610612764,1629067,1629060,1628418,1628972,202397,1610612760,1628983,201568,203488,1629652,101108,0021901285,3,1596,1599,0,0,1610612764
111,1610612764,1629067,1629060,1628418,1628972,202397,1610612760,1628983,201568,203488,1629652,101108,0021901285,3,1607,1607,0,2,1610612760
112,1610612764,1629067,1629060,1628418,1628972,202397,1610612760,1628983,201568,203488,1629652,101108,0021901285,3,1619,1619,2,0,1610612764
113,1610612764,1629067,1629060,1628418,1628972,202397,1610612760,1628983,201568,203488,1629652,101108,0021901285,3,1641,1643,0,0,1610612760
114,1610612764,1629067,1629060,1628418,1628972,202397,1610612760,1628983,201568,203488,1629652,101108,0021901285,3,1650,1653,0,0,1610612764
115,1610612764,1629067,1629060,1628418,1628972,202397,1610612760,1628983,201568,203488,1629652,101108,0021901285,3,1665,1665,0,3,1610612760
116,1610612764,1629067,1629060,1628418,1628972,202397,1610612760,1628983,201568,203488,1629652,101108,0021901285,3,1667,1692,3,0,1610612764
117,1610612764,1629067,1629060,1628418,1628972,202397,1610612760,1628983,201568,203488,1629652,101108,0021901285,3,1711,1711,0,0,1610612760
118,1610612764,1629067,1629060,1628418,1628972,202397,1610612760,1628983,201568,203488,1629652,101108,0021901285,3,1725,1729,0,0,1610612764
119,1610612764,1629067,1629060,1628418,1628972,202397,1610612760,1628983,201568,203488,1629652,101108,0021901285,3,1736,1738,0,0,1610612760
120,1610612764,1629067,1629060,1628418,1628972,202397,1610612760,1628983,201568,203488,1629652,101108,0021901285,3,1750,1750,2,0,1610612764
121,1610612764,1629067,1629060,1628418,1628972,202397,1610612760,1628983,201568,203488,1629652,101108,0021901285,3,1765,1765,0,3,1610612760
122,1610612764,1629067,1629060,1628418,1628972,202397,1610612760,1628983,201568,203488,1629652,101108,0021901285,3,1779,1779,2,0,1610612764
123,1610612764,1629067,1629060,1628418,1628972,202397,1610612760,1628983,201568,203488,1629652,101108,0021901285,3,1803,1805,0,0,1610612760
124,1610612764,1629067,1629060,1628418,1628972,202397,1610612760,1628983,201568,203488,1629652,101108,0021901285,3,1813,1816,0,0,1610612764
125,1610612764,1629067,1629060,1628418,1628972,202397,1610612760,1628983,201568,203488,1629652,101108,0021901285,3,1837,1840,0,0,1610612760
126,1610612764,1629067,1629060,1628418,1628972,202397,1610612760,1628983,201568,203488,1629652,101108,0021901285,3,1844,1844,2,0,1610612764
127,1610612764,1629067,1629060,1628418,1628972,202397,1610612760,101108,1628983,1629647,1629652,203488,0021901285,3,1855,1855,0,2,1610612760
128,1610612764,1629067,1629060,1628418,1628972,202397,1610612760,101108,1628983,1629647,1629652,203488,0021901285,3,1870,1872,0,0,1610612764
129,1610612764,1629067,1629060,1628418,1628972,202397,1610612760,101108,1628983,1629647,1629652,203488,0021901285,3,1883,1886,0,0,1610612760
130,1610612764,1629067,1629060,1628418,1628972,202397,1610612760,101108,1628983,1629647,1629652,203488,0021901285,3,1889,1889,0,0,1610612764
131,1610612764,1629010,1629021,1629060,1629067,202397,1610612760,101108,1628977,1628983,1629647,203488,0021901285,3,1896,1896,0,0,1610612760
132,1610612764,1629010,1629021,1629060,1629067,202397,1610612760,101108,1628977,1628983,1629647,203488,0021901285,3,1900,1900,2,0,1610612764
133,1610612764,1629010,1629021,1629060,1629067,202397,1610612760,101108,1628977,1628983,1629647,203488,0021901285,3,1912,1920,0,0,1610612760
134,1610612764,1629010,1629021,1629060,1629067,202397,1610612760,101108,1628977,1628983,1629647,203488,0021901285,3,1929,1932,0,0,1610612764
135,1610612764,1629010,1629021,1629060,1629067,202397,1610612760,101108,1628977,1628983,1629647,203488,0021901285,3,1937,1955,0,2,1610612760
136,1610612764,1629010,1629021,1629060,1629067,202397,1610612760,101108,1628977,1628983,1629647,203488,0021901285,3,1971,1973,0,0,1610612764
137,1610612764,1629010,1629021,1629060,1629067,202397,1610612760,101108,1628977,1628983,1629647,203488,0021901285,3,1977,1982,0,0,1610612760
138,1610612764,1629010,1629021,1629060,1629067,202397,1610612760,101108,1628977,1628983,1629647,203488,0021901285,3,1988,1995,2,0,1610612764
139,1610612764,1629010,1629021,1629060,1629067,202397,1610612760,101108,1628977,1628983,1629647,203488,0021901285,3,2014,2016,0,0,1610612760
140,1610612764,1629010,1629021,1629060,1629067,202397,1610612760,101108,1628977,1628983,1629647,203488,0021901285,3,2024,2024,3,0,1610612764
141,1610612764,1629010,1629021,1629060,1629067,202397,1610612760,101108,1628977,1628983,1629647,203488,0021901285,3,2044,2044,0,2,1610612760
142,1610612764,1629010,1629021,1629060,1629067,202397,1610612760,101108,1628977,1628983,1629647,203488,0021901285,3,2051,2051,2,0,1610612764
143,1610612764,1629010,1629021,1629060,1629067,202397,1610612760,101108,1628977,1628983,1629647,203488,0021901285,3,2069,2069,0,2,1610612760
144,1610612764,1626170,1629010,1629021,1629067,1629678,1610612760,1627846,1628390,1628977,1628983,1629647,0021901285,3,2080,2080,0,0,1610612764
145,1610612764,1626170,1629010,1629021,1629067,1629678,1610612760,1627846,1628390,1628977,1628983,1629647,0021901285,3,2092,2092,0,0,1610612760
146,1610612764,1626170,1629010,1629021,1629067,1629678,1610612760,1627846,1628390,1628977,1628983,1629647,0021901285,3,2109,2112,1,0,1610612764
147,1610612764,1626170,1629010,1629021,1629067,1629678,1610612760,1627846,1628390,1628977,1628983,1629647,0021901285,3,2130,2130,0,3,1610612760
148,1610612764,1626170,1629010,1629021,1629067,1629678,1610612760,1627846,1628390,1628977,1628983,1629647,0021901285,3,2147,2147,2,0,1610612764
149,1610612764,1626170,1629010,1629021,1629067,1629678,1610612760,1627846,1628390,1628977,1628983,1629647,0021901285,3,2160,2160,0,0,1610612764
150,1610612764,1629010,1626170,1629021,1629678,1627784,1610612760,101108,1629647,1627846,1628977,1628390,0021901285,4,2160,2178,0,0,1610612760
151,1610612764,1629010,1626170,1629021,1629678,1627784,1610612760,101108,1629647,1627846,1628977,1628390,0021901285,4,2190,2193,0,0,1610612764
152,1610612764,1629010,1626170,1629021,1629678,1627784,1610612760,101108,1629647,1627846,1628977,1628390,0021901285,4,2201,2201,0,2,1610612760
153,1610612764,1629010,1626170,1629021,1629678,1627784,1610612760,101108,1629647,1627846,1628977,1628390,0021901285,4,2217,2217,2,0,1610612764
154,1610612764,1629010,1626170,1629021,1629678,1627784,1610612760,101108,1629647,1627846,1628977,1628390,0021901285,4,2236,2236,0,0,1610612760
155,1610612764,1629010,1626170,1629021,1629678,1627784,1610612760,101108,1629647,1627846,1628977,1628390,0021901285,4,2245,2245,3,0,1610612764
156,1610612764,1629010,1626170,1629021,1629678,1627784,1610612760,101108,1629647,1627846,1628977,1628390,0021901285,4,2262,2262,0,2,1610612760
157,1610612764,1629010,1626170,1629021,1629678,1627784,1610612760,101108,1629647,1627846,1628977,1628390,0021901285,4,2276,2276,0,0,1610612764
158,1610612764,1629010,1626170,1629021,1629678,1627784,1610612760,101108,1629647,1627846,1628977,1628390,0021901285,4,2290,2290,0,2,1610612760
159,1610612764,1629010,1626170,1629021,1629678,1627784,1610612760,101108,1629647,1627846,1628977,1628390,0021901285,4,2297,2297,0,0,1610612764
160,1610612764,1629010,1626170,1629021,1629678,1627784,1610612760,101108,1629647,1627846,1628977,1628390,0021901285,4,2308,2320,0,3,1610612760
161,1610612764,1629010,1626170,1629021,1629678,1627784,1610612760,101108,1629647,1627846,1628977,1628390,0021901285,4,2338,2338,0,0,1610612764
162,1610612764,1629010,1626170,1629021,1629678,1627784,1610612760,101108,1629647,1627846,1628977,1628390,0021901285,4,2353,2357,0,0,1610612760
163,1610612764,1629010,1626170,1629021,1629678,1627784,1610612760,101108,1629647,1627846,1628977,1628390,0021901285,4,2364,2364,3,0,1610612764
164,1610612764,1629010,1626170,1629021,1629678,1627784,1610612760,101108,1629647,1627846,1628977,1628390,0021901285,4,2374,2374,0,0,1610612760
165,1610612764,1629010,1626170,1629021,1629678,1627784,1610612760,1627846,1628390,1628977,1628983,1629647,0021901285,4,2387,2404,0,0,1610612764
166,1610612764,1629010,1626170,1629021,1629678,1627784,1610612760,1627846,1628390,1628977,1628983,1629647,0021901285,4,2422,2425,0,2,1610612760
167,1610612764,1629010,1626170,1629021,1629678,1627784,1610612760,1627846,1628390,1628977,1628983,1629647,0021901285,4,2425,2443,0,0,1610612764
168,1610612764,1629010,1626170,1629021,1629678,1627784,1610612760,1627846,1628390,1628977,1628983,1629647,0021901285,4,2443,2465,0,0,1610612760
169,1610612764,1627784,1628972,1629010,1629021,1629678,1610612760,1627846,1628977,1628983,1629647,1629652,0021901285,4,2475,2480,0,0,1610612764
170,1610612764,1627784,1628972,1629010,1629021,1629678,1610612760,1627846,1628977,1628983,1629647,1629652,0021901285,4,2483,2483,0,2,1610612760
171,1610612764,1627784,1628972,1629010,1629021,1629678,1610612760,1627846,1628977,1628983,1629647,1629652,0021901285,4,2503,2503,2,0,1610612764
172,1610612764,1627784,1628972,1629010,1629021,1629678,1610612760,1627846,1628977,1628983,1629647,1629652,0021901285,4,2522,2522,0,0,1610612760
173,1610612764,1627784,1628972,1629010,1629021,1629678,1610612760,1627846,1628977,1628983,1629647,1629652,0021901285,4,2528,2528,2,0,1610612764
174,1610612764,1627784,1628972,1629010,1629021,1629678,1610612760,1627846,1628977,1628983,1629647,1629652,0021901285,4,2546,2549,0,0,1610612760
175,1610612764,1627784,1628972,1629010,1629021,1629678,1610612760,1627846,1628977,1628983,1629647,1629652,0021901285,4,2558,2562,0,0,1610612764
176,1610612764,1627784,1628972,1629010,1629021,1629678,1610612760,1627846,1628977,1628983,1629647,1629652,0021901285,4,2569,2569,0,3,1610612760
177,1610612764,1627784,1628972,1629010,1629021,1629678,1610612760,1627846,1628977,1628983,1629647,1629652,0021901285,4,2586,2586,2,0,1610612764
178,1610612764,1627784,1628972,1629010,1629021,1629678,1610612760,1627846,1628977,1628983,1629647,1629652,0021901285,4,2595,2608,0,3,1610612760
179,1610612764,1627784,1628972,1629010,1629021,1629678,1610612760,101108,1628977,1628983,201568,203488,0021901285,4,2619,2619,2,0,1610612764
180,1610612764,1627784,1628972,1629010,1629021,1629678,1610612760,101108,1628977,1628983,201568,203488,0021901285,4,2637,2637,0,2,1610612760
181,1610612764,1627784,1628972,1629010,1629021,1629678,1610612760,101108,1628977,1628983,201568,203488,0021901285,4,2638,2655,2,0,1610612764
182,1610612764,1626170,1627784,1629010,1629140,1629678,1610612760,101108,1628977,1628983,201568,203488,0021901285,4,2671,2671,0,0,1610612760
183,1610612764,1626170,1627784,1629010,1629140,1629678,1610612760,101108,1628977,1629652,201568,203488,0021901285,4,2683,2683,0,0,1610612764
184,1610612764,1626170,1627784,1629010,1629140,1629678,1610612760,101108,1628977,1629652,201568,203488,0021901285,4,2697,2697,0,3,1610612760
185,1610612764,1626170,1627784,1629010,1629140,1629678,1610612760,101108,1628977,1629652,201568,203488,0021901285,4,2708,2708,2,0,1610612764
186,1610612764,1626170,1627784,1629010,1629140,1629678,1610612760,101108,1628977,1629652,201568,203488,0021901285,4,2724,2724,0,2,1610612760
187,1610612764,1626170,1627784,1629010,1629140,1629678,1610612760,101108,1628977,1629652,201568,203488,0021901285,4,2743,2745,0,0,1610612764
188,1610612764,1626170,1627784,1629010,1629140,1629678,1610612760,101108,1628977,1629652,201568,203488,0021901285,4,2757,2760,0,0,1610612760
189,1610612764,1626170,1627784,1629010,1629140,1629678,1610612760,101108,1628977,1629652,201568,203488,0021901285,4,2764,2772,2,0,1610612764
190,1610612764,1626170,1627784,1629010,1629140,1629678,1610612760,1628390,1628977,1628985,1629126,1629647,0021901285,4,2796,2798,0,0,1610612760
191,1610612764,1626170,1627784,1629010,1629140,1629678,1610612760,1628390,1628977,1628985,1629126,1629647,0021901285,4,2807,2807,0,0,1610612764
192,1610612764,1626170,1627784,1629010,1629140,1629678,1610612760,1628390,1628977,1628985,1629126,1629647,0021901285,4,2815,2818,0,0,1610612760
193,1610612764,1626170,1627784,1629010,1629140,1629678,1610612760,1628390,1628977,1628985,1629126,1629647,0021901285,4,2824,2824,2,0,1610612764
194,1610612764,1626170,1627784,1629010,1629140,1629678,1610612760,1628390,1628977,1628985,1629126,1629647,0021901285,4,2836,2836,0,3,1610612760
195,1610612764,1626170,1627784,1629010,1629140,1629678,1610612760,1628390,1628977,1628985,1629126,1629647,0021901285,4,2847,2852,1,0,1610612764
196,1610612764,1626170,1627784,1629010,1629140,1629678,1610612760,1628390,1628977,1628985,1629126,1629647,0021901285,4,2870,2870,0,2,1610612760
197,1610612764,1626170,1627784,1629010,1629140,1629678,1610612760,1628390,1628977,1628985,1629126,1629647,0021901285,4,2878,2878,3,0,1610612764
