,team1_id,team1_player1,team1_player2,team1_player3,team1_player4,team1_player5,team2_id,team2_player1,team2_player2,team2_player3,team2_player4,team2_player5,game_id,period,possession_start,possession_end,team1_points,team2_points,possession_team
0,1610612766,1628970,1629667,1629023,1626179,1628984,1610612749,1629670,203648,1626171,1627854,201952,0022000796,1,0,17,0,0,1610612749
1,1610612766,1628970,1629667,1629023,1626179,1628984,1610612749,1629670,203648,1626171,1627854,201952,0022000796,1,24,27,0,0,1610612766
2,1610612766,1628970,1629667,1629023,1626179,1628984,1610612749,1629670,203648,1626171,1627854,201952,0022000796,1,37,39,0,0,1610612749
3,1610612766,1628970,1629667,1629023,1626179,1628984,1610612749,1629670,203648,1626171,1627854,201952,0022000796,1,49,49,3,0,1610612766
4,1610612766,1628970,1629667,1629023,1626179,1628984,1610612749,1629670,203648,1626171,1627854,201952,0022000796,1,70,70,0,2,1610612749
5,1610612766,1628970,1629667,1629023,1626179,1628984,1610612749,1629670,203648,1626171,1627854,201952,0022000796,1,93,93,2,0,1610612766
6,1610612766,1628970,1629667,1629023,1626179,1628984,1610612749,1629670,203648,1626171,1627854,201952,0022000796,1,105,105,0,2,1610612749
7,1610612766,1628970,1629667,1629023,1626179,1628984,1610612749,1629670,203648,1626171,1627854,201952,0022000796,1,117,117,2,0,1610612766
8,1610612766,1628970,1629667,1629023,1626179,1628984,1610612749,1629670,203648,1626171,1627854,201952,0022000796,1,140,145,0,2,1610612749
9,1610612766,1628970,1629667,1629023,1626179,1628984,1610612749,1629670,203648,1626171,1627854,201952,0022000796,1,161,164,0,0,1610612766
10,1610612766,1628970,1629667,1629023,1626179,1628984,1610612749,1629670,203648,1626171,1627854,201952,0022000796,1,171,171,0,3,1610612749
11,1610612766,1628970,1629667,1629023,1626179,1628984,1610612749,1629670,203648,1626171,1627854,201952,0022000796,1,191,191,3,0,1610612766
12,1610612766,1628970,1629667,1629023,1626179,1628984,1610612749,1629670,203648,1626171,1627854,201952,0022000796,1,217,220,0,0,1610612749
13,1610612766,1628970,1629667,1629023,1626179,1628984,1610612749,1629670,203648,1626171,1627854,201952,0022000796,1,233,239,2,0,1610612766
14,1610612766,1628970,1629667,1629023,1626179,1628984,1610612749,1626171,1627854,1629066,1629670,201952,0022000796,1,254,254,0,2,1610612749
15,1610612766,1628970,1629667,1629023,1626179,1628984,1610612749,1626171,1627854,1629066,1629670,201952,0022000796,1,269,272,0,0,1610612766
16,1610612766,1628970,1629667,1629023,1626179,1628984,1610612749,1626171,1627854,1629066,1629670,201952,0022000796,1,279,282,0,0,1610612749
17,1610612766,1628970,1629667,1629023,1626179,1628984,1610612749,1626171,1626192,1629066,1630241,201952,0022000796,1,298,303,2,0,1610612766
18,1610612766,1628970,1629667,1629023,1626179,1628984,1610612749,1626171,1626192,1629066,1630241,201952,0022000796,1,318,321,0,2,1610612749
19,1610612766,1628970,1629667,1629023,1626179,1628984,1610612749,1626171,1626192,1629066,1630241,201952,0022000796,1,339,343,0,0,1610612766
20,1610612766,1628970,1629667,1629023,1626179,1628984,1610612749,1626171,1626192,1629066,1630241,201952,0022000796,1,347,347,0,3,1610612749
21,1610612766,1628970,1629667,1629023,1626179,1628984,1610612749,1626171,1626192,1629066,1630241,201952,0022000796,1,358,358,3,0,1610612766
22,1610612766,1628970,1629667,1629023,1626179,1628984,1610612749,1626171,1626192,1629066,1630241,201952,0022000796,1,372,372,0,2,1610612749
23,1610612766,1628970,1629667,1629023,1626179,1628984,1610612749,1626171,1626192,1629066,1630241,201952,0022000796,1,389,389,3,0,1610612766
24,1610612766,1628970,1629667,1629023,1626179,1628984,1610612749,1626171,1626192,1629066,1630241,201952,0022000796,1,413,430,0,0,1610612749
25,1610612766,1626179,1628998,1629023,202954,203469,1610612749,1626192,1626253,1629603,1630241,203648,0022000796,1,441,445,0,0,1610612766
26,1610612766,1626179,1628998,1629023,202954,203469,1610612749,1626192,1626253,1629603,1630241,203648,0022000796,1,449,453,0,0,1610612749
27,1610612766,1626179,1628998,1629023,202954,203469,1610612749,1626192,1626253,1629603,1630241,203648,0022000796,1,455,455,2,0,1610612766
28,1610612766,1626179,1628998,1629023,202954,203469,1610612749,1626192,1626253,1629603,1630241,203648,0022000796,1,470,473,0,0,1610612749
29,1610612766,1626179,1628998,1629023,202954,203469,1610612749,1626192,1626253,1629603,1630241,203648,0022000796,1,474,474,2,0,1610612766
30,1610612766,1626179,1628998,1629023,202954,203469,1610612749,1626192,1626253,1629603,1630241,203648,0022000796,1,497,500,0,0,1610612749
31,1610612766,1626179,1628998,1629023,202954,203469,1610612749,1626192,1626253,1629603,1630241,203648,0022000796,1,502,506,0,0,1610612766
32,1610612766,1626179,1628998,1629023,202954,203469,1610612749,1626192,1626253,1629603,1630241,203648,0022000796,1,513,517,0,0,1610612749
33,1610612766,1626179,1628998,1629023,202954,203469,1610612749,1626192,1626253,1629603,1630241,203648,0022000796,1,522,532,0,0,1610612766
34,1610612766,1626179,1628998,1629023,202954,203469,1610612749,1626192,1626253,1629603,1630241,203648,0022000796,1,537,540,0,0,1610612749
35,1610612766,1626179,1628998,1629023,202954,203469,1610612749,1626192,1626253,1629603,1630241,203648,0022000796,1,547,547,2,0,1610612766
36,1610612766,1626179,1628998,1629023,202954,203469,1610612749,1626192,1626253,1629603,1630241,203648,0022000796,1,568,568,0,2,1610612749
37,1610612766,1626179,1628998,1629023,202954,203469,1610612749,1626192,1626253,1629603,1630241,203648,0022000796,1,573,585,2,0,1610612766
38,1610612766,1626179,1628970,1628998,202954,203469,1610612749,1626192,1627854,1629603,1630241,203648,0022000796,1,600,601,0,0,1610612749
39,1610612766,1628970,1628984,1628998,202954,203469,1610612749,1626253,1627854,1629603,1630241,203648,0022000796,1,603,603,0,0,1610612766
40,1610612766,1628970,1628984,1628998,202954,203469,1610612749,1626253,1627854,1629603,1630241,203648,0022000796,1,607,607,0,0,1610612749
41,1610612766,1628970,1628984,1628998,202954,203469,1610612749,1626253,1627854,1629603,1630241,203648,0022000796,1,617,620,0,0,1610612766
42,1610612766,1628970,1628984,1628998,202954,203469,1610612749,1626253,1627854,1629603,1630241,203648,0022000796,1,626,626,0,3,1610612749
43,1610612766,1628970,1628984,1628998,202954,203469,1610612749,1626253,1627854,1629603,1630241,203648,0022000796,1,642,642,0,0,1610612766
44,1610612766,1628970,1628984,1628998,202954,203469,1610612749,1626253,1627854,1629603,1630241,203648,0022000796,1,656,658,0,0,1610612749
45,1610612766,1628970,1628984,1628998,202954,203469,1610612749,1626253,1627854,1629603,1630241,203648,0022000796,1,665,665,2,0,1610612766
46,1610612766,1628970,1628984,1628997,202954,203469,1610612749,1626253,1627854,1629603,1630241,203648,0022000796,1,677,677,0,2,1610612749
47,1610612766,1628970,1628984,1628997,202954,203469,1610612749,1626253,1627854,1629603,1630241,203648,0022000796,1,680,680,2,0,1610612766
48,1610612766,1628970,1628984,1628997,202954,203469,1610612749,1626253,1627854,1629603,1630241,203648,0022000796,1,687,687,0,0,1610612749
49,1610612766,1628970,1628984,1628997,202954,203469,1610612749,1626253,1627854,1629603,1630241,203648,0022000796,1,705,705,0,0,1610612766
50,1610612766,1628970,1628984,1628997,202954,203469,1610612749,1626253,1627854,1629603,1630241,203648,0022000796,1,707,707,0,2,1610612749
51,1610612766,1628970,1628984,1628997,202954,203469,1610612749,1626253,1627854,1629603,1630241,203648,0022000796,1,715,720,0,0,1610612766
52,1610612766,1628970,1629667,1628984,203469,1628997,1610612749,1629670,1626171,1627854,201952,1629066,0022000796,2,720,738,0,0,1610612766
53,1610612766,1628970,1629667,1628984,203469,1628997,1610612749,1629670,1626171,1627854,201952,1629066,0022000796,2,751,755,0,0,1610612749
54,1610612766,1628970,1629667,1628984,203469,1628997,1610612749,1629670,1626171,1627854,201952,1629066,0022000796,2,761,766,2,0,1610612766
55,1610612766,1628970,1629667,1628984,203469,1628997,1610612749,1629670,1626171,1627854,201952,1629066,0022000796,2,769,780,0,2,1610612749
56,1610612766,1628970,1629667,1628984,203469,1628997,1610612749,1629670,1626171,1627854,201952,1629066,0022000796,2,791,791,3,0,1610612766
57,1610612766,1628970,1629667,1628984,203469,1628997,1610612749,1629670,1626171,1627854,201952,1629066,0022000796,2,805,806,0,0,1610612749
58,1610612766,1628970,1629667,1628984,203469,1628997,1610612749,1629670,1626171,1627854,201952,1629066,0022000796,2,822,822,2,0,1610612766
59,1610612766,1628970,1629667,1628984,203469,1628997,1610612749,1629670,1626171,1627854,201952,1629066,0022000796,2,830,830,0,0,1610612749
60,1610612766,1628970,1629667,1628984,203469,1628997,1610612749,1629670,1626171,1627854,201952,1629066,0022000796,2,847,847,3,0,1610612766
61,1610612766,1628970,1629667,1628984,203469,1628997,1610612749,1629670,1626171,1627854,201952,1629066,0022000796,2,848,873,0,2,1610612749
62,1610612766,1628970,1629667,1628984,203469,1628997,1610612749,1629670,1626171,1627854,201952,1629066,0022000796,2,890,890,2,0,1610612766
63,1610612766,1628970,1629667,1628984,203469,1628997,1610612749,1629670,1626171,1627854,201952,1629066,0022000796,2,910,912,0,0,1610612749
64,1610612766,1628970,1629667,1628984,203469,1628997,1610612749,1629670,1626171,1627854,201952,1629066,0022000796,2,922,922,2,0,1610612766
65,1610612766,1628970,1629667,1628984,203469,1628997,1610612749,1629670,1626171,1627854,201952,1629066,0022000796,2,935,935,0,2,1610612749
66,1610612766,1628970,1629667,1628984,203469,1628997,1610612749,1629670,1626171,1627854,201952,1629066,0022000796,2,954,959,2,0,1610612766
67,1610612766,1628970,1629667,1628984,203469,1628997,1610612749,1629670,1626171,1627854,201952,1629066,0022000796,2,967,967,0,3,1610612749
68,1610612766,1628970,1629667,1628984,203469,1628997,1610612749,1629670,1626171,1627854,201952,1629066,0022000796,2,986,986,0,0,1610612766
69,1610612766,1626179,1628970,1629023,1629667,202954,1610612749,1626171,1627854,1629066,1630241,201952,0022000796,2,998,998,0,0,1610612749
70,1610612766,1626179,1628970,1629023,1629667,202954,1610612749,1626171,1629066,1629670,1630241,201952,0022000796,2,1009,1012,0,0,1610612766
71,1610612766,1626179,1628970,1629023,1629667,202954,1610612749,1626171,1629066,1629670,1630241,201952,0022000796,2,1016,1018,0,0,1610612749
72,1610612766,1626179,1628970,1629023,1629667,202954,1610612749,1626171,1629066,1629670,1630241,201952,0022000796,2,1024,1027,0,0,1610612766
73,1610612766,1626179,1628970,1629023,1629667,202954,1610612749,1626171,1629066,1629670,1630241,201952,0022000796,2,1032,1032,0,3,1610612749
74,1610612766,1626179,1628970,1629023,1629667,202954,1610612749,1626171,1629066,1629670,1630241,201952,0022000796,2,1032,1050,0,0,1610612766
75,1610612766,1626179,1628970,1629023,1629667,202954,1610612749,1626171,1629066,1629670,1630241,201952,0022000796,2,1055,1055,0,2,1610612749
76,1610612766,1626179,1628970,1629023,1629667,202954,1610612749,1626171,1629066,1629670,1630241,201952,0022000796,2,1064,1067,0,0,1610612766
77,1610612766,1626179,1628970,1629023,1629667,202954,1610612749,1626171,1629066,1629670,1630241,201952,0022000796,2,1078,1090,0,0,1610612749
78,1610612766,1626179,1628970,1628997,1629023,202954,1610612749,1626171,1629066,1629670,1630241,201952,0022000796,2,1097,1097,3,0,1610612766
79,1610612766,1626179,1628970,1628997,1629023,202954,1610612749,1626171,1629066,1629670,1630241,201952,0022000796,2,1104,1104,0,3,1610612749
80,1610612766,1626179,1628970,1628997,1629023,202954,1610612749,1626171,1629066,1629670,1630241,201952,0022000796,2,1111,1111,3,0,1610612766
81,1610612766,1626179,1628970,1628997,1629023,202954,1610612749,1626171,1629066,1629670,1630241,201952,0022000796,2,1130,1130,0,0,1610612749
82,1610612766,1626179,1628997,1629023,202954,203469,1610612749,1626171,1629670,1630241,201952,203648,0022000796,2,1141,1145,2,0,1610612766
83,1610612766,1626179,1628997,1629023,202954,203469,1610612749,1626171,1629670,1630241,201952,203648,0022000796,2,1151,1151,0,2,1610612749
84,1610612766,1626179,1628997,1629023,202954,203469,1610612749,1626171,1629670,1630241,201952,203648,0022000796,2,1165,1168,0,0,1610612766
85,1610612766,1626179,1628997,1629023,202954,203469,1610612749,1626171,1629670,1630241,201952,203648,0022000796,2,1181,1181,0,2,1610612749
86,1610612766,1626179,1628997,1629023,202954,203469,1610612749,1626171,1629670,1630241,201952,203648,0022000796,2,1195,1203,0,0,1610612766
87,1610612766,1626179,1628997,1629023,202954,203469,1610612749,1626171,1629670,1630241,201952,203648,0022000796,2,1218,1221,0,0,1610612749
88,1610612766,1626179,1628997,1629023,202954,203469,1610612749,1626171,1629670,1630241,201952,203648,0022000796,2,1222,1222,0,0,1610612766
89,1610612766,1626179,1628997,1629023,202954,203469,1610612749,1626192,1629603,1629670,1630241,203648,0022000796,2,1235,1238,0,0,1610612749
90,1610612766,1626179,1628997,1629023,202954,203469,1610612749,1626192,1629603,1629670,1630241,203648,0022000796,2,1244,1247,0,0,1610612766
91,1610612766,1626179,1628997,1629023,202954,203469,1610612749,1626192,1629603,1629670,1630241,203648,0022000796,2,1251,1259,0,0,1610612749
92,1610612766,1626179,1628970,1629667,202954,203469,1610612749,1626192,1629603,1629670,1630241,203648,0022000796,2,1265,1270,0,0,1610612766
93,1610612766,1626179,1628970,1629667,202954,203469,1610612749,1626192,1629603,1629670,1630241,203648,0022000796,2,1275,1275,0,2,1610612749
94,1610612766,1626179,1628970,1628984,1629667,203469,1610612749,1626192,1629603,1629670,1630241,203648,0022000796,2,1288,1291,0,0,1610612766
95,1610612766,1626179,1628970,1628984,1629667,203469,1610612749,1626192,1629603,1629670,1630241,203648,0022000796,2,1302,1302,0,2,1610612749
96,1610612766,1626179,1628970,1628984,1629667,203469,1610612749,1626192,1627854,1629603,1630241,203648,0022000796,2,1314,1314,2,0,1610612766
97,1610612766,1626179,1628970,1628984,1629667,203469,1610612749,1626192,1627854,1629603,1630241,203648,0022000796,2,1327,1327,0,3,1610612749
98,1610612766,1626179,1628970,1628984,1629023,1629667,1610612749,1626192,1627854,1629603,1630241,203648,0022000796,2,1342,1342,3,0,1610612766
99,1610612766,1626179,1628970,1628984,1629023,1629667,1610612749,1626192,1627854,1629603,1630241,203648,0022000796,2,1359,1362,0,0,1610612749
100,1610612766,1626179,1628970,1628984,1629023,1629667,1610612749,1626192,1627854,1629603,1630241,203648,0022000796,2,1367,1367,0,0,1610612766
101,1610612766,1626179,1628970,1628984,1629023,1629667,1610612749,1626192,1627854,1629603,1630241,203648,0022000796,2,1373,1377,0,0,1610612749
102,1610612766,1626179,1628970,1628984,1629023,1629667,1610612749,1626192,1627854,1629603,1630241,203648,0022000796,2,1382,1386,0,0,1610612766
103,1610612766,1626179,1628970,1628984,1629023,1629667,1610612749,1626192,1627854,1629603,1630241,203648,0022000796,2,1393,1395,0,0,1610612749
104,1610612766,1626179,1628970,1628984,1629023,1629667,1610612749,1626192,1627854,1629603,1630241,203648,0022000796,2,1403,1403,3,0,1610612766
105,1610612766,1626179,1628970,1628984,1629023,1629667,1610612749,1626192,1627854,1629603,1630241,203648,0022000796,2,1411,1411,0,0,1610612749
106,1610612766,1626179,1628970,1628984,1629023,1629667,1610612749,1626192,1627854,1629603,1630241,203648,0022000796,2,1433,1433,2,0,1610612766
107,1610612766,1626179,1628970,1628984,1629023,1629667,1610612749,1626192,1627854,1629603,1630241,203648,0022000796,2,1440,1440,0,0,1610612749
108,1610612766,1628970,1629667,1629023,1626179,1628984,1610612749,1629670,203648,1626171,1627854,201952,0022000796,3,1440,1464,0,0,1610612766
109,1610612766,1628970,1629667,1629023,1626179,1628984,1610612749,1629670,203648,1626171,1627854,201952,0022000796,3,1471,1471,0,2,1610612749
110,1610612766,1628970,1629667,1629023,1626179,1628984,1610612749,1629670,203648,1626171,1627854,201952,0022000796,3,1478,1478,2,0,1610612766
111,1610612766,1628970,1629667,1629023,1626179,1628984,1610612749,1629670,203648,1626171,1627854,201952,0022000796,3,1478,1494,0,0,1610612749
112,1610612766,1628970,1629667,1629023,1626179,1628984,1610612749,1629670,203648,1626171,1627854,201952,0022000796,3,1495,1495,0,0,1610612766
113,1610612766,1628970,1629667,1629023,1626179,1628984,1610612749,1629670,203648,1626171,1627854,201952,0022000796,3,1499,1499,0,2,1610612749
114,1610612766,1628970,1629667,1629023,1626179,1628984,1610612749,1629670,203648,1626171,1627854,201952,0022000796,3,1511,1511,3,0,1610612766
115,1610612766,1628970,1629667,1629023,1626179,1628984,1610612749,1629670,203648,1626171,1627854,201952,0022000796,3,1530,1530,0,0,1610612749
116,1610612766,1628970,1629667,1629023,1626179,1628984,1610612749,1629670,203648,1626171,1627854,201952,0022000796,3,1544,1546,0,0,1610612766
117,1610612766,1628970,1629667,1629023,1626179,1628984,1610612749,1629670,203648,1626171,1627854,201952,0022000796,3,1557,1557,0,3,1610612749
118,1610612766,1628970,1629667,1629023,1626179,1628984,1610612749,1629670,203648,1626171,1627854,201952,0022000796,3,1583,1583,3,0,1610612766
119,1610612766,1628970,1629667,1629023,1626179,1628984,1610612749,1629670,203648,1626171,1627854,201952,0022000796,3,1598,1601,0,0,1610612749
120,1610612766,1628970,1629667,1629023,1626179,1628984,1610612749,1629670,203648,1626171,1627854,201952,0022000796,3,1613,1616,0,0,1610612766
121,1610612766,1628970,1629667,1629023,1626179,1628984,1610612749,1629670,203648,1626171,1627854,201952,0022000796,3,1616,1616,0,0,1610612749
122,1610612766,1628970,1629667,1629023,1626179,1628984,1610612749,1629670,203648,1626171,1627854,201952,0022000796,3,1617,1617,0,0,1610612766
123,1610612766,1628970,1629667,1629023,1626179,1628984,1610612749,1629670,203648,1626171,1627854,201952,0022000796,3,1627,1627,0,0,1610612749
124,1610612766,1628970,1629667,1629023,1626179,1628984,1610612749,1629670,203648,1626171,1627854,201952,0022000796,3,1639,1639,2,0,1610612766
125,1610612766,1628970,1629667,1629023,1626179,1628984,1610612749,1629670,203648,1626171,1627854,201952,0022000796,3,1653,1653,0,2,1610612749
126,1610612766,1628970,1629667,1629023,1626179,1628984,1610612749,1629670,203648,1626171,1627854,201952,0022000796,3,1660,1660,3,0,1610612766
127,1610612766,1628970,1629667,1629023,1626179,1628984,1610612749,1629670,203648,1626171,1627854,201952,0022000796,3,1673,1673,0,3,1610612749
128,1610612766,1628970,1629667,1629023,1626179,1628984,1610612749,1629670,203648,1626171,1627854,201952,0022000796,3,1686,1693,0,0,1610612766
129,1610612766,1628970,1629667,1629023,1626179,1628984,1610612749,1629670,203648,1626171,1627854,201952,0022000796,3,1698,1701,0,0,1610612749
130,1610612766,1628970,1629667,1629023,1626179,1628984,1610612749,1629670,203648,1626171,1627854,201952,0022000796,3,1706,1706,0,0,1610612766
131,1610612766,1628970,1629667,1629023,1626179,1628984,1610612749,1629670,203648,1626171,1627854,201952,0022000796,3,1716,1720,0,0,1610612749
132,1610612766,1628970,1629667,1629023,1626179,1628984,1610612749,1629670,203648,1626171,1627854,201952,0022000796,3,1722,1731,0,0,1610612766
133,1610612766,1628970,1629667,1629023,1626179,1628984,1610612749,1629670,203648,1626171,1627854,201952,0022000796,3,1735,1735,0,3,1610612749
134,1610612766,1626179,1628970,1629023,1629667,202954,1610612749,1629066,1629603,1629670,1630241,201952,0022000796,3,1749,1752,0,0,1610612766
135,1610612766,1626179,1628970,1629023,1629667,202954,1610612749,1629066,1629603,1629670,1630241,201952,0022000796,3,1765,1768,0,0,1610612749
136,1610612766,1626179,1628970,1629023,1629667,202954,1610612749,1629066,1629603,1629670,1630241,201952,0022000796,3,1777,1777,2,0,1610612766
137,1610612766,1626179,1628970,1629023,1629667,202954,1610612749,1629066,1629603,1629670,1630241,201952,0022000796,3,1789,1789,0,1,1610612749
138,1610612766,1626179,1629023,1629667,202954,203469,1610612749,1626192,1629066,1629603,1630241,201952,0022000796,3,1801,1801,2,0,1610612766
139,1610612766,1626179,1629023,1629667,202954,203469,1610612749,1626192,1629066,1629603,1630241,201952,0022000796,3,1816,1819,0,0,1610612749
140,1610612766,1626179,1629023,1629667,202954,203469,1610612749,1626192,1629066,1629603,1630241,201952,0022000796,3,1831,1835,1,0,1610612766
141,1610612766,1626179,1628997,1629023,202954,203469,1610612749,1626192,1629066,1629603,1630241,201952,0022000796,3,1848,1848,0,0,1610612749
142,1610612766,1626179,1628997,1629023,202954,203469,1610612749,1626192,1629066,1629603,1630241,201952,0022000796,3,1853,1853,2,0,1610612766
143,1610612766,1626179,1628997,1629023,202954,203469,1610612749,1626192,1629066,1629603,1630241,201952,0022000796,3,1868,1868,0,3,1610612749
144,1610612766,1626179,1628997,1629023,202954,203469,1610612749,1626192,1629066,1629603,1630241,201952,0022000796,3,1884,1884,3,0,1610612766
145,1610612766,1626179,1628997,1629023,202954,203469,1610612749,1626192,1629066,1629603,1630241,203648,0022000796,3,1906,1922,0,2,1610612749
146,1610612766,1626179,1628997,1629023,202954,203469,1610612749,1626192,1629066,1629603,1630241,203648,0022000796,3,1939,1939,0,0,1610612766
147,1610612766,1626179,1628997,1629023,202954,203469,1610612749,1626192,1629066,1629603,1630241,203648,0022000796,3,1942,1942,0,0,1610612749
148,1610612766,1626179,1628970,1628997,202954,203469,1610612749,1626192,1629066,1629603,1630241,203648,0022000796,3,1942,1957,0,0,1610612766
149,1610612766,1626179,1628970,1628997,202954,203469,1610612749,1626192,1626253,1629603,1630241,203648,0022000796,3,1969,1973,0,0,1610612749
150,1610612766,1626179,1628970,1628997,202954,203469,1610612749,1626192,1626253,1629603,1630241,203648,0022000796,3,1976,1976,2,0,1610612766
151,1610612766,1626179,1628970,1628997,202954,203469,1610612749,1626192,1626253,1629603,1630241,203648,0022000796,3,1985,1985,0,3,1610612749
152,1610612766,1626179,1628970,1628997,202954,203469,1610612749,1626192,1626253,1629603,1630241,203648,0022000796,3,1999,2002,0,0,1610612766
153,1610612766,1626179,1628970,1628997,202954,203469,1610612749,1626192,1626253,1629603,1630241,203648,0022000796,3,2018,2018,0,0,1610612749
154,1610612766,1626179,1628970,1628997,202954,203469,1610612749,1626192,1626253,1629603,1630241,203648,0022000796,3,2032,2039,3,0,1610612766
155,1610612766,1626179,1628970,1628997,202954,203469,1610612749,1626192,1626253,1629603,1630241,203648,0022000796,3,2050,2052,0,1,1610612749
156,1610612766,1628970,1628984,1628997,202954,203469,1610612749,1626192,1626253,1627854,1629603,203648,0022000796,3,2082,2082,2,0,1610612766
157,1610612766,1628970,1628984,1628997,202954,203469,1610612749,1626192,1626253,1627854,1629603,203648,0022000796,3,2092,2095,0,0,1610612749
158,1610612766,1628970,1628984,1628997,202954,203469,1610612749,1626192,1626253,1627854,1629603,203648,0022000796,3,2099,2099,0,0,1610612766
159,1610612766,1628970,1628984,1628997,202954,203469,1610612749,1626192,1626253,1627854,1629603,203648,0022000796,3,2102,2102,0,0,1610612749
160,1610612766,1628970,1628984,1628998,202954,203469,1610612749,1626192,1626253,1627854,1629603,203648,0022000796,3,2116,2116,0,0,1610612766
161,1610612766,1628970,1628984,1628998,202954,203469,1610612749,1626192,1626253,1627854,1629603,203648,0022000796,3,2116,2116,0,1,1610612749
162,1610612766,1628970,1628984,1628998,202954,203469,1610612749,1626192,1626253,1627854,1629603,203648,0022000796,3,2128,2129,2,0,1610612766
163,1610612766,1628970,1628984,1628998,202954,203469,1610612749,1626192,1626253,1627854,1629603,203648,0022000796,3,2145,2147,0,0,1610612749
164,1610612766,1628970,1628984,1628998,202954,203469,1610612749,1626192,1626253,1627854,1629603,203648,0022000796,3,2150,2150,2,0,1610612766
165,1610612766,1628970,1628984,1628998,202954,203469,1610612749,1626192,1626253,1627854,1629603,203648,0022000796,3,2160,2160,0,0,1610612766
166,1610612766,1628970,1629667,1628984,1628998,203469,1610612749,1629670,1626171,1627854,201952,1626192,0022000796,4,2160,2181,0,2,1610612749
167,1610612766,1628970,1629667,1628984,1628998,203469,1610612749,1629670,1626171,1627854,201952,1626192,0022000796,4,2198,2207,0,0,1610612766
168,1610612766,1628970,1629667,1628984,1628998,203469,1610612749,1629670,1626171,1627854,201952,1626192,0022000796,4,2222,2222,0,2,1610612749
169,1610612766,1628970,1629667,1628984,1628998,203469,1610612749,1629670,1626171,1627854,201952,1626192,0022000796,4,2233,2233,2,0,1610612766
170,1610612766,1628970,1629667,1628984,1628998,203469,1610612749,1629670,1626171,1627854,201952,1626192,0022000796,4,2242,2242,0,3,1610612749
171,1610612766,1628970,1629667,1628984,1628998,203469,1610612749,1629670,1626171,1627854,201952,1626192,0022000796,4,2260,2260,3,0,1610612766
172,1610612766,1628970,1629667,1628984,1628998,203469,1610612749,1629670,1626171,1627854,201952,1626192,0022000796,4,2272,2275,0,0,1610612749
173,1610612766,1628970,1629667,1628984,1628998,203469,1610612749,1629670,1626171,1627854,201952,1626192,0022000796,4,2287,2287,3,0,1610612766
174,1610612766,1628970,1629667,1628984,1628998,203469,1610612749,1629670,1626171,1627854,201952,1626192,0022000796,4,2304,2307,0,0,1610612749
175,1610612766,1628970,1629667,1628984,1628998,203469,1610612749,1629670,1626171,1627854,201952,1626192,0022000796,4,2312,2318,0,0,1610612766
176,1610612766,1628970,1629667,1628984,1628998,203469,1610612749,1629670,1626171,1627854,201952,1626192,0022000796,4,2318,2329,0,2,1610612749
177,1610612766,1626179,1628970,1628998,1629023,1629667,1610612749,1626171,1626253,1627854,1629670,201952,0022000796,4,2354,2354,0,0,1610612766
178,1610612766,1626179,1628970,1628998,1629023,1629667,1610612749,1626171,1626253,1627854,1629670,201952,0022000796,4,2370,2370,0,2,1610612749
179,1610612766,1626179,1628970,1628998,1629023,1629667,1610612749,1626171,1626253,1627854,1629670,201952,0022000796,4,2370,2393,0,0,1610612766
180,1610612766,1626179,1628970,1628998,1629023,1629667,1610612749,1626171,1626253,1627854,1629670,201952,0022000796,4,2395,2395,0,2,1610612749
181,1610612766,1626179,1628970,1629023,1629667,202954,1610612749,1626171,1626253,1627854,1629670,201952,0022000796,4,2407,2407,2,0,1610612766
182,1610612766,1626179,1628970,1629023,1629667,202954,1610612749,1626171,1626253,1627854,1629670,201952,0022000796,4,2416,2416,0,0,1610612749
183,1610612766,1626179,1628970,1629023,1629667,202954,1610612749,1626171,1626253,1627854,1629670,201952,0022000796,4,2433,2448,2,0,1610612766
184,1610612766,1626179,1628970,1629023,1629667,202954,1610612749,1626171,1626253,1627854,1629670,201952,0022000796,4,2448,2448,0,0,1610612749
185,1610612766,1626179,1628970,1629023,1629667,202954,1610612749,1626171,1626253,1627854,1629670,201952,0022000796,4,2451,2452,0,0,1610612766
186,1610612766,1626179,1628970,1629023,1629667,202954,1610612749,1626171,1626253,1627854,1629670,201952,0022000796,4,2452,2468,0,0,1610612749
187,1610612766,1626179,1628970,1629023,1629667,202954,1610612749,1626253,1627854,1629603,1629670,201952,0022000796,4,2475,2475,1,0,1610612766
188,1610612766,1626179,1628970,1629023,1629667,202954,1610612749,1626253,1629603,1629670,1630241,203648,0022000796,4,2492,2492,0,2,1610612749
189,1610612766,1626179,1628970,1629023,1629667,202954,1610612749,1626253,1629603,1629670,1630241,203648,0022000796,4,2517,2517,3,0,1610612766
190,1610612766,1626179,1628970,1629023,1629667,202954,1610612749,1626253,1629603,1629670,1630241,203648,0022000796,4,2533,2533,0,3,1610612749
191,1610612766,1626179,1628970,1629023,1629667,202954,1610612749,1626253,1629603,1629670,1630241,203648,0022000796,4,2553,2556,0,0,1610612766
192,1610612766,1626179,1628970,1629023,1629667,202954,1610612749,1626253,1629603,1629670,1630241,203648,0022000796,4,2562,2564,0,0,1610612749
193,1610612766,1626179,1628970,1629023,1629667,202954,1610612749,1626253,1629603,1629670,1630241,203648,0022000796,4,2570,2570,3,0,1610612766
194,1610612766,1626179,1628970,1629023,1629667,202954,1610612749,1626253,1629603,1629670,1630241,203648,0022000796,4,2589,2589,0,2,1610612749
195,1610612766,1626179,1628970,1629023,1629667,202954,1610612749,1626253,1629603,1629670,1630241,203648,0022000796,4,2606,2606,3,0,1610612766
196,1610612766,1626179,1628970,1629023,1629667,202954,1610612749,1626253,1629603,1629670,1630241,203648,0022000796,4,2620,2624,0,0,1610612749
197,1610612766,1626179,1628970,1629023,1629667,202954,1610612749,1626253,1629603,1629670,1630241,203648,0022000796,4,2632,2635,0,0,1610612766
198,1610612766,1626179,1628970,1629023,1629667,202954,1610612749,1626253,1629603,1629670,1630241,203648,0022000796,4,2641,2641,0,1,1610612749
199,1610612766,1628970,1628997,1629023,1629667,202954,1610612749,1626253,1629603,1629670,1630241,203648,0022000796,4,2659,2662,0,0,1610612766
200,1610612766,1628970,1628997,1629023,1629667,202954,1610612749,1626253,1629603,1629670,1630241,203648,0022000796,4,2667,2667,0,2,1610612749
201,1610612766,1628970,1628997,1629023,1629667,202954,1610612749,1626253,1629603,1629670,1630241,203648,0022000796,4,2667,2685,0,0,1610612766
202,1610612766,1628997,1628998,1629023,1630176,202954,1610612749,1626253,1629066,1629603,1629670,1630241,0022000796,4,2686,2708,0,0,1610612749
203,1610612766,1628997,1628998,1629023,1630176,202954,1610612749,1626253,1629066,1629603,1629670,1630241,0022000796,4,2725,2725,2,0,1610612766
204,1610612766,1628997,1628998,1629023,1630176,202954,1610612749,1626253,1629066,1629603,1629670,1630241,0022000796,4,2732,2732,0,2,1610612749
205,1610612766,1628998,1630176,1630203,1630208,1630268,1610612749,1626253,1629066,1629603,1629670,1630241,0022000796,4,2746,2746,0,0,1610612766
206,1610612766,1628998,1630176,1630203,1630208,1630268,1610612749,1626253,1629066,1629603,1629670,1630241,0022000796,4,2750,2750,0,2,1610612749
207,1610612766,1628998,1630176,1630203,1630208,1630268,1610612749,1626253,1629066,1629603,1629670,1630241,0022000796,4,2768,2771,0,0,1610612766
208,1610612766,1628998,1630176,1630203,1630208,1630268,1610612749,1626253,1629066,1629603,1629670,1630241,0022000796,4,2778,2778,0,2,1610612749
209,1610612766,1628998,1630176,1630203,1630208,1630268,1610612749,1626253,1629066,1629603,1629670,1630241,0022000796,4,2795,2798,0,0,1610612766
210,1610612766,1628998,1630176,1630203,1630208,1630268,1610612749,1626253,1629066,1629603,1629670,1630241,0022000796,4,2806,2806,0,2,1610612749
211,1610612766,1628998,1630176,1630203,1630208,1630268,1610612749,1626253,1629066,1629603,1629670,1630241,0022000796,4,2811,2811,0,0,1610612766
212,1610612766,1628998,1630176,1630203,1630208,1630268,1610612749,1626253,1629066,1629603,1629670,1630241,0022000796,4,2826,2826,0,3,1610612749
213,1610612766,1628998,1630176,1630203,1630208,1630268,1610612749,1626253,1629066,1629603,1629670,1630241,0022000796,4,2844,2844,3,0,1610612766
214,1610612766,1628998,1630176,1630203,1630208,1630268,1610612749,1626253,1629066,1629603,1629670,1630241,0022000796,4,2855,2855,0,4,1610612749
215,1610612766,1628998,1630176,1630203,1630208,1630268,1610612749,1626253,1629066,1629603,1629670,1630241,0022000796,4,2879,2879,0,0,1610612766
