,t1_points_scored,stint_end,t2_pm,t1_players,t2_id,t1_id,t2_players,t2_points_scored,t1_pm,stint_start,margin_per_100,num_poss
0,12,252,-4,"[1627742, 1629026, 1629637, 200755, 201950]",1610612756,1610612740,"[1626162, 203967, 1626163, 1626164, 204020]",8,4,0,21.052631578947366,19.0
1,14,295,-4,"[1627742, 1629026, 1629637, 200755, 201950]",1610612756,1610612740,"[1626162, 203967, 1626163, 1626164, 204020]",10,4,253,18.181818181818183,22.0
2,25,384,-10,"[1627742, 1629637, 1629740, 200755, 201950]",1610612756,1610612740,"[1626162, 203967, 1626163, 1626164, 204020]",15,10,296,34.48275862068966,29.0
3,25,435,-10,"[1627742, 1629637, 1629740, 200755, 201950]",1610612756,1610612740,"[1626163, 1626164, 1628969, 1629661, 204020]",15,10,385,30.303030303030305,33.0
4,25,462,-8,"[1627742, 1629637, 1629740, 200755, 201950]",1610612756,1610612740,"[1626163, 1626164, 1628969, 1629059, 1629661]",17,8,436,23.52941176470588,34.0
5,30,547,-8,"[1627742, 1628366, 1629637, 1629740, 200755]",1610612756,1610612740,"[1626164, 1627767, 1628969, 1629059, 1629661]",22,8,463,20.0,40.0
6,32,574,-10,"[1627742, 1628366, 1628402, 1629740, 200755]",1610612756,1610612740,"[1626164, 1627767, 1628969, 1629059, 1629661]",22,10,548,23.25581395348837,43.0
7,38,685,-8,"[1628366, 1628402, 1629740, 200755, 202734]",1610612756,1610612740,"[1626164, 1627767, 1628969, 1629059, 1629661]",30,8,575,15.686274509803921,51.0
8,38,719,-5,"[1628366, 1628402, 1629740, 201950, 202734]",1610612756,1610612740,"[1626164, 1627767, 1628969, 1629059, 1629661]",33,5,686,9.25925925925926,54.0
9,44,853,-7,"[1628366, 1628402, 1629740, 201950, 202734]",1610612756,1610612740,"[1626164, 1627767, 1628969, 1628975, 1629059]",37,7,720,11.11111111111111,63.0
10,46,953,-1,"[1629637, 201950, 1628366, 1628402, 202734]",1610612756,1610612740,"[1626162, 1628969, 1629059, 1627767, 1628975]",45,1,854,1.4285714285714286,70.0
11,51,1031,-3,"[1629637, 201950, 1628366, 1628402, 202734]",1610612756,1610612740,"[1626162, 1626163, 1628969, 1628975, 1629059]",48,3,954,4.0,75.0
12,51,1106,-1,"[1627742, 1628402, 1629637, 201950, 202734]",1610612756,1610612740,"[1626162, 1626163, 1628969, 1628975, 204020]",50,1,1032,1.25,80.0
13,51,1132,-1,"[1627742, 1628402, 1629637, 200755, 201950]",1610612756,1610612740,"[1626162, 1626163, 1626164, 203967, 204020]",50,1,1107,1.2195121951219512,82.0
14,54,1193,-2,"[1627742, 1628366, 1629026, 1629637, 200755]",1610612756,1610612740,"[1626162, 1626164, 1629661, 203967, 204020]",52,2,1133,2.3255813953488373,86.0
15,54,1219,0,"[1627742, 1628366, 1629026, 1629637, 200755]",1610612756,1610612740,"[1626162, 1626164, 1628969, 203967, 204020]",54,0,1194,0.0,88.0
16,57,1340,4,"[1627742, 1628366, 1629026, 1629740, 200755]",1610612756,1610612740,"[1626162, 1626164, 1628969, 203967, 204020]",61,-4,1220,-4.0,100.0
17,59,1358,2,"[1627742, 1629026, 1629740, 200755, 201950]",1610612756,1610612740,"[1626162, 1626164, 1628969, 203967, 204020]",61,-2,1341,-1.9801980198019802,101.0
18,59,1438,4,"[1627742, 1629026, 1629740, 200755, 201950]",1610612756,1610612740,"[1626162, 1626164, 1629059, 203967, 204020]",63,-4,1359,-3.7383177570093453,107.0
19,74,1676,-2,"[1628402, 1629026, 1629740, 200755, 202734]",1610612756,1610612740,"[1626162, 1626164, 1629059, 203967, 204020]",72,2,1439,1.6260162601626018,123.0
20,78,1718,-6,"[1627742, 1629026, 1629637, 200755, 201950]",1610612756,1610612740,"[1626162, 203967, 1626163, 1626164, 204020]",72,6,1677,4.761904761904762,126.0
21,83,1825,-7,"[1627742, 1629026, 1629637, 200755, 201950]",1610612756,1610612740,"[1626162, 1626163, 1626164, 1628969, 204020]",76,7,1719,5.263157894736842,133.0
22,87,1892,-8,"[1628366, 1629026, 1629740, 200755, 201950]",1610612756,1610612740,"[1626162, 1626163, 1626164, 1628969, 204020]",79,8,1826,5.839416058394161,137.0
23,91,2016,-5,"[1628366, 1629026, 1629740, 200755, 201950]",1610612756,1610612740,"[1626162, 1626164, 1627767, 1628969, 1629059]",86,5,1893,3.4246575342465753,146.0
24,93,2063,-3,"[1628366, 1629740, 200755, 201950, 202734]",1610612756,1610612740,"[1626164, 1627767, 1628969, 1629059, 1629661]",90,3,2017,2.013422818791946,149.0
25,93,2105,-1,"[1628366, 1628402, 1629740, 200755, 202734]",1610612756,1610612740,"[1626164, 1627767, 1628969, 1629059, 1629661]",92,1,2064,0.6578947368421052,152.0
26,95,2144,-1,"[1628402, 1629638, 1629740, 200755, 202734]",1610612756,1610612740,"[1627767, 1628969, 1628975, 1629059, 1629661]",94,1,2106,0.6493506493506493,154.0
27,97,2186,-3,"[1628402, 1629026, 1629638, 200755, 202734]",1610612756,1610612740,"[1627767, 1628969, 1628975, 1629059, 1629661]",94,3,2145,1.9230769230769231,156.0
28,103,2261,-7,"[1627742, 1629026, 1629637, 201950, 202734]",1610612756,1610612740,"[1628969, 1629661, 1629059, 1627767, 1628975]",96,7,2187,4.3478260869565215,161.0
29,107,2389,-4,"[1627742, 1629026, 1629740, 201950, 202734]",1610612756,1610612740,"[1628969, 1629661, 1629059, 1627767, 1628975]",103,4,2262,2.3391812865497075,171.0
30,107,2419,-4,"[1627742, 1629026, 1629740, 201950, 202734]",1610612756,1610612740,"[1626162, 1626163, 1628969, 1629059, 1629661]",103,4,2390,2.3255813953488373,172.0
31,117,2618,-6,"[1627742, 1629026, 200755, 201950, 202734]",1610612756,1610612740,"[1626162, 1626163, 1626164, 1628969, 204020]",111,6,2420,3.260869565217391,184.0
32,124,2861,-9,"[1627742, 1628366, 1629026, 200755, 202734]",1610612756,1610612740,"[1626162, 1626163, 1626164, 1628969, 204020]",115,9,2619,4.5,200.0
33,124,2877,-6,"[1627742, 1629026, 200755, 201950, 202734]",1610612756,1610612740,"[1626162, 1626164, 1628969, 1629661, 204020]",118,6,2862,2.9702970297029703,202.0
34,124,2879,-3,"[1627742, 1628366, 200755, 201950, 202734]",1610612756,1610612740,"[1626162, 1626164, 1628969, 1629661, 204020]",121,3,2878,1.477832512315271,203.0
35,124,9999999,-3,"[1627742, 1629026, 1629637, 200755, 201950]",1610612756,1610612740,"[1626162, 1626164, 1628969, 1629661, 204020]",121,3,2880,1.4634146341463417,205.0
