,TEAM_ID_1,TEAM_1_PLAYERS,TEAM_ID_2,TEAM_2_PLAYERS,PERIOD
0,1610612749,[ 203114  203507  201572 1628960  201950],1610612762,[ 202711 1626220  203497 1628378  201144],1
1,1610612749,[ 203114  203507  201572  201950 1629091],1610612762,[ 203497  201144  203903 1629672 1629671],2
2,1610612749,[ 203114  203507  201572 1628960  201950],1610612762,[ 203903  202355 1629672 1629671 1630215],3
3,1610612749,[ 203114  201572 1628960  201950 1629670],1610612762,[1629671 1630190 1630238 1628962 1630617],4
