,team1_id,team1_player1,team1_player2,team1_player3,team1_player4,team1_player5,team2_id,team2_player1,team2_player2,team2_player3,team2_player4,team2_player5,game_id,period,possession_start,possession_end,team1_points,team2_points,possession_team
0,1610612749,203114,203507,201572,1628978,201950,1610612755,201980,202699,1628396,203552,1627732,0022000618,1,0,23,0,0,1610612749
1,1610612749,203114,203507,201572,1628978,201950,1610612755,201980,202699,1628396,203552,1627732,0022000618,1,31,36,0,2,1610612755
2,1610612749,203114,203507,201572,1628978,201950,1610612755,201980,202699,1628396,203552,1627732,0022000618,1,36,48,0,0,1610612749
3,1610612749,203114,203507,201572,1628978,201950,1610612755,201980,202699,1628396,203552,1627732,0022000618,1,52,52,0,0,1610612755
4,1610612749,203114,203507,201572,1628978,201950,1610612755,201980,202699,1628396,203552,1627732,0022000618,1,61,61,2,0,1610612749
5,1610612749,203114,203507,201572,1628978,201950,1610612755,201980,202699,1628396,203552,1627732,0022000618,1,78,78,0,0,1610612755
6,1610612749,203114,203507,201572,1628978,201950,1610612755,201980,202699,1628396,203552,1627732,0022000618,1,83,83,2,0,1610612749
7,1610612749,203114,203507,201572,1628978,201950,1610612755,201980,202699,1628396,203552,1627732,0022000618,1,88,88,0,3,1610612755
8,1610612749,203114,203507,201572,1628978,201950,1610612755,201980,202699,1628396,203552,1627732,0022000618,1,100,100,0,0,1610612749
9,1610612749,203114,203507,201572,1628978,201950,1610612755,201980,202699,1628396,203552,1627732,0022000618,1,116,119,0,0,1610612755
10,1610612749,203114,203507,201572,1628978,201950,1610612755,201980,202699,1628396,203552,1627732,0022000618,1,123,126,0,0,1610612749
11,1610612749,203114,203507,201572,1628978,201950,1610612755,201980,202699,1628396,203552,1627732,0022000618,1,139,139,0,2,1610612755
12,1610612749,203114,203507,201572,1628978,201950,1610612755,201980,202699,1628396,203552,1627732,0022000618,1,144,144,0,0,1610612749
13,1610612749,203114,203507,201572,1628978,201950,1610612755,201980,202699,1628396,203552,1627732,0022000618,1,167,169,0,0,1610612755
14,1610612749,203114,203507,201572,1628978,201950,1610612755,201980,202699,1628396,203552,1627732,0022000618,1,173,173,2,0,1610612749
15,1610612749,203114,203507,201572,1628978,201950,1610612755,201980,202699,1628396,203552,1627732,0022000618,1,186,186,0,2,1610612755
16,1610612749,203114,203507,201572,1628978,201950,1610612755,201980,202699,1628396,203552,1627732,0022000618,1,207,209,0,0,1610612749
17,1610612749,203114,203507,201572,1628978,201950,1610612755,201980,202699,1628396,203552,1627732,0022000618,1,212,216,0,0,1610612755
18,1610612749,203114,203507,201572,1628978,201950,1610612755,201980,202699,1628396,203552,1627732,0022000618,1,230,230,0,0,1610612749
19,1610612749,203114,203507,201572,1628978,201950,1610612755,201980,202699,1628396,203552,1627732,0022000618,1,247,247,0,0,1610612755
20,1610612749,203114,203507,201572,1628978,201950,1610612755,201980,202699,1628396,203552,1627732,0022000618,1,253,268,2,0,1610612749
21,1610612749,203114,203507,201572,1628978,201950,1610612755,201980,202699,1628396,203552,1627732,0022000618,1,285,285,0,0,1610612755
22,1610612749,1626192,201572,201950,203114,203507,1610612755,201980,202699,1628396,203552,1627732,0022000618,1,295,295,1,0,1610612749
23,1610612749,1626192,201572,201950,203114,203648,1610612755,201980,202699,1628396,203552,1627732,0022000618,1,306,306,0,0,1610612755
24,1610612749,1626192,201572,201950,203114,203648,1610612755,201980,202699,1628396,203552,1627732,0022000618,1,313,313,2,0,1610612749
25,1610612749,1626192,201572,201950,203114,203648,1610612755,201980,202699,1628396,203552,1627732,0022000618,1,329,329,0,0,1610612755
26,1610612749,1626192,201572,201950,203114,203648,1610612755,201980,202699,1628396,203552,1627732,0022000618,1,329,338,0,0,1610612749
27,1610612749,1626192,201572,201950,203114,203507,1610612755,201980,202699,1628396,203552,1627732,0022000618,1,361,361,0,2,1610612755
28,1610612749,1626192,201572,201950,203114,203507,1610612755,201980,202699,1628396,203552,1627732,0022000618,1,372,376,0,0,1610612749
29,1610612749,1626192,201572,201950,203114,203507,1610612755,201980,202699,1628396,203552,1627732,0022000618,1,386,386,0,3,1610612755
30,1610612749,1626192,201572,201950,203114,203507,1610612755,201980,202699,1628396,203552,1627732,0022000618,1,403,403,0,0,1610612749
31,1610612749,1626192,201572,201950,203114,203507,1610612755,201980,202699,1628396,203552,1627732,0022000618,1,410,414,0,0,1610612755
32,1610612749,1626192,201572,201950,203114,203507,1610612755,201980,202699,1628396,203552,1627732,0022000618,1,419,422,0,0,1610612749
33,1610612749,1626192,201572,201950,203114,203507,1610612755,201980,202699,1628396,203552,1627732,0022000618,1,425,425,0,0,1610612755
34,1610612749,1626171,1626192,201950,203114,203507,1610612755,1627732,201980,202699,203552,2730,0022000618,1,437,437,0,0,1610612749
35,1610612749,1626171,1626192,201950,203114,203507,1610612755,1627732,201980,202699,203552,2730,0022000618,1,455,470,0,0,1610612755
36,1610612749,1626171,1626192,201950,203114,203507,1610612755,1627732,201980,202699,203552,2730,0022000618,1,472,472,2,0,1610612749
37,1610612749,1626171,1626192,201950,203114,203507,1610612755,1627732,201980,202699,203552,2730,0022000618,1,481,484,0,0,1610612755
38,1610612749,1626171,1626192,201950,203114,203507,1610612755,1627732,201980,202699,203552,2730,0022000618,1,490,493,0,0,1610612749
39,1610612749,1626171,1626192,201950,203114,203507,1610612755,1627732,201980,202699,203552,2730,0022000618,1,513,515,0,0,1610612755
40,1610612749,1626171,1626192,201950,203114,203507,1610612755,1627732,201980,202699,203552,2730,0022000618,1,519,519,0,0,1610612749
41,1610612749,1626171,1626192,201950,203114,203507,1610612755,1627732,1629003,202699,203552,2730,0022000618,1,535,537,0,0,1610612755
42,1610612749,1626171,1626192,201950,203114,203507,1610612755,1627732,1629003,202699,203552,2730,0022000618,1,541,546,0,0,1610612749
43,1610612749,1626171,1626192,201950,203114,203507,1610612755,1627732,1629003,202699,203552,2730,0022000618,1,550,550,0,2,1610612755
44,1610612749,1626171,1626192,201950,203114,203507,1610612755,1627732,1629003,202699,203552,2730,0022000618,1,550,560,2,0,1610612749
45,1610612749,1626171,1626192,1627854,1628978,203507,1610612755,1627732,1627788,1629003,202699,2730,0022000618,1,576,576,0,0,1610612755
46,1610612749,1626171,1626192,1627854,1628978,203507,1610612755,1627732,1627788,1629003,202699,2730,0022000618,1,588,591,0,0,1610612749
47,1610612749,1626171,1626192,1627854,1628978,203507,1610612755,1627732,1627788,1629003,202699,2730,0022000618,1,602,602,0,2,1610612755
48,1610612749,1626171,1626192,1627854,1628978,203507,1610612755,1627732,1627788,1629003,202699,2730,0022000618,1,618,620,0,0,1610612749
49,1610612749,1626171,1626192,1627854,1628978,203507,1610612755,1627732,1627788,1629003,202699,2730,0022000618,1,630,632,0,0,1610612755
50,1610612749,1626171,1626192,1627854,1628978,203507,1610612755,1627732,1627788,1629003,202699,2730,0022000618,1,642,645,0,0,1610612749
51,1610612749,1626171,1626192,1627854,1628978,203507,1610612755,1627732,1627788,1629003,202699,2730,0022000618,1,654,654,0,2,1610612755
52,1610612749,1626171,1626192,1627854,1628978,203507,1610612755,1627732,1627788,1629003,202699,2730,0022000618,1,666,669,0,0,1610612749
53,1610612749,1626171,1626192,1627854,1628978,203507,1610612755,1627732,1627788,1629003,202699,2730,0022000618,1,677,677,0,3,1610612755
54,1610612749,1626171,1626192,1627854,1628978,203507,1610612755,1627732,1627788,1629003,202699,2730,0022000618,1,690,690,3,0,1610612749
55,1610612749,1626171,1626192,1627854,1628978,203507,1610612755,1627732,1627788,1629003,202699,2730,0022000618,1,707,707,0,2,1610612755
56,1610612749,1626171,1626192,1627854,1628978,203507,1610612755,1627732,1627788,1629003,202699,2730,0022000618,1,718,720,0,0,1610612749
57,1610612749,203114,201572,1628978,1626171,1627854,1610612755,2730,1629003,1627788,203118,1629680,0022000618,2,720,729,0,0,1610612755
58,1610612749,203114,201572,1628978,1626171,1627854,1610612755,2730,1629003,1627788,203118,1629680,0022000618,2,733,744,0,0,1610612749
59,1610612749,203114,201572,1628978,1626171,1627854,1610612755,2730,1629003,1627788,203118,1629680,0022000618,2,749,759,0,0,1610612755
60,1610612749,203114,201572,1628978,1626171,1627854,1610612755,2730,1629003,1627788,203118,1629680,0022000618,2,766,766,0,0,1610612749
61,1610612749,203114,201572,1628978,1626171,1627854,1610612755,2730,1629003,1627788,203118,1629680,0022000618,2,778,778,0,0,1610612755
62,1610612749,203114,201572,1628978,1626171,1627854,1610612755,2730,1629003,1627788,203118,1629680,0022000618,2,783,797,0,0,1610612749
63,1610612749,203114,201572,1628978,1626171,1627854,1610612755,2730,1629003,1627788,203118,1629680,0022000618,2,797,813,0,2,1610612755
64,1610612749,203114,201572,1628978,1626171,1627854,1610612755,2730,1629003,1627788,203118,1629680,0022000618,2,819,819,0,0,1610612749
65,1610612749,203114,201572,1628978,1626171,1627854,1610612755,2730,1629003,1627788,203118,1629680,0022000618,2,829,829,0,2,1610612755
66,1610612749,203114,201572,1628978,1626171,1627854,1610612755,2730,1629003,1627788,203118,1629680,0022000618,2,848,850,0,0,1610612749
67,1610612749,203114,201572,1628978,1626171,1627854,1610612755,2730,1629003,1627788,203118,1629680,0022000618,2,852,852,0,0,1610612755
68,1610612749,1626171,1627854,201572,201950,203114,1610612755,2730,1629003,1627788,203118,1629680,0022000618,2,866,869,0,0,1610612749
69,1610612749,1626171,1627854,201572,201950,203114,1610612755,2730,1629003,1627788,203118,1629680,0022000618,2,883,885,0,0,1610612755
70,1610612749,1626171,1627854,201572,201950,203114,1610612755,2730,1629003,1627788,203118,1629680,0022000618,2,895,895,2,0,1610612749
71,1610612749,1626171,1627854,201572,201950,203114,1610612755,2730,1629003,1627788,203118,1629680,0022000618,2,913,916,0,0,1610612755
72,1610612749,1626171,1627854,201572,201950,203114,1610612755,2730,1629003,1627788,203118,1629680,0022000618,2,919,922,0,0,1610612749
73,1610612749,1626171,1627854,201572,201950,203114,1610612755,2730,1629003,1627788,203118,1629680,0022000618,2,931,931,0,2,1610612755
74,1610612749,1626171,1627854,201572,201950,203114,1610612755,2730,1629003,1627788,203118,1629680,0022000618,2,950,963,0,0,1610612749
75,1610612749,1626192,1627854,201572,201950,203114,1610612755,2730,1629003,1627788,203118,1629680,0022000618,2,966,966,0,2,1610612755
76,1610612749,1626192,1627854,201572,201950,203114,1610612755,2730,1629003,1627788,203118,1629680,0022000618,2,979,979,0,0,1610612749
77,1610612749,1626192,1627854,201572,201950,203114,1610612755,2730,1629003,1627788,203118,1629680,0022000618,2,996,1000,0,2,1610612755
78,1610612749,1626192,201572,201950,203114,203507,1610612755,1627732,1629003,1629680,203118,2730,0022000618,2,1001,1014,0,0,1610612749
79,1610612749,1626192,201572,201950,203114,203507,1610612755,1627732,1629003,1629680,203118,2730,0022000618,2,1031,1035,0,0,1610612755
80,1610612749,1626192,201572,201950,203114,203507,1610612755,1627732,1629003,1629680,203118,2730,0022000618,2,1036,1036,0,0,1610612749
81,1610612749,1626192,201572,201950,203114,203507,1610612755,1627732,1629680,203118,203552,2730,0022000618,2,1049,1049,0,0,1610612755
82,1610612749,1626192,201572,201950,203114,203507,1610612755,1627732,1629680,203118,203552,2730,0022000618,2,1054,1054,2,0,1610612749
83,1610612749,1626192,201572,201950,203114,203507,1610612755,1627732,1629680,203118,203552,2730,0022000618,2,1079,1079,0,0,1610612755
84,1610612749,1626192,201572,201950,203114,203507,1610612755,1627732,1629680,202699,203552,2730,0022000618,2,1100,1103,0,0,1610612749
85,1610612749,1626192,201572,201950,203114,203507,1610612755,1627732,1629680,202699,203552,2730,0022000618,2,1116,1119,0,0,1610612755
86,1610612749,1626192,201572,201950,203114,203507,1610612755,1627732,1629680,202699,203552,2730,0022000618,2,1122,1126,0,0,1610612749
87,1610612749,1626192,201572,201950,203114,203507,1610612755,1627732,1629680,202699,203552,2730,0022000618,2,1132,1137,0,0,1610612755
88,1610612749,1626192,201572,201950,203114,203507,1610612755,1627732,1629680,202699,203552,2730,0022000618,2,1144,1144,2,0,1610612749
89,1610612749,1626192,201572,201950,203114,203507,1610612755,1627732,1629680,202699,203552,2730,0022000618,2,1144,1161,0,2,1610612755
90,1610612749,1626192,1627854,1628978,201950,203507,1610612755,1627732,1628396,1629680,202699,203552,0022000618,2,1170,1172,0,0,1610612749
91,1610612749,1626192,1627854,1628978,201950,203507,1610612755,1627732,1628396,1629680,202699,203552,0022000618,2,1178,1182,0,2,1610612755
92,1610612749,1626192,1627854,1628978,201950,203507,1610612755,1627732,1628396,1629680,202699,203552,0022000618,2,1182,1211,0,0,1610612749
93,1610612749,1626192,1627854,1628978,201950,203507,1610612755,1627732,1629680,201980,202699,203552,0022000618,2,1230,1230,0,3,1610612755
94,1610612749,1626192,1627854,1628978,201950,203507,1610612755,1627732,1629680,201980,202699,203552,0022000618,2,1244,1245,0,0,1610612749
95,1610612749,1626192,1627854,1628978,201950,203507,1610612755,1627732,1629680,201980,202699,203552,0022000618,2,1263,1265,0,0,1610612755
96,1610612749,1626192,1627854,1628978,201950,203507,1610612755,1627732,1629680,201980,202699,203552,0022000618,2,1270,1270,2,0,1610612749
97,1610612749,1626192,1627854,1628978,201950,203507,1610612755,1627732,1629680,201980,202699,203552,0022000618,2,1282,1282,0,3,1610612755
98,1610612749,1626192,1627854,1628978,201950,203507,1610612755,1627732,1629680,201980,202699,203552,0022000618,2,1302,1304,0,0,1610612749
99,1610612749,1626192,1627854,1628978,203114,203507,1610612755,1627732,1629680,201980,202699,203552,0022000618,2,1328,1331,0,0,1610612755
100,1610612749,1626192,1627854,1628978,203114,203507,1610612755,1627732,1629680,201980,202699,203552,0022000618,2,1343,1346,0,0,1610612749
101,1610612749,1626192,1627854,1628978,203114,203507,1610612755,1627732,1629680,201980,202699,203552,0022000618,2,1354,1358,0,0,1610612755
102,1610612749,1626192,1627854,1628978,203114,203507,1610612755,1627732,1629680,201980,202699,203552,0022000618,2,1365,1365,2,0,1610612749
103,1610612749,1626192,1628978,203114,203507,203648,1610612755,1627732,1629680,201980,202699,203552,0022000618,2,1380,1388,1,0,1610612755
104,1610612749,1626192,1628978,201950,203114,203648,1610612755,1627732,1629680,201980,202699,203552,0022000618,2,1404,1408,0,0,1610612749
105,1610612749,1626192,1628978,201950,203114,203648,1610612755,1627732,1629680,201980,202699,203552,0022000618,2,1412,1418,0,0,1610612755
106,1610612749,1626192,1628978,201950,203114,203648,1610612755,1627732,1629680,201980,202699,203552,0022000618,2,1434,1434,2,0,1610612749
107,1610612749,1626192,1628978,201950,203114,203648,1610612755,1627732,1629680,201980,202699,203552,0022000618,2,1439,1439,0,0,1610612749
108,1610612749,203114,203507,201572,1628978,201950,1610612755,201980,202699,1628396,203552,1627732,0022000618,3,1440,1458,0,0,1610612755
109,1610612749,203114,203507,201572,1628978,201950,1610612755,201980,202699,1628396,203552,1627732,0022000618,3,1463,1467,0,0,1610612749
110,1610612749,203114,203507,201572,1628978,201950,1610612755,201980,202699,1628396,203552,1627732,0022000618,3,1473,1473,0,3,1610612755
111,1610612749,203114,203507,201572,1628978,201950,1610612755,201980,202699,1628396,203552,1627732,0022000618,3,1489,1489,0,0,1610612749
112,1610612749,203114,203507,201572,1628978,201950,1610612755,201980,202699,1628396,203552,1627732,0022000618,3,1504,1504,0,0,1610612755
113,1610612749,203114,203507,201572,1628978,201950,1610612755,201980,202699,1628396,203552,1627732,0022000618,3,1513,1516,0,0,1610612749
114,1610612749,203114,203507,201572,1628978,201950,1610612755,201980,202699,1628396,203552,1627732,0022000618,3,1529,1532,0,0,1610612755
115,1610612749,203114,203507,201572,1628978,201950,1610612755,201980,202699,1628396,203552,1627732,0022000618,3,1544,1544,2,0,1610612749
116,1610612749,203114,203507,201572,1628978,201950,1610612755,201980,202699,1628396,203552,1627732,0022000618,3,1563,1563,0,2,1610612755
117,1610612749,203114,203507,201572,1628978,201950,1610612755,201980,202699,1628396,203552,1627732,0022000618,3,1568,1568,0,0,1610612749
118,1610612749,203114,203507,201572,1628978,201950,1610612755,201980,202699,1628396,203552,1627732,0022000618,3,1574,1574,0,2,1610612755
119,1610612749,203114,203507,201572,1628978,201950,1610612755,201980,202699,1628396,203552,1627732,0022000618,3,1574,1590,2,0,1610612749
120,1610612749,203114,203507,201572,1628978,201950,1610612755,201980,202699,1628396,203552,1627732,0022000618,3,1606,1609,0,0,1610612755
121,1610612749,203114,203507,201572,1628978,201950,1610612755,201980,202699,1628396,203552,1627732,0022000618,3,1615,1615,0,0,1610612749
122,1610612749,203114,203507,201572,1628978,201950,1610612755,201980,202699,1628396,203552,1627732,0022000618,3,1641,1641,0,0,1610612755
123,1610612749,203114,203507,201572,1628978,201950,1610612755,201980,202699,1628396,203552,1627732,0022000618,3,1652,1652,3,0,1610612749
124,1610612749,203114,203507,201572,1628978,201950,1610612755,201980,202699,1628396,203552,1627732,0022000618,3,1667,1667,0,2,1610612755
125,1610612749,203114,203507,201572,1628978,201950,1610612755,201980,202699,1628396,203552,1627732,0022000618,3,1670,1670,0,0,1610612755
126,1610612749,1626192,1628978,201572,201950,203114,1610612755,201980,202699,1628396,203552,1627732,0022000618,3,1682,1682,2,0,1610612749
127,1610612749,1626192,1628978,201572,201950,203114,1610612755,201980,202699,1628396,203552,1627732,0022000618,3,1695,1695,0,3,1610612755
128,1610612749,1626192,1628978,201572,201950,203114,1610612755,201980,202699,1628396,203552,1627732,0022000618,3,1705,1705,3,0,1610612749
129,1610612749,1626192,1628978,201572,201950,203114,1610612755,201980,202699,1628396,203552,1627732,0022000618,3,1728,1732,0,2,1610612755
130,1610612749,1626192,1628978,201572,201950,203114,1610612755,201980,202699,1628396,203552,1627732,0022000618,3,1740,1746,2,0,1610612749
131,1610612749,1626192,1628978,201572,201950,203114,1610612755,201980,202699,1628396,203552,1627732,0022000618,3,1757,1761,0,0,1610612755
132,1610612749,1626192,1628978,201572,201950,203114,1610612755,201980,202699,1628396,203552,1627732,0022000618,3,1770,1770,3,0,1610612749
133,1610612749,1626192,1628978,201572,201950,203114,1610612755,201980,202699,1628396,203552,1627732,0022000618,3,1771,1788,0,0,1610612755
134,1610612749,1626192,1628978,201572,201950,203114,1610612755,201980,202699,1628396,203552,1627732,0022000618,3,1796,1799,0,0,1610612749
135,1610612749,1626192,1628978,201572,201950,203114,1610612755,201980,202699,1628396,203552,1627732,0022000618,3,1809,1809,0,3,1610612755
136,1610612749,1626192,1628978,201572,201950,203114,1610612755,201980,202699,1628396,203552,1627732,0022000618,3,1817,1819,0,0,1610612749
137,1610612749,1626192,1628978,201572,201950,203114,1610612755,201980,202699,1628396,203552,1627732,0022000618,3,1821,1821,0,0,1610612755
138,1610612749,1626192,1628978,201572,201950,203114,1610612755,201980,202699,1628396,203552,1627732,0022000618,3,1836,1836,2,0,1610612749
139,1610612749,1626192,1628978,201572,201950,203114,1610612755,201980,202699,1628396,203552,1627732,0022000618,3,1853,1853,0,2,1610612755
140,1610612749,1626192,1628978,201572,201950,203114,1610612755,201980,202699,1628396,203552,1627732,0022000618,3,1865,1865,2,0,1610612749
141,1610612749,1626192,1628978,201572,201950,203114,1610612755,201980,202699,1628396,203552,1627732,0022000618,3,1881,1885,0,0,1610612755
142,1610612749,1626192,1628978,201572,201950,203114,1610612755,201980,202699,1628396,203552,1627732,0022000618,3,1887,1887,0,0,1610612749
143,1610612749,1626192,1628978,201572,201950,203114,1610612755,201980,202699,1628396,203552,1627732,0022000618,3,1891,1891,0,3,1610612755
144,1610612749,1626192,1628978,201572,201950,203114,1610612755,201980,202699,1628396,203552,1627732,0022000618,3,1902,1905,0,0,1610612749
145,1610612749,1626192,1628978,201572,201950,203114,1610612755,201980,202699,1628396,203552,1627732,0022000618,3,1908,1908,0,0,1610612755
146,1610612749,1626171,1626192,201950,203114,203507,1610612755,1627732,1629003,1629680,202699,2730,0022000618,3,1922,1926,2,0,1610612749
147,1610612749,1626171,1626192,201950,203114,203507,1610612755,1627732,1629003,1629680,202699,2730,0022000618,3,1945,1945,0,2,1610612755
148,1610612749,1626171,1626192,201950,203114,203507,1610612755,1627732,1629003,1629680,202699,2730,0022000618,3,1955,1958,0,0,1610612749
149,1610612749,1626171,1626192,201950,203114,203507,1610612755,1627732,1629003,1629680,202699,2730,0022000618,3,1965,1973,0,0,1610612755
150,1610612749,1626171,1626192,201950,203114,203507,1610612755,1627732,1629003,1629680,202699,2730,0022000618,3,1973,1973,1,0,1610612749
151,1610612749,1626171,1626192,1627854,203507,203648,1610612755,1627732,1629003,1629680,203118,2730,0022000618,3,1991,1994,0,0,1610612755
152,1610612749,1626171,1626192,1627854,203507,203648,1610612755,1627732,1629003,1629680,203118,2730,0022000618,3,1997,1997,2,0,1610612749
153,1610612749,1626171,1626192,1627854,203507,203648,1610612755,1627732,1629003,1629680,203118,2730,0022000618,3,2006,2010,0,0,1610612755
154,1610612749,1626171,1626192,1627854,203507,203648,1610612755,1627732,1629003,1629680,203118,2730,0022000618,3,2015,2019,0,0,1610612749
155,1610612749,1626171,1626192,1627854,203507,203648,1610612755,1627732,1629003,1629680,203118,2730,0022000618,3,2031,2036,0,1,1610612755
156,1610612749,1626171,1626192,1627854,203507,203648,1610612755,1627788,1629003,1629680,203118,2730,0022000618,3,2045,2055,0,0,1610612749
157,1610612749,1626171,1626192,1627854,203507,203648,1610612755,1627788,1629003,1629680,203118,2730,0022000618,3,2060,2060,0,0,1610612755
158,1610612749,1626171,1626192,1627854,203507,203648,1610612755,1627788,1629003,1629680,203118,2730,0022000618,3,2067,2071,0,0,1610612749
159,1610612749,1626171,1626192,1627854,203507,203648,1610612755,1627788,1629003,1629680,203118,2730,0022000618,3,2079,2082,0,0,1610612755
160,1610612749,1626171,1626192,1627854,203507,203648,1610612755,1627788,1629003,1629680,203118,2730,0022000618,3,2086,2091,0,0,1610612749
161,1610612749,1626171,1626192,1627854,203507,203648,1610612755,1627788,1629003,1629680,203118,2730,0022000618,3,2100,2102,0,0,1610612755
162,1610612749,1626171,1626192,1627854,203507,203648,1610612755,1627788,1629003,1629680,203118,2730,0022000618,3,2112,2112,2,0,1610612749
163,1610612749,1626171,1626192,1627854,203507,203648,1610612755,1627788,1629003,1629680,203118,2730,0022000618,3,2127,2130,0,2,1610612755
164,1610612749,1626171,1626192,1627854,1628978,203507,1610612755,1627788,1629003,1629680,203118,2730,0022000618,3,2130,2134,4,0,1610612749
165,1610612749,1626192,1627854,1628978,203114,203507,1610612755,1627788,1629003,1629680,203118,2730,0022000618,3,2156,2156,0,2,1610612755
166,1610612749,1626192,1627854,1628978,203114,203507,1610612755,1627788,1629003,1629680,203118,2730,0022000618,3,2159,2159,2,0,1610612749
167,1610612749,203507,201572,1628978,1626192,1627854,1610612755,202699,2730,1629003,1627788,1629680,0022000618,4,2160,2182,0,0,1610612749
168,1610612749,203507,201572,1628978,1626192,1627854,1610612755,202699,2730,1629003,1627788,1629680,0022000618,4,2195,2202,0,2,1610612755
169,1610612749,203507,201572,1628978,1626192,1627854,1610612755,202699,2730,1629003,1627788,1629680,0022000618,4,2202,2211,2,0,1610612749
170,1610612749,203507,201572,1628978,1626192,1627854,1610612755,202699,2730,1629003,1627788,1629680,0022000618,4,2233,2234,0,0,1610612755
171,1610612749,203507,201572,1628978,1626192,1627854,1610612755,1627732,1627788,1629680,202699,2730,0022000618,4,2251,2253,0,0,1610612749
172,1610612749,203507,201572,1628978,1626192,1627854,1610612755,1627732,1627788,1629680,202699,2730,0022000618,4,2260,2263,0,0,1610612755
173,1610612749,203507,201572,1628978,1626192,1627854,1610612755,1627732,1627788,1629680,202699,2730,0022000618,4,2267,2267,2,0,1610612749
174,1610612749,203507,201572,1628978,1626192,1627854,1610612755,1627732,1627788,1629680,202699,2730,0022000618,4,2282,2282,0,0,1610612755
175,1610612749,203507,201572,1628978,1626192,1627854,1610612755,1627732,1627788,1629680,202699,2730,0022000618,4,2284,2284,2,0,1610612749
176,1610612749,203507,201572,1628978,1626192,1627854,1610612755,1627732,1627788,1629680,202699,2730,0022000618,4,2284,2303,0,0,1610612755
177,1610612749,203507,201572,1628978,1626192,1627854,1610612755,1627732,1627788,202699,203118,203552,0022000618,4,2303,2303,0,0,1610612749
178,1610612749,203507,201572,1628978,1626192,1627854,1610612755,1627732,1627788,202699,203118,203552,0022000618,4,2326,2329,0,0,1610612755
179,1610612749,203507,201572,1628978,1626192,1627854,1610612755,1627732,1627788,202699,203118,203552,0022000618,4,2333,2339,2,0,1610612749
180,1610612749,1626192,1628978,201572,201950,203507,1610612755,1627732,201980,202699,203118,203552,0022000618,4,2355,2358,0,0,1610612755
181,1610612749,1626192,1628978,201572,201950,203507,1610612755,1627732,201980,202699,203118,203552,0022000618,4,2359,2359,3,0,1610612749
182,1610612749,1626192,1628978,201572,201950,203507,1610612755,1627732,201980,202699,203552,2730,0022000618,4,2373,2380,0,0,1610612755
183,1610612749,1626192,1628978,201572,201950,203507,1610612755,1627732,201980,202699,203552,2730,0022000618,4,2382,2382,2,0,1610612749
184,1610612749,1626192,1628978,201572,201950,203507,1610612755,1627732,201980,202699,203552,2730,0022000618,4,2397,2397,0,0,1610612755
185,1610612749,1626192,1628978,201572,201950,203507,1610612755,1627732,201980,202699,203552,2730,0022000618,4,2413,2416,0,0,1610612749
186,1610612749,1626192,1628978,201572,201950,203507,1610612755,1627732,201980,202699,203552,2730,0022000618,4,2420,2424,0,0,1610612755
187,1610612749,1626192,1628978,201572,201950,203507,1610612755,1627732,201980,202699,203552,2730,0022000618,4,2433,2433,0,0,1610612749
188,1610612749,1628978,201572,201950,203114,203507,1610612755,1627732,1629003,201980,202699,2730,0022000618,4,2443,2443,0,2,1610612755
189,1610612749,1628978,201572,201950,203114,203507,1610612755,1627732,1629003,201980,202699,2730,0022000618,4,2451,2476,0,0,1610612749
190,1610612749,1628978,201572,201950,203114,203507,1610612755,1627732,1629003,201980,202699,2730,0022000618,4,2491,2495,0,0,1610612755
191,1610612749,1628978,201572,201950,203114,203507,1610612755,1627732,1629003,201980,202699,2730,0022000618,4,2503,2507,0,0,1610612749
192,1610612749,1628978,201572,201950,203114,203507,1610612755,1627732,1629003,201980,202699,2730,0022000618,4,2526,2526,0,2,1610612755
193,1610612749,1628978,201572,201950,203114,203507,1610612755,1627732,1629003,201980,202699,2730,0022000618,4,2538,2539,2,0,1610612749
194,1610612749,1626192,201572,201950,203114,203507,1610612755,1627732,1629003,201980,202699,2730,0022000618,4,2539,2566,0,0,1610612755
195,1610612749,1626192,201572,201950,203114,203507,1610612755,1627732,1629003,201980,202699,2730,0022000618,4,2586,2586,0,0,1610612749
196,1610612749,1626192,201572,201950,203114,203507,1610612755,1627732,1629003,201980,202699,2730,0022000618,4,2599,2602,0,0,1610612755
197,1610612749,1626192,201572,201950,203114,203507,1610612755,1627732,1629003,201980,202699,2730,0022000618,4,2607,2607,0,0,1610612749
198,1610612749,1626192,201572,201950,203114,203507,1610612755,1627732,1629003,201980,202699,2730,0022000618,4,2628,2628,0,0,1610612755
199,1610612749,1626192,1628978,201950,203114,203507,1610612755,1627732,1629003,201980,202699,2730,0022000618,4,2650,2654,0,0,1610612749
200,1610612749,1626192,1628978,201950,203114,203507,1610612755,1627732,1629003,201980,202699,2730,0022000618,4,2668,2680,0,0,1610612755
201,1610612749,1626192,201572,201950,203114,203507,1610612755,1627732,1627788,201980,202699,2730,0022000618,4,2683,2691,0,0,1610612749
202,1610612749,1628978,201572,201950,203114,203507,1610612755,1627732,1627788,201980,202699,2730,0022000618,4,2703,2703,0,0,1610612755
203,1610612749,1628978,201572,201950,203114,203507,1610612755,1627732,1627788,201980,202699,2730,0022000618,4,2716,2720,0,0,1610612749
204,1610612749,1628978,201572,201950,203114,203507,1610612755,1627732,1627788,201980,202699,2730,0022000618,4,2733,2737,0,2,1610612755
205,1610612749,1628978,201572,201950,203114,203507,1610612755,1627732,1627788,201980,202699,2730,0022000618,4,2752,2752,3,0,1610612749
206,1610612749,1628978,201572,201950,203114,203507,1610612755,1627732,1627788,201980,202699,2730,0022000618,4,2767,2767,0,2,1610612755
207,1610612749,1628978,201572,201950,203114,203507,1610612755,1627732,1627788,201980,202699,2730,0022000618,4,2784,2784,3,0,1610612749
208,1610612749,1628978,201572,201950,203114,203507,1610612755,1627732,1627788,201980,202699,2730,0022000618,4,2797,2799,0,0,1610612755
209,1610612749,1628978,201572,201950,203114,203507,1610612755,1627732,1627788,201980,202699,2730,0022000618,4,2807,2807,2,0,1610612749
210,1610612749,1628978,201572,201950,203114,203507,1610612755,1627732,1627788,201980,202699,2730,0022000618,4,2807,2813,0,0,1610612755
211,1610612749,1628978,201572,201950,203114,203507,1610612755,1627732,1629003,1629680,201980,202699,0022000618,4,2828,2828,3,0,1610612749
212,1610612749,1628978,201572,201950,203114,203507,1610612755,1627732,1629003,1629680,201980,202699,0022000618,4,2840,2840,0,3,1610612755
213,1610612749,1628978,201572,201950,203114,203507,1610612755,1627732,1629003,1629680,201980,202699,0022000618,4,2861,2861,0,0,1610612749
214,1610612749,1628978,201572,201950,203114,203507,1610612755,1627732,1629003,1629680,201980,202699,0022000618,4,2869,2869,0,3,1610612755
215,1610612749,1628978,201572,201950,203114,203507,1610612755,1627732,1629003,1629680,201980,202699,0022000618,4,2870,2877,2,0,1610612749
216,1610612749,1628978,201572,201950,203114,203507,1610612755,1627732,1629003,1629680,201980,202699,0022000618,4,2877,2879,0,3,1610612755
217,1610612749,1626192,1628978,201950,203114,203507,1610612755,1627732,1627788,1629003,201980,202699,0022000618,4,2880,2880,0,0,1610612749
218,1610612749,203114,203507,201572,1628978,201950,1610612755,201980,202699,1627732,2730,1627788,0022000618,5,2880,2902,0,0,1610612749
219,1610612749,203114,203507,201572,1628978,201950,1610612755,201980,202699,1627732,2730,1627788,0022000618,5,2903,2903,0,0,1610612755
220,1610612749,203114,203507,201572,1628978,201950,1610612755,201980,202699,1627732,2730,1627788,0022000618,5,2903,2909,2,0,1610612749
221,1610612749,203114,203507,201572,1628978,201950,1610612755,201980,202699,1627732,2730,1627788,0022000618,5,2924,2925,0,0,1610612755
222,1610612749,203114,203507,201572,1628978,201950,1610612755,201980,202699,1627732,2730,1627788,0022000618,5,2936,2940,1,0,1610612749
223,1610612749,203114,203507,201572,1628978,201950,1610612755,201980,202699,1627732,2730,1627788,0022000618,5,2953,2953,0,3,1610612755
224,1610612749,203114,203507,201572,1628978,201950,1610612755,201980,202699,1627732,2730,1627788,0022000618,5,2973,2973,2,0,1610612749
225,1610612749,203114,203507,201572,1628978,201950,1610612755,201980,202699,1627732,2730,1627788,0022000618,5,2985,2992,0,2,1610612755
226,1610612749,1626192,201572,201950,203114,203507,1610612755,201980,202699,1627732,2730,1627788,0022000618,5,3019,3019,2,0,1610612749
227,1610612749,1626192,201572,201950,203114,203507,1610612755,201980,202699,1627732,2730,1627788,0022000618,5,3035,3050,0,0,1610612755
228,1610612749,1626192,201572,201950,203114,203507,1610612755,201980,202699,1627732,2730,1627788,0022000618,5,3063,3063,3,0,1610612749
229,1610612749,1626192,201572,201950,203114,203507,1610612755,201980,202699,1627732,2730,1627788,0022000618,5,3085,3088,0,0,1610612755
230,1610612749,1626192,201572,201950,203114,203507,1610612755,201980,202699,1627732,2730,1627788,0022000618,5,3108,3108,2,0,1610612749
231,1610612749,1626192,201572,201950,203114,203507,1610612755,201980,202699,1627732,2730,1627788,0022000618,5,3109,3112,0,2,1610612755
232,1610612749,1626192,1628978,201950,203114,203507,1610612755,1627732,1627788,1629003,201980,202699,0022000618,5,3133,3136,0,0,1610612749
233,1610612749,1626192,1628978,201950,203114,203507,1610612755,1627732,1627788,1629003,201980,202699,0022000618,5,3138,3138,0,0,1610612755
234,1610612749,1626192,1628978,201950,203114,203507,1610612755,1627732,1627788,1629003,201980,202699,0022000618,5,3160,3163,0,0,1610612749
235,1610612749,1626192,1628978,201950,203114,203507,1610612755,1627732,1627788,1629003,201980,202699,0022000618,5,3167,3167,0,2,1610612755
236,1610612749,1626192,1628978,201950,203114,203507,1610612755,1627732,1627788,1629003,201980,202699,0022000618,5,3167,3168,2,0,1610612749
237,1610612749,1626192,1628978,201950,203114,203507,1610612755,1627732,1629003,1629680,201980,202699,0022000618,5,3175,3180,0,3,1610612755
238,1610612749,1626192,1628978,201950,203114,203507,1610612755,1627732,1629003,1629680,201980,202699,0022000618,5,3180,3180,2,0,1610612749
