,TEAM_ID_1,TEAM_1_PLAYERS,TEAM_ID_2,TEAM_2_PLAYERS,PERIOD
0,1610612743,[1628470  203924  203999  203115 1628420],1610612765,[ 203503 1629635  203083 1629004  201565],1
1,1610612743,[1627823  203914 1627736 1628408 1629020],1610612765,[ 203503  203083  201565 1628971  204038],2
2,1610612743,[1628470  203924  203999  203115 1628420],1610612765,[ 203503 1629635  203083 1629004  202704],3
3,1610612743,[ 203924 1627823  203914 1627736 1628408],1610612765,[ 203503 1629635  203083 1628971  202704],4
4,1610612743,[ 203924  203999  203115 1628420  203914],1610612765,[ 203503  203083 1629004 1628971  202704],5
