,t1_pm,t2_pm,stint_start,t2_points_scored,t2_players,t2_id,t1_id,t1_players,stint_end,t1_points_scored,margin_per_100,num_poss
0,3,-3,0,5,"[1629006, 1630183, 1626157, 1630162, 201937]",1610612750,1610612762,"[202711, 1626220, 203497, 204060, 201144]",307,8,15.789473684210526,19.0
1,11,-11,308,5,"[1629006, 1630183, 1626157, 1630162, 201937]",1610612750,1610612762,"[202711, 1626220, 203497, 204060, 201144]",426,16,37.93103448275862,29.0
2,8,-8,427,8,"[1626156, 1626157, 1629006, 1630162, 1630183]",1610612750,1610612762,"[1626220, 202324, 202711, 203903, 204060]",484,16,25.0,32.0
3,10,-10,485,14,"[1626156, 1626157, 1627823, 1630162, 1630183]",1610612750,1610612762,"[1626220, 202324, 202711, 203903, 204060]",598,24,25.64102564102564,39.0
4,13,-13,599,17,"[1626156, 1627823, 1629162, 1629675, 1630183]",1610612750,1610612762,"[1626220, 1627777, 202324, 203903, 204060]",719,30,27.083333333333332,48.0
5,11,-11,720,24,"[1626156, 1627823, 1629020, 1629162, 1629675]",1610612750,1610612762,"[101141, 1627777, 201144, 203497, 203903]",857,35,19.298245614035086,57.0
6,14,-14,858,26,"[1626156, 1627823, 1629162, 1629675, 1629020]",1610612750,1610612762,"[203497, 201144, 203903, 1627777, 101141]",956,40,22.58064516129032,62.0
7,12,-12,957,28,"[1627823, 1629020, 1629675, 1630162, 201937]",1610612750,1610612762,"[101141, 1627777, 1630235, 203497, 203903]",969,40,19.047619047619047,63.0
8,10,-10,970,30,"[1626157, 1627823, 1629675, 1630162, 201937]",1610612750,1610612762,"[1627777, 202324, 202711, 203903, 204060]",1097,40,14.084507042253522,71.0
9,10,-10,1098,30,"[1626157, 1629675, 1630162, 1630183, 201937]",1610612750,1610612762,"[1627777, 202324, 202711, 203903, 204060]",1140,40,13.513513513513514,74.0
10,8,-8,1141,34,"[1626156, 1626157, 1629675, 1630162, 1630183]",1610612750,1610612762,"[1626220, 202324, 202711, 203903, 204060]",1192,42,10.126582278481013,79.0
11,-4,4,1193,49,"[1626156, 1626157, 1629006, 1630162, 1630183]",1610612750,1610612762,"[1626220, 202324, 202711, 203903, 204060]",1439,45,-4.2105263157894735,95.0
12,-4,4,1440,49,"[1626156, 1626157, 1629006, 1630162, 1630183]",1610612750,1610612762,"[1626220, 201144, 202711, 203497, 204060]",1439,45,-4.2105263157894735,95.0
13,-1,1,1440,54,"[1626156, 1629006, 1629675, 1630162, 1630183]",1610612750,1610612762,"[201144, 202711, 203497, 203903, 204060]",1607,53,-0.9009009009009009,111.0
14,-4,4,1608,63,"[1629006, 1630183, 1626157, 1630162, 201937]",1610612750,1610612762,"[202711, 1626220, 203497, 204060, 201144]",1746,59,-3.361344537815126,119.0
15,-10,10,1747,71,"[1626156, 1626157, 1629006, 1630162, 1630183]",1610612750,1610612762,"[202711, 1626220, 203497, 204060, 201144]",1920,61,-7.633587786259542,131.0
16,-9,9,1921,74,"[1626156, 1626157, 1630162, 1630183, 201937]",1610612750,1610612762,"[1626220, 202324, 202711, 203903, 204060]",2024,65,-6.521739130434782,138.0
17,-8,8,2025,76,"[1626156, 1626157, 1627823, 1630183, 201937]",1610612750,1610612762,"[1626220, 201144, 202324, 202711, 203903]",2075,68,-5.673758865248227,141.0
18,-13,13,2076,83,"[1626156, 1626157, 1627823, 1629675, 201937]",1610612750,1610612762,"[1626220, 1627777, 201144, 203497, 203903]",2159,70,-8.783783783783784,148.0
19,-9,9,2160,90,"[1626156, 1626157, 1627823, 1629162, 1629675]",1610612750,1610612762,"[101141, 1627777, 201144, 203497, 203903]",2387,81,-5.521472392638037,163.0
20,-6,6,2388,92,"[1630162, 1627823, 1629162, 1629675, 1629020]",1610612750,1610612762,"[203497, 201144, 203903, 1627777, 101141]",2430,86,-3.614457831325301,166.0
21,-9,9,2431,95,"[1626157, 1627823, 1629162, 1629675, 1630162]",1610612750,1610612762,"[1626220, 1627777, 201144, 203497, 203903]",2453,86,-5.389221556886228,167.0
22,-5,5,2454,97,"[1626157, 1627823, 1629006, 1630162, 201937]",1610612750,1610612762,"[1626220, 1627777, 202711, 203497, 204060]",2607,92,-2.840909090909091,176.0
23,-5,5,2608,97,"[1626156, 1626157, 1629006, 1630162, 1630183]",1610612750,1610612762,"[1626220, 1627777, 202711, 203497, 204060]",2654,92,-2.8089887640449436,178.0
24,-4,4,2655,102,"[1626156, 1626157, 1629006, 1630162, 1630183]",1610612750,1610612762,"[1626220, 1627777, 201144, 203497, 204060]",2846,98,-2.1164021164021163,189.0
25,1,-1,2847,103,"[1626156, 1626157, 1630162, 1630183, 201937]",1610612750,1610612762,"[1626220, 1627777, 201144, 203497, 204060]",2874,104,0.5208333333333333,192.0
26,1,-1,2875,103,"[1626156, 1626157, 1630162, 1630183, 201937]",1610612750,1610612762,"[1627777, 201144, 202711, 203497, 204060]",2875,104,0.5208333333333333,192.0
27,-1,1,2876,105,"[1626156, 1626157, 1630162, 1630183, 201937]",1610612750,1610612762,"[1626220, 201144, 202711, 203497, 204060]",9999999,104,-0.5154639175257731,194.0
