,TEAM_ID_1,TEAM_1_PLAYERS,TEAM_ID_2,TEAM_2_PLAYERS,PERIOD
0,1610612738,[1628369  201143 1629057  203935 1627759],1610612765,[1630180  203924 1630191 1628977  202709],1
1,1610612738,[1628369  201143 1626196 1629641  203471],1610612765,[ 203482 1628402 1626168 1630165  203585],2
2,1610612738,[1628369  201143 1629057  203935 1627759],1610612765,[1630180  203924 1630191 1628977  202709],3
3,1610612738,[1627759 1626196 1629684 1629641  203471],1610612765,[ 203482 1628402 1626168 1630165  203585],4
