,TEAM_ID_1,TEAM_1_PLAYERS,TEAM_ID_2,TEAM_2_PLAYERS,PERIOD
0,1610612742,[1627827  204001  203939  203501 1629029],1610612747,[  2544 203076 201580 201980 203484],1
1,1610612742,[1626153  203552 1628467 1628973 1628382],1610612747,[   2544 1628398  200765  203584    2730],2
2,1610612742,[1627827  204001  203939  203501 1629029],1610612747,[  2544 203076 201580 201980 203484],3
3,1610612742,[ 203939 1626153  203552 1628467 1628382],1610612747,[   2544 1628398 1627936  200765    2730],4
