,t1_pm,t2_pm,stint_start,t2_points_scored,t2_players,t2_id,t1_id,t1_players,stint_end,t1_points_scored,margin_per_100,num_poss
0,3,-3,0,12,"[1627742, 1629627, 203500, 1630230, 202339]",1610612740,1610612755,"[201980, 202699, 203954, 203552, 1627732]",305,15,14.285714285714285,21.0
1,0,0,306,16,"[1627742, 1629627, 203500, 1630230, 202339]",1610612740,1610612755,"[201980, 202699, 203954, 203552, 1627732]",487,16,0.0,32.0
2,-2,2,488,18,"[1626195, 1627742, 1630230, 201949, 202339]",1610612740,1610612755,"[201980, 202699, 203954, 203552, 1627732]",533,16,-5.714285714285714,35.0
3,-1,1,534,19,"[1626195, 1629627, 1630184, 1630230, 201949]",1610612740,1610612755,"[1627732, 1629680, 202699, 203552, 203954]",590,18,-2.564102564102564,39.0
4,-1,1,591,23,"[1626195, 1629627, 1630184, 1630230, 201949]",1610612740,1610612755,"[1627732, 1629003, 1629680, 203118, 203954]",719,22,-2.083333333333333,48.0
5,-1,1,720,32,"[1626195, 1629627, 1629637, 1630184, 201949]",1610612740,1610612755,"[1627788, 1629003, 1629680, 203118, 2730]",873,31,-1.6666666666666667,60.0
6,1,-1,874,32,"[1629627, 1626195, 201949, 1630184, 1629637]",1610612740,1610612755,"[1629680, 1629003, 203118, 1627788, 2730]",898,33,1.6129032258064515,62.0
7,-3,3,899,39,"[1629627, 1626195, 201949, 1630184, 1629637]",1610612740,1610612755,"[1627788, 1629003, 1629680, 202699, 2730]",989,36,-4.477611940298507,67.0
8,2,-2,990,39,"[1629627, 1629637, 1630184, 1630230, 201949]",1610612740,1610612755,"[1627788, 1629003, 1629680, 202699, 2730]",1065,41,2.73972602739726,73.0
9,2,-2,1066,41,"[1627742, 1630184, 1630230, 202339, 203500]",1610612740,1610612755,"[1627732, 1627788, 201980, 202699, 203954]",1202,43,2.380952380952381,84.0
10,4,-4,1203,43,"[1627742, 1629637, 1630230, 202339, 203500]",1610612740,1610612755,"[1627732, 201980, 202699, 203552, 203954]",1330,47,4.166666666666666,96.0
11,2,-2,1331,45,"[1627742, 1629627, 201949, 202339, 203500]",1610612740,1610612755,"[1627732, 201980, 202699, 203552, 203954]",1347,47,2.0618556701030926,97.0
12,0,0,1348,50,"[1626195, 1627742, 1629627, 201949, 202339]",1610612740,1610612755,"[1627732, 201980, 202699, 203552, 203954]",1439,50,0.0,103.0
13,-5,5,1440,66,"[1626195, 1627742, 1629627, 201949, 202339]",1610612740,1610612755,"[1627732, 201980, 202699, 203118, 203552]",1853,61,-3.7037037037037033,135.0
14,-7,7,1854,68,"[1627742, 1629627, 203500, 1630230, 202339]",1610612740,1610612755,"[201980, 202699, 203954, 203552, 1627732]",1899,61,-5.072463768115942,138.0
15,-7,7,1900,68,"[1627742, 1630184, 1630230, 201949, 203500]",1610612740,1610612755,"[1627788, 1629003, 1629680, 202699, 203954]",1899,61,-5.072463768115942,138.0
16,-7,7,1900,68,"[1627742, 1630184, 1630230, 201949, 203500]",1610612740,1610612755,"[1629003, 1629680, 201980, 202699, 203954]",1935,61,-5.0,140.0
17,-5,5,1936,68,"[1627742, 1629637, 1630184, 201949, 203500]",1610612740,1610612755,"[1627788, 1629003, 1629680, 202699, 203954]",2020,63,-3.4482758620689653,145.0
18,-8,8,2021,76,"[1626195, 1627742, 1629637, 1630184, 201949]",1610612740,1610612755,"[1627788, 1629003, 1629680, 202699, 2730]",2106,68,-5.263157894736842,152.0
19,-8,8,2107,76,"[1626195, 1627742, 1629637, 1630184, 201949]",1610612740,1610612755,"[1627788, 1629003, 1629680, 203118, 2730]",2158,68,-5.095541401273886,157.0
20,-13,13,2159,84,"[1626195, 1629627, 1629637, 1630184, 201949]",1610612740,1610612755,"[1627788, 1629003, 1629680, 203118, 2730]",2290,71,-7.83132530120482,166.0
21,-12,12,2291,88,"[1629627, 1626195, 201949, 1630184, 1629637]",1610612740,1610612755,"[1629680, 1629003, 203118, 1627788, 2730]",2390,76,-6.9364161849710975,173.0
22,-12,12,2391,90,"[1629627, 1626195, 201949, 1630184, 1629637]",1610612740,1610612755,"[1627732, 1627788, 203118, 203552, 2730]",2425,78,-6.857142857142858,175.0
23,-12,12,2426,90,"[1627742, 1629637, 1630184, 201949, 203500]",1610612740,1610612755,"[1627732, 1627788, 203118, 203552, 2730]",2462,78,-6.741573033707865,178.0
24,-12,12,2463,92,"[1627742, 1629637, 1630184, 201949, 203500]",1610612740,1610612755,"[1627732, 1627788, 203118, 203552, 203954]",2524,80,-6.629834254143646,181.0
25,-6,6,2525,98,"[1627742, 1629637, 1630184, 201949, 203500]",1610612740,1610612755,"[1627732, 201980, 202699, 203552, 203954]",2808,92,-3.0,200.0
26,-6,6,2809,98,"[1627742, 1629627, 201949, 202339, 203500]",1610612740,1610612755,"[1627732, 1629003, 201980, 202699, 203954]",2811,92,-3.0,200.0
27,-9,9,2812,101,"[1627742, 1629627, 201949, 202339, 203500]",1610612740,1610612755,"[1627732, 1629680, 201980, 202699, 203954]",2847,92,-4.368932038834951,206.0
28,-9,9,2848,101,"[1627742, 1629627, 201949, 202339, 203500]",1610612740,1610612755,"[1627732, 1629003, 201980, 202699, 203954]",2860,92,-4.3478260869565215,207.0
29,-7,7,2861,101,"[1627742, 1629627, 201949, 202339, 203500]",1610612740,1610612755,"[1629003, 1630178, 1630194, 1630198, 1630222]",9999999,94,-3.3653846153846154,208.0
