,t1_points_scored,stint_end,t2_pm,t1_players,t2_id,t1_id,t2_players,t2_points_scored,t1_pm,stint_start,margin_per_100,num_poss
0,3,117,4,"[1626203, 203496, 203476, 203952, 203894]",1610612758,1610612750,"[203084, 1628963, 1626158, 1627741, 1628368]",7,-4,0,-57.14285714285714,7.0
1,11,239,1,"[1626203, 203496, 203476, 203952, 203894]",1610612758,1610612750,"[203084, 1628963, 1626158, 1627741, 1628368]",12,-1,118,-6.666666666666667,15.0
2,11,351,5,"[1626203, 203496, 203476, 203952, 203894]",1610612758,1610612750,"[1626158, 1627741, 1628963, 202709, 203084]",16,-5,240,-23.809523809523807,21.0
3,15,423,1,"[1626203, 203496, 203476, 203952, 203894]",1610612758,1610612750,"[1627741, 1628963, 202709, 203084, 203992]",16,-1,352,-3.8461538461538463,26.0
4,15,454,4,"[1629006, 201952, 203476, 203496, 203952]",1610612758,1610612750,"[1627741, 1628963, 202709, 203084, 203992]",19,-4,424,-13.793103448275861,29.0
5,16,514,3,"[1629006, 201952, 203496, 203943, 203952]",1610612758,1610612750,"[1626158, 1627741, 202709, 203084, 203992]",19,-3,455,-8.823529411764707,34.0
6,21,719,5,"[1628966, 1629006, 201952, 203943, 203952]",1610612758,1610612750,"[1626158, 1627741, 202709, 203084, 203992]",26,-5,515,-10.638297872340425,47.0
7,27,896,6,"[1628966, 1629006, 1629633, 201952, 203943]",1610612758,1610612750,"[1626158, 202357, 202709, 203992, 2772]",33,-6,720,-10.344827586206897,58.0
8,29,956,6,"[1626203, 201952, 203943, 1628966, 1629633]",1610612758,1610612750,"[1626158, 203992, 2772, 202357, 1627812]",35,-6,897,-9.523809523809524,63.0
9,31,995,4,"[1626203, 1629633, 201952, 203496, 203943]",1610612758,1610612750,"[1627741, 1627812, 1628963, 202357, 2772]",35,-4,957,-6.0606060606060606,66.0
10,34,1020,1,"[1626203, 1629633, 203496, 203894, 203943]",1610612758,1610612750,"[1627741, 1627812, 1628963, 202357, 2772]",35,-1,996,-1.4492753623188406,69.0
11,36,1129,1,"[1626203, 203496, 203894, 203943, 203952]",1610612758,1610612750,"[1627741, 1627812, 1628963, 203084, 2772]",37,-1,1021,-1.3333333333333335,75.0
12,39,1179,1,"[1626203, 203476, 203496, 203894, 203952]",1610612758,1610612750,"[1627741, 1628963, 202709, 203084, 203992]",40,-1,1130,-1.2658227848101267,79.0
13,46,1344,0,"[1629006, 203476, 203496, 203894, 203952]",1610612758,1610612750,"[1627741, 1628963, 202709, 203084, 203992]",46,0,1180,0.0,90.0
14,50,1439,-2,"[1629006, 203476, 203496, 203894, 203952]",1610612758,1610612750,"[1626158, 1627741, 202709, 203084, 203992]",48,2,1345,2.083333333333333,96.0
15,53,1520,-2,"[1629006, 201952, 203476, 203496, 203952]",1610612758,1610612750,"[1626158, 1627741, 202709, 203084, 203992]",51,2,1440,1.9801980198019802,101.0
16,57,1709,2,"[1626203, 203496, 203476, 203952, 203894]",1610612758,1610612750,"[203084, 1628963, 1626158, 1627741, 202709]",59,-2,1521,-1.7543859649122806,114.0
17,57,1766,6,"[1626203, 1628966, 203476, 203894, 203952]",1610612758,1610612750,"[203084, 1628963, 1626158, 1627741, 202709]",63,-6,1710,-5.084745762711865,118.0
18,60,1856,5,"[1626203, 1628966, 201952, 203943, 203952]",1610612758,1610612750,"[1627741, 1628963, 202709, 203084, 203992]",65,-5,1767,-3.968253968253968,126.0
19,62,1914,7,"[1628966, 1629006, 201952, 203943, 203952]",1610612758,1610612750,"[1627741, 1628963, 202709, 203084, 203992]",69,-7,1857,-5.303030303030303,132.0
20,65,1968,6,"[1629006, 1629103, 201952, 203943, 203952]",1610612758,1610612750,"[1627741, 1628963, 202709, 203084, 203992]",71,-6,1915,-4.444444444444445,135.0
21,65,2002,6,"[1629006, 1629103, 201952, 203943, 203952]",1610612758,1610612750,"[1626158, 1627741, 202357, 202709, 203992]",71,-6,1969,-4.37956204379562,137.0
22,70,2088,5,"[1629006, 1629103, 201952, 203943, 203952]",1610612758,1610612750,"[1626158, 202357, 202709, 203992, 2772]",75,-5,2003,-3.4965034965034967,143.0
23,71,2157,6,"[1629006, 1629103, 1629633, 201952, 203943]",1610612758,1610612750,"[1626158, 202357, 202709, 203992, 2772]",77,-6,2089,-4.10958904109589,146.0
24,76,2384,6,"[1629006, 1629103, 1629633, 201952, 203943]",1610612758,1610612750,"[1626158, 1627812, 202357, 203992, 2772]",82,-6,2158,-3.7735849056603774,159.0
25,76,2409,6,"[1626203, 203496, 203476, 201952, 1629633]",1610612758,1610612750,"[1626158, 203992, 2772, 202357, 1627812]",82,-6,2385,-3.75,160.0
26,83,2495,1,"[1626203, 203476, 203496, 203894, 203952]",1610612758,1610612750,"[1626158, 1627741, 202357, 202709, 2772]",84,-1,2410,-0.5988023952095809,167.0
27,85,2630,1,"[1626203, 203476, 203496, 203894, 203952]",1610612758,1610612750,"[1626158, 1627741, 202709, 203084, 2772]",86,-1,2496,-0.5681818181818182,176.0
28,90,2852,0,"[1626203, 203476, 203496, 203894, 203952]",1610612758,1610612750,"[1627741, 202709, 203084, 203473, 2772]",90,0,2631,0.0,188.0
29,90,2879,0,"[1626203, 201952, 203476, 203496, 203952]",1610612758,1610612750,"[1626158, 202709, 203084, 203992, 2772]",90,0,2853,0.0,188.0
30,95,3108,-1,"[201952, 203476, 203496, 203894, 203952]",1610612758,1610612750,"[1626158, 202709, 203084, 203992, 2772]",94,1,2880,0.49504950495049505,202.0
31,97,3174,0,"[1626203, 203496, 203476, 203952, 201952]",1610612758,1610612750,"[203084, 1626158, 202709, 203992, 2772]",97,0,3109,0.0,206.0
32,97,3179,0,"[1626203, 203496, 203476, 203952, 201952]",1610612758,1610612750,"[1626158, 1627741, 203084, 203992, 2772]",97,0,3175,0.0,207.0
33,97,3179,0,"[1626203, 1629006, 203476, 203496, 203952]",1610612758,1610612750,"[1626158, 1627741, 203084, 203992, 2772]",97,0,3180,0.0,207.0
34,105,3479,-1,"[1626203, 203476, 203496, 203943, 203952]",1610612758,1610612750,"[1626158, 1627741, 1629713, 203084, 203992]",104,1,3180,0.43859649122807015,228.0
35,105,9999999,-1,"[1626203, 203496, 203476, 203952, 201952]",1610612758,1610612750,"[203084, 1626158, 1627741, 203992, 2772]",104,1,3480,0.43668122270742354,229.0
