,team1_id,team1_player1,team1_player2,team1_player3,team1_player4,team1_player5,team2_id,team2_player1,team2_player2,team2_player3,team2_player4,team2_player5,game_id,period,possession_start,possession_end,team1_points,team2_points,possession_team
0,1610612756,1628969,203109,201580,1626164,101108,1610612758,203084,203090,1626158,1627741,1628368,0022100153,1,0,17,2,0,1610612756
1,1610612756,1628969,203109,201580,1626164,101108,1610612758,203084,203090,1626158,1627741,1628368,0022100153,1,37,41,0,0,1610612758
2,1610612756,1628969,203109,201580,1626164,101108,1610612758,203084,203090,1626158,1627741,1628368,0022100153,1,63,64,0,0,1610612756
3,1610612756,1628969,203109,201580,1626164,101108,1610612758,203084,203090,1626158,1627741,1628368,0022100153,1,64,74,0,0,1610612758
4,1610612756,1628969,203109,201580,1626164,101108,1610612758,203084,203090,1626158,1627741,1628368,0022100153,1,84,84,3,0,1610612756
5,1610612756,1628969,203109,201580,1626164,101108,1610612758,203084,203090,1626158,1627741,1628368,0022100153,1,105,109,0,0,1610612758
6,1610612756,1628969,203109,201580,1626164,101108,1610612758,203084,203090,1626158,1627741,1628368,0022100153,1,118,122,2,0,1610612756
7,1610612756,1628969,203109,201580,1626164,101108,1610612758,203084,203090,1626158,1627741,1628368,0022100153,1,132,132,0,2,1610612758
8,1610612756,1628969,203109,201580,1626164,101108,1610612758,203084,203090,1626158,1627741,1628368,0022100153,1,145,145,2,0,1610612756
9,1610612756,1628969,203109,201580,1626164,101108,1610612758,203084,203090,1626158,1627741,1628368,0022100153,1,158,158,0,2,1610612758
10,1610612756,1628969,203109,201580,1626164,101108,1610612758,203084,203090,1626158,1627741,1628368,0022100153,1,167,167,3,0,1610612756
11,1610612756,1628969,203109,201580,1626164,101108,1610612758,203084,203090,1626158,1627741,1628368,0022100153,1,169,192,0,0,1610612758
12,1610612756,1628969,203109,201580,1626164,101108,1610612758,1627741,1628368,203084,203090,203458,0022100153,1,195,195,0,0,1610612756
13,1610612756,1628969,203109,201580,1626164,101108,1610612758,1627741,1628368,203084,203090,203458,0022100153,1,199,199,0,3,1610612758
14,1610612756,1628969,203109,201580,1626164,101108,1610612758,1627741,1628368,203084,203090,203458,0022100153,1,225,225,0,0,1610612756
15,1610612756,1628969,203109,201580,1626164,101108,1610612758,1627741,1628368,203084,203090,203458,0022100153,1,238,241,0,0,1610612758
16,1610612756,1628969,203109,201580,1626164,101108,1610612758,1627741,1628368,203084,203090,203458,0022100153,1,254,258,0,0,1610612756
17,1610612756,1628969,203109,201580,1626164,101108,1610612758,1627741,1628368,203084,203090,203458,0022100153,1,270,274,0,0,1610612758
18,1610612756,1628969,203109,201580,1626164,101108,1610612758,1627741,1628368,203084,203090,203458,0022100153,1,283,286,0,0,1610612756
19,1610612756,1628969,203109,201580,1626164,101108,1610612758,1627741,1628368,203084,203090,203458,0022100153,1,289,289,0,0,1610612758
20,1610612756,1628969,203109,201580,1626164,101108,1610612758,1627741,1628368,203084,203090,203458,0022100153,1,295,295,2,0,1610612756
21,1610612756,1628969,203109,201580,1626164,101108,1610612758,1627741,1628368,203084,203090,203458,0022100153,1,312,312,0,2,1610612758
22,1610612756,1628969,203109,201580,1626164,101108,1610612758,1627741,1628368,203084,203090,203458,0022100153,1,327,327,2,0,1610612756
23,1610612756,1628969,203109,201580,1626164,101108,1610612758,1627741,1628368,203084,203090,203458,0022100153,1,338,338,0,2,1610612758
24,1610612756,101108,1626163,1626164,1628969,203109,1610612758,1626158,1628368,1629056,1630558,203084,0022100153,1,356,356,2,0,1610612756
25,1610612756,101108,1626163,1626164,1628969,203109,1610612758,1626158,1628368,1629056,1630558,203084,0022100153,1,368,375,0,2,1610612758
26,1610612756,101108,1626163,1626164,1628969,203109,1610612758,1626158,1628368,1629056,1630558,203084,0022100153,1,398,398,2,0,1610612756
27,1610612756,101108,1626163,1626164,1628969,203109,1610612758,1626158,1628368,1629056,1630558,203084,0022100153,1,408,411,0,0,1610612758
28,1610612756,101108,1626163,1626164,1628969,203109,1610612758,1626158,1628368,1629056,1630558,203084,0022100153,1,415,415,2,0,1610612756
29,1610612756,1626163,1626164,1626166,1628969,1629661,1610612758,1626158,1628368,1629056,1630558,203084,0022100153,1,430,433,0,0,1610612758
30,1610612756,1626163,1626164,1626166,1628969,1629661,1610612758,1626158,1628368,1629056,1630558,203084,0022100153,1,437,437,0,0,1610612756
31,1610612756,1626163,1626164,1626166,1628969,1629661,1610612758,1626158,1628368,1629056,1630558,203084,0022100153,1,443,453,0,2,1610612758
32,1610612756,1626163,1626164,1626166,1628969,1629661,1610612758,1626158,1628368,1629056,1630558,203084,0022100153,1,460,460,0,0,1610612756
33,1610612756,1626163,1626164,1626166,1628969,1629661,1610612758,1626158,1628368,1629056,1630558,203084,0022100153,1,468,468,0,2,1610612758
34,1610612756,1626163,1626164,1626166,1628969,1629661,1610612758,1626158,1628368,1629056,1630558,203084,0022100153,1,481,481,2,0,1610612756
35,1610612756,1626163,1626164,1626166,1628969,1629661,1610612758,1626158,1628368,1629056,1630558,203084,0022100153,1,491,494,0,0,1610612758
36,1610612756,1626163,1626164,1626166,1628969,1629661,1610612758,1626158,1628368,1629056,1630558,203084,0022100153,1,502,506,0,0,1610612756
37,1610612756,1626163,1626164,1626166,1628969,1629661,1610612758,1626158,1628368,1629056,1630558,203084,0022100153,1,513,513,0,3,1610612758
38,1610612756,1626163,1626164,1626166,1628969,1629661,1610612758,1626158,1628368,1629056,1630558,203084,0022100153,1,532,540,0,0,1610612756
39,1610612756,1626163,1626164,1626166,1629013,1629661,1610612758,1626158,1627741,1629056,1630558,203084,0022100153,1,546,546,0,0,1610612758
40,1610612756,1626163,1626164,1626166,1629013,1629661,1610612758,1626158,1627741,1629056,1630558,203084,0022100153,1,553,553,3,0,1610612756
41,1610612756,1626163,1626164,1626166,1629013,1629661,1610612758,1626158,1627741,1629056,1630558,203084,0022100153,1,570,570,0,3,1610612758
42,1610612756,1626163,1626164,1626166,1629013,1629661,1610612758,1626158,1627741,1629056,1630558,203084,0022100153,1,571,589,0,0,1610612756
43,1610612756,1626163,1626164,1626166,1629013,1629661,1610612758,1626158,1627741,1629056,1630558,203084,0022100153,1,603,607,0,0,1610612758
44,1610612756,1626163,1626164,1626166,1629013,1629661,1610612758,1626158,1627741,1629056,1630558,203084,0022100153,1,610,614,0,0,1610612756
45,1610612756,1626163,1626164,1626166,1629013,1629661,1610612758,1626158,1627741,1629056,1630558,203084,0022100153,1,631,631,0,3,1610612758
46,1610612756,1626163,1626164,1626166,1629013,1629661,1610612758,1626158,1627741,1629056,1630558,203084,0022100153,1,640,640,2,0,1610612756
47,1610612756,1626163,1626164,1626166,1629013,1629661,1610612758,1626158,1627741,1629056,1630558,203084,0022100153,1,655,655,0,2,1610612758
48,1610612756,1626163,1626164,1626166,1629013,1629661,1610612758,1626158,1627741,1629056,1630558,203084,0022100153,1,666,666,3,0,1610612756
49,1610612756,1626163,1626164,1626166,1629013,1629661,1610612758,1626158,1627741,1629056,1630558,203084,0022100153,1,684,690,0,0,1610612758
50,1610612756,1626163,1626166,1627846,1629013,1629661,1610612758,1626158,1627741,1629056,1630558,203090,0022100153,1,695,695,2,0,1610612756
51,1610612756,1626163,1626166,1627846,1629013,1629661,1610612758,1626158,1627741,1629056,1630558,203090,0022100153,1,695,719,0,0,1610612758
52,1610612756,1626163,1626166,1627846,1629013,1629661,1610612758,1626158,1627741,1629056,1630558,203090,0022100153,1,720,720,0,0,1610612758
53,1610612756,201580,1629661,1626166,1629013,1627846,1610612758,203090,1627741,203458,1629056,1630558,0022100153,2,720,741,0,3,1610612758
54,1610612756,201580,1629661,1626166,1629013,1627846,1610612758,203090,1627741,203458,1629056,1630558,0022100153,2,758,758,2,0,1610612756
55,1610612756,201580,1629661,1626166,1629013,1627846,1610612758,203090,1627741,203458,1629056,1630558,0022100153,2,775,777,0,0,1610612758
56,1610612756,201580,1629661,1626166,1629013,1627846,1610612758,203090,1627741,203458,1629056,1630558,0022100153,2,783,786,0,0,1610612756
57,1610612756,201580,1629661,1626166,1629013,1627846,1610612758,203090,1627741,203458,1629056,1630558,0022100153,2,797,797,0,3,1610612758
58,1610612756,201580,1629661,1626166,1629013,1627846,1610612758,203090,1627741,203458,1629056,1630558,0022100153,2,816,816,3,0,1610612756
59,1610612756,201580,1629661,1626166,1629013,1627846,1610612758,203090,1627741,203458,1629056,1630558,0022100153,2,831,842,0,4,1610612758
60,1610612756,101108,1627846,1629013,1629661,201580,1610612758,203090,1627741,203458,1629056,1630558,0022100153,2,856,859,0,0,1610612756
61,1610612756,101108,1627846,1629013,1629661,201580,1610612758,203090,1627741,203458,1629056,1630558,0022100153,2,876,876,0,2,1610612758
62,1610612756,101108,1627846,1629013,1629661,201580,1610612758,203090,1627741,203458,1629056,1630558,0022100153,2,891,891,2,0,1610612756
63,1610612756,101108,1627846,1629013,1629661,201580,1610612758,203090,1627741,203458,1629056,1630558,0022100153,2,901,904,0,0,1610612758
64,1610612756,101108,1627846,1629013,1629661,201580,1610612758,203090,1627741,203458,1629056,1630558,0022100153,2,915,927,0,0,1610612756
65,1610612756,101108,1626163,1627846,1629013,1629661,1610612758,1626158,1627741,1628368,1629056,1630558,0022100153,2,932,934,0,0,1610612758
66,1610612756,101108,1626163,1627846,1629013,1629661,1610612758,1626158,1627741,1628368,1629056,1630558,0022100153,2,939,944,0,0,1610612756
67,1610612756,101108,1626163,1627846,1629013,1629661,1610612758,1626158,1627741,1628368,1629056,1630558,0022100153,2,951,951,0,2,1610612758
68,1610612756,101108,1626163,1627846,1629013,1629661,1610612758,1626158,1627741,1628368,1629056,1630558,0022100153,2,966,969,0,0,1610612756
69,1610612756,101108,1626163,1627846,1629013,1629661,1610612758,1626158,1627741,1628368,1629056,1630558,0022100153,2,970,970,0,0,1610612758
70,1610612756,101108,1626163,1629013,1629661,203109,1610612758,1626158,1627741,1628368,1629056,1630558,0022100153,2,979,985,3,0,1610612756
71,1610612756,101108,1626163,1629013,1629661,203109,1610612758,1626158,1627741,1628368,1629056,203084,0022100153,2,1004,1004,0,2,1610612758
72,1610612756,101108,1626163,1629013,1629661,203109,1610612758,1626158,1627741,1628368,1629056,203084,0022100153,2,1020,1024,0,0,1610612756
73,1610612756,101108,1626163,1629013,1629661,203109,1610612758,1626158,1627741,1628368,1629056,203084,0022100153,2,1028,1028,0,2,1610612758
74,1610612756,101108,1626163,1628969,1629013,203109,1610612758,1626158,1628368,1629002,1629056,203084,0022100153,2,1047,1047,2,0,1610612756
75,1610612756,101108,1626163,1628969,1629013,203109,1610612758,1626158,1628368,1629002,1629056,203084,0022100153,2,1072,1076,0,0,1610612758
76,1610612756,101108,1626163,1628969,1629013,203109,1610612758,1626158,1628368,1629002,1629056,203084,0022100153,2,1082,1086,0,0,1610612756
77,1610612756,101108,1626163,1628969,1629013,203109,1610612758,1626158,1628368,1629002,1629056,203084,0022100153,2,1093,1093,0,3,1610612758
78,1610612756,101108,1626163,1628969,1629013,203109,1610612758,1626158,1628368,1629002,1629056,203084,0022100153,2,1107,1111,0,0,1610612756
79,1610612756,101108,1626163,1628969,1629013,203109,1610612758,1626158,1628368,1629002,1629056,203084,0022100153,2,1116,1116,0,2,1610612758
80,1610612756,101108,1626163,1628969,1629013,203109,1610612758,1626158,1628368,1629002,1629056,203084,0022100153,2,1136,1142,2,0,1610612756
81,1610612756,101108,1626163,1628969,1629013,203109,1610612758,1626158,1628368,1629002,1629056,203084,0022100153,2,1156,1156,0,2,1610612758
82,1610612756,101108,1626163,1628969,1629013,203109,1610612758,1626158,1628368,1629002,1629056,203084,0022100153,2,1164,1164,2,0,1610612756
83,1610612756,101108,1626163,1628969,1629013,203109,1610612758,1626158,1628368,1629002,1629056,203084,0022100153,2,1177,1177,0,0,1610612758
84,1610612756,101108,1626163,1628969,1629013,203109,1610612758,1626158,1628368,1629002,1629056,203084,0022100153,2,1182,1182,2,0,1610612756
85,1610612756,101108,1626163,1628969,1629013,203109,1610612758,1626158,1628368,1629002,1629056,203084,0022100153,2,1192,1192,0,3,1610612758
86,1610612756,1626164,1626166,1628969,201580,203109,1610612758,1626158,1627741,1628368,1629002,203084,0022100153,2,1207,1207,2,0,1610612756
87,1610612756,1626164,1626166,1628969,201580,203109,1610612758,1626158,1627741,1628368,1629002,203084,0022100153,2,1222,1222,0,3,1610612758
88,1610612756,1626164,1626166,1628969,201580,203109,1610612758,1626158,1627741,1628368,1629002,203084,0022100153,2,1243,1243,0,0,1610612756
89,1610612756,1626164,1626166,1628969,201580,203109,1610612758,1626158,1627741,1628368,1629002,203084,0022100153,2,1249,1268,0,0,1610612758
90,1610612756,1626164,1626166,1628969,201580,203109,1610612758,1626158,1627741,1628368,1629002,203084,0022100153,2,1273,1273,3,0,1610612756
91,1610612756,1626164,1626166,1628969,201580,203109,1610612758,1626158,1627741,1628368,1629002,203084,0022100153,2,1295,1295,0,2,1610612758
92,1610612756,1626164,1626166,1628969,201580,203109,1610612758,1626158,1627741,1628368,1629002,203084,0022100153,2,1307,1307,3,0,1610612756
93,1610612756,1626164,1626166,1628969,201580,203109,1610612758,1626158,1627741,1628368,1629002,203084,0022100153,2,1326,1326,0,0,1610612758
94,1610612756,1626164,1626166,1628969,201580,203109,1610612758,1626158,1627741,1628368,1629002,203084,0022100153,2,1326,1342,2,0,1610612756
95,1610612756,1626164,1626166,1628969,201580,203109,1610612758,1626158,1627741,1628368,1629056,203084,0022100153,2,1364,1364,0,2,1610612758
96,1610612756,1626164,1626166,1628969,201580,203109,1610612758,1626158,1627741,1628368,1629056,203084,0022100153,2,1377,1377,3,0,1610612756
97,1610612756,1626164,1626166,1628969,201580,203109,1610612758,1626158,1627741,1628368,1629056,203084,0022100153,2,1397,1399,0,0,1610612758
98,1610612756,1626164,1626166,1628969,201580,203109,1610612758,1626158,1627741,1628368,1629056,203084,0022100153,2,1407,1407,2,0,1610612756
99,1610612756,1626164,1626166,1628969,201580,203109,1610612758,1626158,1627741,1628368,1629056,203084,0022100153,2,1412,1431,0,1,1610612758
100,1610612756,1626164,1626166,1628969,201580,203109,1610612758,1626158,1627741,1628368,1629056,203084,0022100153,2,1435,1435,0,0,1610612756
101,1610612756,1628969,203109,201580,1626164,101108,1610612758,203084,203090,1626158,1627741,1628368,0022100153,3,1440,1458,0,0,1610612758
102,1610612756,1628969,203109,201580,1626164,101108,1610612758,203084,203090,1626158,1627741,1628368,0022100153,3,1466,1470,0,0,1610612756
103,1610612756,1628969,203109,201580,1626164,101108,1610612758,203084,203090,1626158,1627741,1628368,0022100153,3,1479,1483,0,0,1610612758
104,1610612756,1628969,203109,201580,1626164,101108,1610612758,203084,203090,1626158,1627741,1628368,0022100153,3,1493,1496,0,0,1610612756
105,1610612756,1628969,203109,201580,1626164,101108,1610612758,203084,203090,1626158,1627741,1628368,0022100153,3,1502,1506,0,0,1610612758
106,1610612756,1628969,203109,201580,1626164,101108,1610612758,203084,203090,1626158,1627741,1628368,0022100153,3,1509,1509,2,0,1610612756
107,1610612756,1628969,203109,201580,1626164,101108,1610612758,203084,203090,1626158,1627741,1628368,0022100153,3,1533,1537,0,0,1610612758
108,1610612756,1628969,203109,201580,1626164,101108,1610612758,203084,203090,1626158,1627741,1628368,0022100153,3,1553,1553,2,0,1610612756
109,1610612756,1628969,203109,201580,1626164,101108,1610612758,203084,203090,1626158,1627741,1628368,0022100153,3,1562,1562,0,0,1610612758
110,1610612756,1628969,203109,201580,1626164,101108,1610612758,203084,203090,1626158,1627741,1628368,0022100153,3,1571,1571,3,0,1610612756
111,1610612756,1628969,203109,201580,1626164,101108,1610612758,1627741,1628368,1630558,203084,203458,0022100153,3,1582,1586,0,0,1610612758
112,1610612756,1628969,203109,201580,1626164,101108,1610612758,1627741,1628368,1630558,203084,203458,0022100153,3,1598,1601,0,0,1610612756
113,1610612756,1628969,203109,201580,1626164,101108,1610612758,1627741,1628368,1630558,203084,203458,0022100153,3,1609,1611,0,0,1610612758
114,1610612756,1628969,203109,201580,1626164,101108,1610612758,1627741,1628368,1630558,203084,203458,0022100153,3,1624,1628,0,0,1610612756
115,1610612756,1628969,203109,201580,1626164,101108,1610612758,1627741,1628368,1630558,203084,203458,0022100153,3,1632,1640,0,0,1610612758
116,1610612756,1628969,203109,201580,1626164,101108,1610612758,1627741,1628368,1630558,203084,203458,0022100153,3,1643,1643,2,0,1610612756
117,1610612756,1628969,203109,201580,1626164,101108,1610612758,1627741,1628368,1630558,203084,203458,0022100153,3,1644,1657,0,0,1610612758
118,1610612756,1628969,203109,201580,1626164,101108,1610612758,1627741,1628368,1630558,203084,203458,0022100153,3,1662,1662,2,0,1610612756
119,1610612756,1628969,203109,201580,1626164,101108,1610612758,1627741,1628368,1630558,203084,203458,0022100153,3,1673,1676,0,0,1610612758
120,1610612756,1628969,203109,201580,1626164,101108,1610612758,1627741,1628368,1630558,203084,203458,0022100153,3,1683,1692,3,0,1610612756
121,1610612756,1628969,203109,201580,1626164,101108,1610612758,1627741,1628368,1630558,203084,203458,0022100153,3,1709,1717,0,0,1610612758
122,1610612756,1628969,203109,201580,1626164,101108,1610612758,1627741,1628368,1630558,203084,203458,0022100153,3,1722,1725,0,0,1610612756
123,1610612756,1628969,203109,201580,1626164,101108,1610612758,1627741,1628368,1630558,203084,203458,0022100153,3,1732,1732,0,0,1610612758
124,1610612756,1628969,203109,201580,1626164,101108,1610612758,1627741,1628368,1630558,203084,203458,0022100153,3,1741,1741,0,0,1610612756
125,1610612756,1628969,203109,201580,1626164,101108,1610612758,1627741,1628368,1630558,203084,203458,0022100153,3,1745,1745,0,2,1610612758
126,1610612756,1628969,203109,201580,1626164,101108,1610612758,1627741,1628368,1630558,203084,203458,0022100153,3,1760,1760,2,0,1610612756
127,1610612756,1628969,203109,201580,1626164,101108,1610612758,1627741,1628368,1630558,203084,203458,0022100153,3,1776,1779,0,3,1610612758
128,1610612756,1628969,203109,201580,1626164,101108,1610612758,1628368,1629056,1630558,203084,203458,0022100153,3,1791,1796,2,0,1610612756
129,1610612756,1628969,203109,201580,1626164,101108,1610612758,1628368,1629056,1630558,203084,203458,0022100153,3,1809,1809,0,3,1610612758
130,1610612756,1628969,203109,201580,1626164,101108,1610612758,1628368,1629056,1630558,203084,203458,0022100153,3,1818,1834,0,0,1610612756
131,1610612756,1628969,203109,201580,1626164,101108,1610612758,1628368,1629056,1630558,203084,203458,0022100153,3,1842,1845,0,0,1610612758
132,1610612756,1628969,203109,201580,1626164,101108,1610612758,1628368,1629056,1630558,203084,203458,0022100153,3,1849,1852,0,0,1610612756
133,1610612756,1628969,203109,201580,1626164,101108,1610612758,1628368,1629056,1630558,203084,203458,0022100153,3,1855,1855,0,0,1610612758
134,1610612756,1628969,203109,201580,1626164,101108,1610612758,1628368,1629056,1630558,203084,203458,0022100153,3,1857,1857,2,0,1610612756
135,1610612756,1628969,203109,201580,1626164,101108,1610612758,1628368,1629056,1630558,203084,203458,0022100153,3,1858,1874,0,0,1610612758
136,1610612756,1628969,203109,201580,1626164,101108,1610612758,1626158,1628368,1629056,1630558,203084,0022100153,3,1878,1896,0,0,1610612756
137,1610612756,1628969,203109,201580,1626164,101108,1610612758,1626158,1628368,1629056,1630558,203084,0022100153,3,1904,1904,0,0,1610612758
138,1610612756,1628969,203109,201580,1626164,101108,1610612758,1626158,1628368,1629056,1630558,203084,0022100153,3,1909,1909,2,0,1610612756
139,1610612756,1628969,203109,201580,1626164,101108,1610612758,1626158,1628368,1629056,1630558,203084,0022100153,3,1923,1923,0,0,1610612758
140,1610612756,1626163,1626164,1626166,1628969,1629661,1610612758,1626158,1627741,1629056,1630558,203084,0022100153,3,1943,1943,2,0,1610612756
141,1610612756,1626163,1626164,1626166,1628969,1629661,1610612758,1626158,1627741,1629056,1630558,203084,0022100153,3,1963,1965,0,0,1610612758
142,1610612756,1626163,1626164,1626166,1628969,1629661,1610612758,1626158,1627741,1629056,1630558,203084,0022100153,3,1969,1971,0,0,1610612756
143,1610612756,1626163,1626164,1626166,1628969,1629661,1610612758,1626158,1627741,1629056,1630558,203084,0022100153,3,1975,1976,0,0,1610612758
144,1610612756,1626163,1626164,1626166,1628969,1629661,1610612758,1626158,1627741,1629056,1630558,203084,0022100153,3,1984,1984,2,0,1610612756
145,1610612756,1626163,1626164,1626166,1628969,1629661,1610612758,1626158,1627741,1629056,1630558,203084,0022100153,3,1996,1996,0,2,1610612758
146,1610612756,1626163,1626164,1626166,1628969,1629661,1610612758,1626158,1627741,1629056,1630558,203084,0022100153,3,1996,2008,2,0,1610612756
147,1610612756,1626163,1626164,1626166,1628969,1629661,1610612758,1626158,1627741,1629056,1630558,203084,0022100153,3,2026,2029,0,0,1610612758
148,1610612756,1626163,1626164,1626166,1628969,1629661,1610612758,1626158,1627741,1629056,1630558,203084,0022100153,3,2031,2031,0,0,1610612756
149,1610612756,1626163,1626164,1626166,1629013,1629661,1610612758,1626158,1627741,1629002,1629056,1630558,0022100153,3,2045,2049,0,0,1610612758
150,1610612756,1626163,1626164,1626166,1629013,1629661,1610612758,1626158,1627741,1629002,1629056,1630558,0022100153,3,2059,2062,0,0,1610612756
151,1610612756,1626163,1626164,1626166,1629013,1629661,1610612758,1626158,1627741,1629002,1629056,1630558,0022100153,3,2067,2067,0,0,1610612758
152,1610612756,1626163,1626164,1626166,1629013,1629661,1610612758,1626158,1627741,1629002,1629056,1630558,0022100153,3,2075,2075,3,0,1610612756
153,1610612756,1626163,1626164,1626166,1629013,1629661,1610612758,1626158,1627741,1629002,1629056,1630558,0022100153,3,2095,2104,0,0,1610612758
154,1610612756,1626163,1626164,1626166,1629013,1629661,1610612758,1626158,1627741,1629002,1629056,1630558,0022100153,3,2125,2127,0,0,1610612756
155,1610612756,1626163,1626164,1626166,1629013,1629661,1610612758,1626158,1627741,1629002,1629056,1630558,0022100153,3,2142,2142,0,2,1610612758
156,1610612756,1626163,1626164,1626166,1629013,1629661,1610612758,1626158,1627741,1629002,1629056,1630558,0022100153,3,2159,2159,0,0,1610612756
157,1610612756,1626163,1629661,1626166,1629013,1627846,1610612758,1627741,1629056,1630558,1629002,1627745,0022100153,4,2160,2182,0,0,1610612756
158,1610612756,1626163,1629661,1626166,1629013,1627846,1610612758,1627741,1629056,1630558,1629002,1627745,0022100153,4,2198,2198,0,0,1610612758
159,1610612756,1626163,1629661,1626166,1629013,1627846,1610612758,1627741,1629056,1630558,1629002,1627745,0022100153,4,2211,2222,0,0,1610612756
160,1610612756,1626163,1629661,1626166,1629013,1627846,1610612758,1627741,1629056,1630558,1629002,1627745,0022100153,4,2222,2246,0,0,1610612758
161,1610612756,1626163,1629661,1626166,1629013,1627846,1610612758,1627741,1629056,1630558,1629002,1627745,0022100153,4,2253,2253,0,0,1610612756
162,1610612756,1626163,1629661,1626166,1629013,1627846,1610612758,1627741,1629056,1630558,1629002,1627745,0022100153,4,2260,2269,0,0,1610612758
163,1610612756,1626163,1629661,1626166,1629013,1627846,1610612758,1627741,1629056,1630558,1629002,1627745,0022100153,4,2286,2291,0,0,1610612756
164,1610612756,1626163,1629661,1626166,1629013,1627846,1610612758,1627741,1629056,1630558,1629002,1627745,0022100153,4,2297,2297,0,2,1610612758
165,1610612756,1626163,1629661,1626166,1629013,1627846,1610612758,1627741,1629056,1630558,1629002,1627745,0022100153,4,2306,2317,0,0,1610612756
166,1610612756,1626163,1629661,1626166,1629013,1627846,1610612758,1627745,1628368,1629002,1629056,1630186,0022100153,4,2330,2330,0,2,1610612758
167,1610612756,1626163,1626166,1627846,1628969,1629661,1610612758,1627745,1628368,1629002,1629056,1630186,0022100153,4,2342,2345,0,0,1610612756
168,1610612756,1626163,1626166,1627846,1628969,1629661,1610612758,1627745,1628368,1629002,1629056,1630186,0022100153,4,2353,2357,0,0,1610612758
169,1610612756,1626163,1626166,1627846,1628969,1629661,1610612758,1627745,1628368,1629002,1630186,1630558,0022100153,4,2372,2372,3,0,1610612756
170,1610612756,1626163,1626166,1627846,1628969,1629661,1610612758,1627745,1628368,1629002,1630186,1630558,0022100153,4,2388,2388,0,2,1610612758
171,1610612756,1626163,1626166,1627846,1628969,1629661,1610612758,1627745,1628368,1629002,1630186,1630558,0022100153,4,2410,2413,0,0,1610612756
172,1610612756,1626163,1626166,1627846,1628969,1629661,1610612758,1627745,1628368,1629002,1630186,1630558,0022100153,4,2419,2419,0,2,1610612758
173,1610612756,1626163,1626166,1627846,1628969,1629661,1610612758,1627745,1628368,1629002,1630186,1630558,0022100153,4,2443,2443,2,0,1610612756
174,1610612756,1626163,1626166,1627846,1628969,1629661,1610612758,1627745,1628368,1629002,1630186,1630558,0022100153,4,2451,2464,0,0,1610612758
175,1610612756,1626163,1626166,1627846,1628969,1629661,1610612758,1627745,1628368,1629002,1630558,203084,0022100153,4,2473,2473,0,0,1610612756
176,1610612756,1626163,1626166,1627846,1628969,1629661,1610612758,1627745,1628368,1629002,1630558,203084,0022100153,4,2479,2479,0,0,1610612758
177,1610612756,1626163,1626166,1627846,1628969,1629661,1610612758,1627745,1628368,1629002,1630558,203084,0022100153,4,2479,2498,0,0,1610612756
178,1610612756,1626163,1626166,1627846,1628969,1629661,1610612758,1627745,1628368,1629002,1630558,203084,0022100153,4,2507,2507,0,2,1610612758
179,1610612756,1626163,1626166,1627846,1628969,1629661,1610612758,1627745,1628368,1629002,1630558,203084,0022100153,4,2518,2518,0,0,1610612756
180,1610612756,1626163,1626166,1627846,1628969,1629661,1610612758,1627745,1628368,1629002,1630558,203084,0022100153,4,2522,2522,0,2,1610612758
181,1610612756,1626163,1626166,1627846,1628969,1629661,1610612758,1627745,1628368,1629002,1630558,203084,0022100153,4,2541,2541,2,0,1610612756
182,1610612756,1626163,1626166,1627846,1628969,1629661,1610612758,1627745,1628368,1629002,1630558,203084,0022100153,4,2551,2551,0,2,1610612758
183,1610612756,1626163,1626166,1627846,1628969,1629661,1610612758,1627745,1628368,1629002,1630558,203084,0022100153,4,2580,2580,0,0,1610612756
184,1610612756,1626163,1626166,1627846,1628969,1629661,1610612758,1627745,1628368,1629002,1630558,203084,0022100153,4,2589,2589,0,2,1610612758
185,1610612756,101108,1626164,1628969,201580,203109,1610612758,1627745,1628368,1629002,1630558,203084,0022100153,4,2594,2594,0,0,1610612756
186,1610612756,101108,1626164,1628969,201580,203109,1610612758,1627745,1628368,1629002,1630558,203084,0022100153,4,2605,2605,0,2,1610612758
187,1610612756,101108,1626164,1628969,201580,203109,1610612758,1627745,1628368,1629002,1630558,203084,0022100153,4,2627,2636,0,0,1610612756
188,1610612756,101108,1626164,1628969,201580,203109,1610612758,1627745,1628368,1629002,1630558,203084,0022100153,4,2638,2638,0,2,1610612758
189,1610612756,101108,1626164,1628969,201580,203109,1610612758,1627745,1628368,1629002,1630558,203084,0022100153,4,2640,2669,0,0,1610612756
190,1610612756,101108,1626164,1628969,201580,203109,1610612758,1627745,1628368,1629002,1630558,203084,0022100153,4,2677,2677,0,0,1610612758
191,1610612756,101108,1626164,1628969,201580,203109,1610612758,1627745,1628368,1629002,1630558,203084,0022100153,4,2689,2689,0,0,1610612756
192,1610612756,101108,1626164,1628969,201580,203109,1610612758,1627745,1628368,1629002,1630558,203084,0022100153,4,2697,2697,0,2,1610612758
193,1610612756,101108,1626164,1628969,201580,203109,1610612758,1627745,1628368,1629002,1630558,203084,0022100153,4,2697,2722,0,0,1610612756
194,1610612756,101108,1626164,1628969,201580,203109,1610612758,1627745,1628368,1629002,1630558,203084,0022100153,4,2724,2724,0,2,1610612758
195,1610612756,101108,1626164,1628969,201580,203109,1610612758,1627745,1628368,1629002,1630558,203084,0022100153,4,2746,2746,2,0,1610612756
196,1610612756,101108,1626164,1628969,201580,203109,1610612758,1627745,1628368,1629002,1630558,203084,0022100153,4,2764,2765,0,2,1610612758
197,1610612756,101108,1626164,1628969,201580,203109,1610612758,1627745,1628368,1629002,1630558,203084,0022100153,4,2788,2806,0,0,1610612756
198,1610612756,101108,1626164,1628969,201580,203109,1610612758,1627745,1628368,1629002,1630558,203084,0022100153,4,2808,2808,0,0,1610612758
199,1610612756,101108,1626164,1628969,201580,203109,1610612758,1627745,1628368,1629002,1630558,203084,0022100153,4,2808,2835,0,0,1610612756
200,1610612756,101108,1626164,1628969,201580,203109,1610612758,1627745,1628368,1629002,1630558,203084,0022100153,4,2845,2850,0,0,1610612758
201,1610612756,101108,1626164,1628969,201580,203109,1610612758,1627745,1628368,1629002,1630558,203084,0022100153,4,2856,2866,0,0,1610612756
202,1610612756,101108,1626164,1628969,201580,203109,1610612758,1627745,1628368,1629002,1630558,203084,0022100153,4,2871,2871,0,2,1610612758
203,1610612756,101108,1626164,1628969,201580,203109,1610612758,1627745,1628368,1629002,1630558,203084,0022100153,4,2872,2872,0,0,1610612756
204,1610612756,101108,1626164,1628969,1629661,203109,1610612758,1627741,1627745,1628368,1629002,203084,0022100153,4,2875,2875,0,0,1610612758
205,1610612756,101108,1626164,1628969,1629661,203109,1610612758,1627741,1627745,1628368,1629002,203084,0022100153,4,2876,2876,2,0,1610612756
206,1610612756,101108,1626164,1628969,1629661,203109,1610612758,1627741,1627745,1628368,1629002,203084,0022100153,4,2876,2878,0,0,1610612758
