,team1_id,team1_player1,team1_player2,team1_player3,team1_player4,team1_player5,team2_id,team2_player1,team2_player2,team2_player3,team2_player4,team2_player5,game_id,period,possession_start,possession_end,team1_points,team2_points,possession_team
0,1610612747,1628398,202693,1627745,203484,203471,1610612758,203084,1628963,1626158,1627741,1628368,0022000551,1,0,25,3,0,1610612747
1,1610612747,1628398,202693,1627745,203484,203471,1610612758,203084,1628963,1626158,1627741,1628368,0022000551,1,41,46,0,2,1610612758
2,1610612747,1628398,202693,1627745,203484,203471,1610612758,203084,1628963,1626158,1627741,1628368,0022000551,1,68,71,0,0,1610612747
3,1610612747,1628398,202693,1627745,203484,203471,1610612758,203084,1628963,1626158,1627741,1628368,0022000551,1,72,72,0,0,1610612758
4,1610612747,1628398,202693,1627745,203484,203471,1610612758,203084,1628963,1626158,1627741,1628368,0022000551,1,90,93,0,0,1610612747
5,1610612747,1628398,202693,1627745,203484,203471,1610612758,203084,1628963,1626158,1627741,1628368,0022000551,1,99,110,0,0,1610612758
6,1610612747,1628398,202693,1627745,203484,203471,1610612758,203084,1628963,1626158,1627741,1628368,0022000551,1,122,122,2,0,1610612747
7,1610612747,1628398,202693,1627745,203484,203471,1610612758,203084,1628963,1626158,1627741,1628368,0022000551,1,139,139,0,2,1610612758
8,1610612747,1628398,202693,1627745,203484,203471,1610612758,203084,1628963,1626158,1627741,1628368,0022000551,1,152,169,2,0,1610612747
9,1610612747,1628398,202693,1627745,203484,203471,1610612758,203084,1628963,1626158,1627741,1628368,0022000551,1,190,190,0,3,1610612758
10,1610612747,1628398,202693,1627745,203484,203471,1610612758,203084,1628963,1626158,1627741,1628368,0022000551,1,207,207,2,0,1610612747
11,1610612747,1628398,202693,1627745,203484,203471,1610612758,203084,1628963,1626158,1627741,1628368,0022000551,1,212,212,0,0,1610612758
12,1610612747,1628398,202693,1627745,203484,203471,1610612758,203084,1628963,1626158,1627741,1628368,0022000551,1,221,226,0,0,1610612747
13,1610612747,1628398,202693,1627745,203484,203471,1610612758,203084,1628963,1626158,1627741,1628368,0022000551,1,237,240,0,0,1610612758
14,1610612747,1628398,202693,1627745,203484,203471,1610612758,203084,1628963,1626158,1627741,1628368,0022000551,1,244,244,2,0,1610612747
15,1610612747,1628398,202693,1627745,203484,203471,1610612758,203084,1628963,1626158,1627741,1628368,0022000551,1,255,255,0,2,1610612758
16,1610612747,1628398,202693,1627745,203484,203471,1610612758,203084,1628963,1626158,1627741,1628368,0022000551,1,263,271,2,0,1610612747
17,1610612747,1628398,202693,1627745,203484,203471,1610612758,203084,1628963,1626158,1627741,1628368,0022000551,1,286,290,0,0,1610612758
18,1610612747,1628398,202693,1627745,203484,203471,1610612758,203084,1628963,1626158,1627741,1628368,0022000551,1,292,292,0,0,1610612747
19,1610612747,1628398,202693,1627745,203484,203471,1610612758,203084,1628963,1626158,1627741,1628368,0022000551,1,295,300,0,2,1610612758
20,1610612747,1628398,202693,1627745,203484,203471,1610612758,203084,1628963,1626158,1627741,1628368,0022000551,1,309,309,2,0,1610612747
21,1610612747,1628398,202693,1627745,203484,203471,1610612758,203084,1628963,1626158,1627741,1628368,0022000551,1,324,327,0,0,1610612758
22,1610612747,1628398,202693,1627745,203484,203471,1610612758,203084,1628963,1626158,1627741,1628368,0022000551,1,341,343,0,0,1610612747
23,1610612747,1628398,202693,1627745,203484,203471,1610612758,203084,1628963,1626158,1627741,1628368,0022000551,1,355,358,0,0,1610612758
24,1610612747,1628398,202693,1627745,203484,203471,1610612758,203084,1628963,1626158,1627741,1628368,0022000551,1,381,381,3,0,1610612747
25,1610612747,1628398,202693,1627745,203484,203471,1610612758,203084,1628963,1626158,1627741,1628368,0022000551,1,382,398,0,0,1610612758
26,1610612747,1626149,1628398,202693,203471,203484,1610612758,1627741,1628368,1628963,202357,203084,0022000551,1,401,401,3,0,1610612747
27,1610612747,1626149,1628398,202693,203471,203484,1610612758,1627741,1628368,1628963,202357,203084,0022000551,1,412,417,0,0,1610612758
28,1610612747,1626149,1628398,202693,203471,203484,1610612758,1627741,1628368,1628963,202357,203084,0022000551,1,420,420,2,0,1610612747
29,1610612747,1626149,1628398,202693,203471,203484,1610612758,1627741,1628368,1628963,202357,203084,0022000551,1,438,438,0,0,1610612758
30,1610612747,1626149,1628398,202693,203471,203484,1610612758,1627741,1628368,1628963,202357,203084,0022000551,1,460,460,2,0,1610612747
31,1610612747,1626149,1628398,202693,203471,203484,1610612758,1627741,1628368,1628963,202357,203084,0022000551,1,475,475,0,2,1610612758
32,1610612747,1626149,1628398,202693,203471,203484,1610612758,1627741,1628368,1628963,202357,203084,0022000551,1,483,500,0,0,1610612747
33,1610612747,1626149,1628398,1629659,202083,203471,1610612758,1627741,1628963,1629610,202357,202709,0022000551,1,513,513,0,0,1610612758
34,1610612747,1626149,1628398,1629659,202083,203471,1610612758,1627741,1628963,1629610,202357,202709,0022000551,1,516,526,2,0,1610612747
35,1610612747,1626149,1628398,1629659,202083,203471,1610612758,1627741,1628963,1629610,202357,202709,0022000551,1,540,557,0,2,1610612758
36,1610612747,1626149,1628035,1629659,201162,202083,1610612758,1626158,1629610,202357,202709,203084,0022000551,1,572,574,0,0,1610612747
37,1610612747,1626149,1628035,1629659,201162,202083,1610612758,1626158,1629610,202357,202709,203084,0022000551,1,585,585,0,3,1610612758
38,1610612747,1626149,1628035,1629659,201162,202083,1610612758,1626158,1629610,202357,202709,203084,0022000551,1,591,591,0,0,1610612747
39,1610612747,1626149,1628035,1629659,201162,202083,1610612758,1626158,1629610,202357,202709,203084,0022000551,1,608,611,0,0,1610612758
40,1610612747,1626149,1628035,1629659,201162,202083,1610612758,1626158,1629610,202357,202709,203084,0022000551,1,620,620,2,0,1610612747
41,1610612747,1626149,1628035,1629659,201162,202083,1610612758,1626158,1629610,202357,202709,203084,0022000551,1,627,630,0,1,1610612758
42,1610612747,1626149,1628035,1629659,201162,202083,1610612758,1626158,1629610,202357,202709,203084,0022000551,1,643,643,2,0,1610612747
43,1610612747,1626149,1628035,1629659,201162,202083,1610612758,1626158,1629610,202357,202709,203084,0022000551,1,661,661,0,2,1610612758
44,1610612747,1626149,1628035,1629659,201162,202083,1610612758,1626158,1629610,202357,202709,203084,0022000551,1,670,670,0,0,1610612747
45,1610612747,1626149,1628035,1629659,201162,202083,1610612758,1626158,1629610,202357,202709,203084,0022000551,1,672,672,0,2,1610612758
46,1610612747,1626149,1628035,1629659,201162,202083,1610612758,1626158,1629610,202357,202709,203084,0022000551,1,695,697,0,0,1610612747
47,1610612747,1626149,1628035,1629659,201162,202083,1610612758,1626158,1629610,202357,202709,203084,0022000551,1,705,708,0,0,1610612758
48,1610612747,1626149,1628035,1629659,201162,202083,1610612758,1626158,1629610,202357,202709,203084,0022000551,1,719,719,0,0,1610612747
49,1610612747,1626149,1629659,202083,201162,1628035,1610612758,1626158,1628368,202357,202709,1629610,0022000551,2,720,737,0,3,1610612758
50,1610612747,1626149,1629659,202083,201162,1628035,1610612758,1626158,1628368,202357,202709,1629610,0022000551,2,758,758,0,0,1610612747
51,1610612747,1626149,1629659,202083,201162,1628035,1610612758,1626158,1628368,202357,202709,1629610,0022000551,2,758,781,0,0,1610612758
52,1610612747,1626149,1629659,202083,201162,1628035,1610612758,1626158,1628368,202357,202709,1629610,0022000551,2,789,789,2,0,1610612747
53,1610612747,1626149,1629659,202083,201162,1628035,1610612758,1626158,1628368,202357,202709,1629610,0022000551,2,790,807,0,1,1610612758
54,1610612747,1626149,1629659,202083,201162,1628035,1610612758,1626158,1628368,202357,202709,1629610,0022000551,2,812,829,0,0,1610612747
55,1610612747,1626149,1629659,202083,201162,1628035,1610612758,1626158,1628368,202357,202709,1629610,0022000551,2,829,829,0,0,1610612758
56,1610612747,1626149,1629659,202083,201162,1628035,1610612758,1626158,1628368,202357,202709,1629610,0022000551,2,829,829,2,0,1610612747
57,1610612747,1626149,1629659,202083,201162,1628035,1610612758,1626158,1628368,202357,202709,1629610,0022000551,2,846,846,0,0,1610612758
58,1610612747,1626149,1629659,202083,201162,1628035,1610612758,1626158,1628368,202357,202709,1629610,0022000551,2,850,850,2,0,1610612747
59,1610612747,1626149,1629659,202083,201162,1628035,1610612758,1626158,1628368,202357,202709,1629610,0022000551,2,850,859,0,2,1610612758
60,1610612747,1626149,1629659,202083,201162,1628035,1610612758,1627741,1628368,1628963,202709,203084,0022000551,2,877,882,2,0,1610612747
61,1610612747,1626149,1629659,202083,201162,1628035,1610612758,1627741,1628368,1628963,202709,203084,0022000551,2,891,895,0,1,1610612758
62,1610612747,1626149,1629659,202083,201162,1628035,1610612758,1627741,1628368,1628963,202709,203084,0022000551,2,905,908,0,0,1610612747
63,1610612747,1626149,1629659,202083,201162,1628035,1610612758,1627741,1628368,1628963,202709,203084,0022000551,2,923,923,0,3,1610612758
64,1610612747,1626149,1629659,202083,201162,1628035,1610612758,1627741,1628368,1628963,202709,203084,0022000551,2,941,941,2,0,1610612747
65,1610612747,1626149,1629659,202083,201162,1628035,1610612758,1627741,1628368,1628963,202709,203084,0022000551,2,963,963,0,2,1610612758
66,1610612747,1626149,1629659,202083,201162,1628035,1610612758,1627741,1628368,1628963,202709,203084,0022000551,2,983,986,0,0,1610612747
67,1610612747,1626149,1629659,202083,201162,1628035,1610612758,1627741,1628368,1628963,202709,203084,0022000551,2,993,993,0,2,1610612758
68,1610612747,1626149,1629659,202083,201162,1628035,1610612758,1627741,1628368,1628963,202709,203084,0022000551,2,999,1009,2,0,1610612747
69,1610612747,1627745,1628398,1629659,202693,203471,1610612758,1627741,1628368,1628963,202709,203084,0022000551,2,1027,1027,0,3,1610612758
70,1610612747,1627745,1628398,1629659,202693,203471,1610612758,1627741,1628368,1628963,202709,203084,0022000551,2,1048,1048,0,0,1610612747
71,1610612747,1627745,1628398,1629659,202693,203471,1610612758,1627741,1628368,1628963,202709,203084,0022000551,2,1054,1054,0,3,1610612758
72,1610612747,1627745,1628398,1629659,202693,203471,1610612758,1627741,1628368,1628963,202709,203084,0022000551,2,1073,1073,0,0,1610612747
73,1610612747,1627745,1628398,1629659,202693,203471,1610612758,1627741,1628368,1628963,202709,203084,0022000551,2,1077,1077,0,2,1610612758
74,1610612747,1627745,1628398,1629659,202693,203471,1610612758,1627741,1628368,1628963,202709,203084,0022000551,2,1077,1091,3,0,1610612747
75,1610612747,1627745,1628398,202693,203471,203484,1610612758,1627741,1628368,1628963,202709,203084,0022000551,2,1110,1110,0,2,1610612758
76,1610612747,1627745,1628398,202693,203471,203484,1610612758,1627741,1628368,1628963,202709,203084,0022000551,2,1123,1123,2,0,1610612747
77,1610612747,1627745,1628398,202693,203471,203484,1610612758,1627741,1628368,1628963,202709,203084,0022000551,2,1147,1147,0,0,1610612758
78,1610612747,1627745,1628398,202693,203471,203484,1610612758,1627741,1628368,1628963,202709,203084,0022000551,2,1153,1153,2,0,1610612747
79,1610612747,1627745,1628398,202693,203471,203484,1610612758,1627741,1628368,1628963,202709,203084,0022000551,2,1164,1164,0,3,1610612758
80,1610612747,1627745,1628398,202693,203471,203484,1610612758,1627741,1628368,1628963,202709,203084,0022000551,2,1190,1190,3,0,1610612747
81,1610612747,1627745,1628398,202693,203471,203484,1610612758,1627741,1628368,1628963,202709,203084,0022000551,2,1205,1205,0,2,1610612758
82,1610612747,1627745,1628398,202693,203471,203484,1610612758,1627741,1628368,1628963,202709,203084,0022000551,2,1219,1219,0,0,1610612747
83,1610612747,1626149,1628398,202693,203471,203484,1610612758,1626158,1627741,1628368,202709,203084,0022000551,2,1230,1232,0,0,1610612758
84,1610612747,1626149,1628398,202693,203471,203484,1610612758,1626158,1627741,1628368,202709,203084,0022000551,2,1239,1243,2,0,1610612747
85,1610612747,1626149,1628398,202693,203471,203484,1610612758,1626158,1627741,1628368,202709,203084,0022000551,2,1260,1260,0,2,1610612758
86,1610612747,1626149,1628398,202693,203471,203484,1610612758,1626158,1627741,1628368,202709,203084,0022000551,2,1268,1268,0,0,1610612747
87,1610612747,1626149,1628398,202693,203471,203484,1610612758,1626158,1627741,1628368,202709,203084,0022000551,2,1279,1280,0,0,1610612758
88,1610612747,1626149,1628398,202693,203471,203484,1610612758,1626158,1627741,1628368,202709,203084,0022000551,2,1297,1301,0,0,1610612747
89,1610612747,1626149,1628398,202693,203471,203484,1610612758,1626158,1627741,1628368,202709,203084,0022000551,2,1302,1302,0,3,1610612758
90,1610612747,1626149,1628398,202693,203471,203484,1610612758,1626158,1627741,1628368,202357,202709,0022000551,2,1316,1316,2,0,1610612747
91,1610612747,1626149,1628398,202693,203471,203484,1610612758,1626158,1627741,1628368,202357,202709,0022000551,2,1325,1326,0,0,1610612758
92,1610612747,1626149,1628398,202693,203471,203484,1610612758,1626158,1627741,1628368,202357,202709,0022000551,2,1340,1352,0,0,1610612747
93,1610612747,1626149,1628398,202693,203471,203484,1610612758,1626158,1627741,1628368,202357,202709,0022000551,2,1358,1358,0,2,1610612758
94,1610612747,1626149,1628398,202693,203471,203484,1610612758,1626158,1627741,1628368,202357,202709,0022000551,2,1376,1379,2,0,1610612747
95,1610612747,1626149,1628398,202693,203471,203484,1610612758,1626158,1627741,1628368,202357,202709,0022000551,2,1389,1389,0,2,1610612758
96,1610612747,1626149,1628398,202693,203471,203484,1610612758,1626158,1627741,1628368,202357,202709,0022000551,2,1397,1397,1,0,1610612747
97,1610612747,1626149,1628398,202693,203471,203484,1610612758,1626158,1627741,1628368,202357,202709,0022000551,2,1412,1413,0,0,1610612758
98,1610612747,1626149,1628398,202693,203471,203484,1610612758,1626158,1627741,1628368,202357,202709,0022000551,2,1432,1432,1,0,1610612747
99,1610612747,1626149,202083,202693,203471,203484,1610612758,1626158,1627741,1628368,202357,202709,0022000551,2,1440,1440,0,2,1610612758
100,1610612747,1626149,202083,202693,203471,203484,1610612758,1626158,1627741,1628368,202357,202709,0022000551,2,1440,1440,0,0,305
101,1610612747,1628398,202693,1627745,203484,203471,1610612758,203084,1628963,1626158,1627741,1628368,0022000551,3,1440,1455,0,2,1610612758
102,1610612747,1628398,202693,1627745,203484,203471,1610612758,203084,1628963,1626158,1627741,1628368,0022000551,3,1468,1482,0,0,1610612747
103,1610612747,1628398,202693,1627745,203484,203471,1610612758,203084,1628963,1626158,1627741,1628368,0022000551,3,1495,1495,0,2,1610612758
104,1610612747,1628398,202693,1627745,203484,203471,1610612758,203084,1628963,1626158,1627741,1628368,0022000551,3,1507,1510,0,0,1610612747
105,1610612747,1628398,202693,1627745,203484,203471,1610612758,203084,1628963,1626158,1627741,1628368,0022000551,3,1518,1518,0,2,1610612758
106,1610612747,1628398,202693,1627745,203484,203471,1610612758,203084,1628963,1626158,1627741,1628368,0022000551,3,1518,1542,3,0,1610612747
107,1610612747,1628398,202693,1627745,203484,203471,1610612758,203084,1628963,1626158,1627741,1628368,0022000551,3,1570,1570,0,0,1610612758
108,1610612747,1628398,202693,1627745,203484,203471,1610612758,203084,1628963,1626158,1627741,1628368,0022000551,3,1583,1583,2,0,1610612747
109,1610612747,1628398,202693,1627745,203484,203471,1610612758,203084,1628963,1626158,1627741,1628368,0022000551,3,1596,1599,0,0,1610612758
110,1610612747,1628398,202693,1627745,203484,203471,1610612758,203084,1628963,1626158,1627741,1628368,0022000551,3,1603,1603,2,0,1610612747
111,1610612747,1628398,202693,1627745,203484,203471,1610612758,203084,1628963,1626158,1627741,1628368,0022000551,3,1603,1626,0,2,1610612758
112,1610612747,1628398,202693,1627745,203484,203471,1610612758,203084,1628963,1626158,1627741,1628368,0022000551,3,1654,1656,0,0,1610612747
113,1610612747,1628398,202693,1627745,203484,203471,1610612758,203084,1628963,1626158,1627741,1628368,0022000551,3,1662,1662,0,0,1610612758
114,1610612747,1628398,202693,1627745,203484,203471,1610612758,203084,1628963,1626158,1627741,1628368,0022000551,3,1679,1679,0,0,1610612747
115,1610612747,1628398,202693,1627745,203484,203471,1610612758,203084,1628963,1626158,1627741,1628368,0022000551,3,1679,1694,0,2,1610612758
116,1610612747,1628398,202693,1627745,203484,203471,1610612758,203084,1628963,1626158,1627741,1628368,0022000551,3,1706,1712,2,0,1610612747
117,1610612747,1628398,202693,1627745,203484,203471,1610612758,203084,1628963,1626158,1627741,1628368,0022000551,3,1718,1729,0,0,1610612758
118,1610612747,1626149,1628398,202693,203471,203484,1610612758,1626158,1627741,1628368,202357,203084,0022000551,3,1746,1750,2,0,1610612747
119,1610612747,1626149,1628398,202693,203471,203484,1610612758,1626158,1627741,1628368,202357,203084,0022000551,3,1751,1765,0,2,1610612758
120,1610612747,1626149,1628398,202693,203471,203484,1610612758,1626158,1627741,1628368,202357,203084,0022000551,3,1784,1784,2,0,1610612747
121,1610612747,1626149,1628398,202693,203471,203484,1610612758,1626158,1627741,1628368,202357,203084,0022000551,3,1794,1794,0,0,1610612758
122,1610612747,1626149,1628398,202693,203471,203484,1610612758,1626158,1627741,1628368,202357,203084,0022000551,3,1797,1818,0,0,1610612747
123,1610612747,1626149,1628398,202693,203471,203484,1610612758,1626158,1627741,202357,202709,203084,0022000551,3,1832,1834,0,0,1610612758
124,1610612747,1626149,1628398,202693,203471,203484,1610612758,1626158,1627741,202357,202709,203084,0022000551,3,1841,1844,0,0,1610612747
125,1610612747,1626149,1628398,202693,203471,203484,1610612758,1626158,1627741,202357,202709,203084,0022000551,3,1863,1866,0,0,1610612758
126,1610612747,1626149,1628398,202693,203471,203484,1610612758,1626158,1627741,202357,202709,203084,0022000551,3,1875,1875,3,0,1610612747
127,1610612747,1626149,1628398,202693,203471,203484,1610612758,1626158,1627741,202357,202709,203084,0022000551,3,1890,1894,0,0,1610612758
128,1610612747,1626149,1628398,202693,203471,203484,1610612758,1626158,1627741,202357,202709,203084,0022000551,3,1913,1913,3,0,1610612747
129,1610612747,1626149,1628398,202693,203471,203484,1610612758,1626158,1627741,202357,202709,203084,0022000551,3,1928,1928,0,2,1610612758
130,1610612747,1626149,1628398,202693,203471,203484,1610612758,1626158,1627741,202357,202709,203084,0022000551,3,1943,1946,0,0,1610612747
131,1610612747,1626149,1628398,202693,203471,203484,1610612758,1626158,1627741,202357,202709,203084,0022000551,3,1956,1956,0,2,1610612758
132,1610612747,1626149,1628398,202693,203471,203484,1610612758,1626158,1627741,202357,202709,203084,0022000551,3,1976,1976,0,0,1610612747
133,1610612747,1626149,1628398,1629659,202083,203471,1610612758,1627741,1628368,1628963,202357,202709,0022000551,3,1996,2000,0,0,1610612758
134,1610612747,1626149,1628398,1629659,202083,203471,1610612758,1627741,1628368,1628963,202357,202709,0022000551,3,2003,2006,2,0,1610612747
135,1610612747,1626149,1628035,1628398,1629659,202083,1610612758,1627741,1628368,1628963,202357,202709,0022000551,3,2017,2017,0,3,1610612758
136,1610612747,1626149,1628035,1629659,201162,202083,1610612758,1627741,1628368,1628963,202357,202709,0022000551,3,2035,2035,2,0,1610612747
137,1610612747,1626149,1628035,1629659,201162,202083,1610612758,1627741,1628368,1628963,202357,202709,0022000551,3,2049,2049,0,3,1610612758
138,1610612747,1626149,1628035,1629659,201162,202083,1610612758,1627741,1628368,1628963,202357,202709,0022000551,3,2071,2071,0,0,1610612747
139,1610612747,1626149,1628035,1629659,201162,202083,1610612758,1627741,1628368,1628963,202357,202709,0022000551,3,2087,2087,0,0,1610612758
140,1610612747,1626149,1628035,1629659,201162,202083,1610612758,1627741,1628368,1628963,202357,202709,0022000551,3,2091,2091,2,0,1610612747
141,1610612747,1626149,1628035,1629659,201162,202083,1610612758,1627741,1628368,1628963,202357,202709,0022000551,3,2103,2111,0,2,1610612758
142,1610612747,1626149,1628035,1629659,201162,202083,1610612758,1628368,1628963,202357,202709,203084,0022000551,3,2130,2134,0,0,1610612747
143,1610612747,1626149,1628035,1629659,201162,202083,1610612758,1628368,1628963,202357,202709,203084,0022000551,3,2151,2151,0,0,1610612758
144,1610612747,1626149,1628035,1629659,201162,202083,1610612758,1628368,1628963,202357,202709,203084,0022000551,3,2155,2155,2,0,1610612747
145,1610612747,1626149,1629659,202083,201162,1628035,1610612758,203084,1628963,1627741,202357,202709,0022000551,4,2160,2181,2,0,1610612747
146,1610612747,1626149,1629659,202083,201162,1628035,1610612758,203084,1628963,1627741,202357,202709,0022000551,4,2208,2211,0,0,1610612758
147,1610612747,1626149,1629659,202083,201162,1628035,1610612758,203084,1628963,1627741,202357,202709,0022000551,4,2221,2221,2,0,1610612747
148,1610612747,1626149,1629659,202083,201162,1628035,1610612758,203084,1628963,1627741,202357,202709,0022000551,4,2238,2238,0,3,1610612758
149,1610612747,1626149,1629659,202083,201162,1628035,1610612758,203084,1628963,1627741,202357,202709,0022000551,4,2255,2255,2,0,1610612747
150,1610612747,1626149,1629659,202083,201162,1628035,1610612758,203084,1628963,1627741,202357,202709,0022000551,4,2271,2280,0,0,1610612758
151,1610612747,1626149,1629659,202083,201162,1628035,1610612758,203084,1628963,1627741,202357,202709,0022000551,4,2305,2307,0,0,1610612747
152,1610612747,1626149,1629659,202083,201162,1628035,1610612758,203084,1628963,1627741,202357,202709,0022000551,4,2314,2314,0,2,1610612758
153,1610612747,1626149,1629659,202083,201162,1628035,1610612758,203084,1628963,1627741,202357,202709,0022000551,4,2337,2341,0,0,1610612747
154,1610612747,1626149,1629659,202083,201162,1628035,1610612758,203084,1628963,1627741,202357,202709,0022000551,4,2345,2345,0,3,1610612758
155,1610612747,1626149,1629659,202083,201162,1628035,1610612758,203084,1628963,1627741,202357,202709,0022000551,4,2362,2362,1,0,1610612747
156,1610612747,1626149,1629659,202083,201162,1628035,1610612758,203084,1628963,1627741,202357,202709,0022000551,4,2378,2378,0,3,1610612758
157,1610612747,1626149,1629659,202083,201162,1628035,1610612758,203084,1628963,1627741,202357,202709,0022000551,4,2397,2400,2,0,1610612747
158,1610612747,1626149,1629659,202083,201162,1628035,1610612758,203084,1628963,1627741,202357,202709,0022000551,4,2400,2419,0,2,1610612758
159,1610612747,1628035,1628398,201162,202693,203471,1610612758,1627741,1628368,1628963,202357,202709,0022000551,4,2432,2444,0,0,1610612747
160,1610612747,1626149,1628035,1628398,202693,203471,1610612758,1627741,1628368,1628963,202357,202709,0022000551,4,2449,2449,0,3,1610612758
161,1610612747,1626149,1628035,1628398,202693,203471,1610612758,1627741,1628368,1628963,202357,202709,0022000551,4,2473,2473,3,0,1610612747
162,1610612747,1626149,1628035,1628398,202693,203471,1610612758,1627741,1628368,1628963,202357,202709,0022000551,4,2488,2488,0,2,1610612758
163,1610612747,1626149,1628035,1628398,202693,203471,1610612758,1627741,1628368,1628963,202357,202709,0022000551,4,2497,2503,0,0,1610612747
164,1610612747,1626149,1628035,1628398,202693,203471,1610612758,1627741,1628368,1628963,202357,202709,0022000551,4,2512,2512,0,3,1610612758
165,1610612747,1626149,1628035,1628398,202693,203471,1610612758,1627741,1628368,1628963,202357,202709,0022000551,4,2513,2525,3,0,1610612747
166,1610612747,1626149,1628398,1629659,203471,203484,1610612758,1626158,1627741,1628368,202709,203084,0022000551,4,2540,2543,0,1,1610612758
167,1610612747,1626149,1628398,1629659,203471,203484,1610612758,1626158,1627741,1628368,202709,203084,0022000551,4,2551,2551,2,0,1610612747
168,1610612747,1626149,1628398,1629659,203471,203484,1610612758,1626158,1627741,1628368,202709,203084,0022000551,4,2567,2567,0,2,1610612758
169,1610612747,1626149,1628398,1629659,203471,203484,1610612758,1626158,1627741,1628368,202709,203084,0022000551,4,2577,2583,3,0,1610612747
170,1610612747,1626149,1628398,1629659,203471,203484,1610612758,1626158,1627741,1628368,202709,203084,0022000551,4,2596,2616,0,2,1610612758
171,1610612747,1626149,1628398,1629659,203471,203484,1610612758,1626158,1627741,1628368,202709,203084,0022000551,4,2616,2616,0,0,1610612747
172,1610612747,1626149,1628398,1629659,203471,203484,1610612758,1626158,1627741,1628368,202709,203084,0022000551,4,2636,2646,0,0,1610612758
173,1610612747,1626149,1628398,202693,203471,203484,1610612758,1626158,1627741,1628368,202709,203084,0022000551,4,2652,2652,3,0,1610612747
174,1610612747,1626149,1628398,202693,203471,203484,1610612758,1626158,1627741,1628368,202709,203084,0022000551,4,2677,2677,0,0,1610612758
175,1610612747,1626149,1628398,202693,203471,203484,1610612758,1626158,1627741,1628368,202709,203084,0022000551,4,2696,2696,0,0,1610612747
176,1610612747,1626149,1628398,202693,203471,203484,1610612758,1626158,1627741,1628368,202709,203084,0022000551,4,2709,2709,0,2,1610612758
177,1610612747,1626149,1628398,202693,203471,203484,1610612758,1626158,1627741,1628368,202709,203084,0022000551,4,2727,2727,2,0,1610612747
178,1610612747,1626149,1628398,202693,203471,203484,1610612758,1626158,1627741,1628368,202709,203084,0022000551,4,2745,2745,0,0,1610612758
179,1610612747,1626149,1628398,202693,203471,203484,1610612758,1626158,1627741,1628368,202709,203084,0022000551,4,2756,2756,2,0,1610612747
180,1610612747,1626149,1628398,202693,203471,203484,1610612758,1626158,1627741,1628368,202709,203084,0022000551,4,2777,2777,0,0,1610612758
181,1610612747,1626149,1628398,202693,203471,203484,1610612758,1626158,1627741,1628368,202709,203084,0022000551,4,2777,2801,0,0,1610612747
182,1610612747,1626149,1628398,202693,203471,203484,1610612758,1626158,1627741,1628368,202709,203084,0022000551,4,2815,2815,0,2,1610612758
183,1610612747,1626149,1628398,202693,203471,203484,1610612758,1626158,1627741,1628368,202709,203084,0022000551,4,2824,2824,3,0,1610612747
184,1610612747,1626149,1628398,202693,203471,203484,1610612758,1626158,1627741,1628368,202709,203084,0022000551,4,2830,2830,0,2,1610612758
185,1610612747,1626149,1628398,202693,203471,203484,1610612758,1626158,1627741,1628368,202709,203084,0022000551,4,2830,2838,2,0,1610612747
186,1610612747,1626149,1628398,202693,203471,203484,1610612758,1626158,1627741,202357,202709,203084,0022000551,4,2847,2850,0,2,1610612758
187,1610612747,1626149,1628398,202693,203471,203484,1610612758,1626158,1627741,202357,202709,203084,0022000551,4,2875,2878,0,0,1610612747
188,1610612747,1626149,1628398,202693,203471,203484,1610612758,1626158,1627741,202357,202709,203084,0022000551,4,2878,2879,0,2,1610612758
189,1610612747,1626149,1628398,202693,203471,203484,1610612758,1626158,1627741,202357,202709,203084,0022000551,4,2879,2880,0,0,1610612758
