,stint_end,t1_players,t2_pm,t2_points_scored,stint_start,t1_pm,t1_points_scored,t2_id,t1_id,t2_players,margin_per_100,num_poss
0,314,"[202711, 1626220, 203497, 1628378, 201144]",3,10,0,-3,7,1610612761,1610612762,"[1626181, 1628384, 1627783, 200768, 1627832]",-13.636363636363635,22.0
1,360,"[202711, 1626220, 203497, 1628378, 201144]",0,10,315,0,10,1610612761,1610612762,"[1626181, 1628384, 1627783, 200768, 1627832]",0.0,25.0
2,426,"[1626220, 1628378, 202324, 202711, 204060]",5,15,361,-5,10,1610612761,1610612762,"[1626181, 1628384, 1627783, 200768, 1627832]",-17.857142857142858,28.0
3,518,"[1626220, 1628378, 202324, 202711, 204060]",3,18,427,-3,15,1610612761,1610612762,"[1626181, 1627832, 1628449, 1628778, 200768]",-9.090909090909092,33.0
4,690,"[1626220, 1628378, 202324, 203903, 204060]",5,26,519,-5,21,1610612761,1610612762,"[1626181, 1627832, 1628449, 1628778, 200768]",-11.363636363636363,44.0
5,719,"[1627777, 201144, 203497, 203903, 204060]",6,27,691,-6,21,1610612761,1610612762,"[1626181, 1628449, 1628778, 1630201, 200768]",-13.043478260869565,46.0
6,905,"[1627777, 201144, 203497, 203903, 204060]",7,36,720,-7,29,1610612761,1610612762,"[1628384, 1628449, 1628778, 1630201, 200768]",-12.068965517241379,58.0
7,961,"[203497, 201144, 204060, 203903, 1627777]",4,36,906,-4,32,1610612761,1610612762,"[1628384, 1627783, 1627832, 1628449, 1630201]",-6.557377049180328,61.0
8,1149,"[1627777, 201144, 202324, 203903, 204060]",3,45,962,-3,42,1610612761,1610612762,"[1627783, 1627832, 1628384, 1630201, 203382]",-4.10958904109589,73.0
9,1233,"[1628378, 202324, 202711, 203903, 204060]",4,51,1150,-4,47,1610612761,1610612762,"[1627783, 1627832, 1628384, 1630201, 203382]",-5.128205128205128,78.0
10,1312,"[1626220, 1628378, 202324, 202711, 203903]",2,51,1234,-2,49,1610612761,1610612762,"[1626181, 1627832, 1628778, 200768, 203382]",-2.3529411764705883,85.0
11,1439,"[1626220, 1628378, 201144, 202711, 203497]",-4,51,1313,4,55,1610612761,1610612762,"[1626181, 1627832, 1628778, 200768, 203382]",4.25531914893617,94.0
12,1736,"[1626220, 1628378, 201144, 202711, 203497]",6,68,1440,-6,62,1610612761,1610612762,"[1626181, 1627832, 1628449, 1628778, 200768]",-5.172413793103448,116.0
13,1760,"[202711, 1626220, 203497, 1628378, 201144]",3,68,1737,-3,65,1610612761,1610612762,"[1626181, 1628384, 1627783, 200768, 1627832]",-2.564102564102564,117.0
14,1911,"[1626220, 1628378, 202324, 202711, 204060]",3,74,1761,-3,71,1610612761,1610612762,"[1626181, 1628384, 1627783, 200768, 1627832]",-2.3622047244094486,127.0
15,1984,"[1626220, 1628378, 202324, 202711, 204060]",1,76,1912,-1,75,1610612761,1610612762,"[1626181, 1627783, 1627832, 1628449, 200768]",-0.7633587786259541,131.0
16,2057,"[1626220, 1628378, 202324, 203903, 204060]",-1,76,1985,1,77,1610612761,1610612762,"[1626181, 1627783, 1628449, 1630201, 200768]",0.7407407407407408,135.0
17,2157,"[1627777, 201144, 203497, 203903, 204060]",-2,77,2058,2,79,1610612761,1610612762,"[1626181, 1627783, 1628384, 1628449, 1630201]",1.4388489208633095,139.0
18,2339,"[1627777, 201144, 203497, 203903, 204060]",-5,84,2158,5,89,1610612761,1610612762,"[1626181, 1628384, 1628449, 1628778, 1630201]",3.289473684210526,152.0
19,2477,"[203497, 201144, 204060, 203903, 1627777]",-4,90,2340,4,94,1610612761,1610612762,"[1628384, 1627832, 1628449, 1628778, 1630201]",2.5,160.0
20,2620,"[1627777, 1628378, 203497, 203903, 204060]",-2,97,2478,2,99,1610612761,1610612762,"[1626181, 1627783, 1627832, 1628384, 200768]",1.1904761904761905,168.0
21,2874,"[1626220, 1628378, 202711, 203497, 204060]",-1,112,2621,1,113,1610612761,1610612762,"[1626181, 1627783, 1627832, 1628384, 200768]",0.5376344086021506,186.0
22,2876,"[1626220, 1628378, 201144, 203497, 204060]",-3,112,2875,3,115,1610612761,1610612762,"[1626181, 1627783, 1627832, 1628384, 200768]",1.6042780748663104,187.0
23,9999999,"[1626220, 1628378, 201144, 203497, 204060]",-3,112,2877,3,115,1610612761,1610612762,"[1626181, 1627783, 1627832, 1628449, 200768]",1.5957446808510638,188.0
