,team1_id,team1_player1,team1_player2,team1_player3,team1_player4,team1_player5,team2_id,team2_player1,team2_player2,team2_player3,team2_player4,team2_player5,game_id,period,possession_start,possession_end,team1_points,team2_points,possession_team
0,1610612748,202710,1628997,1630209,1629639,200768,1610612745,201569,1628021,1626174,1629645,1630224,0022100532,1,0,9,0,0,1610612745
1,1610612748,202710,1628997,1630209,1629639,200768,1610612745,201569,1628021,1626174,1629645,1630224,0022100532,1,26,26,2,0,1610612748
2,1610612748,202710,1628997,1630209,1629639,200768,1610612745,201569,1628021,1626174,1629645,1630224,0022100532,1,42,54,0,3,1610612745
3,1610612748,202710,1628997,1630209,1629639,200768,1610612745,201569,1628021,1626174,1629645,1630224,0022100532,1,79,81,0,0,1610612748
4,1610612748,202710,1628997,1630209,1629639,200768,1610612745,201569,1628021,1626174,1629645,1630224,0022100532,1,89,89,0,3,1610612745
5,1610612748,202710,1628997,1630209,1629639,200768,1610612745,201569,1628021,1626174,1629645,1630224,0022100532,1,106,106,3,0,1610612748
6,1610612748,202710,1628997,1630209,1629639,200768,1610612745,201569,1628021,1626174,1629645,1630224,0022100532,1,124,124,0,2,1610612745
7,1610612748,202710,1628997,1630209,1629639,200768,1610612745,201569,1628021,1626174,1629645,1630224,0022100532,1,131,131,2,0,1610612748
8,1610612748,202710,1628997,1630209,1629639,200768,1610612745,201569,1628021,1626174,1629645,1630224,0022100532,1,141,141,0,2,1610612745
9,1610612748,202710,1628997,1630209,1629639,200768,1610612745,201569,1628021,1626174,1629645,1630224,0022100532,1,155,155,3,0,1610612748
10,1610612748,202710,1628997,1630209,1629639,200768,1610612745,201569,1628021,1626174,1629645,1630224,0022100532,1,169,169,0,0,1610612745
11,1610612748,202710,1628997,1630209,1629639,200768,1610612745,201569,1628021,1626174,1629645,1630224,0022100532,1,172,172,2,0,1610612748
12,1610612748,202710,1628997,1630209,1629639,200768,1610612745,201569,1628021,1626174,1629645,1630224,0022100532,1,192,194,0,3,1610612745
13,1610612748,202710,1628997,1630209,1629639,200768,1610612745,201569,1628021,1626174,1629645,1630224,0022100532,1,211,211,2,0,1610612748
14,1610612748,202710,1628997,1630209,1629639,200768,1610612745,201569,1628021,1626174,1629645,1630224,0022100532,1,229,229,0,0,1610612745
15,1610612748,202710,1628997,1630209,1629639,200768,1610612745,201569,1628021,1626174,1629645,1630224,0022100532,1,243,243,2,0,1610612748
16,1610612748,202710,1628997,1630209,1629639,200768,1610612745,201569,1628021,1626174,1629645,1630224,0022100532,1,262,265,0,2,1610612745
17,1610612748,202710,1628997,1630209,1629639,200768,1610612745,201569,1628021,1626174,1629645,1630224,0022100532,1,288,288,2,0,1610612748
18,1610612748,202710,1628997,1630209,1629639,200768,1610612745,201569,1628021,1626174,1629645,1630224,0022100532,1,301,301,0,2,1610612745
19,1610612748,202710,1628997,1630209,1629639,200768,1610612745,201569,1628021,1626174,1629645,1630224,0022100532,1,306,315,0,0,1610612748
20,1610612748,202710,1628997,1630209,1629639,200768,1610612745,201569,1628021,1626174,1629645,1630224,0022100532,1,320,320,0,1,1610612745
21,1610612748,202710,1628997,1630209,1629639,200768,1610612745,201569,1628021,1626174,1629645,1630224,0022100532,1,337,342,0,0,1610612748
22,1610612748,202710,1628997,1630209,1629639,200768,1610612745,201569,1628021,1626174,1629645,1630224,0022100532,1,349,352,0,0,1610612745
23,1610612748,202710,1628997,1630209,1629639,200768,1610612745,201569,1628021,1626174,1629645,1630224,0022100532,1,364,364,2,0,1610612748
24,1610612748,202710,1628997,1630209,1629639,200768,1610612745,201569,1628021,1626174,1629645,1630224,0022100532,1,385,385,0,2,1610612745
25,1610612748,202710,1628997,1630209,1629639,200768,1610612745,201569,1628021,1626174,1629645,1630224,0022100532,1,396,410,1,0,1610612748
26,1610612748,1629312,1629639,1629657,1630209,202710,1610612745,1626174,1629645,1630224,1630256,1630528,0022100532,1,413,422,0,2,1610612745
27,1610612748,1629312,1629639,1629657,1630209,202710,1610612745,1626174,1629645,1630224,1630256,1630528,0022100532,1,438,440,0,0,1610612748
28,1610612748,1629312,1629639,1629657,1630209,202710,1610612745,1626174,1629645,1630224,1630256,1630528,0022100532,1,453,453,0,2,1610612745
29,1610612748,1629312,1629639,1629657,1629735,202710,1610612745,1626174,1629645,1630224,1630256,1630528,0022100532,1,461,461,3,0,1610612748
30,1610612748,1629312,1629639,1629657,1629735,202710,1610612745,1626174,1629645,1630224,1630256,1630528,0022100532,1,473,473,0,3,1610612745
31,1610612748,1629312,1629639,1629657,1629735,202710,1610612745,1626174,1629645,1630224,1630256,1630528,0022100532,1,486,486,0,0,1610612748
32,1610612748,1629312,1629639,1629657,1629735,202710,1610612745,1626174,1629645,1630224,1630256,1630528,0022100532,1,490,490,0,0,1610612745
33,1610612748,1629312,1629639,1629657,1629735,202710,1610612745,1626174,1629645,1630224,1630256,1630528,0022100532,1,490,501,3,0,1610612748
34,1610612748,1629312,1629639,1629657,1629735,202710,1610612745,1629717,1630227,1630256,1630528,1630578,0022100532,1,521,523,0,0,1610612745
35,1610612748,1629312,1629639,1629657,1629735,202710,1610612745,1629717,1630227,1630256,1630528,1630578,0022100532,1,526,526,3,0,1610612748
36,1610612748,1629312,1629639,1629657,1629735,202710,1610612745,1629717,1630227,1630256,1630528,1630578,0022100532,1,544,544,0,0,1610612745
37,1610612748,1629312,1629639,1629657,1629735,202710,1610612745,1629717,1630227,1630256,1630528,1630578,0022100532,1,544,560,2,0,1610612748
38,1610612748,1629312,1629639,1629657,1629735,202710,1610612745,1629717,1630227,1630256,1630528,1630578,0022100532,1,584,587,0,0,1610612745
39,1610612748,1629312,1629639,1629657,1629735,202710,1610612745,1629717,1630227,1630256,1630528,1630578,0022100532,1,597,597,3,0,1610612748
40,1610612748,1629312,1629639,1629657,1629735,202710,1610612745,1629717,1630227,1630256,1630528,1630578,0022100532,1,615,617,0,2,1610612745
41,1610612748,1629312,1629639,1629657,1629735,202710,1610612745,1629717,1630227,1630256,1630528,1630578,0022100532,1,629,637,1,0,1610612748
42,1610612748,1629312,1629639,1629657,1629735,200768,1610612745,1629717,1630227,1630256,1630528,1630578,0022100532,1,652,652,0,1,1610612745
43,1610612748,1629312,1629639,1629657,1629735,200768,1610612745,1629717,1630227,1630256,1630528,1630578,0022100532,1,664,664,2,0,1610612748
44,1610612748,1629312,1629639,1629657,1629735,200768,1610612745,1629717,1630227,1630256,1630528,1630578,0022100532,1,685,685,0,0,1610612745
45,1610612748,1629312,1629639,1629657,1629735,200768,1610612745,1629717,1630227,1630256,1630528,1630578,0022100532,1,694,694,3,0,1610612748
46,1610612748,1629312,1629639,1629657,1629735,200768,1610612745,1629717,1630227,1630256,1630528,1630578,0022100532,1,717,719,0,0,1610612745
47,1610612748,1628997,200768,1629657,1629735,203917,1610612745,1629645,1630528,1629717,1630578,1630231,0022100532,2,720,735,0,0,1610612748
48,1610612748,1628997,200768,1629657,1629735,203917,1610612745,1629645,1630528,1629717,1630578,1630231,0022100532,2,744,744,0,3,1610612745
49,1610612748,1628997,200768,1629657,1629735,203917,1610612745,1629645,1630528,1629717,1630578,1630231,0022100532,2,751,751,1,0,1610612748
50,1610612748,1628997,200768,1629657,1629735,203917,1610612745,1629645,1630528,1629717,1630578,1630231,0022100532,2,762,762,0,2,1610612745
51,1610612748,1628997,1629657,1630209,200768,203917,1610612745,1629645,1630528,1629717,1630578,1630231,0022100532,2,776,776,3,0,1610612748
52,1610612748,1628997,1629657,1630209,200768,203917,1610612745,1629645,1630528,1629717,1630578,1630231,0022100532,2,794,795,0,0,1610612745
53,1610612748,1628997,1629657,1630209,200768,203917,1610612745,1629645,1630528,1629717,1630578,1630231,0022100532,2,810,810,2,0,1610612748
54,1610612748,1628997,1629657,1630209,200768,203917,1610612745,1629645,1630528,1629717,1630578,1630231,0022100532,2,831,831,0,3,1610612745
55,1610612748,1628997,1629657,1630209,200768,203917,1610612745,1629645,1630528,1629717,1630578,1630231,0022100532,2,839,839,0,0,1610612748
56,1610612748,1628997,1629657,1630209,200768,203917,1610612745,1629645,1630528,1629717,1630578,1630231,0022100532,2,849,849,0,0,1610612745
57,1610612748,1628997,1629657,1630209,200768,203917,1610612745,1629645,1630528,1629717,1630578,1630231,0022100532,2,861,861,2,0,1610612748
58,1610612748,1628997,1629657,1630209,200768,203917,1610612745,1629645,1630528,1629717,1630578,1630231,0022100532,2,880,886,0,0,1610612745
59,1610612748,1628997,1629657,1630209,200768,203917,1610612745,1629645,1630528,1629717,1630578,1630231,0022100532,2,892,892,0,0,1610612748
60,1610612748,1628997,1629657,1630209,200768,203917,1610612745,1629645,1630528,1629717,1630578,1630231,0022100532,2,896,898,0,0,1610612745
61,1610612748,1628997,1629657,1630209,200768,203917,1610612745,1629645,1630528,1629717,1630578,1630231,0022100532,2,906,908,0,0,1610612748
62,1610612748,1628997,1629657,1630209,200768,203917,1610612745,1629645,1630528,1629717,1630578,1630231,0022100532,2,912,912,0,0,1610612745
63,1610612748,1628997,1629657,1630209,200768,203917,1610612745,1626174,1629645,1629717,1630231,1630528,0022100532,2,924,928,2,0,1610612748
64,1610612748,1628997,1629657,1630209,200768,203917,1610612745,1626174,1629645,1629717,1630231,1630528,0022100532,2,942,943,0,0,1610612745
65,1610612748,1628997,1629657,1630209,200768,203917,1610612745,1626174,1629645,1629717,1630231,1630528,0022100532,2,948,948,2,0,1610612748
66,1610612748,1628997,1629657,1630209,200768,203917,1610612745,1626174,1629645,1629717,1630231,1630528,0022100532,2,948,967,0,0,1610612745
67,1610612748,1628997,1629657,1630209,200768,203917,1610612745,1626174,1629645,1629717,1630231,1630528,0022100532,2,973,973,2,0,1610612748
68,1610612748,1628997,1629657,1630209,200768,203917,1610612745,1626174,1629645,1629717,1630224,1630231,0022100532,2,984,986,0,0,1610612745
69,1610612748,1628997,1629657,1630209,200768,203917,1610612745,1626174,1629645,1629717,1630224,1630231,0022100532,2,992,992,3,0,1610612748
70,1610612748,1628997,1629657,1630209,200768,203917,1610612745,1626174,1629645,1629717,1630224,1630231,0022100532,2,1008,1010,0,0,1610612745
71,1610612748,1628997,1629657,1630209,200768,203917,1610612745,1626174,1629645,1629717,1630224,1630231,0022100532,2,1017,1019,0,0,1610612748
72,1610612748,1628997,1629657,1630209,200768,203917,1610612745,1626174,1629645,1629717,1630224,1630231,0022100532,2,1033,1033,0,0,1610612745
73,1610612748,1628997,1629657,1630209,200768,203917,1610612745,1626174,1629645,1629717,1630224,1630231,0022100532,2,1039,1039,2,0,1610612748
74,1610612748,1628997,1629657,1630209,200768,203917,1610612745,1626174,1629645,1629717,1630224,1630231,0022100532,2,1056,1059,0,0,1610612745
75,1610612748,1628997,1629657,1630209,202710,203917,1610612745,1626174,1629645,1629717,1630224,1630256,0022100532,2,1071,1074,0,0,1610612748
76,1610612748,1628997,1629657,1630209,202710,203917,1610612745,1626174,1629645,1629717,1630224,1630256,0022100532,2,1084,1087,0,0,1610612745
77,1610612748,1628997,1629657,1630209,202710,203917,1610612745,1626174,1629645,1629717,1630224,1630256,0022100532,2,1101,1105,0,0,1610612748
78,1610612748,1628997,1629657,1630209,202710,203917,1610612745,1626174,1629645,1629717,1630224,1630256,0022100532,2,1115,1117,0,0,1610612745
79,1610612748,1628997,1629657,1630209,202710,203917,1610612745,1626174,1629645,1629717,1630224,1630256,0022100532,2,1123,1123,2,0,1610612748
80,1610612748,1628997,1629657,1630209,202710,203917,1610612745,1626174,1629645,1629717,1630224,1630256,0022100532,2,1125,1142,0,2,1610612745
81,1610612748,1628997,1629639,1629657,1630209,202710,1610612745,1626174,1629645,1629717,1630224,1630256,0022100532,2,1160,1160,3,0,1610612748
82,1610612748,1628997,1629639,1629657,1630209,202710,1610612745,1626174,1629645,1629717,1630224,1630256,0022100532,2,1177,1177,0,2,1610612745
83,1610612748,1628997,1629639,1629657,1630209,202710,1610612745,1626174,1629645,1629717,1630224,1630256,0022100532,2,1188,1190,0,0,1610612748
84,1610612748,1628997,1629639,1629657,1630209,202710,1610612745,1626174,1629645,1629717,1630224,1630256,0022100532,2,1199,1199,0,0,1610612745
85,1610612748,1628997,1629639,1629657,1630209,202710,1610612745,1626174,1629717,1630224,1630256,201569,0022100532,2,1219,1222,0,0,1610612748
86,1610612748,1628997,1629639,1629657,1630209,202710,1610612745,1626174,1629717,1630224,1630256,201569,0022100532,2,1230,1230,0,0,1610612745
87,1610612748,1628997,1629639,1629657,1630209,202710,1610612745,1626174,1629717,1630224,1630256,201569,0022100532,2,1233,1233,0,0,1610612748
88,1610612748,1628997,1629639,1629657,1629735,202710,1610612745,1626174,1628021,1630224,1630256,201569,0022100532,2,1249,1252,0,0,1610612745
89,1610612748,1628997,1629639,1629657,1629735,202710,1610612745,1626174,1628021,1630224,1630256,201569,0022100532,2,1265,1274,0,0,1610612748
90,1610612748,1628997,1629639,1629657,1629735,202710,1610612745,1626174,1628021,1630224,1630256,201569,0022100532,2,1280,1280,0,3,1610612745
91,1610612748,1628997,1629639,1629657,1629735,202710,1610612745,1626174,1628021,1630224,1630256,201569,0022100532,2,1308,1310,0,0,1610612748
92,1610612748,1628997,1629639,1629657,1629735,202710,1610612745,1626174,1628021,1630224,1630256,201569,0022100532,2,1315,1315,0,3,1610612745
93,1610612748,1628997,1629639,1629657,1629735,202710,1610612745,1626174,1628021,1630224,1630256,201569,0022100532,2,1316,1329,2,0,1610612748
94,1610612748,1628997,1629639,1630209,200768,202710,1610612745,1626174,1628021,1630224,1630256,201569,0022100532,2,1346,1349,0,3,1610612745
95,1610612748,1628997,1629639,1630209,200768,202710,1610612745,1626174,1628021,1630224,1630256,201569,0022100532,2,1365,1368,0,0,1610612748
96,1610612748,1628997,1629639,1630209,200768,202710,1610612745,1626174,1628021,1630224,1630256,201569,0022100532,2,1373,1373,0,2,1610612745
97,1610612748,1628997,1629639,1629735,200768,202710,1610612745,1626174,1628021,1630224,1630256,201569,0022100532,2,1382,1382,2,0,1610612748
98,1610612748,1628997,1629639,1629735,200768,202710,1610612745,1626174,1628021,1630224,1630256,201569,0022100532,2,1395,1395,0,2,1610612745
99,1610612748,1628997,1629639,1629735,200768,202710,1610612745,1626174,1628021,1630224,1630256,201569,0022100532,2,1399,1399,2,0,1610612748
100,1610612748,1628997,1629639,1629735,200768,202710,1610612745,1626174,1628021,1630224,1630231,201569,0022100532,2,1408,1408,0,2,1610612745
101,1610612748,1628997,1629312,1629639,200768,202710,1610612745,1626174,1628021,1630224,1630231,201569,0022100532,2,1413,1413,0,0,1610612748
102,1610612748,1628997,1629312,1629639,200768,202710,1610612745,1626174,1628021,1630224,1630231,201569,0022100532,2,1435,1435,0,3,1610612745
103,1610612748,1628997,1629312,1629639,200768,202710,1610612745,1626174,1628021,1630224,1630231,201569,0022100532,2,1440,1440,3,0,1610612748
104,1610612748,202710,1628997,1630209,1629639,200768,1610612745,201569,1628021,1626174,1629645,1630224,0022100532,3,1440,1457,2,0,1610612748
105,1610612748,202710,1628997,1630209,1629639,200768,1610612745,201569,1628021,1626174,1629645,1630224,0022100532,3,1478,1478,0,2,1610612745
106,1610612748,202710,1628997,1630209,1629639,200768,1610612745,201569,1628021,1626174,1629645,1630224,0022100532,3,1508,1510,0,0,1610612748
107,1610612748,202710,1628997,1630209,1629639,200768,1610612745,201569,1628021,1626174,1629645,1630224,0022100532,3,1523,1523,0,2,1610612745
108,1610612748,202710,1628997,1630209,1629639,200768,1610612745,201569,1628021,1626174,1629645,1630224,0022100532,3,1535,1539,0,0,1610612748
109,1610612748,202710,1628997,1630209,1629639,200768,1610612745,201569,1628021,1626174,1629645,1630224,0022100532,3,1550,1554,0,0,1610612745
110,1610612748,202710,1628997,1630209,1629639,200768,1610612745,201569,1628021,1626174,1629645,1630224,0022100532,3,1557,1559,0,0,1610612748
111,1610612748,202710,1628997,1630209,1629639,200768,1610612745,201569,1628021,1626174,1629645,1630224,0022100532,3,1568,1581,0,2,1610612745
112,1610612748,202710,1628997,1630209,1629639,200768,1610612745,201569,1628021,1626174,1629645,1630224,0022100532,3,1592,1592,2,0,1610612748
113,1610612748,202710,1628997,1630209,1629639,200768,1610612745,201569,1628021,1626174,1629645,1630224,0022100532,3,1604,1604,0,0,1610612745
114,1610612748,202710,1628997,1630209,1629639,200768,1610612745,201569,1628021,1626174,1629645,1630224,0022100532,3,1612,1612,2,0,1610612748
115,1610612748,202710,1628997,1630209,1629639,200768,1610612745,201569,1628021,1626174,1629645,1630224,0022100532,3,1628,1628,0,0,1610612745
116,1610612748,202710,1628997,1630209,1629639,200768,1610612745,201569,1628021,1626174,1629645,1630224,0022100532,3,1639,1639,0,0,1610612748
117,1610612748,202710,1628997,1630209,1629639,200768,1610612745,201569,1628021,1626174,1629645,1630224,0022100532,3,1639,1663,0,0,1610612745
118,1610612748,202710,1628997,1630209,1629639,200768,1610612745,201569,1628021,1626174,1629645,1630224,0022100532,3,1667,1667,2,0,1610612748
119,1610612748,202710,1628997,1630209,1629639,200768,1610612745,201569,1628021,1626174,1629645,1630224,0022100532,3,1675,1675,0,3,1610612745
120,1610612748,202710,1628997,1630209,1629639,200768,1610612745,201569,1628021,1626174,1629645,1630224,0022100532,3,1690,1690,0,0,1610612748
121,1610612748,202710,1628997,1630209,1629639,200768,1610612745,201569,1628021,1626174,1629645,1630224,0022100532,3,1693,1697,0,0,1610612745
122,1610612748,202710,1628997,1630209,1629639,200768,1610612745,201569,1628021,1626174,1629645,1630224,0022100532,3,1706,1716,0,0,1610612748
123,1610612748,202710,1628997,1630209,1629639,200768,1610612745,1626174,1628021,1629645,1630528,201569,0022100532,3,1722,1722,0,0,1610612745
124,1610612748,202710,1628997,1630209,1629639,200768,1610612745,1626174,1628021,1629645,1630528,201569,0022100532,3,1729,1729,2,0,1610612748
125,1610612748,202710,1628997,1630209,1629639,200768,1610612745,1626174,1628021,1629645,1630528,201569,0022100532,3,1740,1740,0,3,1610612745
126,1610612748,202710,1628997,1630209,1629639,200768,1610612745,1626174,1628021,1629645,1630528,201569,0022100532,3,1760,1760,2,0,1610612748
127,1610612748,202710,1628997,1630209,1629639,200768,1610612745,1626174,1628021,1629645,1630528,201569,0022100532,3,1781,1783,0,0,1610612745
128,1610612748,202710,1628997,1630209,1629639,200768,1610612745,1626174,1628021,1629645,1630528,201569,0022100532,3,1791,1798,2,0,1610612748
129,1610612748,202710,1628997,1630209,1629639,200768,1610612745,1626174,1629645,1630256,1630528,201569,0022100532,3,1819,1821,0,0,1610612745
130,1610612748,202710,1628997,1630209,1629639,200768,1610612745,1626174,1629645,1630256,1630528,201569,0022100532,3,1826,1834,0,0,1610612748
131,1610612748,202710,1628997,1630209,1629639,200768,1610612745,1626174,1629717,1630256,1630528,201569,0022100532,3,1845,1848,0,0,1610612745
132,1610612748,202710,1628997,1630209,1629639,200768,1610612745,1626174,1629717,1630256,1630528,201569,0022100532,3,1856,1856,2,0,1610612748
133,1610612748,1629312,1629639,1630209,200768,202710,1610612745,1626174,1629717,1630256,1630528,201569,0022100532,3,1864,1864,0,2,1610612745
134,1610612748,1629312,1629639,1630209,200768,202710,1610612745,1626174,1629717,1630256,1630528,201569,0022100532,3,1877,1884,0,0,1610612748
135,1610612748,1629312,1629639,1630209,200768,202710,1610612745,1626174,1629717,1630256,1630528,201569,0022100532,3,1886,1890,0,3,1610612745
136,1610612748,1629312,1629639,1629657,1629735,202710,1610612745,1626174,1629717,1630256,1630528,201569,0022100532,3,1910,1915,0,0,1610612748
137,1610612748,1629312,1629639,1629657,1629735,202710,1610612745,1626174,1629717,1630256,1630528,201569,0022100532,3,1921,1921,0,2,1610612745
138,1610612748,1629312,1629639,1629657,1629735,202710,1610612745,1626174,1629717,1630256,1630528,201569,0022100532,3,1921,1932,3,0,1610612748
139,1610612748,1629312,1629639,1629657,1629735,202710,1610612745,1626174,1629717,1630243,1630256,1630528,0022100532,3,1950,1955,0,0,1610612745
140,1610612748,1629312,1629639,1629657,1629735,202710,1610612745,1626174,1629717,1630243,1630256,1630528,0022100532,3,1967,1967,2,0,1610612748
141,1610612748,1629312,1629639,1629657,1629735,202710,1610612745,1626174,1629717,1630243,1630256,1630528,0022100532,3,1978,1989,0,0,1610612745
142,1610612748,1629312,1629639,1629657,1629735,202710,1610612745,1626174,1629717,1630243,1630256,1630528,0022100532,3,2004,2004,0,0,1610612748
143,1610612748,1629312,1629639,1629657,1629735,202710,1610612745,1626174,1629717,1630243,1630256,1630528,0022100532,3,2022,2022,0,3,1610612745
144,1610612748,1629312,1629639,1629657,1629735,202710,1610612745,1626174,1629717,1630243,1630256,1630528,0022100532,3,2049,2049,3,0,1610612748
145,1610612748,1629312,1629639,1629657,1629735,202710,1610612745,1626174,1629717,1630243,1630256,1630528,0022100532,3,2062,2063,0,0,1610612745
146,1610612748,1629312,1629639,1629657,1629735,202710,1610612745,1626174,1629717,1630243,1630256,1630528,0022100532,3,2067,2071,0,0,1610612748
147,1610612748,1629312,1629639,1629657,1629735,202710,1610612745,1626174,1629717,1630243,1630256,1630528,0022100532,3,2078,2078,0,0,1610612745
148,1610612748,1629312,1629639,1629657,1629735,200768,1610612745,1629717,1630231,1630243,1630256,1630528,0022100532,3,2098,2098,2,0,1610612748
149,1610612748,1629312,1629639,1629657,1629735,200768,1610612745,1629717,1630231,1630243,1630256,1630528,0022100532,3,2110,2112,0,0,1610612745
150,1610612748,1629312,1629639,1629657,1629735,200768,1610612745,1629717,1630231,1630243,1630256,1630528,0022100532,3,2119,2121,0,0,1610612748
151,1610612748,1629312,1629639,1629657,1629735,200768,1610612745,1629717,1630231,1630243,1630256,1630528,0022100532,3,2127,2127,0,3,1610612745
152,1610612748,1629312,1629639,1629657,1629735,200768,1610612745,1629717,1630231,1630243,1630256,1630528,0022100532,3,2146,2148,0,0,1610612748
153,1610612748,1629312,1629639,1629657,1629735,200768,1610612745,1629717,1630231,1630243,1630256,1630528,0022100532,3,2159,2159,0,2,1610612745
154,1610612748,1629312,1629639,1629657,1629735,200768,1610612745,1629717,1630231,1630243,1630256,1630528,0022100532,3,2160,2160,0,0,1610612745
155,1610612748,1628997,200768,1629657,1629735,203917,1610612745,201569,1630256,1630528,1629717,1630231,0022100532,4,2160,2181,0,0,1610612745
156,1610612748,1628997,200768,1629657,1629735,203917,1610612745,201569,1630256,1630528,1629717,1630231,0022100532,4,2188,2192,0,0,1610612748
157,1610612748,1628997,200768,1629657,1629735,203917,1610612745,201569,1630256,1630528,1629717,1630231,0022100532,4,2201,2201,0,2,1610612745
158,1610612748,1628997,200768,1629657,1629735,203917,1610612745,201569,1630256,1630528,1629717,1630231,0022100532,4,2220,2223,0,0,1610612748
159,1610612748,1628997,200768,1629657,1629735,203917,1610612745,201569,1630256,1630528,1629717,1630231,0022100532,4,2242,2244,0,0,1610612745
160,1610612748,1628997,200768,1629657,1629735,203917,1610612745,201569,1630256,1630528,1629717,1630231,0022100532,4,2262,2276,0,0,1610612748
161,1610612748,1628997,200768,1629657,1629735,203917,1610612745,1628021,1629717,1630231,1630528,201569,0022100532,4,2283,2285,0,0,1610612745
162,1610612748,1628997,200768,1629657,1629735,203917,1610612745,1628021,1629717,1630231,1630528,201569,0022100532,4,2291,2291,1,0,1610612748
163,1610612748,1628997,200768,1629657,1629735,203917,1610612745,1628021,1629717,1630231,1630528,201569,0022100532,4,2311,2318,0,2,1610612745
164,1610612748,1628997,200768,1629657,1629735,203917,1610612745,1628021,1629717,1630231,1630528,201569,0022100532,4,2337,2339,0,0,1610612748
165,1610612748,1628997,200768,1629657,1629735,203917,1610612745,1628021,1629717,1630231,1630528,201569,0022100532,4,2340,2366,0,2,1610612745
166,1610612748,1628997,1629657,1630209,200768,203917,1610612745,1628021,1629717,1630231,1630528,201569,0022100532,4,2366,2375,0,0,1610612748
167,1610612748,1628997,1629657,1630209,200768,203917,1610612745,1628021,1629645,1629717,1630231,1630528,0022100532,4,2379,2379,0,2,1610612745
168,1610612748,1628997,1629639,1630209,200768,202710,1610612745,1628021,1629645,1629717,1630231,1630528,0022100532,4,2396,2396,0,0,1610612748
169,1610612748,1628997,1629639,1630209,200768,202710,1610612745,1628021,1629645,1629717,1630231,1630528,0022100532,4,2396,2411,0,0,1610612745
170,1610612748,1628997,1629639,1630209,200768,202710,1610612745,1628021,1629645,1629717,1630231,1630528,0022100532,4,2418,2418,3,0,1610612748
171,1610612748,1628997,1629639,1630209,200768,202710,1610612745,1628021,1629645,1630224,1630231,1630528,0022100532,4,2433,2435,0,0,1610612745
172,1610612748,1628997,1629639,1630209,200768,202710,1610612745,1628021,1629645,1630224,1630231,1630528,0022100532,4,2447,2452,0,0,1610612748
173,1610612748,1628997,1629639,1630209,200768,202710,1610612745,1628021,1629645,1630224,1630231,1630528,0022100532,4,2460,2465,0,2,1610612745
174,1610612748,1628997,1629639,1630209,200768,202710,1610612745,1628021,1629645,1630224,1630231,1630528,0022100532,4,2488,2490,0,0,1610612748
175,1610612748,1628997,1629639,1630209,200768,202710,1610612745,1628021,1629645,1630224,1630231,1630528,0022100532,4,2498,2509,0,0,1610612745
176,1610612748,1628997,1629639,1630209,200768,202710,1610612745,1628021,1629645,1630224,1630231,1630528,0022100532,4,2520,2520,3,0,1610612748
177,1610612748,1628997,1629639,1630209,200768,202710,1610612745,1626174,1629645,1630224,1630256,1630528,0022100532,4,2530,2530,0,2,1610612745
178,1610612748,1628997,1629639,1630209,200768,202710,1610612745,1626174,1629645,1630224,1630256,1630528,0022100532,4,2538,2546,0,0,1610612748
179,1610612748,1628997,1629639,1630209,200768,202710,1610612745,1626174,1629645,1630224,1630256,1630528,0022100532,4,2560,2562,0,0,1610612745
180,1610612748,1628997,1629639,1630209,200768,202710,1610612745,1626174,1629645,1630224,1630256,1630528,0022100532,4,2584,2585,0,0,1610612748
181,1610612748,1628997,1629639,1630209,200768,202710,1610612745,1626174,1629645,1630224,1630256,201569,0022100532,4,2599,2599,0,3,1610612745
182,1610612748,1628997,1629639,1630209,200768,202710,1610612745,1626174,1629645,1630224,1630256,201569,0022100532,4,2599,2616,0,0,1610612748
183,1610612748,1628997,1629639,1630209,200768,202710,1610612745,1626174,1629645,1630224,1630256,201569,0022100532,4,2622,2630,0,0,1610612745
184,1610612748,1628997,1629639,1630209,200768,202710,1610612745,1626174,1629645,1630224,1630256,201569,0022100532,4,2632,2632,2,0,1610612748
185,1610612748,1628997,1629639,1630209,200768,202710,1610612745,1626174,1629645,1630224,1630256,201569,0022100532,4,2652,2655,0,0,1610612745
186,1610612748,1628997,1629639,1630209,200768,202710,1610612745,1626174,1629645,1630224,1630256,201569,0022100532,4,2669,2669,2,0,1610612748
187,1610612748,1628997,1629312,1629639,200768,202710,1610612745,1626174,1629645,1630224,1630256,201569,0022100532,4,2681,2684,0,0,1610612745
188,1610612748,1628997,1629312,1629639,200768,202710,1610612745,1626174,1629645,1630224,1630256,201569,0022100532,4,2693,2693,3,0,1610612748
189,1610612748,1628997,1629312,1629639,200768,202710,1610612745,1626174,1629645,1630224,1630256,201569,0022100532,4,2706,2706,0,2,1610612745
190,1610612748,1628997,1629312,1629639,200768,202710,1610612745,1626174,1629645,1630224,1630256,201569,0022100532,4,2728,2728,0,0,1610612748
191,1610612748,1628997,1629312,1629639,200768,202710,1610612745,1626174,1629645,1630224,1630256,201569,0022100532,4,2728,2746,0,2,1610612745
192,1610612748,1628997,1629312,1629639,200768,202710,1610612745,1626174,1629645,1630224,1630256,201569,0022100532,4,2765,2765,2,0,1610612748
193,1610612748,1628997,1629312,1629639,200768,202710,1610612745,1626174,1629645,1630224,1630256,201569,0022100532,4,2771,2771,0,0,1610612745
194,1610612748,1628997,1629312,1629639,200768,202710,1610612745,1626174,1629645,1630224,1630256,201569,0022100532,4,2791,2793,0,0,1610612748
195,1610612748,1628997,1629312,1629639,200768,202710,1610612745,1626174,1629645,1630224,1630256,201569,0022100532,4,2802,2804,0,0,1610612745
196,1610612748,1628997,1629312,1629639,200768,202710,1610612745,1626174,1629645,1630224,1630256,201569,0022100532,4,2806,2806,0,0,1610612748
197,1610612748,1628997,1629312,1629639,200768,202710,1610612745,1626174,1629645,1630224,1630256,201569,0022100532,4,2823,2823,0,2,1610612745
198,1610612748,1628997,1629312,1629639,200768,202710,1610612745,1626174,1629645,1630224,1630256,201569,0022100532,4,2827,2827,2,0,1610612748
199,1610612748,1628997,1629312,1629639,200768,202710,1610612745,1626174,1629645,1630224,1630256,201569,0022100532,4,2833,2833,0,0,1610612745
200,1610612748,1628997,1629312,1629639,200768,202710,1610612745,1626174,1629645,1630224,1630256,201569,0022100532,4,2855,2858,2,0,1610612748
201,1610612748,1628997,1629312,1629639,200768,203917,1610612745,1626174,1629717,1630243,1630256,1630528,0022100532,4,2864,2864,0,2,1610612745
