,stint_start,t1_points_scored,t2_pm,stint_end,t1_id,t2_points_scored,t1_players,t2_id,t1_pm,t2_players,margin_per_100,num_poss
0,0,9,7,411,1610612743,16,"[1628470, 203924, 203999, 203115, 1628420]",1610612744,-7,"[203922, 203110, 1626161, 1627814, 1626156]",-25.925925925925924,27.0
1,412,12,7,501,1610612743,19,"[1628470, 203924, 203999, 203115, 1628420]",1610612744,-7,"[203922, 203110, 1626161, 1627814, 1626156]",-20.588235294117645,34.0
2,502,12,9,551,1610612743,21,"[1627736, 1627823, 1628408, 1629008, 203999]",1610612744,-9,"[1626161, 1627814, 1629673, 203110, 203922]",-23.076923076923077,39.0
3,552,15,13,595,1610612743,28,"[1627736, 1627823, 1628408, 1629008, 203486]",1610612744,-13,"[1627737, 1627814, 1629673, 202692, 203110]",-29.545454545454547,44.0
4,596,15,16,664,1610612743,31,"[1627736, 1627823, 1628408, 1629008, 203486]",1610612744,-16,"[1627737, 1627814, 1629016, 1629673, 202692]",-32.6530612244898,49.0
5,665,17,17,694,1610612743,34,"[1627736, 1627823, 1628408, 1629008, 203486]",1610612744,-17,"[1627737, 1629016, 1629672, 1629673, 202692]",-32.69230769230769,52.0
6,695,19,15,717,1610612743,34,"[1627736, 1627823, 1628420, 1629008, 203486]",1610612744,-15,"[1627737, 1629016, 1629672, 1629673, 202692]",-28.30188679245283,53.0
7,718,21,13,764,1610612743,34,"[1627736, 1627823, 1628420, 1628470, 203486]",1610612744,-13,"[1626156, 1629016, 1629672, 1629673, 202692]",-22.807017543859647,57.0
8,765,25,14,864,1610612743,39,"[203999, 1628420, 1629008, 1627736, 203486]",1610612744,-14,"[1629673, 1627737, 202692, 1629016, 1629672]",-22.22222222222222,63.0
9,865,27,15,921,1610612743,42,"[203999, 1628420, 1629008, 1627736, 203486]",1610612744,-15,"[1626156, 1626161, 1629016, 1629672, 202692]",-22.727272727272727,66.0
10,922,33,11,986,1610612743,44,"[1627736, 1628420, 203115, 203486, 203999]",1610612744,-11,"[1626156, 1626161, 1629016, 1629672, 202692]",-15.714285714285714,70.0
11,987,39,7,1122,1610612743,46,"[1627736, 1628420, 203115, 203924, 203999]",1610612744,-7,"[1626156, 1626161, 1629016, 1629672, 202692]",-9.090909090909092,77.0
12,1123,41,5,1157,1610612743,46,"[1627736, 1628470, 203115, 203924, 203999]",1610612744,-5,"[1626156, 1626161, 1629016, 1629672, 203922]",-6.25,80.0
13,1158,43,6,1251,1610612743,49,"[1627736, 1628470, 203115, 203924, 203999]",1610612744,-6,"[1626161, 1627814, 202692, 203110, 203922]",-6.8181818181818175,88.0
14,1252,45,12,1370,1610612743,57,"[1627736, 1628420, 203115, 203924, 203999]",1610612744,-12,"[1626161, 1627814, 202692, 203110, 203922]",-12.371134020618557,97.0
15,1371,45,17,1415,1610612743,62,"[1628420, 1628470, 203115, 203924, 203999]",1610612744,-17,"[1626156, 1627814, 202692, 203110, 203922]",-16.831683168316832,101.0
16,1416,45,17,1437,1610612743,62,"[1628420, 1628470, 203115, 203486, 203924]",1610612744,-17,"[1626156, 1627814, 202692, 203110, 203922]",-16.666666666666664,102.0
17,1438,53,19,1689,1610612743,72,"[1627736, 1628420, 203115, 203924, 203999]",1610612744,-19,"[1626156, 1627814, 202692, 203110, 203922]",-15.833333333333332,120.0
18,1690,61,14,1872,1610612743,75,"[1628470, 203924, 203999, 203115, 1628420]",1610612744,-14,"[203922, 203110, 1626161, 1627814, 1626156]",-10.606060606060606,132.0
19,1873,69,10,1973,1610612743,79,"[1627736, 1628420, 203115, 203924, 203999]",1610612744,-10,"[203922, 203110, 1626161, 1627814, 1626156]",-7.194244604316546,139.0
20,1974,71,8,2000,1610612743,79,"[1627736, 1628420, 1629008, 203115, 203999]",1610612744,-8,"[1627737, 1627814, 1629673, 203110, 203922]",-5.673758865248227,141.0
21,2001,71,8,2016,1610612743,79,"[1627736, 1628408, 1629008, 203115, 203999]",1610612744,-8,"[1627737, 1629673, 202692, 203110, 203922]",-5.633802816901409,142.0
22,2017,71,8,2057,1610612743,79,"[1627736, 1628408, 1629008, 203115, 203999]",1610612744,-8,"[1627737, 1629016, 1629672, 1629673, 202692]",-5.47945205479452,146.0
23,2058,73,12,2157,1610612743,85,"[1627736, 1628408, 1629008, 203486, 203999]",1610612744,-12,"[1627737, 1629016, 1629672, 1629673, 202692]",-7.8431372549019605,153.0
24,2158,75,10,2217,1610612743,85,"[1627736, 1628408, 1629008, 203486, 203924]",1610612744,-10,"[1627737, 1629016, 1629672, 1629673, 202692]",-6.369426751592357,157.0
25,2218,80,7,2301,1610612743,87,"[203924, 203115, 1629008, 1627736, 203486]",1610612744,-7,"[1629673, 1627737, 202692, 1629016, 1629672]",-4.294478527607362,163.0
26,2302,82,7,2326,1610612743,89,"[203924, 203115, 1629008, 1627736, 203486]",1610612744,-7,"[1626156, 1627737, 1629016, 1629672, 202692]",-4.242424242424243,165.0
27,2327,82,9,2355,1610612743,91,"[203924, 203115, 1629008, 1627736, 203486]",1610612744,-9,"[1626156, 1627814, 1629016, 1629672, 202692]",-5.389221556886228,167.0
28,2356,90,6,2460,1610612743,96,"[1627736, 1629008, 203115, 203486, 203999]",1610612744,-6,"[1626156, 1627814, 1629016, 1629672, 202692]",-3.428571428571429,175.0
29,2461,98,2,2564,1610612743,100,"[1627736, 1629008, 203115, 203486, 203999]",1610612744,-2,"[1626156, 1626161, 1627814, 1629672, 202692]",-1.1049723756906076,181.0
30,2565,98,5,2626,1610612743,103,"[1627736, 1629008, 203115, 203486, 203999]",1610612744,-5,"[1626156, 1626161, 1627814, 203110, 203922]",-2.73224043715847,183.0
31,2627,102,3,2687,1610612743,105,"[1627736, 1629008, 203115, 203486, 203999]",1610612744,-3,"[1626161, 1627814, 202692, 203110, 203922]",-1.6042780748663104,187.0
32,2688,106,2,2781,1610612743,108,"[1627736, 1629008, 203115, 203486, 203999]",1610612744,-2,"[1627814, 1629672, 202692, 203110, 203922]",-1.0362694300518136,193.0
33,2782,111,-3,2829,1610612743,108,"[1627736, 1629008, 203115, 203486, 203999]",1610612744,3,"[1626156, 1629672, 202692, 203110, 203922]",1.507537688442211,199.0
34,2830,113,0,2878,1610612743,113,"[1627736, 1629008, 203115, 203486, 203999]",1610612744,0,"[1626156, 1626161, 1627814, 202692, 203110]",0.0,203.0
35,2879,123,-2,3079,1610612743,121,"[1627736, 1629008, 203115, 203486, 203999]",1610612744,2,"[1626161, 1627814, 1629672, 202692, 203110]",0.9345794392523363,214.0
36,3080,128,-5,3148,1610612743,123,"[203999, 203115, 1629008, 1627736, 203486]",1610612744,5,"[203110, 1626161, 1627814, 1626156, 202692]",2.272727272727273,220.0
37,3149,130,-4,3159,1610612743,126,"[203999, 203115, 1629008, 1627736, 203486]",1610612744,4,"[1626156, 1627814, 1629016, 202692, 203110]",1.8018018018018018,222.0
38,3160,132,-3,3170,1610612743,129,"[1627736, 1628470, 1629008, 203115, 203486]",1610612744,3,"[1626156, 1627814, 1629016, 202692, 203110]",1.3392857142857142,224.0
39,3171,134,-3,3177,1610612743,131,"[1627736, 1629008, 203115, 203486, 203999]",1610612744,3,"[1626156, 1627814, 1629016, 202692, 203110]",1.3215859030837005,227.0
40,3178,134,-3,9999999,1610612743,131,"[1627736, 1628420, 1629008, 203115, 203924]",1610612744,3,"[1626156, 1627814, 1629016, 202692, 203110]",1.3157894736842104,228.0
