,team1_id,team1_player1,team1_player2,team1_player3,team1_player4,team1_player5,team2_id,team2_player1,team2_player2,team2_player3,team2_player4,team2_player5,game_id,period,possession_start,possession_end,team1_points,team2_points,possession_team
0,1610612738,1628369,202694,201143,203935,202681,1610612755,202710,202699,203954,200755,1627732,0021801067,1,0,15,3,0,1610612738
1,1610612738,1628369,202694,201143,203935,202681,1610612755,202710,202699,203954,200755,1627732,0021801067,1,37,41,0,0,1610612755
2,1610612738,1628369,202694,201143,203935,202681,1610612755,202710,202699,203954,200755,1627732,0021801067,1,48,51,0,0,1610612738
3,1610612738,1628369,202694,201143,203935,202681,1610612755,202710,202699,203954,200755,1627732,0021801067,1,59,59,0,1,1610612755
4,1610612738,1628369,202694,201143,203935,202681,1610612755,202710,202699,203954,200755,1627732,0021801067,1,71,71,3,0,1610612738
5,1610612738,1628369,202694,201143,203935,202681,1610612755,202710,202699,203954,200755,1627732,0021801067,1,89,89,0,2,1610612755
6,1610612738,1628369,202694,201143,203935,202681,1610612755,202710,202699,203954,200755,1627732,0021801067,1,98,100,0,0,1610612738
7,1610612738,1628369,202694,201143,203935,202681,1610612755,202710,202699,203954,200755,1627732,0021801067,1,109,122,0,0,1610612755
8,1610612738,1628369,202694,201143,203935,202681,1610612755,202710,202699,203954,200755,1627732,0021801067,1,124,124,2,0,1610612738
9,1610612738,1628369,202694,201143,203935,202681,1610612755,202710,202699,203954,200755,1627732,0021801067,1,142,144,0,0,1610612755
10,1610612738,1628369,202694,201143,203935,202681,1610612755,202710,202699,203954,200755,1627732,0021801067,1,148,148,3,0,1610612738
11,1610612738,1628369,202694,201143,203935,202681,1610612755,202710,202699,203954,200755,1627732,0021801067,1,161,161,0,3,1610612755
12,1610612738,1628369,202694,201143,203935,202681,1610612755,202710,202699,203954,200755,1627732,0021801067,1,170,173,0,0,1610612738
13,1610612738,1628369,202694,201143,203935,202681,1610612755,202710,202699,203954,200755,1627732,0021801067,1,180,180,0,2,1610612755
14,1610612738,1628369,202694,201143,203935,202681,1610612755,202710,202699,203954,200755,1627732,0021801067,1,189,192,2,0,1610612738
15,1610612738,1628369,202694,201143,203935,202681,1610612755,202710,202699,203954,200755,1627732,0021801067,1,205,205,0,0,1610612755
16,1610612738,1628369,202694,201143,203935,202681,1610612755,202710,202699,203954,200755,1627732,0021801067,1,214,221,2,0,1610612738
17,1610612738,1628369,202681,202694,203382,203935,1610612755,202710,202699,203954,200755,1627732,0021801067,1,234,238,0,3,1610612755
18,1610612738,1628369,202681,202694,203382,203935,1610612755,202710,202699,203954,200755,1627732,0021801067,1,255,264,2,0,1610612738
19,1610612738,1628369,202681,202694,203382,203935,1610612755,202710,202699,203954,200755,1627732,0021801067,1,276,278,0,2,1610612755
20,1610612738,1628369,202681,202694,203382,203935,1610612755,202710,202699,203954,200755,1627732,0021801067,1,295,304,2,0,1610612738
21,1610612738,1628369,202681,202694,203382,203935,1610612755,202710,202699,203954,200755,1627732,0021801067,1,305,322,0,2,1610612755
22,1610612738,1628369,202681,202694,203382,203935,1610612755,202710,202699,203954,200755,1627732,0021801067,1,332,335,0,0,1610612738
23,1610612738,1628369,202681,202694,203382,203935,1610612755,202710,202699,203954,200755,1627732,0021801067,1,340,343,0,0,1610612755
24,1610612738,1628369,202681,202694,203382,203935,1610612755,202710,202699,203954,200755,1627732,0021801067,1,349,352,0,0,1610612738
25,1610612738,1628369,202681,202694,203382,203935,1610612755,202710,202699,203954,200755,1627732,0021801067,1,356,356,0,2,1610612755
26,1610612738,1628369,202681,202694,203382,203935,1610612755,202710,202699,203954,200755,1627732,0021801067,1,372,374,0,0,1610612738
27,1610612738,1628369,202681,202694,203382,203935,1610612755,202710,202699,203954,200755,1627732,0021801067,1,382,382,0,2,1610612755
28,1610612738,1628369,202681,202694,203382,203935,1610612755,202710,202699,203954,200755,1627732,0021801067,1,400,400,2,0,1610612738
29,1610612738,1628369,202681,202694,203382,203935,1610612755,202710,202699,203954,200755,1627732,0021801067,1,416,416,0,2,1610612755
30,1610612738,1628369,202681,202694,203382,203935,1610612755,202710,202699,203954,200755,1627732,0021801067,1,431,433,0,0,1610612738
31,1610612738,1628369,202681,202694,203382,203935,1610612755,202710,202699,203954,200755,1627732,0021801067,1,437,440,0,0,1610612755
32,1610612738,1628369,202681,202694,203382,203935,1610612755,202710,202699,203954,200755,1627732,0021801067,1,440,456,0,0,1610612738
33,1610612738,1627759,1628369,201143,202681,202694,1610612755,1626246,202699,202710,203118,204456,0021801067,1,468,471,0,0,1610612755
34,1610612738,1627759,1628369,201143,202681,202694,1610612755,1626246,202699,202710,203118,204456,0021801067,1,477,477,2,0,1610612738
35,1610612738,1627759,1628369,201143,202681,202694,1610612755,1626246,202699,202710,203118,204456,0021801067,1,506,516,0,0,1610612755
36,1610612738,1627759,1628369,201143,202681,202694,1610612755,1626246,202699,202710,203118,204456,0021801067,1,523,523,3,0,1610612738
37,1610612738,1627759,1628369,201143,202681,202694,1610612755,1626246,202699,202710,203118,204456,0021801067,1,541,541,0,3,1610612755
38,1610612738,1627759,1628369,201143,202681,202694,1610612755,1626246,202699,202710,203118,204456,0021801067,1,542,567,2,0,1610612738
39,1610612738,1626179,1627759,1628369,201143,202681,1610612755,1626246,202699,203118,203516,204456,0021801067,1,580,583,0,0,1610612755
40,1610612738,1626179,1627759,1628369,201143,202681,1610612755,1626246,202699,203118,203516,204456,0021801067,1,589,592,0,0,1610612738
41,1610612738,1626179,1627759,1628369,201143,202681,1610612755,1626246,202699,203118,203516,204456,0021801067,1,602,604,0,0,1610612755
42,1610612738,1626179,1627759,1628369,201143,202681,1610612755,1626246,202699,203118,203516,204456,0021801067,1,611,611,2,0,1610612738
43,1610612738,1626179,1627759,1628369,201143,202681,1610612755,1626246,202699,203118,203516,204456,0021801067,1,620,620,0,0,1610612755
44,1610612738,1626179,1627759,201143,202681,203382,1610612755,1627732,200755,203118,203516,203954,0021801067,1,629,629,0,0,1610612738
45,1610612738,1626179,1627759,201143,202681,203382,1610612755,1627732,200755,203118,203516,203954,0021801067,1,635,635,0,2,1610612755
46,1610612738,1626179,1627759,201143,202681,203382,1610612755,1627732,200755,203118,203516,203954,0021801067,1,647,647,2,0,1610612738
47,1610612738,1626179,1627759,201143,202681,203382,1610612755,1627732,200755,203118,203516,203954,0021801067,1,647,668,0,0,1610612755
48,1610612738,1626179,1627759,201143,202681,203382,1610612755,1627732,200755,203118,203516,203954,0021801067,1,672,672,3,0,1610612738
49,1610612738,1626179,1627759,201143,202681,203382,1610612755,1627732,200755,203118,203516,203954,0021801067,1,673,684,0,2,1610612755
50,1610612738,1626179,1627759,201143,202681,203382,1610612755,1627732,200755,203118,203516,203954,0021801067,1,693,693,2,0,1610612738
51,1610612738,1626179,1627759,201143,202681,203382,1610612755,1627732,200755,203118,203516,203954,0021801067,1,708,708,0,2,1610612755
52,1610612738,1626179,1627759,201143,202681,203382,1610612755,1627732,200755,203118,203516,203954,0021801067,1,716,716,2,0,1610612738
53,1610612738,1626179,1627759,201143,202681,203382,1610612755,1627732,200755,203118,203516,203954,0021801067,1,719,720,0,0,1610612738
54,1610612738,201143,203935,203382,1627759,1626179,1610612755,202699,203954,200755,1627732,203516,0021801067,2,720,751,0,0,1610612755
55,1610612738,201143,203935,203382,1627759,1626179,1610612755,202699,203954,200755,1627732,203516,0021801067,2,758,760,0,0,1610612738
56,1610612738,201143,203935,203382,1627759,1626179,1610612755,202699,203954,200755,1627732,203516,0021801067,2,773,773,0,2,1610612755
57,1610612738,201143,203935,203382,1627759,1626179,1610612755,202699,203954,200755,1627732,203516,0021801067,2,781,781,0,0,1610612738
58,1610612738,201143,203935,203382,1627759,1626179,1610612755,202699,203954,200755,1627732,203516,0021801067,2,793,793,0,2,1610612755
59,1610612738,201143,203935,203382,1627759,1626179,1610612755,202699,203954,200755,1627732,203516,0021801067,2,814,814,3,0,1610612738
60,1610612738,201143,203935,203382,1627759,1626179,1610612755,202699,203954,200755,1627732,203516,0021801067,2,825,825,0,3,1610612755
61,1610612738,201143,203935,203382,1627759,1626179,1610612755,202699,203954,200755,1627732,203516,0021801067,2,848,848,3,0,1610612738
62,1610612738,201143,203935,203382,1627759,1626179,1610612755,1627732,200755,202699,202710,203954,0021801067,2,869,869,0,0,1610612755
63,1610612738,201143,203935,203382,1627759,1626179,1610612755,1627732,200755,202699,202710,203954,0021801067,2,891,891,0,0,1610612738
64,1610612738,201143,203935,203382,1627759,1626179,1610612755,1627732,200755,202699,202710,203954,0021801067,2,895,899,0,0,1610612755
65,1610612738,201143,203935,203382,1627759,1626179,1610612755,1627732,200755,202699,202710,203954,0021801067,2,903,903,2,0,1610612738
66,1610612738,201143,203935,203382,1627759,1626179,1610612755,1627732,200755,202699,202710,203954,0021801067,2,922,924,0,0,1610612755
67,1610612738,201143,203935,203382,1627759,1626179,1610612755,1627732,200755,202699,202710,203954,0021801067,2,930,930,3,0,1610612738
68,1610612738,201143,203935,203382,1627759,1626179,1610612755,1627732,200755,202699,202710,203954,0021801067,2,943,943,0,2,1610612755
69,1610612738,201143,203935,203382,1627759,1626179,1610612755,1627732,200755,202699,202710,203954,0021801067,2,951,951,0,0,1610612738
70,1610612738,201143,203935,203382,1627759,1626179,1610612755,1627732,200755,202699,202710,203954,0021801067,2,956,960,0,0,1610612755
71,1610612738,201143,203935,203382,1627759,1626179,1610612755,1627732,200755,202699,202710,203954,0021801067,2,964,964,2,0,1610612738
72,1610612738,201143,203935,203382,1627759,1626179,1610612755,1627732,200755,202699,202710,203954,0021801067,2,978,978,0,2,1610612755
73,1610612738,1626179,1627759,202694,203382,203935,1610612755,1627732,202699,202710,203118,203954,0021801067,2,994,994,3,0,1610612738
74,1610612738,1626179,1627759,202694,203382,203935,1610612755,1627732,202699,202710,203118,203954,0021801067,2,1011,1011,0,2,1610612755
75,1610612738,1626179,1627759,202694,203382,203935,1610612755,202699,202710,203118,203954,204456,0021801067,2,1025,1025,3,0,1610612738
76,1610612738,1626179,1627759,202694,203382,203935,1610612755,202699,202710,203118,203954,204456,0021801067,2,1040,1040,0,0,1610612755
77,1610612738,1626179,1627759,202694,203382,203935,1610612755,202699,202710,203118,203954,204456,0021801067,2,1040,1062,0,0,1610612738
78,1610612738,1626179,1628369,202694,203382,203935,1610612755,1626246,202699,202710,203118,204456,0021801067,2,1076,1076,0,2,1610612755
79,1610612738,1626179,1628369,202694,203382,203935,1610612755,1626246,202699,202710,203118,204456,0021801067,2,1090,1090,0,0,1610612738
80,1610612738,1626179,1628369,202694,203382,203935,1610612755,1626246,202699,202710,203118,204456,0021801067,2,1105,1114,0,0,1610612755
81,1610612738,1626179,1628369,202694,203382,203935,1610612755,1626246,202699,202710,203118,204456,0021801067,2,1121,1125,0,0,1610612738
82,1610612738,1626179,1628369,202694,203382,203935,1610612755,1626246,202699,202710,203118,204456,0021801067,2,1132,1149,0,0,1610612755
83,1610612738,1626179,1628369,201143,202681,202694,1610612755,202699,202710,203118,203954,204456,0021801067,2,1167,1167,2,0,1610612738
84,1610612738,1626179,1628369,201143,202681,202694,1610612755,1627732,202699,202710,203118,203954,0021801067,2,1181,1184,0,0,1610612755
85,1610612738,1626179,1628369,201143,202681,202694,1610612755,1627732,202699,202710,203118,203954,0021801067,2,1186,1186,0,0,1610612738
86,1610612738,1626179,1628369,201143,202681,202694,1610612755,1627732,202699,202710,203118,203954,0021801067,2,1195,1195,0,1,1610612755
87,1610612738,1628369,201143,202681,202694,203935,1610612755,1627732,202699,202710,203118,203954,0021801067,2,1204,1208,0,0,1610612738
88,1610612738,1628369,201143,202681,202694,203935,1610612755,1627732,202699,202710,203118,203954,0021801067,2,1214,1228,0,0,1610612755
89,1610612738,1628369,201143,202681,202694,203935,1610612755,1627732,202699,202710,203118,203954,0021801067,2,1230,1232,0,0,1610612738
90,1610612738,1628369,201143,202681,202694,203935,1610612755,1627732,202699,202710,203118,203954,0021801067,2,1235,1235,0,2,1610612755
91,1610612738,1628369,201143,202681,202694,203935,1610612755,1627732,200755,202710,203118,203954,0021801067,2,1246,1249,0,0,1610612738
92,1610612738,1628369,201143,202681,202694,203935,1610612755,1627732,200755,202710,203118,203954,0021801067,2,1252,1256,0,3,1610612755
93,1610612738,1628369,201143,202681,202694,203935,1610612755,1627732,200755,202710,203118,203954,0021801067,2,1259,1274,2,0,1610612738
94,1610612738,1628369,201143,202681,202694,203935,1610612755,1627732,200755,202710,203118,203954,0021801067,2,1303,1303,0,2,1610612755
95,1610612738,1628369,201143,202681,202694,203935,1610612755,1627732,200755,202710,203118,203954,0021801067,2,1322,1322,2,0,1610612738
96,1610612738,1628369,201143,202681,202694,203935,1610612755,1627732,200755,202710,203118,203954,0021801067,2,1328,1331,0,0,1610612755
97,1610612738,1628369,201143,202681,202694,203935,1610612755,1627732,200755,202710,203118,203954,0021801067,2,1336,1341,0,0,1610612738
98,1610612738,1628369,201143,202681,202694,203935,1610612755,1627732,200755,202710,203118,203954,0021801067,2,1355,1357,0,0,1610612755
99,1610612738,1628369,201143,202681,202694,203935,1610612755,1627732,200755,202710,203118,203954,0021801067,2,1372,1376,3,0,1610612738
100,1610612738,1628369,201143,202681,202694,203935,1610612755,1627732,200755,202710,203118,203954,0021801067,2,1400,1402,0,0,1610612755
101,1610612738,1628369,201143,202681,202694,203935,1610612755,1627732,200755,202710,203118,203954,0021801067,2,1406,1409,0,0,1610612738
102,1610612738,1628369,201143,202681,202694,203935,1610612755,1627732,200755,202710,203118,203954,0021801067,2,1414,1414,0,2,1610612755
103,1610612738,1628369,201143,202681,202694,203935,1610612755,1627732,200755,202710,203118,203954,0021801067,2,1435,1435,2,0,1610612738
104,1610612738,1628369,201143,202681,202694,203935,1610612755,1627732,200755,202710,203118,203954,0021801067,2,1440,1440,0,3,1610612755
105,1610612738,1628369,202694,201143,203935,202681,1610612755,202710,202699,203954,200755,1627732,0021801067,3,1440,1465,0,0,1610612755
106,1610612738,1628369,202694,201143,203935,202681,1610612755,202710,202699,203954,200755,1627732,0021801067,3,1480,1484,0,0,1610612738
107,1610612738,1628369,202694,201143,203935,202681,1610612755,202710,202699,203954,200755,1627732,0021801067,3,1492,1506,1,4,1610612755
108,1610612738,1627759,1628369,201143,202681,202694,1610612755,202710,202699,203954,200755,1627732,0021801067,3,1518,1518,0,0,1610612738
109,1610612738,1627759,1628369,201143,202681,202694,1610612755,202710,202699,203954,200755,1627732,0021801067,3,1527,1527,0,2,1610612755
110,1610612738,1627759,1628369,201143,202681,202694,1610612755,202710,202699,203954,200755,1627732,0021801067,3,1548,1548,0,0,1610612738
111,1610612738,1627759,1628369,201143,202681,202694,1610612755,202710,202699,203954,200755,1627732,0021801067,3,1554,1558,0,2,1610612755
112,1610612738,1627759,1628369,201143,202681,202694,1610612755,202710,202699,203954,200755,1627732,0021801067,3,1570,1570,2,0,1610612738
113,1610612738,1627759,1628369,201143,202681,202694,1610612755,202710,202699,203954,200755,1627732,0021801067,3,1584,1584,0,2,1610612755
114,1610612738,1627759,1628369,201143,202681,202694,1610612755,202710,202699,203954,200755,1627732,0021801067,3,1596,1596,2,0,1610612738
115,1610612738,1627759,1628369,201143,202681,202694,1610612755,202710,202699,203954,200755,1627732,0021801067,3,1616,1616,0,0,1610612755
116,1610612738,1627759,1628369,201143,202681,202694,1610612755,202710,202699,203954,200755,1627732,0021801067,3,1622,1622,2,0,1610612738
117,1610612738,1627759,1628369,201143,202681,202694,1610612755,202710,202699,203954,200755,1627732,0021801067,3,1633,1636,0,0,1610612755
118,1610612738,1627759,1628369,201143,202681,202694,1610612755,202710,202699,203954,200755,1627732,0021801067,3,1642,1642,2,0,1610612738
119,1610612738,1627759,1628369,201143,202681,202694,1610612755,202710,202699,203954,200755,1627732,0021801067,3,1642,1652,0,3,1610612755
120,1610612738,1627759,1628369,201143,202681,202694,1610612755,202710,202699,203954,200755,1627732,0021801067,3,1669,1673,2,0,1610612738
121,1610612738,1627759,1628369,201143,202681,202694,1610612755,202710,202699,203954,200755,1627732,0021801067,3,1687,1690,0,0,1610612755
122,1610612738,1627759,1628369,201143,202681,202694,1610612755,202710,202699,203954,200755,1627732,0021801067,3,1704,1704,0,0,1610612738
123,1610612738,1627759,1628369,201143,202681,202694,1610612755,202710,202699,203954,200755,1627732,0021801067,3,1714,1722,0,3,1610612755
124,1610612738,1627759,1628369,201143,202681,202694,1610612755,202710,202699,203954,200755,1627732,0021801067,3,1739,1739,2,0,1610612738
125,1610612738,1627759,1628369,201143,202681,202694,1610612755,202710,202699,203954,200755,1627732,0021801067,3,1752,1752,0,3,1610612755
126,1610612738,1627759,1628369,201143,202681,202694,1610612755,202710,202699,203954,200755,1627732,0021801067,3,1776,1780,0,0,1610612738
127,1610612738,1627759,1628369,201143,202681,202694,1610612755,202710,202699,203954,200755,1627732,0021801067,3,1788,1793,0,0,1610612755
128,1610612738,1627759,1628369,201143,202681,202694,1610612755,202710,202699,203954,200755,1627732,0021801067,3,1798,1801,0,0,1610612738
129,1610612738,1627759,1628369,201143,202681,202694,1610612755,202710,202699,203954,200755,1627732,0021801067,3,1813,1813,0,2,1610612755
130,1610612738,1627759,1628369,201143,202681,202694,1610612755,202710,202699,203954,200755,1627732,0021801067,3,1815,1839,0,0,1610612738
131,1610612738,1626179,1628369,1628400,1628464,202681,1610612755,1627732,203118,203516,203954,204456,0021801067,3,1857,1857,0,3,1610612755
132,1610612738,1626179,1628369,1628400,1628464,202681,1610612755,1627732,203118,203516,203954,204456,0021801067,3,1870,1887,0,0,1610612738
133,1610612738,1626179,1628369,1628400,1628464,202681,1610612755,1627732,203118,203516,203954,204456,0021801067,3,1909,1913,0,0,1610612755
134,1610612738,1626179,1628369,1628400,1628464,202681,1610612755,1627732,203118,203516,203954,204456,0021801067,3,1921,1925,0,0,1610612738
135,1610612738,1626179,1628369,1628400,1628464,202681,1610612755,1627732,203118,203516,203954,204456,0021801067,3,1932,1932,0,1,1610612755
136,1610612738,1626179,1628369,1628400,1628464,202681,1610612755,1627732,203118,203516,203954,204456,0021801067,3,1952,1955,0,0,1610612738
137,1610612738,1626179,1628369,1628400,1628464,202681,1610612755,1627732,203118,203516,203954,204456,0021801067,3,1967,1967,0,0,1610612755
138,1610612738,1626179,1628369,1628400,1628464,202681,1610612755,1627732,203118,203516,203954,204456,0021801067,3,1983,1983,2,0,1610612738
139,1610612738,1626179,1628369,1628400,1628464,202681,1610612755,1627732,203118,203516,203954,204456,0021801067,3,2008,2008,0,2,1610612755
140,1610612738,1626179,1627759,1628400,1628464,202681,1610612755,1627732,200755,202699,203516,203954,0021801067,3,2024,2024,2,0,1610612738
141,1610612738,1626179,1627759,1628400,1628464,202681,1610612755,1627732,200755,202699,203516,203954,0021801067,3,2039,2047,0,0,1610612755
142,1610612738,1626179,1627759,1628400,1628464,202681,1610612755,1627732,200755,202699,203516,203954,0021801067,3,2051,2060,2,0,1610612738
143,1610612738,1626179,1627759,1628400,1628464,202681,1610612755,1627732,200755,202699,203516,203954,0021801067,3,2075,2077,0,0,1610612755
144,1610612738,1626179,1627759,1628400,1628464,202681,1610612755,1627732,200755,202699,203516,203954,0021801067,3,2081,2081,0,0,1610612738
145,1610612738,1626179,1627759,1628400,1628464,202681,1610612755,1627732,200755,202699,203516,203954,0021801067,3,2082,2082,0,0,1610612755
146,1610612738,1626179,1627759,1628400,1628464,202681,1610612755,1627732,200755,202699,203118,203516,0021801067,3,2097,2110,0,0,1610612738
147,1610612738,1626179,1627759,1628400,1628464,202681,1610612755,1627732,200755,202699,203118,203516,0021801067,3,2114,2117,0,0,1610612755
148,1610612738,1626179,1627759,1628400,1628464,202681,1610612755,1627732,200755,202699,203118,203516,0021801067,3,2117,2117,2,0,1610612738
149,1610612738,1626179,1627759,1628400,201143,202681,1610612755,1627732,200755,202699,203118,203516,0021801067,3,2128,2131,0,0,1610612755
150,1610612738,1626179,1627759,1628400,201143,202681,1610612755,1627732,200755,202699,203118,203516,0021801067,3,2138,2145,0,0,1610612738
151,1610612738,1626179,1627759,1628400,201143,202681,1610612755,1627732,200755,202699,203118,203516,0021801067,3,2156,2159,0,0,1610612755
152,1610612738,1626179,1627759,1628400,201143,202681,1610612755,1627732,200755,202699,203118,203516,0021801067,3,2159,2159,0,0,1610612755
153,1610612738,202694,201143,1627759,1626179,1628400,1610612755,202710,203954,200755,1627732,203118,0021801067,4,2160,2180,2,0,1610612738
154,1610612738,202694,201143,1627759,1626179,1628400,1610612755,202710,203954,200755,1627732,203118,0021801067,4,2203,2203,0,2,1610612755
155,1610612738,202694,201143,1627759,1626179,1628400,1610612755,202710,203954,200755,1627732,203118,0021801067,4,2222,2226,3,0,1610612738
156,1610612738,202694,201143,1627759,1626179,1628400,1610612755,202710,203954,200755,1627732,203118,0021801067,4,2232,2232,0,3,1610612755
157,1610612738,202694,201143,1627759,1626179,1628400,1610612755,202710,203954,200755,1627732,203118,0021801067,4,2260,2263,0,0,1610612738
158,1610612738,202694,201143,1627759,1626179,1628400,1610612755,202710,203954,200755,1627732,203118,0021801067,4,2273,2277,0,0,1610612755
159,1610612738,202694,201143,1627759,1626179,1628400,1610612755,202710,203954,200755,1627732,203118,0021801067,4,2288,2288,2,0,1610612738
160,1610612738,202694,201143,1627759,1626179,1628400,1610612755,202710,203954,200755,1627732,203118,0021801067,4,2303,2305,0,0,1610612755
161,1610612738,202694,201143,1627759,1626179,1628400,1610612755,202710,203954,200755,1627732,203118,0021801067,4,2317,2320,0,0,1610612738
162,1610612738,202694,201143,1627759,1626179,1628400,1610612755,202710,203954,200755,1627732,203118,0021801067,4,2330,2333,0,0,1610612755
163,1610612738,202694,201143,1627759,1626179,1628400,1610612755,202710,203954,200755,1627732,203118,0021801067,4,2342,2342,2,0,1610612738
164,1610612738,202694,201143,1627759,1626179,1628400,1610612755,202710,203954,200755,1627732,203118,0021801067,4,2342,2360,0,3,1610612755
165,1610612738,202694,201143,1627759,1626179,1628400,1610612755,1627732,202699,202710,203516,203954,0021801067,4,2378,2378,2,0,1610612738
166,1610612738,202694,201143,1627759,1626179,1628400,1610612755,1627732,202699,202710,203516,203954,0021801067,4,2395,2395,0,2,1610612755
167,1610612738,202694,201143,1627759,1626179,1628400,1610612755,1627732,202699,202710,203516,203954,0021801067,4,2415,2415,2,0,1610612738
168,1610612738,202694,201143,1627759,1626179,1628400,1610612755,1627732,202699,202710,203516,203954,0021801067,4,2429,2429,0,2,1610612755
169,1610612738,202694,201143,1627759,1626179,1628400,1610612755,1627732,202699,202710,203516,203954,0021801067,4,2452,2455,0,0,1610612738
170,1610612738,202694,201143,1627759,1626179,1628400,1610612755,1627732,202699,202710,203516,203954,0021801067,4,2460,2463,0,0,1610612755
171,1610612738,202694,201143,1627759,1626179,1628400,1610612755,1627732,202699,202710,203516,203954,0021801067,4,2470,2480,0,0,1610612738
172,1610612738,1626179,1627759,1628400,1628464,202694,1610612755,1627732,202699,202710,203516,203954,0021801067,4,2485,2485,0,2,1610612755
173,1610612738,1626179,1628369,1628464,202681,202694,1610612755,1627732,202699,202710,203516,203954,0021801067,4,2497,2521,2,0,1610612738
174,1610612738,1626179,1628369,1628464,202681,202694,1610612755,1627732,202699,202710,203516,203954,0021801067,4,2542,2549,0,3,1610612755
175,1610612738,1626179,1628369,1628464,202681,202694,1610612755,1627732,202699,202710,203516,203954,0021801067,4,2562,2565,0,0,1610612738
176,1610612738,1626179,1628369,1628464,202681,202694,1610612755,1627732,202699,202710,203516,203954,0021801067,4,2575,2575,0,3,1610612755
177,1610612738,1626179,1628369,1628464,202681,202694,1610612755,1627732,202699,202710,203516,203954,0021801067,4,2577,2591,3,0,1610612738
178,1610612738,1627759,1628369,201143,202681,202694,1610612755,1627732,202699,202710,203118,203516,0021801067,4,2613,2617,0,0,1610612755
179,1610612738,1627759,1628369,201143,202681,202694,1610612755,1627732,202699,202710,203118,203516,0021801067,4,2629,2632,0,0,1610612738
180,1610612738,1627759,1628369,201143,202681,202694,1610612755,1627732,202699,202710,203118,203516,0021801067,4,2636,2641,0,2,1610612755
181,1610612738,1627759,1628369,201143,202681,202694,1610612755,1627732,200755,202699,202710,203954,0021801067,4,2655,2655,0,0,1610612738
182,1610612738,1627759,1628369,201143,202681,202694,1610612755,1627732,200755,202699,202710,203954,0021801067,4,2671,2671,0,0,1610612755
183,1610612738,1627759,1628369,201143,202681,202694,1610612755,1627732,200755,202699,202710,203954,0021801067,4,2687,2689,0,0,1610612738
184,1610612738,1627759,1628369,201143,202681,202694,1610612755,1627732,200755,202699,202710,203954,0021801067,4,2700,2700,0,2,1610612755
185,1610612738,1627759,1628369,201143,202681,202694,1610612755,1627732,200755,202699,202710,203954,0021801067,4,2714,2714,0,0,1610612738
186,1610612738,1627759,1628369,201143,202681,202694,1610612755,1627732,200755,202699,202710,203954,0021801067,4,2736,2736,0,2,1610612755
187,1610612738,1627759,1628369,201143,202681,202694,1610612755,1627732,200755,202699,202710,203954,0021801067,4,2749,2749,3,0,1610612738
188,1610612738,1627759,1628369,201143,202681,202694,1610612755,1627732,200755,202699,202710,203954,0021801067,4,2766,2766,0,2,1610612755
189,1610612738,1627759,1628369,201143,202681,202694,1610612755,1627732,200755,202699,202710,203954,0021801067,4,2780,2784,0,0,1610612738
190,1610612738,1627759,1628369,201143,202681,202694,1610612755,1627732,200755,202699,202710,203954,0021801067,4,2796,2807,0,0,1610612755
191,1610612738,1627759,1628369,201143,202681,202694,1610612755,1627732,200755,202699,202710,203954,0021801067,4,2813,2813,2,0,1610612738
192,1610612738,1627759,1628369,201143,202681,202694,1610612755,1627732,200755,202699,202710,203954,0021801067,4,2833,2840,0,3,1610612755
193,1610612738,1628369,1628464,201143,202681,202694,1610612755,1627732,202699,202710,203516,203954,0021801067,4,2840,2857,0,0,1610612738
194,1610612738,1627759,1628369,201143,202681,202694,1610612755,1627732,202699,202710,203516,203954,0021801067,4,2875,2875,0,2,1610612755
195,1610612738,1627759,1628369,201143,202681,202694,1610612755,1627732,202699,202710,203516,203954,0021801067,4,2876,2880,2,0,1610612738
196,1610612738,1627759,1628369,201143,202681,202694,1610612755,1627732,202699,202710,203516,203954,0021801067,4,2880,2880,0,0,688
