,stint_start,t1_points_scored,t2_pm,stint_end,t1_id,t2_points_scored,t1_players,t2_id,t1_pm,t2_players,margin_per_100,num_poss
0,0,9,10,380,1610612754,19,"[203933, 203960, 1627734, 203087, 204456]",1610612757,-10,"[2772, 2546, 202355, 203468, 203081]",-34.48275862068966,29.0
1,381,13,10,479,1610612754,23,"[203933, 203960, 1627734, 203087, 204456]",1610612757,-10,"[2772, 2546, 202355, 203468, 203081]",-27.77777777777778,36.0
2,480,15,8,507,1610612754,23,"[1627734, 203087, 203200, 203933, 204456]",1610612757,-8,"[2772, 2546, 202355, 203468, 203081]",-21.052631578947366,38.0
3,508,23,3,632,1610612754,26,"[1627734, 1628988, 203087, 203200, 203933]",1610612757,-3,"[1629014, 1629642, 202355, 203081, 2772]",-6.521739130434782,46.0
4,633,27,6,719,1610612754,33,"[1627734, 1628988, 203087, 203200, 203926]",1610612757,-6,"[1629014, 1629018, 1629642, 202355, 203081]",-11.538461538461538,52.0
5,720,34,8,939,1610612754,42,"[1628410, 1628988, 1629048, 203200, 203926]",1610612757,-8,"[1628403, 1629014, 1629018, 1629642, 203081]",-12.307692307692308,65.0
6,940,36,8,1009,1610612754,44,"[203200, 1628988, 203926, 1629048, 1628410]",1610612757,-8,"[2546, 203468, 1629014, 1629018, 1628403]",-11.428571428571429,70.0
7,1010,38,8,1103,1610612754,46,"[1627734, 1628410, 203200, 203926, 204456]",1610612757,-8,"[2546, 203468, 1629014, 1629018, 1628403]",-10.38961038961039,77.0
8,1104,42,6,1125,1610612754,48,"[1627734, 1628410, 203926, 203933, 204456]",1610612757,-6,"[1628403, 1629018, 203468, 2546, 2772]",-7.59493670886076,79.0
9,1126,44,4,1171,1610612754,48,"[1627734, 203087, 203926, 203933, 204456]",1610612757,-4,"[1628403, 1629018, 203081, 2546, 2772]",-4.878048780487805,82.0
10,1172,49,8,1342,1610612754,57,"[1627734, 203087, 203926, 203933, 204456]",1610612757,-8,"[1628403, 1629018, 1629642, 203081, 2772]",-8.60215053763441,93.0
11,1343,49,10,1360,1610612754,59,"[1627734, 203087, 203926, 203933, 204456]",1610612757,-10,"[1629018, 1629642, 202355, 203081, 2772]",-10.526315789473683,95.0
12,1361,56,8,1426,1610612754,64,"[1627734, 203087, 203200, 203926, 204456]",1610612757,-8,"[202355, 203081, 203468, 2546, 2772]",-8.0,100.0
13,1427,56,10,1439,1610612754,66,"[1627734, 203087, 203200, 203960, 204456]",1610612757,-10,"[202355, 203081, 203468, 2546, 2772]",-9.900990099009901,101.0
14,1440,80,18,1900,1610612754,98,"[1627734, 203087, 203200, 203960, 204456]",1610612757,-18,"[1629014, 203081, 203468, 2546, 2772]",-13.636363636363635,132.0
15,1901,80,20,1936,1610612754,100,"[203933, 203960, 1627734, 203087, 1628988]",1610612757,-20,"[2772, 2546, 202355, 203468, 203081]",-14.925373134328357,134.0
16,1937,85,18,2010,1610612754,103,"[1628988, 203087, 203200, 203933, 203960]",1610612757,-18,"[1629018, 1629642, 202355, 203081, 2772]",-12.949640287769784,139.0
17,2011,87,16,2078,1610612754,103,"[203087, 203200, 203926, 203960, 204456]",1610612757,-16,"[1629018, 1629642, 202355, 203081, 2772]",-11.11111111111111,144.0
18,2079,93,13,2159,1610612754,106,"[1627734, 203087, 203200, 203926, 204456]",1610612757,-13,"[1629014, 1629018, 1629642, 202355, 203081]",-8.724832214765101,149.0
19,2160,102,12,2345,1610612754,114,"[1627734, 1628988, 203200, 203926, 204456]",1610612757,-12,"[1629014, 1629018, 1629642, 202355, 203081]",-7.361963190184049,163.0
20,2346,108,10,2475,1610612754,118,"[1627734, 204456, 203200, 1628988, 203926]",1610612757,-10,"[2546, 203468, 1629014, 1629018, 1628403]",-5.813953488372093,172.0
21,2476,114,15,2632,1610612754,129,"[1627734, 204456, 203200, 1628988, 203926]",1610612757,-15,"[1629018, 202355, 203081, 203468, 2546]",-8.287292817679557,181.0
22,2633,129,10,2877,1610612754,139,"[1627734, 203087, 203926, 203933, 204456]",1610612757,-10,"[1629018, 202355, 203081, 203468, 2772]",-5.05050505050505,198.0
23,2878,129,10,9999999,1610612754,139,"[1627734, 1628988, 203087, 203926, 203933]",1610612757,-10,"[202355, 203081, 203468, 2546, 2772]",-5.025125628140704,199.0
