,team1_id,team1_player1,team1_player2,team1_player3,team1_player4,team1_player5,team2_id,team2_player1,team2_player2,team2_player3,team2_player4,team2_player5,game_id,period,possession_start,possession_end,team1_points,team2_points,possession_team
0,1610612765,203924,1630180,203486,1629004,1626153,1610612766,202330,1629023,203469,1626179,1630163,0022000568,1,0,18,3,0,1610612765
1,1610612765,203924,1630180,203486,1629004,1626153,1610612766,202330,1629023,203469,1626179,1630163,0022000568,1,35,35,0,0,1610612766
2,1610612765,203924,1630180,203486,1629004,1626153,1610612766,202330,1629023,203469,1626179,1630163,0022000568,1,42,42,2,0,1610612765
3,1610612765,203924,1630180,203486,1629004,1626153,1610612766,202330,1629023,203469,1626179,1630163,0022000568,1,42,42,0,0,1610612766
4,1610612765,203924,1630180,203486,1629004,1626153,1610612766,202330,1629023,203469,1626179,1630163,0022000568,1,45,45,0,0,1610612765
5,1610612765,203924,1630180,203486,1629004,1626153,1610612766,202330,1629023,203469,1626179,1630163,0022000568,1,58,58,0,2,1610612766
6,1610612765,203924,1630180,203486,1629004,1626153,1610612766,202330,1629023,203469,1626179,1630163,0022000568,1,87,94,0,0,1610612765
7,1610612765,203924,1630180,203486,1629004,1626153,1610612766,202330,1629023,203469,1626179,1630163,0022000568,1,105,105,0,2,1610612766
8,1610612765,203924,1630180,203486,1629004,1626153,1610612766,202330,1629023,203469,1626179,1630163,0022000568,1,121,121,3,0,1610612765
9,1610612765,203924,1630180,203486,1629004,1626153,1610612766,202330,1629023,203469,1626179,1630163,0022000568,1,138,142,0,0,1610612766
10,1610612765,203924,1630180,203486,1629004,1626153,1610612766,202330,1629023,203469,1626179,1630163,0022000568,1,146,159,0,0,1610612765
11,1610612765,203924,1630180,203486,1629004,1626153,1610612766,202330,1629023,203469,1626179,1630163,0022000568,1,163,163,0,3,1610612766
12,1610612765,203924,1630180,203486,1629004,1626153,1610612766,202330,1629023,203469,1626179,1630163,0022000568,1,190,190,2,0,1610612765
13,1610612765,203924,1630180,203486,1629004,1626153,1610612766,202330,1629023,203469,1626179,1630163,0022000568,1,220,220,0,2,1610612766
14,1610612765,203924,1630180,203486,1629004,1626153,1610612766,202330,1629023,203469,1626179,1630163,0022000568,1,233,233,2,0,1610612765
15,1610612765,203924,1630180,203486,1629004,1626153,1610612766,202330,1629023,203469,1626179,1630163,0022000568,1,246,246,0,2,1610612766
16,1610612765,203924,1630180,203486,1629004,1626153,1610612766,202330,1629023,203469,1626179,1630163,0022000568,1,267,275,0,0,1610612765
17,1610612765,203924,1630180,203486,1629004,1626153,1610612766,202330,1629023,203469,1626179,1630163,0022000568,1,277,277,0,2,1610612766
18,1610612765,203924,1630180,203486,1629004,1626153,1610612766,202330,1629023,203469,1626179,1630163,0022000568,1,285,298,0,0,1610612765
19,1610612765,203924,1630180,203486,1629004,1626153,1610612766,1626179,1628970,1630163,202330,203469,0022000568,1,305,308,0,0,1610612766
20,1610612765,203924,1630180,203486,1629004,1626153,1610612766,1626179,1628970,1630163,202330,203469,0022000568,1,325,328,0,0,1610612765
21,1610612765,203924,1630180,203486,1629004,1626153,1610612766,1626179,1628970,1630163,202330,203469,0022000568,1,344,344,0,2,1610612766
22,1610612765,1628372,1630180,201961,203486,203924,1610612766,1626179,1628970,1630163,202330,203469,0022000568,1,360,360,0,0,1610612765
23,1610612765,1628372,1630180,201961,203486,203924,1610612766,1626179,1628970,1630163,202330,203469,0022000568,1,382,382,0,2,1610612766
24,1610612765,1628372,1630180,201961,203486,203924,1610612766,1626179,1628970,1630163,202330,203469,0022000568,1,400,402,0,0,1610612765
25,1610612765,1628372,1630180,201961,203486,203924,1610612766,1626179,1628970,1630163,202330,203469,0022000568,1,406,416,0,2,1610612766
26,1610612765,1628372,1630180,201961,203486,203924,1610612766,1626179,1628970,1630163,202330,203469,0022000568,1,434,434,0,0,1610612765
27,1610612765,1628372,1630180,201961,203486,203924,1610612766,1626179,1628970,1630163,202330,203469,0022000568,1,440,440,0,2,1610612766
28,1610612765,1628372,1630180,201961,203486,203924,1610612766,1626179,1628970,1630163,202330,203469,0022000568,1,457,461,0,0,1610612765
29,1610612765,1628372,1630180,201961,203486,203924,1610612766,1626179,1628970,1630163,202330,203469,0022000568,1,466,468,0,0,1610612766
30,1610612765,1628372,1630180,201961,203486,203924,1610612766,1626179,1628970,1630163,202330,203469,0022000568,1,475,475,0,0,1610612765
31,1610612765,1628372,1630180,201961,203486,203924,1610612766,1626179,1628970,1630163,202330,203469,0022000568,1,481,484,0,0,1610612766
32,1610612765,1628372,1630180,201961,203486,203924,1610612766,1626179,1628970,1630163,202330,203469,0022000568,1,489,489,2,0,1610612765
33,1610612765,1628372,1630180,201961,203486,203924,1610612766,1626179,1628970,1630163,202330,203469,0022000568,1,489,502,0,2,1610612766
34,1610612765,1628367,1628372,1630191,201961,203924,1610612766,1628370,1628970,1628984,1629023,202330,0022000568,1,521,524,0,0,1610612765
35,1610612765,1628367,1628372,1630191,201961,203924,1610612766,1628370,1628970,1628984,1629023,202330,0022000568,1,533,547,0,2,1610612766
36,1610612765,1628367,1628372,1630191,201961,203924,1610612766,1628370,1628970,1628984,1628998,1629023,0022000568,1,569,569,2,0,1610612765
37,1610612765,1628367,1628372,1630191,201961,203924,1610612766,1628370,1628970,1628984,1628998,1629023,0022000568,1,573,582,0,3,1610612766
38,1610612765,1628367,1628372,1630191,201961,203924,1610612766,1628370,1628970,1628984,1628998,1629023,0022000568,1,607,611,2,0,1610612765
39,1610612765,1628367,1628372,1630191,201961,203924,1610612766,1628370,1628970,1628984,1628998,1629023,0022000568,1,614,616,0,0,1610612766
40,1610612765,1628367,1628372,1630191,201961,203924,1610612766,1628370,1628970,1628984,1628998,1629023,0022000568,1,631,643,0,0,1610612765
41,1610612765,1628367,1628372,1630191,201961,203924,1610612766,1628370,1628970,1628984,1628998,1629023,0022000568,1,653,653,0,2,1610612766
42,1610612765,1628367,1628372,1630191,201961,203924,1610612766,1628370,1628970,1628984,1628998,1629023,0022000568,1,671,671,2,0,1610612765
43,1610612765,1628367,1628372,1630191,201961,203924,1610612766,1628370,1628970,1628984,1628998,1629023,0022000568,1,677,679,0,0,1610612766
44,1610612765,1628367,1628372,1630191,201961,203924,1610612766,1628370,1628970,1628984,1628998,1629023,0022000568,1,684,690,2,0,1610612765
45,1610612765,1628367,1628372,1630191,201961,203924,1610612766,1628370,1628970,1628984,1628998,1629023,0022000568,1,712,715,0,0,1610612766
46,1610612765,1628367,1628372,1630191,201961,203924,1610612766,1628370,1628970,1628984,1628998,1629023,0022000568,1,720,720,0,0,1610612765
47,1610612765,1628372,201961,1628367,1630191,1629635,1610612766,1629023,1628370,1628984,1628998,202687,0022000568,2,720,730,0,0,1610612766
48,1610612765,1628372,201961,1628367,1630191,1629635,1610612766,1629023,1628370,1628984,1628998,202687,0022000568,2,733,751,0,0,1610612765
49,1610612765,1628372,201961,1628367,1630191,1629635,1610612766,1629023,1628370,1628984,1628998,202687,0022000568,2,758,765,0,2,1610612766
50,1610612765,1628372,201961,1628367,1630191,1629635,1610612766,1629023,1628370,1628984,1628998,202687,0022000568,2,777,778,0,0,1610612765
51,1610612765,1628372,201961,1628367,1630191,1629635,1610612766,1629023,1628370,1628984,1628998,202687,0022000568,2,778,796,0,0,1610612766
52,1610612765,1628372,201961,1628367,1630191,1629635,1610612766,1629023,1628370,1628984,1628998,202687,0022000568,2,810,810,0,0,1610612765
53,1610612765,1628372,201961,1628367,1630191,1629635,1610612766,1629023,1628370,1628984,1628998,202687,0022000568,2,828,828,0,2,1610612766
54,1610612765,1628372,201961,1628367,1630191,1629635,1610612766,1629023,1628370,1628984,1628998,202687,0022000568,2,845,845,3,0,1610612765
55,1610612765,1628372,201961,1628367,1630191,1629635,1610612766,1629023,1628370,1628984,1628998,202687,0022000568,2,862,862,0,3,1610612766
56,1610612765,1628372,201961,1628367,1630191,1629635,1610612766,1629023,1628370,1628984,1628998,202687,0022000568,2,871,880,2,0,1610612765
57,1610612765,1626153,1628367,1629635,1630191,201961,1610612766,1626179,1628998,1629023,1630163,202687,0022000568,2,899,899,0,2,1610612766
58,1610612765,1626153,1628367,1629635,1630191,201961,1610612766,1626179,1628998,1629023,1630163,202687,0022000568,2,910,912,0,0,1610612765
59,1610612765,1626153,1628367,1629635,1630191,201961,1610612766,1626179,1628998,1629023,1630163,202687,0022000568,2,922,922,0,0,1610612766
60,1610612765,1626153,1628367,1629635,1630191,201961,1610612766,1626179,1628998,1629023,1630163,202687,0022000568,2,922,937,0,0,1610612765
61,1610612765,1626153,1629004,1629635,1630180,1630191,1610612766,1626179,1629023,1630163,202330,202687,0022000568,2,946,952,0,0,1610612766
62,1610612765,1626153,1629004,1629635,1630180,1630191,1610612766,1626179,1629023,1630163,202330,202687,0022000568,2,967,970,0,0,1610612765
63,1610612765,1626153,1629004,1629635,1630180,1630191,1610612766,1626179,1629023,1630163,202330,202687,0022000568,2,978,980,0,0,1610612766
64,1610612765,1626153,1629004,1629635,1630180,1630191,1610612766,1626179,1629023,1630163,202330,202687,0022000568,2,983,983,0,0,1610612765
65,1610612765,1626153,1629004,1629635,1630180,1630191,1610612766,1626179,1629023,1630163,202330,202687,0022000568,2,985,985,0,0,1610612766
66,1610612765,1626153,1629004,1629635,1630180,1630191,1610612766,1626179,1628970,1630163,202330,202687,0022000568,2,1006,1008,0,0,1610612765
67,1610612765,1626153,1629004,1629635,1630180,1630191,1610612766,1626179,1628970,1630163,202330,202687,0022000568,2,1011,1011,0,0,1610612766
68,1610612765,1626153,1629004,1629635,1630180,203486,1610612766,1626179,1628970,1630163,202330,202687,0022000568,2,1035,1035,0,0,1610612765
69,1610612765,1626153,1629004,1629635,1630180,203486,1610612766,1626179,1628970,1630163,202330,202687,0022000568,2,1042,1046,0,0,1610612766
70,1610612765,1626153,1629004,1629635,1630180,203486,1610612766,1626179,1628970,1630163,202330,202687,0022000568,2,1048,1052,0,0,1610612765
71,1610612765,1626153,1629004,1629635,1630180,203486,1610612766,1626179,1628970,1630163,202330,202687,0022000568,2,1054,1054,0,2,1610612766
72,1610612765,1626153,1629004,1630180,203486,203924,1610612766,1626179,1628970,1630163,202330,203469,0022000568,2,1073,1076,0,0,1610612765
73,1610612765,1626153,1629004,1630180,203486,203924,1610612766,1626179,1628970,1630163,202330,203469,0022000568,2,1089,1089,0,2,1610612766
74,1610612765,1626153,1629004,1630180,203486,203924,1610612766,1626179,1628970,1630163,202330,203469,0022000568,2,1104,1106,0,0,1610612765
75,1610612765,1626153,1629004,1630180,203486,203924,1610612766,1626179,1628970,1630163,202330,203469,0022000568,2,1120,1123,0,0,1610612766
76,1610612765,1626153,1629004,1630180,203486,203924,1610612766,1626179,1628970,1630163,202330,203469,0022000568,2,1127,1127,3,0,1610612765
77,1610612765,1626153,1629004,1630180,203486,203924,1610612766,1626179,1628970,1630163,202330,203469,0022000568,2,1147,1150,0,0,1610612766
78,1610612765,1626153,1629004,1630180,203486,203924,1610612766,1626179,1628970,1630163,202330,203469,0022000568,2,1160,1163,0,0,1610612765
79,1610612765,1626153,1629004,1630180,203486,203924,1610612766,1626179,1628970,1630163,202330,203469,0022000568,2,1170,1173,0,0,1610612766
80,1610612765,1626153,1629004,1630180,203486,203924,1610612766,1626179,1628970,1630163,202330,203469,0022000568,2,1187,1187,0,0,1610612765
81,1610612765,1626153,1629004,1630180,203486,203924,1610612766,1626179,1628970,1630163,202330,203469,0022000568,2,1187,1204,0,0,1610612766
82,1610612765,1629004,1630180,1630240,203486,203924,1610612766,1626179,1628970,1630163,202330,203469,0022000568,2,1218,1228,3,0,1610612765
83,1610612765,1629004,1630180,1630240,203486,203924,1610612766,1626179,1628970,1630163,202330,203469,0022000568,2,1247,1250,0,0,1610612766
84,1610612765,1629004,1630180,1630240,203486,203924,1610612766,1626179,1628970,1630163,202330,203469,0022000568,2,1261,1261,0,0,1610612765
85,1610612765,1629004,1630180,1630240,203486,203924,1610612766,1626179,1628970,1630163,202330,203469,0022000568,2,1265,1265,0,2,1610612766
86,1610612765,1629004,1630180,1630240,203486,203924,1610612766,1626179,1628970,1630163,202330,203469,0022000568,2,1288,1303,0,0,1610612765
87,1610612765,1629004,1630180,1630240,203486,203924,1610612766,1626179,1628970,1630163,202330,203469,0022000568,2,1317,1321,0,0,1610612766
88,1610612765,1629004,1630180,1630240,203486,203924,1610612766,1626179,1628970,1630163,202330,203469,0022000568,2,1331,1331,3,0,1610612765
89,1610612765,1629004,1630180,1630240,203486,203924,1610612766,1626179,1628970,1630163,202330,203469,0022000568,2,1344,1344,0,0,1610612766
90,1610612765,1629004,1630180,1630240,203486,203924,1610612766,1626179,1628970,1630163,202330,203469,0022000568,2,1348,1348,3,0,1610612765
91,1610612765,1629004,1630180,1630240,203486,203924,1610612766,1626179,1628970,1630163,202330,203469,0022000568,2,1368,1390,0,3,1610612766
92,1610612765,1629004,1630180,1630240,203486,203924,1610612766,1626179,1628984,1629023,202330,202687,0022000568,2,1410,1414,0,0,1610612765
93,1610612765,1629004,1630180,1630240,203486,203924,1610612766,1626179,1628370,1628984,1629023,202330,0022000568,2,1436,1438,0,0,1610612766
94,1610612765,203924,1630180,203486,1629004,1626153,1610612766,202330,1629023,203469,1626179,1630163,0022000568,3,1440,1456,0,0,1610612766
95,1610612765,203924,1630180,203486,1629004,1626153,1610612766,202330,1629023,203469,1626179,1630163,0022000568,3,1468,1471,0,0,1610612765
96,1610612765,203924,1630180,203486,1629004,1626153,1610612766,202330,1629023,203469,1626179,1630163,0022000568,3,1478,1484,0,2,1610612766
97,1610612765,203924,1630180,203486,1629004,1626153,1610612766,202330,1629023,203469,1626179,1630163,0022000568,3,1497,1497,2,0,1610612765
98,1610612765,203924,1630180,203486,1629004,1626153,1610612766,202330,1629023,203469,1626179,1630163,0022000568,3,1512,1512,0,3,1610612766
99,1610612765,203924,1630180,203486,1629004,1626153,1610612766,202330,1629023,203469,1626179,1630163,0022000568,3,1528,1528,2,0,1610612765
100,1610612765,203924,1630180,203486,1629004,1626153,1610612766,202330,1629023,203469,1626179,1630163,0022000568,3,1536,1536,0,3,1610612766
101,1610612765,203924,1630180,203486,1629004,1626153,1610612766,202330,1629023,203469,1626179,1630163,0022000568,3,1553,1553,1,0,1610612765
102,1610612765,1626153,1629004,1630180,1630191,203924,1610612766,202330,1629023,203469,1626179,1630163,0022000568,3,1566,1571,0,0,1610612766
103,1610612765,1626153,1629004,1630180,1630191,203924,1610612766,202330,1629023,203469,1626179,1630163,0022000568,3,1581,1581,3,0,1610612765
104,1610612765,1626153,1629004,1630180,1630191,203924,1610612766,202330,1629023,203469,1626179,1630163,0022000568,3,1599,1601,0,0,1610612766
105,1610612765,1626153,1629004,1630180,1630191,203924,1610612766,202330,1629023,203469,1626179,1630163,0022000568,3,1607,1607,3,0,1610612765
106,1610612765,1626153,1629004,1630180,1630191,203924,1610612766,202330,1629023,203469,1626179,1630163,0022000568,3,1607,1615,0,2,1610612766
107,1610612765,1626153,1629004,1630180,1630191,203924,1610612766,202330,1629023,203469,1626179,1630163,0022000568,3,1637,1642,0,0,1610612765
108,1610612765,1626153,1629004,1630180,1630191,203924,1610612766,202330,1629023,203469,1626179,1630163,0022000568,3,1657,1661,0,0,1610612766
109,1610612765,1626153,1629004,1630180,1630191,203924,1610612766,202330,1629023,203469,1626179,1630163,0022000568,3,1672,1672,2,0,1610612765
110,1610612765,1626153,1629004,1630180,1630191,203924,1610612766,202330,1629023,203469,1626179,1630163,0022000568,3,1679,1679,0,0,1610612766
111,1610612765,1626153,1629004,1630180,1630191,203924,1610612766,202330,1629023,203469,1626179,1630163,0022000568,3,1685,1685,2,0,1610612765
112,1610612765,1626153,1629004,1630180,1630191,203924,1610612766,202330,1629023,203469,1626179,1630163,0022000568,3,1700,1702,0,0,1610612766
113,1610612765,1626153,1629004,1630180,1630191,203924,1610612766,1626179,1629023,1630163,202330,202687,0022000568,3,1717,1720,0,0,1610612765
114,1610612765,1626153,1629004,1630180,1630191,203924,1610612766,1626179,1629023,1630163,202330,202687,0022000568,3,1721,1724,0,0,1610612766
115,1610612765,1626153,1629004,1630180,1630191,203924,1610612766,1626179,1629023,1630163,202330,202687,0022000568,3,1728,1728,2,0,1610612765
116,1610612765,1626153,1629004,1630180,1630191,203924,1610612766,1626179,1629023,1630163,202330,202687,0022000568,3,1741,1741,0,2,1610612766
117,1610612765,1626153,1629004,1630180,1630191,203924,1610612766,1626179,1629023,1630163,202330,202687,0022000568,3,1754,1756,0,0,1610612765
118,1610612765,1626153,1629004,1630180,1630191,203924,1610612766,1626179,1629023,1630163,202330,202687,0022000568,3,1759,1763,0,0,1610612766
119,1610612765,1626153,1629004,1630180,1630191,203924,1610612766,1626179,1629023,1630163,202330,202687,0022000568,3,1771,1771,2,0,1610612765
120,1610612765,1626153,1629004,1630180,1630191,203924,1610612766,1626179,1629023,1630163,202330,202687,0022000568,3,1783,1783,0,2,1610612766
121,1610612765,1626153,1629004,1630180,1630191,203924,1610612766,1626179,1629023,1630163,202330,202687,0022000568,3,1794,1810,2,0,1610612765
122,1610612765,1628372,1630180,1630191,201961,203924,1610612766,1626179,1628970,1628984,202330,202687,0022000568,3,1822,1822,0,2,1610612766
123,1610612765,1628372,1630180,1630191,201961,203924,1610612766,1626179,1628970,1628984,202330,202687,0022000568,3,1840,1842,0,0,1610612765
124,1610612765,1628372,1630180,1630191,201961,203924,1610612766,1626179,1628970,1628984,202330,202687,0022000568,3,1856,1856,0,0,1610612766
125,1610612765,1628372,1630180,1630191,201961,203924,1610612766,1626179,1628970,1628984,202330,202687,0022000568,3,1862,1862,0,0,1610612765
126,1610612765,1628367,1628372,1630191,201961,203924,1610612766,1626179,1628970,1628984,202330,202687,0022000568,3,1879,1882,0,0,1610612766
127,1610612765,1628367,1628372,1630191,201961,203924,1610612766,1626179,1628970,1628984,202330,202687,0022000568,3,1902,1902,3,0,1610612765
128,1610612765,1628367,1628372,1630191,201961,203924,1610612766,1626179,1628970,1628984,202330,202687,0022000568,3,1918,1922,0,0,1610612766
129,1610612765,1628367,1628372,1630191,201961,203924,1610612766,1626179,1628970,1628984,202330,202687,0022000568,3,1933,1933,2,0,1610612765
130,1610612765,1628367,1628372,1630191,201961,203924,1610612766,1626179,1628970,1628984,202330,202687,0022000568,3,1944,1944,0,2,1610612766
131,1610612765,1628367,1628372,1630191,201961,203585,1610612766,1628370,1628970,1628984,202330,202687,0022000568,3,1969,1970,0,0,1610612765
132,1610612765,1628367,1628372,1630191,201961,203585,1610612766,1628370,1628970,1628984,202330,202687,0022000568,3,1981,1985,0,0,1610612766
133,1610612765,1628367,1628372,1630191,201961,203585,1610612766,1628370,1628970,1628984,202330,202687,0022000568,3,1991,1991,2,0,1610612765
134,1610612765,1628367,1628372,1630191,201961,203585,1610612766,1628370,1628970,1628984,202330,202687,0022000568,3,2012,2012,0,3,1610612766
135,1610612765,1628367,1628372,1630191,201961,203585,1610612766,1628370,1628970,1628984,202330,202687,0022000568,3,2036,2038,0,0,1610612765
136,1610612765,1628367,1628372,1630191,201961,203585,1610612766,1628370,1628970,1628984,202330,202687,0022000568,3,2044,2044,0,2,1610612766
137,1610612765,1628367,1628372,1630191,201961,203585,1610612766,1628370,1628970,1628984,202330,202687,0022000568,3,2044,2064,2,0,1610612765
138,1610612765,1628367,1628372,201961,203486,203585,1610612766,1628370,1628970,1628984,202330,202687,0022000568,3,2079,2081,0,0,1610612766
139,1610612765,1628367,1628372,201961,203486,203585,1610612766,1628370,1628970,1628984,202330,202687,0022000568,3,2085,2090,0,0,1610612765
140,1610612765,1628367,1628372,201961,203486,203585,1610612766,1628370,1628970,1628984,202330,202687,0022000568,3,2099,2101,0,0,1610612766
141,1610612765,1628367,1628372,201961,203486,203585,1610612766,1628370,1628970,1628984,202330,202687,0022000568,3,2120,2120,3,0,1610612765
142,1610612765,1628367,1628372,201961,203486,203585,1610612766,1628370,1628970,1628984,202330,202687,0022000568,3,2134,2137,0,0,1610612766
143,1610612765,1628367,1628372,201961,203486,203585,1610612766,1628370,1628970,1628984,202330,202687,0022000568,3,2140,2143,0,0,1610612765
144,1610612765,1628367,1628372,201961,203486,203585,1610612766,1628370,1628970,1628984,202330,202687,0022000568,3,2156,2160,0,2,1610612766
145,1610612765,203486,1628372,201961,1628367,203585,1610612766,1629023,1630163,1628970,1628370,1628998,0022000568,4,2160,2176,2,0,1610612765
146,1610612765,203486,1628372,201961,1628367,203585,1610612766,1629023,1630163,1628970,1628370,1628998,0022000568,4,2186,2194,0,2,1610612766
147,1610612765,203486,1628372,201961,1628367,203585,1610612766,1629023,1630163,1628970,1628370,1628998,0022000568,4,2213,2216,0,0,1610612765
148,1610612765,203486,1628372,201961,1628367,203585,1610612766,1629023,1630163,1628970,1628370,1628998,0022000568,4,2224,2227,0,0,1610612766
149,1610612765,203486,1628372,201961,1628367,203585,1610612766,1629023,1630163,1628970,1628370,1628998,0022000568,4,2239,2239,0,0,1610612765
150,1610612765,203486,1628372,201961,1628367,203585,1610612766,1629023,1630163,1628970,1628370,1628998,0022000568,4,2255,2255,0,3,1610612766
151,1610612765,203486,1628372,201961,1628367,203585,1610612766,1629023,1630163,1628970,1628370,1628998,0022000568,4,2276,2278,0,0,1610612765
152,1610612765,203486,1628372,201961,1628367,203585,1610612766,1629023,1630163,1628970,1628370,1628998,0022000568,4,2282,2285,0,0,1610612766
153,1610612765,203486,1628372,201961,1628367,203585,1610612766,1629023,1630163,1628970,1628370,1628998,0022000568,4,2305,2305,3,0,1610612765
154,1610612765,203486,1628372,201961,1628367,203585,1610612766,1629023,1630163,1628970,1628370,1628998,0022000568,4,2316,2318,0,0,1610612766
155,1610612765,203486,1628372,201961,1628367,203585,1610612766,1629023,1630163,1628970,1628370,1628998,0022000568,4,2336,2336,2,0,1610612765
156,1610612765,203486,1628372,201961,1628367,203585,1610612766,1629023,1630163,1628970,1628370,1628998,0022000568,4,2349,2353,0,0,1610612766
157,1610612765,203486,1628372,201961,1628367,203585,1610612766,1629023,1630163,1628970,1628370,1628998,0022000568,4,2366,2366,2,0,1610612765
158,1610612765,203486,1628372,201961,1628367,203585,1610612766,1629023,1630163,1628970,1628370,1628998,0022000568,4,2366,2379,0,2,1610612766
159,1610612765,203486,1628372,201961,1628367,203585,1610612766,1628370,1628984,1629023,202330,203469,0022000568,4,2397,2397,3,0,1610612765
160,1610612765,203486,1628372,201961,1628367,203585,1610612766,1628370,1628984,1629023,202330,203469,0022000568,4,2425,2425,0,2,1610612766
161,1610612765,203486,1628372,201961,1628367,203585,1610612766,1628370,1628984,1629023,202330,203469,0022000568,4,2448,2451,0,0,1610612765
162,1610612765,203486,1628372,201961,1628367,203585,1610612766,1628370,1628984,1629023,202330,203469,0022000568,4,2459,2459,0,2,1610612766
163,1610612765,203486,1628372,201961,1628367,203585,1610612766,1628370,1628984,1629023,202330,203469,0022000568,4,2459,2481,0,0,1610612765
164,1610612765,1628367,1628372,1629004,1630191,203924,1610612766,1628370,1628984,1629023,202330,203469,0022000568,4,2493,2519,0,0,1610612766
165,1610612765,1628367,1628372,1629004,1630191,203924,1610612766,1628370,1628984,1629023,202330,203469,0022000568,4,2529,2529,3,0,1610612765
166,1610612765,1628367,1628372,1629004,1630191,203924,1610612766,1628370,1628984,1629023,202330,203469,0022000568,4,2549,2552,0,0,1610612766
167,1610612765,1628367,1628372,1629004,1630191,203924,1610612766,1628370,1628984,1629023,202330,203469,0022000568,4,2569,2571,0,0,1610612765
168,1610612765,1628367,1628372,1629004,1630191,203924,1610612766,1628370,1628984,1629023,202330,203469,0022000568,4,2579,2579,0,0,1610612766
169,1610612765,1628367,1628372,1629004,1630191,203924,1610612766,1628370,1628984,1629023,202330,203469,0022000568,4,2579,2597,0,0,1610612765
170,1610612765,1626153,1628367,1629004,1630191,203924,1610612766,1626179,1628984,1629023,202330,203469,0022000568,4,2599,2599,0,2,1610612766
171,1610612765,1626153,1628367,1629004,1630191,203924,1610612766,1626179,1628984,1629023,202330,203469,0022000568,4,2616,2616,0,0,1610612765
172,1610612765,1626153,1628367,1629004,1630191,203924,1610612766,1626179,1628984,1629023,202330,203469,0022000568,4,2619,2619,0,2,1610612766
173,1610612765,1626153,1629004,1630180,1630191,203924,1610612766,1626179,1628984,1629023,202330,203469,0022000568,4,2638,2644,3,0,1610612765
174,1610612765,1626153,1629004,1630180,1630191,203924,1610612766,1626179,1628984,1629023,202330,203469,0022000568,4,2659,2662,0,2,1610612766
175,1610612765,1626153,1629004,1630180,1630191,203924,1610612766,1626179,1628984,1629023,202330,203469,0022000568,4,2676,2676,3,0,1610612765
176,1610612765,1626153,1629004,1630180,1630191,203924,1610612766,1626179,1628984,1629023,202330,203469,0022000568,4,2676,2689,0,4,1610612766
177,1610612765,1626153,1629004,1630180,1630191,203924,1610612766,1626179,1629023,1630163,202330,203469,0022000568,4,2706,2706,3,0,1610612765
178,1610612765,1626153,1629004,1630180,1630191,203924,1610612766,1626179,1629023,1630163,202330,203469,0022000568,4,2731,2738,0,3,1610612766
179,1610612765,1626153,1629004,1630180,1630191,203924,1610612766,1626179,1629023,1630163,202330,203469,0022000568,4,2755,2755,0,0,1610612765
180,1610612765,1626153,1629004,1630180,1630191,203924,1610612766,1626179,1629023,1630163,202330,203469,0022000568,4,2769,2771,0,0,1610612766
181,1610612765,1626153,1629004,1630180,1630191,203924,1610612766,1626179,1629023,1630163,202330,203469,0022000568,4,2793,2793,0,0,1610612765
182,1610612765,1626153,1629004,1630180,1630191,203924,1610612766,1626179,1629023,1630163,202330,203469,0022000568,4,2806,2806,0,3,1610612766
183,1610612765,1626153,1629004,1630180,203486,203924,1610612766,1626179,1628998,1629023,202330,202687,0022000568,4,2815,2815,2,0,1610612765
184,1610612765,1626153,1630180,203486,203585,203924,1610612766,1626179,1629023,1630163,202330,203469,0022000568,4,2826,2826,0,3,1610612766
185,1610612765,1626153,1630180,203486,203585,203924,1610612766,1626179,1629023,1630163,202330,203469,0022000568,4,2847,2847,2,0,1610612765
186,1610612765,1626153,1630180,203486,203585,203924,1610612766,1626179,1629023,1630163,202330,203469,0022000568,4,2871,2871,0,2,1610612766
187,1610612765,1626153,1630180,203486,203585,203924,1610612766,1626179,1629023,1630163,202330,203469,0022000568,4,2871,2879,2,0,1610612765
188,1610612765,1626153,1630180,201961,203486,203924,1610612766,1626179,1629023,202330,202687,203469,0022000568,4,2879,2879,0,0,1610612766
