,TEAM_ID_1,TEAM_1_PLAYERS,TEAM_ID_2,TEAM_2_PLAYERS,PERIOD
0,1610612758,[ 203084 1629002  202684 1627741 1630169],1610612744,[1630228  203110 1626172 1627814  201939],1
1,1610612758,[ 203084 1629002 1630169 1627745  203090],1610612744,[1627814  203490    2738  202357 1629185],2
2,1610612758,[ 203084 1629002  202684 1627741 1630169],1610612744,[ 203110 1626172 1627814  201939 1629308],3
3,1610612758,[ 203084 1630169 1627745  203090 1630186],1610612744,[ 201939 1627780  203490    2738  202357],4
