,team1_id,team1_player1,team1_player2,team1_player3,team1_player4,team1_player5,team2_id,team2_player1,team2_player2,team2_player3,team2_player4,team2_player5,game_id,period,possession_start,possession_end,team1_points,team2_points,possession_team
0,1610612752,1629628,203944,1629011,203095,202689,1610612740,1628404,1630529,202685,1629638,1628984,0022100080,1,0,16,3,0,1610612752
1,1610612752,1629628,203944,1629011,203095,202689,1610612740,1628404,1630529,202685,1629638,1628984,0022100080,1,40,40,0,1,1610612740
2,1610612752,1629628,203944,1629011,203095,202689,1610612740,1628404,1630529,202685,1629638,1628984,0022100080,1,57,57,3,0,1610612752
3,1610612752,1629628,203944,1629011,203095,202689,1610612740,1628404,1630529,202685,1629638,1628984,0022100080,1,67,67,0,2,1610612740
4,1610612752,1629628,203944,1629011,203095,202689,1610612740,1628404,1630529,202685,1629638,1628984,0022100080,1,76,76,2,0,1610612752
5,1610612752,1629628,203944,1629011,203095,202689,1610612740,1628404,1630529,202685,1629638,1628984,0022100080,1,95,100,0,0,1610612740
6,1610612752,1629628,203944,1629011,203095,202689,1610612740,1628404,1630529,202685,1629638,1628984,0022100080,1,109,109,3,0,1610612752
7,1610612752,1629628,203944,1629011,203095,202689,1610612740,1628404,1630529,202685,1629638,1628984,0022100080,1,130,130,0,0,1610612740
8,1610612752,1629628,203944,1629011,203095,202689,1610612740,1628404,1630529,202685,1629638,1628984,0022100080,1,130,154,3,0,1610612752
9,1610612752,1629628,203944,1629011,203095,202689,1610612740,1628404,1630529,202685,1629638,1628984,0022100080,1,163,164,0,0,1610612740
10,1610612752,1629628,203944,1629011,203095,202689,1610612740,1628404,1630529,202685,1629638,1628984,0022100080,1,176,178,0,0,1610612752
11,1610612752,1629628,203944,1629011,203095,202689,1610612740,1628404,1630529,202685,1629638,1628984,0022100080,1,193,193,0,0,1610612740
12,1610612752,1629628,203944,1629011,203095,202689,1610612740,1628404,1630529,202685,1629638,1628984,0022100080,1,199,202,0,0,1610612752
13,1610612752,1629628,203944,1629011,203095,202689,1610612740,1628404,1630529,202685,1629638,1628984,0022100080,1,205,205,0,2,1610612740
14,1610612752,1629628,203944,1629011,203095,202689,1610612740,1628404,1630529,202685,1629638,1628984,0022100080,1,217,221,0,0,1610612752
15,1610612752,1629628,203944,1629011,203095,202689,1610612740,1628404,1630529,202685,1629638,1628984,0022100080,1,230,230,0,2,1610612740
16,1610612752,1629628,203944,1629011,203095,202689,1610612740,1628404,1630529,202685,1629638,1628984,0022100080,1,247,247,2,0,1610612752
17,1610612752,1629628,203944,1629011,203095,202689,1610612740,1628404,1630529,202685,1629638,1628984,0022100080,1,257,257,0,2,1610612740
18,1610612752,1629628,203944,1629011,203095,202689,1610612740,1628404,1630529,202685,1629638,1628984,0022100080,1,274,274,0,0,1610612752
19,1610612752,1629628,203944,1629011,203095,202689,1610612740,1628404,1630529,202685,1629638,1628984,0022100080,1,299,299,0,2,1610612740
20,1610612752,1629628,203944,1629011,203095,202689,1610612740,1628404,1630529,202685,1629638,1628984,0022100080,1,313,313,2,0,1610612752
21,1610612752,1629628,203944,1629011,203095,202689,1610612740,1628404,1630529,202685,1629638,1628984,0022100080,1,334,337,0,0,1610612740
22,1610612752,1629628,203944,1629011,203095,202689,1610612740,1628404,1630529,202685,1629638,1628984,0022100080,1,342,342,3,0,1610612752
23,1610612752,1629628,203944,1629011,203095,202689,1610612740,1628404,1630529,202685,1629638,1628984,0022100080,1,344,359,0,0,1610612740
24,1610612752,1629628,203944,1629011,203095,202689,1610612740,1628404,1629638,1630529,202685,203107,0022100080,1,367,374,2,0,1610612752
25,1610612752,1629628,203944,1629011,203095,202689,1610612740,1628404,1629638,1630529,202685,203107,0022100080,1,390,390,0,2,1610612740
26,1610612752,1629628,203944,1629011,203095,202689,1610612740,1628404,1629638,1630529,202685,203107,0022100080,1,406,409,0,0,1610612752
27,1610612752,1629628,203944,1629011,203095,202689,1610612740,1628404,1629638,1630529,202685,203107,0022100080,1,416,416,0,3,1610612740
28,1610612752,1629628,203944,1629011,203095,202689,1610612740,1628404,1629638,1630529,202685,203107,0022100080,1,435,437,0,0,1610612752
29,1610612752,1629628,203944,1629011,203095,202689,1610612740,1628404,1629638,1630529,202685,203107,0022100080,1,442,445,0,0,1610612740
30,1610612752,1629628,203944,1629011,203095,202689,1610612740,1628404,1629638,1630529,202685,203107,0022100080,1,451,451,2,0,1610612752
31,1610612752,1629628,201565,201959,203095,203944,1610612740,1630184,1630529,1630530,202685,203107,0022100080,1,471,475,0,0,1610612740
32,1610612752,1629628,201565,201959,203095,203944,1610612740,1630184,1630529,1630530,202685,203107,0022100080,1,479,479,0,0,1610612752
33,1610612752,1629628,201565,201959,203095,203944,1610612740,1630184,1630529,1630530,202685,203107,0022100080,1,480,499,0,2,1610612740
34,1610612752,1629628,201565,201959,203095,203944,1610612740,1630184,1630529,1630530,202685,203107,0022100080,1,519,519,2,0,1610612752
35,1610612752,1629628,201565,201959,203095,203944,1610612740,1630184,1630529,1630530,202685,203107,0022100080,1,533,535,0,0,1610612740
36,1610612752,1629628,201565,201959,203095,203944,1610612740,1630184,1630529,1630530,202685,203107,0022100080,1,541,548,2,0,1610612752
37,1610612752,1629628,201565,201959,203095,203944,1610612740,1630184,1630529,1630530,202685,203107,0022100080,1,558,558,0,2,1610612740
38,1610612752,1629628,201565,201959,203095,203944,1610612740,1630184,1630529,1630530,202685,203107,0022100080,1,571,574,2,0,1610612752
39,1610612752,201565,201959,202692,203095,203944,1610612740,1629637,1630184,1630529,1630530,203107,0022100080,1,584,584,0,0,1610612740
40,1610612752,201565,201959,202692,203095,203944,1610612740,1629637,1630184,1630529,1630530,203107,0022100080,1,599,602,0,0,1610612752
41,1610612752,201565,201959,202692,203095,203944,1610612740,1629637,1630184,1630529,1630530,203107,0022100080,1,609,609,0,2,1610612740
42,1610612752,201565,201959,202692,203095,203944,1610612740,1629637,1630184,1630529,1630530,203107,0022100080,1,625,625,3,0,1610612752
43,1610612752,201565,201959,202692,203095,203944,1610612740,1629637,1630184,1630529,1630530,203107,0022100080,1,640,642,0,0,1610612740
44,1610612752,201565,201959,202692,203095,203944,1610612740,1629637,1630184,1630529,1630530,203107,0022100080,1,647,651,0,0,1610612752
45,1610612752,201565,201959,202692,203095,203944,1610612740,1629637,1630184,1630529,1630530,203107,0022100080,1,663,663,0,3,1610612740
46,1610612752,201565,201959,202692,203095,203944,1610612740,1629637,1630184,1630529,1630530,203107,0022100080,1,673,673,0,0,1610612752
47,1610612752,1630167,1630193,201565,201959,202692,1610612740,1629637,1630184,1630529,1630530,203107,0022100080,1,693,695,0,0,1610612740
48,1610612752,1630167,1630193,201565,201959,202692,1610612740,1629637,1630184,1630529,1630530,203107,0022100080,1,714,717,0,0,1610612752
49,1610612752,1630167,1630193,201565,201959,202692,1610612740,1629637,1630184,1630529,1630530,203107,0022100080,1,718,718,0,3,1610612740
50,1610612752,1630167,1630193,201565,201959,202692,1610612740,1629637,1630184,1630529,1630530,203107,0022100080,1,720,720,0,0,1610612740
51,1610612752,201565,201959,202692,1630193,1630167,1610612740,203107,1630530,1630184,1629637,1630230,0022100080,2,720,732,0,0,1610612740
52,1610612752,201565,201959,202692,1630193,1630167,1610612740,203107,1630530,1630184,1629637,1630230,0022100080,2,747,747,2,0,1610612752
53,1610612752,201565,201959,202692,1630193,1630167,1610612740,203107,1630530,1630184,1629637,1630230,0022100080,2,761,763,0,0,1610612740
54,1610612752,201565,201959,202692,1630193,1630167,1610612740,203107,1630530,1630184,1629637,1630230,0022100080,2,774,774,2,0,1610612752
55,1610612752,201565,201959,202692,1630193,1630167,1610612740,203107,1630530,1630184,1629637,1630230,0022100080,2,798,800,0,0,1610612740
56,1610612752,201565,201959,202692,1630193,1630167,1610612740,203107,1630530,1630184,1629637,1630230,0022100080,2,804,810,0,0,1610612752
57,1610612752,201565,201959,202692,1630193,1630167,1610612740,203107,1630530,1630184,1629637,1630230,0022100080,2,812,816,0,0,1610612740
58,1610612752,201565,201959,202692,1630193,1630167,1610612740,203107,1630530,1630184,1629637,1630230,0022100080,2,822,824,3,0,1610612752
59,1610612752,201565,201959,202692,1630193,1630167,1610612740,1628984,1629637,1630184,1630230,1630530,0022100080,2,835,839,0,0,1610612740
60,1610612752,201565,201959,202692,1630193,1630167,1610612740,1628984,1629637,1630184,1630230,1630530,0022100080,2,843,847,0,0,1610612752
61,1610612752,201565,201959,202692,1630193,1630167,1610612740,1628984,1629637,1630184,1630230,1630530,0022100080,2,861,867,0,0,1610612740
62,1610612752,201565,201959,202692,1630193,1630167,1610612740,1628984,1629637,1630184,1630230,1630530,0022100080,2,884,889,0,0,1610612752
63,1610612752,201565,201959,202692,1630193,1630167,1610612740,1628984,1629637,1630184,1630230,1630530,0022100080,2,912,921,0,0,1610612740
64,1610612752,201565,201959,202692,1630193,1630167,1610612740,1628984,1629637,1630184,1630230,1630530,0022100080,2,922,922,1,0,1610612752
65,1610612752,201565,201959,202692,1630193,1630167,1610612740,1628984,1629637,1629638,1630230,1630530,0022100080,2,926,938,0,0,1610612740
66,1610612752,201565,201959,202692,1630193,1630167,1610612740,1628984,1629637,1629638,1630230,1630530,0022100080,2,941,943,2,0,1610612752
67,1610612752,201565,201959,202692,1630193,1630167,1610612740,1628984,1629637,1629638,1630230,1630530,0022100080,2,962,962,0,2,1610612740
68,1610612752,201565,201959,202692,1630193,1630167,1610612740,1628984,1629637,1629638,1630230,1630530,0022100080,2,989,991,0,0,1610612752
69,1610612752,201565,201959,202692,1630193,1630167,1610612740,1628984,1629637,1629638,1630230,1630530,0022100080,2,994,1009,0,2,1610612740
70,1610612752,201565,201959,202692,1630193,1630167,1610612740,1628984,1629637,1629638,1630230,1630530,0022100080,2,1009,1023,0,0,1610612752
71,1610612752,1629011,1630193,202689,202692,203944,1610612740,1628404,1628984,1629637,1629638,1630230,0022100080,2,1041,1041,0,2,1610612740
72,1610612752,1629011,1630193,202689,202692,203944,1610612740,1628404,1628984,1629637,1629638,1630230,0022100080,2,1048,1052,2,0,1610612752
73,1610612752,1629011,1629628,202689,203095,203944,1610612740,1628404,1628984,1629638,1630230,202685,0022100080,2,1059,1064,0,0,1610612740
74,1610612752,1629011,1629628,202689,203095,203944,1610612740,1628404,1628984,1629638,1630230,202685,0022100080,2,1073,1073,3,0,1610612752
75,1610612752,1629011,1629628,202689,203095,203944,1610612740,1628404,1628984,1629638,1630230,202685,0022100080,2,1084,1084,0,3,1610612740
76,1610612752,1629011,1629628,202689,203095,203944,1610612740,1628404,1628984,1629638,1630230,202685,0022100080,2,1099,1099,2,0,1610612752
77,1610612752,1629011,1629628,202689,203095,203944,1610612740,1628404,1628984,1629638,1630230,202685,0022100080,2,1112,1112,0,2,1610612740
78,1610612752,1629011,1629628,202689,203095,203944,1610612740,1628404,1628984,1629638,1630230,202685,0022100080,2,1122,1122,2,0,1610612752
79,1610612752,1629011,1629628,202689,203095,203944,1610612740,1628404,1628984,1629638,1630230,202685,0022100080,2,1134,1138,0,0,1610612740
80,1610612752,1629011,1629628,202689,203095,203944,1610612740,1628404,1628984,1629638,1630230,202685,0022100080,2,1146,1146,2,0,1610612752
81,1610612752,1629011,1629628,202689,203095,203944,1610612740,1628404,1628984,1629638,1630230,202685,0022100080,2,1153,1163,0,2,1610612740
82,1610612752,1629011,1629628,202689,203095,203944,1610612740,1628404,1628984,1629638,1630529,202685,0022100080,2,1180,1182,0,0,1610612752
83,1610612752,1629011,1629628,202689,203095,203944,1610612740,1628404,1628984,1629638,1630529,202685,0022100080,2,1187,1187,0,3,1610612740
84,1610612752,1629011,1629628,202689,203095,203944,1610612740,1628404,1628984,1629638,1630529,202685,0022100080,2,1204,1204,0,0,1610612752
85,1610612752,1629011,1629628,202689,203095,203944,1610612740,1628404,1628984,1629638,1630529,202685,0022100080,2,1204,1219,0,2,1610612740
86,1610612752,1629011,1629628,202689,203095,203944,1610612740,1628404,1628984,1629638,1630529,202685,0022100080,2,1220,1241,2,0,1610612752
87,1610612752,1629011,1629628,202689,203095,203944,1610612740,1628404,1628984,1629638,1630529,202685,0022100080,2,1266,1266,0,2,1610612740
88,1610612752,1629011,1629628,202689,203095,203944,1610612740,1628404,1628984,1629638,1630529,202685,0022100080,2,1277,1277,0,0,1610612752
89,1610612752,1629011,1629628,202689,203095,203944,1610612740,1628404,1628984,1629638,1630529,202685,0022100080,2,1280,1280,0,2,1610612740
90,1610612752,1629011,1629628,202689,203095,203944,1610612740,1628404,1628984,1629638,1630529,202685,0022100080,2,1288,1297,3,0,1610612752
91,1610612752,1629011,1629628,202689,203095,203944,1610612740,1628404,1628984,1629638,1630529,202685,0022100080,2,1316,1316,0,2,1610612740
92,1610612752,1629011,1629628,202689,203095,203944,1610612740,1628404,1628984,1629638,1630529,202685,0022100080,2,1332,1336,0,0,1610612752
93,1610612752,1629011,1629628,202689,203095,203944,1610612740,1628404,1628984,1629638,1630529,202685,0022100080,2,1344,1344,0,2,1610612740
94,1610612752,1629011,1629628,202689,203095,203944,1610612740,1628404,1628984,1629638,1630529,202685,0022100080,2,1366,1366,3,0,1610612752
95,1610612752,1629011,1629628,202689,203095,203944,1610612740,1628404,1628984,1629638,1630529,202685,0022100080,2,1380,1383,0,0,1610612740
96,1610612752,1629011,1629628,202689,203095,203944,1610612740,1628404,1628984,1629638,1630529,202685,0022100080,2,1385,1385,0,0,1610612752
97,1610612752,1629011,1629628,202689,203095,203944,1610612740,1628404,1628984,1629638,1630529,202685,0022100080,2,1389,1389,0,3,1610612740
98,1610612752,1629011,1629628,202689,203095,203944,1610612740,1628404,1628984,1629638,1630529,202685,0022100080,2,1404,1406,0,0,1610612752
99,1610612752,1629011,1629628,202689,203095,203944,1610612740,1628404,1628984,1629638,1630529,202685,0022100080,2,1411,1411,0,2,1610612740
100,1610612752,1629011,1629628,202689,203095,203944,1610612740,1628404,1628984,1629638,1630529,202685,0022100080,2,1434,1437,0,0,1610612752
101,1610612752,1629011,1629628,202689,203095,203944,1610612740,1628404,1628984,1629638,1630529,202685,0022100080,2,1440,1440,0,0,1610612752
102,1610612752,1629628,203944,1629011,203095,202689,1610612740,1628404,1630529,202685,1629638,1628984,0022100080,3,1440,1462,0,0,1610612740
103,1610612752,1629628,203944,1629011,203095,202689,1610612740,1628404,1630529,202685,1629638,1628984,0022100080,3,1477,1479,0,0,1610612752
104,1610612752,1629628,203944,1629011,203095,202689,1610612740,1628404,1630529,202685,1629638,1628984,0022100080,3,1489,1493,0,0,1610612740
105,1610612752,1629628,203944,1629011,203095,202689,1610612740,1628404,1630529,202685,1629638,1628984,0022100080,3,1505,1508,0,0,1610612752
106,1610612752,1629628,203944,1629011,203095,202689,1610612740,1628404,1630529,202685,1629638,1628984,0022100080,3,1525,1525,0,0,1610612740
107,1610612752,1629628,203944,1629011,203095,202689,1610612740,1628404,1630529,202685,1629638,1628984,0022100080,3,1526,1552,0,0,1610612752
108,1610612752,1629628,203944,1629011,203095,202689,1610612740,1628404,1630529,202685,1629638,1628984,0022100080,3,1555,1559,0,0,1610612740
109,1610612752,1629628,203944,1629011,203095,202689,1610612740,1628404,1630529,202685,1629638,1628984,0022100080,3,1573,1573,3,0,1610612752
110,1610612752,1629628,203944,1629011,203095,202689,1610612740,1628404,1630529,202685,1629638,1628984,0022100080,3,1594,1605,0,3,1610612740
111,1610612752,1629628,203944,1629011,203095,202689,1610612740,1628404,1630529,202685,1629638,1628984,0022100080,3,1622,1622,2,0,1610612752
112,1610612752,1629628,203944,1629011,203095,202689,1610612740,1628404,1630529,202685,1629638,1628984,0022100080,3,1630,1630,0,3,1610612740
113,1610612752,1629628,203944,1629011,203095,202689,1610612740,1628404,1630529,202685,1629638,1628984,0022100080,3,1645,1645,2,0,1610612752
114,1610612752,1629628,203944,1629011,203095,202689,1610612740,1628404,1630529,202685,1629638,1628984,0022100080,3,1656,1656,0,2,1610612740
115,1610612752,1629628,203944,1629011,203095,202689,1610612740,1628404,1630529,202685,1629638,1628984,0022100080,3,1678,1678,3,0,1610612752
116,1610612752,1629628,203944,1629011,203095,202689,1610612740,1628404,1630529,202685,1629638,1628984,0022100080,3,1692,1694,0,0,1610612740
117,1610612752,1629628,203944,1629011,203095,202689,1610612740,1628404,1630529,202685,1629638,1628984,0022100080,3,1699,1699,0,0,1610612752
118,1610612752,1629628,203944,1629011,203095,202689,1610612740,1628404,1630529,202685,1629638,1628984,0022100080,3,1720,1731,0,0,1610612740
119,1610612752,1629628,203944,1629011,203095,202689,1610612740,1628404,1630529,202685,1629638,1628984,0022100080,3,1742,1751,2,0,1610612752
120,1610612752,1629628,203944,1629011,203095,202689,1610612740,1628404,1630529,202685,1629638,1628984,0022100080,3,1774,1777,0,0,1610612740
121,1610612752,1629628,203944,1629011,203095,202689,1610612740,1628404,1630529,202685,1629638,1628984,0022100080,3,1782,1785,0,0,1610612752
122,1610612752,1629628,203944,1629011,203095,202689,1610612740,1628404,1630529,202685,1629638,1628984,0022100080,3,1786,1786,0,0,1610612740
123,1610612752,1629628,203944,1629011,203095,202689,1610612740,1628404,1630529,202685,1629638,1628984,0022100080,3,1786,1800,2,0,1610612752
124,1610612752,1629628,201959,202689,203095,203944,1610612740,1628404,1629638,1630529,202685,203107,0022100080,3,1824,1824,0,0,1610612740
125,1610612752,1629628,201959,202689,203095,203944,1610612740,1628404,1629638,1630529,202685,203107,0022100080,3,1835,1835,3,0,1610612752
126,1610612752,1629628,201959,202689,203095,203944,1610612740,1628404,1629638,1630529,202685,203107,0022100080,3,1855,1855,0,0,1610612740
127,1610612752,1629628,201959,202689,203095,203944,1610612740,1628404,1629638,1630529,202685,203107,0022100080,3,1862,1866,0,0,1610612752
128,1610612752,1629628,201959,202689,203095,203944,1610612740,1628404,1629638,1630529,202685,203107,0022100080,3,1883,1883,0,2,1610612740
129,1610612752,1629628,201959,202689,203095,203944,1610612740,1628404,1629638,1630529,202685,203107,0022100080,3,1892,1902,0,0,1610612752
130,1610612752,1629628,201959,202689,203095,203944,1610612740,1630184,1630529,1630530,202685,203107,0022100080,3,1920,1920,0,2,1610612740
131,1610612752,1629628,201959,202689,203095,203944,1610612740,1630184,1630529,1630530,202685,203107,0022100080,3,1936,1936,3,0,1610612752
132,1610612752,1629628,201959,202689,203095,203944,1610612740,1630184,1630529,1630530,202685,203107,0022100080,3,1955,1955,0,3,1610612740
133,1610612752,1629628,201959,202689,203095,203944,1610612740,1630184,1630529,1630530,202685,203107,0022100080,3,1970,1988,0,0,1610612752
134,1610612752,1629628,201565,201959,203095,203944,1610612740,1629637,1630184,1630529,1630530,203107,0022100080,3,2003,2003,0,3,1610612740
135,1610612752,1629628,201565,201959,203095,203944,1610612740,1629637,1630184,1630529,1630530,203107,0022100080,3,2017,2030,0,0,1610612752
136,1610612752,1629628,201565,201959,203095,203944,1610612740,1629637,1630184,1630529,1630530,203107,0022100080,3,2051,2051,0,2,1610612740
137,1610612752,1629628,201565,201959,203095,203944,1610612740,1629637,1630184,1630529,1630530,203107,0022100080,3,2067,2067,2,0,1610612752
138,1610612752,1629628,201565,201959,203095,203944,1610612740,1629637,1630184,1630529,1630530,203107,0022100080,3,2090,2092,0,0,1610612740
139,1610612752,1629628,201565,201959,203095,203944,1610612740,1629637,1630184,1630529,1630530,203107,0022100080,3,2099,2099,0,0,1610612752
140,1610612752,1629628,201565,201959,203095,203944,1610612740,1629637,1630184,1630529,1630530,203107,0022100080,3,2099,2111,0,2,1610612740
141,1610612752,1630193,201565,201959,202692,203944,1610612740,1629637,1630184,1630529,1630530,203107,0022100080,3,2132,2132,2,0,1610612752
142,1610612752,1630193,201565,201959,202692,203944,1610612740,1629637,1630184,1630529,1630530,203107,0022100080,3,2153,2153,0,2,1610612740
143,1610612752,1630193,201565,201959,202692,203944,1610612740,1629637,1630184,1630529,1630530,203107,0022100080,3,2157,2157,1,0,1610612752
144,1610612752,1630193,1630540,201959,202692,203944,1610612740,1629637,1630184,1630529,1630530,203107,0022100080,3,2160,2160,0,0,1610612752
145,1610612752,201565,201959,202692,1630193,1630167,1610612740,203107,1630530,1630184,1629637,1630230,0022100080,4,2160,2191,0,0,1610612752
146,1610612752,201565,201959,202692,1630193,1630167,1610612740,203107,1630530,1630184,1629637,1630230,0022100080,4,2193,2193,0,2,1610612740
147,1610612752,201565,201959,202692,1630193,1630167,1610612740,203107,1630530,1630184,1629637,1630230,0022100080,4,2209,2209,3,0,1610612752
148,1610612752,201565,201959,202692,1630193,1630167,1610612740,203107,1630530,1630184,1629637,1630230,0022100080,4,2239,2242,0,0,1610612740
149,1610612752,201565,201959,202692,1630193,1630167,1610612740,203107,1630530,1630184,1629637,1630230,0022100080,4,2250,2250,2,0,1610612752
150,1610612752,201565,201959,202692,1630193,1630167,1610612740,203107,1630530,1630184,1629637,1630230,0022100080,4,2267,2267,0,0,1610612740
151,1610612752,201565,201959,202692,1630193,1630167,1610612740,203107,1630530,1630184,1629637,1630230,0022100080,4,2271,2281,0,0,1610612752
152,1610612752,201565,201959,202692,1630193,1630167,1610612740,1628984,1629637,1630184,1630230,1630530,0022100080,4,2292,2296,0,0,1610612740
153,1610612752,201565,201959,202692,1630193,1630167,1610612740,1628984,1629637,1630184,1630230,1630530,0022100080,4,2305,2305,1,0,1610612752
154,1610612752,201565,201959,202692,1630193,1630167,1610612740,1628984,1629637,1630184,1630230,1630530,0022100080,4,2316,2323,0,2,1610612740
155,1610612752,201565,201959,202692,1630193,1630167,1610612740,1628984,1629637,1630184,1630230,1630530,0022100080,4,2342,2345,0,0,1610612752
156,1610612752,201565,201959,202692,1630193,1630167,1610612740,1628984,1629637,1630184,1630230,1630530,0022100080,4,2349,2349,0,2,1610612740
157,1610612752,1629628,1630167,1630193,201959,202692,1610612740,1628984,1629637,1630184,1630230,1630530,0022100080,4,2366,2370,0,0,1610612752
158,1610612752,1629628,1630167,1630193,201959,202692,1610612740,1628984,1629637,1630184,1630230,1630530,0022100080,4,2380,2383,0,0,1610612740
159,1610612752,1629011,1629628,1630167,202689,203095,1610612740,1628984,1629637,1630184,1630230,1630530,0022100080,4,2388,2388,3,0,1610612752
160,1610612752,1629011,1629628,1630167,202689,203095,1610612740,1628984,1629637,1630184,1630230,1630530,0022100080,4,2405,2405,0,2,1610612740
161,1610612752,1629011,1629628,1630167,202689,203095,1610612740,1628404,1628984,1629638,1630530,202685,0022100080,4,2419,2419,0,0,1610612752
162,1610612752,1629011,1629628,1630167,202689,203095,1610612740,1628404,1628984,1629638,1630530,202685,0022100080,4,2427,2427,0,0,1610612740
163,1610612752,1629011,1629628,202689,203095,203944,1610612740,1628404,1628984,1629638,1630530,202685,0022100080,4,2434,2434,2,0,1610612752
164,1610612752,1629011,1629628,202689,203095,203944,1610612740,1628404,1628984,1629638,1630529,202685,0022100080,4,2441,2450,0,0,1610612740
165,1610612752,1629011,1629628,202689,203095,203944,1610612740,1628404,1628984,1629638,1630529,202685,0022100080,4,2456,2456,3,0,1610612752
166,1610612752,1629011,1629628,202689,203095,203944,1610612740,1628404,1628984,1629638,1630529,202685,0022100080,4,2458,2486,0,3,1610612740
167,1610612752,1629011,1629628,202689,203095,203944,1610612740,1628404,1628984,1629638,1630529,202685,0022100080,4,2502,2502,2,0,1610612752
168,1610612752,1629011,1629628,202689,203095,203944,1610612740,1628404,1628984,1629638,1630529,202685,0022100080,4,2512,2514,0,0,1610612740
169,1610612752,1629011,1629628,202689,203095,203944,1610612740,1628404,1628984,1629638,1630529,202685,0022100080,4,2539,2539,2,0,1610612752
170,1610612752,1629011,1629628,202689,203095,203944,1610612740,1628404,1628984,1629638,1630529,202685,0022100080,4,2548,2548,0,2,1610612740
171,1610612752,1629011,1629628,202689,203095,203944,1610612740,1628404,1628984,1629638,1630529,202685,0022100080,4,2571,2571,0,0,1610612752
172,1610612752,1629011,1629628,202689,203095,203944,1610612740,1628404,1628984,1629638,1630529,202685,0022100080,4,2585,2586,0,0,1610612740
173,1610612752,1629011,1629628,202689,203095,203944,1610612740,1628404,1628984,1629638,1630529,202685,0022100080,4,2594,2594,2,0,1610612752
174,1610612752,1629011,1629628,202689,203095,203944,1610612740,1628404,1628984,1629638,1630529,202685,0022100080,4,2602,2602,0,2,1610612740
175,1610612752,1629011,1629628,202689,203095,203944,1610612740,1628404,1628984,1629638,1630529,202685,0022100080,4,2619,2630,0,0,1610612752
176,1610612752,1629011,1629628,202689,203095,203944,1610612740,1628404,1628984,1629638,1630529,202685,0022100080,4,2648,2654,0,2,1610612740
177,1610612752,1629011,1629628,202689,203095,203944,1610612740,1628404,1628984,1629638,1630529,202685,0022100080,4,2666,2666,3,0,1610612752
178,1610612752,1629011,1629628,202689,203095,203944,1610612740,1628404,1628984,1629638,1630529,202685,0022100080,4,2667,2689,0,2,1610612740
179,1610612752,1629011,1629628,202689,203095,203944,1610612740,1628404,1628984,1629638,1630529,202685,0022100080,4,2709,2711,0,0,1610612752
180,1610612752,1629011,1629628,202689,203095,203944,1610612740,1628404,1628984,1629638,1630529,202685,0022100080,4,2715,2715,0,2,1610612740
181,1610612752,1629011,1629628,202689,203095,203944,1610612740,1628404,1628984,1629638,1630529,202685,0022100080,4,2715,2737,0,0,1610612752
182,1610612752,1629011,1629628,202689,203095,203944,1610612740,1628404,1628984,1629638,1630529,202685,0022100080,4,2744,2744,0,3,1610612740
183,1610612752,1629011,1629628,202689,203095,203944,1610612740,1628404,1628984,1629638,1630529,202685,0022100080,4,2761,2763,0,0,1610612752
184,1610612752,1629011,1629628,202689,203095,203944,1610612740,1628404,1628984,1629638,1630529,202685,0022100080,4,2769,2772,0,2,1610612740
185,1610612752,1629628,201959,202689,203095,203944,1610612740,1628404,1628984,1629638,1630529,202685,0022100080,4,2781,2781,3,0,1610612752
186,1610612752,1629628,201959,202689,203095,203944,1610612740,1628404,1628984,1629638,1630529,202685,0022100080,4,2792,2792,0,3,1610612740
187,1610612752,1629628,201959,202689,203095,203944,1610612740,1628404,1628984,1629638,1630529,202685,0022100080,4,2810,2810,2,0,1610612752
188,1610612752,1629628,201959,202689,203095,203944,1610612740,1628404,1628984,1629638,1630529,202685,0022100080,4,2820,2823,0,0,1610612740
189,1610612752,1629628,201959,202689,203095,203944,1610612740,1628404,1628984,1629638,1630529,202685,0022100080,4,2837,2837,3,0,1610612752
190,1610612752,1629628,201959,202689,203095,203944,1610612740,1628404,1628984,1629638,1630529,202685,0022100080,4,2837,2843,0,2,1610612740
191,1610612752,1629628,201959,202689,203095,203944,1610612740,1628404,1628984,1629638,1630230,1630529,0022100080,4,2844,2845,1,0,1610612752
192,1610612752,1629628,201959,202689,203095,203944,1610612740,1628404,1628984,1629638,1630529,202685,0022100080,4,2845,2853,0,0,1610612740
193,1610612752,1629628,201959,202689,203095,203944,1610612740,1628404,1628984,1629638,1630529,202685,0022100080,4,2853,2853,2,0,1610612752
194,1610612752,1629628,201959,202689,203095,203944,1610612740,1628404,1628984,1629638,1630529,202685,0022100080,4,2857,2857,0,3,1610612740
195,1610612752,1629628,201959,202689,203095,203944,1610612740,1628404,1628984,1629638,1630529,202685,0022100080,4,2859,2861,1,0,1610612752
196,1610612752,1629628,201959,202689,203095,203944,1610612740,1628404,1628984,1629638,1630529,202685,0022100080,4,2872,2874,0,0,1610612740
