,team1_id,team1_player1,team1_player2,team1_player3,team1_player4,team1_player5,team2_id,team2_player1,team2_player2,team2_player3,team2_player4,team2_player5,game_id,period,possession_start,possession_end,team1_points,team2_points,possession_team
0,1610612739,1626224,1629731,1628386,1630171,1629012,1610612742,203501,1627827,1626161,1626196,1629029,0022001007,1,0,17,0,0,1610612739
1,1610612739,1626224,1629731,1628386,1630171,1629012,1610612742,203501,1627827,1626161,1626196,1629029,0022001007,1,37,39,0,0,1610612742
2,1610612739,1626224,1629731,1628386,1630171,1629012,1610612742,203501,1627827,1626161,1626196,1629029,0022001007,1,45,45,2,0,1610612739
3,1610612739,1626224,1629731,1628386,1630171,1629012,1610612742,203501,1627827,1626161,1626196,1629029,0022001007,1,60,61,0,0,1610612742
4,1610612739,1626224,1629731,1628386,1630171,1629012,1610612742,203501,1627827,1626161,1626196,1629029,0022001007,1,78,78,0,0,1610612739
5,1610612739,1626224,1629731,1628386,1630171,1629012,1610612742,203501,1627827,1626161,1626196,1629029,0022001007,1,87,87,0,2,1610612742
6,1610612739,1626224,1629731,1628386,1630171,1629012,1610612742,203501,1627827,1626161,1626196,1629029,0022001007,1,110,112,0,0,1610612739
7,1610612739,1626224,1629731,1628386,1630171,1629012,1610612742,203501,1627827,1626161,1626196,1629029,0022001007,1,119,119,0,2,1610612742
8,1610612739,1626224,1629731,1628386,1630171,1629012,1610612742,203501,1627827,1626161,1626196,1629029,0022001007,1,135,137,0,0,1610612739
9,1610612739,1626224,1629731,1628386,1630171,1629012,1610612742,203501,1627827,1626161,1626196,1629029,0022001007,1,148,148,0,3,1610612742
10,1610612739,1626224,1629731,1628386,1630171,1629012,1610612742,203501,1627827,1626161,1626196,1629029,0022001007,1,160,161,2,0,1610612739
11,1610612739,1626224,1629731,1628386,1630171,1629012,1610612742,203501,1627827,1626161,1626196,1629029,0022001007,1,180,180,0,2,1610612742
12,1610612739,1626224,1629731,1628386,1630171,1629012,1610612742,203501,1627827,1626161,1626196,1629029,0022001007,1,191,192,0,0,1610612739
13,1610612739,1626224,1629731,1628386,1630171,1629012,1610612742,203501,1627827,1626161,1626196,1629029,0022001007,1,199,203,0,2,1610612742
14,1610612739,1626224,1629731,1628386,1630171,1629012,1610612742,203501,1627827,1626161,1626196,1629029,0022001007,1,216,231,0,0,1610612739
15,1610612739,1626224,1629731,1628386,1630171,1629012,1610612742,203501,1627827,1626161,1626196,1629029,0022001007,1,239,239,0,2,1610612742
16,1610612739,1626224,1629731,1628386,1630171,1629012,1610612742,203501,1627827,1626161,1626196,1629029,0022001007,1,260,260,2,0,1610612739
17,1610612739,1626224,1629731,1628386,1630171,1629012,1610612742,203501,1627827,1626161,1626196,1629029,0022001007,1,269,270,0,0,1610612742
18,1610612739,1626224,1629731,1628386,1630171,1629012,1610612742,203501,1627827,1626161,1626196,1629029,0022001007,1,286,286,0,0,1610612739
19,1610612739,1626224,1629731,1628386,1630171,1629012,1610612742,203501,1627827,1626161,1626196,1629029,0022001007,1,291,294,0,0,1610612742
20,1610612739,1626224,1629731,1628386,1630171,1629012,1610612742,203501,1627827,1626161,1626196,1629029,0022001007,1,301,307,2,0,1610612739
21,1610612739,1626224,1629731,1628386,1630171,1629012,1610612742,203501,1627827,1626161,1626196,1629029,0022001007,1,308,321,0,2,1610612742
22,1610612739,1626224,1629731,1628386,1630171,1629012,1610612742,1626196,1627827,1628973,203501,203939,0022001007,1,338,338,3,0,1610612739
23,1610612739,1626224,1629731,1628386,1630171,1629012,1610612742,1626196,1627827,1628973,203501,203939,0022001007,1,358,358,0,2,1610612742
24,1610612739,1626224,1628386,1628422,1629012,1629731,1610612742,1626196,1628973,1630182,203501,203939,0022001007,1,371,371,0,0,1610612739
25,1610612739,1626224,1628386,1628422,1629012,1629731,1610612742,1626196,1628973,1630182,203501,203939,0022001007,1,386,392,0,0,1610612742
26,1610612739,1626224,1628386,1628422,1629012,1629731,1610612742,1626196,1628973,1630182,203501,203939,0022001007,1,399,402,0,0,1610612739
27,1610612739,1626224,1628386,1628422,1629012,1629731,1610612742,1626196,1628973,1630182,203501,203939,0022001007,1,411,415,0,0,1610612742
28,1610612739,1626224,1628386,1628422,1629012,1629731,1610612742,1626196,1628973,1630182,203501,203939,0022001007,1,418,421,0,0,1610612739
29,1610612739,1626224,1628386,1628422,1629012,1629731,1610612742,1626196,1628973,1630182,203501,203939,0022001007,1,431,431,0,3,1610612742
30,1610612739,1626224,1628386,1628422,1629012,1629731,1610612742,1626196,1628973,1630182,203501,203939,0022001007,1,432,476,2,0,1610612739
31,1610612739,1626224,1628386,1628422,1629731,1630271,1610612742,1626196,1628973,1630182,203501,203939,0022001007,1,494,497,0,0,1610612742
32,1610612739,1626224,1628386,1628422,1629731,1630271,1610612742,1626196,1628973,1630182,203501,203939,0022001007,1,506,506,0,0,1610612739
33,1610612739,1626224,1628386,1628422,1629731,1630271,1610612742,1626196,1628973,1630182,203501,203939,0022001007,1,511,511,0,2,1610612742
34,1610612739,1626224,1628386,1628422,1629731,1630271,1610612742,1626196,1628973,1630182,203501,203939,0022001007,1,528,530,0,0,1610612739
35,1610612739,1626224,1628386,1628422,1629731,1630271,1610612742,1626196,1628973,1630182,203501,203939,0022001007,1,538,538,0,2,1610612742
36,1610612739,1626224,1628386,1628422,1629731,1630271,1610612742,1626196,1628973,1630182,203501,203939,0022001007,1,557,559,0,0,1610612739
37,1610612739,1626224,1628386,1628422,1629731,1630271,1610612742,1626196,1628973,1630182,203501,203939,0022001007,1,560,588,0,0,1610612742
38,1610612739,1628392,1628422,1629012,1629731,1630271,1610612742,1628973,1629029,1630182,203504,203939,0022001007,1,594,597,0,0,1610612739
39,1610612739,1628392,1628422,1629012,1629731,1630271,1610612742,1628973,1629029,1630182,203504,203939,0022001007,1,611,612,0,1,1610612742
40,1610612739,1628392,1628422,1629012,1629731,1630271,1610612742,1628973,1629029,1630182,203504,203939,0022001007,1,630,630,2,0,1610612739
41,1610612739,1628392,1628422,1629012,1629731,1630271,1610612742,1628973,1629029,1630182,203504,203939,0022001007,1,645,648,0,3,1610612742
42,1610612739,1628392,1628422,1629012,1629731,1630271,1610612742,1628973,1629029,1630182,203504,203939,0022001007,1,669,671,0,0,1610612739
43,1610612739,1628392,1628422,1629012,1629731,1630271,1610612742,1628973,1629029,1630182,203504,203939,0022001007,1,685,685,0,2,1610612742
44,1610612739,1628392,1628422,1629012,1629731,1630271,1610612742,1628973,1629029,1630182,203504,203939,0022001007,1,690,690,2,0,1610612739
45,1610612739,1628392,1628422,1629012,1629731,1630271,1610612742,1628973,1629029,1630182,203504,203939,0022001007,1,709,711,0,0,1610612742
46,1610612739,1628392,1628422,1629012,1629731,1630271,1610612742,1628973,1629029,1630182,203504,203939,0022001007,1,716,718,2,0,1610612739
47,1610612739,1628392,1628422,1629012,1629731,1630271,1610612742,1627827,1629029,1630182,203504,203939,0022001007,1,720,720,0,3,1610612742
48,1610612739,1628392,1628422,1629012,1629731,1630271,1610612742,1627827,1629029,1630182,203504,203939,0022001007,1,720,720,0,0,160
49,1610612739,1630171,1629012,1628422,1630271,1628392,1610612742,1627827,1629029,1630182,203504,1626246,0022001007,2,720,735,0,0,1610612742
50,1610612739,1630171,1629012,1628422,1630271,1628392,1610612742,1627827,1629029,1630182,203504,1626246,0022001007,2,735,747,0,0,1610612739
51,1610612739,1630171,1629012,1628422,1630271,1628392,1610612742,1627827,1629029,1630182,203504,1626246,0022001007,2,760,768,0,0,1610612742
52,1610612739,1630171,1629012,1628422,1630271,1628392,1610612742,1627827,1629029,1630182,203504,1626246,0022001007,2,770,788,0,0,1610612739
53,1610612739,1630171,1629012,1628422,1630271,1628392,1610612742,1627827,1629029,1630182,203504,1626246,0022001007,2,801,801,0,2,1610612742
54,1610612739,1630171,1629012,1628422,1630271,1628392,1610612742,1627827,1629029,1630182,203504,1626246,0022001007,2,821,826,2,0,1610612739
55,1610612739,1630171,1629012,1628422,1630271,1628392,1610612742,1627827,1629029,1630182,203504,1626246,0022001007,2,838,838,0,0,1610612742
56,1610612739,1630171,1629012,1628422,1630271,1628392,1610612742,1627827,1629029,1630182,203504,1626246,0022001007,2,841,841,2,0,1610612739
57,1610612739,1630171,1629012,1628422,1630271,1628392,1610612742,1627827,1629029,1630182,203504,1626246,0022001007,2,842,859,0,2,1610612742
58,1610612739,1630171,1629012,1628422,1630271,1628392,1610612742,1626161,1627827,1629029,1630182,203501,0022001007,2,882,884,0,0,1610612739
59,1610612739,1630171,1629012,1628422,1630271,1628392,1610612742,1626161,1627827,1629029,1630182,203501,0022001007,2,893,893,0,3,1610612742
60,1610612739,1630171,1629012,1628422,1630271,1628392,1610612742,1626161,1627827,1629029,1630182,203501,0022001007,2,908,910,0,0,1610612739
61,1610612739,1630171,1629012,1628422,1630271,1628392,1610612742,1626161,1627827,1629029,1630182,203501,0022001007,2,918,924,0,0,1610612742
62,1610612739,1630171,1629012,1628422,1630271,1628392,1610612742,1626161,1627827,1629029,1630182,203501,0022001007,2,927,937,2,0,1610612739
63,1610612739,1626224,1628392,1629012,1630171,1630271,1610612742,1626161,1626196,1627827,1628973,203501,0022001007,2,948,948,0,2,1610612742
64,1610612739,1626224,1628392,1629012,1629731,1630171,1610612742,1626161,1626196,1627827,1628973,203501,0022001007,2,964,964,2,0,1610612739
65,1610612739,1626224,1628392,1629012,1629731,1630171,1610612742,1626161,1626196,1627827,1628973,203501,0022001007,2,978,978,0,0,1610612742
66,1610612739,1626224,1628392,1629012,1629731,1630171,1610612742,1626161,1626196,1627827,1628973,203501,0022001007,2,984,1001,0,0,1610612739
67,1610612739,1626224,1628392,1629012,1629731,1630171,1610612742,1626161,1626196,1627827,1628973,203501,0022001007,2,1006,1006,0,3,1610612742
68,1610612739,1626224,1628386,1629012,1629731,1630171,1610612742,1626161,1626196,1627827,1628973,203501,0022001007,2,1031,1037,0,0,1610612739
69,1610612739,1626224,1628386,1629012,1629731,1630171,1610612742,1626161,1626196,1627827,1628973,203501,0022001007,2,1046,1046,0,2,1610612742
70,1610612739,1626224,1628386,1629012,1629731,1630171,1610612742,1626161,1626196,1627827,1628973,203501,0022001007,2,1046,1073,0,0,1610612739
71,1610612739,1626224,1628386,1629725,1629731,1630171,1610612742,1626161,1626196,1628973,1630182,203501,0022001007,2,1081,1081,0,2,1610612742
72,1610612739,1626224,1628386,1629725,1629731,1630171,1610612742,1626161,1626196,1628973,1630182,203501,0022001007,2,1098,1098,3,0,1610612739
73,1610612739,1626224,1628386,1629725,1629731,1630171,1610612742,1626161,1626196,1628973,1630182,203501,0022001007,2,1120,1123,0,4,1610612742
74,1610612739,1626224,1628386,1629725,1629731,1630171,1610612742,1626196,1628973,1630182,203501,203939,0022001007,2,1145,1147,0,0,1610612739
75,1610612739,1626224,1628386,1629725,1629731,1630171,1610612742,1626196,1628973,1630182,203501,203939,0022001007,2,1154,1154,0,2,1610612742
76,1610612739,1626224,1628386,1629725,1629731,1630171,1610612742,1626196,1628973,1630182,203501,203939,0022001007,2,1172,1172,0,0,1610612739
77,1610612739,1626224,1628386,1629725,1629731,1630171,1610612742,1626196,1628973,1630182,203501,203939,0022001007,2,1177,1180,0,0,1610612742
78,1610612739,1626224,1628386,1629725,1629731,1630171,1610612742,1626196,1628973,1630182,203501,203939,0022001007,2,1189,1189,2,0,1610612739
79,1610612739,1626224,1628386,1629725,1629731,1630171,1610612742,1626196,1628973,1630182,203501,203939,0022001007,2,1204,1208,0,2,1610612742
80,1610612739,1626224,1628386,1629725,1629731,1630171,1610612742,1626196,1628973,1630182,203501,203939,0022001007,2,1208,1218,1,0,1610612739
81,1610612739,1626224,1628386,1629725,1629731,1630171,1610612742,1626196,1627827,1629029,203501,203939,0022001007,2,1229,1229,0,0,1610612742
82,1610612739,1626224,1628386,1629725,1629731,1630171,1610612742,1626196,1627827,1629029,203501,203939,0022001007,2,1229,1238,1,0,1610612739
83,1610612739,1626224,1628386,1629725,1629731,1630171,1610612742,1626196,1627827,1629029,203501,203939,0022001007,2,1251,1251,0,2,1610612742
84,1610612739,1626224,1628386,1629725,1629731,1630171,1610612742,1626196,1627827,1629029,203501,203939,0022001007,2,1271,1271,2,0,1610612739
85,1610612739,1626224,1628386,1629012,1629731,1630171,1610612742,1626196,1627827,1629029,203501,203939,0022001007,2,1293,1296,0,0,1610612742
86,1610612739,1626224,1628386,1629012,1629731,1630171,1610612742,1626196,1627827,1629029,203501,203939,0022001007,2,1304,1307,0,0,1610612739
87,1610612739,1626224,1628386,1629012,1629731,1630171,1610612742,1626196,1627827,1629029,203501,203939,0022001007,2,1318,1322,0,0,1610612742
88,1610612739,1626224,1628386,1629012,1629731,1630171,1610612742,1626196,1627827,1629029,203501,203939,0022001007,2,1331,1334,1,0,1610612739
89,1610612739,1626224,1628386,1629012,1629731,1630171,1610612742,1626196,1627827,1629029,203501,203939,0022001007,2,1354,1357,0,0,1610612742
90,1610612739,1626224,1628386,1629012,1629731,1630171,1610612742,1626196,1627827,1629029,203501,203939,0022001007,2,1369,1372,0,0,1610612739
91,1610612739,1626224,1628386,1629012,1629731,1630171,1610612742,1626196,1627827,1629029,203501,203939,0022001007,2,1385,1389,0,0,1610612742
92,1610612739,1626224,1628386,1629012,1629731,1630171,1610612742,1626196,1627827,1629029,203501,203939,0022001007,2,1398,1400,0,0,1610612739
93,1610612739,1626224,1628386,1629012,1629731,1630171,1610612742,1626196,1627827,1629029,203501,203939,0022001007,2,1405,1407,0,0,1610612742
94,1610612739,1626224,1628386,1629012,1629731,1630171,1610612742,1626196,1627827,1629029,203501,203939,0022001007,2,1424,1430,0,0,1610612739
95,1610612739,1626224,1628386,1629012,1629731,1630171,1610612742,1626196,1627827,1629029,203501,203939,0022001007,2,1437,1437,0,3,1610612742
96,1610612739,1626224,1628386,1629012,1629731,1630171,1610612742,1626196,1629029,1630207,203501,203939,0022001007,2,1440,1440,0,0,1610612742
97,1610612739,1626224,1629731,1628386,1630171,1629012,1610612742,203501,1627827,1626161,1626196,1629029,0022001007,3,1440,1469,0,0,1610612742
98,1610612739,1626224,1629731,1628386,1630171,1629012,1610612742,203501,1627827,1626161,1626196,1629029,0022001007,3,1484,1486,0,0,1610612739
99,1610612739,1626224,1629731,1628386,1630171,1629012,1610612742,203501,1627827,1626161,1626196,1629029,0022001007,3,1497,1497,0,2,1610612742
100,1610612739,1626224,1629731,1628386,1630171,1629012,1610612742,203501,1627827,1626161,1626196,1629029,0022001007,3,1520,1523,0,0,1610612739
101,1610612739,1626224,1629731,1628386,1630171,1629012,1610612742,203501,1627827,1626161,1626196,1629029,0022001007,3,1536,1538,0,0,1610612742
102,1610612739,1626224,1629731,1628386,1630171,1629012,1610612742,203501,1627827,1626161,1626196,1629029,0022001007,3,1546,1546,2,0,1610612739
103,1610612739,1626224,1629731,1628386,1630171,1629012,1610612742,203501,1627827,1626161,1626196,1629029,0022001007,3,1563,1566,0,0,1610612742
104,1610612739,1626224,1629731,1628386,1630171,1629012,1610612742,203501,1627827,1626161,1626196,1629029,0022001007,3,1574,1577,0,0,1610612739
105,1610612739,1626224,1629731,1628386,1630171,1629012,1610612742,203501,1627827,1626161,1626196,1629029,0022001007,3,1586,1586,0,2,1610612742
106,1610612739,1626224,1629731,1628386,1630171,1629012,1610612742,203501,1627827,1626161,1626196,1629029,0022001007,3,1614,1614,0,0,1610612739
107,1610612739,1626224,1629731,1628386,1630171,1629012,1610612742,203501,1627827,1626161,1626196,1629029,0022001007,3,1620,1623,0,2,1610612742
108,1610612739,1626224,1629731,1628386,1630171,1629012,1610612742,203501,1627827,1626161,1626196,1629029,0022001007,3,1623,1639,3,0,1610612739
109,1610612739,1626224,1629731,1628386,1630171,1629012,1610612742,203501,1627827,1626161,1626196,1629029,0022001007,3,1650,1650,0,3,1610612742
110,1610612739,1626224,1629731,1628386,1630171,1629012,1610612742,203501,1627827,1626161,1626196,1629029,0022001007,3,1666,1666,2,0,1610612739
111,1610612739,1626224,1629731,1628386,1630171,1629012,1610612742,203501,1627827,1626161,1626196,1629029,0022001007,3,1689,1689,0,2,1610612742
112,1610612739,1626224,1629731,1628386,1630171,1629012,1610612742,203501,1627827,1626161,1626196,1629029,0022001007,3,1712,1714,2,0,1610612739
113,1610612739,1626224,1629731,1628386,1630171,1629012,1610612742,203501,1627827,1626161,1626196,1629029,0022001007,3,1732,1732,0,0,1610612742
114,1610612739,1626224,1629731,1628386,1630171,1629012,1610612742,203501,1627827,1626161,1626196,1629029,0022001007,3,1751,1751,2,0,1610612739
115,1610612739,1626224,1629731,1628386,1630171,1629012,1610612742,203501,1627827,1626161,1626196,1629029,0022001007,3,1773,1773,0,2,1610612742
116,1610612739,1626224,1629731,1628386,1630171,1629012,1610612742,203501,1627827,1626161,1626196,1629029,0022001007,3,1798,1798,2,0,1610612739
117,1610612739,1626224,1629731,1628386,1630171,1629012,1610612742,203501,1627827,1626161,1626196,1629029,0022001007,3,1814,1816,0,0,1610612742
118,1610612739,1626224,1629731,1628386,1630171,1629012,1610612742,203501,1627827,1626161,1626196,1629029,0022001007,3,1831,1834,0,0,1610612739
119,1610612739,1626224,1629731,1628386,1630171,1629012,1610612742,203501,1627827,1626161,1626196,1629029,0022001007,3,1848,1852,0,0,1610612742
120,1610612739,1626224,1629731,1628386,1630171,1629012,1610612742,203501,1627827,1626161,1626196,1629029,0022001007,3,1860,1860,3,0,1610612739
121,1610612739,1626224,1629731,1628386,1630171,1629012,1610612742,203501,1627827,1626161,1626196,1629029,0022001007,3,1878,1878,0,0,1610612742
122,1610612739,1626224,1629731,1628386,1630171,1629012,1610612742,203501,1627827,1626161,1626196,1629029,0022001007,3,1881,1881,0,0,1610612739
123,1610612739,1626224,1629731,1628386,1630171,1629012,1610612742,203501,1627827,1626161,1626196,1629029,0022001007,3,1885,1885,0,3,1610612742
124,1610612739,1626224,1629731,1628386,1630171,1629012,1610612742,203501,1627827,1626161,1626196,1629029,0022001007,3,1903,1903,3,0,1610612739
125,1610612739,1626224,1629731,1628386,1630171,1629012,1610612742,203501,1627827,1626161,1626196,1629029,0022001007,3,1923,1927,0,0,1610612742
126,1610612739,1626224,1629731,1628386,1630171,1629012,1610612742,203501,1627827,1626161,1626196,1629029,0022001007,3,1932,1932,2,0,1610612739
127,1610612739,1626224,1629731,1628386,1630171,1629012,1610612742,203501,1627827,1626161,1626196,1629029,0022001007,3,1932,1955,0,0,1610612742
128,1610612739,1628392,1628422,1629731,1630171,1630271,1610612742,1626196,1627827,1628973,203501,203939,0022001007,3,1968,1968,1,0,1610612739
129,1610612739,1628392,1628422,1629731,1630171,1630271,1610612742,1626196,1627827,1628973,203504,203939,0022001007,3,1983,1986,0,0,1610612742
130,1610612739,1628392,1628422,1629731,1630171,1630271,1610612742,1626196,1627827,1628973,203504,203939,0022001007,3,1994,1996,0,0,1610612739
131,1610612739,1628392,1628422,1629731,1630171,1630271,1610612742,1626196,1627827,1628973,203504,203939,0022001007,3,2003,2003,0,0,1610612742
132,1610612739,1628392,1628422,1629731,1630171,1630271,1610612742,1626196,1627827,1628973,203504,203939,0022001007,3,2017,2019,0,0,1610612739
133,1610612739,1628392,1628422,1629731,1630171,1630271,1610612742,1626196,1627827,1628973,203504,203939,0022001007,3,2037,2037,0,2,1610612742
134,1610612739,1628392,1628422,1629731,1630171,1630271,1610612742,1626196,1627827,1628973,203504,203939,0022001007,3,2050,2052,0,0,1610612739
135,1610612739,1628392,1628422,1629731,1630171,1630271,1610612742,1626196,1627827,1628973,203504,203939,0022001007,3,2056,2064,0,2,1610612742
136,1610612739,1626224,1628392,1628422,1629012,1630271,1610612742,1627827,1628973,1630182,203504,203939,0022001007,3,2081,2083,0,0,1610612739
137,1610612739,1626224,1628392,1628422,1629012,1630271,1610612742,1627827,1628973,1630182,203504,203939,0022001007,3,2095,2095,0,2,1610612742
138,1610612739,1626224,1628392,1628422,1629012,1630271,1610612742,1628973,1630182,1630207,203504,203939,0022001007,3,2100,2100,1,0,1610612739
139,1610612739,1626224,1628392,1628422,1629012,1630271,1610612742,1628973,1630182,1630207,203504,203939,0022001007,3,2120,2120,0,2,1610612742
140,1610612739,1626224,1628392,1628422,1629012,1630271,1610612742,1628973,1630182,1630207,203504,203939,0022001007,3,2129,2129,3,0,1610612739
141,1610612739,1626224,1628392,1628422,1629012,1630271,1610612742,1628973,1630182,1630207,203504,203939,0022001007,3,2145,2145,0,0,1610612742
142,1610612739,1626224,1628392,1628422,1629012,1630271,1610612742,1628973,1630182,1630207,203504,203939,0022001007,3,2157,2157,2,0,1610612739
143,1610612739,1626224,1628392,1628422,1629012,1630271,1610612742,1628973,1630182,1630207,203504,203939,0022001007,3,2160,2160,0,0,1610612739
144,1610612739,1626224,1629012,1628422,1630271,1628392,1610612742,203939,1628973,1630182,203504,1630207,0022001007,4,2160,2172,0,0,1610612739
145,1610612739,1626224,1629012,1628422,1630271,1628392,1610612742,203939,1628973,1630182,203504,1630207,0022001007,4,2183,2183,0,2,1610612742
146,1610612739,1626224,1629012,1628422,1630271,1628392,1610612742,203939,1628973,1630182,203504,1630207,0022001007,4,2205,2207,0,0,1610612739
147,1610612739,1626224,1629012,1628422,1630271,1628392,1610612742,203939,1628973,1630182,203504,1630207,0022001007,4,2210,2222,0,0,1610612742
148,1610612739,1626224,1629012,1628422,1630271,1628392,1610612742,203939,1628973,1630182,203504,1630207,0022001007,4,2224,2224,2,0,1610612739
149,1610612739,1626224,1628386,1629012,1630171,1630271,1610612742,203939,1628973,1630182,203504,1630207,0022001007,4,2235,2235,0,2,1610612742
150,1610612739,1626224,1628386,1629012,1630171,1630271,1610612742,203939,1628973,1630182,203504,1630207,0022001007,4,2255,2271,0,0,1610612739
151,1610612739,1626224,1628386,1629012,1630171,1630271,1610612742,203939,1628973,1630182,203504,1630207,0022001007,4,2279,2279,0,0,1610612742
152,1610612739,1626224,1628386,1629012,1630171,1630271,1610612742,203939,1628973,1630182,203504,1630207,0022001007,4,2282,2282,2,0,1610612739
153,1610612739,1626224,1628386,1629012,1630171,1630271,1610612742,203939,1628973,1630182,203504,1630207,0022001007,4,2282,2294,0,2,1610612742
154,1610612739,1626224,1628386,1629012,1630171,1630271,1610612742,203939,1628973,1630182,203504,1630207,0022001007,4,2320,2320,0,0,1610612739
155,1610612739,1626224,1628386,1629012,1630171,1630271,1610612742,203939,1628973,1630182,203504,1630207,0022001007,4,2334,2337,0,0,1610612742
156,1610612739,1626224,1628386,1629012,1630171,1630271,1610612742,203939,1628973,1630182,203504,1630207,0022001007,4,2341,2341,2,0,1610612739
157,1610612739,1626224,1628386,1629012,1630171,1630271,1610612742,203939,1628973,1630182,203504,1630207,0022001007,4,2364,2365,0,0,1610612742
158,1610612739,1626224,1628386,1629012,1630171,1630271,1610612742,203939,1628973,1630182,203504,1630207,0022001007,4,2377,2377,2,0,1610612739
159,1610612739,1626224,1628386,1629012,1630171,1630271,1610612742,203939,1628973,1630182,203504,1630207,0022001007,4,2402,2405,0,0,1610612742
160,1610612739,1626224,1628386,1629012,1630171,1630271,1610612742,203939,1628973,1630182,203504,1630207,0022001007,4,2407,2407,3,0,1610612739
161,1610612739,1626224,1628386,1629012,1630171,1630271,1610612742,203939,1628973,1630182,203504,1630207,0022001007,4,2420,2423,0,0,1610612742
162,1610612739,1626224,1628386,1629012,1630171,1630271,1610612742,203939,1628973,1630182,203504,1630207,0022001007,4,2432,2435,0,0,1610612739
163,1610612739,1626224,1628386,1629012,1630171,1630271,1610612742,203939,1628973,1630182,203504,1630207,0022001007,4,2453,2453,0,2,1610612742
164,1610612739,1626224,1628386,1629012,1630171,1630271,1610612742,203939,1628973,1630182,203504,1630207,0022001007,4,2469,2469,2,0,1610612739
165,1610612739,1626224,1628386,1629012,1630171,1630271,1610612742,203939,1628973,1630182,203504,1630207,0022001007,4,2489,2491,0,0,1610612742
166,1610612739,1626224,1628386,1629012,1630171,1630271,1610612742,203939,1628973,1630182,203504,1630207,0022001007,4,2496,2508,2,0,1610612739
167,1610612739,1626224,1628386,1629012,1630171,1630271,1610612742,1626161,1628973,1630182,1630207,203504,0022001007,4,2531,2534,0,3,1610612742
168,1610612739,1626224,1628386,1629012,1630171,1630271,1610612742,1626161,1628973,1630182,1630207,203504,0022001007,4,2549,2549,2,0,1610612739
169,1610612739,1626224,1628386,1629012,1630171,1630271,1610612742,1626161,1628973,1630182,1630207,203504,0022001007,4,2565,2565,0,3,1610612742
170,1610612739,1626224,1628386,1629012,1630171,1630271,1610612742,1626161,1628973,1630182,1630207,203504,0022001007,4,2578,2580,1,0,1610612739
171,1610612739,1626224,1628386,1629012,1630171,1630271,1610612742,1626161,1628973,1630182,1630207,203504,0022001007,4,2603,2603,0,0,1610612742
172,1610612739,1626224,1629012,1630171,1630271,2760,1610612742,1626161,1628973,1630182,1630207,203504,0022001007,4,2625,2625,2,0,1610612739
173,1610612739,1626224,1629012,1630171,1630271,2760,1610612742,1626161,1628973,1630182,1630207,203504,0022001007,4,2638,2647,0,2,1610612742
174,1610612739,1626224,1629012,1630171,1630271,2760,1610612742,1626161,1628973,1630182,1630207,203504,0022001007,4,2660,2660,0,0,1610612739
175,1610612739,1626224,1629012,1630171,1630271,2760,1610612742,1626161,1628973,1630182,1630207,203504,0022001007,4,2680,2680,0,2,1610612742
176,1610612739,1626224,1629012,1630171,1630271,2760,1610612742,1626161,1628973,1630182,1630207,203504,0022001007,4,2680,2693,3,0,1610612739
177,1610612739,1628422,1629662,1629725,1630271,2760,1610612742,1626161,1628973,1630182,1630207,203504,0022001007,4,2713,2716,0,1,1610612742
178,1610612739,1628422,1629662,1629725,1630271,2760,1610612742,1626161,1628973,1630182,1630207,203504,0022001007,4,2740,2744,2,0,1610612739
179,1610612739,1628422,1629662,1629725,1630271,2760,1610612742,1626161,1628973,1630182,1630207,203504,0022001007,4,2763,2766,0,1,1610612742
180,1610612739,1628422,1629662,1629725,1630271,2760,1610612742,1626161,1628973,1630189,1630207,203504,0022001007,4,2780,2782,0,0,1610612739
181,1610612739,1628422,1629662,1629725,1630271,2760,1610612742,1626161,1628973,1630189,1630207,203504,0022001007,4,2786,2787,0,2,1610612742
182,1610612739,1628422,1629662,1629725,1630271,2760,1610612742,1626161,1628973,1630189,1630207,203504,0022001007,4,2795,2806,0,0,1610612739
183,1610612739,1628422,1629662,1629725,1630271,2760,1610612742,1628973,1630182,1630189,1630207,203504,0022001007,4,2820,2820,0,0,1610612742
184,1610612739,1628422,1629662,1629725,1630271,2760,1610612742,1628973,1630182,1630189,1630207,203504,0022001007,4,2834,2836,0,0,1610612739
185,1610612739,1628422,1629662,1629725,1630271,2760,1610612742,1628973,1630182,1630189,1630207,203504,0022001007,4,2851,2851,0,2,1610612742
186,1610612739,1628422,1629662,1629725,1630271,2760,1610612742,1628973,1630182,1630189,1630207,203504,0022001007,4,2858,2860,0,0,1610612739
