,stint_start,t1_points_scored,t2_pm,stint_end,t1_id,t2_points_scored,t1_players,t2_id,t1_pm,t2_players,margin_per_100,num_poss
0,0,5,15,276,1610612737,20,"[1629631, 203953, 1627745, 1629629, 1629027]",1610612746,-15,"[202331, 203090, 1627826, 203585, 1629611]",-71.42857142857143,21.0
1,277,10,15,342,1610612737,25,"[1629631, 203953, 1627745, 1629629, 1629027]",1610612746,-15,"[202331, 203090, 1627826, 203585, 1629611]",-57.692307692307686,26.0
2,343,18,11,477,1610612737,29,"[1627745, 1627761, 1629027, 1629631, 203953]",1610612746,-11,"[202331, 203090, 1627826, 203585, 1629611]",-31.428571428571427,35.0
3,478,20,14,543,1610612737,34,"[1627761, 1629027, 1629631, 203458, 203953]",1610612746,-14,"[101150, 1627826, 1629010, 1629611, 203090]",-32.55813953488372,43.0
4,544,27,11,667,1610612737,38,"[1627761, 1628981, 1629027, 203458, 203459]",1610612746,-11,"[101150, 1626149, 1629010, 203090, 203210]",-21.153846153846153,52.0
5,668,27,14,681,1610612737,41,"[1627761, 1628981, 202323, 203458, 203459]",1610612746,-14,"[101150, 1626149, 1629010, 203090, 203210]",-26.41509433962264,53.0
6,682,30,13,713,1610612737,43,"[1628981, 1629027, 202323, 203458, 203459]",1610612746,-13,"[101150, 1626149, 1629010, 1629611, 203210]",-22.807017543859647,57.0
7,714,30,13,717,1610612737,43,"[1627761, 1628981, 1629629, 202323, 203458]",1610612746,-13,"[101150, 1626149, 1629010, 1629611, 203210]",-22.413793103448278,58.0
8,718,38,9,919,1610612737,47,"[1627761, 1628981, 1629629, 1629631, 202323]",1610612746,-9,"[101150, 1626149, 1629010, 202331, 203210]",-12.0,75.0
9,920,43,4,977,1610612737,47,"[1629631, 203953, 1627745, 1629629, 202323]",1610612746,-4,"[202331, 1629010, 101150, 1626149, 203210]",-5.128205128205128,78.0
10,978,47,6,1080,1610612737,53,"[1627745, 1629027, 1629629, 1629631, 203953]",1610612746,-6,"[101150, 1626149, 202331, 203210, 203585]",-6.976744186046512,86.0
11,1081,49,14,1202,1610612737,63,"[1627745, 1627761, 1629027, 1629629, 203953]",1610612746,-14,"[1626149, 1629611, 202331, 203210, 203585]",-14.583333333333334,96.0
12,1203,49,17,1218,1610612737,66,"[1627761, 1629027, 203458, 203459, 203953]",1610612746,-17,"[1627826, 1629611, 202331, 203090, 203585]",-17.525773195876287,97.0
13,1219,49,17,1242,1610612737,66,"[1627761, 1629027, 203458, 203459, 203953]",1610612746,-17,"[101150, 1627826, 1629611, 203090, 203585]",-17.17171717171717,99.0
14,1243,53,15,1333,1610612737,68,"[1627761, 1628981, 1629027, 203458, 203459]",1610612746,-15,"[101150, 1627826, 1629611, 203090, 203585]",-14.018691588785046,107.0
15,1334,58,14,1388,1610612737,72,"[1627761, 1628981, 1629027, 203458, 203459]",1610612746,-14,"[101150, 1627826, 1629010, 1629611, 203090]",-12.612612612612612,111.0
16,1389,60,12,1416,1610612737,72,"[1627761, 1628981, 1629027, 202323, 203458]",1610612746,-12,"[101150, 1626149, 1629010, 203090, 203210]",-10.619469026548673,113.0
17,1417,60,14,1439,1610612737,74,"[1627761, 1628981, 1629027, 1629631, 202323]",1610612746,-14,"[101150, 1626149, 1629010, 203090, 203210]",-12.173913043478262,115.0
18,1440,70,14,1644,1610612737,84,"[1627761, 1628981, 1629027, 1629629, 202323]",1610612746,-14,"[101150, 1626149, 1629010, 202331, 203210]",-10.852713178294573,129.0
19,1645,72,15,1672,1610612737,87,"[1629631, 203953, 1627745, 1629629, 1629027]",1610612746,-15,"[202331, 203090, 1627826, 203585, 1629611]",-11.450381679389313,131.0
20,1673,72,15,1694,1610612737,87,"[1629631, 203953, 1627745, 1629629, 1629027]",1610612746,-15,"[1626149, 1629611, 202331, 203090, 203585]",-11.278195488721805,133.0
21,1695,73,19,1726,1610612737,92,"[1629027, 1629629, 1629631, 203458, 203953]",1610612746,-19,"[101150, 1626149, 1629611, 203090, 203585]",-13.86861313868613,137.0
22,1727,75,17,1765,1610612737,92,"[1629027, 1629629, 1629631, 203458, 203953]",1610612746,-17,"[101150, 1626149, 1629010, 1629611, 203090]",-12.318840579710146,138.0
23,1766,77,19,1837,1610612737,96,"[1627761, 1629027, 1629631, 203459, 203953]",1610612746,-19,"[101150, 1626149, 1629010, 1629611, 203090]",-13.286713286713287,143.0
24,1838,79,17,1872,1610612737,96,"[1627761, 1628981, 1629027, 1629631, 203459]",1610612746,-17,"[101150, 1626149, 1629010, 1629611, 203090]",-11.643835616438356,146.0
25,1873,79,20,1934,1610612737,99,"[1627761, 1628981, 1629027, 1629631, 203459]",1610612746,-20,"[101150, 1626149, 1629010, 203090, 203210]",-13.333333333333334,150.0
26,1935,79,25,1981,1610612737,104,"[1627761, 1628981, 1629027, 202323, 203459]",1610612746,-25,"[101150, 1626149, 1629010, 203090, 203210]",-16.33986928104575,153.0
27,1982,82,30,2158,1610612737,112,"[1627745, 1627761, 1629027, 1629629, 202323]",1610612746,-30,"[101150, 1626149, 1629010, 203090, 203210]",-17.964071856287426,167.0
28,2159,83,36,2266,1610612737,119,"[1627745, 1627761, 1627820, 1629629, 202323]",1610612746,-36,"[101150, 1626149, 1629010, 203090, 203210]",-20.57142857142857,175.0
29,2267,83,36,2281,1610612737,119,"[203953, 1627745, 1629629, 1629027, 203459]",1610612746,-36,"[202331, 1629611, 1629010, 1626149, 203210]",-20.57142857142857,175.0
30,2282,83,37,2340,1610612737,120,"[1627745, 1629629, 1629631, 202323, 203459]",1610612746,-37,"[202331, 1629611, 1629010, 1626149, 203210]",-20.670391061452513,179.0
31,2341,85,38,2404,1610612737,123,"[1627745, 1629629, 1629631, 202323, 203459]",1610612746,-38,"[1626149, 1629010, 1629611, 203210, 203585]",-20.76502732240437,183.0
32,2405,85,38,2428,1610612737,123,"[1627745, 1629629, 1629631, 202323, 203459]",1610612746,-38,"[1627826, 1629010, 1629611, 203210, 203585]",-20.54054054054054,185.0
33,2429,85,44,2466,1610612737,129,"[1627761, 1627820, 1628981, 1629629, 1629631]",1610612746,-44,"[1627826, 1629010, 1629611, 203210, 203585]",-23.28042328042328,189.0
34,2467,87,44,2544,1610612737,131,"[1627761, 1627820, 1628981, 1629629, 1629631]",1610612746,-44,"[1629010, 1629611, 1629662, 202335, 203585]",-22.916666666666664,192.0
35,2545,87,49,2606,1610612737,136,"[1627761, 1627820, 1628981, 1629629, 1629631]",1610612746,-49,"[1628476, 1629010, 1629611, 1629662, 202335]",-24.873096446700508,197.0
36,2607,101,49,2868,1610612737,150,"[1627761, 1627820, 1629629, 1629631, 203458]",1610612746,-49,"[1628476, 1629010, 1629611, 1629662, 202335]",-22.897196261682243,214.0
37,2869,101,49,9999999,1610612737,150,"[1627820, 1628981, 1629629, 1629718, 203458]",1610612746,-49,"[1628476, 1629010, 1629611, 1629662, 202335]",-22.790697674418606,215.0
