,team1_id,team1_player1,team1_player2,team1_player3,team1_player4,team1_player5,team2_id,team2_player1,team2_player2,team2_player3,team2_player4,team2_player5,game_id,period,possession_start,possession_end,team1_points,team2_points,possession_team
0,1610612757,203090,202329,203994,203468,203081,1610612738,1628369,202694,201143,203935,202681,0021800913,1,0,24,0,0,1610612757
1,1610612757,203090,202329,203994,203468,203081,1610612738,1628369,202694,201143,203935,202681,0021800913,1,31,31,0,2,1610612738
2,1610612757,203090,202329,203994,203468,203081,1610612738,1628369,202694,201143,203935,202681,0021800913,1,43,43,3,0,1610612757
3,1610612757,203090,202329,203994,203468,203081,1610612738,1628369,202694,201143,203935,202681,0021800913,1,65,65,0,2,1610612738
4,1610612757,203090,202329,203994,203468,203081,1610612738,1628369,202694,201143,203935,202681,0021800913,1,80,86,0,0,1610612757
5,1610612757,203090,202329,203994,203468,203081,1610612738,1628369,202694,201143,203935,202681,0021800913,1,98,98,0,0,1610612738
6,1610612757,203090,202329,203994,203468,203081,1610612738,1628369,202694,201143,203935,202681,0021800913,1,110,110,2,0,1610612757
7,1610612757,203090,202329,203994,203468,203081,1610612738,1628369,202694,201143,203935,202681,0021800913,1,129,131,0,0,1610612738
8,1610612757,203090,202329,203994,203468,203081,1610612738,1628369,202694,201143,203935,202681,0021800913,1,145,147,0,0,1610612757
9,1610612757,203090,202329,203994,203468,203081,1610612738,1628369,202694,201143,203935,202681,0021800913,1,153,153,0,0,1610612738
10,1610612757,203090,202329,203994,203468,203081,1610612738,1628369,202694,201143,203935,202681,0021800913,1,157,157,2,0,1610612757
11,1610612757,203090,202329,203994,203468,203081,1610612738,1628369,202694,201143,203935,202681,0021800913,1,178,180,0,0,1610612738
12,1610612757,203090,202329,203994,203468,203081,1610612738,1628369,202694,201143,203935,202681,0021800913,1,187,200,0,0,1610612757
13,1610612757,203090,202329,203994,203468,203081,1610612738,1628369,202694,201143,203935,202681,0021800913,1,212,212,0,2,1610612738
14,1610612757,203090,202329,203994,203468,203081,1610612738,1628369,202694,201143,203935,202681,0021800913,1,229,231,0,0,1610612757
15,1610612757,203090,202329,203994,203468,203081,1610612738,1628369,202694,201143,203935,202681,0021800913,1,236,238,0,0,1610612738
16,1610612757,203090,202329,203994,203468,203081,1610612738,1628369,202694,201143,203935,202681,0021800913,1,247,247,2,0,1610612757
17,1610612757,203090,202329,203994,203468,203081,1610612738,1628369,202694,201143,203935,202681,0021800913,1,266,266,0,0,1610612738
18,1610612757,203090,202329,203994,203468,203081,1610612738,1628369,202694,201143,203935,202681,0021800913,1,270,270,1,0,1610612757
19,1610612757,203090,202329,203994,203468,203081,1610612738,1628369,202694,201143,203935,202681,0021800913,1,290,293,0,0,1610612738
20,1610612757,203090,202329,203994,203468,203081,1610612738,1628369,202694,201143,203935,202681,0021800913,1,299,299,0,0,1610612757
21,1610612757,203090,202329,203994,203468,203081,1610612738,1628369,202694,201143,203935,202681,0021800913,1,299,322,0,0,1610612738
22,1610612757,203090,202329,203994,203468,203081,1610612738,1628369,202694,201143,203935,202681,0021800913,1,333,335,0,0,1610612757
23,1610612757,203090,202329,203994,203468,203081,1610612738,1628369,202694,201143,203935,202681,0021800913,1,335,346,0,0,1610612738
24,1610612757,203090,202329,203994,203468,203081,1610612738,1628369,202694,201143,203935,202681,0021800913,1,360,360,2,0,1610612757
25,1610612757,203090,202329,203994,203468,203081,1610612738,1627759,201143,202330,202681,202694,0021800913,1,370,372,0,0,1610612738
26,1610612757,203090,202329,203994,203468,203081,1610612738,1627759,201143,202330,202681,202694,0021800913,1,385,385,3,0,1610612757
27,1610612757,203090,202329,203994,203468,203081,1610612738,1627759,201143,202330,202681,202694,0021800913,1,401,401,0,2,1610612738
28,1610612757,203090,202329,203994,203468,203081,1610612738,1627759,201143,202330,202681,202694,0021800913,1,421,436,0,0,1610612757
29,1610612757,203090,202329,203994,203468,203081,1610612738,1627759,201143,202330,202681,202694,0021800913,1,443,445,0,0,1610612738
30,1610612757,203090,202329,203994,203468,203081,1610612738,1627759,201143,202330,202681,202694,0021800913,1,455,455,2,0,1610612757
31,1610612757,203090,202329,203994,203468,203081,1610612738,1627759,201143,202330,202681,202694,0021800913,1,468,468,0,2,1610612738
32,1610612757,203090,202329,203994,203468,203081,1610612738,1627759,201143,202330,202681,202694,0021800913,1,491,493,0,0,1610612757
33,1610612757,203090,202329,203994,203468,203081,1610612738,1627759,201143,202330,202681,202694,0021800913,1,507,507,0,2,1610612738
34,1610612757,203090,202329,203994,203468,203081,1610612738,1627759,201143,202330,202681,202694,0021800913,1,507,526,1,0,1610612757
35,1610612757,1627774,202683,203081,203468,203918,1610612738,1627759,201143,202330,202681,202694,0021800913,1,545,547,0,0,1610612738
36,1610612757,1627774,202683,203081,203468,203918,1610612738,1627759,201143,202330,202681,202694,0021800913,1,556,568,1,0,1610612757
37,1610612757,1627774,202683,203081,203552,203918,1610612738,1627759,1628369,201143,202330,202681,0021800913,1,583,583,0,2,1610612738
38,1610612757,1627774,202683,203081,203552,203918,1610612738,1627759,1628369,201143,202330,202681,0021800913,1,597,597,2,0,1610612757
39,1610612757,1627774,202683,203081,203552,203918,1610612738,1627759,1628369,201143,202330,202681,0021800913,1,609,609,0,2,1610612738
40,1610612757,1627774,202683,203081,203552,203918,1610612738,1627759,1628369,201143,202330,202681,0021800913,1,616,616,0,0,1610612757
41,1610612757,1627774,202683,203081,203552,203918,1610612738,1627759,1628369,201143,202330,202681,0021800913,1,619,619,0,2,1610612738
42,1610612757,1627774,202683,203081,203552,203918,1610612738,1627759,1628369,201143,202330,202681,0021800913,1,635,635,3,0,1610612757
43,1610612757,1627774,202683,203081,203552,203918,1610612738,1627759,1628369,201143,202330,202681,0021800913,1,652,652,0,0,1610612738
44,1610612757,1627774,202683,203081,203552,203918,1610612738,1627759,1628369,201143,202330,202681,0021800913,1,658,661,0,0,1610612757
45,1610612757,1627774,202683,203081,203552,203918,1610612738,1627759,1628369,201143,202330,202681,0021800913,1,667,667,0,3,1610612738
46,1610612757,1627774,202683,203081,203552,203918,1610612738,1627759,1628369,201143,202330,202681,0021800913,1,688,690,0,0,1610612757
47,1610612757,1627774,202683,203081,203552,203918,1610612738,1627759,1628369,1628464,202330,202681,0021800913,1,703,706,0,3,1610612738
48,1610612757,1627774,202683,203081,203552,203918,1610612738,1627759,1628369,1628464,202330,202681,0021800913,1,720,720,1,0,1610612757
49,1610612757,203468,202683,203918,1627774,203552,1610612738,1628369,203935,1627759,202330,1628464,0021800913,2,720,731,0,2,1610612738
50,1610612757,203468,202683,203918,1627774,203552,1610612738,1628369,203935,1627759,202330,1628464,0021800913,2,751,751,3,0,1610612757
51,1610612757,203468,202683,203918,1627774,203552,1610612738,1628369,203935,1627759,202330,1628464,0021800913,2,772,773,0,0,1610612738
52,1610612757,203468,202683,203918,1627774,203552,1610612738,1628369,203935,1627759,202330,1628464,0021800913,2,780,782,0,0,1610612757
53,1610612757,203468,202683,203918,1627774,203552,1610612738,1628369,203935,1627759,202330,1628464,0021800913,2,788,788,0,2,1610612738
54,1610612757,203468,202683,203918,1627774,203552,1610612738,1628369,203935,1627759,202330,1628464,0021800913,2,800,809,0,0,1610612757
55,1610612757,203468,202683,203918,1627774,203552,1610612738,1628369,203935,1627759,202330,1628464,0021800913,2,829,829,0,2,1610612738
56,1610612757,203468,202683,203918,1627774,203552,1610612738,1628369,203935,1627759,202330,1628464,0021800913,2,856,858,0,0,1610612757
57,1610612757,203468,202683,203918,1627774,203552,1610612738,1628369,203935,1627759,202330,1628464,0021800913,2,861,877,0,0,1610612738
58,1610612757,203468,202683,203918,1627774,203552,1610612738,1628369,203935,1627759,202330,1628464,0021800913,2,887,887,2,0,1610612757
59,1610612757,203468,202683,203918,1627774,203552,1610612738,1628369,203935,1627759,202330,1628464,0021800913,2,911,913,0,0,1610612738
60,1610612757,203468,202683,203918,1627774,203552,1610612738,1628369,203935,1627759,202330,1628464,0021800913,2,919,926,0,0,1610612757
61,1610612757,203468,202683,203918,1627774,203552,1610612738,1628369,203935,1627759,202330,1628464,0021800913,2,935,935,0,2,1610612738
62,1610612757,203468,202683,203918,1627774,203552,1610612738,1628369,203935,1627759,202330,1628464,0021800913,2,946,946,2,0,1610612757
63,1610612757,203468,202683,203918,1627774,203552,1610612738,1628369,203935,1627759,202330,1628464,0021800913,2,969,971,0,0,1610612738
64,1610612757,203468,202683,203918,1627774,203552,1610612738,1628369,203935,1627759,202330,1628464,0021800913,2,980,982,0,0,1610612757
65,1610612757,203468,202683,203918,1627774,203552,1610612738,1628369,203935,1627759,202330,1628464,0021800913,2,996,998,0,0,1610612738
66,1610612757,203468,202683,203918,1627774,203552,1610612738,1628369,203935,1627759,202330,1628464,0021800913,2,1003,1003,0,0,1610612757
67,1610612757,203468,202683,203918,1627774,203552,1610612738,1628369,203935,1627759,202330,1628464,0021800913,2,1012,1013,0,0,1610612738
68,1610612757,202683,203090,203468,203552,203918,1610612738,1628369,203935,1627759,202330,1628464,0021800913,2,1030,1030,2,0,1610612757
69,1610612757,202683,203090,203468,203552,203918,1610612738,1628369,203935,1627759,202330,1628464,0021800913,2,1044,1059,0,0,1610612738
70,1610612757,202683,203090,203468,203552,203918,1610612738,1628369,1628464,202681,202694,203935,0021800913,2,1081,1088,1,0,1610612757
71,1610612757,202329,203081,203090,203552,203994,1610612738,1628369,201143,202681,202694,203935,0021800913,2,1103,1105,0,0,1610612738
72,1610612757,202329,203081,203090,203552,203994,1610612738,1628369,201143,202681,202694,203935,0021800913,2,1112,1112,2,0,1610612757
73,1610612757,202329,203081,203090,203552,203994,1610612738,1628369,201143,202681,202694,203935,0021800913,2,1122,1134,0,0,1610612738
74,1610612757,202329,203081,203090,203552,203994,1610612738,1628369,201143,202681,202694,203935,0021800913,2,1141,1143,0,0,1610612757
75,1610612757,202329,203081,203090,203552,203994,1610612738,1628369,201143,202681,202694,203935,0021800913,2,1152,1152,0,0,1610612738
76,1610612757,202329,203081,203090,203552,203994,1610612738,1628369,201143,202681,202694,203935,0021800913,2,1152,1162,0,0,1610612757
77,1610612757,202329,203081,203090,203552,203994,1610612738,1628369,201143,202681,202694,203935,0021800913,2,1173,1173,0,0,1610612738
78,1610612757,202329,203081,203090,203552,203994,1610612738,1628369,201143,202681,202694,203935,0021800913,2,1177,1193,2,0,1610612757
79,1610612757,202329,203081,203090,203552,203994,1610612738,1628369,201143,202681,202694,203935,0021800913,2,1206,1208,0,0,1610612738
80,1610612757,202329,203081,203090,203552,203994,1610612738,1628369,201143,202681,202694,203935,0021800913,2,1217,1223,0,0,1610612757
81,1610612757,202329,203081,203090,203552,203994,1610612738,1628369,201143,202681,202694,203935,0021800913,2,1227,1227,0,2,1610612738
82,1610612757,202329,203081,203090,203552,203994,1610612738,1628369,201143,202681,202694,203935,0021800913,2,1254,1256,0,0,1610612757
83,1610612757,202329,203081,203090,203552,203994,1610612738,1628369,201143,202681,202694,203935,0021800913,2,1265,1273,0,2,1610612738
84,1610612757,202329,203081,203090,203468,203994,1610612738,201143,202330,202681,202694,203935,0021800913,2,1293,1296,2,0,1610612757
85,1610612757,202329,203081,203090,203468,203994,1610612738,201143,202330,202681,202694,203935,0021800913,2,1311,1311,0,2,1610612738
86,1610612757,202329,203081,203090,203468,203994,1610612738,201143,202330,202681,202694,203935,0021800913,2,1324,1343,2,0,1610612757
87,1610612757,202329,203081,203090,203468,203994,1610612738,201143,202330,202681,202694,203935,0021800913,2,1368,1368,0,0,1610612738
88,1610612757,202329,203081,203090,203468,203994,1610612738,201143,202330,202681,202694,203935,0021800913,2,1375,1377,0,0,1610612757
89,1610612757,202329,203081,203090,203468,203994,1610612738,201143,202330,202681,202694,203935,0021800913,2,1386,1386,0,2,1610612738
90,1610612757,202329,203081,203090,203468,203994,1610612738,201143,202330,202681,202694,203935,0021800913,2,1409,1411,0,0,1610612757
91,1610612757,202329,203081,203090,203468,203994,1610612738,201143,202330,202681,202694,203935,0021800913,2,1419,1419,0,2,1610612738
92,1610612757,203081,203090,203468,203552,203994,1610612738,1628369,201143,202330,202694,203935,0021800913,2,1432,1435,0,0,1610612757
93,1610612757,203081,203090,203468,203552,203994,1610612738,1628369,201143,202330,202694,203935,0021800913,2,1440,1440,0,0,1610612757
94,1610612757,203090,202329,203994,203468,203081,1610612738,1628369,202694,201143,203935,202681,0021800913,3,1440,1451,0,0,1610612738
95,1610612757,203090,202329,203994,203468,203081,1610612738,1628369,202694,201143,203935,202681,0021800913,3,1471,1474,0,0,1610612757
96,1610612757,203090,202329,203994,203468,203081,1610612738,1628369,202694,201143,203935,202681,0021800913,3,1486,1491,0,2,1610612738
97,1610612757,203090,202329,203994,203468,203081,1610612738,1628369,202694,201143,203935,202681,0021800913,3,1509,1509,2,0,1610612757
98,1610612757,203090,202329,203994,203468,203081,1610612738,1628369,202694,201143,203935,202681,0021800913,3,1513,1513,0,0,1610612738
99,1610612757,203090,202329,203994,203468,203081,1610612738,1628369,202694,201143,203935,202681,0021800913,3,1522,1522,2,0,1610612757
100,1610612757,203090,202329,203994,203468,203081,1610612738,1628369,202694,201143,203935,202681,0021800913,3,1539,1539,0,0,1610612738
101,1610612757,203090,202329,203994,203468,203081,1610612738,1628369,202694,201143,203935,202681,0021800913,3,1546,1549,2,0,1610612757
102,1610612757,203090,202329,203994,203468,203081,1610612738,1628369,202694,201143,203935,202681,0021800913,3,1561,1561,0,2,1610612738
103,1610612757,203090,202329,203994,203468,203081,1610612738,1628369,202694,201143,203935,202681,0021800913,3,1572,1574,0,0,1610612757
104,1610612757,203090,202329,203994,203468,203081,1610612738,1628369,202694,201143,203935,202681,0021800913,3,1588,1590,0,0,1610612738
105,1610612757,203090,202329,203994,203468,203081,1610612738,1628369,202694,201143,203935,202681,0021800913,3,1598,1598,2,0,1610612757
106,1610612757,203090,202329,203994,203468,203081,1610612738,1628369,202694,201143,203935,202681,0021800913,3,1608,1610,0,0,1610612738
107,1610612757,203090,202329,203994,203468,203081,1610612738,1628369,202694,201143,203935,202681,0021800913,3,1626,1626,2,0,1610612757
108,1610612757,203090,202329,203994,203468,203081,1610612738,1628369,202694,201143,203935,202681,0021800913,3,1643,1645,0,0,1610612738
109,1610612757,203090,202329,203994,203468,203081,1610612738,1628369,202694,201143,203935,202681,0021800913,3,1660,1660,2,0,1610612757
110,1610612757,203090,202329,203994,203468,203081,1610612738,1628369,202694,201143,203935,202681,0021800913,3,1683,1685,0,0,1610612738
111,1610612757,203090,202329,203994,203468,203081,1610612738,1628369,202694,201143,203935,202681,0021800913,3,1697,1698,0,0,1610612757
112,1610612757,203090,202329,203994,203468,203081,1610612738,1628369,202694,201143,203935,202681,0021800913,3,1716,1716,0,2,1610612738
113,1610612757,203090,202329,203994,203468,203081,1610612738,1628369,202694,201143,203935,202681,0021800913,3,1739,1746,2,0,1610612757
114,1610612757,203090,202329,203994,203468,203081,1610612738,1628369,1628464,202681,202694,203935,0021800913,3,1754,1759,0,2,1610612738
115,1610612757,203090,202329,203994,203468,203081,1610612738,1627759,1628369,1628464,202330,202681,0021800913,3,1778,1779,0,0,1610612757
116,1610612757,203090,202329,203994,203468,203081,1610612738,1627759,1628369,1628464,202330,202681,0021800913,3,1783,1783,0,0,1610612738
117,1610612757,203090,202329,203994,203468,203081,1610612738,1627759,1628369,1628464,202330,202681,0021800913,3,1790,1798,3,0,1610612757
118,1610612757,203090,202329,203994,203468,203081,1610612738,1627759,1628369,1628464,202330,202681,0021800913,3,1820,1822,0,0,1610612738
119,1610612757,203090,202329,203994,203468,203081,1610612738,1627759,1628369,1628464,202330,202681,0021800913,3,1835,1835,2,0,1610612757
120,1610612757,203090,202329,203994,203468,203081,1610612738,1627759,1628369,1628464,202330,202681,0021800913,3,1849,1849,0,2,1610612738
121,1610612757,203090,202329,203994,203468,203081,1610612738,1627759,1628369,1628464,202330,202681,0021800913,3,1864,1866,0,0,1610612757
122,1610612757,203090,202329,203994,203468,203081,1610612738,1627759,1628369,1628464,202330,202681,0021800913,3,1872,1872,0,3,1610612738
123,1610612757,203090,202329,203994,203468,203081,1610612738,1627759,1628369,1628464,202330,202681,0021800913,3,1891,1893,0,0,1610612757
124,1610612757,203090,202329,203994,203468,203081,1610612738,1627759,1628369,1628464,202330,202681,0021800913,3,1895,1895,0,0,1610612738
125,1610612757,203090,202329,203994,203468,203081,1610612738,1627759,1628369,1628464,202330,202681,0021800913,3,1903,1907,2,0,1610612757
126,1610612757,203090,202329,203994,203468,203081,1610612738,1627759,1628369,1628464,202330,202681,0021800913,3,1925,1930,0,0,1610612738
127,1610612757,202683,203081,203090,203468,203918,1610612738,1627759,1628369,1628464,202330,202681,0021800913,3,1940,1940,2,0,1610612757
128,1610612757,202683,203081,203090,203468,203918,1610612738,1627759,1628369,1628464,202330,202681,0021800913,3,1951,1951,0,2,1610612738
129,1610612757,202683,203081,203090,203552,203918,1610612738,1627759,1628369,201143,202330,202681,0021800913,3,1961,1963,2,0,1610612757
130,1610612757,202683,203081,203090,203552,203918,1610612738,1627759,1628369,201143,202330,202681,0021800913,3,1974,1974,0,2,1610612738
131,1610612757,202683,203081,203090,203552,203918,1610612738,1627759,1628369,201143,202330,202681,0021800913,3,1991,2000,2,0,1610612757
132,1610612757,202683,203081,203090,203552,203918,1610612738,1627759,1628369,201143,202330,202681,0021800913,3,2009,2009,0,1,1610612738
133,1610612757,202683,203081,203090,203552,203918,1610612738,1627759,201143,202330,202694,203935,0021800913,3,2024,2027,0,0,1610612757
134,1610612757,202683,203081,203090,203552,203918,1610612738,1627759,201143,202330,202694,203935,0021800913,3,2035,2035,0,0,1610612738
135,1610612757,202683,203081,203090,203552,203918,1610612738,1627759,201143,202330,202694,203935,0021800913,3,2047,2047,2,0,1610612757
136,1610612757,202683,203081,203090,203552,203918,1610612738,1627759,201143,202330,202694,203935,0021800913,3,2060,2062,0,0,1610612738
137,1610612757,202683,203081,203090,203552,203918,1610612738,1627759,201143,202330,202694,203935,0021800913,3,2072,2074,0,0,1610612757
138,1610612757,202683,203081,203090,203552,203918,1610612738,1627759,201143,202330,202694,203935,0021800913,3,2078,2080,0,0,1610612738
139,1610612757,202683,203081,203090,203552,203918,1610612738,1627759,201143,202330,202694,203935,0021800913,3,2097,2099,0,0,1610612757
140,1610612757,202683,203081,203090,203552,203918,1610612738,1627759,201143,202330,202694,203935,0021800913,3,2113,2113,0,2,1610612738
141,1610612757,202683,203081,203090,203552,203918,1610612738,1627759,201143,202330,202694,203935,0021800913,3,2129,2131,0,0,1610612757
142,1610612757,202683,203081,203090,203552,203918,1610612738,1627759,201143,202330,202694,203935,0021800913,3,2153,2153,0,2,1610612738
143,1610612757,202683,203081,203090,203552,203918,1610612738,1627759,201143,202330,202694,203935,0021800913,3,2160,2160,2,0,1610612757
144,1610612757,202683,203081,203090,203552,203918,1610612738,1627759,201143,202330,202694,203935,0021800913,3,2160,2160,0,0,449
145,1610612757,203468,202683,203918,1627774,203552,1610612738,202694,201143,203935,1627759,202330,0021800913,4,2160,2176,0,0,1610612757
146,1610612757,203468,202683,203918,1627774,203552,1610612738,202694,201143,203935,1627759,202330,0021800913,4,2180,2180,0,2,1610612738
147,1610612757,203468,202683,203918,1627774,203552,1610612738,202694,201143,203935,1627759,202330,0021800913,4,2198,2198,0,0,1610612757
148,1610612757,203468,202683,203918,1627774,203552,1610612738,202694,201143,203935,1627759,202330,0021800913,4,2211,2211,0,0,1610612738
149,1610612757,203468,202683,203918,1627774,203552,1610612738,202694,201143,203935,1627759,202330,0021800913,4,2215,2217,2,0,1610612757
150,1610612757,203468,202683,203918,1627774,203552,1610612738,202694,201143,203935,1627759,202330,0021800913,4,2233,2233,0,2,1610612738
151,1610612757,203468,202683,203918,1627774,203552,1610612738,202694,201143,203935,1627759,202330,0021800913,4,2245,2245,0,0,1610612757
152,1610612757,203468,202683,203918,1627774,203552,1610612738,202694,201143,203935,1627759,202330,0021800913,4,2254,2254,0,2,1610612738
153,1610612757,203468,202683,203918,1627774,203552,1610612738,202694,201143,203935,1627759,202330,0021800913,4,2263,2265,0,0,1610612757
154,1610612757,203468,202683,203918,1627774,203552,1610612738,202694,201143,203935,1627759,202330,0021800913,4,2287,2289,0,0,1610612738
155,1610612757,203468,202683,203918,1627774,203552,1610612738,202694,201143,203935,1627759,202330,0021800913,4,2294,2296,0,0,1610612757
156,1610612757,203468,202683,203918,1627774,203552,1610612738,202694,201143,203935,1627759,202330,0021800913,4,2302,2302,0,2,1610612738
157,1610612757,203468,202683,203918,1627774,203552,1610612738,202694,201143,203935,1627759,202330,0021800913,4,2302,2322,0,0,1610612757
158,1610612757,202683,203090,203468,203552,203918,1610612738,202694,201143,203935,1627759,202330,0021800913,4,2327,2351,0,2,1610612738
159,1610612757,202683,203090,203468,203552,203918,1610612738,202694,201143,203935,1627759,202330,0021800913,4,2365,2367,0,0,1610612757
160,1610612757,202683,203090,203468,203552,203918,1610612738,202694,201143,203935,1627759,202330,0021800913,4,2377,2379,0,0,1610612738
161,1610612757,202683,203090,203468,203552,203918,1610612738,202694,201143,203935,1627759,202330,0021800913,4,2389,2389,2,0,1610612757
162,1610612757,202683,203090,203468,203552,203918,1610612738,202694,201143,203935,1627759,202330,0021800913,4,2409,2411,0,0,1610612738
163,1610612757,202683,203090,203468,203552,203918,1610612738,202694,201143,203935,1627759,202330,0021800913,4,2428,2430,0,0,1610612757
164,1610612757,202683,203090,203468,203552,203918,1610612738,202694,201143,203935,1627759,202330,0021800913,4,2435,2444,0,0,1610612738
165,1610612757,1627774,203081,203090,203918,203994,1610612738,1627759,1628369,202330,202681,202694,0021800913,4,2453,2453,2,0,1610612757
166,1610612757,1627774,203081,203090,203918,203994,1610612738,1627759,1628369,202330,202681,202694,0021800913,4,2473,2473,0,2,1610612738
167,1610612757,1627774,203081,203090,203918,203994,1610612738,1627759,1628369,202330,202681,202694,0021800913,4,2490,2496,0,0,1610612757
168,1610612757,1627774,203081,203090,203918,203994,1610612738,1627759,1628369,202330,202681,202694,0021800913,4,2509,2511,0,0,1610612738
169,1610612757,202329,203081,203090,203468,203994,1610612738,1627759,1628369,1629057,202681,203935,0021800913,4,2533,2533,2,0,1610612757
170,1610612757,202329,203081,203090,203468,203994,1610612738,1627759,1628369,1629057,202681,203935,0021800913,4,2548,2548,0,0,1610612738
171,1610612757,202329,203081,203090,203468,203994,1610612738,1627759,1628369,1629057,202681,203935,0021800913,4,2558,2558,0,0,1610612757
172,1610612757,202329,203081,203090,203468,203994,1610612738,1627759,1628369,201143,202681,203935,0021800913,4,2571,2571,0,0,1610612738
173,1610612757,202329,203081,203090,203468,203994,1610612738,1627759,1628369,201143,202681,203935,0021800913,4,2578,2578,2,0,1610612757
174,1610612757,202329,203081,203090,203468,203994,1610612738,1627759,1628369,201143,202681,203935,0021800913,4,2594,2594,0,2,1610612738
175,1610612757,202329,203081,203090,203468,203994,1610612738,1627759,1628369,201143,202681,203935,0021800913,4,2594,2594,0,1,1610612738
176,1610612757,202329,203081,203090,203468,203994,1610612738,1627759,1628369,201143,202681,203935,0021800913,4,2612,2612,3,0,1610612757
177,1610612757,202329,203081,203090,203468,203994,1610612738,1627759,1628369,201143,202681,203935,0021800913,4,2634,2646,0,2,1610612738
178,1610612757,202329,203081,203090,203468,203994,1610612738,1627759,1628369,201143,202681,203935,0021800913,4,2662,2662,2,0,1610612757
179,1610612757,202329,203081,203090,203468,203994,1610612738,1627759,1628369,201143,202681,203935,0021800913,4,2671,2672,0,0,1610612738
180,1610612757,202329,203081,203090,203468,203994,1610612738,1627759,1628369,201143,202681,203935,0021800913,4,2672,2686,2,0,1610612757
181,1610612757,202329,203081,203090,203468,203994,1610612738,1627759,1628369,201143,202681,203935,0021800913,4,2698,2707,0,0,1610612738
182,1610612757,202329,203081,203090,203468,203994,1610612738,1627759,1628369,201143,202681,203935,0021800913,4,2714,2714,2,0,1610612757
183,1610612757,202329,203081,203090,203468,203994,1610612738,1627759,1628369,201143,202681,203935,0021800913,4,2727,2727,0,3,1610612738
184,1610612757,202329,203081,203090,203468,203994,1610612738,1627759,1628369,201143,202681,203935,0021800913,4,2745,2745,0,0,1610612757
185,1610612757,202329,203081,203090,203468,203994,1610612738,1627759,1628369,201143,202681,203935,0021800913,4,2753,2755,0,2,1610612738
186,1610612757,202329,203081,203090,203468,203994,1610612738,1627759,1628369,201143,202681,203935,0021800913,4,2780,2785,0,0,1610612757
187,1610612757,202329,203081,203090,203468,203994,1610612738,1627759,1628369,201143,202681,203935,0021800913,4,2794,2794,0,2,1610612738
188,1610612757,202329,203081,203090,203468,203994,1610612738,1627759,1628369,201143,202681,203935,0021800913,4,2815,2828,0,0,1610612757
189,1610612757,202329,203081,203090,203468,203994,1610612738,1627759,1628369,201143,202681,203935,0021800913,4,2836,2838,0,0,1610612738
190,1610612757,202329,203081,203090,203468,203994,1610612738,1627759,1628369,201143,202681,203935,0021800913,4,2844,2844,2,0,1610612757
191,1610612757,202329,203081,203090,203468,203994,1610612738,1627759,1628369,201143,202681,203935,0021800913,4,2844,2855,0,4,1610612738
192,1610612757,202329,203081,203090,203468,203994,1610612738,1627759,1628369,201143,202681,203935,0021800913,4,2869,2869,2,0,1610612757
193,1610612757,202329,203081,203090,203468,203994,1610612738,1627759,1628369,201143,202681,203935,0021800913,4,2869,2874,0,0,1610612738
