,TEAM_ID_1,TEAM_1_PLAYERS,TEAM_ID_2,TEAM_2_PLAYERS,PERIOD
0,1610612759,[ 201942  200746 1626168 1627749 1627854],1610612748,[ 202710 1628389  203086 1629130 1629134],1
1,1610612759,[ 200752  201988 1628401 1627751 1629022],1610612748,[1629130  201609 1627884  201949  203482],2
2,1610612759,[ 201942  200746 1626168 1627749 1627854],1610612748,[ 202710 1628389  203086 1629130 1629134],3
3,1610612759,[ 200752  201988 1628401 1627751  201158],1610612748,[ 203086 1629130  201609 1627884  201949],4
