,TEAM_ID_1,TEAM_1_PLAYERS,TEAM_ID_2,TEAM_2_PLAYERS,PERIOD
0,1610612764,[ 203078 1629060  203458  203526  201566],1610612755,[ 201980  202699  203954  203552 1627732],1
1,1610612764,[ 201566  202722  202397 1629655 1628990],1610612755,[1629680  201588    2730 1629003 1627788],2
2,1610612764,[ 203078 1629060  203458  203526  201566],1610612755,[ 201980  202699  203954  203552 1627732],3
3,1610612764,[ 203078 1629060  201566  202722  202397],1610612755,[1629680  201588    2730 1627788 1630178],4
