,TEAM_ID_1,TEAM_1_PLAYERS,TEAM_ID_2,TEAM_2_PLAYERS,PERIOD
0,1610612755,[ 202699  201143  203954 1629003 1626196],1610612739,[1626224  201567  202684 1629012 1629636],1
1,1610612755,[ 202699  201143 1626196  202692  203922],1610612739,[1629012 1629645 1626204  203521 1627790],2
2,1610612755,[ 202699  201143 1629003 1626196 1629680],1610612739,[1626224  201567  202684 1629012 1629636],3
3,1610612755,[ 201143 1629003 1627788  203922  203118],1610612739,[ 202684 1629012 1629645 1626204  203521],4
