,TEAM_ID_1,TEAM_1_PLAYERS,TEAM_ID_2,TEAM_2_PLAYERS,PERIOD
0,1610612760,[1629652 1629647 1630526 1630581 1628983],1610612749,[ 203114  203507 1626171 1628960  201950],1
1,1610612760,[1630581 1629660  203488 1629026 1630197],1610612749,[ 203114  203507 1626171 1628960 1629620],2
2,1610612760,[1629652 1629647 1630526 1630581 1628983],1610612749,[ 203114  203507 1626171 1628960  201950],3
3,1610612760,[1630581 1629660  203488 1629026 1630197],1610612749,[ 203114 1626171 1628960  201950 1626192],4
