,TEAM_ID_1,TEAM_1_PLAYERS,TEAM_ID_2,TEAM_2_PLAYERS,PERIOD
0,1610612750,[ 203952  201959 1626157  201565  201952],1610612757,[203090 202329 203994 203468 203081],1
1,1610612750,[ 201565  203476 1629006  203967 1626145],1610612757,[ 202329  202323 1628380 1627774  203917],2
2,1610612750,[ 203952  201959 1626157  201565  201952],1610612757,[203090 202329 203994 203468 203081],3
3,1610612750,[ 201565  203476 1629006  203967 1626145],1610612757,[ 202323 1628380  203086 1627774  203917],4
