,stint_start,t1_points_scored,t2_pm,stint_end,t1_id,t2_points_scored,t1_players,t2_id,t1_pm,t2_players,margin_per_100,num_poss
0,0,12,3,404,1610612757,15,"[203918, 1628380, 202355, 203468, 203081]",1610612758,-3,"[203084, 202357, 203473, 1627741, 1628368]",-11.11111111111111,27.0
1,405,17,5,501,1610612757,22,"[203918, 1628380, 202355, 203468, 203081]",1610612758,-5,"[203084, 202357, 203473, 1627741, 1628368]",-13.88888888888889,36.0
2,502,21,4,657,1610612757,25,"[1628380, 201229, 203081, 203468, 203918]",1610612758,-4,"[1627741, 1628368, 202357, 203473, 2772]",-8.88888888888889,45.0
3,658,23,4,717,1610612757,27,"[1628380, 1629014, 201229, 203081, 203145]",1610612758,-4,"[1626158, 1628368, 202357, 203992, 2772]",-8.16326530612245,49.0
4,718,32,-2,880,1610612757,30,"[1629014, 201229, 202355, 203081, 203145]",1610612758,2,"[1626158, 202709, 203084, 203992, 2772]",3.278688524590164,61.0
5,881,32,0,887,1610612757,32,"[202355, 201229, 203145, 1629014, 1626209]",1610612758,0,"[203084, 2772, 1626158, 203992, 202709]",0.0,62.0
6,888,34,1,934,1610612757,35,"[202355, 201229, 203145, 1629014, 1626209]",1610612758,-1,"[1626158, 1627741, 202709, 203084, 203992]",-1.5384615384615385,65.0
7,935,39,0,1012,1610612757,39,"[1626209, 1629014, 202355, 203145, 203918]",1610612758,0,"[1626158, 1627741, 202709, 203084, 203992]",0.0,71.0
8,1013,40,1,1062,1610612757,41,"[1626209, 1627746, 1629014, 203145, 203918]",1610612758,-1,"[1626158, 1627741, 202709, 203084, 203992]",-1.3157894736842104,76.0
9,1063,43,4,1180,1610612757,47,"[1626209, 1627746, 1629014, 203468, 203918]",1610612758,-4,"[1626158, 1627741, 202709, 203084, 203992]",-4.761904761904762,84.0
10,1181,55,2,1432,1610612757,57,"[1626209, 1627746, 1629014, 203468, 203918]",1610612758,-2,"[1627741, 1628368, 203084, 203473, 203992]",-1.9607843137254901,102.0
11,1433,75,-10,1757,1610612757,65,"[1628380, 202355, 203081, 203468, 203918]",1610612758,10,"[1627741, 1628368, 203473, 203992, 2772]",8.064516129032258,124.0
12,1758,75,-3,1838,1610612757,72,"[203918, 1628380, 202355, 203468, 203081]",1610612758,3,"[203084, 202357, 203473, 1627741, 1628368]",2.307692307692308,130.0
13,1839,77,-3,1864,1610612757,74,"[1628380, 201229, 203081, 203468, 203918]",1610612758,3,"[1626158, 1627741, 1628368, 202357, 203084]",2.272727272727273,132.0
14,1865,79,-5,1941,1610612757,74,"[201229, 202355, 203081, 203468, 203918]",1610612758,5,"[1626158, 1627741, 1628368, 202357, 2772]",3.571428571428571,140.0
15,1942,85,-9,2023,1610612757,76,"[201229, 202355, 203081, 203145, 203468]",1610612758,9,"[1626158, 1627741, 1628368, 202357, 2772]",6.164383561643835,146.0
16,2024,90,-12,2080,1610612757,78,"[1626209, 1629014, 202355, 203081, 203145]",1610612758,12,"[1626158, 1628368, 203084, 203992, 2772]",7.9470198675496695,151.0
17,2081,94,-10,2157,1610612757,84,"[1626209, 1629014, 202355, 203081, 203145]",1610612758,10,"[202709, 203084, 203473, 203992, 2772]",6.369426751592357,157.0
18,2158,96,-8,2297,1610612757,88,"[1626209, 1629014, 202355, 203081, 203145]",1610612758,8,"[202357, 202709, 203084, 203992, 2772]",4.790419161676647,167.0
19,2298,100,-9,2389,1610612757,91,"[1628380, 203468, 203145, 1629014, 1626209]",1610612758,9,"[203084, 202357, 2772, 203992, 202709]",5.232558139534884,172.0
20,2390,100,-8,2412,1610612757,92,"[1628380, 203468, 203145, 1629014, 1626209]",1610612758,8,"[1628368, 202357, 202709, 203992, 2772]",4.597701149425287,174.0
21,2413,102,-5,2486,1610612757,97,"[1628380, 203468, 203145, 1629014, 1626209]",1610612758,5,"[1627741, 1628368, 202357, 202709, 203992]",2.824858757062147,177.0
22,2487,116,-12,2672,1610612757,104,"[1628380, 203081, 203145, 203468, 203918]",1610612758,12,"[1627741, 1628368, 202709, 203084, 203992]",6.282722513089005,191.0
23,2673,122,-18,2725,1610612757,104,"[1628380, 203081, 203145, 203468, 203918]",1610612758,18,"[1627741, 1628368, 202357, 203084, 203992]",9.183673469387756,196.0
24,2726,122,-16,2750,1610612757,106,"[1628380, 203081, 203145, 203468, 203918]",1610612758,16,"[1626158, 1627741, 1628368, 203084, 203992]",8.121827411167512,197.0
25,2751,122,-10,2857,1610612757,112,"[1628380, 203081, 203145, 203468, 203918]",1610612758,10,"[1626158, 1627812, 1628403, 1629117, 1629713]",4.901960784313726,204.0
26,2858,122,-10,9999999,1610612757,112,"[1626209, 1627746, 1629014, 1629018, 1629642]",1610612758,10,"[1626158, 1627812, 1628403, 1629117, 1629713]",4.878048780487805,205.0
