,TEAM_ID_1,TEAM_1_PLAYERS,TEAM_ID_2,TEAM_2_PLAYERS,PERIOD
0,1610612753,[1628407 1629643 1628976  203914 1630175],1610612737,[1628989 1628381  203991  203992 1629027],1
1,1610612753,[1628407 1629643 1630181 1628964 1626184],1610612737,[ 203992  203524  101150 1630168 1629164],2
2,1610612753,[1628407 1629643 1628976  203914 1630175],1610612737,[1628989 1628381  203991  203992 1629027],3
3,1610612753,[1628407 1629643 1630181 1628964 1626184],1610612737,[1628989  203991  203524  101150 1629164],4
