,TEAM_ID_1,TEAM_1_PLAYERS,TEAM_ID_2,TEAM_2_PLAYERS,PERIOD
0,1610612763,[1629634  203937  202685 1628415 1626145],1610612766,[ 202330 1629023  202687 1626179 1628984],1
1,1610612763,[1629634  203937  202685 1626145 1629723],1610612766,[ 202330 1629023 1628984 1628997 1629667],2
2,1610612763,[1629634  203937  202685 1628415 1626145],1610612766,[ 202330 1629023  202687 1626179 1628984],3
3,1610612763,[1629634  203937 1626145  203476 1629723],1610612766,[ 202330  202687 1626179 1628984 1629667],4
