,TEAM_ID_1,TEAM_1_PLAYERS,TEAM_ID_2,TEAM_2_PLAYERS,PERIOD
0,1610612747,[  2544 203076 203083 203484 203471],1610612740,[1630230  201949 1626195  202339 1629638],1
1,1610612747,[ 203471  201188 1627936 1629659  202083],1610612740,[1629638 1629712 1629637 1629117 1630184],2
2,1610612747,[  2544 203076 203083 203484 203471],1610612740,[1630230  201949 1626195  202339 1629638],3
3,1610612747,[   2544  203471 1628398  201188 1627936],1610612740,[1629638 1629637 1629117 1630184  203263],4
