,TEAM_ID_1,TEAM_1_PLAYERS,TEAM_ID_2,TEAM_2_PLAYERS,PERIOD
0,1610612748,[ 203090  203482 1628389 1629130  201609],1610612751,[201142 203925 201599 201935 202681],1
1,1610612748,[1629130 1629134    2738 1629216 1630173],1610612751,[ 203925  201935  201145 1627789 1629617],2
2,1610612748,[ 203482 1628389 1629130  201609 1629644],1610612751,[201142 203925 201599 201935 202681],3
3,1610612748,[1628389 1629130 1629134    2738 1629216],1610612751,[ 203925  201935  201145 1627789 1629617],4
