,TEAM_ID_1,TEAM_1_PLAYERS,TEAM_ID_2,TEAM_2_PLAYERS,PERIOD
0,1610612758,[1629002  203084 1626158 1630169 1628368],1610612765,[1630180  203924 1630191 1630165 1630595],1
1,1610612758,[1626158 1630169 1627741 1630558 1628963],1610612765,[1630191 1630595  202709 1628367 1626168],2
2,1610612758,[1629002  203084 1626158 1630169 1628368],1610612765,[1630180  203924 1630191 1630165 1630595],3
3,1610612758,[1626158 1630169 1627741 1630558 1628963],1610612765,[1630595 1628367 1626168 1628402 1630568],4
