,t1_points_scored,stint_end,stint_start,t1_id,t1_players,t2_players,t2_id,t2_points_scored,t2_pm,t1_pm,margin_per_100,num_poss
0,5,222,0,1610612761,"[1628384, 1627783, 1630173, 1629018, 1630567]","[1629750, 201942, 202696, 203897, 1630245]",1610612741,14,9,-9,-64.28571428571429,14.0
1,10,362,223,1610612761,"[1628384, 1627783, 1630173, 1629018, 1630567]","[1629750, 201942, 202696, 203897, 1630245]",1610612741,20,10,-10,-40.0,25.0
2,12,435,363,1610612761,"[1627783, 1628449, 1629018, 1630567, 1630625]","[1628972, 1630245, 201942, 202696, 203897]",1610612741,22,10,-10,-33.33333333333333,30.0
3,12,516,436,1610612761,"[1627783, 1628449, 1629018, 1630567, 1630625]","[1628972, 1629632, 1630245, 202696, 203897]",1610612741,24,12,-12,-33.33333333333333,36.0
4,12,537,517,1610612761,"[1627783, 1628449, 1629018, 1629139, 1630625]","[1628972, 1629632, 1630245, 202696, 203897]",1610612741,26,14,-14,-37.83783783783784,37.0
5,25,682,538,1610612761,"[1628384, 1629018, 1629139, 1630173, 1630625]","[1628972, 1629632, 1629744, 201942, 202696]",1610612741,30,5,-5,-10.869565217391305,46.0
6,25,702,683,1610612761,"[1628384, 1629018, 1629139, 1630173, 1630625]","[1628972, 1629076, 1629632, 1629744, 201942]",1610612741,31,6,-6,-12.76595744680851,47.0
7,27,719,703,1610612761,"[1627783, 1629018, 1629139, 1630173, 1630625]","[1628972, 1629076, 1629632, 1629750, 201942]",1610612741,31,4,-4,-8.333333333333332,48.0
8,33,862,720,1610612761,"[1627783, 1629018, 1629139, 1630173, 1630625]","[1629632, 1629744, 201942, 202696, 203897]",1610612741,33,0,0,0.0,57.0
9,35,906,863,1610612761,"[1627783, 1630173, 1630567, 1628449, 1630201]","[1629750, 201942, 1629632, 1629744, 1629076]",1610612741,37,2,-2,-3.278688524590164,61.0
10,36,918,907,1610612761,"[1627783, 1630173, 1630567, 1628449, 1630201]","[1629076, 1629632, 1629750, 1630245, 201942]",1610612741,37,1,-1,-1.6129032258064515,62.0
11,36,987,919,1610612761,"[1627783, 1630173, 1630567, 1628449, 1630201]","[1629076, 1629632, 1629750, 1630245, 203897]",1610612741,37,1,-1,-1.5151515151515151,66.0
12,41,1114,988,1610612761,"[1627783, 1630173, 1630567, 1628449, 1630201]","[1629632, 1629750, 1630245, 202696, 203897]",1610612741,48,7,-7,-9.333333333333334,75.0
13,41,1162,1115,1610612761,"[1627783, 1628384, 1628449, 1629018, 1630201]","[1628972, 1629744, 1630245, 202696, 203897]",1610612741,50,9,-9,-11.688311688311687,77.0
14,44,1263,1163,1610612761,"[1627783, 1628384, 1629018, 1630173, 1630567]","[1628972, 1629744, 1630245, 202696, 203897]",1610612741,54,10,-10,-12.048192771084338,83.0
15,47,1339,1264,1610612761,"[1627783, 1628384, 1629018, 1630173, 1630567]","[1629750, 1630245, 201942, 202696, 203897]",1610612741,59,12,-12,-13.636363636363635,88.0
16,47,1350,1340,1610612761,"[1627783, 1628384, 1629018, 1630173, 1630567]","[1629632, 1630245, 201942, 202696, 203897]",1610612741,62,15,-15,-16.853932584269664,89.0
17,50,1439,1351,1610612761,"[1627783, 1628384, 1629018, 1630201, 1630567]","[1629076, 1630245, 201942, 202696, 203897]",1610612741,67,17,-17,-17.708333333333336,96.0
18,57,1642,1440,1610612761,"[1627783, 1628384, 1629018, 1630201, 1630567]","[1629632, 1630245, 201942, 202696, 203897]",1610612741,74,17,-17,-15.887850467289718,107.0
19,65,1813,1643,1610612761,"[1628384, 1627783, 1630173, 1629018, 1630567]","[1629750, 201942, 202696, 203897, 1630245]",1610612741,80,15,-15,-12.605042016806722,119.0
20,68,1858,1814,1610612761,"[1627783, 1628384, 1629018, 1630567, 1630625]","[1628972, 1630245, 201942, 202696, 203897]",1610612741,80,12,-12,-9.917355371900827,121.0
21,75,2012,1859,1610612761,"[1627783, 1628384, 1628449, 1629018, 1630625]","[1628972, 1630245, 201942, 202696, 203897]",1610612741,82,7,-7,-5.343511450381679,131.0
22,75,2043,2013,1610612761,"[1627783, 1628384, 1628449, 1629018, 1630625]","[1628972, 1629632, 1630245, 202696, 203897]",1610612741,85,10,-10,-7.518796992481203,133.0
23,81,2151,2044,1610612761,"[1627783, 1628384, 1628449, 1629018, 1630625]","[1628972, 1629076, 1629632, 1630245, 201942]",1610612741,91,10,-10,-7.042253521126761,142.0
24,84,2264,2152,1610612761,"[1628384, 1628449, 1629018, 1630567, 1630625]","[1628972, 1629076, 1629632, 1629750, 201942]",1610612741,93,9,-9,-6.0402684563758395,149.0
25,92,2402,2265,1610612761,"[1627783, 1630173, 1630567, 1630625, 1628449]","[1629750, 201942, 203897, 1630245, 1629076]",1610612741,97,5,-5,-3.1847133757961785,157.0
26,93,2448,2403,1610612761,"[1627783, 1630173, 1630567, 1630625, 1628449]","[1629076, 1629632, 1629750, 201942, 203897]",1610612741,97,4,-4,-2.5,160.0
27,96,2488,2449,1610612761,"[1627783, 1628384, 1628449, 1630567, 1630625]","[1628972, 1629632, 1630245, 201942, 202696]",1610612741,100,4,-4,-2.4691358024691357,162.0
28,96,2548,2489,1610612761,"[1627783, 1628384, 1628449, 1629018, 1630567]","[1628972, 1629632, 1630245, 201942, 202696]",1610612741,100,4,-4,-2.4242424242424243,165.0
29,99,2619,2549,1610612761,"[1627783, 1628384, 1628449, 1629018, 1630567]","[1628972, 1629632, 1630245, 202696, 203897]",1610612741,100,1,-1,-0.5952380952380952,168.0
30,105,2757,2620,1610612761,"[1627783, 1628384, 1628449, 1629018, 1630567]","[1629632, 1630245, 201942, 202696, 203897]",1610612741,107,2,-2,-1.1363636363636365,176.0
31,105,2866,2758,1610612761,"[1627783, 1628384, 1628449, 1629018, 1630567]","[1629750, 1630245, 201942, 202696, 203897]",1610612741,111,6,-6,-3.278688524590164,183.0
32,105,9999999,2867,1610612761,"[1627783, 1628384, 1628449, 1630567, 1630625]","[1629750, 1630245, 201942, 202696, 203897]",1610612741,111,6,-6,-3.260869565217391,184.0
