,team1_id,team1_player1,team1_player2,team1_player3,team1_player4,team1_player5,team2_id,team2_player1,team2_player2,team2_player3,team2_player4,team2_player5,game_id,period,possession_start,possession_end,team1_points,team2_points,possession_team
0,1610612749,1630241,203648,1629603,1626192,201952,1610612741,1630172,1628374,201152,202066,1629632,0022001068,1,0,21,0,0,1610612741
1,1610612749,1630241,203648,1629603,1626192,201952,1610612741,1630172,1628374,201152,202066,1629632,0022001068,1,38,38,0,0,1610612749
2,1610612749,1630241,203648,1629603,1626192,201952,1610612741,1630172,1628374,201152,202066,1629632,0022001068,1,53,57,0,0,1610612741
3,1610612749,1630241,203648,1629603,1626192,201952,1610612741,1630172,1628374,201152,202066,1629632,0022001068,1,64,66,0,0,1610612749
4,1610612749,1630241,203648,1629603,1626192,201952,1610612741,1630172,1628374,201152,202066,1629632,0022001068,1,76,76,0,0,1610612741
5,1610612749,1630241,203648,1629603,1626192,201952,1610612741,1630172,1628374,201152,202066,1629632,0022001068,1,77,87,0,0,1610612749
6,1610612749,1630241,203648,1629603,1626192,201952,1610612741,1630172,1628374,201152,202066,1629632,0022001068,1,99,99,0,3,1610612741
7,1610612749,1630241,203648,1629603,1626192,201952,1610612741,1630172,1628374,201152,202066,1629632,0022001068,1,115,115,3,0,1610612749
8,1610612749,1630241,203648,1629603,1626192,201952,1610612741,1630172,1628374,201152,202066,1629632,0022001068,1,129,129,0,0,1610612741
9,1610612749,1630241,203648,1629603,1626192,201952,1610612741,1630172,1628374,201152,202066,1629632,0022001068,1,133,150,0,0,1610612749
10,1610612749,1630241,203648,1629603,1626192,201952,1610612741,1630172,1628374,201152,202066,1629632,0022001068,1,162,165,0,0,1610612741
11,1610612749,1630241,203648,1629603,1626192,201952,1610612741,1630172,1628374,201152,202066,1629632,0022001068,1,181,181,0,0,1610612749
12,1610612749,1630241,203648,1629603,1626192,201952,1610612741,1630172,1628374,201152,202066,1629632,0022001068,1,195,198,0,0,1610612741
13,1610612749,1630241,203648,1629603,1626192,201952,1610612741,1630172,1628374,201152,202066,1629632,0022001068,1,209,209,2,0,1610612749
14,1610612749,1630241,203648,1629603,1626192,201952,1610612741,1630172,1628374,201152,202066,1629632,0022001068,1,229,229,0,3,1610612741
15,1610612749,1630241,203648,1629603,1626192,201952,1610612741,1630172,1628374,201152,202066,1629632,0022001068,1,246,248,0,0,1610612749
16,1610612749,1630241,203648,1629603,1626192,201952,1610612741,1630172,1628374,201152,202066,1629632,0022001068,1,260,269,0,3,1610612741
17,1610612749,1626192,1629603,1629670,1630241,201952,1610612741,1630172,1628374,201152,202066,1629632,0022001068,1,277,284,2,0,1610612749
18,1610612749,1626192,1629603,1629670,1630241,201952,1610612741,1630172,1628374,201152,202066,1629632,0022001068,1,295,295,0,3,1610612741
19,1610612749,1626192,1629603,1629670,1630241,201952,1610612741,1630172,1628374,201152,202066,1629632,0022001068,1,309,310,0,0,1610612749
20,1610612749,1626192,1629603,1629670,1630241,201952,1610612741,1630172,1628374,201152,202066,1629632,0022001068,1,320,320,0,3,1610612741
21,1610612749,1626192,1629603,1629670,1630241,201952,1610612741,1630172,1628374,201152,202066,1629632,0022001068,1,337,337,2,0,1610612749
22,1610612749,1626192,1629603,1629670,1630241,201952,1610612741,1630172,1628374,201152,202066,1629632,0022001068,1,353,356,0,0,1610612741
23,1610612749,1626192,1629603,1629670,1630241,201952,1610612741,1630172,1628374,201152,202066,1629632,0022001068,1,371,371,1,0,1610612749
24,1610612749,1628382,1629091,1629670,201952,203648,1610612741,1626245,1628374,1629632,1630172,202066,0022001068,1,383,383,0,2,1610612741
25,1610612749,1628382,1629091,1629670,201952,203648,1610612741,1626245,1628374,1629632,1630172,202066,0022001068,1,391,391,3,0,1610612749
26,1610612749,1628382,1629091,1629670,201952,203648,1610612741,1626245,1628374,1629632,1630172,202066,0022001068,1,420,423,0,2,1610612741
27,1610612749,1628382,1629091,1629670,201952,203648,1610612741,1626245,1628374,1629632,1630172,202066,0022001068,1,430,430,3,0,1610612749
28,1610612749,1628382,1629091,1629670,201952,203648,1610612741,1626245,1628374,1629632,1630172,202066,0022001068,1,448,448,0,0,1610612741
29,1610612749,1628382,1629091,1629670,201952,203648,1610612741,1626245,1627756,1628374,1629632,1629653,0022001068,1,458,458,3,0,1610612749
30,1610612749,1628382,1629091,1629670,201952,203648,1610612741,1626245,1627756,1628374,1629632,1629653,0022001068,1,479,482,0,1,1610612741
31,1610612749,1628382,1629091,1629670,201952,203648,1610612741,1626245,1627756,1628374,1629632,1629653,0022001068,1,496,499,0,0,1610612749
32,1610612749,1628382,1629091,1629670,201952,203648,1610612741,1626245,1627756,1628374,1629632,1629653,0022001068,1,515,531,0,2,1610612741
33,1610612749,1628382,1629091,1629670,1630241,203648,1610612741,1626245,1627756,1627853,1629653,1629750,0022001068,1,549,549,2,0,1610612749
34,1610612749,1628382,1629091,1629670,1630241,203648,1610612741,1626245,1627756,1627853,1629653,1629750,0022001068,1,560,562,0,2,1610612741
35,1610612749,1628382,1629091,1629670,1630241,203648,1610612741,1626245,1627756,1627853,1629653,1629750,0022001068,1,570,584,0,0,1610612749
36,1610612749,1628382,1629091,1629603,1629670,203648,1610612741,1626245,1627756,1627853,1629653,1629750,0022001068,1,591,594,0,2,1610612741
37,1610612749,1628382,1629091,1629603,1629670,203648,1610612741,1626245,1627756,1627853,1629653,1629750,0022001068,1,604,604,0,0,1610612749
38,1610612749,1628382,1629091,1629603,1629670,203648,1610612741,1626245,1627756,1627853,1629653,1629750,0022001068,1,608,608,0,2,1610612741
39,1610612749,1628382,1629091,1629603,1629670,203648,1610612741,1626245,1627756,1627853,1629653,1629750,0022001068,1,621,625,0,0,1610612749
40,1610612749,1628382,1629091,1629603,1629670,203648,1610612741,1626245,1627756,1627853,1629653,1629750,0022001068,1,635,636,0,0,1610612741
41,1610612749,1628382,1629091,1629603,1629670,203648,1610612741,1626245,1627756,1627853,1629653,1629750,0022001068,1,638,640,2,0,1610612749
42,1610612749,1628382,1629091,1629603,1629670,203648,1610612741,1626245,1627756,1627853,1629653,1629750,0022001068,1,663,663,0,3,1610612741
43,1610612749,1628382,1629091,1629603,1629670,203648,1610612741,1626245,1627756,1627853,1629653,1629750,0022001068,1,670,670,0,0,1610612749
44,1610612749,1628382,1629091,1629603,1629670,203648,1610612741,1626245,1627756,1627853,1629653,1629750,0022001068,1,672,672,0,2,1610612741
45,1610612749,1628382,1629091,1629603,1629670,203648,1610612741,1626245,1627756,1627853,1629653,1629750,0022001068,1,687,687,0,0,1610612749
46,1610612749,1628382,1629091,1629603,1629670,203648,1610612741,1626245,1627756,1627853,1629653,1629750,0022001068,1,703,703,0,0,1610612741
47,1610612749,1628382,1629091,1629603,1629670,203648,1610612741,1626245,1627756,1627853,1629653,1629750,0022001068,1,716,719,0,0,1610612749
48,1610612749,1629603,1626192,201952,1629670,1628382,1610612741,1626245,1629653,1627756,1629750,1627853,0022001068,2,720,740,0,0,1610612749
49,1610612749,1629603,1626192,201952,1629670,1628382,1610612741,1626245,1629653,1627756,1629750,1627853,0022001068,2,744,744,0,3,1610612741
50,1610612749,1629603,1626192,201952,1629670,1628382,1610612741,1626245,1629653,1627756,1629750,1627853,0022001068,2,759,759,2,0,1610612749
51,1610612749,1629603,1626192,201952,1629670,1628382,1610612741,1626245,1629653,1627756,1629750,1627853,0022001068,2,772,772,0,2,1610612741
52,1610612749,1629603,1626192,201952,1629670,1628382,1610612741,1626245,1629653,1627756,1629750,1627853,0022001068,2,791,793,0,0,1610612749
53,1610612749,1629603,1626192,201952,1629670,1628382,1610612741,1626245,1629653,1627756,1629750,1627853,0022001068,2,807,809,0,0,1610612741
54,1610612749,1629603,1626192,201952,1629670,1628382,1610612741,1626245,1629653,1627756,1629750,1627853,0022001068,2,818,818,2,0,1610612749
55,1610612749,1626192,1628382,1629603,1630241,201952,1610612741,1626245,1629653,1627756,1629750,1627853,0022001068,2,837,841,0,0,1610612741
56,1610612749,1626192,1628382,1629603,1630241,201952,1610612741,1626245,1629653,1627756,1629750,1627853,0022001068,2,846,846,2,0,1610612749
57,1610612749,1626192,1628382,1629603,1630241,201952,1610612741,1627756,1627853,1629653,1629750,201152,0022001068,2,864,864,0,2,1610612741
58,1610612749,1626192,1628382,1629603,1630241,201952,1610612741,1627756,1627853,1629653,1629750,201152,0022001068,2,880,880,2,0,1610612749
59,1610612749,1626192,1628382,1629603,1630241,201952,1610612741,1627756,1627853,1629653,1629750,201152,0022001068,2,895,897,0,0,1610612741
60,1610612749,1626192,1628382,1629603,1630241,201952,1610612741,1627756,1627853,1629653,1629750,201152,0022001068,2,900,906,0,0,1610612749
61,1610612749,1626192,1628382,1629603,1630241,201952,1610612741,1627756,1627853,1629653,1629750,201152,0022001068,2,918,921,0,0,1610612741
62,1610612749,1626192,1628382,1629603,1630241,201952,1610612741,1627756,1627853,1629653,1629750,201152,0022001068,2,927,929,0,0,1610612749
63,1610612749,1626192,1628382,1629603,1630241,201952,1610612741,1627756,1627853,1629653,1629750,201152,0022001068,2,933,933,0,2,1610612741
64,1610612749,1626192,1628382,1629603,1630241,201952,1610612741,1627756,1627853,1629653,1629750,201152,0022001068,2,933,949,2,0,1610612749
65,1610612749,1626192,1629091,1630241,201952,203648,1610612741,1627853,1629653,1629750,1630172,201152,0022001068,2,962,962,0,2,1610612741
66,1610612749,1626192,1629091,1630241,201952,203648,1610612741,1627853,1629653,1629750,1630172,201152,0022001068,2,977,979,0,0,1610612749
67,1610612749,1626192,1629091,1630241,201952,203648,1610612741,1627853,1629653,1629750,1630172,201152,0022001068,2,997,997,0,2,1610612741
68,1610612749,1626192,1629091,1630241,201952,203648,1610612741,1628374,1629632,1630172,201152,202066,0022001068,2,1008,1010,0,0,1610612749
69,1610612749,1626192,1629091,1630241,201952,203648,1610612741,1628374,1629632,1630172,201152,202066,0022001068,2,1016,1016,0,0,1610612741
70,1610612749,1626192,1629091,1630241,201952,203648,1610612741,1628374,1629632,1630172,201152,202066,0022001068,2,1024,1024,2,0,1610612749
71,1610612749,1626192,1629091,1630241,201952,203648,1610612741,1628374,1629632,1630172,201152,202066,0022001068,2,1048,1048,0,2,1610612741
72,1610612749,1626192,1629091,1630241,201952,203648,1610612741,1628374,1629632,1630172,201152,202066,0022001068,2,1064,1066,0,0,1610612749
73,1610612749,1626192,1629091,1630241,201952,203648,1610612741,1628374,1629632,1630172,201152,202066,0022001068,2,1078,1078,0,0,1610612741
74,1610612749,1626192,1629091,1630241,201952,203648,1610612741,1628374,1629632,1630172,201152,202066,0022001068,2,1086,1091,2,0,1610612749
75,1610612749,1626192,1629091,1630241,201952,203648,1610612741,1628374,1629632,1630172,201152,202066,0022001068,2,1091,1107,0,0,1610612741
76,1610612749,1626192,1629091,1630241,201952,203648,1610612741,1628374,1629632,1630172,201152,202066,0022001068,2,1113,1125,3,0,1610612749
77,1610612749,1628382,1629091,1629603,1629670,1630241,1610612741,1628374,1629632,1630172,201152,202066,0022001068,2,1138,1147,0,0,1610612741
78,1610612749,1628382,1629091,1629603,1629670,1630241,1610612741,1628374,1629632,1630172,201152,202066,0022001068,2,1152,1155,0,0,1610612749
79,1610612749,1628382,1629091,1629603,1629670,1630241,1610612741,1628374,1629632,1630172,201152,202066,0022001068,2,1160,1160,0,0,1610612741
80,1610612749,1628382,1629091,1629603,1629670,1630241,1610612741,1628374,1629632,1630172,201152,202066,0022001068,2,1173,1173,2,0,1610612749
81,1610612749,1628382,1629091,1629603,1629670,1630241,1610612741,1628374,1629632,1630172,201152,202066,0022001068,2,1190,1207,0,0,1610612741
82,1610612749,1628382,1629091,1629603,1629670,201952,1610612741,1626245,1628374,1629632,1630172,202066,0022001068,2,1208,1211,1,0,1610612749
83,1610612749,1628382,1629091,1629603,1629670,201952,1610612741,1626245,1628374,1629632,1630172,202066,0022001068,2,1224,1224,0,0,1610612741
84,1610612749,1628382,1629091,1629603,1629670,201952,1610612741,1626245,1628374,1629632,1630172,202066,0022001068,2,1228,1230,0,0,1610612749
85,1610612749,1628382,1629091,1629603,1629670,201952,1610612741,1626245,1628374,1629632,1630172,202066,0022001068,2,1241,1241,0,2,1610612741
86,1610612749,1628382,1629091,1629603,1629670,201952,1610612741,1626245,1628374,1629632,1630172,202066,0022001068,2,1257,1260,0,0,1610612749
87,1610612749,1628382,1629091,1629603,1629670,201952,1610612741,1626245,1628374,1629632,1630172,202066,0022001068,2,1271,1271,0,0,1610612741
88,1610612749,1628382,1629091,1629603,1629670,201952,1610612741,1626245,1628374,1629632,1630172,202066,0022001068,2,1278,1278,0,0,1610612749
89,1610612749,1628382,1629091,1629603,1629670,201952,1610612741,1626245,1628374,1629632,1630172,202066,0022001068,2,1288,1288,0,0,1610612741
90,1610612749,1628382,1629091,1629603,1629670,201952,1610612741,1626245,1628374,1629632,1630172,202066,0022001068,2,1296,1296,3,0,1610612749
91,1610612749,1628382,1629091,1629603,1629670,201952,1610612741,1626245,1628374,1629632,1630172,202066,0022001068,2,1316,1321,0,0,1610612741
92,1610612749,1628382,1629091,1629603,1629670,201952,1610612741,1626245,1628374,1629632,1630172,202066,0022001068,2,1327,1327,3,0,1610612749
93,1610612749,1628382,1629091,1629603,1629670,203648,1610612741,1626245,1628374,1629632,1629653,202066,0022001068,2,1339,1339,0,0,1610612741
94,1610612749,1628382,1629091,1629603,1629670,203648,1610612741,1626245,1628374,1629632,1629653,202066,0022001068,2,1357,1357,2,0,1610612749
95,1610612749,1628382,1629091,1629603,1629670,203648,1610612741,1626245,1628374,1629632,1629653,202066,0022001068,2,1377,1377,0,2,1610612741
96,1610612749,1628382,1629091,1629603,1629670,203648,1610612741,1626245,1628374,1629632,1629653,202066,0022001068,2,1392,1392,2,0,1610612749
97,1610612749,1628382,1629091,1629603,1629670,203648,1610612741,1626245,1628374,1629632,1629653,202066,0022001068,2,1409,1411,0,0,1610612741
98,1610612749,1628382,1629091,1629603,1629670,203648,1610612741,1626245,1628374,1629632,1629653,202066,0022001068,2,1411,1411,1,0,1610612749
99,1610612749,1628382,1629603,1629670,1630241,203648,1610612741,1626245,1629632,1629653,1630172,202066,0022001068,2,1423,1423,0,3,1610612741
100,1610612749,1628382,1629603,1629670,1630241,203648,1610612741,1626245,1629632,1629653,1630172,202066,0022001068,2,1433,1436,0,0,1610612749
101,1610612749,1628382,1629603,1629670,1630241,203648,1610612741,1626245,1629632,1629653,1630172,202066,0022001068,2,1440,1440,0,0,1610612749
102,1610612749,1630241,1629603,1626192,201952,1629670,1610612741,1630172,1628374,201152,202066,1629632,0022001068,3,1440,1455,0,0,1610612749
103,1610612749,1630241,1629603,1626192,201952,1629670,1610612741,1630172,1628374,201152,202066,1629632,0022001068,3,1455,1473,0,2,1610612741
104,1610612749,1630241,1629603,1626192,201952,1629670,1610612741,1630172,1628374,201152,202066,1629632,0022001068,3,1489,1492,0,0,1610612749
105,1610612749,1630241,1629603,1626192,201952,1629670,1610612741,1630172,1628374,201152,202066,1629632,0022001068,3,1493,1493,0,0,1610612741
106,1610612749,1630241,1629603,1626192,201952,1629670,1610612741,1630172,1628374,201152,202066,1629632,0022001068,3,1504,1509,2,0,1610612749
107,1610612749,1630241,1629603,1626192,201952,1629670,1610612741,1630172,1628374,201152,202066,1629632,0022001068,3,1531,1531,0,2,1610612741
108,1610612749,1630241,1629603,1626192,201952,1629670,1610612741,1630172,1628374,201152,202066,1629632,0022001068,3,1550,1555,0,0,1610612749
109,1610612749,1630241,1629603,1626192,201952,1629670,1610612741,1630172,1628374,201152,202066,1629632,0022001068,3,1563,1563,0,2,1610612741
110,1610612749,1630241,1629603,1626192,201952,1629670,1610612741,1630172,1628374,201152,202066,1629632,0022001068,3,1580,1586,1,0,1610612749
111,1610612749,1630241,1629603,1626192,201952,1629670,1610612741,1630172,1628374,201152,202066,1629632,0022001068,3,1613,1616,0,0,1610612741
112,1610612749,1630241,1629603,1626192,201952,1629670,1610612741,1630172,1628374,201152,202066,1629632,0022001068,3,1620,1620,0,0,1610612749
113,1610612749,1630241,1629603,1626192,201952,1629670,1610612741,1630172,1628374,201152,202066,1629632,0022001068,3,1636,1642,0,2,1610612741
114,1610612749,1630241,1629603,1626192,201952,1629670,1610612741,1630172,1628374,201152,202066,1629632,0022001068,3,1651,1653,0,0,1610612749
115,1610612749,1630241,1629603,1626192,201952,1629670,1610612741,1630172,1628374,201152,202066,1629632,0022001068,3,1659,1659,0,0,1610612741
116,1610612749,1630241,1629603,1626192,201952,1629670,1610612741,1630172,1628374,201152,202066,1629632,0022001068,3,1661,1661,2,0,1610612749
117,1610612749,1630241,1629603,1626192,201952,1629670,1610612741,1630172,1628374,201152,202066,1629632,0022001068,3,1662,1672,0,2,1610612741
118,1610612749,1626192,1628382,1629091,1629670,201952,1610612741,1630172,1628374,201152,202066,1629632,0022001068,3,1685,1687,0,0,1610612749
119,1610612749,1626192,1628382,1629091,1629670,201952,1610612741,1630172,1628374,201152,202066,1629632,0022001068,3,1688,1688,0,3,1610612741
120,1610612749,1626192,1628382,1629091,1629670,201952,1610612741,1628374,1629632,1629750,1630172,202066,0022001068,3,1699,1699,2,0,1610612749
121,1610612749,1626192,1628382,1629091,1629670,201952,1610612741,1628374,1629632,1629750,1630172,202066,0022001068,3,1718,1718,0,2,1610612741
122,1610612749,1626192,1628382,1629091,1629670,201952,1610612741,1628374,1629632,1629750,1630172,202066,0022001068,3,1730,1730,0,0,1610612749
123,1610612749,1626192,1628382,1629091,1629670,201952,1610612741,1628374,1629632,1629750,1630172,202066,0022001068,3,1740,1742,0,0,1610612741
124,1610612749,1626192,1628382,1629091,1629670,201952,1610612741,1628374,1629632,1629750,1630172,202066,0022001068,3,1748,1748,3,0,1610612749
125,1610612749,1626192,1628382,1629091,1629670,201952,1610612741,1628374,1629632,1629750,1630172,202066,0022001068,3,1774,1774,0,2,1610612741
126,1610612749,1626192,1628382,1629091,1629670,201952,1610612741,1628374,1629632,1629750,1630172,202066,0022001068,3,1781,1785,2,0,1610612749
127,1610612749,1626192,1628382,1629091,1629670,201952,1610612741,1628374,1629632,1629750,1630172,202066,0022001068,3,1786,1808,0,0,1610612741
128,1610612749,1626192,1628382,1629091,1629603,201952,1610612741,1628374,1629632,1629750,1630172,202066,0022001068,3,1815,1815,2,0,1610612749
129,1610612749,1626192,1628382,1629091,1629603,201952,1610612741,1628374,1629632,1629750,1630172,202066,0022001068,3,1829,1829,0,0,1610612741
130,1610612749,1626192,1628382,1629091,1629603,201952,1610612741,1628374,1629632,1629750,1630172,202066,0022001068,3,1835,1835,2,0,1610612749
131,1610612749,1626192,1628382,1629091,1629603,201952,1610612741,1628374,1629632,1629750,1630172,202066,0022001068,3,1847,1847,0,2,1610612741
132,1610612749,1626192,1628382,1629091,1629603,201952,1610612741,1628374,1629632,1629750,1630172,202066,0022001068,3,1864,1864,2,0,1610612749
133,1610612749,1626192,1628382,1629091,1629603,201952,1610612741,1628374,1629632,1629750,1630172,202066,0022001068,3,1889,1889,0,2,1610612741
134,1610612749,1626192,1628382,1629091,1629603,201952,1610612741,1628374,1629632,1629750,1630172,202066,0022001068,3,1904,1904,2,0,1610612749
135,1610612749,1626192,1628382,1629091,1629603,201952,1610612741,1628374,1629632,1629750,1630172,202066,0022001068,3,1918,1918,0,3,1610612741
136,1610612749,1626192,1628382,1629091,1629603,201952,1610612741,1628374,1629632,1629750,1630172,202066,0022001068,3,1934,1934,3,0,1610612749
137,1610612749,1626192,1628382,1629091,1629603,201952,1610612741,1628374,1629632,1629750,1630172,202066,0022001068,3,1953,1953,0,3,1610612741
138,1610612749,1626192,1628382,1629091,1629603,201952,1610612741,1628374,1629632,1629750,1630172,202066,0022001068,3,1958,1969,0,0,1610612749
139,1610612749,1628382,1629091,1629603,1629670,1630241,1610612741,1626245,1629632,1629653,1629750,1630172,0022001068,3,1969,1981,0,2,1610612741
140,1610612749,1628382,1629091,1629603,1629670,1630241,1610612741,1626245,1629632,1629653,1629750,1630172,0022001068,3,1993,2002,3,0,1610612749
141,1610612749,1628382,1629091,1629603,1629670,1630241,1610612741,1626245,1629632,1629653,1629750,1630172,0022001068,3,2020,2024,0,0,1610612741
142,1610612749,1628382,1629091,1629603,1629670,1630241,1610612741,1626245,1629632,1629653,1629750,1630172,0022001068,3,2034,2034,0,0,1610612749
143,1610612749,1628382,1629091,1629603,1629670,1630241,1610612741,1626245,1629632,1629653,1629750,1630172,0022001068,3,2045,2047,0,1,1610612741
144,1610612749,1628382,1629091,1629603,1629670,1630241,1610612741,1626245,1627756,1627853,1629653,1629750,0022001068,3,2059,2059,3,0,1610612749
145,1610612749,1628382,1629091,1629603,1629670,1630241,1610612741,1626245,1627756,1627853,1629653,1629750,0022001068,3,2075,2075,0,2,1610612741
146,1610612749,1628382,1629091,1629603,1629670,1630241,1610612741,1626245,1627756,1627853,1629653,1629750,0022001068,3,2091,2091,2,0,1610612749
147,1610612749,1628382,1629091,1629603,1629670,1630241,1610612741,1626245,1627756,1627853,1629653,1629750,0022001068,3,2108,2108,0,2,1610612741
148,1610612749,1628382,1629091,1629603,1629670,1630241,1610612741,1626245,1627756,1627853,1629653,1629750,0022001068,3,2120,2122,0,0,1610612749
149,1610612749,1628382,1629091,1629603,1629670,1630241,1610612741,1626245,1627756,1627853,1629653,1629750,0022001068,3,2125,2125,0,2,1610612741
150,1610612749,1628382,1629091,1629603,1629670,1630241,1610612741,1626245,1627756,1627853,1629653,1629750,0022001068,3,2139,2143,0,0,1610612749
151,1610612749,1628382,1629091,1629603,1629670,1630241,1610612741,1626245,1627756,1627853,1629653,1629750,0022001068,3,2157,2157,0,0,1610612741
152,1610612749,1630241,1629603,1626192,201952,1629670,1610612741,1626245,1629653,1627756,1629750,1627853,0022001068,4,2160,2186,0,0,1610612741
153,1610612749,1630241,1629603,1626192,201952,1629670,1610612741,1626245,1629653,1627756,1629750,1627853,0022001068,4,2190,2193,0,0,1610612749
154,1610612749,1630241,1629603,1626192,201952,1629670,1610612741,1626245,1629653,1627756,1629750,1627853,0022001068,4,2208,2211,0,0,1610612741
155,1610612749,1630241,1629603,1626192,201952,1629670,1610612741,1626245,1629653,1627756,1629750,1627853,0022001068,4,2224,2224,2,0,1610612749
156,1610612749,1630241,1629603,1626192,201952,1629670,1610612741,1626245,1629653,1627756,1629750,1627853,0022001068,4,2247,2247,0,3,1610612741
157,1610612749,1630241,1629603,1626192,201952,1629670,1610612741,1626245,1629653,1627756,1629750,1627853,0022001068,4,2261,2261,2,0,1610612749
158,1610612749,1630241,1629603,1626192,201952,1629670,1610612741,1626245,1629653,1627756,1629750,1627853,0022001068,4,2279,2279,0,3,1610612741
159,1610612749,1630241,1629603,1626192,201952,1629670,1610612741,1626245,1629653,1627756,1629750,1627853,0022001068,4,2298,2298,0,0,1610612749
160,1610612749,1630241,1629603,1626192,201952,1629670,1610612741,1626245,1629653,1627756,1629750,1627853,0022001068,4,2308,2308,0,3,1610612741
161,1610612749,1630241,1629603,1626192,201952,1629670,1610612741,1626245,1629653,1627756,1629750,1627853,0022001068,4,2310,2335,0,0,1610612749
162,1610612749,1626192,1628382,1629091,1629670,201952,1610612741,1627756,1627853,1629653,1629750,201152,0022001068,4,2349,2359,0,2,1610612741
163,1610612749,1626192,1628382,1629091,1629670,201952,1610612741,1627756,1627853,1629653,1629750,201152,0022001068,4,2382,2382,3,0,1610612749
164,1610612749,1626192,1628382,1629091,1629670,201952,1610612741,1627756,1627853,1629653,1629750,201152,0022001068,4,2394,2403,0,0,1610612741
165,1610612749,1628382,1629091,1629603,1629670,201952,1610612741,1627756,1627853,1629653,1629750,201152,0022001068,4,2405,2408,0,0,1610612749
166,1610612749,1628382,1629091,1629603,1629670,201952,1610612741,1627756,1627853,1629653,1629750,201152,0022001068,4,2412,2412,0,0,1610612741
167,1610612749,1628382,1629091,1629603,1629670,201952,1610612741,1627756,1627853,1629653,1629750,201152,0022001068,4,2414,2423,2,0,1610612749
168,1610612749,1628382,1629091,1629603,1629670,1630241,1610612741,1627756,1627853,1629653,1629750,201152,0022001068,4,2437,2440,0,0,1610612741
169,1610612749,1628382,1629091,1629603,1629670,1630241,1610612741,1627756,1627853,1629653,1629750,201152,0022001068,4,2448,2448,0,0,1610612749
170,1610612749,1628382,1629091,1629603,1629670,1630241,1610612741,1627756,1627853,1629653,1629750,201152,0022001068,4,2454,2454,0,2,1610612741
171,1610612749,1628382,1629091,1629603,1629670,1630241,1610612741,1627756,1627853,1629653,1629750,201152,0022001068,4,2464,2479,0,0,1610612749
172,1610612749,1628382,1629091,1629603,1629670,1630241,1610612741,1627756,1627853,1629653,1629750,201152,0022001068,4,2479,2494,0,2,1610612741
173,1610612749,1628382,1629091,1629603,1629670,1630241,1610612741,1627756,1627853,1629653,1629750,201152,0022001068,4,2494,2509,1,0,1610612749
174,1610612749,1628382,1629091,1629603,1629670,1630241,1610612741,1627756,1627853,1629653,1629750,201152,0022001068,4,2532,2535,0,0,1610612741
175,1610612749,1628382,1629091,1629603,1629670,1630241,1610612741,1627756,1627853,1629653,1629750,201152,0022001068,4,2548,2555,2,0,1610612749
176,1610612749,1628382,1629091,1629603,1629670,1630241,1610612741,1627756,1627853,1629653,1629750,201152,0022001068,4,2570,2570,0,0,1610612741
177,1610612749,1628382,1629091,1629603,1629670,1630241,1610612741,1627756,1627853,1629653,1629750,201152,0022001068,4,2571,2571,1,0,1610612749
178,1610612749,1628382,1629091,1629603,1629670,1630241,1610612741,1627756,1629632,1630172,201152,202066,0022001068,4,2597,2597,0,3,1610612741
179,1610612749,1628382,1629091,1629603,1629670,1630241,1610612741,1627756,1629632,1630172,201152,202066,0022001068,4,2617,2620,0,0,1610612749
180,1610612749,1628382,1629091,1629603,1629670,1630241,1610612741,1627756,1629632,1630172,201152,202066,0022001068,4,2628,2628,0,2,1610612741
181,1610612749,1628382,1629091,1629603,1629670,201952,1610612741,1627756,1629632,1630172,201152,202066,0022001068,4,2646,2646,2,0,1610612749
182,1610612749,1628382,1629091,1629603,1629670,201952,1610612741,1627756,1629632,1630172,201152,202066,0022001068,4,2663,2663,0,2,1610612741
183,1610612749,1628382,1629091,1629603,1629670,201952,1610612741,1627756,1629632,1630172,201152,202066,0022001068,4,2671,2671,3,0,1610612749
184,1610612749,1628382,1629091,1629603,1629670,201952,1610612741,1627756,1629632,1630172,201152,202066,0022001068,4,2674,2699,0,1,1610612741
185,1610612749,1628382,1629091,1629603,1629670,201952,1610612741,1627756,1629632,1630172,201152,202066,0022001068,4,2707,2710,0,0,1610612749
186,1610612749,1628382,1629091,1629603,1629670,201952,1610612741,1627756,1629632,1630172,201152,202066,0022001068,4,2723,2726,0,0,1610612741
187,1610612749,1628382,1629091,1629603,1629670,201952,1610612741,1627756,1629632,1630172,201152,202066,0022001068,4,2731,2731,3,0,1610612749
188,1610612749,1628382,1629091,1629603,1629670,201952,1610612741,1627756,1629632,1630172,201152,202066,0022001068,4,2753,2755,0,0,1610612741
189,1610612749,1628382,1629091,1629603,1629670,201952,1610612741,1627756,1629632,1630172,201152,202066,0022001068,4,2758,2758,0,0,1610612749
190,1610612749,1628382,1629091,1629603,1629670,1630241,1610612741,1627756,1629632,1630172,201152,202066,0022001068,4,2776,2777,0,0,1610612741
191,1610612749,1628382,1629091,1629603,1629670,1630241,1610612741,1627756,1629632,1630172,201152,202066,0022001068,4,2787,2787,2,0,1610612749
192,1610612749,1628382,1629091,1629603,1629670,1630241,1610612741,1627756,1629632,1630172,201152,202066,0022001068,4,2807,2807,0,0,1610612741
193,1610612749,1628382,1629091,1629603,1629670,1630241,1610612741,1627756,1629632,1630172,201152,202066,0022001068,4,2811,2814,0,0,1610612749
194,1610612749,1628382,1629091,1629603,1629670,201952,1610612741,1628374,1629632,1630172,201152,202066,0022001068,4,2824,2824,0,0,1610612741
195,1610612749,1628382,1629091,1629603,1629670,201952,1610612741,1628374,1629632,1630172,201152,202066,0022001068,4,2834,2838,0,0,1610612749
196,1610612749,1628382,1629091,1629603,1629670,201952,1610612741,1628374,1629632,1630172,201152,202066,0022001068,4,2843,2843,0,0,1610612741
197,1610612749,1628382,1629091,1629603,1629670,201952,1610612741,1628374,1629632,1630172,201152,202066,0022001068,4,2845,2845,2,0,1610612749
198,1610612749,1628382,1629091,1629603,1629670,201952,1610612741,1628374,1629632,1630172,201152,202066,0022001068,4,2849,2849,0,1,1610612741
199,1610612749,1628382,1629091,1629603,1629670,201952,1610612741,1628374,1629632,1630172,201152,202066,0022001068,4,2849,2854,0,0,1610612749
200,1610612749,1628382,1629091,1629603,1629670,201952,1610612741,1629632,1629750,1630172,201152,202066,0022001068,4,2854,2854,0,1,1610612741
201,1610612749,1628382,1629091,1629603,1629670,201952,1610612741,1629632,1629750,1630172,201152,202066,0022001068,4,2861,2862,0,0,1610612749
202,1610612749,1628382,1629091,1629603,1629670,201952,1610612741,1629632,1629750,1630172,201152,202066,0022001068,4,2862,2862,0,2,1610612741
203,1610612749,1628382,1629091,1629603,1629670,201952,1610612741,1629632,1629750,1630172,201152,202066,0022001068,4,2868,2868,2,0,1610612749
