,TEAM_ID_1,TEAM_1_PLAYERS,TEAM_ID_2,TEAM_2_PLAYERS,PERIOD
0,1610612757,[1627884  203496  203994  203468  203081],1610612744,[ 203952  203110 1630164 1626162  201939],1
1,1610612757,[ 203496  203468 1629018    2546  202683],1610612744,[ 203952  203145 1629672 1627814  202954],2
2,1610612757,[1627884  203496  203994  203468  203081],1610612744,[ 203952  203110 1630164 1626162  201939],3
3,1610612757,[ 203468 1629018    2546  202683 1629014],1610612744,[ 203952  203145 1629672 1627814  202954],4
