,TEAM_ID_1,TEAM_1_PLAYERS,TEAM_ID_2,TEAM_2_PLAYERS,PERIOD
0,1610612757,[1626181  203496  203994  203468  203081],1610612743,[1629008  203932  203999  203085 1630267],1
1,1610612757,[1626181  203468    2546 1629014  202683],1610612743,[1629008 1628420  203210 1630210  200794],2
2,1610612757,[1626181  203496  203994  203468  203081],1610612743,[1629008  203932  203999  203085 1630267],3
3,1610612757,[1626181  203468    2546 1629014  202683],1610612743,[1629008 1628420  203210 1630210  200794],4
