,TEAM_ID_1,TEAM_1_PLAYERS,TEAM_ID_2,TEAM_2_PLAYERS,PERIOD
0,1610612766,[ 202330 1629023  202687 1626179 1630163],1610612750,[1627774 1629020 1626157 1630162  201937],1
1,1610612766,[ 202330 1629023 1630163 1628970 1628370],1610612750,[1629669 1630183 1629162 1629633 1629675],2
2,1610612766,[ 202330 1629023  202687 1626179 1630163],1610612750,[1627774 1629020 1626157 1630162  201937],3
3,1610612766,[ 202330 1629023 1630163 1628970 1628370],1610612750,[1627774 1626157 1630183 1629162 1629633],4
