,t1_pm,t2_pm,stint_start,t2_points_scored,t2_players,t2_id,t1_id,t1_players,stint_end,t1_points_scored,margin_per_100,num_poss
0,0,0,0,15,"[1627741, 203084, 1628963, 202709, 1628368]",1610612758,1610612751,"[1628971, 203925, 201145, 202681, 201935]",303,15,0.0,21.0
1,0,0,304,26,"[1627741, 203084, 1628963, 202709, 1628368]",1610612758,1610612751,"[1628971, 203925, 201145, 202681, 201935]",500,26,0.0,38.0
2,-1,1,501,31,"[1627741, 1628368, 1630169, 202709, 203084]",1610612758,1610612751,"[1628971, 203925, 201145, 202681, 201935]",559,30,-2.380952380952381,42.0
3,0,0,560,33,"[1627741, 1628368, 1630169, 202355, 203084]",1610612758,1610612751,"[1627789, 1628971, 201599, 202681, 204020]",667,33,0.0,51.0
4,-1,1,668,37,"[1627741, 1628368, 1630169, 202355, 203922]",1610612758,1610612751,"[1627789, 1629013, 201599, 202681, 204020]",719,36,-1.8181818181818181,55.0
5,1,-1,720,43,"[1627741, 1630169, 202355, 202357, 203922]",1610612758,1610612751,"[1627789, 1629013, 201599, 202681, 204020]",917,44,1.4705882352941175,68.0
6,3,-3,918,43,"[202709, 1630169, 202355, 203922, 202357]",1610612758,1610612751,"[201935, 1627789, 204020, 201599, 1629013]",961,46,4.285714285714286,70.0
7,2,-2,962,46,"[1628368, 1628963, 1630169, 202357, 203084]",1610612758,1610612751,"[201935, 1627789, 204020, 201599, 1629013]",1019,48,2.7027027027027026,74.0
8,9,-9,1020,49,"[1627741, 1628368, 1628963, 1630169, 203084]",1610612758,1610612751,"[201935, 1627789, 204020, 201599, 1629013]",1113,58,10.975609756097562,82.0
9,12,-12,1114,52,"[1627741, 1628368, 1628963, 1630169, 203084]",1610612758,1610612751,"[1629013, 201599, 201935, 203925, 204020]",1215,64,13.953488372093023,86.0
10,9,-9,1216,55,"[1627741, 1628368, 1628963, 203084, 203922]",1610612758,1610612751,"[1629013, 201599, 201935, 203925, 204020]",1237,64,10.344827586206897,87.0
11,9,-9,1238,55,"[1627741, 1628368, 1628963, 1629610, 203922]",1610612758,1610612751,"[1629013, 201599, 201935, 202681, 203925]",1246,64,10.227272727272728,88.0
12,5,-5,1247,63,"[1627741, 1628368, 1629610, 202355, 203922]",1610612758,1610612751,"[1629013, 201599, 201935, 202681, 203925]",1393,68,5.1020408163265305,98.0
13,6,-6,1394,68,"[1627741, 1628368, 1629610, 202355, 203922]",1610612758,1610612751,"[1628971, 1629013, 201599, 202681, 203925]",1439,74,5.88235294117647,102.0
14,4,-4,1440,80,"[1627741, 1628368, 1629610, 202355, 203922]",1610612758,1610612751,"[1629013, 201599, 201935, 202681, 203925]",1782,84,3.2,125.0
15,12,-12,1783,80,"[1627741, 203084, 1628963, 202709, 1628368]",1610612758,1610612751,"[1628971, 203925, 201145, 202681, 201935]",1882,92,9.16030534351145,131.0
16,19,-19,1883,80,"[1627741, 1628368, 202355, 202709, 203084]",1610612758,1610612751,"[1628971, 201599, 201935, 202681, 203925]",1973,99,13.86861313868613,137.0
17,18,-18,1974,84,"[1628368, 1630169, 202355, 202709, 203084]",1610612758,1610612751,"[1628971, 201599, 201935, 202681, 203925]",2047,102,12.676056338028168,142.0
18,21,-21,2048,84,"[1629610, 1630169, 202355, 202709, 203922]",1610612758,1610612751,"[1627789, 1628971, 201599, 201935, 202681]",2071,105,14.685314685314685,143.0
19,19,-19,2072,88,"[1629610, 1630169, 202355, 202709, 203922]",1610612758,1610612751,"[1627789, 1628971, 201599, 202681, 204020]",2159,107,12.837837837837837,148.0
20,23,-23,2160,94,"[1629610, 1630169, 202355, 202709, 203922]",1610612758,1610612751,"[1627789, 1629013, 201599, 202681, 204020]",2302,117,14.465408805031446,159.0
21,24,-24,2303,98,"[1627741, 203084, 1628963, 1628368, 1630169]",1610612758,1610612751,"[201935, 1627789, 204020, 201599, 1629013]",2456,122,14.035087719298245,171.0
22,26,-26,2457,102,"[1627741, 203084, 1628963, 1628368, 1630169]",1610612758,1610612751,"[1627789, 1629013, 201145, 201935, 204020]",2549,128,14.857142857142858,175.0
23,18,-18,2550,110,"[1627741, 1630169, 202355, 202709, 203922]",1610612758,1610612751,"[1627789, 1629013, 201145, 201935, 204020]",2652,128,9.89010989010989,182.0
24,14,-14,2653,115,"[1629610, 1630169, 202355, 202709, 203922]",1610612758,1610612751,"[1627789, 1628971, 1629013, 201145, 204020]",2710,129,7.567567567567568,185.0
25,11,-11,2711,121,"[1629610, 1630169, 202355, 202709, 203922]",1610612758,1610612751,"[1627789, 1628971, 1629013, 201145, 202681]",2832,132,5.699481865284974,193.0
26,13,-13,2833,123,"[1629610, 1630169, 202355, 202709, 203922]",1610612758,1610612751,"[1627789, 1629013, 201145, 201599, 202681]",2862,136,6.63265306122449,196.0
27,11,-11,2863,125,"[1629610, 1630169, 202355, 202709, 203922]",1610612758,1610612751,"[1627789, 1629013, 201145, 201599, 204020]",9999999,136,5.583756345177665,197.0
