,TEAM_ID_1,TEAM_1_PLAYERS,TEAM_ID_2,TEAM_2_PLAYERS,PERIOD
0,1610612741,[1630172  201152  202696  203897 1629632],1610612765,[1630180 1629635 1630191 1628402 1630165],1
1,1610612741,[ 201152  203897  202066 1628374  203107],1610612765,[1630180 1630240 1629686 1629076 1626143],2
2,1610612741,[1630172  201152  202696  203897 1629632],1610612765,[1630180 1630191 1630165 1630240 1629076],3
3,1610612741,[1630172  201152  203897  202066  203107],1610612765,[1630180 1629635 1630165 1629686 1626143],4
