,TEAM_ID_1,TEAM_1_PLAYERS,TEAM_ID_2,TEAM_2_PLAYERS,PERIOD
0,1610612745,[ 201569 1630256 1626174 1629645 1630224],1610612762,[ 202711 1626220  203497 1628378  201144],1
1,1610612745,[ 201569 1629726 1630231  203471 1630578],1610612762,[ 203497  201144  203903 1627863 1629672],2
2,1610612745,[ 201569 1630256 1626174 1629645 1630224],1610612762,[ 202711 1626220  203497 1628378  201144],3
3,1610612745,[ 201569 1629726 1630231  203471 1630578],1610612762,[ 203497  201144  203903 1627863 1629672],4
