,t1_points_scored,stint_end,stint_start,t1_id,t1_players,t2_players,t2_id,t2_points_scored,t2_pm,t1_pm,margin_per_100,num_poss
0,9,387,0,1610612744,"[203952, 203110, 1626172, 1629673, 201939]","[1630171, 1629731, 202334, 1629636, 201937]",1610612739,22,13,-13,-52.0,25.0
1,13,459,388,1610612744,"[203952, 203110, 1626172, 1629673, 201939]","[1630171, 1629731, 202334, 1629636, 201937]",1610612739,22,9,-9,-29.03225806451613,31.0
2,15,482,460,1610612744,"[1627780, 1629673, 202357, 203110, 203952]","[1629636, 1629685, 1629731, 1630171, 201567]",1610612739,22,7,-7,-21.21212121212121,33.0
3,21,578,483,1610612744,"[1627780, 1629673, 202357, 203110, 203952]","[1627756, 1629636, 1629685, 1629731, 201567]",1610612739,24,3,-3,-7.5,40.0
4,27,719,579,1610612744,"[1627780, 1629673, 202357, 203110, 203490]","[1627756, 1629685, 1629731, 201567, 201937]",1610612739,29,2,-2,-4.081632653061225,49.0
5,35,899,720,1610612744,"[1627780, 1630228, 201939, 202357, 203490]","[1627756, 1629685, 1630171, 201567, 201937]",1610612739,31,-4,4,6.349206349206349,63.0
6,35,955,900,1610612744,"[201939, 202357, 203490, 1630228, 1627814]","[1630171, 202334, 201937, 1629685, 1627756]",1610612739,33,-2,2,3.0303030303030303,66.0
7,40,1114,956,1610612744,"[1627780, 1627814, 201939, 202357, 203490]","[1629636, 1629731, 1630171, 201937, 202334]",1610612739,41,1,-1,-1.282051282051282,78.0
8,40,1186,1115,1610612744,"[1626172, 1627780, 1627814, 201939, 203952]","[1629636, 1629731, 1630171, 201937, 202334]",1610612739,43,3,-3,-3.6585365853658534,82.0
9,51,1378,1187,1610612744,"[1626172, 1627814, 1629673, 203110, 203952]","[1629636, 1629685, 1629731, 1630171, 202334]",1610612739,51,0,0,0.0,94.0
10,51,1416,1379,1610612744,"[1626172, 1627814, 1629673, 203110, 203952]","[1629636, 1629685, 1629731, 1630171, 201567]",1610612739,54,3,-3,-3.0927835051546393,97.0
11,58,1795,1417,1610612744,"[1629185, 201939, 203110, 203490, 203952]","[1629636, 1629731, 1630171, 201567, 201937]",1610612739,61,3,-3,-2.608695652173913,115.0
12,62,1921,1796,1610612744,"[203952, 203110, 1626172, 1629673, 201939]","[1630171, 1629731, 202334, 1629636, 201937]",1610612739,68,6,-6,-4.878048780487805,123.0
13,65,1979,1922,1610612744,"[1627780, 1629673, 202357, 203110, 203952]","[1629636, 1629731, 1630171, 201567, 201937]",1610612739,74,9,-9,-7.142857142857142,126.0
14,65,2013,1980,1610612744,"[1627780, 1629308, 1629673, 202357, 203110]","[1629685, 1629731, 1630171, 201567, 201937]",1610612739,74,9,-9,-7.086614173228346,127.0
15,68,2085,2014,1610612744,"[1627780, 1629308, 1629673, 202357, 203110]","[1629636, 1629685, 1629731, 1630171, 201567]",1610612739,77,9,-9,-6.923076923076923,130.0
16,68,2155,2086,1610612744,"[1627780, 1629308, 201939, 202357, 203490]","[1629636, 1629685, 1630171, 201567, 202334]",1610612739,79,11,-11,-8.208955223880597,134.0
17,68,2159,2156,1610612744,"[1627780, 1629308, 201939, 202357, 203490]","[1629636, 1629685, 1629731, 201567, 202334]",1610612739,79,11,-11,-8.148148148148149,135.0
18,68,2159,2160,1610612744,"[1626172, 1627780, 1629308, 202357, 203952]","[1629605, 1629636, 1629685, 1629731, 201567]",1610612739,79,11,-11,-8.148148148148149,135.0
19,77,2327,2160,1610612744,"[1626172, 1627780, 1629308, 202357, 203952]","[1629605, 1629636, 1629685, 1629731, 202334]",1610612739,81,4,-4,-2.7586206896551726,145.0
20,79,2367,2328,1610612744,"[201939, 202357, 203490, 1627814, 1629308]","[1630171, 1629731, 202334, 1629636, 201937]",1610612739,81,2,-2,-1.3605442176870748,147.0
21,83,2484,2368,1610612744,"[201939, 202357, 203490, 1627814, 1629308]","[1629731, 1630171, 201567, 201937, 202334]",1610612739,81,-2,2,1.2903225806451613,155.0
22,90,2630,2485,1610612744,"[201939, 202357, 203490, 1627814, 1629308]","[1629636, 1629731, 1630171, 201567, 201937]",1610612739,86,-4,4,2.4242424242424243,165.0
23,92,2656,2631,1610612744,"[1627814, 1629308, 201939, 202357, 203110]","[1629636, 1629731, 1630171, 201567, 201937]",1610612739,86,-6,6,3.614457831325301,166.0
24,99,2795,2657,1610612744,"[1627814, 1629308, 201939, 203110, 203490]","[1629636, 1629731, 1630171, 201567, 201937]",1610612739,88,-11,11,6.2857142857142865,175.0
25,101,2826,2796,1610612744,"[1627814, 1629308, 201939, 203110, 203490]","[1629636, 1629731, 1630171, 201937, 202334]",1610612739,89,-12,12,6.779661016949152,177.0
26,104,2868,2827,1610612744,"[1627814, 1629185, 1629308, 1630228, 203490]","[1627756, 1629605, 1629685, 1630612, 1630698]",1610612739,89,-15,15,8.379888268156424,179.0
27,104,9999999,2869,1610612744,"[1627814, 1629185, 1629308, 1630228, 1630541]","[1627756, 1629605, 1629685, 1630612, 1630698]",1610612739,89,-15,15,8.333333333333332,180.0
