,TEAM_ID_1,TEAM_1_PLAYERS,TEAM_ID_2,TEAM_2_PLAYERS,PERIOD
0,1610612739,[1628374 1630596 1628386 1629012 1629636],1610612766,[ 202330 1628970  203486 1626179 1630163],1
1,1610612739,[1630596 1629012  201937 1626224 1629731],1610612766,[ 202330 1628970 1630163 1628998 1630208],2
2,1610612739,[1628374 1630596 1628386 1629012 1629636],1610612766,[ 202330 1628970  203486 1626179 1630163],3
3,1610612739,[1628386 1629636  201937 1626224 1629731],1610612766,[ 202330 1628970 1630163 1626162 1629023],4
