,TEAM_ID_1,TEAM_1_PLAYERS,TEAM_ID_2,TEAM_2_PLAYERS,PERIOD
0,1610612761,[1630567 1628384 1630173 1629018 1627832],1610612754,[1627747 1627734 1626167 1630537  204456],1
1,1610612761,[1630567 1627832  203920 1628449 1629004],1610612754,[1627747 1627734  204456  203200 1629048],2
2,1610612761,[1630567 1628384 1630173 1629018 1627832],1610612754,[1627734 1626167 1630537  204456  203200],3
3,1610612761,[1630567 1627832  203920 1630625 1629004],1610612754,[1627734 1630537 1629052  202954  203087],4
