,team1_id,team1_player1,team1_player2,team1_player3,team1_player4,team1_player5,team2_id,team2_player1,team2_player2,team2_player3,team2_player4,team2_player5,game_id,period,possession_start,possession_end,team1_points,team2_points,possession_team
0,1610612750,1629006,1629020,1629675,1627736,201937,1610612744,203952,203110,1626172,1626162,201939,0022000266,1,0,19,0,0,1610612750
1,1610612750,1629006,1629020,1629675,1627736,201937,1610612744,203952,203110,1626172,1626162,201939,0022000266,1,29,29,0,2,1610612744
2,1610612750,1629006,1629020,1629675,1627736,201937,1610612744,203952,203110,1626172,1626162,201939,0022000266,1,35,35,2,0,1610612750
3,1610612750,1629006,1629020,1629675,1627736,201937,1610612744,203952,203110,1626172,1626162,201939,0022000266,1,45,47,0,0,1610612744
4,1610612750,1629006,1629020,1629675,1627736,201937,1610612744,203952,203110,1626172,1626162,201939,0022000266,1,65,67,0,0,1610612750
5,1610612750,1629006,1629020,1629675,1627736,201937,1610612744,203952,203110,1626172,1626162,201939,0022000266,1,72,72,0,2,1610612744
6,1610612750,1629006,1629020,1629675,1627736,201937,1610612744,203952,203110,1626172,1626162,201939,0022000266,1,90,95,0,0,1610612750
7,1610612750,1629006,1629020,1629675,1627736,201937,1610612744,203952,203110,1626172,1626162,201939,0022000266,1,109,109,0,3,1610612744
8,1610612750,1629006,1629020,1629675,1627736,201937,1610612744,203952,203110,1626172,1626162,201939,0022000266,1,124,129,2,0,1610612750
9,1610612750,1629006,1629020,1629675,1627736,201937,1610612744,203952,203110,1626172,1626162,201939,0022000266,1,138,143,0,3,1610612744
10,1610612750,1627736,1629006,1629020,1630183,201937,1610612744,203952,203110,1626172,1626162,201939,0022000266,1,162,164,0,0,1610612750
11,1610612750,1627736,1629006,1629020,1630183,201937,1610612744,203952,203110,1626172,1626162,201939,0022000266,1,167,167,0,2,1610612744
12,1610612750,1627736,1629006,1629020,1630183,201937,1610612744,203952,203110,1626172,1626162,201939,0022000266,1,167,186,0,0,1610612750
13,1610612750,1627736,1629006,1629020,1630183,201937,1610612744,203952,203110,1626172,1626162,201939,0022000266,1,203,205,0,0,1610612744
14,1610612750,1627736,1629006,1629020,1630183,201937,1610612744,203952,203110,1626172,1626162,201939,0022000266,1,208,208,0,0,1610612750
15,1610612750,1627736,1629006,1629020,1630183,201937,1610612744,203952,203110,1626172,1626162,201939,0022000266,1,213,213,0,2,1610612744
16,1610612750,1627736,1629006,1629020,1630183,201937,1610612744,203952,203110,1626172,1626162,201939,0022000266,1,213,224,0,0,1610612750
17,1610612750,1627736,1629006,1629020,1630183,201937,1610612744,203952,203110,1626172,1626162,201939,0022000266,1,233,237,0,2,1610612744
18,1610612750,1627736,1629006,1629020,1630183,201937,1610612744,203952,203110,1626172,1626162,201939,0022000266,1,253,255,0,0,1610612750
19,1610612750,1627736,1629006,1629020,1630183,201937,1610612744,203952,203110,1626172,1626162,201939,0022000266,1,262,262,0,3,1610612744
20,1610612750,1627736,1629006,1629020,1630183,201937,1610612744,203952,203110,1626172,1626162,201939,0022000266,1,282,282,2,0,1610612750
21,1610612750,1627736,1629020,1630162,1630183,201937,1610612744,203952,203110,1626172,1626162,201939,0022000266,1,290,290,0,0,1610612744
22,1610612750,1627736,1629020,1630162,1630183,201937,1610612744,203952,203110,1626172,1626162,201939,0022000266,1,295,307,3,0,1610612750
23,1610612750,1627736,1629020,1630162,1630183,201937,1610612744,203952,203110,1626172,1626162,201939,0022000266,1,318,327,0,2,1610612744
24,1610612750,1627736,1629020,1630162,1630183,201937,1610612744,203952,203110,1626172,1626162,201939,0022000266,1,337,337,0,0,1610612750
25,1610612750,1627736,1629020,1630162,1630183,201937,1610612744,203952,203110,1626172,1626162,201939,0022000266,1,343,343,0,0,1610612744
26,1610612750,1627736,1629020,1630162,1630183,201937,1610612744,203952,203110,1626172,1626162,201939,0022000266,1,350,350,2,0,1610612750
27,1610612750,1627736,1629020,1630162,1630183,201937,1610612744,203952,203110,1626172,1626162,201939,0022000266,1,366,366,0,3,1610612744
28,1610612750,1627736,1629020,1630162,1630183,201937,1610612744,203952,203110,1626172,1626162,201939,0022000266,1,380,382,0,0,1610612750
29,1610612750,1627736,1629020,1630162,1630183,201937,1610612744,203952,203110,1626172,1626162,201939,0022000266,1,399,399,0,3,1610612744
30,1610612750,1627736,1629020,1629162,1630162,1630183,1610612744,1628539,1630164,201939,203110,203952,0022000266,1,411,411,0,0,1610612750
31,1610612750,1627736,1629020,1629162,1630162,1630183,1610612744,1628539,1630164,201939,203110,203952,0022000266,1,421,421,0,0,1610612744
32,1610612750,1627736,1629020,1629162,1630162,1630183,1610612744,1628539,1630164,201939,203110,203952,0022000266,1,427,427,0,0,1610612750
33,1610612750,1627736,1629162,1630162,1630183,202334,1610612744,1628539,1630164,201939,203110,203952,0022000266,1,439,443,0,1,1610612744
34,1610612750,1627736,1629162,1630162,1630183,202334,1610612744,1628539,1630164,201939,203110,203952,0022000266,1,452,452,2,0,1610612750
35,1610612750,1627736,1629162,1630162,1630183,202334,1610612744,1628539,1630164,201939,203110,203952,0022000266,1,466,466,0,2,1610612744
36,1610612750,1627736,1629162,1630162,1630183,202334,1610612744,1628539,1630164,201939,203110,203952,0022000266,1,483,483,2,0,1610612750
37,1610612750,1627736,1629162,1630162,1630183,202334,1610612744,1628539,1630164,201939,203110,203952,0022000266,1,491,500,0,0,1610612744
38,1610612750,1627736,1629162,1630162,1630183,202334,1610612744,1628539,1630164,201939,203110,203952,0022000266,1,511,512,0,0,1610612750
39,1610612750,1627736,1629162,1630162,1630183,202334,1610612744,1628539,1630164,201939,203110,203952,0022000266,1,532,533,0,0,1610612744
40,1610612750,1627736,1629162,1630162,1630183,202334,1610612744,1628539,1630164,201939,203110,203952,0022000266,1,545,545,2,0,1610612750
41,1610612750,1629162,1629633,1630162,1630183,202334,1610612744,1628539,1630164,201939,203110,203952,0022000266,1,562,570,0,0,1610612744
42,1610612750,1629162,1629633,1630162,1630183,202334,1610612744,1628539,1630164,201939,203110,203952,0022000266,1,584,586,0,0,1610612750
43,1610612750,1629162,1629633,1630162,1630183,202334,1610612744,1628539,1630164,201939,203110,203952,0022000266,1,592,592,0,0,1610612744
44,1610612750,1629162,1629633,1630162,1630183,202334,1610612744,1628539,1630164,201939,203110,203952,0022000266,1,605,605,2,0,1610612750
45,1610612750,1629162,1629633,1630162,1630183,202334,1610612744,1626162,1627814,1628539,1630164,201939,0022000266,1,618,619,0,0,1610612744
46,1610612750,1629162,1629633,1630162,1630183,202334,1610612744,1626162,1627814,1628539,1630164,201939,0022000266,1,626,626,2,0,1610612750
47,1610612750,1629162,1629633,1630162,1630183,202334,1610612744,1626162,1627814,1628539,1630164,201939,0022000266,1,637,637,0,0,1610612744
48,1610612750,1629162,1629633,1630162,1630183,202334,1610612744,1626162,1627814,1628539,1630164,201939,0022000266,1,650,652,0,0,1610612750
49,1610612750,1629162,1629633,1630162,1630183,202334,1610612744,1626162,1627814,1628539,1630164,201939,0022000266,1,659,659,0,2,1610612744
50,1610612750,1629162,1629633,1630162,1630183,202334,1610612744,1626162,1627814,1628539,1630164,201939,0022000266,1,670,670,2,0,1610612750
51,1610612750,1629162,1629633,1630162,1630183,202334,1610612744,1626162,1627814,1628539,1630164,201939,0022000266,1,684,688,0,0,1610612744
52,1610612750,1629162,1629633,1630162,1630183,202334,1610612744,1626162,1627814,1628539,1630164,201939,0022000266,1,701,701,0,0,1610612750
53,1610612750,1629162,1629633,1630162,1630183,202334,1610612744,1626162,1627814,1628539,1630164,201939,0022000266,1,717,717,0,2,1610612744
54,1610612750,1629162,1629633,1630162,1630183,202334,1610612744,1626162,1627814,1628539,1630164,203145,0022000266,1,719,720,0,0,1610612744
55,1610612750,1629675,1630162,1629162,1629633,1627774,1610612744,1626162,1627814,203145,1629672,202954,0022000266,2,720,741,0,0,1610612744
56,1610612750,1629675,1630162,1629162,1629633,1627774,1610612744,1626162,1627814,203145,1629672,202954,0022000266,2,745,747,0,0,1610612750
57,1610612750,1629675,1630162,1629162,1629633,1627774,1610612744,1626162,1627814,203145,1629672,202954,0022000266,2,766,766,0,3,1610612744
58,1610612750,1629675,1630162,1629162,1629633,1627774,1610612744,1626162,1627814,203145,1629672,202954,0022000266,2,784,785,0,0,1610612750
59,1610612750,1629675,1630162,1629162,1629633,1627774,1610612744,1626162,1627814,203145,1629672,202954,0022000266,2,803,803,0,0,1610612744
60,1610612750,1629675,1630162,1629162,1629633,1627774,1610612744,1626162,1627814,203145,1629672,202954,0022000266,2,806,806,2,0,1610612750
61,1610612750,1629675,1630162,1629162,1629633,1627774,1610612744,1626162,1627814,203145,1629672,202954,0022000266,2,822,823,0,0,1610612744
62,1610612750,1629675,1630162,1629162,1629633,1627774,1610612744,1626162,1627814,203145,1629672,202954,0022000266,2,841,841,2,0,1610612750
63,1610612750,1629675,1630162,1629162,1629633,1627774,1610612744,1626162,1627814,203145,1629672,202954,0022000266,2,856,866,0,0,1610612744
64,1610612750,1629675,1630162,1629162,1629633,1627774,1610612744,1626162,1627814,203145,1629672,202954,0022000266,2,866,866,2,0,1610612750
65,1610612750,1629675,1630162,1629162,1629633,1627774,1610612744,1626162,1627814,203145,1629672,202954,0022000266,2,876,879,0,0,1610612744
66,1610612750,1629675,1630162,1629162,1629633,1627774,1610612744,1626162,1627814,203145,1629672,202954,0022000266,2,885,885,2,0,1610612750
67,1610612750,1629675,1630162,1629162,1629633,1627774,1610612744,1626162,1627814,203145,1629672,202954,0022000266,2,885,898,0,2,1610612744
68,1610612750,1629675,1630162,1629162,1629633,1627774,1610612744,1626162,1627814,203145,1629672,202954,0022000266,2,913,915,0,0,1610612750
69,1610612750,1629675,1630162,1629162,1629633,1627774,1610612744,1626162,1627814,203145,1629672,202954,0022000266,2,928,928,0,2,1610612744
70,1610612750,1629675,1630162,1629162,1629633,1627774,1610612744,1626162,1627814,203145,1629672,202954,0022000266,2,944,946,0,0,1610612750
71,1610612750,1629675,1630162,1629162,1629633,1627774,1610612744,1626162,1627814,203145,1629672,202954,0022000266,2,952,952,0,3,1610612744
72,1610612750,1629675,1630162,1629162,1629633,1627774,1610612744,1626162,1627814,203145,1629672,202954,0022000266,2,973,975,0,0,1610612750
73,1610612750,1629675,1630162,1629162,1629633,1627774,1610612744,1626162,1627814,203145,1629672,202954,0022000266,2,985,988,0,0,1610612744
74,1610612750,1629675,1630162,1629162,1629633,1627774,1610612744,1626162,1627814,203145,1629672,202954,0022000266,2,996,1001,2,0,1610612750
75,1610612750,1629675,1630162,1629162,1629633,1627774,1610612744,1626162,1627814,203145,1629672,202954,0022000266,2,1013,1013,0,2,1610612744
76,1610612750,1629675,1630162,1629162,1629633,1627774,1610612744,1626162,1627814,203145,1629672,202954,0022000266,2,1036,1036,3,0,1610612750
77,1610612750,1629675,1630162,1629162,1629633,1627774,1610612744,1626162,1627814,203145,1629672,202954,0022000266,2,1058,1058,0,2,1610612744
78,1610612750,1629675,1630162,1629162,1629633,1627774,1610612744,1626162,1627814,203145,1629672,202954,0022000266,2,1070,1070,2,0,1610612750
79,1610612750,1629675,1630162,1629162,1629633,1627774,1610612744,1626162,1627814,203145,1629672,202954,0022000266,2,1078,1078,0,3,1610612744
80,1610612750,1629675,1630162,1629162,1629633,1627774,1610612744,1626162,1627814,203145,1629672,202954,0022000266,2,1088,1090,0,0,1610612750
81,1610612750,1629675,1630162,1629162,1629633,1627774,1610612744,1626162,1627814,203145,1629672,202954,0022000266,2,1095,1097,0,0,1610612744
82,1610612750,1629675,1630162,1629162,1629633,1627774,1610612744,1626162,1627814,203145,1629672,202954,0022000266,2,1102,1113,0,0,1610612750
83,1610612750,1627736,1629006,1629020,1629675,201937,1610612744,1629672,201939,202954,203110,203952,0022000266,2,1129,1129,0,2,1610612744
84,1610612750,1627736,1629006,1629020,1629675,201937,1610612744,1629672,201939,202954,203110,203952,0022000266,2,1144,1146,2,0,1610612750
85,1610612750,1627736,1629006,1629020,1629675,201937,1610612744,1629672,201939,202954,203110,203952,0022000266,2,1162,1162,0,3,1610612744
86,1610612750,1627736,1629006,1629020,1629675,201937,1610612744,1629672,201939,202954,203110,203952,0022000266,2,1186,1186,2,0,1610612750
87,1610612750,1627736,1629006,1629020,1629675,201937,1610612744,1629672,201939,202954,203110,203952,0022000266,2,1198,1201,0,2,1610612744
88,1610612750,1627736,1629006,1629020,1629675,201937,1610612744,1629672,201939,202954,203110,203952,0022000266,2,1204,1214,0,0,1610612750
89,1610612750,1627736,1629020,1629633,1630183,201937,1610612744,1626172,201939,202954,203110,203952,0022000266,2,1238,1238,0,3,1610612744
90,1610612750,1627736,1629020,1629633,1630183,201937,1610612744,1626172,201939,202954,203110,203952,0022000266,2,1255,1255,3,0,1610612750
91,1610612750,1627736,1629020,1629633,1630183,201937,1610612744,1626172,201939,202954,203110,203952,0022000266,2,1267,1267,0,3,1610612744
92,1610612750,1627736,1629020,1629633,1630183,201937,1610612744,1626172,201939,202954,203110,203952,0022000266,2,1278,1278,3,0,1610612750
93,1610612750,1627736,1629020,1629633,1630183,201937,1610612744,1626172,201939,202954,203110,203952,0022000266,2,1287,1287,0,0,1610612744
94,1610612750,1627736,1629020,1629633,1630183,201937,1610612744,1626172,201939,202954,203110,203952,0022000266,2,1293,1297,2,0,1610612750
95,1610612750,1627736,1629020,1629633,1630183,201937,1610612744,1626162,1626172,201939,203110,203952,0022000266,2,1311,1313,0,0,1610612744
96,1610612750,1627736,1629020,1629633,1630183,201937,1610612744,1626162,1626172,201939,203110,203952,0022000266,2,1313,1313,2,0,1610612750
97,1610612750,1627736,1629020,1629633,1630183,201937,1610612744,1626162,1626172,201939,203110,203952,0022000266,2,1323,1323,0,2,1610612744
98,1610612750,1627736,1629020,1629633,1630183,201937,1610612744,1626162,1626172,201939,203110,203952,0022000266,2,1339,1340,0,0,1610612750
99,1610612750,1627736,1629020,1629633,1630183,201937,1610612744,1626162,1626172,201939,203110,203952,0022000266,2,1341,1361,0,2,1610612744
100,1610612750,1627736,1629020,1629633,1630183,201937,1610612744,1626162,1626172,201939,203110,203952,0022000266,2,1384,1387,0,0,1610612750
101,1610612750,1627736,1629020,1629633,1630183,201937,1610612744,1626162,1626172,201939,203110,203952,0022000266,2,1390,1401,0,0,1610612744
102,1610612750,1627736,1629020,1629633,1630183,201937,1610612744,1626162,1626172,201939,203110,203952,0022000266,2,1408,1408,2,0,1610612750
103,1610612750,1627736,1629020,1629633,1630183,201937,1610612744,1626162,1626172,201939,203110,203952,0022000266,2,1431,1434,0,0,1610612744
104,1610612750,1627736,1629020,1629633,1630183,201937,1610612744,1626162,1626172,201939,203110,203952,0022000266,2,1440,1462,0,0,1610612744
105,1610612750,1629006,1629020,1629675,1627736,201937,1610612744,203952,203110,1626172,1626162,201939,0022000266,3,1480,1482,0,0,1610612750
106,1610612750,1629006,1629020,1629675,1627736,201937,1610612744,203952,203110,1626172,1626162,201939,0022000266,3,1494,1496,0,0,1610612744
107,1610612750,1629006,1629020,1629675,1627736,201937,1610612744,203952,203110,1626172,1626162,201939,0022000266,3,1506,1506,0,0,1610612750
108,1610612750,1629006,1629020,1629675,1627736,201937,1610612744,203952,203110,1626172,1626162,201939,0022000266,3,1515,1515,0,2,1610612744
109,1610612750,1629006,1629020,1629675,1627736,201937,1610612744,203952,203110,1626172,1626162,201939,0022000266,3,1536,1550,0,0,1610612750
110,1610612750,1629006,1629020,1629675,1627736,201937,1610612744,203952,203110,1626172,1626162,201939,0022000266,3,1556,1556,0,0,1610612744
111,1610612750,1629006,1629020,1629675,1627736,201937,1610612744,203952,203110,1626172,1626162,201939,0022000266,3,1561,1561,2,0,1610612750
112,1610612750,1629006,1629020,1629675,1627736,201937,1610612744,203952,203110,1626172,1626162,201939,0022000266,3,1578,1578,0,3,1610612744
113,1610612750,1629006,1629020,1629675,1627736,201937,1610612744,203952,203110,1626172,1626162,201939,0022000266,3,1592,1592,2,0,1610612750
114,1610612750,1629006,1629020,1629675,1627736,201937,1610612744,203952,203110,1626172,1626162,201939,0022000266,3,1614,1614,0,3,1610612744
115,1610612750,1629006,1629020,1629675,1627736,201937,1610612744,203952,203110,1626172,1626162,201939,0022000266,3,1628,1628,3,0,1610612750
116,1610612750,1629006,1629020,1629675,1627736,201937,1610612744,203952,203110,1626172,1626162,201939,0022000266,3,1645,1647,0,0,1610612744
117,1610612750,1629006,1629020,1629675,1627736,201937,1610612744,203952,203110,1626172,1626162,201939,0022000266,3,1651,1654,2,0,1610612750
118,1610612750,1629006,1629020,1629675,1627736,201937,1610612744,203952,203110,1626172,1626162,201939,0022000266,3,1654,1668,0,2,1610612744
119,1610612750,1629006,1629020,1629675,1627736,201937,1610612744,203952,203110,1626172,1626162,201939,0022000266,3,1687,1687,0,0,1610612750
120,1610612750,1629006,1629020,1629675,1627736,201937,1610612744,203952,203110,1626172,1626162,201939,0022000266,3,1711,1711,0,0,1610612744
121,1610612750,1629006,1629020,1629675,1627736,201937,1610612744,203952,203110,1626172,1626162,201939,0022000266,3,1721,1729,2,0,1610612750
122,1610612750,1629006,1629020,1629675,1627736,201937,1610612744,203952,203110,1626172,1626162,201939,0022000266,3,1737,1737,0,0,1610612744
123,1610612750,1629006,1629020,1629675,1627736,201937,1610612744,203952,203110,1626172,1626162,201939,0022000266,3,1739,1739,2,0,1610612750
124,1610612750,1629006,1629020,1629675,1627736,201937,1610612744,203952,203110,1626172,1626162,201939,0022000266,3,1739,1753,0,2,1610612744
125,1610612750,1629006,1629020,1629675,1627736,201937,1610612744,1628539,1630164,201939,203110,203952,0022000266,3,1771,1773,0,0,1610612750
126,1610612750,1629006,1629020,1629675,1627736,201937,1610612744,1628539,1630164,201939,203110,203952,0022000266,3,1781,1781,0,3,1610612744
127,1610612750,1629006,1629020,1629675,1627736,201937,1610612744,1628539,1630164,201939,203110,203952,0022000266,3,1804,1807,0,0,1610612750
128,1610612750,1629006,1629020,1629675,1627736,201937,1610612744,1628539,1630164,201939,203110,203952,0022000266,3,1812,1815,0,0,1610612744
129,1610612750,1629006,1629020,1629675,1627736,201937,1610612744,1628539,1630164,201939,203110,203952,0022000266,3,1823,1839,3,0,1610612750
130,1610612750,1627736,1629162,1629675,1630162,1630183,1610612744,1628539,1630164,201939,203110,203952,0022000266,3,1857,1860,0,0,1610612744
131,1610612750,1627736,1629162,1629675,1630162,1630183,1610612744,1628539,1630164,201939,203110,203952,0022000266,3,1862,1862,0,0,1610612750
132,1610612750,1627736,1629162,1630162,1630183,202334,1610612744,1628539,1630164,201939,203110,203952,0022000266,3,1875,1877,0,0,1610612744
133,1610612750,1627736,1629162,1630162,1630183,202334,1610612744,1628539,1630164,201939,203110,203952,0022000266,3,1889,1889,1,0,1610612750
134,1610612750,1627736,1629162,1630162,1630183,202334,1610612744,1628539,1630164,201939,203110,203952,0022000266,3,1906,1908,0,0,1610612744
135,1610612750,1627736,1629162,1630162,1630183,202334,1610612744,1628539,1630164,201939,203110,203952,0022000266,3,1927,1927,0,0,1610612750
136,1610612750,1627736,1629162,1630162,1630183,202334,1610612744,1628539,1630164,201939,203110,203952,0022000266,3,1930,1930,0,2,1610612744
137,1610612750,1627736,1629162,1630162,1630183,202334,1610612744,1628539,1630164,201939,203110,203952,0022000266,3,1946,1946,3,0,1610612750
138,1610612750,1627736,1629162,1630162,1630183,202334,1610612744,1628539,1630164,201939,203110,203952,0022000266,3,1957,1957,0,2,1610612744
139,1610612750,1629162,1629633,1630162,1630183,202334,1610612744,1628539,1630164,201939,203110,203952,0022000266,3,1966,1966,2,0,1610612750
140,1610612750,1629162,1629633,1630162,1630183,202334,1610612744,1628539,1630164,201939,203110,203952,0022000266,3,1980,1983,0,0,1610612744
141,1610612750,1629162,1629633,1630162,1630183,202334,1610612744,1628539,1630164,201939,203110,203952,0022000266,3,1990,1992,0,0,1610612750
142,1610612750,1629162,1629633,1630162,1630183,202334,1610612744,1628539,1630164,201939,203110,203952,0022000266,3,1996,1996,0,0,1610612744
143,1610612750,1629162,1629633,1630162,1630183,202334,1610612744,1628539,1630164,201939,203110,203952,0022000266,3,1996,2013,0,0,1610612750
144,1610612750,1629162,1629633,1630162,1630183,202334,1610612744,1628539,1630164,201939,203110,203952,0022000266,3,2014,2014,0,2,1610612744
145,1610612750,1629162,1629633,1630162,1630183,202334,1610612744,1628539,1630164,201939,203110,203145,0022000266,3,2024,2024,2,0,1610612750
146,1610612750,1629162,1629633,1630162,1630183,202334,1610612744,1628539,1630164,201939,203110,203145,0022000266,3,2042,2048,0,2,1610612744
147,1610612750,1629162,1629633,1630162,1630183,202334,1610612744,1628539,1630164,201939,203110,203145,0022000266,3,2062,2062,3,0,1610612750
148,1610612750,1627774,1629162,1630162,1630183,202334,1610612744,1627814,1628539,1630164,201939,203145,0022000266,3,2077,2079,0,2,1610612744
149,1610612750,1627774,1629162,1630162,1630183,202334,1610612744,1627814,1628539,1630164,201939,203145,0022000266,3,2098,2102,2,0,1610612750
150,1610612750,1627774,1629162,1630162,1630183,202334,1610612744,1627814,1628539,1630164,201939,203145,0022000266,3,2111,2113,0,0,1610612744
151,1610612750,1627774,1629162,1630162,1630183,202334,1610612744,1627814,1628539,1630164,201939,203145,0022000266,3,2126,2129,0,0,1610612750
152,1610612750,1627774,1629162,1630162,1630183,202334,1610612744,1627814,1628539,1630164,201939,203145,0022000266,3,2147,2150,0,0,1610612744
153,1610612750,1627774,1629162,1630162,1630183,202334,1610612744,1627814,1628539,1630164,201939,203145,0022000266,3,2157,2160,0,0,1610612744
154,1610612750,1630183,1630162,1629162,202334,1627774,1610612744,1626162,1627814,203145,1629672,202954,0022000266,4,2160,2189,2,0,1610612750
155,1610612750,1630183,1630162,1629162,202334,1627774,1610612744,1626162,1627814,203145,1629672,202954,0022000266,4,2201,2201,0,3,1610612744
156,1610612750,1630183,1630162,1629162,202334,1627774,1610612744,1626162,1627814,203145,1629672,202954,0022000266,4,2218,2218,2,0,1610612750
157,1610612750,1630183,1630162,1629162,202334,1627774,1610612744,1626162,1627814,203145,1629672,202954,0022000266,4,2233,2239,0,2,1610612744
158,1610612750,1630183,1630162,1629162,202334,1627774,1610612744,1626162,1627814,203145,1629672,202954,0022000266,4,2251,2258,0,0,1610612750
159,1610612750,1630183,1630162,1629162,202334,1627774,1610612744,1626162,1627814,203145,1629672,202954,0022000266,4,2269,2272,0,0,1610612744
160,1610612750,1630183,1630162,1629162,202334,1627774,1610612744,1626162,1627814,203145,1629672,202954,0022000266,4,2279,2279,0,0,1610612750
161,1610612750,1630183,1630162,1629162,202334,1627774,1610612744,1626162,1627814,203145,1629672,202954,0022000266,4,2283,2283,0,2,1610612744
162,1610612750,1630183,1630162,1629162,202334,1627774,1610612744,1626162,1627814,203145,1629672,202954,0022000266,4,2306,2308,0,0,1610612750
163,1610612750,1630183,1630162,1629162,202334,1627774,1610612744,1626162,1627814,203145,1629672,202954,0022000266,4,2320,2321,0,0,1610612744
164,1610612750,1627774,1630162,1630183,201937,202334,1610612744,1626162,1627814,203145,1629672,202954,0022000266,4,2331,2341,0,0,1610612750
165,1610612750,1627774,1630162,1630183,201937,202334,1610612744,1626162,1627814,203145,1629672,202954,0022000266,4,2345,2345,0,2,1610612744
166,1610612750,1627774,1630162,1630183,201937,202334,1610612744,1626162,1627814,203145,1629672,202954,0022000266,4,2345,2369,0,0,1610612750
167,1610612750,1627736,1629006,1629675,1630183,201937,1610612744,1626162,1627814,203145,1629672,202954,0022000266,4,2380,2380,0,0,1610612744
168,1610612750,1627736,1629006,1629675,1630183,201937,1610612744,1626162,1627814,203145,1629672,202954,0022000266,4,2398,2398,3,0,1610612750
169,1610612750,1627736,1629006,1629675,1630183,201937,1610612744,1626162,1627814,203145,1629672,202954,0022000266,4,2413,2415,0,1,1610612744
170,1610612750,1627736,1629006,1629020,1629675,201937,1610612744,1626162,1627814,203145,1629672,202954,0022000266,4,2428,2428,0,0,1610612750
171,1610612750,1627736,1629006,1629020,1629675,201937,1610612744,1626162,1627814,203145,1629672,202954,0022000266,4,2435,2439,0,0,1610612744
172,1610612750,1627736,1629006,1629020,1629675,201937,1610612744,1626162,1627814,203145,1629672,202954,0022000266,4,2450,2450,3,0,1610612750
173,1610612750,1627736,1629006,1629020,1629675,201937,1610612744,1626162,1627814,203145,1629672,202954,0022000266,4,2474,2474,0,0,1610612744
174,1610612750,1627736,1629006,1629020,1629675,201937,1610612744,1626162,1627814,203145,1629672,202954,0022000266,4,2475,2475,2,0,1610612750
175,1610612750,1627736,1629006,1629020,1629675,201937,1610612744,1626162,1627814,203145,1629672,202954,0022000266,4,2475,2490,0,3,1610612744
176,1610612750,1627736,1629006,1629020,1629675,201937,1610612744,1626172,201939,202954,203110,203952,0022000266,4,2507,2507,2,0,1610612750
177,1610612750,1627736,1629006,1629020,1629675,201937,1610612744,1626172,201939,202954,203110,203952,0022000266,4,2518,2518,0,2,1610612744
178,1610612750,1627736,1629006,1629020,1629675,201937,1610612744,1626172,201939,202954,203110,203952,0022000266,4,2530,2530,0,0,1610612750
179,1610612750,1627736,1629006,1629020,1629675,201937,1610612744,1626172,201939,202954,203110,203952,0022000266,4,2536,2536,0,3,1610612744
180,1610612750,1627736,1629006,1629020,1629675,201937,1610612744,1626172,201939,202954,203110,203952,0022000266,4,2537,2548,2,0,1610612750
181,1610612750,1627736,1629006,1629020,1629675,201937,1610612744,1626172,201939,202954,203110,203952,0022000266,4,2561,2561,0,2,1610612744
182,1610612750,1627736,1629006,1629020,1629675,201937,1610612744,1626172,201939,202954,203110,203952,0022000266,4,2574,2574,0,0,1610612750
183,1610612750,1627736,1629006,1629020,1629675,201937,1610612744,1626172,201939,202954,203110,203952,0022000266,4,2579,2582,0,0,1610612744
184,1610612750,1627736,1629006,1629020,1629675,201937,1610612744,1626172,201939,202954,203110,203952,0022000266,4,2586,2586,2,0,1610612750
185,1610612750,1627736,1629020,1629675,1630162,201937,1610612744,1626172,201939,202954,203110,203952,0022000266,4,2599,2599,0,2,1610612744
186,1610612750,1627736,1629020,1629675,1630162,201937,1610612744,1626172,201939,202954,203110,203952,0022000266,4,2611,2611,2,0,1610612750
187,1610612750,1627736,1629020,1629675,1630162,201937,1610612744,1626172,201939,202954,203110,203952,0022000266,4,2633,2636,0,0,1610612744
188,1610612750,1627736,1629020,1629675,1630162,201937,1610612744,1626172,201939,202954,203110,203952,0022000266,4,2643,2643,0,0,1610612750
189,1610612750,1627736,1629020,1629675,1630162,201937,1610612744,1626172,201939,202954,203110,203952,0022000266,4,2645,2645,0,3,1610612744
190,1610612750,1627736,1629020,1629675,1630162,201937,1610612744,1626172,201939,202954,203110,203952,0022000266,4,2654,2656,0,0,1610612750
191,1610612750,1627736,1629020,1629675,1630162,201937,1610612744,1626172,201939,202954,203110,203952,0022000266,4,2673,2673,0,3,1610612744
192,1610612750,1627736,1629020,1629675,1630162,201937,1610612744,1626172,201939,202954,203110,203952,0022000266,4,2675,2689,2,0,1610612750
193,1610612750,1627736,1629020,1629675,1630162,201937,1610612744,1630164,201939,202954,203110,203952,0022000266,4,2702,2702,0,2,1610612744
194,1610612750,1627736,1629020,1629675,1630162,201937,1610612744,1630164,201939,202954,203110,203952,0022000266,4,2710,2712,0,0,1610612750
195,1610612750,1627736,1629020,1629675,1630162,201937,1610612744,1630164,201939,202954,203110,203952,0022000266,4,2730,2733,0,1,1610612744
196,1610612750,1627774,1629162,1630162,1630183,1630204,1610612744,1628539,1629673,1630164,1630185,203952,0022000266,4,2738,2746,0,0,1610612750
197,1610612750,1627774,1629162,1630162,1630183,1630204,1610612744,1627814,1628539,1629673,1630164,1630185,0022000266,4,2760,2760,0,0,1610612744
198,1610612750,1627774,1629162,1630162,1630183,1630204,1610612744,1627814,1628539,1629673,1630164,1630185,0022000266,4,2772,2772,3,0,1610612750
199,1610612750,1627774,1629162,1630162,1630183,1630204,1610612744,1627814,1628539,1629673,1630164,1630185,0022000266,4,2781,2781,0,0,1610612744
200,1610612750,1627774,1629162,1630162,1630183,1630204,1610612744,1627814,1628539,1629673,1630164,1630185,0022000266,4,2792,2795,0,0,1610612750
201,1610612750,1627774,1629162,1630162,1630183,1630204,1610612744,1627814,1628539,1629673,1630164,1630185,0022000266,4,2809,2809,0,2,1610612744
202,1610612750,1627774,1629162,1630162,1630183,1630204,1610612744,1627814,1628539,1629673,1630164,1630185,0022000266,4,2820,2822,0,0,1610612750
203,1610612750,1627774,1629162,1630162,1630183,1630204,1610612744,1627814,1628539,1629673,1630164,1630185,0022000266,4,2827,2827,0,2,1610612744
204,1610612750,1627774,1629162,1630162,1630183,1630204,1610612744,1627814,1628539,1629673,1630164,1630185,0022000266,4,2840,2842,0,0,1610612750
205,1610612750,1627774,1629162,1630162,1630183,1630204,1610612744,1627814,1628539,1629673,1630164,1630185,0022000266,4,2849,2849,0,2,1610612744
206,1610612750,1627774,1629162,1630162,1630183,1630204,1610612744,1627814,1628539,1629673,1630164,1630185,0022000266,4,2862,2864,0,0,1610612750
