,TEAM_ID_1,TEAM_1_PLAYERS,TEAM_ID_2,TEAM_2_PLAYERS,PERIOD
0,1610612747,[  2544 203076 201188 203484 203471],1610612759,[1629640  201942 1627751 1629022 1627749],1
1,1610612747,[   2544 1628398  202083 1626149  202693],1610612759,[ 201942  201988 1628401  200752 1629234],2
2,1610612747,[  2544 203076 201188 203484 203471],1610612759,[1629640  201942 1627751 1629022 1627749],3
3,1610612747,[   2544  202083 1626149  202693 1629659],1610612759,[1629640 1627749  201988  200752 1629234],4
