,stint_start,t1_points_scored,t2_pm,stint_end,t1_id,t2_points_scored,t1_players,t2_id,t1_pm,t2_players,margin_per_100,num_poss
0,0,10,-5,382,1610612758,5,"[203084, 202357, 1628385, 203992, 1628368]",1610612746,5,"[202695, 202694, 1627826, 1629013, 202704]",20.0,25.0
1,383,12,-3,416,1610612758,9,"[203084, 202357, 1628385, 203992, 1628368]",1610612746,3,"[202695, 202694, 1627826, 1629013, 202704]",10.714285714285714,28.0
2,417,12,-3,465,1610612758,9,"[1628368, 1628385, 203084, 203145, 203992]",1610612746,3,"[101150, 1627826, 1629013, 202694, 202695]",9.375,32.0
3,466,17,-6,570,1610612758,11,"[1628368, 203084, 203145, 203458, 203992]",1610612746,6,"[101150, 1627826, 1629599, 202694, 202695]",15.0,40.0
4,571,25,-14,707,1610612758,11,"[202709, 203084, 203145, 203458, 203992]",1610612746,14,"[101150, 1626149, 1629599, 202694, 202695]",28.000000000000004,50.0
5,708,34,-14,906,1610612758,20,"[1627741, 202357, 202709, 203145, 203458]",1610612746,14,"[101150, 1626149, 1629599, 203210, 203585]",21.875,64.0
6,907,36,-13,983,1610612758,23,"[202357, 1628385, 203145, 202709, 1627741]",1610612746,13,"[1629013, 101150, 1629599, 1626149, 203210]",18.571428571428573,70.0
7,984,36,-11,1047,1610612758,25,"[1627741, 1628385, 202709, 203084, 203145]",1610612746,11,"[1629013, 101150, 1629599, 1626149, 203210]",14.666666666666666,75.0
8,1048,36,-8,1100,1610612758,28,"[1627741, 1628385, 202709, 203084, 203992]",1610612746,8,"[1626149, 1629013, 202694, 202695, 202704]",10.126582278481013,79.0
9,1101,43,-11,1231,1610612758,32,"[1628368, 202357, 203084, 203458, 203992]",1610612746,11,"[1627826, 1629013, 202694, 202695, 202704]",12.359550561797752,89.0
10,1232,48,-10,1375,1610612758,38,"[1628368, 202357, 203084, 203458, 203992]",1610612746,10,"[101150, 1627826, 202694, 202695, 202704]",10.204081632653061,98.0
11,1376,54,-9,1439,1610612758,45,"[1628368, 1628385, 203084, 203145, 203992]",1610612746,9,"[101150, 1627826, 202694, 202695, 202704]",8.653846153846153,104.0
12,1440,72,-10,1804,1610612758,62,"[1627741, 1628368, 1628385, 203084, 203145]",1610612746,10,"[101150, 1626149, 202694, 202695, 202704]",7.8125,128.0
13,1805,72,-8,1828,1610612758,64,"[203084, 202357, 1628385, 203992, 1628368]",1610612746,8,"[202695, 202694, 1627826, 1629013, 202704]",6.153846153846154,130.0
14,1829,74,-10,1859,1610612758,64,"[203084, 202357, 1628385, 203992, 1628368]",1610612746,10,"[101150, 1627826, 1629013, 202694, 202695]",7.518796992481203,133.0
15,1860,81,-10,1982,1610612758,71,"[1628368, 202357, 203084, 203458, 203992]",1610612746,10,"[101150, 1627826, 1629013, 202694, 202695]",6.944444444444445,144.0
16,1983,83,-9,2021,1610612758,74,"[1628368, 203084, 203145, 203458, 203992]",1610612746,9,"[101150, 1626149, 202694, 202695, 203210]",6.122448979591836,147.0
17,2022,83,-7,2042,1610612758,76,"[1627741, 1628368, 203084, 203145, 203458]",1610612746,7,"[101150, 1626149, 202694, 202695, 203210]",4.697986577181208,149.0
18,2043,88,-7,2094,1610612758,81,"[1627741, 1628368, 203084, 203145, 203458]",1610612746,7,"[101150, 1626149, 1629013, 202695, 203210]",4.57516339869281,153.0
19,2095,88,-7,2141,1610612758,81,"[1627741, 202709, 203084, 203145, 203458]",1610612746,7,"[101150, 1626149, 1629013, 202695, 203210]",4.487179487179487,156.0
20,2142,88,-5,2156,1610612758,83,"[1627741, 202709, 203084, 203145, 203458]",1610612746,5,"[101150, 1626149, 1629013, 1629599, 203210]",3.1645569620253164,158.0
21,2157,92,-4,2312,1610612758,88,"[1627741, 1628368, 202357, 203084, 203145]",1610612746,4,"[1626149, 1629599, 1629611, 202694, 203585]",2.380952380952381,168.0
22,2313,94,-1,2370,1610612758,93,"[202357, 203145, 203458, 202709, 1627741]",1610612746,1,"[1629013, 101150, 1629599, 1626149, 203210]",0.5813953488372093,172.0
23,2371,97,0,2460,1610612758,97,"[1627741, 1628385, 202357, 202709, 203145]",1610612746,0,"[1629013, 101150, 1629599, 1626149, 203210]",0.0,177.0
24,2461,101,0,2606,1610612758,101,"[1628368, 1628385, 203084, 203145, 203992]",1610612746,0,"[101150, 1626149, 1629013, 202695, 203210]",0.0,188.0
25,2607,112,-9,2862,1610612758,103,"[1628368, 1628385, 203084, 203145, 203992]",1610612746,9,"[1626149, 1629013, 202695, 202704, 203210]",4.368932038834951,206.0
26,2863,112,-9,9999999,1610612758,103,"[1628368, 1628385, 203084, 203145, 203992]",1610612746,9,"[101150, 1626149, 1629013, 202694, 202695]",4.3478260869565215,207.0
