,TEAM_ID_1,TEAM_1_PLAYERS,TEAM_ID_2,TEAM_2_PLAYERS,PERIOD
0,1610612766,[ 202330 1629023  203469 1626179 1630163],1610612763,[1628415  203937  202685 1630217 1629630],1
1,1610612766,[ 202330 1629023 1630163 1628970 1628997],1610612763,[1628415  203937 1626145 1629723  203476],2
2,1610612766,[ 202330 1629023  203469 1626179 1630163],1610612763,[1628415  203937  202685 1630217 1629630],3
3,1610612766,[ 202330 1629023 1626179 1628970 1628998],1610612763,[ 203937 1628960 1626145 1629723  203476],4
