,TEAM_ID_1,TEAM_1_PLAYERS,TEAM_ID_2,TEAM_2_PLAYERS,PERIOD
0,1610612751,[ 201142  203925  201145 1629013  204020],1610612754,[1628410 1629052  203960 1627747 1627763],1
1,1610612751,[ 203925 1628993 1628455  201933 1627789],1610612754,[ 203960  203200  203926  204456 1628988],2
2,1610612751,[ 201142  203925  201145 1629013  204020],1610612754,[1628410 1629052  203960 1627747  203926],3
3,1610612751,[ 203925 1628993 1628455  201933 1627789],1610612754,[1629052  203960  204456 1628988 1629103],4
