,t1_pm,t1_id,stint_start,stint_end,t2_points_scored,t2_players,t2_id,t1_players,t2_pm,t1_points_scored,margin_per_100,num_poss
0,-1,1610612744,0,61,1,"[202083, 203114, 1626171, 1628960, 203507]",1610612749,"[202691, 203952, 1626172, 1627780, 201939]",1,0,-16.666666666666664,6.0
1,-9,1610612744,62,277,13,"[202083, 203114, 1626171, 1628960, 203507]",1610612749,"[202691, 203952, 1626172, 1627780, 201939]",9,4,-45.0,20.0
2,-9,1610612744,278,294,13,"[202083, 203114, 1626171, 1628960, 203507]",1610612749,"[1627780, 201939, 202691, 203952, 2738]",9,4,-40.909090909090914,22.0
3,-10,1610612744,295,354,18,"[202083, 203114, 1626171, 1628960, 203507]",1610612749,"[1627780, 1629673, 201939, 203952, 2738]",10,8,-35.714285714285715,28.0
4,-10,1610612744,355,458,22,"[202083, 203114, 1626171, 1628960, 203507]",1610612749,"[1629673, 201939, 203490, 203952, 2738]",10,12,-29.411764705882355,34.0
5,-9,1610612744,459,523,24,"[1626192, 1628960, 1629670, 202083, 203507]",1610612749,"[1629673, 201939, 203490, 203952, 2738]",9,15,-22.5,40.0
6,-8,1610612744,524,625,29,"[1626192, 1628978, 1629670, 201588, 203507]",1610612749,"[1629673, 201939, 203490, 203952, 2738]",8,21,-16.666666666666664,48.0
7,-16,1610612744,626,719,37,"[1626192, 1628978, 1629670, 201588, 203114]",1610612749,"[1627814, 1629673, 1630228, 203490, 2738]",16,21,-29.09090909090909,55.0
8,-22,1610612744,720,878,46,"[1626171, 1628978, 1629670, 201588, 203114]",1610612749,"[1627814, 1629673, 1630228, 203490, 2738]",22,24,-32.83582089552239,67.0
9,-24,1610612744,879,918,48,"[203114, 1626171, 1628978, 201588, 203918]",1610612749,"[201939, 1629673, 1627814, 202357, 1629308]",24,24,-34.285714285714285,70.0
10,-28,1610612744,919,1026,56,"[1626171, 202083, 203114, 203507, 203918]",1610612749,"[201939, 1629673, 1627814, 202357, 1629308]",28,28,-35.8974358974359,78.0
11,-30,1610612744,1027,1058,58,"[1626171, 1628960, 202083, 203507, 203918]",1610612749,"[1626172, 1627814, 1629308, 201939, 203952]",30,28,-37.5,80.0
12,-30,1610612744,1059,1080,58,"[1626192, 1628960, 202083, 203507, 203918]",1610612749,"[1626172, 1627814, 1629308, 201939, 203952]",30,28,-37.03703703703704,81.0
13,-32,1610612744,1081,1096,60,"[1626192, 1628960, 1628978, 202083, 203507]",1610612749,"[1626172, 1627814, 1629308, 201939, 203952]",32,28,-39.02439024390244,82.0
14,-30,1610612744,1097,1182,60,"[1626192, 1628960, 1628978, 202083, 203507]",1610612749,"[1626172, 1627814, 1629308, 1629673, 203952]",30,30,-34.090909090909086,88.0
15,-35,1610612744,1183,1238,65,"[1626192, 1628960, 1628978, 202083, 203507]",1610612749,"[1626172, 1629308, 1629673, 202691, 203952]",35,30,-38.04347826086957,92.0
16,-35,1610612744,1239,1262,67,"[1626192, 1628960, 1628978, 201588, 203507]",1610612749,"[1626172, 201939, 202691, 203490, 203952]",35,32,-37.234042553191486,94.0
17,-32,1610612744,1263,1285,67,"[1628960, 1628978, 201588, 203114, 203507]",1610612749,"[1626172, 201939, 202691, 203490, 203952]",32,35,-33.68421052631579,95.0
18,-36,1610612744,1286,1439,74,"[1626171, 1628960, 1628978, 201588, 203114]",1610612749,"[1626172, 201939, 202691, 203490, 203952]",36,38,-33.9622641509434,106.0
19,-34,1610612744,1440,1800,88,"[1626171, 201588, 202083, 203114, 203507]",1610612749,"[201939, 202691, 203490, 203952, 2738]",34,54,-25.185185185185183,135.0
20,-31,1610612744,1801,1884,90,"[202083, 203114, 1626171, 1628960, 203507]",1610612749,"[202691, 203952, 1626172, 201939, 1629673]",31,59,-21.98581560283688,141.0
21,-30,1610612744,1885,1921,90,"[1626192, 1628960, 1629670, 202083, 203507]",1610612749,"[202691, 203952, 1626172, 201939, 1629673]",30,60,-20.833333333333336,144.0
22,-29,1610612744,1922,1951,92,"[1626192, 1628978, 1629670, 201588, 203507]",1610612749,"[202691, 203952, 1626172, 201939, 1629673]",29,63,-19.863013698630137,146.0
23,-30,1610612744,1952,2052,97,"[1628978, 1629670, 201588, 203114, 203507]",1610612749,"[1629673, 1630228, 201939, 202691, 203952]",30,67,-19.480519480519483,154.0
24,-27,1610612744,2053,2142,97,"[1626192, 1628978, 1629670, 201588, 203114]",1610612749,"[1629673, 1630228, 201939, 202691, 203952]",27,70,-16.77018633540373,161.0
25,-25,1610612744,2143,2159,97,"[1626192, 1628978, 1629670, 201588, 203114]",1610612749,"[1627814, 1629185, 1629673, 1630228, 203490]",25,72,-15.432098765432098,162.0
26,-23,1610612744,2160,2264,100,"[1626171, 1626192, 1628978, 201588, 203114]",1610612749,"[1627814, 1629185, 1629673, 1630228, 203490]",23,77,-13.529411764705882,170.0
27,-18,1610612744,2265,2319,100,"[203114, 1626171, 1628978, 201588, 203918]",1610612749,"[203490, 1630228, 1627814, 202357, 1629185]",18,82,-10.404624277456648,173.0
28,-22,1610612744,2320,2389,104,"[1626171, 1628960, 203114, 203507, 203918]",1610612749,"[1627814, 1629185, 1629308, 1630228, 202357]",22,82,-12.429378531073446,177.0
29,-27,1610612744,2390,2493,109,"[1626192, 1628960, 203114, 203507, 203918]",1610612749,"[1627814, 1629185, 1629308, 1630228, 202357]",27,82,-14.594594594594595,185.0
30,-27,1610612744,2494,2606,111,"[1626192, 1628960, 1629670, 203507, 203918]",1610612749,"[1627814, 1629185, 1629308, 1630228, 202357]",27,84,-14.136125654450263,191.0
31,-27,1610612744,2607,2636,111,"[1628960, 1628978, 1629670, 1630572, 203918]",1610612749,"[1627814, 1629185, 1629308, 1630228, 202357]",27,84,-13.917525773195877,194.0
32,-22,1610612744,2637,2879,118,"[1628400, 1628978, 1629623, 1629670, 203648]",1610612749,"[1627814, 1629185, 1629308, 1630228, 202357]",22,96,-10.377358490566039,212.0
33,-19,1610612744,2880,9999999,118,"[1628400, 1629623, 1629670, 1630572, 203648]",1610612749,"[1627814, 1629185, 1629308, 1630228, 202357]",19,99,-8.92018779342723,213.0
