,team1_id,team1_player1,team1_player2,team1_player3,team1_player4,team1_player5,team2_id,team2_player1,team2_player2,team2_player3,team2_player4,team2_player5,game_id,period,possession_start,possession_end,team1_points,team2_points,possession_team
0,1610612753,1629643,202329,202696,1628407,203487,1610612759,1629640,1626168,1627751,1628401,1627749,0022000583,1,0,14,0,0,1610612759
1,1610612753,1629643,202329,202696,1628407,203487,1610612759,1629640,1626168,1627751,1628401,1627749,0022000583,1,25,32,0,0,1610612753
2,1610612753,1629643,202329,202696,1628407,203487,1610612759,1629640,1626168,1627751,1628401,1627749,0022000583,1,35,35,0,0,1610612759
3,1610612753,1629643,202329,202696,1628407,203487,1610612759,1629640,1626168,1627751,1628401,1627749,0022000583,1,35,55,2,0,1610612753
4,1610612753,1629643,202329,202696,1628407,203487,1610612759,1629640,1626168,1627751,1628401,1627749,0022000583,1,70,73,0,0,1610612759
5,1610612753,1629643,202329,202696,1628407,203487,1610612759,1629640,1626168,1627751,1628401,1627749,0022000583,1,88,88,3,0,1610612753
6,1610612753,1629643,202329,202696,1628407,203487,1610612759,1629640,1626168,1627751,1628401,1627749,0022000583,1,108,112,0,0,1610612759
7,1610612753,1629643,202329,202696,1628407,203487,1610612759,1629640,1626168,1627751,1628401,1627749,0022000583,1,113,113,0,0,1610612753
8,1610612753,1629643,202329,202696,1628407,203487,1610612759,1629640,1626168,1627751,1628401,1627749,0022000583,1,129,132,0,0,1610612759
9,1610612753,1629643,202329,202696,1628407,203487,1610612759,1629640,1626168,1627751,1628401,1627749,0022000583,1,134,134,2,0,1610612753
10,1610612753,1629643,202329,202696,1628407,203487,1610612759,1626168,1627749,1627751,1629022,1629640,0022000583,1,146,146,0,2,1610612759
11,1610612753,1629643,202329,202696,1628407,203487,1610612759,1626168,1627749,1627751,1629022,1629640,0022000583,1,164,166,0,0,1610612753
12,1610612753,1629643,202329,202696,1628407,203487,1610612759,1626168,1627749,1627751,1629022,1629640,0022000583,1,182,193,0,0,1610612759
13,1610612753,1629643,202329,202696,1628407,203487,1610612759,1626168,1627749,1627751,1629022,1629640,0022000583,1,206,206,0,0,1610612753
14,1610612753,1629643,202329,202696,1628407,203487,1610612759,1626168,1627749,1627751,1629022,1629640,0022000583,1,219,224,0,0,1610612759
15,1610612753,1629643,202329,202696,1628407,203487,1610612759,1626168,1627749,1627751,1629022,1629640,0022000583,1,227,227,3,0,1610612753
16,1610612753,1629643,202329,202696,1628407,203487,1610612759,1626168,1627749,1627751,1629022,1629640,0022000583,1,227,249,0,2,1610612759
17,1610612753,1629643,202329,202696,1628407,203487,1610612759,1626168,1627749,1627751,1629022,1629640,0022000583,1,260,262,0,0,1610612753
18,1610612753,1629643,202329,202696,1628407,203487,1610612759,1626168,1627749,1627751,1629022,1629640,0022000583,1,263,277,0,1,1610612759
19,1610612753,1629643,202329,202696,1628407,203487,1610612759,1626168,1627749,1627751,1629022,1629640,0022000583,1,284,284,2,0,1610612753
20,1610612753,1629643,202329,202696,1628407,203487,1610612759,1626168,1627749,1627751,1629022,1629640,0022000583,1,302,304,0,0,1610612759
21,1610612753,1629643,202329,202696,1628407,203487,1610612759,1626168,1627749,1627751,1629022,1629640,0022000583,1,308,308,3,0,1610612753
22,1610612753,1629643,202329,202696,1628407,203487,1610612759,1626168,1627749,1627751,1629022,1629640,0022000583,1,327,330,0,2,1610612759
23,1610612753,1629643,202329,202696,1628407,203487,1610612759,1626168,1627749,1627751,1629022,1629640,0022000583,1,346,346,2,0,1610612753
24,1610612753,1629643,202329,202696,1628407,203487,1610612759,1626168,1627749,1627751,1629022,1629640,0022000583,1,361,361,0,2,1610612759
25,1610612753,1629643,202329,202696,1628407,203487,1610612759,1626168,1627749,1627751,1629022,1629640,0022000583,1,380,380,2,0,1610612753
26,1610612753,1629643,202329,202696,1628407,203487,1610612759,1626168,1627749,1627751,1629022,1629640,0022000583,1,390,390,0,2,1610612759
27,1610612753,1629643,202329,202696,1628407,203487,1610612759,1626168,1627749,1627751,1629022,1629640,0022000583,1,410,415,0,0,1610612753
28,1610612753,1629643,202329,202696,1628407,203487,1610612759,1626168,1627749,1627751,1629022,1629640,0022000583,1,425,425,0,2,1610612759
29,1610612753,1629643,202329,202696,1628407,203487,1610612759,1626168,1627749,1627751,1629022,1629640,0022000583,1,441,441,0,0,1610612753
30,1610612753,1626184,1628407,1629109,202696,203920,1610612759,1627751,1629022,1629640,200752,201988,0022000583,1,459,463,0,0,1610612759
31,1610612753,1626184,1628407,1629109,202696,203920,1610612759,1627751,1629022,1629640,200752,201988,0022000583,1,469,469,0,0,1610612753
32,1610612753,1626184,1628407,1629109,202696,203920,1610612759,1627751,1629022,1629640,200752,201988,0022000583,1,487,491,0,0,1610612759
33,1610612753,1626184,1628407,1629109,202696,203920,1610612759,1627751,1629022,1629640,200752,201988,0022000583,1,495,495,3,0,1610612753
34,1610612753,1626184,1628407,1629109,202696,203920,1610612759,1627751,1629022,1629640,200752,201988,0022000583,1,495,505,0,3,1610612759
35,1610612753,1626184,1628407,1629109,202696,203920,1610612759,1627751,1629022,1630170,200752,201988,0022000583,1,527,530,0,0,1610612753
36,1610612753,1626184,1628407,1629109,202696,203920,1610612759,1627751,1629022,1630170,200752,201988,0022000583,1,533,533,0,0,1610612759
37,1610612753,1626184,1628407,1629109,202696,203920,1610612759,1627751,1629022,1630170,200752,201988,0022000583,1,551,556,2,0,1610612753
38,1610612753,1626184,1628407,1629109,202696,203920,1610612759,1627751,1629022,1630170,200752,201988,0022000583,1,571,574,0,0,1610612759
39,1610612753,1626184,1628407,1629109,202696,203920,1610612759,1627751,1629022,1630170,200752,201988,0022000583,1,583,585,0,0,1610612753
40,1610612753,1626184,1628407,1629109,202696,203920,1610612759,1627751,1629022,1630170,200752,201988,0022000583,1,585,601,0,0,1610612759
41,1610612753,1626184,1628964,1629109,1629643,203920,1610612759,1629022,1629234,1630170,200752,201988,0022000583,1,605,605,2,0,1610612753
42,1610612753,1626184,1628964,1629109,1629643,203920,1610612759,1629022,1629234,1630170,200752,201988,0022000583,1,617,620,0,0,1610612759
43,1610612753,1626184,1628964,1629109,1629643,203920,1610612759,1629022,1629234,1630170,200752,201988,0022000583,1,626,630,0,0,1610612753
44,1610612753,1626184,1628964,1629109,1629643,203920,1610612759,1629022,1629234,1630170,200752,201988,0022000583,1,637,639,0,0,1610612759
45,1610612753,1626184,1628964,1629109,1629643,203920,1610612759,1629022,1629234,1630170,200752,201988,0022000583,1,649,649,3,0,1610612753
46,1610612753,1626184,1628964,1629109,1629643,203920,1610612759,1629022,1629234,1630170,200752,201988,0022000583,1,664,677,0,0,1610612759
47,1610612753,1626184,1628964,1629109,1629643,203920,1610612759,1629022,1629234,1630170,200752,201988,0022000583,1,690,710,0,0,1610612753
48,1610612753,1626184,1628964,1629109,1629643,203920,1610612759,1628401,1629234,1630170,200752,201988,0022000583,1,720,742,0,0,1610612753
49,1610612753,202329,203487,1629109,1626184,1628964,1610612759,1628401,200752,201988,1630170,1629234,0022000583,2,761,764,0,0,1610612759
50,1610612753,202329,203487,1629109,1626184,1628964,1610612759,1628401,200752,201988,1630170,1629234,0022000583,2,768,768,0,0,1610612753
51,1610612753,202329,203487,1629109,1626184,1628964,1610612759,1628401,200752,201988,1630170,1629234,0022000583,2,777,777,0,0,1610612759
52,1610612753,202329,203487,1629109,1626184,1628964,1610612759,1628401,200752,201988,1630170,1629234,0022000583,2,800,803,0,0,1610612753
53,1610612753,202329,203487,1629109,1626184,1628964,1610612759,1628401,200752,201988,1630170,1629234,0022000583,2,805,805,0,2,1610612759
54,1610612753,202329,203487,1629109,1626184,1628964,1610612759,1627749,1628401,1629234,200752,201988,0022000583,2,813,828,0,0,1610612753
55,1610612753,202329,203487,1629109,1626184,1628964,1610612759,1627749,1628401,1629234,200752,201988,0022000583,2,833,833,0,3,1610612759
56,1610612753,202329,203487,1629109,1626184,1628964,1610612759,1627749,1628401,1629234,200752,201988,0022000583,2,835,856,2,0,1610612753
57,1610612753,202329,203487,1629109,1626184,1628964,1610612759,1627749,1628401,1629234,200752,201988,0022000583,2,873,875,0,0,1610612759
58,1610612753,202329,203487,1629109,1626184,1628964,1610612759,1627749,1628401,1629234,200752,201988,0022000583,2,882,885,0,0,1610612753
59,1610612753,202329,203487,1629109,1626184,1628964,1610612759,1627749,1628401,1629234,200752,201988,0022000583,2,895,895,0,2,1610612759
60,1610612753,202329,203487,1629109,1626184,1628964,1610612759,1627749,1628401,1629234,200752,201988,0022000583,2,913,916,0,0,1610612753
61,1610612753,202329,203487,1629109,1626184,1628964,1610612759,1627749,1628401,1629234,200752,201988,0022000583,2,921,921,0,3,1610612759
62,1610612753,202329,203487,1629109,1626184,1628964,1610612759,1627749,1628401,1629234,200752,201988,0022000583,2,940,944,0,0,1610612753
63,1610612753,202329,203487,1629109,1626184,1628964,1610612759,1627749,1628401,1629234,200752,201988,0022000583,2,948,948,0,3,1610612759
64,1610612753,202329,203487,1629109,1626184,1628964,1610612759,1627749,1628401,1629234,200752,201988,0022000583,2,974,977,0,0,1610612753
65,1610612753,202329,203487,1629109,1626184,1628964,1610612759,1627749,1628401,1629234,200752,201988,0022000583,2,981,983,0,0,1610612759
66,1610612753,1626184,1628407,1629109,202329,202696,1610612759,1627749,1627751,1628401,1629022,1629640,0022000583,2,1005,1005,0,0,1610612753
67,1610612753,1626184,1628407,1629109,202329,202696,1610612759,1627749,1627751,1628401,1629022,1629640,0022000583,2,1009,1009,0,2,1610612759
68,1610612753,1626184,1628407,1629109,202329,202696,1610612759,1627749,1627751,1628401,1629022,1629640,0022000583,2,1033,1036,0,0,1610612753
69,1610612753,1626184,1628407,1629109,202329,202696,1610612759,1627749,1627751,1628401,1629022,1629640,0022000583,2,1041,1041,0,0,1610612759
70,1610612753,1626184,1628407,1629109,202329,202696,1610612759,1627749,1627751,1628401,1629022,1629640,0022000583,2,1056,1056,0,0,1610612753
71,1610612753,1626184,1628407,1629109,202329,202696,1610612759,1627749,1627751,1628401,1629022,1629640,0022000583,2,1073,1075,0,0,1610612759
72,1610612753,1626184,1628407,1629109,202329,202696,1610612759,1627749,1627751,1628401,1629022,1629640,0022000583,2,1087,1087,2,0,1610612753
73,1610612753,1626184,1628407,1629109,202329,202696,1610612759,1627749,1627751,1628401,1629022,1629640,0022000583,2,1087,1101,0,0,1610612759
74,1610612753,1626184,1628407,1629109,202696,203920,1610612759,1627749,1627751,1628401,1629022,1629640,0022000583,2,1109,1109,2,0,1610612753
75,1610612753,1626184,1628407,1629109,202696,203920,1610612759,1627749,1627751,1628401,1629022,1629640,0022000583,2,1122,1122,0,2,1610612759
76,1610612753,1626184,1628407,1629109,202696,203920,1610612759,1627749,1627751,1628401,1629022,1629640,0022000583,2,1146,1146,2,0,1610612753
77,1610612753,1626184,1628407,1629109,202696,203920,1610612759,1627749,1627751,1628401,1629022,1629640,0022000583,2,1159,1166,0,2,1610612759
78,1610612753,1626184,1628407,1629643,202696,203920,1610612759,1627749,1627751,1629022,1629640,201988,0022000583,2,1185,1187,0,0,1610612753
79,1610612753,1626184,1628407,1629643,202696,203920,1610612759,1627749,1627751,1629022,1629640,201988,0022000583,2,1190,1190,0,0,1610612759
80,1610612753,1626184,1628407,1629643,202696,203920,1610612759,1627749,1627751,1629022,1629640,201988,0022000583,2,1208,1210,0,0,1610612753
81,1610612753,1626184,1628407,1629643,202696,203920,1610612759,1627749,1627751,1629022,1629640,201988,0022000583,2,1217,1223,0,0,1610612759
82,1610612753,1626184,1628407,1629643,202696,203920,1610612759,1627749,1627751,1629022,1629640,201988,0022000583,2,1236,1242,0,0,1610612753
83,1610612753,1626184,1628407,1629643,202696,203920,1610612759,1627749,1627751,1629022,1629640,201988,0022000583,2,1248,1248,0,2,1610612759
84,1610612753,1626184,1628407,1629643,202696,203920,1610612759,1627749,1627751,1629022,1629640,201988,0022000583,2,1267,1269,0,0,1610612753
85,1610612753,1626184,1628407,1629643,202696,203920,1610612759,1627749,1627751,1629022,1629640,201988,0022000583,2,1274,1274,0,2,1610612759
86,1610612753,1626184,1628407,1629643,202696,203920,1610612759,1627749,1627751,1629022,1629640,201988,0022000583,2,1286,1286,0,0,1610612753
87,1610612753,1628407,1629643,202696,203487,203920,1610612759,1627749,1627751,1628401,1629640,201988,0022000583,2,1298,1314,0,0,1610612759
88,1610612753,1628407,1629643,202696,203487,203920,1610612759,1627749,1627751,1628401,1629640,201988,0022000583,2,1322,1324,0,0,1610612753
89,1610612753,1628407,1629643,202696,203487,203920,1610612759,1627749,1627751,1628401,1629640,201988,0022000583,2,1332,1332,0,2,1610612759
90,1610612753,1628407,1629643,202696,203487,203920,1610612759,1627749,1627751,1628401,1629640,201988,0022000583,2,1340,1340,0,0,1610612753
91,1610612753,1628407,1629643,202696,203487,203920,1610612759,1627749,1627751,1628401,1629640,201988,0022000583,2,1340,1340,0,1,1610612759
92,1610612753,1626184,1628407,1629643,202696,203920,1610612759,1627749,1627751,1628401,1629640,201988,0022000583,2,1353,1353,0,0,1610612753
93,1610612753,1626184,1628407,1629643,202696,203920,1610612759,1627749,1627751,1628401,1629640,201988,0022000583,2,1362,1372,0,1,1610612759
94,1610612753,1626184,1628407,1629643,202696,203920,1610612759,1627749,1627751,1628401,1629640,201988,0022000583,2,1385,1385,2,0,1610612753
95,1610612753,1626184,1628407,1629643,202696,203920,1610612759,1627749,1627751,1628401,1629640,201988,0022000583,2,1406,1406,0,2,1610612759
96,1610612753,1626184,1628407,1629643,202696,203920,1610612759,1627749,1627751,1628401,1629640,201988,0022000583,2,1422,1422,0,0,1610612753
97,1610612753,1626184,1628407,1629643,202696,203920,1610612759,1627749,1627751,1628401,1629640,201988,0022000583,2,1425,1425,0,2,1610612759
98,1610612753,1626184,1628407,1629643,202696,203920,1610612759,1627749,1627751,1629022,1629640,201988,0022000583,2,1439,1439,0,0,1610612753
99,1610612753,1629643,202329,202696,1628407,203487,1610612759,1629640,1626168,1627751,1628401,1627749,0022000583,3,1440,1445,0,0,1610612753
100,1610612753,1629643,202329,202696,1628407,203487,1610612759,1629640,1626168,1627751,1628401,1627749,0022000583,3,1459,1459,0,2,1610612759
101,1610612753,1629643,202329,202696,1628407,203487,1610612759,1629640,1626168,1627751,1628401,1627749,0022000583,3,1480,1483,0,0,1610612753
102,1610612753,1629643,202329,202696,1628407,203487,1610612759,1629640,1626168,1627751,1628401,1627749,0022000583,3,1498,1500,0,0,1610612759
103,1610612753,1629643,202329,202696,1628407,203487,1610612759,1629640,1626168,1627751,1628401,1627749,0022000583,3,1507,1508,0,0,1610612753
104,1610612753,1629643,202329,202696,1628407,203487,1610612759,1629640,1626168,1627751,1628401,1627749,0022000583,3,1525,1525,0,2,1610612759
105,1610612753,1629643,202329,202696,1628407,203487,1610612759,1629640,1626168,1627751,1628401,1627749,0022000583,3,1540,1540,0,0,1610612753
106,1610612753,1629643,202329,202696,1628407,203487,1610612759,1629640,1626168,1627751,1628401,1627749,0022000583,3,1544,1544,0,2,1610612759
107,1610612753,1629643,202329,202696,1628407,203487,1610612759,1629640,1626168,1627751,1628401,1627749,0022000583,3,1551,1585,6,0,1610612753
108,1610612753,1629643,202329,202696,1628407,203487,1610612759,1629640,1626168,1627751,1628401,1627749,0022000583,3,1604,1620,0,0,1610612759
109,1610612753,1629643,202329,202696,1628407,203487,1610612759,1629640,1626168,1627751,1628401,1627749,0022000583,3,1628,1628,0,0,1610612753
110,1610612753,1626184,1628407,1629643,202329,202696,1610612759,1629640,1626168,1627751,1628401,1627749,0022000583,3,1637,1637,0,0,1610612759
111,1610612753,1626184,1628407,1629643,202329,202696,1610612759,1629640,1626168,1627751,1628401,1627749,0022000583,3,1653,1655,0,0,1610612753
112,1610612753,1626184,1628407,1629643,202329,202696,1610612759,1629640,1626168,1627751,1628401,1627749,0022000583,3,1665,1665,0,0,1610612759
113,1610612753,1626184,1628407,1629643,202329,202696,1610612759,1629640,1626168,1627751,1628401,1627749,0022000583,3,1674,1678,0,0,1610612753
114,1610612753,1626184,1628407,1629643,202329,202696,1610612759,1629640,1626168,1627751,1628401,1627749,0022000583,3,1695,1697,0,0,1610612759
115,1610612753,1626184,1628407,1629643,202329,202696,1610612759,1629640,1626168,1627751,1628401,1627749,0022000583,3,1704,1704,0,0,1610612753
116,1610612753,1626184,1628407,1629643,202329,202696,1610612759,1629640,1626168,1627751,1628401,1627749,0022000583,3,1716,1720,0,1,1610612759
117,1610612753,1626184,1628407,1629109,202329,202696,1610612759,1629640,1626168,1627751,1628401,1627749,0022000583,3,1730,1730,3,0,1610612753
118,1610612753,1626184,1628407,1629109,202329,202696,1610612759,1629640,1626168,1627751,1628401,1627749,0022000583,3,1745,1745,0,0,1610612759
119,1610612753,1626184,1628407,1629109,202329,202696,1610612759,1627749,1627751,1628401,1629640,1630170,0022000583,3,1759,1764,2,0,1610612753
120,1610612753,1626184,1628407,1629109,202329,202696,1610612759,1627749,1627751,1628401,1629640,1630170,0022000583,3,1764,1776,0,2,1610612759
121,1610612753,1626184,1628407,1629109,202329,202696,1610612759,1627749,1627751,1628401,1629640,1630170,0022000583,3,1798,1800,0,0,1610612753
122,1610612753,1626184,1628407,1629109,202329,202696,1610612759,1627749,1627751,1628401,1629640,1630170,0022000583,3,1805,1805,0,0,1610612759
123,1610612753,1626184,1628407,1629109,202696,203920,1610612759,1627751,1628401,1629640,1630170,201988,0022000583,3,1821,1821,3,0,1610612753
124,1610612753,1626184,1628407,1629109,202696,203920,1610612759,1627751,1628401,1629640,1630170,201988,0022000583,3,1835,1838,0,0,1610612759
125,1610612753,1626184,1628407,1629109,202696,203920,1610612759,1627751,1628401,1629640,1630170,201988,0022000583,3,1845,1848,0,0,1610612753
126,1610612753,1626184,1628407,1629109,202696,203920,1610612759,1627751,1628401,1629640,1630170,201988,0022000583,3,1857,1857,0,3,1610612759
127,1610612753,1626184,1628407,1629109,202696,203920,1610612759,1627751,1628401,1629640,1630170,201988,0022000583,3,1886,1889,2,0,1610612753
128,1610612753,1626184,1628407,1629109,202696,203920,1610612759,1627751,1628401,1630170,200752,201988,0022000583,3,1898,1898,0,2,1610612759
129,1610612753,1626184,1628407,1629109,202696,203920,1610612759,1627751,1628401,1630170,200752,201988,0022000583,3,1915,1915,3,0,1610612753
130,1610612753,1626184,1628407,1629109,202696,203920,1610612759,1627751,1628401,1630170,200752,201988,0022000583,3,1933,1933,0,3,1610612759
131,1610612753,1626184,1628407,1629109,202696,203920,1610612759,1627751,1628401,1630170,200752,201988,0022000583,3,1955,1958,0,0,1610612753
132,1610612753,1626184,1628407,1629109,202696,203920,1610612759,1627751,1628401,1630170,200752,201988,0022000583,3,1968,1968,0,2,1610612759
133,1610612753,1626184,1628407,1629109,202696,203920,1610612759,1627751,1628401,1630170,200752,201988,0022000583,3,1974,2004,2,0,1610612753
134,1610612753,1626184,1629109,1629643,202696,203920,1610612759,1627751,1629022,1630170,200752,201988,0022000583,3,2024,2024,0,2,1610612759
135,1610612753,1626184,1629109,1629643,202696,203920,1610612759,1627751,1629022,1630170,200752,201988,0022000583,3,2042,2042,2,0,1610612753
136,1610612753,1626184,1629109,1629643,202696,203920,1610612759,1627751,1629022,1630170,200752,201988,0022000583,3,2055,2055,0,3,1610612759
137,1610612753,1626184,1629109,1629643,202696,203920,1610612759,1627751,1629022,1630170,200752,201988,0022000583,3,2071,2071,0,0,1610612753
138,1610612753,1626184,1629109,1629643,202696,203920,1610612759,1627751,1629022,1630170,200752,201988,0022000583,3,2082,2082,0,3,1610612759
139,1610612753,1626184,1629109,1629643,202696,203920,1610612759,1627751,1629022,1630170,200752,201988,0022000583,3,2102,2106,0,0,1610612753
140,1610612753,1626184,1629109,1629643,202696,203920,1610612759,1627751,1629022,1630170,200752,201988,0022000583,3,2114,2117,0,0,1610612759
141,1610612753,1626184,1629109,1629643,202696,203920,1610612759,1627751,1629022,1630170,200752,201988,0022000583,3,2136,2136,2,0,1610612753
142,1610612753,1626184,1629109,1629643,202696,203920,1610612759,1627751,1629022,1630170,200752,201988,0022000583,3,2155,2158,0,0,1610612759
143,1610612753,202329,203487,1629109,1626184,1628964,1610612759,1627749,1629022,200752,201988,1629234,0022000583,4,2160,2176,0,2,1610612759
144,1610612753,202329,203487,1629109,1626184,1628964,1610612759,1627749,1629022,200752,201988,1629234,0022000583,4,2195,2195,0,0,1610612753
145,1610612753,202329,203487,1629109,1626184,1628964,1610612759,1627749,1629022,200752,201988,1629234,0022000583,4,2199,2199,0,2,1610612759
146,1610612753,202329,203487,1629109,1626184,1628964,1610612759,1627749,1629022,200752,201988,1629234,0022000583,4,2221,2240,0,0,1610612753
147,1610612753,202329,203487,1629109,1626184,1628964,1610612759,1627749,1629022,200752,201988,1629234,0022000583,4,2250,2250,0,3,1610612759
148,1610612753,202329,203487,1629109,1626184,1628964,1610612759,1627749,1629022,200752,201988,1629234,0022000583,4,2267,2270,0,0,1610612753
149,1610612753,202329,203487,1629109,1626184,1628964,1610612759,1627749,1629022,200752,201988,1629234,0022000583,4,2285,2285,0,2,1610612759
150,1610612753,202329,203487,1629109,1626184,1628964,1610612759,1627749,1629022,200752,201988,1629234,0022000583,4,2290,2301,2,0,1610612753
151,1610612753,202329,203487,1629109,1626184,1628964,1610612759,1627749,1629022,200752,201988,1629234,0022000583,4,2301,2320,0,0,1610612759
152,1610612753,202329,203487,1629109,1626184,1628964,1610612759,1627749,1629022,200752,201988,1629234,0022000583,4,2323,2327,0,0,1610612753
153,1610612753,202329,203487,1629109,1626184,1628964,1610612759,1627749,1629022,200752,201988,1629234,0022000583,4,2341,2341,0,3,1610612759
154,1610612753,202329,203487,1629109,1626184,1628964,1610612759,1627749,1629022,200752,201988,1629234,0022000583,4,2367,2368,0,0,1610612753
155,1610612753,202329,203487,1629109,1626184,1628964,1610612759,1627749,1628401,1629022,1629234,200752,0022000583,4,2380,2380,0,3,1610612759
156,1610612753,202329,203487,1629109,1626184,1628964,1610612759,1627749,1628401,1629022,1629234,200752,0022000583,4,2398,2407,0,0,1610612753
157,1610612753,202329,203487,1629109,1626184,1628964,1610612759,1627749,1628401,1629022,1629234,200752,0022000583,4,2414,2417,0,0,1610612759
158,1610612753,202329,203487,1629109,1626184,1628964,1610612759,1627749,1628401,1629022,1629234,200752,0022000583,4,2428,2430,0,0,1610612753
159,1610612753,1626184,1628964,1629109,203487,203920,1610612759,1627749,1628401,1629022,1629234,200752,0022000583,4,2443,2443,0,2,1610612759
160,1610612753,1626184,1628407,1628964,1629109,203920,1610612759,1627749,1628401,1629022,1629234,200752,0022000583,4,2454,2454,3,0,1610612753
161,1610612753,1626184,1628407,1628964,1629109,203920,1610612759,1627749,1628401,1629022,1629234,200752,0022000583,4,2470,2472,0,0,1610612759
162,1610612753,1626184,1628407,1628964,1629109,203920,1610612759,1627749,1628401,1629022,1629234,200752,0022000583,4,2481,2493,0,0,1610612753
163,1610612753,1626184,1628407,1628964,1629109,203920,1610612759,1627749,1628401,1629022,1629234,200752,0022000583,4,2502,2502,0,2,1610612759
164,1610612753,1626184,1628407,1628964,1629109,203920,1610612759,1627749,1628401,1629022,1629234,200752,0022000583,4,2512,2516,0,0,1610612753
165,1610612753,1626184,1628407,1628964,1629109,203920,1610612759,1627749,1628401,1629022,1629234,200752,0022000583,4,2525,2528,0,0,1610612759
166,1610612753,1626184,1628407,1628964,1629109,203920,1610612759,1627749,1628401,1629022,1629234,200752,0022000583,4,2530,2530,2,0,1610612753
167,1610612753,1626184,1628407,1628964,1629109,203920,1610612759,1628401,1629022,1629234,1629677,1630170,0022000583,4,2542,2549,0,2,1610612759
168,1610612753,1626184,1628407,1628964,1629109,203920,1610612759,1628401,1629022,1629234,1629677,1630170,0022000583,4,2567,2567,2,0,1610612753
169,1610612753,1626184,1628407,1628964,1629643,203920,1610612759,1628401,1629022,1629234,1629677,1630170,0022000583,4,2587,2587,0,2,1610612759
170,1610612753,1626184,1628407,1628964,1629643,203920,1610612759,1628401,1629022,1629234,1629677,1630170,0022000583,4,2602,2605,0,0,1610612753
171,1610612753,1626184,1628407,1628964,1629643,203920,1610612759,1628401,1629022,1629234,1629677,1630170,0022000583,4,2609,2621,0,0,1610612759
172,1610612753,1626184,1628407,1628964,1629643,203920,1610612759,1629022,1629234,1629677,1630170,1630200,0022000583,4,2635,2637,0,0,1610612753
173,1610612753,1626184,1628407,1628964,1629643,203920,1610612759,1629022,1629234,1629677,1630170,1630200,0022000583,4,2655,2665,0,3,1610612759
174,1610612753,1626184,1628407,1628964,1629643,203920,1610612759,1628966,1629234,1629677,1630170,1630200,0022000583,4,2682,2685,0,0,1610612753
175,1610612753,1626184,1628407,1628964,1629643,203920,1610612759,1628966,1629234,1629677,1630170,1630200,0022000583,4,2701,2701,0,2,1610612759
176,1610612753,1626184,1628407,1628964,1629643,203920,1610612759,1628966,1629234,1629677,1630170,1630200,0022000583,4,2717,2717,2,0,1610612753
177,1610612753,1626184,1628407,1628964,1629643,203920,1610612759,1628966,1629234,1629677,1630170,1630200,0022000583,4,2737,2739,0,0,1610612759
178,1610612753,1626184,1628407,1628964,1629643,203920,1610612759,1628966,1629234,1629677,1630170,1630200,0022000583,4,2749,2749,2,0,1610612753
179,1610612753,1626184,1628407,1628964,1629643,203920,1610612759,1628966,1629234,1629677,1630170,1630200,0022000583,4,2762,2766,0,0,1610612759
180,1610612753,1626184,1628407,1628964,1629643,203920,1610612759,1628966,1629234,1629677,1630170,1630200,0022000583,4,2767,2772,0,0,1610612753
181,1610612753,1626184,1628407,1628964,1629643,203920,1610612759,1628966,1629234,1629677,1630170,1630200,0022000583,4,2774,2774,0,2,1610612759
182,1610612753,1626184,1628407,1628964,1629643,203920,1610612759,1628966,1629234,1629677,1630170,1630200,0022000583,4,2785,2785,0,0,1610612753
183,1610612753,1626184,1628407,1628964,1629643,203920,1610612759,1628966,1629234,1629677,1630170,1630200,0022000583,4,2803,2806,0,0,1610612759
184,1610612753,1626184,1628407,1628964,1629643,203920,1610612759,1628966,1629234,1629677,1630170,1630200,0022000583,4,2817,2820,0,0,1610612753
185,1610612753,1626184,1628407,1628964,1629643,203920,1610612759,1628966,1629234,1629677,1630170,1630200,0022000583,4,2839,2845,0,0,1610612759
186,1610612753,1626184,1628407,1628964,1629643,203920,1610612759,1628966,1629234,1629677,1630170,1630200,0022000583,4,2851,2853,0,0,1610612753
187,1610612753,1626184,1628407,1628964,1629643,203920,1610612759,1628966,1629234,1629677,1630170,1630200,0022000583,4,2859,2859,0,0,1610612759
