,TEAM_ID_1,TEAM_1_PLAYERS,TEAM_ID_2,TEAM_2_PLAYERS,PERIOD
0,1610612737,[ 203524 1628381  203991  203992 1629027],1610612755,[ 201980  202699  203954  203552 1627732],1
1,1610612737,[ 203992  201568 1628989  101150 1630168],1610612755,[1629680 1630178  201588    2730 1627788],2
2,1610612737,[ 203524 1628381  203991  203992 1629027],1610612755,[ 201980  202699  203954  203552 1627732],3
3,1610612737,[ 203992  201568 1628989  101150 1630168],1610612755,[1627732 1629680 1630178  201588    2730],4
