,TEAM_ID_1,TEAM_1_PLAYERS,TEAM_ID_2,TEAM_2_PLAYERS,PERIOD
0,1610612761,[ 202695 1627783  201586  201980 1627832],1610612759,[1628401  200752  200746  201942 1627854],1
1,1610612761,[ 201980 1626153 1626181  202328 1628384],1610612759,[1627854  202722  201988 1627751  201158],2
2,1610612761,[ 202695 1627783  201586  201980 1627832],1610612759,[1628401  200752  200746  201942 1627854],3
3,1610612761,[1626153 1626181  202328 1628384  101139],1610612759,[1627854  202722  201988 1627751  201158],4
