,TEAM_ID_1,TEAM_1_PLAYERS,TEAM_ID_2,TEAM_2_PLAYERS,PERIOD
0,1610612765,[ 203924  201933 1630191  201961 1626153],1610612738,[1628369 1628400 1628464 1627759 1630202],1
1,1610612765,[ 203924 1628367 1630180 1629004 1628372],1610612738,[1628369  202684 1629750  201952 1629684],2
2,1610612765,[ 203924  201933 1630191  201961 1626153],1610612738,[1628369 1628400 1628464 1627759 1630202],3
3,1610612765,[1630191 1628367 1630180 1629004 1628372],1610612738,[1628369 1627759  202684  201952 1629684],4
