,team1_id,team1_player1,team1_player2,team1_player3,team1_player4,team1_player5,team2_id,team2_player1,team2_player2,team2_player3,team2_player4,team2_player5,game_id,period,possession_start,possession_end,team1_points,team2_points,possession_team
0,1610612752,202694,203944,201959,203493,203901,1610612766,1628970,1629023,203469,1628984,1626179,0021900699,1,0,27,0,0,1610612766
1,1610612752,202694,203944,201959,203493,203901,1610612766,1628970,1629023,203469,1628984,1626179,0021900699,1,35,35,0,0,1610612752
2,1610612752,202694,203944,201959,203493,203901,1610612766,1628970,1629023,203469,1628984,1626179,0021900699,1,53,56,0,0,1610612766
3,1610612752,202694,203944,201959,203493,203901,1610612766,1628970,1629023,203469,1628984,1626179,0021900699,1,68,68,2,0,1610612752
4,1610612752,202694,203944,201959,203493,203901,1610612766,1628970,1629023,203469,1628984,1626179,0021900699,1,76,76,0,3,1610612766
5,1610612752,202694,203944,201959,203493,203901,1610612766,1628970,1629023,203469,1628984,1626179,0021900699,1,88,88,2,0,1610612752
6,1610612752,202694,203944,201959,203493,203901,1610612766,1628970,1629023,203469,1628984,1626179,0021900699,1,105,105,0,2,1610612766
7,1610612752,202694,203944,201959,203493,203901,1610612766,1628970,1629023,203469,1628984,1626179,0021900699,1,116,119,0,0,1610612752
8,1610612752,202694,203944,201959,203493,203901,1610612766,1628970,1629023,203469,1628984,1626179,0021900699,1,123,126,0,0,1610612766
9,1610612752,202694,203944,201959,203493,203901,1610612766,1628970,1629023,203469,1628984,1626179,0021900699,1,133,133,2,0,1610612752
10,1610612752,202694,203944,201959,203493,203901,1610612766,1628970,1629023,203469,1628984,1626179,0021900699,1,143,155,0,0,1610612766
11,1610612752,202694,203944,201959,203493,203901,1610612766,1628970,1629023,203469,1628984,1626179,0021900699,1,162,164,0,0,1610612752
12,1610612752,202694,203944,201959,203493,203901,1610612766,1628970,1629023,203469,1628984,1626179,0021900699,1,180,180,0,3,1610612766
13,1610612752,202694,203944,201959,203493,203901,1610612766,1628970,1629023,203469,1628984,1626179,0021900699,1,201,201,2,0,1610612752
14,1610612752,202694,203944,201959,203493,203901,1610612766,1628970,1629023,203469,1628984,1626179,0021900699,1,214,220,0,0,1610612766
15,1610612752,202694,203944,201959,203493,203901,1610612766,1628970,1629023,203469,1628984,1626179,0021900699,1,234,234,2,0,1610612752
16,1610612752,202694,203944,201959,203493,203901,1610612766,1628970,1629023,203469,1628984,1626179,0021900699,1,246,258,0,0,1610612766
17,1610612752,202694,203944,201959,203493,203901,1610612766,1628970,1629023,203469,1628984,1626179,0021900699,1,276,280,0,0,1610612752
18,1610612752,202694,203944,201959,203493,203901,1610612766,1628970,1629023,203469,1628984,1626179,0021900699,1,282,291,0,1,1610612766
19,1610612752,202694,203944,201959,203493,203901,1610612766,1628970,1629023,203469,1628984,1626179,0021900699,1,291,291,3,0,1610612752
20,1610612752,202694,203944,201959,203493,203901,1610612766,1628970,1629023,203469,1628984,1626179,0021900699,1,301,305,0,0,1610612766
21,1610612752,202694,203944,201959,203493,203901,1610612766,1628970,1629023,203469,1628984,1626179,0021900699,1,321,321,2,0,1610612752
22,1610612752,202694,203944,201959,203493,203901,1610612766,1628970,1629023,203469,1628984,1626179,0021900699,1,321,338,0,0,1610612766
23,1610612752,202694,203944,201959,203493,203901,1610612766,1626179,1628370,1628970,1629023,203469,0021900699,1,358,360,0,0,1610612752
24,1610612752,202694,203944,201959,203493,203901,1610612766,1626179,1628370,1628970,1629023,203469,0021900699,1,372,374,0,0,1610612766
25,1610612752,202694,203944,201959,203493,203901,1610612766,1626179,1628370,1628970,1629023,203469,0021900699,1,382,384,0,0,1610612752
26,1610612752,202694,203944,201959,203493,203901,1610612766,1626179,1628370,1628970,1629023,203469,0021900699,1,388,388,0,0,1610612766
27,1610612752,202694,203944,201959,203493,203901,1610612766,1626179,1626195,1628370,1628407,1629023,0021900699,1,408,408,3,0,1610612752
28,1610612752,202694,203944,201959,203493,203901,1610612766,1626179,1626195,1628370,1628407,1629023,0021900699,1,427,437,0,0,1610612766
29,1610612752,1629011,202694,203493,203901,203944,1610612766,101107,1626179,1626195,1628370,1628407,0021900699,1,453,453,2,0,1610612752
30,1610612752,1629011,202694,203493,203901,203944,1610612766,101107,1626179,1626195,1628370,1628407,0021900699,1,480,484,0,2,1610612766
31,1610612752,1629011,202694,203493,203901,203944,1610612766,101107,1626179,1626195,1628370,1628407,0021900699,1,489,489,0,0,1610612752
32,1610612752,1628422,1629011,202694,203901,203944,1610612766,101107,1626179,1626195,1628370,1628407,0021900699,1,508,515,0,0,1610612766
33,1610612752,1628372,1628422,1629011,202694,203944,1610612766,101107,1626179,1626195,1628370,1628407,0021900699,1,529,529,2,0,1610612752
34,1610612752,1628372,1628422,1629011,202694,203944,1610612766,101107,1626179,1626195,1628370,1628407,0021900699,1,547,549,0,0,1610612766
35,1610612752,1628372,1628422,1629011,202694,203944,1610612766,101107,1626179,1626195,1628370,1628407,0021900699,1,556,556,2,0,1610612752
36,1610612752,1628372,1628422,1628995,1629011,203944,1610612766,101107,1626195,1628370,1628407,1628984,0021900699,1,569,569,0,2,1610612766
37,1610612752,1628372,1628422,1628995,1629011,203944,1610612766,101107,1626195,1628370,1628407,1628984,0021900699,1,582,582,0,0,1610612752
38,1610612752,1628372,1628422,1628995,1629011,203944,1610612766,101107,1626195,1628370,1628407,1628984,0021900699,1,587,587,0,2,1610612766
39,1610612752,1628372,1628422,1628995,1629011,203944,1610612766,101107,1626195,1628370,1628407,1628984,0021900699,1,596,599,0,0,1610612752
40,1610612752,1626171,1628372,1628422,1628995,1629011,1610612766,101107,1626195,1628370,1628407,1628984,0021900699,1,620,622,0,0,1610612766
41,1610612752,1626171,1628372,1628422,1628995,1629011,1610612766,101107,1626195,1628370,1628407,1628984,0021900699,1,629,632,0,0,1610612752
42,1610612752,1626171,1628372,1628422,1628995,1629011,1610612766,101107,1626195,1628370,1628407,1628984,0021900699,1,639,642,0,0,1610612766
43,1610612752,1626171,1628372,1628422,1628995,1629011,1610612766,101107,1626195,1628370,1628407,1628984,0021900699,1,651,651,2,0,1610612752
44,1610612752,1626171,1628372,1628422,1628995,1629011,1610612766,101107,1626195,1628370,1628407,1628984,0021900699,1,664,666,0,0,1610612766
45,1610612752,1626171,1628372,1628422,1628995,1629011,1610612766,101107,1626195,1628370,1628407,1628984,0021900699,1,681,683,0,0,1610612752
46,1610612752,1626171,1628372,1628422,1628995,1629011,1610612766,101107,1626195,1628370,1628407,1628984,0021900699,1,691,694,0,0,1610612766
47,1610612752,1626171,1628372,1628422,1628995,1629011,1610612766,101107,1626195,1628370,1628407,1628984,0021900699,1,715,720,0,0,1610612766
48,1610612752,1629011,1628422,1628372,1628995,1626171,1610612766,1628984,1628370,1628407,1626195,101107,0021900699,2,720,740,0,0,1610612752
49,1610612752,1629011,1628422,1628372,1628995,1626171,1610612766,1628984,1628370,1628407,1626195,101107,0021900699,2,757,761,0,2,1610612766
50,1610612752,1629011,1628422,1628372,1628995,1626171,1610612766,1628984,1628370,1628407,1626195,101107,0021900699,2,775,775,2,0,1610612752
51,1610612752,1629011,1628422,1628372,1628995,1626171,1610612766,1628984,1628370,1628407,1626195,101107,0021900699,2,793,793,0,0,1610612766
52,1610612752,1629011,1628422,1628372,1628995,1626171,1610612766,1628984,1628370,1628407,1626195,101107,0021900699,2,812,823,2,0,1610612752
53,1610612752,1629011,1628422,1628372,1628995,1626171,1610612766,1628984,1628370,1628407,1626195,101107,0021900699,2,835,856,0,0,1610612766
54,1610612752,1629011,1628422,1628372,1628995,1626171,1610612766,101107,1628370,1628984,1628998,203469,0021900699,2,864,864,0,0,1610612752
55,1610612752,1629011,1628422,1628372,1628995,1626171,1610612766,101107,1628970,1628984,1628998,203469,0021900699,2,887,899,0,3,1610612766
56,1610612752,1629011,1628422,1628372,1628995,1626171,1610612766,1628970,1628984,1628998,1629023,203469,0021900699,2,899,915,2,1,1610612752
57,1610612752,1629011,1628422,1628372,1628995,1626171,1610612766,1628970,1628984,1628998,1629023,203469,0021900699,2,935,945,0,0,1610612766
58,1610612752,1629011,1628422,1628372,1628995,1626171,1610612766,1628970,1628984,1628998,1629023,203469,0021900699,2,949,958,2,0,1610612752
59,1610612752,1629011,1628422,1628372,1628995,1626171,1610612766,1628970,1628984,1628998,1629023,203469,0021900699,2,979,979,0,2,1610612766
60,1610612752,1629011,1628422,1628372,1628995,1626171,1610612766,1628970,1628984,1628998,1629023,203469,0021900699,2,987,987,0,0,1610612752
61,1610612752,1626171,1629011,202694,203493,203901,1610612766,1626179,1628970,1628998,1629023,203469,0021900699,2,1009,1009,0,2,1610612766
62,1610612752,1626171,1629011,202694,203493,203901,1610612766,1626179,1628970,1628998,1629023,203469,0021900699,2,1025,1036,0,0,1610612752
63,1610612752,1626171,202694,203493,203901,203944,1610612766,1626179,1628970,1628998,1629023,203469,0021900699,2,1049,1049,0,0,1610612766
64,1610612752,1626171,202694,203493,203901,203944,1610612766,1626179,1628970,1628998,1629023,203469,0021900699,2,1055,1055,3,0,1610612752
65,1610612752,1626171,202694,203493,203901,203944,1610612766,1626179,1628970,1628998,1629023,203469,0021900699,2,1076,1076,0,2,1610612766
66,1610612752,1626171,202694,203493,203901,203944,1610612766,1626179,1628970,1628998,1629023,203469,0021900699,2,1094,1094,0,0,1610612752
67,1610612752,1626171,202694,203493,203901,203944,1610612766,1626179,1628970,1628998,1629023,203469,0021900699,2,1103,1103,0,2,1610612766
68,1610612752,1626171,202694,203493,203901,203944,1610612766,1626179,1628970,1628998,1629023,203469,0021900699,2,1123,1125,0,0,1610612752
69,1610612752,1626171,202694,203493,203901,203944,1610612766,1626179,1628970,1628998,1629023,203469,0021900699,2,1132,1134,0,0,1610612766
70,1610612752,1626171,202694,203493,203901,203944,1610612766,1626179,1628970,1628998,1629023,203469,0021900699,2,1141,1143,0,0,1610612752
71,1610612752,1626171,202694,203493,203901,203944,1610612766,1626179,1628970,1628998,1629023,203469,0021900699,2,1149,1159,0,2,1610612766
72,1610612752,1626171,202694,203493,203901,203944,1610612766,1626179,1628970,1628998,1629023,203469,0021900699,2,1172,1174,2,0,1610612752
73,1610612752,1626171,202694,203493,203901,203944,1610612766,1626179,1628970,1628984,1629023,203469,0021900699,2,1190,1190,0,0,1610612766
74,1610612752,1626171,202694,203493,203901,203944,1610612766,1626179,1628970,1628984,1629023,203469,0021900699,2,1196,1196,2,0,1610612752
75,1610612752,1626171,202694,203493,203901,203944,1610612766,1626179,1628970,1628984,1629023,203469,0021900699,2,1203,1203,0,3,1610612766
76,1610612752,1626171,202694,203493,203901,203944,1610612766,1626179,1628970,1628984,1629023,203469,0021900699,2,1217,1220,0,0,1610612752
77,1610612752,1626171,202694,203493,203901,203944,1610612766,1626179,1628970,1628984,1629023,203469,0021900699,2,1227,1227,0,0,1610612766
78,1610612752,1626171,202694,203493,203901,203944,1610612766,1626179,1628970,1628984,1629023,203469,0021900699,2,1237,1237,2,0,1610612752
79,1610612752,1626171,202694,203493,203901,203944,1610612766,1626179,1628970,1628984,1629023,203469,0021900699,2,1250,1250,0,2,1610612766
80,1610612752,1626171,202694,203493,203901,203944,1610612766,1626179,1628970,1628984,1629023,203469,0021900699,2,1254,1261,3,0,1610612752
81,1610612752,1629011,202694,203493,203901,203944,1610612766,101107,1626179,1626195,1628370,1628984,0021900699,2,1278,1278,0,2,1610612766
82,1610612752,1629011,202694,203493,203901,203944,1610612766,101107,1626179,1626195,1628370,1628984,0021900699,2,1299,1301,0,0,1610612752
83,1610612752,1629011,202694,203493,203901,203944,1610612766,101107,1626179,1626195,1628370,1628984,0021900699,2,1305,1305,0,1,1610612766
84,1610612752,1629011,202694,203493,203901,203944,1610612766,101107,1626179,1626195,1628370,1628984,0021900699,2,1330,1333,0,0,1610612752
85,1610612752,1629011,202694,203493,203901,203944,1610612766,101107,1626179,1626195,1628370,1628984,0021900699,2,1336,1336,0,3,1610612766
86,1610612752,1628422,201959,203493,203901,203944,1610612766,101107,1626179,1626195,1628370,1628984,0021900699,2,1356,1356,2,0,1610612752
87,1610612752,1628422,201959,203493,203901,203944,1610612766,101107,1626179,1626195,1628370,1628984,0021900699,2,1370,1370,0,2,1610612766
88,1610612752,1628422,201959,203493,203901,203944,1610612766,101107,1626179,1626195,1628370,1628984,0021900699,2,1378,1378,0,0,1610612752
89,1610612752,1628422,201959,203493,203901,203944,1610612766,101107,1626179,1626195,1628370,1628984,0021900699,2,1386,1388,0,1,1610612766
90,1610612752,1628422,201959,203493,203901,203944,1610612766,101107,1626179,1626195,1628370,1628984,0021900699,2,1403,1406,0,0,1610612752
91,1610612752,1628422,201959,203493,203901,203944,1610612766,101107,1626179,1626195,1628370,1628984,0021900699,2,1416,1416,0,2,1610612766
92,1610612752,1628422,201959,203493,203901,203944,1610612766,101107,1626179,1626195,1628370,1628984,0021900699,2,1438,1438,2,0,1610612752
93,1610612752,1628422,201959,203493,203901,203944,1610612766,101107,1626179,1626195,1628370,1628984,0021900699,2,1440,1440,0,0,1610612752
94,1610612752,202694,203944,201959,203493,203901,1610612766,1628970,1629023,203469,1628984,1626179,0021900699,3,1440,1468,0,0,1610612752
95,1610612752,202694,203944,201959,203493,203901,1610612766,1628970,1629023,203469,1628984,1626179,0021900699,3,1479,1479,0,3,1610612766
96,1610612752,202694,203944,201959,203493,203901,1610612766,1628970,1629023,203469,1628984,1626179,0021900699,3,1500,1500,3,0,1610612752
97,1610612752,202694,203944,201959,203493,203901,1610612766,1628970,1629023,203469,1628984,1626179,0021900699,3,1525,1525,0,3,1610612766
98,1610612752,202694,203944,201959,203493,203901,1610612766,1628970,1629023,203469,1628984,1626179,0021900699,3,1540,1544,0,0,1610612752
99,1610612752,202694,203944,201959,203493,203901,1610612766,1628970,1629023,203469,1628984,1626179,0021900699,3,1551,1551,0,2,1610612766
100,1610612752,202694,203944,201959,203493,203901,1610612766,1628970,1629023,203469,1628984,1626179,0021900699,3,1567,1570,0,0,1610612752
101,1610612752,202694,203944,201959,203493,203901,1610612766,1628970,1629023,203469,1628984,1626179,0021900699,3,1575,1579,0,0,1610612766
102,1610612752,202694,203944,201959,203493,203901,1610612766,1628970,1629023,203469,1628984,1626179,0021900699,3,1591,1591,2,0,1610612752
103,1610612752,202694,203944,201959,203493,203901,1610612766,1628970,1629023,203469,1628984,1626179,0021900699,3,1611,1615,0,0,1610612766
104,1610612752,202694,203944,201959,203493,203901,1610612766,1628970,1629023,203469,1628984,1626179,0021900699,3,1626,1627,0,0,1610612752
105,1610612752,202694,203944,201959,203493,203901,1610612766,1628970,1629023,203469,1628984,1626179,0021900699,3,1641,1641,0,0,1610612766
106,1610612752,202694,203944,201959,203493,203901,1610612766,1628970,1629023,203469,1628984,1626179,0021900699,3,1649,1649,0,0,1610612752
107,1610612752,202694,203944,201959,203493,203901,1610612766,1628970,1629023,203469,1628984,1626179,0021900699,3,1666,1666,0,0,1610612766
108,1610612752,202694,203944,201959,203493,203901,1610612766,1628970,1629023,203469,1628984,1626179,0021900699,3,1688,1688,2,0,1610612752
109,1610612752,202694,203944,201959,203493,203901,1610612766,1628970,1629023,203469,1628984,1626179,0021900699,3,1695,1709,0,0,1610612766
110,1610612752,202694,203944,201959,203493,203901,1610612766,1628970,1629023,203469,1628984,1626179,0021900699,3,1732,1732,0,0,1610612752
111,1610612752,202694,203944,201959,203493,203901,1610612766,1628970,1629023,203469,1628984,1626179,0021900699,3,1737,1737,0,2,1610612766
112,1610612752,202694,203944,201959,203493,203901,1610612766,1628970,1629023,203469,1628984,1626179,0021900699,3,1737,1755,0,0,1610612752
113,1610612752,202694,203944,201959,203493,203901,1610612766,1628970,1629023,203469,1628984,1626179,0021900699,3,1760,1760,0,2,1610612766
114,1610612752,202694,203944,201959,203493,203901,1610612766,1628970,1629023,203469,1628984,1626179,0021900699,3,1780,1783,0,0,1610612752
115,1610612752,202694,203944,201959,203493,203901,1610612766,1628970,1629023,203469,1628984,1626179,0021900699,3,1805,1805,0,2,1610612766
116,1610612752,202694,203944,201959,203493,203901,1610612766,1628970,1629023,203469,1628984,1626179,0021900699,3,1817,1817,3,0,1610612752
117,1610612752,202694,203944,201959,203493,203901,1610612766,1628970,1629023,203469,1628984,1626179,0021900699,3,1841,1841,0,0,1610612766
118,1610612752,1628422,1629011,202694,203901,203944,1610612766,1626179,1626195,1628370,1628970,1629023,0021900699,3,1853,1855,0,0,1610612752
119,1610612752,1628422,1629011,202694,203901,203944,1610612766,1626179,1626195,1628370,1628970,1629023,0021900699,3,1864,1866,0,0,1610612766
120,1610612752,1628422,1629011,202694,203901,203944,1610612766,1626179,1626195,1628370,1628970,1629023,0021900699,3,1874,1893,2,0,1610612752
121,1610612752,1628372,1628422,1629011,202694,203944,1610612766,101107,1626179,1626195,1628370,1628998,0021900699,3,1909,1911,0,0,1610612766
122,1610612752,1628372,1628422,1629011,202694,203944,1610612766,101107,1626179,1626195,1628370,1628998,0021900699,3,1921,1921,1,0,1610612752
123,1610612752,1628372,1628422,1629011,202694,203944,1610612766,101107,1626179,1626195,1628370,1628998,0021900699,3,1939,1939,0,0,1610612766
124,1610612752,1628372,1628422,1629011,202694,203944,1610612766,101107,1626179,1626195,1628370,1628998,0021900699,3,1942,1942,1,0,1610612752
125,1610612752,1628372,1628422,1629011,202694,203944,1610612766,101107,1626179,1626195,1628370,1628998,0021900699,3,1952,1952,0,2,1610612766
126,1610612752,1628372,1628422,1629011,202694,203944,1610612766,101107,1626179,1626195,1628370,1628998,0021900699,3,1974,1974,2,0,1610612752
127,1610612752,1628372,1628422,1629011,202694,203944,1610612766,101107,1626179,1626195,1628370,1628998,0021900699,3,1998,2000,0,0,1610612766
128,1610612752,1628372,1628422,1629011,202694,203944,1610612766,101107,1626179,1626195,1628370,1628998,0021900699,3,2007,2007,0,0,1610612752
129,1610612752,1628372,1628422,1629011,202694,203944,1610612766,101107,1626179,1626195,1628370,1628998,0021900699,3,2007,2028,0,0,1610612766
130,1610612752,1626171,1628372,1628422,1629011,202694,1610612766,101107,1626195,1628370,1628984,1628998,0021900699,3,2049,2051,0,0,1610612752
131,1610612752,1626171,1628372,1628422,1629011,202694,1610612766,101107,1626195,1628370,1628984,1628998,0021900699,3,2063,2063,0,2,1610612766
132,1610612752,1626171,1628372,1628422,1629011,202694,1610612766,101107,1626195,1628370,1628984,1628998,0021900699,3,2079,2081,0,0,1610612752
133,1610612752,1626171,1628372,1628422,1629011,202694,1610612766,101107,1626195,1628370,1628984,1628998,0021900699,3,2090,2099,0,3,1610612766
134,1610612752,1626171,1628372,1628422,1629011,202694,1610612766,101107,1626195,1628370,1628984,1628998,0021900699,3,2119,2122,0,0,1610612752
135,1610612752,1626171,1628372,1628422,1629011,202694,1610612766,101107,1626195,1628370,1628984,1628998,0021900699,3,2129,2155,0,0,1610612766
136,1610612752,1626171,1628372,1628422,1629011,202694,1610612766,101107,1626195,1628370,1628984,1628998,0021900699,3,2158,2160,0,0,1610612766
137,1610612752,1629011,1628422,1628372,1628995,1626171,1610612766,1628984,1628370,1626195,101107,1628998,0021900699,4,2160,2177,0,3,1610612766
138,1610612752,1629011,1628422,1628372,1628995,1626171,1610612766,1628984,1628370,1626195,101107,1628998,0021900699,4,2195,2197,0,0,1610612752
139,1610612752,1629011,1628422,1628372,1628995,1626171,1610612766,1628984,1628370,1626195,101107,1628998,0021900699,4,2202,2202,0,0,1610612766
140,1610612752,1629011,1628422,1628372,1628995,1626171,1610612766,1628984,1628370,1626195,101107,1628998,0021900699,4,2223,2226,0,0,1610612752
141,1610612752,1629011,1628422,1628372,1628995,1626171,1610612766,1628984,1628370,1626195,101107,1628998,0021900699,4,2240,2243,0,0,1610612766
142,1610612752,1629011,1628422,1628372,1628995,1626171,1610612766,1628984,1628370,1626195,101107,1628998,0021900699,4,2257,2257,0,0,1610612752
143,1610612752,1629011,1628422,1628372,1628995,1626171,1610612766,1628984,1628370,1626195,101107,1628998,0021900699,4,2269,2278,0,2,1610612766
144,1610612752,1626171,1628422,1628995,203901,203944,1610612766,1626195,1628370,1628984,1628998,1629023,0021900699,4,2296,2299,0,0,1610612752
145,1610612752,1626171,1628422,1628995,203901,203944,1610612766,1626195,1628370,1628984,1628998,1629023,0021900699,4,2316,2319,0,0,1610612766
146,1610612752,1626171,1628422,1628995,203901,203944,1610612766,1626195,1628370,1628984,1628998,1629023,0021900699,4,2326,2329,2,0,1610612752
147,1610612752,1626171,1628995,203493,203901,203944,1610612766,1628970,1628984,1628998,1629023,203469,0021900699,4,2335,2340,0,0,1610612766
148,1610612752,1626171,1628995,203493,203901,203944,1610612766,1628970,1628984,1628998,1629023,203469,0021900699,4,2358,2358,2,0,1610612752
149,1610612752,1626171,1628995,203493,203901,203944,1610612766,1628970,1628984,1628998,1629023,203469,0021900699,4,2370,2372,0,0,1610612766
150,1610612752,1626171,1628995,203493,203901,203944,1610612766,1628970,1628984,1628998,1629023,203469,0021900699,4,2388,2400,0,0,1610612752
151,1610612752,1626171,1628995,203493,203901,203944,1610612766,1626179,1628970,1628998,1629023,203469,0021900699,4,2403,2403,0,2,1610612766
152,1610612752,1626171,1628995,203493,203901,203944,1610612766,1626179,1628970,1628998,1629023,203469,0021900699,4,2403,2421,0,0,1610612752
153,1610612752,1629011,202694,203493,203901,203944,1610612766,1626179,1628970,1628998,1629023,203469,0021900699,4,2433,2435,0,0,1610612766
154,1610612752,1629011,202694,203493,203901,203944,1610612766,1626179,1628970,1628998,1629023,203469,0021900699,4,2456,2460,0,0,1610612752
155,1610612752,1629011,202694,203493,203901,203944,1610612766,1626179,1628970,1628998,1629023,203469,0021900699,4,2466,2466,0,0,1610612766
156,1610612752,1629011,202694,203493,203901,203944,1610612766,1626179,1628970,1628998,1629023,203469,0021900699,4,2483,2483,0,0,1610612752
157,1610612752,1629011,202694,203493,203901,203944,1610612766,1626179,1628970,1628998,1629023,203469,0021900699,4,2506,2506,0,2,1610612766
158,1610612752,1629011,202694,203493,203901,203944,1610612766,1626179,1628970,1628998,1629023,203469,0021900699,4,2528,2528,2,0,1610612752
159,1610612752,1629011,202694,203493,203901,203944,1610612766,1626179,1628970,1628998,1629023,203469,0021900699,4,2549,2555,0,2,1610612766
160,1610612752,1629011,202694,203493,203901,203944,1610612766,1626179,1628970,1628998,1629023,203469,0021900699,4,2573,2575,0,0,1610612752
161,1610612752,1629011,202694,203493,203901,203944,1610612766,1626179,1628970,1628998,1629023,203469,0021900699,4,2578,2578,0,2,1610612766
162,1610612752,1629011,202694,203493,203901,203944,1610612766,1626179,1628970,1628998,1629023,203469,0021900699,4,2585,2601,0,0,1610612752
163,1610612752,1629011,202694,203493,203901,203944,1610612766,1626179,1628970,1628984,1629023,203469,0021900699,4,2613,2621,0,0,1610612766
164,1610612752,1629011,202694,203493,203901,203944,1610612766,1626179,1628970,1628984,1629023,203469,0021900699,4,2633,2633,2,0,1610612752
165,1610612752,1629011,202694,203493,203901,203944,1610612766,1626179,1628970,1628984,1629023,203469,0021900699,4,2651,2654,0,0,1610612766
166,1610612752,1629011,202694,203493,203901,203944,1610612766,1626179,1628970,1628984,1629023,203469,0021900699,4,2656,2656,0,0,1610612752
167,1610612752,1629011,202694,203493,203901,203944,1610612766,1626179,1628970,1628984,1629023,203469,0021900699,4,2656,2679,0,3,1610612766
168,1610612752,1628373,1629011,202694,203901,203944,1610612766,1626179,1628370,1628984,1629023,203469,0021900699,4,2699,2699,3,0,1610612752
169,1610612752,1628373,1629011,202694,203901,203944,1610612766,1626179,1628370,1628984,1629023,203469,0021900699,4,2714,2721,0,2,1610612766
170,1610612752,1628373,1629011,202694,203901,203944,1610612766,1626179,1628370,1628984,1629023,203469,0021900699,4,2729,2734,2,0,1610612752
171,1610612752,1628373,1629011,202694,203901,203944,1610612766,1626179,1628370,1628984,1629023,203469,0021900699,4,2753,2753,0,2,1610612766
172,1610612752,1628373,1629011,202694,203901,203944,1610612766,1626179,1628370,1628984,1629023,203469,0021900699,4,2764,2764,0,0,1610612752
173,1610612752,1628373,1629011,202694,203901,203944,1610612766,1626179,1628370,1628984,1629023,203469,0021900699,4,2764,2790,0,0,1610612766
174,1610612752,1628373,1629011,202694,203901,203944,1610612766,1626179,1628370,1628984,1629023,203469,0021900699,4,2790,2790,2,0,1610612752
175,1610612752,1628373,1629011,202694,203901,203944,1610612766,1626179,1628370,1628984,1629023,203469,0021900699,4,2798,2798,0,0,1610612766
176,1610612752,1628373,1629011,202694,203901,203944,1610612766,1626179,1628370,1628984,1629023,203469,0021900699,4,2809,2809,3,0,1610612752
177,1610612752,1628373,1629011,202694,203901,203944,1610612766,1626179,1628370,1628984,1629023,203469,0021900699,4,2831,2835,0,0,1610612766
178,1610612752,1628373,1629011,202694,203901,203944,1610612766,1626179,1628370,1628984,1629023,203469,0021900699,4,2838,2840,0,0,1610612752
179,1610612752,1628373,1629011,202694,203901,203944,1610612766,1626179,1628370,1628984,1629023,203469,0021900699,4,2840,2840,0,2,1610612766
180,1610612752,1628373,1629011,202694,203901,203944,1610612766,1626179,1628984,1628998,1629023,203469,0021900699,4,2840,2849,2,0,1610612752
181,1610612752,1628422,1629011,202694,203901,203944,1610612766,101107,1626179,1628984,1628998,203469,0021900699,4,2849,2849,0,2,1610612766
182,1610612752,1628422,1629011,202694,203901,203944,1610612766,101107,1626179,1628984,1628998,1629023,0021900699,4,2856,2858,0,0,1610612752
183,1610612752,1628373,1628422,1629011,203901,203944,1610612766,101107,1626179,1628370,1628984,1629023,0021900699,4,2859,2859,0,1,1610612766
184,1610612752,1628422,1629011,202694,203901,203944,1610612766,101107,1626179,1628984,1628998,1629023,0021900699,4,2859,2861,3,0,1610612752
185,1610612752,1626171,1628422,202694,203901,203944,1610612766,101107,1626179,1628984,1628998,1629023,0021900699,4,2861,2862,0,2,1610612766
186,1610612752,1626171,1628422,202694,203901,203944,1610612766,101107,1626179,1628984,1628998,1629023,0021900699,4,2869,2869,3,0,1610612752
187,1610612752,1626171,1628422,202694,203901,203944,1610612766,101107,1626179,1628984,1628998,1629023,0021900699,4,2870,2870,0,2,1610612766
188,1610612752,1626171,1628422,202694,203901,203944,1610612766,101107,1626179,1628970,1628984,1628998,0021900699,4,2875,2879,0,0,1610612752
