,stint_start,t1_points_scored,t2_pm,stint_end,t1_id,t2_points_scored,t1_players,t2_id,t1_pm,t2_players,margin_per_100,num_poss
0,0,9,4,412,1610612754,13,"[203087, 1627734, 1626167, 203506, 1627763]",1610612761,-4,"[1628384, 1627783, 201586, 200768, 1627832]",-14.814814814814813,27.0
1,413,11,6,489,1610612754,17,"[203087, 1627734, 1626167, 203506, 1627763]",1610612761,-6,"[1628384, 1627783, 201586, 200768, 1627832]",-19.35483870967742,31.0
2,490,15,5,559,1610612754,20,"[1626167, 1627734, 1627763, 1628988, 203087]",1610612761,-5,"[1627775, 1627783, 1627832, 200768, 201586]",-13.88888888888889,36.0
3,560,18,7,630,1610612754,25,"[1626167, 1627763, 1628988, 203087, 203200]",1610612761,-7,"[1627775, 1627783, 1629056, 200768, 201586]",-17.5,40.0
4,631,20,9,712,1610612754,29,"[1628988, 1629048, 203087, 203200, 204456]",1610612761,-9,"[1627775, 1627783, 1628449, 1629056, 200768]",-20.0,45.0
5,713,20,10,717,1610612754,30,"[1628988, 1629048, 203200, 203926, 204456]",1610612761,-10,"[1626178, 1627775, 1627783, 1628449, 1629056]",-21.27659574468085,47.0
6,718,25,7,876,1610612754,32,"[1628988, 1629048, 203200, 203926, 204456]",1610612761,-7,"[1626178, 1627775, 1628384, 1628449, 1629056]",-12.280701754385964,57.0
7,877,32,3,1028,1610612754,35,"[1627734, 1628988, 203200, 204456, 203926]",1610612761,-3,"[1628384, 201586, 1627775, 1629056, 1626178]",-4.411764705882353,68.0
8,1029,44,-7,1124,1610612754,37,"[1627734, 1628988, 203200, 204456, 203926]",1610612761,7,"[1626178, 1627832, 1628384, 1629056, 201586]",9.333333333333334,75.0
9,1125,47,-8,1166,1610612754,39,"[1627734, 1627763, 203200, 203926, 204456]",1610612761,8,"[1627783, 1627832, 1628384, 200768, 201586]",10.38961038961039,77.0
10,1167,51,-7,1277,1610612754,44,"[1627734, 1627763, 203200, 203926, 204456]",1610612761,7,"[1627783, 1627832, 1628384, 1628449, 200768]",8.13953488372093,86.0
11,1278,56,-12,1334,1610612754,44,"[1627734, 1627763, 203200, 203506, 203926]",1610612761,12,"[1627783, 1627832, 1628384, 1628449, 200768]",13.48314606741573,89.0
12,1335,61,-13,1439,1610612754,48,"[1626167, 1627763, 203087, 203506, 203926]",1610612761,13,"[1626178, 1627783, 1627832, 1628449, 200768]",13.541666666666666,96.0
13,1440,75,-16,1784,1610612754,59,"[1626167, 1627763, 203087, 203200, 203506]",1610612761,16,"[1626178, 1627783, 1627832, 1628449, 200768]",13.333333333333334,120.0
14,1785,75,-8,1905,1610612754,67,"[203087, 1627734, 1626167, 203506, 1627763]",1610612761,8,"[1628384, 1627783, 201586, 200768, 1627832]",6.153846153846154,130.0
15,1906,77,-8,1955,1610612754,69,"[203087, 1627734, 1626167, 203506, 1627763]",1610612761,8,"[1627783, 1627832, 1628384, 1629056, 200768]",6.015037593984962,133.0
16,1956,84,-6,2118,1610612754,78,"[1626167, 1627763, 203087, 203200, 203506]",1610612761,6,"[1627775, 1627783, 1628384, 1629056, 200768]",4.137931034482759,145.0
17,2119,86,-4,2159,1610612754,82,"[1626167, 1627763, 1628988, 203087, 203200]",1610612761,4,"[1627775, 1627783, 1628384, 1629056, 200768]",2.684563758389262,149.0
18,2160,97,-10,2346,1610612754,87,"[1627734, 1627763, 1628988, 203200, 203926]",1610612761,10,"[1626178, 1627775, 1627783, 1629056, 200768]",6.172839506172839,162.0
19,2347,99,-7,2389,1610612754,92,"[1627734, 1628988, 203200, 204456, 203926]",1610612761,7,"[201586, 1627832, 1627775, 1629056, 1626178]",4.242424242424243,165.0
20,2390,106,-5,2545,1610612754,101,"[1627734, 1628988, 203200, 204456, 203926]",1610612761,5,"[1627775, 1627783, 1627832, 1629056, 201586]",2.857142857142857,175.0
21,2546,118,-8,2778,1610612754,110,"[1627734, 1628988, 203200, 204456, 203926]",1610612761,8,"[1627783, 1627832, 1629056, 200768, 201586]",4.232804232804233,189.0
22,2779,118,-5,2796,1610612754,113,"[1627734, 1627763, 203200, 203506, 203926]",1610612761,5,"[1627783, 1627832, 1629056, 200768, 201586]",2.6178010471204187,191.0
23,2797,118,1,2869,1610612754,119,"[1626167, 1627734, 1627763, 203200, 203506]",1610612761,-1,"[1627783, 1627832, 1629056, 200768, 201586]",-0.5076142131979695,197.0
24,2870,118,1,9999999,1610612754,119,"[1627734, 1627763, 1628988, 203200, 203506]",1610612761,-1,"[1627783, 1627832, 1629056, 200768, 201586]",-0.5050505050505051,198.0
