,TEAM_ID_1,TEAM_1_PLAYERS,TEAM_ID_2,TEAM_2_PLAYERS,PERIOD
0,1610612756,[1626162 1628969 1629028 1626164  201937],1610612742,[ 203501 1627827  204001  203552 1629029],1
1,1610612756,[1626162 1628969 1629660  203967 1628975],1610612742,[ 203501  204001 1626153 1628973 1628382],2
2,1610612756,[1626162 1628969 1629028 1626164  201937],1610612742,[ 203501 1627827  204001  203552 1629029],3
3,1610612756,[1626162 1629028 1629660 1628975  204020],1610612742,[ 203501 1627827  204001  203552 1629029],4
