,team1_id,team1_player1,team1_player2,team1_player3,team1_player4,team1_player5,team2_id,team2_player1,team2_player2,team2_player3,team2_player4,team2_player5,game_id,period,possession_start,possession_end,team1_points,team2_points,possession_team
0,1610612766,202330,1628998,1629023,1626179,1630163,1610612744,203952,203110,1626172,1626162,201939,0022000511,1,0,15,0,0,1610612744
1,1610612766,202330,1628998,1629023,1626179,1630163,1610612744,203952,203110,1626172,1626162,201939,0022000511,1,30,32,0,0,1610612766
2,1610612766,202330,1628998,1629023,1626179,1630163,1610612744,203952,203110,1626172,1626162,201939,0022000511,1,44,44,0,3,1610612744
3,1610612766,202330,1628998,1629023,1626179,1630163,1610612744,203952,203110,1626172,1626162,201939,0022000511,1,64,65,2,0,1610612766
4,1610612766,202330,1628998,1629023,1626179,1630163,1610612744,203952,203110,1626172,1626162,201939,0022000511,1,78,78,0,0,1610612744
5,1610612766,202330,1628998,1629023,1626179,1630163,1610612744,203952,203110,1626172,1626162,201939,0022000511,1,90,92,0,0,1610612766
6,1610612766,202330,1628998,1629023,1626179,1630163,1610612744,203952,203110,1626172,1626162,201939,0022000511,1,97,97,0,0,1610612744
7,1610612766,202330,1628998,1629023,1626179,1630163,1610612744,203952,203110,1626172,1626162,201939,0022000511,1,108,108,2,0,1610612766
8,1610612766,202330,1628998,1629023,1626179,1630163,1610612744,203952,203110,1626172,1626162,201939,0022000511,1,126,126,0,2,1610612744
9,1610612766,202330,1628998,1629023,1626179,1630163,1610612744,203952,203110,1626172,1626162,201939,0022000511,1,137,156,4,0,1610612766
10,1610612766,202330,1628998,1629023,1626179,1630163,1610612744,203952,203110,1626172,1626162,201939,0022000511,1,171,171,0,0,1610612744
11,1610612766,202330,1628998,1629023,1626179,1630163,1610612744,203952,203110,1626172,1626162,201939,0022000511,1,177,178,0,0,1610612766
12,1610612766,202330,1628998,1629023,1626179,1630163,1610612744,203952,203110,1626172,1626162,201939,0022000511,1,183,185,0,0,1610612744
13,1610612766,202330,1628998,1629023,1626179,1630163,1610612744,203952,203110,1626172,1626162,201939,0022000511,1,195,195,2,0,1610612766
14,1610612766,202330,1628998,1629023,1626179,1630163,1610612744,203952,203110,1626172,1626162,201939,0022000511,1,210,215,0,4,1610612744
15,1610612766,202330,1628998,1629023,1626179,1630163,1610612744,203952,203110,1626172,1626162,201939,0022000511,1,230,232,0,0,1610612766
16,1610612766,202330,1628998,1629023,1626179,1630163,1610612744,203952,203110,1626172,1626162,201939,0022000511,1,236,236,0,2,1610612744
17,1610612766,202330,1628998,1629023,1626179,1630163,1610612744,203952,203110,1626172,1626162,201939,0022000511,1,250,251,0,0,1610612766
18,1610612766,202330,1628998,1629023,1626179,1630163,1610612744,203952,203110,1626172,1626162,201939,0022000511,1,265,265,0,0,1610612744
19,1610612766,202330,1628998,1629023,1626179,1630163,1610612744,203952,203110,1626172,1626162,201939,0022000511,1,281,289,0,0,1610612766
20,1610612766,202330,1628998,1629023,1626179,1630163,1610612744,203952,203110,1626172,1626162,201939,0022000511,1,291,299,0,2,1610612744
21,1610612766,1626179,1628970,1628998,1630163,202330,1610612744,203952,203110,1626172,1626162,201939,0022000511,1,299,320,1,0,1610612766
22,1610612766,1626179,1628970,1630163,202330,202687,1610612744,203952,203110,1626172,1626162,201939,0022000511,1,334,334,0,2,1610612744
23,1610612766,1626179,1628970,1630163,202330,202687,1610612744,203952,203110,1626172,1626162,201939,0022000511,1,346,346,3,0,1610612766
24,1610612766,1626179,1628970,1630163,202330,202687,1610612744,203952,203110,1626172,1626162,201939,0022000511,1,365,365,0,2,1610612744
25,1610612766,1626179,1628970,1630163,202330,202687,1610612744,203952,203110,1626172,1626162,201939,0022000511,1,389,390,0,0,1610612766
26,1610612766,1626179,1628970,1630163,202330,202687,1610612744,203952,203110,1626172,1626162,201939,0022000511,1,404,404,0,2,1610612744
27,1610612766,1626179,1628970,1630163,202330,202687,1610612744,203952,203110,1626172,1626162,201939,0022000511,1,422,423,1,0,1610612766
28,1610612766,1628370,1628970,1630163,202330,202687,1610612744,1626162,1630164,201939,203110,203145,0022000511,1,434,434,0,2,1610612744
29,1610612766,1628370,1628970,1630163,202330,202687,1610612744,1626162,1630164,201939,203110,203145,0022000511,1,455,455,3,0,1610612766
30,1610612766,1628370,1628970,1630163,202330,202687,1610612744,1626162,1630164,201939,203110,203145,0022000511,1,472,472,0,2,1610612744
31,1610612766,1628370,1628970,1630163,202330,202687,1610612744,1626162,1630164,201939,203110,203145,0022000511,1,490,491,1,0,1610612766
32,1610612766,1628370,1628970,1630163,202330,202687,1610612744,1626162,1630164,201939,203110,203145,0022000511,1,504,506,0,0,1610612744
33,1610612766,1628370,1628970,1630163,202330,202687,1610612744,1626162,1630164,201939,203110,203145,0022000511,1,514,514,0,0,1610612766
34,1610612766,1628370,1628970,1630163,202330,202687,1610612744,1626162,1630164,201939,203110,203145,0022000511,1,519,519,0,0,1610612744
35,1610612766,1628370,1628970,1630163,202330,202687,1610612744,1626162,1630164,201939,203110,203145,0022000511,1,525,527,0,0,1610612766
36,1610612766,1628370,1628970,1630163,202330,202687,1610612744,1626162,1630164,201939,203110,203145,0022000511,1,538,540,0,0,1610612744
37,1610612766,1628370,1628970,1630163,202330,202687,1610612744,1626162,1630164,201939,203110,203145,0022000511,1,549,549,0,0,1610612766
38,1610612766,1628370,1628970,1630163,202330,202687,1610612744,1626162,1630164,201939,203110,203145,0022000511,1,553,553,0,2,1610612744
39,1610612766,1628370,1628970,1630163,202330,202687,1610612744,1626162,1630164,201939,203110,203145,0022000511,1,571,571,3,0,1610612766
40,1610612766,1628370,1628970,1630163,202330,202687,1610612744,1626162,1630164,201939,203110,203145,0022000511,1,584,584,0,2,1610612744
41,1610612766,1628370,1628970,1630163,202330,202687,1610612744,1626162,1630164,201939,203110,203145,0022000511,1,595,596,0,0,1610612766
42,1610612766,1628370,1628970,1630163,202330,202687,1610612744,1626162,1630164,201939,203110,203145,0022000511,1,601,601,0,2,1610612744
43,1610612766,1628370,1628970,1630163,202330,202687,1610612744,1626162,1630164,201939,203110,203145,0022000511,1,611,612,0,0,1610612766
44,1610612766,1628370,1628970,1630163,202330,202687,1610612744,1626162,1630164,201939,203110,203145,0022000511,1,615,620,0,2,1610612744
45,1610612766,1626179,1628370,1628970,1629667,202687,1610612744,1626162,1630164,201939,203110,203145,0022000511,1,635,635,1,0,1610612766
46,1610612766,1626179,1628370,1628970,1629667,202687,1610612744,1626162,1630164,201939,203110,203145,0022000511,1,648,648,0,2,1610612744
47,1610612766,1626179,1628370,1628970,1629667,202687,1610612744,1626162,1630164,201939,203110,203145,0022000511,1,659,659,0,0,1610612766
48,1610612766,1626179,1628370,1628970,1629667,202687,1610612744,1626162,1630164,201939,203110,203145,0022000511,1,670,670,0,0,1610612744
49,1610612766,1626179,1628370,1628970,1629667,202687,1610612744,1626162,1630164,201939,203110,203145,0022000511,1,687,687,3,0,1610612766
50,1610612766,1626179,1628370,1628970,1629667,202687,1610612744,1626162,1630164,201939,203110,203145,0022000511,1,701,701,0,3,1610612744
51,1610612766,1626179,1628370,1628970,1629667,202687,1610612744,1626162,1630164,201939,203110,203145,0022000511,1,718,718,2,0,1610612766
52,1610612766,1626179,1628370,1628970,1629667,202687,1610612744,1626162,1630164,201939,203110,203145,0022000511,1,720,720,0,0,1610612766
53,1610612766,1629023,1626179,1628970,1628370,1629667,1610612744,203952,1630164,1627814,1629672,202954,0022000511,2,720,733,0,0,1610612766
54,1610612766,1629023,1626179,1628970,1628370,1629667,1610612744,203952,1630164,1627814,1629672,202954,0022000511,2,748,749,0,0,1610612744
55,1610612766,1629023,1626179,1628970,1628370,1629667,1610612744,203952,1630164,1627814,1629672,202954,0022000511,2,756,756,2,0,1610612766
56,1610612766,1629023,1626179,1628970,1628370,1629667,1610612744,203952,1630164,1627814,1629672,202954,0022000511,2,771,771,0,0,1610612744
57,1610612766,1629023,1626179,1628970,1628370,1629667,1610612744,203952,1630164,1627814,1629672,202954,0022000511,2,784,784,0,0,1610612766
58,1610612766,1629023,1626179,1628970,1628370,1629667,1610612744,203952,1630164,1627814,1629672,202954,0022000511,2,788,788,0,0,1610612744
59,1610612766,1629023,1626179,1628970,1628370,1629667,1610612744,203952,1630164,1627814,1629672,202954,0022000511,2,795,795,3,0,1610612766
60,1610612766,1629023,1626179,1628970,1628370,1629667,1610612744,203952,1630164,1627814,1629672,202954,0022000511,2,807,818,0,2,1610612744
61,1610612766,1629023,1626179,1628970,1628370,1629667,1610612744,203952,1630164,1627814,1629672,202954,0022000511,2,829,829,2,0,1610612766
62,1610612766,1629023,1626179,1628970,1628370,1629667,1610612744,203952,1630164,1627814,1629672,202954,0022000511,2,839,840,0,1,1610612744
63,1610612766,1626179,1628370,1628998,1629023,1629667,1610612744,203952,1630164,1627814,1629672,202954,0022000511,2,849,850,0,0,1610612766
64,1610612766,1626179,1628370,1628998,1629023,1629667,1610612744,203952,1630164,1627814,1629672,202954,0022000511,2,865,866,0,0,1610612744
65,1610612766,1626179,1628370,1628998,1629023,1629667,1610612744,203952,1630164,1627814,1629672,202954,0022000511,2,872,886,0,0,1610612766
66,1610612766,1626179,1628370,1628998,1629023,1629667,1610612744,203952,1630164,1627814,1629672,202954,0022000511,2,894,901,0,0,1610612744
67,1610612766,1626179,1628370,1628998,1629023,1629667,1610612744,203952,1630164,1627814,1629672,202954,0022000511,2,914,914,2,0,1610612766
68,1610612766,1626179,1628370,1628998,1629023,1629667,1610612744,203952,1630164,1627814,1629672,202954,0022000511,2,927,927,0,0,1610612744
69,1610612766,1626179,1628370,1628998,1629023,1629667,1610612744,203952,1630164,1627814,1629672,202954,0022000511,2,936,938,0,0,1610612766
70,1610612766,1626179,1628370,1628998,1629023,1629667,1610612744,203952,1630164,1627814,1629672,202954,0022000511,2,949,950,0,0,1610612744
71,1610612766,1626179,1628370,1628998,1629023,1629667,1610612744,203952,1630164,1627814,1629672,202954,0022000511,2,956,956,3,0,1610612766
72,1610612766,1626179,1628370,1628998,1629023,1629667,1610612744,203952,1630164,1627814,1629672,202954,0022000511,2,957,957,0,0,1610612744
73,1610612766,1626179,1628370,1628998,1629023,1629667,1610612744,203952,1630164,1627814,1629672,202954,0022000511,2,975,975,0,0,1610612766
74,1610612766,1626179,1628370,1628998,1629023,1629667,1610612744,203952,1630164,1627814,1629672,202954,0022000511,2,981,983,0,0,1610612744
75,1610612766,1626179,1628370,1628998,1629023,1629667,1610612744,203952,1630164,1627814,1629672,202954,0022000511,2,1002,1004,0,0,1610612766
76,1610612766,1626179,1628370,1628998,1629023,1629667,1610612744,203952,1630164,1627814,1629672,202954,0022000511,2,1011,1013,0,0,1610612744
77,1610612766,1626179,1628370,1628998,1629023,1629667,1610612744,203952,1630164,1627814,1629672,202954,0022000511,2,1021,1022,0,0,1610612766
78,1610612766,1626179,1628370,1628998,1629023,1629667,1610612744,203952,1630164,1627814,1629672,202954,0022000511,2,1031,1031,0,0,1610612744
79,1610612766,1628370,1628998,1629023,1629667,1630163,1610612744,1626162,1627814,1629672,202954,203952,0022000511,2,1038,1038,1,0,1610612766
80,1610612766,1628370,1628998,1629023,1629667,1630163,1610612744,1626162,1627814,1629672,202954,203952,0022000511,2,1053,1054,0,0,1610612744
81,1610612766,1628370,1628998,1629023,1629667,1630163,1610612744,1626162,1627814,1629672,202954,203952,0022000511,2,1059,1059,0,0,1610612766
82,1610612766,1628370,1628998,1629023,1629667,1630163,1610612744,1626162,1627814,1629672,202954,203952,0022000511,2,1066,1067,0,0,1610612744
83,1610612766,1628370,1628998,1629023,1629667,1630163,1610612744,1626162,1627814,1629672,202954,203952,0022000511,2,1072,1072,2,0,1610612766
84,1610612766,1628370,1628998,1629023,1629667,1630163,1610612744,1626162,1627814,1629672,202954,203952,0022000511,2,1090,1091,0,0,1610612744
85,1610612766,1628370,1628998,1629023,1629667,1630163,1610612744,1626162,1627814,1629672,202954,203952,0022000511,2,1101,1102,0,0,1610612766
86,1610612766,1628370,1628998,1629023,1629667,1630163,1610612744,1626162,1627814,1629672,202954,203952,0022000511,2,1102,1112,0,0,1610612744
87,1610612766,1628370,1628998,1629023,1629667,1630163,1610612744,1626162,1627814,1629672,201939,203110,0022000511,2,1130,1136,0,0,1610612766
88,1610612766,1628370,1628998,1629667,1630163,202687,1610612744,1626162,1627814,1629672,201939,203110,0022000511,2,1146,1146,0,2,1610612744
89,1610612766,1628370,1628998,1629667,1630163,202687,1610612744,1626162,1627814,1629672,201939,203110,0022000511,2,1160,1168,0,0,1610612766
90,1610612766,1628370,1628998,1630163,202330,202687,1610612744,1626162,1627814,1629672,201939,203110,0022000511,2,1179,1179,0,3,1610612744
91,1610612766,1628370,1628998,1630163,202330,202687,1610612744,1626162,1627814,1629672,201939,203110,0022000511,2,1182,1204,0,0,1610612766
92,1610612766,1626179,1628970,1630163,202330,202687,1610612744,1626162,1626172,1627814,201939,203110,0022000511,2,1217,1223,0,3,1610612744
93,1610612766,1626179,1628970,1630163,202330,202687,1610612744,1626162,1626172,1627814,201939,203110,0022000511,2,1243,1243,2,0,1610612766
94,1610612766,1626179,1628970,1630163,202330,202687,1610612744,1626162,1626172,1627814,201939,203110,0022000511,2,1262,1262,0,3,1610612744
95,1610612766,1626179,1628970,1630163,202330,202687,1610612744,1626162,1626172,1627814,201939,203110,0022000511,2,1277,1277,0,0,1610612766
96,1610612766,1626179,1628970,1630163,202330,202687,1610612744,1626162,1626172,1627814,201939,203110,0022000511,2,1277,1277,0,2,1610612744
97,1610612766,1626179,1628970,1630163,202330,202687,1610612744,1626162,1626172,1627814,201939,203110,0022000511,2,1289,1291,0,0,1610612766
98,1610612766,1626179,1628970,1630163,202330,202687,1610612744,1626162,1626172,1627814,201939,203110,0022000511,2,1299,1299,0,2,1610612744
99,1610612766,1626179,1628970,1630163,202330,202687,1610612744,1626162,1626172,1627814,201939,203110,0022000511,2,1316,1316,2,0,1610612766
100,1610612766,1626179,1628970,1630163,202330,202687,1610612744,1626162,1626172,1627814,201939,203110,0022000511,2,1330,1330,0,3,1610612744
101,1610612766,1626179,1628970,1630163,202330,202687,1610612744,1626162,1626172,1627814,201939,203110,0022000511,2,1337,1339,0,0,1610612766
102,1610612766,1626179,1628970,1630163,202330,202687,1610612744,1626162,1626172,1627814,201939,203110,0022000511,2,1348,1350,0,0,1610612744
103,1610612766,1626179,1628970,1630163,202330,202687,1610612744,1626162,1626172,1627814,201939,203110,0022000511,2,1355,1355,0,0,1610612766
104,1610612766,1626179,1628970,1630163,202330,202687,1610612744,1626162,1626172,1627814,201939,203110,0022000511,2,1359,1359,0,2,1610612744
105,1610612766,1626179,1628970,1630163,202330,202687,1610612744,1626162,1626172,1627814,201939,203110,0022000511,2,1365,1365,0,0,1610612766
106,1610612766,1626179,1628970,1630163,202330,202687,1610612744,1626162,1626172,1627814,201939,203110,0022000511,2,1368,1370,0,0,1610612744
107,1610612766,1626179,1628970,1630163,202330,202687,1610612744,1626162,1626172,1627814,201939,203110,0022000511,2,1381,1381,3,0,1610612766
108,1610612766,1626179,1628970,1630163,202330,202687,1610612744,1626162,1626172,1627814,201939,203110,0022000511,2,1398,1403,0,2,1610612744
109,1610612766,1626179,1628970,1630163,202330,202687,1610612744,1626162,1626172,1627814,201939,203110,0022000511,2,1410,1420,1,0,1610612766
110,1610612766,1626179,1628998,1630163,202330,202687,1610612744,1626162,1627814,1628539,201939,203110,0022000511,2,1436,1436,0,3,1610612744
111,1610612766,1626179,1628998,1630163,202330,202687,1610612744,1626162,1627814,1628539,201939,203110,0022000511,2,1436,1436,0,0,1610612766
112,1610612766,1626179,1628998,1630163,202330,202687,1610612744,1626162,1627814,1628539,201939,203110,0022000511,2,1437,1437,0,2,1610612744
113,1610612766,1626179,1628998,1630163,202330,202687,1610612744,1626162,1626172,1627814,201939,203110,0022000511,2,1439,1440,0,0,1610612744
114,1610612766,202330,1628998,1629023,1626179,1630163,1610612744,203952,203110,1626172,1626162,201939,0022000511,3,1440,1451,0,0,1610612766
115,1610612766,202330,1628998,1629023,1626179,1630163,1610612744,203952,203110,1626172,1626162,201939,0022000511,3,1471,1472,0,0,1610612744
116,1610612766,202330,1628998,1629023,1626179,1630163,1610612744,203952,203110,1626172,1626162,201939,0022000511,3,1472,1487,3,0,1610612766
117,1610612766,202330,1628998,1629023,1626179,1630163,1610612744,203952,203110,1626172,1626162,201939,0022000511,3,1511,1511,0,2,1610612744
118,1610612766,202330,1628998,1629023,1626179,1630163,1610612744,203952,203110,1626172,1626162,201939,0022000511,3,1529,1529,2,0,1610612766
119,1610612766,202330,1628998,1629023,1626179,1630163,1610612744,203952,203110,1626172,1626162,201939,0022000511,3,1543,1543,0,2,1610612744
120,1610612766,202330,1628998,1629023,1626179,1630163,1610612744,203952,203110,1626172,1626162,201939,0022000511,3,1555,1563,3,0,1610612766
121,1610612766,202330,1628998,1629023,1626179,1630163,1610612744,203952,203110,1626172,1626162,201939,0022000511,3,1574,1574,0,2,1610612744
122,1610612766,202330,1628998,1629023,1626179,1630163,1610612744,203952,203110,1626172,1626162,201939,0022000511,3,1588,1588,3,0,1610612766
123,1610612766,202330,1628998,1629023,1626179,1630163,1610612744,203952,203110,1626172,1626162,201939,0022000511,3,1605,1605,0,2,1610612744
124,1610612766,202330,1628998,1629023,1626179,1630163,1610612744,203952,203110,1626172,1626162,201939,0022000511,3,1613,1613,3,0,1610612766
125,1610612766,202330,1628998,1629023,1626179,1630163,1610612744,203952,203110,1626172,1626162,201939,0022000511,3,1640,1642,0,0,1610612744
126,1610612766,202330,1628998,1629023,1626179,1630163,1610612744,203952,203110,1626172,1626162,201939,0022000511,3,1662,1662,2,0,1610612766
127,1610612766,202330,1628998,1629023,1626179,1630163,1610612744,203952,203110,1626172,1626162,201939,0022000511,3,1662,1674,0,2,1610612744
128,1610612766,202330,1628998,1629023,1626179,1630163,1610612744,203952,203110,1626172,1626162,201939,0022000511,3,1686,1688,0,0,1610612766
129,1610612766,202330,1628998,1629023,1626179,1630163,1610612744,203952,203110,1626172,1626162,201939,0022000511,3,1700,1700,0,2,1610612744
130,1610612766,202330,1628998,1629023,1626179,1630163,1610612744,203952,203110,1626172,1626162,201939,0022000511,3,1714,1715,0,0,1610612766
131,1610612766,202330,1628998,1629023,1626179,1630163,1610612744,203952,203110,1626172,1626162,201939,0022000511,3,1729,1731,0,0,1610612744
132,1610612766,202330,1628998,1629023,1626179,1630163,1610612744,203952,203110,1626172,1626162,201939,0022000511,3,1742,1743,0,0,1610612766
133,1610612766,202330,1628998,1629023,1626179,1630163,1610612744,203952,203110,1626172,1626162,201939,0022000511,3,1751,1752,0,0,1610612744
134,1610612766,202330,1628998,1629023,1626179,1630163,1610612744,203952,203110,1626172,1626162,201939,0022000511,3,1758,1758,2,0,1610612766
135,1610612766,202330,1628998,1629023,1626179,1630163,1610612744,203952,203110,1626172,1626162,201939,0022000511,3,1770,1770,0,0,1610612744
136,1610612766,202330,1628998,1629023,1626179,1630163,1610612744,203952,203110,1626172,1626162,201939,0022000511,3,1775,1775,2,0,1610612766
137,1610612766,202330,1628998,1629023,1626179,1630163,1610612744,203952,203110,1626172,1626162,201939,0022000511,3,1788,1788,0,3,1610612744
138,1610612766,202330,1628998,1629023,1626179,1630163,1610612744,203952,203110,1626172,1626162,201939,0022000511,3,1811,1813,0,0,1610612766
139,1610612766,202330,1628998,1629023,1626179,1630163,1610612744,203952,203110,1626172,1626162,201939,0022000511,3,1821,1821,0,2,1610612744
140,1610612766,1626179,1628370,1628970,1629023,202330,1610612744,1626162,1630164,201939,203110,203952,0022000511,3,1837,1837,2,0,1610612766
141,1610612766,1626179,1628370,1628970,1629023,202330,1610612744,1626162,1630164,201939,203110,203952,0022000511,3,1860,1860,0,2,1610612744
142,1610612766,1626179,1628370,1628970,1629023,202330,1610612744,1626162,1630164,201939,203110,203952,0022000511,3,1877,1877,1,0,1610612766
143,1610612766,1626179,1628370,1628970,1629667,202330,1610612744,1626162,1630164,201939,203110,203952,0022000511,3,1891,1891,0,2,1610612744
144,1610612766,1626179,1628370,1628970,1629667,202330,1610612744,1626162,1630164,201939,203110,203952,0022000511,3,1905,1905,3,0,1610612766
145,1610612766,1626179,1628370,1628970,1629667,202330,1610612744,1626162,1630164,201939,203110,203952,0022000511,3,1920,1920,0,2,1610612744
146,1610612766,1626179,1628370,1628970,1629667,202330,1610612744,1626162,1630164,201939,203110,203952,0022000511,3,1933,1933,3,0,1610612766
147,1610612766,1626179,1628370,1628970,1629667,202330,1610612744,1626162,1630164,201939,203110,203952,0022000511,3,1943,1943,0,3,1610612744
148,1610612766,1626179,1628370,1628970,1629667,202330,1610612744,1626162,1630164,201939,203110,203145,0022000511,3,1960,1967,0,0,1610612766
149,1610612766,1626179,1628370,1628970,1629667,202330,1610612744,1626162,1630164,201939,203110,203145,0022000511,3,1975,1975,0,2,1610612744
150,1610612766,1626179,1628370,1628970,1629667,202330,1610612744,1626162,1630164,201939,203110,203145,0022000511,3,1975,1984,0,0,1610612766
151,1610612766,1626179,1628370,1628970,1629667,1630163,1610612744,1626162,1630164,201939,203110,203145,0022000511,3,1989,1995,0,0,1610612744
152,1610612766,1626179,1628370,1628970,1629667,1630163,1610612744,1626162,1630164,201939,203110,203145,0022000511,3,2000,2000,2,0,1610612766
153,1610612766,1626179,1628370,1628970,1629667,1630163,1610612744,1626162,1630164,201939,203110,203145,0022000511,3,2015,2015,0,2,1610612744
154,1610612766,1626179,1628370,1628970,1629667,1630163,1610612744,1626162,1630164,201939,203110,203145,0022000511,3,2024,2029,2,0,1610612766
155,1610612766,1626179,1628370,1628970,1629667,1630163,1610612744,1626162,1630164,201939,203110,203145,0022000511,3,2051,2051,0,3,1610612744
156,1610612766,1626179,1628370,1628970,1629667,1630163,1610612744,1626162,1630164,201939,203110,203145,0022000511,3,2067,2067,0,0,1610612766
157,1610612766,1626179,1628370,1628970,1629667,1630163,1610612744,1626162,1630164,201939,203110,203145,0022000511,3,2072,2072,0,2,1610612744
158,1610612766,1626179,1628370,1628970,1629667,1630163,1610612744,1626162,1630164,201939,203110,203145,0022000511,3,2096,2096,0,0,1610612766
159,1610612766,1626179,1628370,1628970,1629667,1630163,1610612744,1626162,1630164,201939,203110,203145,0022000511,3,2106,2106,0,0,1610612744
160,1610612766,1626179,1628370,1628970,1629667,1630163,1610612744,1626162,1630164,201939,203110,203145,0022000511,3,2118,2130,0,0,1610612766
161,1610612766,1626179,1628370,1628970,1629667,1630163,1610612744,1626162,1630164,201939,203110,203145,0022000511,3,2137,2137,0,2,1610612744
162,1610612766,1626179,1628370,1628970,1629667,1630163,1610612744,1626162,1630164,201939,203110,203145,0022000511,3,2158,2158,0,0,1610612766
163,1610612766,1626179,1628370,1628970,1629667,1630163,1610612744,1626162,1630164,201939,203110,203145,0022000511,3,2160,2160,0,0,1610612766
164,1610612766,202330,1628998,1629023,1630163,1628370,1610612744,203952,1630164,1627814,1629672,202954,0022000511,4,2160,2170,0,0,1610612744
165,1610612766,202330,1628998,1629023,1630163,1628370,1610612744,203952,1630164,1627814,1629672,202954,0022000511,4,2178,2189,2,0,1610612766
166,1610612766,202330,1628998,1629023,1630163,1628370,1610612744,203952,1630164,1627814,1629672,202954,0022000511,4,2189,2207,0,0,1610612744
167,1610612766,202330,1628998,1629023,1630163,1628370,1610612744,203952,1630164,1627814,1629672,202954,0022000511,4,2221,2221,2,0,1610612766
168,1610612766,202330,1628998,1629023,1630163,1628370,1610612744,1627814,1629308,1629672,202954,203952,0022000511,4,2240,2240,0,2,1610612744
169,1610612766,202330,1628998,1629023,1630163,1628370,1610612744,1627814,1629308,1629672,202954,203952,0022000511,4,2260,2262,0,0,1610612766
170,1610612766,202330,1628998,1629023,1630163,1628370,1610612744,1627814,1629308,1629672,202954,203952,0022000511,4,2271,2271,0,0,1610612744
171,1610612766,202330,1628998,1629023,1630163,1628370,1610612744,1627814,1629308,1629672,202954,203952,0022000511,4,2281,2281,2,0,1610612766
172,1610612766,202330,1628998,1629023,1630163,1628370,1610612744,1627814,1629308,1629672,202954,203952,0022000511,4,2299,2299,0,3,1610612744
173,1610612766,202330,1628998,1629023,1630163,1628370,1610612744,1627814,1629308,1629672,202954,203952,0022000511,4,2320,2321,0,0,1610612766
174,1610612766,202330,1628998,1629023,1630163,1628370,1610612744,1627814,1629308,1629672,202954,203952,0022000511,4,2327,2327,0,0,1610612744
175,1610612766,202330,1628998,1629023,1630163,1628370,1610612744,1627814,1629308,1629672,202954,203952,0022000511,4,2330,2330,3,0,1610612766
176,1610612766,202330,1628998,1629023,1630163,1628370,1610612744,1627814,1629308,1629672,202954,203952,0022000511,4,2351,2352,0,0,1610612744
177,1610612766,202330,1628998,1629023,1630163,1628370,1610612744,1627814,1629308,1629672,202954,203952,0022000511,4,2356,2358,0,0,1610612766
178,1610612766,202330,1628998,1629023,1630163,1628370,1610612744,1627814,1629308,1629672,202954,203952,0022000511,4,2373,2373,0,2,1610612744
179,1610612766,202330,1628998,1629023,1630163,1628370,1610612744,1627814,1629308,1629672,202954,203952,0022000511,4,2389,2389,2,0,1610612766
180,1610612766,202330,1628998,1629023,1630163,1628370,1610612744,1627814,1629308,1629672,202954,203952,0022000511,4,2411,2411,0,2,1610612744
181,1610612766,202330,1628998,1629023,1630163,1628370,1610612744,1627814,1629308,1629672,202954,203952,0022000511,4,2420,2425,1,0,1610612766
182,1610612766,1626179,1628370,1628998,1629023,202330,1610612744,1627814,1629308,1629672,202954,203952,0022000511,4,2433,2433,0,0,1610612744
183,1610612766,1626179,1628370,1628998,1629023,202330,1610612744,1627814,1629308,1629672,202954,203952,0022000511,4,2441,2441,0,0,1610612766
184,1610612766,1626179,1628370,1628998,1629023,202330,1610612744,1627814,1629308,1629672,202954,203952,0022000511,4,2456,2456,0,0,1610612744
185,1610612766,1626179,1628370,1628998,1629023,202330,1610612744,1627814,1629308,1629672,202954,203952,0022000511,4,2464,2464,2,0,1610612766
186,1610612766,1626179,1628370,1628998,1629023,202330,1610612744,1627814,1629308,1629672,202954,203952,0022000511,4,2464,2472,0,0,1610612744
187,1610612766,1626179,1628370,1628998,1629023,202330,1610612744,1626162,1627814,1629308,1629672,202954,0022000511,4,2480,2491,0,0,1610612766
188,1610612766,1626179,1628370,1628998,1629023,202330,1610612744,1626162,1627814,1629308,1629672,202954,0022000511,4,2491,2503,0,3,1610612744
189,1610612766,1626179,1628370,1628998,1629023,202330,1610612744,1626162,1627814,1629308,1629672,202954,0022000511,4,2505,2519,0,0,1610612766
190,1610612766,1626179,1628370,1629023,1630163,202330,1610612744,1626162,1627814,1629672,201939,203110,0022000511,4,2536,2536,0,0,1610612744
191,1610612766,1626179,1628370,1629023,1630163,202330,1610612744,1626162,1627814,1629672,201939,203110,0022000511,4,2545,2545,2,0,1610612766
192,1610612766,1626179,1628370,1629023,1630163,202330,1610612744,1626162,1629672,201939,203110,203952,0022000511,4,2560,2562,0,0,1610612744
193,1610612766,1626179,1628370,1629023,1630163,202330,1610612744,1626162,1629672,201939,203110,203952,0022000511,4,2573,2575,0,0,1610612766
194,1610612766,1626179,1628370,1629023,1630163,202330,1610612744,1626162,1629672,201939,203110,203952,0022000511,4,2589,2589,0,2,1610612744
195,1610612766,1626179,1628370,1629023,1630163,202330,1610612744,1626162,1629672,201939,203110,203952,0022000511,4,2593,2594,1,0,1610612766
196,1610612766,1626179,1628970,1629023,1630163,202330,1610612744,1626162,1626172,201939,203110,203952,0022000511,4,2600,2619,0,0,1610612744
197,1610612766,1626179,1628970,1629023,1630163,202330,1610612744,1626162,1626172,201939,203110,203952,0022000511,4,2624,2624,0,0,1610612766
198,1610612766,1626179,1628970,1629023,1630163,202330,1610612744,1626162,1626172,201939,203110,203952,0022000511,4,2629,2638,0,2,1610612744
199,1610612766,1626179,1628970,1629023,1630163,202330,1610612744,1626162,1626172,201939,203110,203952,0022000511,4,2650,2650,3,0,1610612766
200,1610612766,1626179,1628970,1629023,1630163,202330,1610612744,1626162,1626172,201939,203110,203952,0022000511,4,2666,2667,0,0,1610612744
201,1610612766,1626179,1628970,1629023,1630163,202330,1610612744,1626162,1626172,201939,203110,203952,0022000511,4,2673,2673,3,0,1610612766
202,1610612766,1626179,1628970,1629023,1630163,202330,1610612744,1626162,1626172,201939,203110,203952,0022000511,4,2673,2696,0,0,1610612744
203,1610612766,1626179,1628970,1629023,1630163,202330,1610612744,1626162,1626172,201939,203110,203952,0022000511,4,2710,2710,2,0,1610612766
204,1610612766,1626179,1628970,1629023,1630163,202330,1610612744,1626162,1626172,201939,203110,203952,0022000511,4,2725,2725,0,3,1610612744
205,1610612766,1626179,1628970,1629023,1630163,202330,1610612744,1626162,1626172,201939,203110,203952,0022000511,4,2737,2737,0,0,1610612766
206,1610612766,1626179,1628970,1629023,1630163,202330,1610612744,1626162,201939,203110,203145,203952,0022000511,4,2755,2756,0,0,1610612744
207,1610612766,1626179,1628970,1629023,1630163,202330,1610612744,1626162,201939,203110,203145,203952,0022000511,4,2761,2763,0,0,1610612766
208,1610612766,1626179,1628970,1629023,1630163,202330,1610612744,1626162,201939,203110,203145,203952,0022000511,4,2770,2770,0,2,1610612744
209,1610612766,1626179,1628970,1629023,1630163,202330,1610612744,1626162,201939,203110,203145,203952,0022000511,4,2770,2776,2,0,1610612766
210,1610612766,1626179,1628970,1628998,1629667,1630163,1610612744,1626162,201939,203110,203145,203952,0022000511,4,2788,2788,0,0,1610612744
211,1610612766,1626179,1628970,1628998,1629667,1630163,1610612744,1626162,201939,203110,203145,203952,0022000511,4,2792,2792,2,0,1610612766
212,1610612766,1626179,1628970,1628998,1629667,1630163,1610612744,1626162,201939,203110,203145,203952,0022000511,4,2799,2807,0,0,1610612744
213,1610612766,1626179,1628970,1628998,1629667,1630163,1610612744,1626162,201939,203110,203145,203952,0022000511,4,2818,2820,0,0,1610612766
214,1610612766,1626179,1628970,1628998,1629667,1630163,1610612744,1626162,201939,203110,203145,203952,0022000511,4,2827,2840,0,0,1610612744
215,1610612766,1626179,1628970,1628998,1629667,1630163,1610612744,1626162,201939,203110,203145,203952,0022000511,4,2851,2851,2,0,1610612766
216,1610612766,1626179,1628970,1628998,1629667,1630163,1610612744,1626162,201939,203110,203145,203952,0022000511,4,2857,2857,0,2,1610612744
217,1610612766,1626179,1628970,1628998,1629667,1630163,1610612744,1626162,201939,203110,203145,203952,0022000511,4,2863,2866,4,0,1610612766
218,1610612766,1626179,1628970,1628998,1629667,1630163,1610612744,1626162,201939,203110,203145,203952,0022000511,4,2866,2868,0,2,1610612744
219,1610612766,1626179,1628970,1628998,1629667,1630163,1610612744,1626162,201939,203110,203145,203952,0022000511,4,2871,2871,2,0,1610612766
220,1610612766,1626179,1628970,1628998,1629667,1630163,1610612744,1626162,201939,203110,203145,203952,0022000511,4,2876,2876,0,2,1610612744
