,t1_points_scored,stint_end,t2_pm,t1_players,t2_id,t1_id,t2_players,t2_points_scored,t1_pm,stint_start,margin_per_100,num_poss
0,10,427,1,"[2544, 203076, 201580, 202340, 1627936]",1610612763,1610612747,"[1628415, 203937, 202685, 1629001, 1629630]",11,-1,0,-3.7037037037037033,27.0
1,13,455,0,"[2544, 203076, 201580, 202340, 1627936]",1610612763,1610612747,"[1628415, 203937, 202685, 1629001, 1629630]",13,0,428,0.0,29.0
2,17,543,1,"[1628398, 202340, 203076, 203484, 2544]",1610612763,1610612747,"[1626145, 1628415, 1629630, 202685, 203476]",18,-1,456,-2.941176470588235,34.0
3,25,706,2,"[1628398, 200765, 202340, 203076, 203484]",1610612763,1610612747,"[1626145, 1628367, 1629630, 202685, 203476]",27,-2,544,-4.444444444444445,45.0
4,25,719,4,"[1628398, 200765, 202340, 202693, 203484]",1610612763,1610612747,"[1626145, 1628367, 1629139, 1629630, 203476]",29,-4,707,-8.51063829787234,47.0
5,25,754,4,"[1628398, 200765, 202693, 203484, 2544]",1610612763,1610612747,"[1626145, 1628367, 1629139, 1629630, 203476]",29,-4,720,-8.0,50.0
6,29,841,1,"[2544, 201580, 203484, 202693, 2730]",1610612763,1610612747,"[1628415, 1626145, 203476, 1628367, 1629139]",30,-1,755,-1.8181818181818181,55.0
7,31,867,1,"[1628398, 202693, 203484, 2544, 2730]",1610612763,1610612747,"[1628415, 1626145, 203476, 1628367, 1629139]",32,-1,842,-1.7543859649122806,57.0
8,31,885,1,"[1628398, 202693, 203484, 2544, 2730]",1610612763,1610612747,"[1626145, 1628415, 1629139, 1629723, 203476]",32,-1,868,-1.7241379310344827,58.0
9,31,943,6,"[1628398, 202693, 203484, 2544, 2730]",1610612763,1610612747,"[1626145, 1628415, 1629139, 1629723, 202685]",37,-6,886,-9.67741935483871,62.0
10,33,1056,9,"[1628398, 202693, 203484, 2544, 2730]",1610612763,1610612747,"[1626145, 1628415, 1629723, 202685, 203937]",42,-9,944,-13.23529411764706,68.0
11,33,1101,12,"[1627936, 202693, 203484, 2544, 2730]",1610612763,1610612747,"[1626145, 1628415, 1629723, 202685, 203937]",45,-12,1057,-17.142857142857142,70.0
12,33,1162,16,"[1627936, 200765, 202693, 203484, 2730]",1610612763,1610612747,"[1626145, 1628415, 1629723, 202685, 203937]",49,-16,1102,-21.62162162162162,74.0
13,37,1213,14,"[1627936, 200765, 202693, 203484, 2730]",1610612763,1610612747,"[1626145, 1629001, 1629723, 202685, 203937]",51,-14,1163,-18.181818181818183,77.0
14,42,1273,12,"[1627936, 200765, 203076, 203484, 2730]",1610612763,1610612747,"[1629001, 1629630, 1629723, 203476, 203937]",54,-12,1214,-14.814814814814813,81.0
15,44,1386,12,"[1627936, 200765, 202340, 203076, 2730]",1610612763,1610612747,"[1629001, 1629630, 1629723, 203476, 203937]",56,-12,1274,-13.48314606741573,89.0
16,46,1439,12,"[1627936, 1628398, 202340, 203076, 2544]",1610612763,1610612747,"[1628415, 1629001, 1629630, 203476, 203937]",58,-12,1387,-12.903225806451612,93.0
17,58,1748,14,"[1627936, 1628398, 202340, 203076, 2544]",1610612763,1610612747,"[1628415, 1629001, 1629630, 202685, 203476]",72,-14,1440,-12.389380530973451,113.0
18,58,1787,18,"[2544, 203076, 201580, 202340, 1627936]",1610612763,1610612747,"[1628415, 203937, 202685, 1629001, 1629630]",76,-18,1749,-15.517241379310345,116.0
19,60,1848,16,"[200765, 201580, 203076, 203484, 2544]",1610612763,1610612747,"[1628415, 203937, 202685, 1629001, 1629630]",76,-16,1788,-13.445378151260504,119.0
20,60,1915,19,"[200765, 202693, 203076, 203484, 2544]",1610612763,1610612747,"[1628415, 203937, 202685, 1629001, 1629630]",79,-19,1849,-15.447154471544716,123.0
21,60,1947,19,"[200765, 202693, 203076, 203484, 2544]",1610612763,1610612747,"[1626145, 1628415, 1629630, 202685, 203476]",79,-19,1916,-15.2,125.0
22,62,1990,19,"[200765, 202693, 203076, 203484, 2544]",1610612763,1610612747,"[1626145, 1628415, 1629139, 1629630, 203476]",81,-19,1948,-14.615384615384617,130.0
23,66,2144,20,"[1628398, 200765, 202693, 203484, 2544]",1610612763,1610612747,"[1626145, 1628367, 1629139, 1629630, 203476]",86,-20,1991,-14.388489208633093,139.0
24,68,2205,18,"[1628398, 200765, 202693, 203484, 2730]",1610612763,1610612747,"[1626145, 1628367, 1629139, 1629723, 203476]",86,-18,2145,-12.676056338028168,142.0
25,72,2298,16,"[2544, 203484, 1628398, 200765, 2730]",1610612763,1610612747,"[1626145, 203476, 1628367, 1629139, 1629723]",88,-16,2206,-10.738255033557047,149.0
26,81,2465,9,"[2544, 203484, 1628398, 200765, 2730]",1610612763,1610612747,"[1626145, 1628367, 1628415, 203476, 203937]",90,-9,2299,-5.555555555555555,162.0
27,81,2519,11,"[2544, 203484, 1628398, 200765, 2730]",1610612763,1610612747,"[1628367, 1628415, 1629630, 202685, 203937]",92,-11,2466,-6.707317073170732,164.0
28,83,2695,16,"[2544, 203484, 1628398, 200765, 2730]",1610612763,1610612747,"[1628415, 1629001, 1629630, 202685, 203937]",99,-16,2520,-9.195402298850574,174.0
29,85,2774,20,"[1628398, 200765, 203076, 203484, 2544]",1610612763,1610612747,"[1628415, 1629001, 1629630, 202685, 203937]",105,-20,2696,-11.1731843575419,179.0
30,85,2870,20,"[1628398, 200765, 201162, 201580, 203584]",1610612763,1610612747,"[1628415, 1629001, 1629630, 202685, 203937]",105,-20,2775,-10.81081081081081,185.0
31,88,9999999,17,"[1626188, 1628398, 201162, 201580, 203584]",1610612763,1610612747,"[1626145, 1629139, 1629723, 1629741, 203476]",105,-17,2871,-9.13978494623656,186.0
