,team1_id,team1_player1,team1_player2,team1_player3,team1_player4,team1_player5,team2_id,team2_player1,team2_player2,team2_player3,team2_player4,team2_player5,game_id,period,possession_start,possession_end,team1_points,team2_points,possession_team
0,1610612756,1626162,203967,1626163,1626164,201937,1610612758,203084,202357,1626158,1627741,202709,0021900200,1,0,9,0,0,1610612756
1,1610612756,1626162,203967,1626163,1626164,201937,1610612758,203084,202357,1626158,1627741,202709,0021900200,1,12,12,0,2,1610612758
2,1610612756,1626162,203967,1626163,1626164,201937,1610612758,203084,202357,1626158,1627741,202709,0021900200,1,26,29,0,0,1610612756
3,1610612756,1626162,203967,1626163,1626164,201937,1610612758,203084,202357,1626158,1627741,202709,0021900200,1,51,54,0,0,1610612758
4,1610612756,1626162,203967,1626163,1626164,201937,1610612758,203084,202357,1626158,1627741,202709,0021900200,1,65,65,2,0,1610612756
5,1610612756,1626162,203967,1626163,1626164,201937,1610612758,203084,202357,1626158,1627741,202709,0021900200,1,82,82,0,2,1610612758
6,1610612756,1626162,203967,1626163,1626164,201937,1610612758,203084,202357,1626158,1627741,202709,0021900200,1,94,94,0,0,1610612756
7,1610612756,1626162,203967,1626163,1626164,201937,1610612758,203084,202357,1626158,1627741,202709,0021900200,1,100,100,0,0,1610612758
8,1610612756,1626162,203967,1626163,1626164,201937,1610612758,203084,202357,1626158,1627741,202709,0021900200,1,107,110,0,0,1610612756
9,1610612756,1626162,203967,1626163,1626164,201937,1610612758,203084,202357,1626158,1627741,202709,0021900200,1,123,126,0,0,1610612758
10,1610612756,1626162,203967,1626163,1626164,201937,1610612758,203084,202357,1626158,1627741,202709,0021900200,1,131,135,0,0,1610612756
11,1610612756,1626162,203967,1626163,1626164,201937,1610612758,203084,202357,1626158,1627741,202709,0021900200,1,143,148,0,0,1610612758
12,1610612756,1626162,203967,1626163,1626164,201937,1610612758,203084,202357,1626158,1627741,202709,0021900200,1,158,158,2,0,1610612756
13,1610612756,1626162,203967,1626163,1626164,201937,1610612758,203084,202357,1626158,1627741,202709,0021900200,1,171,179,0,2,1610612758
14,1610612756,1626162,203967,1626163,1626164,201937,1610612758,203084,202357,1626158,1627741,202709,0021900200,1,190,199,0,0,1610612756
15,1610612756,1626162,203967,1626163,1626164,201937,1610612758,203084,202357,1626158,1627741,202709,0021900200,1,206,206,0,0,1610612758
16,1610612756,1626162,203967,1626163,1626164,201937,1610612758,203084,202357,1626158,1627741,202709,0021900200,1,209,209,0,0,1610612756
17,1610612756,1626162,203967,1626163,1626164,201937,1610612758,203084,202357,1626158,1627741,202709,0021900200,1,219,219,0,0,1610612758
18,1610612756,1626162,203967,1626163,1626164,201937,1610612758,203084,202357,1626158,1627741,202709,0021900200,1,235,237,1,0,1610612756
19,1610612756,1626162,203967,1626163,1626164,201937,1610612758,203084,202357,1626158,1627741,202709,0021900200,1,250,253,0,0,1610612758
20,1610612756,1626162,203967,1626163,1626164,201937,1610612758,203084,202357,1626158,1627741,202709,0021900200,1,258,261,0,0,1610612756
21,1610612756,1626162,203967,1626163,1626164,201937,1610612758,203084,202357,1626158,1627741,202709,0021900200,1,264,264,0,2,1610612758
22,1610612756,1626162,203967,1626163,1626164,201937,1610612758,203084,202357,1626158,1627741,202709,0021900200,1,264,282,0,0,1610612756
23,1610612756,1626162,203967,1626163,1626164,201937,1610612758,203084,202357,1626158,1627741,202709,0021900200,1,296,296,0,2,1610612758
24,1610612756,1626162,203967,1626163,1626164,201937,1610612758,203084,202357,1626158,1627741,202709,0021900200,1,311,314,0,0,1610612756
25,1610612756,1626162,203967,1626163,1626164,201937,1610612758,203084,202357,1626158,1627741,202709,0021900200,1,327,327,0,2,1610612758
26,1610612756,1626162,203967,1626163,1626164,201937,1610612758,203084,202357,1626158,1627741,202709,0021900200,1,327,350,2,0,1610612756
27,1610612756,1626162,203967,1626163,1626164,201937,1610612758,1626158,1627741,202357,202709,203992,0021900200,1,367,367,0,3,1610612758
28,1610612756,1626162,203967,1626163,1626164,201937,1610612758,1626158,1627741,202357,202709,203992,0021900200,1,393,393,0,0,1610612756
29,1610612756,1626162,203967,1626163,1626164,201937,1610612758,1626158,1627741,202357,202709,203992,0021900200,1,412,412,0,2,1610612758
30,1610612756,1626162,203967,1626163,1626164,201937,1610612758,1626158,1627741,202357,202709,203992,0021900200,1,425,429,0,0,1610612756
31,1610612756,1626162,203967,1626163,1626164,201937,1610612758,1626158,1627741,202357,202709,203992,0021900200,1,436,436,0,2,1610612758
32,1610612756,1626162,203967,1626163,1626164,201937,1610612758,1626158,1627741,202357,202709,203992,0021900200,1,451,451,2,0,1610612756
33,1610612756,1626162,203967,1626163,1626164,201937,1610612758,1626158,1627741,202357,202709,203992,0021900200,1,475,475,0,3,1610612758
34,1610612756,1626162,203967,1626163,1626164,201937,1610612758,1626158,1627741,202357,202709,203992,0021900200,1,491,495,3,0,1610612756
35,1610612756,1626162,203967,1626163,1626164,201937,1610612758,1626158,1627741,202357,202709,203992,0021900200,1,495,509,0,2,1610612758
36,1610612756,1626162,1626164,1627767,1628969,204020,1610612758,1627741,1627812,202357,203473,203992,0021900200,1,534,536,0,0,1610612756
37,1610612756,1626162,1626164,1627767,1628969,204020,1610612758,1627741,1627812,202357,203473,203992,0021900200,1,546,549,0,0,1610612758
38,1610612756,1626162,1626164,1627767,1628969,204020,1610612758,1627741,1627812,202357,203473,203992,0021900200,1,562,565,0,0,1610612756
39,1610612756,1626162,1626164,1627767,1628969,204020,1610612758,1627741,1627812,202357,203473,203992,0021900200,1,577,577,0,0,1610612758
40,1610612756,1626164,1627767,1628969,1629661,204020,1610612758,1627812,202709,203084,203473,203992,0021900200,1,586,586,2,0,1610612756
41,1610612756,1626164,1627767,1628969,1629661,204020,1610612758,1627812,202709,203084,203473,203992,0021900200,1,603,612,0,2,1610612758
42,1610612756,1626164,1627767,1628969,1629661,204020,1610612758,1627812,202709,203084,203473,203992,0021900200,1,632,632,3,0,1610612756
43,1610612756,1626164,1627767,1628969,1629661,204020,1610612758,1627812,202709,203084,203473,203992,0021900200,1,638,638,0,0,1610612758
44,1610612756,1626164,1627767,1628969,1629661,204020,1610612758,1627812,202709,203084,203473,203992,0021900200,1,653,660,0,0,1610612756
45,1610612756,1626164,1627767,1628969,1629661,204020,1610612758,1627812,202709,203084,203473,203992,0021900200,1,666,667,0,2,1610612758
46,1610612756,1626164,1627767,1628969,1629661,204020,1610612758,1627812,202709,203084,203473,203992,0021900200,1,681,685,0,0,1610612756
47,1610612756,1626164,1627767,1628969,1629661,204020,1610612758,1627812,202709,203084,203473,203992,0021900200,1,688,688,0,3,1610612758
48,1610612756,1626164,1627767,1628969,1629661,204020,1610612758,1627812,202709,203084,203473,203992,0021900200,1,709,709,2,0,1610612756
49,1610612756,1626164,1627767,1628969,1629661,204020,1610612758,1627812,202709,203084,203473,203992,0021900200,1,718,718,0,2,1610612758
50,1610612756,1626163,201937,1628969,204020,1629661,1610612758,202357,203992,1627812,203473,1629713,0021900200,2,720,731,0,2,1610612758
51,1610612756,1626163,201937,1628969,204020,1629661,1610612758,202357,203992,1627812,203473,1629713,0021900200,2,748,748,3,0,1610612756
52,1610612756,1626163,201937,1628969,204020,1629661,1610612758,202357,203992,1627812,203473,1629713,0021900200,2,763,768,0,0,1610612758
53,1610612756,1626163,201937,1628969,204020,1629661,1610612758,202357,203992,1627812,203473,1629713,0021900200,2,775,775,1,0,1610612756
54,1610612756,1626163,201937,1628969,204020,1629661,1610612758,202357,203992,1627812,203473,1629713,0021900200,2,790,794,0,0,1610612758
55,1610612756,1626163,201937,1628969,204020,1629661,1610612758,202357,203992,1627812,203473,1629713,0021900200,2,798,813,0,0,1610612756
56,1610612756,1626163,201937,1628969,204020,1629661,1610612758,202357,203992,1627812,203473,1629713,0021900200,2,836,836,0,2,1610612758
57,1610612756,1626163,201937,1628969,204020,1629661,1610612758,202357,203992,1627812,203473,1629713,0021900200,2,849,864,0,0,1610612756
58,1610612756,1626163,201937,1628969,204020,1629661,1610612758,1627812,1629713,203084,203473,203992,0021900200,2,873,873,0,0,1610612758
59,1610612756,1626163,201937,1628969,204020,1629661,1610612758,1627812,1629713,203084,203473,203992,0021900200,2,878,878,2,0,1610612756
60,1610612756,1626163,201937,1628969,204020,1629661,1610612758,1627812,1629713,203084,203473,203992,0021900200,2,889,901,0,1,1610612758
61,1610612756,1626163,201937,1628969,204020,1629661,1610612758,1627741,1627812,203084,203473,203992,0021900200,2,922,922,1,0,1610612756
62,1610612756,1626163,201937,1628969,204020,1629661,1610612758,1627741,1627812,203084,203473,203992,0021900200,2,935,954,0,0,1610612758
63,1610612756,1626163,201937,1628969,204020,1629661,1610612758,1627741,1627812,203084,203473,203992,0021900200,2,961,963,0,0,1610612756
64,1610612756,1626163,201937,1628969,204020,1629661,1610612758,1627741,1627812,203084,203473,203992,0021900200,2,968,972,0,0,1610612758
65,1610612756,1626162,1626163,1626164,1628969,201937,1610612758,1626158,1627741,1627812,203084,203992,0021900200,2,982,985,0,0,1610612756
66,1610612756,1626162,1626163,1626164,1628969,201937,1610612758,1626158,1627741,1627812,203084,203992,0021900200,2,990,990,0,2,1610612758
67,1610612756,1626162,1626163,1626164,1628969,201937,1610612758,1626158,1627741,1627812,203084,203992,0021900200,2,990,1007,0,0,1610612756
68,1610612756,1626162,1626164,1628969,201937,203967,1610612758,1626158,1627741,1627812,203084,203992,0021900200,2,1013,1017,0,0,1610612758
69,1610612756,1626162,1626164,1628969,201937,203967,1610612758,1626158,1627741,1627812,203084,203992,0021900200,2,1022,1022,2,0,1610612756
70,1610612756,1626162,1626164,1628969,201937,203967,1610612758,1626158,1627741,1627812,203084,203992,0021900200,2,1037,1037,0,2,1610612758
71,1610612756,1626162,1626164,1628969,201937,203967,1610612758,1626158,1627741,1627812,203084,203992,0021900200,2,1037,1053,1,0,1610612756
72,1610612756,1626162,1626164,1628969,201937,203967,1610612758,1626158,1627741,202709,203084,203992,0021900200,2,1065,1065,0,2,1610612758
73,1610612756,1626162,1626164,1628969,201937,203967,1610612758,1626158,1627741,202709,203084,203992,0021900200,2,1090,1094,0,0,1610612756
74,1610612756,1626162,1626164,1628969,201937,203967,1610612758,1626158,1627741,202709,203084,203992,0021900200,2,1101,1101,0,3,1610612758
75,1610612756,1626162,1626164,1628969,201937,203967,1610612758,1626158,1627741,202709,203084,203992,0021900200,2,1119,1124,0,0,1610612756
76,1610612756,1626162,1626164,1628969,201937,203967,1610612758,1626158,1627741,202709,203084,203992,0021900200,2,1125,1125,0,0,1610612758
77,1610612756,1626162,1626164,1628969,201937,203967,1610612758,1626158,1627741,202709,203084,203992,0021900200,2,1133,1139,2,0,1610612756
78,1610612756,1626162,1626164,1628969,201937,203967,1610612758,1626158,1627741,202709,203084,203992,0021900200,2,1139,1150,0,3,1610612758
79,1610612756,1626162,1626164,1629661,201937,203967,1610612758,1626158,1627741,202709,203084,203992,0021900200,2,1174,1174,3,0,1610612756
80,1610612756,1626162,1626164,1629661,201937,203967,1610612758,1626158,1627741,202709,203084,203992,0021900200,2,1190,1190,0,2,1610612758
81,1610612756,1626162,1626164,1629661,203967,204020,1610612758,1626158,1627741,202709,203084,203992,0021900200,2,1204,1204,2,0,1610612756
82,1610612756,1626162,1626164,1629661,203967,204020,1610612758,1626158,1627741,202709,203084,203992,0021900200,2,1225,1225,0,3,1610612758
83,1610612756,1626162,1626164,1629661,203967,204020,1610612758,1626158,1627741,202709,203084,203992,0021900200,2,1238,1238,0,0,1610612756
84,1610612756,1626162,1626164,1629661,203967,204020,1610612758,1626158,1627741,202709,203084,203992,0021900200,2,1248,1248,0,3,1610612758
85,1610612756,1626162,1626164,1629661,203967,204020,1610612758,1626158,1627741,202709,203084,203992,0021900200,2,1270,1270,3,0,1610612756
86,1610612756,1626162,1626164,1629661,203967,204020,1610612758,1626158,1627741,202709,203084,203992,0021900200,2,1282,1286,0,0,1610612758
87,1610612756,1626162,1626164,1629661,203967,204020,1610612758,1626158,1627741,202709,203084,203992,0021900200,2,1297,1297,2,0,1610612756
88,1610612756,1626162,1626164,1629661,203967,204020,1610612758,1626158,1627741,202709,203084,203992,0021900200,2,1317,1317,0,0,1610612758
89,1610612756,1626162,1626164,1629661,203967,204020,1610612758,1626158,1627741,202709,203084,203992,0021900200,2,1321,1323,0,0,1610612756
90,1610612756,1626162,1626164,1629661,203967,204020,1610612758,1626158,1627741,202709,203084,203992,0021900200,2,1336,1336,0,2,1610612758
91,1610612756,1626162,1626164,1629661,203967,204020,1610612758,1626158,1627741,202709,203084,203992,0021900200,2,1344,1344,2,0,1610612756
92,1610612756,1626162,1626164,1629661,203967,204020,1610612758,1626158,1627741,202709,203084,203992,0021900200,2,1361,1363,0,0,1610612758
93,1610612756,1626162,1626164,1629661,203967,204020,1610612758,1626158,1627741,202709,203084,203992,0021900200,2,1369,1372,0,0,1610612756
94,1610612756,1626162,1626164,1629661,203967,204020,1610612758,1626158,1627741,202709,203084,203992,0021900200,2,1386,1386,0,0,1610612758
95,1610612756,1626162,1626164,1629661,203967,204020,1610612758,1626158,1627741,202709,203084,203992,0021900200,2,1391,1394,0,0,1610612756
96,1610612756,1626162,1626164,1629661,203967,204020,1610612758,1626158,1627741,202709,203084,203992,0021900200,2,1406,1406,0,2,1610612758
97,1610612756,1626162,1626164,1629661,203967,204020,1610612758,1627812,1629713,202709,203084,203992,0021900200,2,1422,1422,2,0,1610612756
98,1610612756,1626162,203967,1626163,1626164,204020,1610612758,203084,202357,1626158,1627741,202709,0021900200,3,1440,1459,0,2,1610612758
99,1610612756,1626162,203967,1626163,1626164,204020,1610612758,203084,202357,1626158,1627741,202709,0021900200,3,1482,1482,2,0,1610612756
100,1610612756,1626162,203967,1626163,1626164,204020,1610612758,203084,202357,1626158,1627741,202709,0021900200,3,1498,1505,0,3,1610612758
101,1610612756,1626162,203967,1626163,1626164,204020,1610612758,203084,202357,1626158,1627741,202709,0021900200,3,1523,1538,0,0,1610612756
102,1610612756,1626162,203967,1626163,1626164,204020,1610612758,203084,202357,1626158,1627741,202709,0021900200,3,1558,1558,0,3,1610612758
103,1610612756,1626162,203967,1626163,1626164,204020,1610612758,203084,202357,1626158,1627741,202709,0021900200,3,1572,1572,2,0,1610612756
104,1610612756,1626162,203967,1626163,1626164,204020,1610612758,203084,202357,1626158,1627741,202709,0021900200,3,1588,1590,0,0,1610612758
105,1610612756,1626162,203967,1626163,1626164,204020,1610612758,203084,202357,1626158,1627741,202709,0021900200,3,1598,1598,2,0,1610612756
106,1610612756,1626162,203967,1626163,1626164,204020,1610612758,203084,202357,1626158,1627741,202709,0021900200,3,1615,1615,0,2,1610612758
107,1610612756,1626162,203967,1626163,1626164,204020,1610612758,203084,202357,1626158,1627741,202709,0021900200,3,1633,1633,0,0,1610612756
108,1610612756,1626162,203967,1626163,1626164,204020,1610612758,203084,202357,1626158,1627741,202709,0021900200,3,1647,1648,0,0,1610612758
109,1610612756,1626162,203967,1626163,1626164,204020,1610612758,203084,202357,1626158,1627741,202709,0021900200,3,1648,1662,0,0,1610612756
110,1610612756,1626162,1626164,1629661,203967,204020,1610612758,203084,202357,1626158,1627741,202709,0021900200,3,1674,1679,0,2,1610612758
111,1610612756,1626162,1626164,1629661,203967,204020,1610612758,203084,202357,1626158,1627741,202709,0021900200,3,1699,1699,0,0,1610612756
112,1610612756,1626162,1626164,1629661,203967,204020,1610612758,203084,202357,1626158,1627741,202709,0021900200,3,1699,1718,0,2,1610612758
113,1610612756,1626162,1626164,1629661,203967,204020,1610612758,203084,202357,1626158,1627741,202709,0021900200,3,1730,1730,2,1,1610612756
114,1610612756,1626162,1626164,1629661,203967,204020,1610612758,203084,202357,1626158,1627741,202709,0021900200,3,1739,1742,0,0,1610612758
115,1610612756,1626162,1626164,1629661,203967,204020,1610612758,203084,202357,1626158,1627741,202709,0021900200,3,1749,1767,2,0,1610612756
116,1610612756,1626164,1627767,1628969,1629059,1629661,1610612758,1626158,1627741,202357,202709,203992,0021900200,3,1787,1787,0,3,1610612758
117,1610612756,1626164,1627767,1628969,1629059,1629661,1610612758,1626158,1627741,202357,202709,203992,0021900200,3,1796,1810,2,0,1610612756
118,1610612756,1626164,1627767,1628969,1629059,1629661,1610612758,1626158,1627741,202357,202709,203992,0021900200,3,1827,1832,0,0,1610612758
119,1610612756,1626164,1627767,1628969,1629059,1629661,1610612758,1626158,1627741,202357,202709,203992,0021900200,3,1839,1839,2,0,1610612756
120,1610612756,1626164,1627767,1628969,1629059,1629661,1610612758,1626158,1627741,202357,202709,203992,0021900200,3,1857,1860,0,0,1610612758
121,1610612756,1626164,1627767,1628969,1629059,1629661,1610612758,1626158,1627741,202357,202709,203992,0021900200,3,1865,1874,3,0,1610612756
122,1610612756,1626164,1627767,1628969,1629059,1629661,1610612758,1626158,1627741,202357,202709,203992,0021900200,3,1874,1887,0,2,1610612758
123,1610612756,1626164,1627767,1628969,1629059,1629661,1610612758,1627812,202709,203084,203473,203992,0021900200,3,1904,1904,2,0,1610612756
124,1610612756,1626164,1627767,1628969,1629059,1629661,1610612758,1627812,202709,203084,203473,203992,0021900200,3,1927,1927,0,0,1610612758
125,1610612756,1626164,1627767,1628969,1629059,1629661,1610612758,1627812,202709,203084,203473,203992,0021900200,3,1930,1930,2,0,1610612756
126,1610612756,1626164,1627767,1628969,1629059,1629661,1610612758,1627812,202709,203084,203473,203992,0021900200,3,1949,1949,0,2,1610612758
127,1610612756,1626164,1627767,1628969,1629059,1629661,1610612758,1627812,202709,203084,203473,203992,0021900200,3,1956,1956,1,0,1610612756
128,1610612756,1626164,1627767,1628969,1629059,1629661,1610612758,1627812,202709,203084,203473,203992,0021900200,3,1967,1975,0,3,1610612758
129,1610612756,1626164,1627767,1628969,1629059,1629661,1610612758,1627812,202709,203084,203473,203992,0021900200,3,1990,1994,0,0,1610612756
130,1610612756,1626164,1627767,1628969,1629059,1629661,1610612758,1627812,202709,203084,203473,203992,0021900200,3,1999,2003,0,0,1610612758
131,1610612756,1626164,1627767,1628969,1629059,1629661,1610612758,1627812,202709,203084,203473,203992,0021900200,3,2008,2011,0,0,1610612756
132,1610612756,1626164,1627767,1628969,1629059,1629661,1610612758,1627812,202709,203084,203473,203992,0021900200,3,2017,2017,0,0,1610612758
133,1610612756,1626162,1627767,1628969,1629059,1629661,1610612758,1627812,202709,203084,203473,203992,0021900200,3,2034,2034,2,0,1610612756
134,1610612756,1626162,1627767,1628969,1629059,1629661,1610612758,1627812,202709,203084,203473,203992,0021900200,3,2050,2050,0,0,1610612758
135,1610612756,1626162,1627767,1628969,1629059,1629661,1610612758,1627741,1627812,203084,203473,203992,0021900200,3,2062,2062,2,0,1610612756
136,1610612756,1626162,1627767,1628969,1629059,1629661,1610612758,1627741,1627812,203084,203473,203992,0021900200,3,2081,2086,0,0,1610612758
137,1610612756,1626162,1627767,1628969,1629059,1629661,1610612758,1627741,1627812,203084,203473,203992,0021900200,3,2096,2101,0,0,1610612756
138,1610612756,1626162,1627767,1628969,1629059,1629661,1610612758,1627741,1627812,203084,203473,203992,0021900200,3,2104,2108,0,0,1610612758
139,1610612756,1626162,1627767,1628969,1629059,1629661,1610612758,1627741,1627812,203084,203473,203992,0021900200,3,2109,2109,2,0,1610612756
140,1610612756,1626162,1627767,1628969,1629059,1629661,1610612758,1627741,1627812,203084,203473,203992,0021900200,3,2119,2123,0,0,1610612758
141,1610612756,1626162,1627767,1628969,1629059,1629661,1610612758,1627741,1627812,203084,203473,203992,0021900200,3,2126,2126,2,0,1610612756
142,1610612756,1626162,1627767,1628969,1629059,1629661,1610612758,1627741,1627812,203084,203473,203992,0021900200,3,2148,2151,0,0,1610612758
143,1610612756,1626162,1627767,1628969,1629059,1629661,1610612758,1627741,1627812,203084,203473,203992,0021900200,3,2160,2160,0,0,1610612758
144,1610612756,1626162,1628969,1627767,1629661,1629059,1610612758,202357,1626158,202709,203992,1627812,0021900200,4,2160,2179,2,0,1610612756
145,1610612756,1626162,1628969,1627767,1629661,1629059,1610612758,202357,1626158,202709,203992,1627812,0021900200,4,2206,2206,0,3,1610612758
146,1610612756,1626162,1628969,1627767,1629661,1629059,1610612758,202357,1626158,202709,203992,1627812,0021900200,4,2226,2226,2,0,1610612756
147,1610612756,1626162,1628969,1627767,1629661,1629059,1610612758,202357,1626158,202709,203992,1627812,0021900200,4,2239,2239,0,0,1610612758
148,1610612756,1626162,1628969,1627767,1629661,1629059,1610612758,202357,1626158,202709,203992,1627812,0021900200,4,2248,2248,2,0,1610612756
149,1610612756,1626162,1628969,1627767,1629661,1629059,1610612758,202357,1626158,202709,203992,1627812,0021900200,4,2262,2262,0,0,1610612758
150,1610612756,1626162,1628969,1627767,1629661,1629059,1610612758,202357,1626158,202709,203992,1627812,0021900200,4,2262,2272,0,0,1610612756
151,1610612756,1626162,1628969,1627767,1629661,1629059,1610612758,202357,1626158,202709,203992,1627812,0021900200,4,2278,2278,0,3,1610612758
152,1610612756,1626162,1628969,1627767,1629661,1629059,1610612758,202357,1626158,202709,203992,1627812,0021900200,4,2299,2302,0,0,1610612756
153,1610612756,1626162,1628969,1627767,1629661,1629059,1610612758,202357,1626158,202709,203992,1627812,0021900200,4,2311,2315,0,0,1610612758
154,1610612756,1626162,1628969,1627767,1629661,1629059,1610612758,202357,1626158,202709,203992,1627812,0021900200,4,2319,2331,0,0,1610612756
155,1610612756,1626162,1626164,1627767,1629059,1629661,1610612758,1626158,202357,202709,203084,203992,0021900200,4,2344,2344,0,2,1610612758
156,1610612756,1626162,1626164,1627767,1629059,1629661,1610612758,1626158,202357,202709,203084,203992,0021900200,4,2344,2373,0,0,1610612756
157,1610612756,1626162,1626164,1627767,1629059,1629661,1610612758,1626158,202357,202709,203084,203992,0021900200,4,2388,2392,0,0,1610612758
158,1610612756,1626162,1626164,1627767,1629059,1629661,1610612758,1626158,202357,202709,203084,203992,0021900200,4,2402,2402,2,0,1610612756
159,1610612756,1626162,1626164,1627767,1629059,1629661,1610612758,1626158,202357,202709,203084,203992,0021900200,4,2416,2416,0,2,1610612758
160,1610612756,1626162,1626164,1627767,1629059,1629661,1610612758,1626158,202357,202709,203084,203992,0021900200,4,2427,2427,0,0,1610612756
161,1610612756,1626162,1626164,1627767,1629059,1629661,1610612758,1626158,202357,202709,203084,203992,0021900200,4,2434,2434,0,2,1610612758
162,1610612756,1626162,1626164,1627767,1629059,1629661,1610612758,1626158,202357,202709,203084,203992,0021900200,4,2434,2449,0,0,1610612756
163,1610612756,1626162,1626163,1626164,1629059,1629661,1610612758,1626158,202357,202709,203084,203992,0021900200,4,2461,2464,0,0,1610612758
164,1610612756,1626162,1626163,1626164,1629059,1629661,1610612758,1626158,202357,202709,203084,203992,0021900200,4,2466,2466,0,0,1610612756
165,1610612756,1626162,1626163,1626164,1629059,1629661,1610612758,1626158,202357,202709,203084,203992,0021900200,4,2481,2484,0,0,1610612758
166,1610612756,1626162,1626163,1626164,1628969,1629059,1610612758,1626158,202357,202709,203084,203992,0021900200,4,2497,2497,0,0,1610612756
167,1610612756,1626162,1626163,1626164,1628969,1629059,1610612758,1626158,202357,202709,203084,203992,0021900200,4,2506,2506,0,2,1610612758
168,1610612756,1626162,1626163,1626164,1628969,1629059,1610612758,1626158,202357,202709,203084,203992,0021900200,4,2524,2524,3,0,1610612756
169,1610612756,1626162,1626163,1626164,1628969,1629059,1610612758,1626158,202357,202709,203084,203992,0021900200,4,2536,2536,0,0,1610612758
170,1610612756,1626162,1626163,1626164,1628969,1629059,1610612758,1626158,202357,202709,203084,203992,0021900200,4,2551,2551,0,0,1610612756
171,1610612756,1626162,1626163,1626164,1628969,1629059,1610612758,1626158,202357,202709,203084,203992,0021900200,4,2555,2555,0,0,1610612758
172,1610612756,1626162,1626163,1626164,1628969,1629059,1610612758,1626158,202357,202709,203084,203992,0021900200,4,2576,2576,2,0,1610612756
173,1610612756,1626162,1626163,1626164,1628969,1629059,1610612758,1626158,202357,202709,203084,203992,0021900200,4,2593,2605,0,0,1610612758
174,1610612756,1626162,1626163,1626164,1628969,1629059,1610612758,1626158,202357,202709,203084,203992,0021900200,4,2617,2617,0,0,1610612756
175,1610612756,1626162,1626163,1626164,1628969,1629059,1610612758,1626158,202357,202709,203084,203992,0021900200,4,2626,2626,0,2,1610612758
176,1610612756,1626162,1626163,1626164,1628969,1629059,1610612758,1626158,202357,202709,203084,203992,0021900200,4,2645,2645,3,0,1610612756
177,1610612756,1626162,1626163,1626164,1628969,1629059,1610612758,1626158,202357,202709,203084,203992,0021900200,4,2646,2659,0,3,1610612758
178,1610612756,1626162,1626163,1626164,1628969,1629059,1610612758,1626158,202357,202709,203084,203992,0021900200,4,2679,2679,3,0,1610612756
179,1610612756,1626162,1626163,1626164,1628969,1629059,1610612758,1626158,202357,202709,203084,203992,0021900200,4,2695,2695,0,2,1610612758
180,1610612756,1626162,1626163,1626164,1628969,1629059,1610612758,1626158,202357,202709,203084,203992,0021900200,4,2710,2713,0,0,1610612756
181,1610612756,1626162,1626163,1626164,1628969,1629059,1610612758,1626158,202357,202709,203084,203992,0021900200,4,2729,2735,0,0,1610612758
182,1610612756,1626162,1626163,1626164,1628969,1629059,1610612758,1626158,202357,202709,203084,203992,0021900200,4,2736,2736,3,0,1610612756
183,1610612756,1626162,1626163,1626164,1628969,1629059,1610612758,1626158,202357,202709,203084,203992,0021900200,4,2753,2756,0,0,1610612758
184,1610612756,1626162,1626163,1626164,1628969,1629059,1610612758,1626158,202357,202709,203084,203992,0021900200,4,2759,2759,2,0,1610612756
185,1610612756,1626162,1626163,1626164,1628969,1629059,1610612758,1626158,202357,202709,203084,203992,0021900200,4,2766,2778,0,3,1610612758
186,1610612756,1626162,1626163,1626164,1628969,1629059,1610612758,1626158,202357,202709,203084,203992,0021900200,4,2797,2797,3,0,1610612756
187,1610612756,1626162,1626163,1626164,1628969,1629059,1610612758,1626158,202357,202709,203084,203992,0021900200,4,2798,2821,0,0,1610612758
188,1610612756,1626162,1626163,1626164,1628969,1629059,1610612758,1626158,1627741,202357,202709,203084,0021900200,4,2821,2825,1,0,1610612756
189,1610612756,1626162,1626163,1626164,1628969,1629059,1610612758,1626158,1627741,202357,202709,203084,0021900200,4,2830,2830,0,0,1610612758
190,1610612756,1626162,1626163,1626164,1628969,1629059,1610612758,1626158,1627741,202357,202709,203084,0021900200,4,2836,2836,2,0,1610612756
191,1610612756,1626162,1626164,1628969,1629059,1629661,1610612758,1627741,1627812,202357,202709,203084,0021900200,4,2851,2851,0,2,1610612758
192,1610612756,1626162,1626163,1626164,1629059,1629661,1610612758,1627741,1627812,202357,202709,203084,0021900200,4,2856,2856,3,0,1610612756
193,1610612756,1626162,1626163,1626164,1629059,1629661,1610612758,1627741,1627812,202357,202709,203084,0021900200,4,2857,2857,0,2,1610612758
194,1610612756,1626162,1626163,1626164,1629059,1629661,1610612758,1627741,1627812,202357,202709,203084,0021900200,4,2857,2863,2,0,1610612756
195,1610612756,1626162,1626163,1626164,1629059,1629661,1610612758,1626158,1627741,1627812,202709,203084,0021900200,4,2864,2864,0,1,1610612758
196,1610612756,1626162,1626163,1626164,1629059,1629661,1610612758,1626158,1627741,1627812,202709,203084,0021900200,4,2864,2866,3,0,1610612756
197,1610612756,1626162,1626163,1626164,1629059,1629661,1610612758,1626158,1627741,1627812,202709,203084,0021900200,4,2868,2868,0,2,1610612758
198,1610612756,1626162,1626163,1626164,1629059,1629661,1610612758,1626158,1627741,1627812,202709,203084,0021900200,4,2871,2874,0,0,1610612756
199,1610612756,1626162,1626163,1626164,1629059,1629661,1610612758,1626158,1627741,1627812,202709,203084,0021900200,4,2874,2874,0,2,1610612758
200,1610612756,1626162,1626163,1626164,1629059,1629661,1610612758,1626158,1627741,1627812,202709,203084,0021900200,4,2877,2877,3,0,1610612756
