,TEAM_ID_1,TEAM_1_PLAYERS,TEAM_ID_2,TEAM_2_PLAYERS,PERIOD
0,1610612763,[1628415 1628991  203500 1630217 1629630],1610612740,[1628404 1627742  202685 1629638 1628984],1
1,1610612763,[1628415 1628991 1630533 1629634 1626145],1610612740,[1628404  202685 1629638  203107  202066],2
2,1610612763,[1628415 1628991  203500 1630217 1629630],1610612740,[1628404 1627742  202685 1629638 1628984],3
3,1610612763,[1628415 1628991 1630533 1629634 1626145],1610612740,[1628404  202685 1629638  203107  202066],4
