,team1_id,team1_player1,team1_player2,team1_player3,team1_player4,team1_player5,team2_id,team2_player1,team2_player2,team2_player3,team2_player4,team2_player5,game_id,period,possession_start,possession_end,team1_points,team2_points,possession_team
0,1610612760,201568,1628390,203500,1628983,101108,1610612744,203922,1629672,1626161,202692,1629065,0021900250,1,0,22,3,0,1610612760
1,1610612760,201568,1628390,203500,1628983,101108,1610612744,203922,1629672,1626161,202692,1629065,0021900250,1,39,43,0,2,1610612744
2,1610612760,201568,1628390,203500,1628983,101108,1610612744,203922,1629672,1626161,202692,1629065,0021900250,1,60,60,2,0,1610612760
3,1610612760,201568,1628390,203500,1628983,101108,1610612744,203922,1629672,1626161,202692,1629065,0021900250,1,71,72,0,0,1610612744
4,1610612760,201568,1628390,203500,1628983,101108,1610612744,203922,1629672,1626161,202692,1629065,0021900250,1,85,85,2,0,1610612760
5,1610612760,201568,1628390,203500,1628983,101108,1610612744,203922,1629672,1626161,202692,1629065,0021900250,1,98,98,0,2,1610612744
6,1610612760,201568,1628390,203500,1628983,101108,1610612744,203922,1629672,1626161,202692,1629065,0021900250,1,109,109,2,0,1610612760
7,1610612760,201568,1628390,203500,1628983,101108,1610612744,203922,1629672,1626161,202692,1629065,0021900250,1,118,118,0,0,1610612744
8,1610612760,201568,1628390,203500,1628983,101108,1610612744,203922,1629672,1626161,202692,1629065,0021900250,1,133,133,1,0,1610612760
9,1610612760,201568,1628390,203500,1628983,101108,1610612744,203922,1629672,1626161,202692,1629065,0021900250,1,146,147,0,0,1610612744
10,1610612760,201568,1628390,203500,1628983,101108,1610612744,203922,1629672,1626161,202692,1629065,0021900250,1,161,161,3,0,1610612760
11,1610612760,201568,1628390,203500,1628983,101108,1610612744,203922,1629672,1626161,202692,1629065,0021900250,1,178,178,0,2,1610612744
12,1610612760,201568,1628390,203500,1628983,101108,1610612744,203922,1629672,1626161,202692,1629065,0021900250,1,189,198,0,0,1610612760
13,1610612760,201568,1628390,203500,1628983,101108,1610612744,203922,1629672,1626161,202692,1629065,0021900250,1,205,217,0,0,1610612744
14,1610612760,201568,1628390,203500,1628983,101108,1610612744,203922,1629672,1626161,202692,1629065,0021900250,1,232,237,0,0,1610612760
15,1610612760,201568,1628390,203500,1628983,101108,1610612744,203922,1629672,1626161,202692,1629065,0021900250,1,240,241,0,1,1610612744
16,1610612760,201568,1628390,203500,1628983,101108,1610612744,203922,1629672,1626161,202692,1629065,0021900250,1,254,254,0,0,1610612760
17,1610612760,201568,1628390,203500,1628983,101108,1610612744,203922,1629672,1626161,202692,1629065,0021900250,1,257,257,0,2,1610612744
18,1610612760,201568,1628390,203500,1628983,101108,1610612744,203922,1629672,1626161,202692,1629065,0021900250,1,272,272,0,0,1610612760
19,1610612760,201568,1628390,203500,1628983,101108,1610612744,203922,1629672,1626161,202692,1629065,0021900250,1,283,285,0,0,1610612744
20,1610612760,201568,1628390,203500,1628983,101108,1610612744,203922,1629672,1626161,202692,1629065,0021900250,1,288,290,0,0,1610612760
21,1610612760,201568,1628390,203500,1628983,101108,1610612744,203922,1629672,1626161,202692,1629065,0021900250,1,307,308,0,0,1610612744
22,1610612760,201568,1628390,203500,1628983,101108,1610612744,203922,1629672,1626161,202692,1629065,0021900250,1,326,327,0,0,1610612760
23,1610612760,201568,1628390,203500,1628983,101108,1610612744,203922,1629672,1626161,202692,1629065,0021900250,1,340,340,0,0,1610612744
24,1610612760,201568,1628390,203500,1628983,101108,1610612744,203922,1629672,1626161,202692,1629065,0021900250,1,340,352,0,0,1610612760
25,1610612760,101108,1628983,201568,203457,203471,1610612744,1626161,1629016,1629673,202692,203922,0021900250,1,366,371,0,4,1610612744
26,1610612760,101108,1628983,201568,203457,203471,1610612744,1626161,1629016,1629673,202692,203922,0021900250,1,391,391,2,0,1610612760
27,1610612760,101108,1628983,201568,203457,203471,1610612744,1626161,1629016,1629673,202692,203922,0021900250,1,408,410,0,0,1610612744
28,1610612760,101108,1628983,201568,203457,203471,1610612744,1626161,1629016,1629673,202692,203922,0021900250,1,424,424,2,0,1610612760
29,1610612760,101108,1628983,201568,203457,203471,1610612744,1626161,1629016,1629673,202692,203922,0021900250,1,433,433,0,2,1610612744
30,1610612760,101108,1628983,201568,203457,203471,1610612744,1626161,1629016,1629673,202692,203922,0021900250,1,457,458,0,0,1610612760
31,1610612760,101108,1628983,201568,203457,203471,1610612744,1626161,1629016,1629673,202692,203922,0021900250,1,462,462,0,2,1610612744
32,1610612760,101108,1628983,201568,203457,203471,1610612744,1626161,1629016,1629673,202692,203922,0021900250,1,474,476,0,0,1610612760
33,1610612760,101108,1628983,201568,203457,203471,1610612744,1626161,1629016,1629673,202692,203922,0021900250,1,486,487,0,0,1610612744
34,1610612760,101108,1628983,201568,203457,203471,1610612744,1626161,1629016,1629673,202692,203922,0021900250,1,496,497,0,0,1610612760
35,1610612760,101108,1628983,201568,203457,203471,1610612744,1626161,1629016,1629673,202692,203922,0021900250,1,497,508,0,2,1610612744
36,1610612760,1627846,1628983,201568,203457,203471,1610612744,1627737,1629016,1629673,202692,203922,0021900250,1,530,530,2,0,1610612760
37,1610612760,1627846,1628983,201568,203457,203471,1610612744,1627737,1629016,1629673,202692,203922,0021900250,1,548,554,0,2,1610612744
38,1610612760,1627846,1629126,1629647,203457,203471,1610612744,1627737,1629016,1629065,1629673,203922,0021900250,1,555,555,0,0,1610612760
39,1610612760,1627846,1629126,1629647,203457,203471,1610612744,1627737,1629016,1629065,1629673,203922,0021900250,1,556,556,0,2,1610612744
40,1610612760,1627846,1629126,1629647,203457,203471,1610612744,1627737,1629016,1629065,1629673,203922,0021900250,1,565,573,2,0,1610612760
41,1610612760,1627846,1629126,1629647,203471,203500,1610612744,1627737,1629016,1629065,1629673,203922,0021900250,1,592,592,0,3,1610612744
42,1610612760,1627846,1629126,1629647,203471,203500,1610612744,1627737,1629016,1629065,1629673,203922,0021900250,1,609,609,2,0,1610612760
43,1610612760,1627846,1629126,1629647,203471,203500,1610612744,1627737,1629016,1629065,1629673,203922,0021900250,1,635,637,0,0,1610612744
44,1610612760,1627846,1629126,1629647,203471,203500,1610612744,1627737,1629016,1629065,1629673,203922,0021900250,1,647,647,2,0,1610612760
45,1610612760,1627846,1629126,1629647,203471,203500,1610612744,1627737,1629016,1629065,1629673,203922,0021900250,1,661,661,0,2,1610612744
46,1610612760,1627846,1629126,1629647,203471,203500,1610612744,1627737,1629016,1629065,1629673,203922,0021900250,1,675,678,0,0,1610612760
47,1610612760,101108,1629126,1629647,203471,203500,1610612744,1627737,1629016,1629065,1629673,203922,0021900250,1,693,695,0,0,1610612744
48,1610612760,101108,1629126,1629647,203471,203500,1610612744,1627737,1629016,1629065,1629673,203922,0021900250,1,715,717,0,0,1610612760
49,1610612760,203500,203471,1627846,1629126,1629647,1610612744,1629672,1629065,1629673,1629016,1627737,0021900250,2,720,740,0,3,1610612744
50,1610612760,203500,203471,1627846,1629126,1629647,1610612744,1629672,1629065,1629673,1629016,1627737,0021900250,2,746,761,2,0,1610612760
51,1610612760,203500,203471,1627846,1629126,1629647,1610612744,1629672,1629065,1629673,1629016,1627737,0021900250,2,780,790,0,0,1610612744
52,1610612760,203500,203471,1627846,1629126,1629647,1610612744,1629672,1629065,1629673,1629016,1627737,0021900250,2,801,802,0,0,1610612760
53,1610612760,203500,203471,1627846,1629126,1629647,1610612744,1629672,1629065,1629673,1629016,1627737,0021900250,2,812,812,0,2,1610612744
54,1610612760,203500,203471,1627846,1629126,1629647,1610612744,1629672,1629065,1629673,1629016,1627737,0021900250,2,821,827,2,0,1610612760
55,1610612760,203500,203471,1627846,1629126,1629647,1610612744,1629672,1629065,1629673,1629016,1627737,0021900250,2,839,839,0,2,1610612744
56,1610612760,203500,203471,1627846,1629126,1629647,1610612744,1629672,1629065,1629673,1629016,1627737,0021900250,2,858,860,0,0,1610612760
57,1610612760,203500,203471,1627846,1629126,1629647,1610612744,1629672,1629065,1629673,1629016,1627737,0021900250,2,869,869,0,2,1610612744
58,1610612760,203500,203471,1627846,1629126,1629647,1610612744,1629672,1629065,1629673,1629016,1627737,0021900250,2,888,888,0,0,1610612760
59,1610612760,101108,1628390,1629126,203457,203471,1610612744,1629672,1629065,1629673,1629016,1627737,0021900250,2,906,908,0,0,1610612744
60,1610612760,101108,1628390,1629126,203457,203471,1610612744,1629672,1629065,1629673,1629016,1627737,0021900250,2,913,918,2,0,1610612760
61,1610612760,101108,1628390,1629126,203457,203471,1610612744,1629672,1629065,1629673,1629016,1627737,0021900250,2,937,937,0,2,1610612744
62,1610612760,101108,1628390,1629126,203457,203471,1610612744,1629672,1629065,1629673,1629016,1627737,0021900250,2,946,946,3,0,1610612760
63,1610612760,101108,1628390,1629126,203457,203471,1610612744,1629672,1629065,1629673,1629016,1627737,0021900250,2,963,963,0,2,1610612744
64,1610612760,101108,1628390,1629126,203457,203471,1610612744,1629672,1629065,1629673,1629016,1627737,0021900250,2,976,978,0,0,1610612760
65,1610612760,101108,1628390,1629126,203457,203471,1610612744,1629672,1629065,1629673,1629016,1627737,0021900250,2,990,990,0,2,1610612744
66,1610612760,101108,1628390,1629126,203457,203471,1610612744,1629672,1629065,1629673,1629016,1627737,0021900250,2,1006,1006,2,0,1610612760
67,1610612760,101108,1628390,1629126,203457,203471,1610612744,1629672,1629065,1629673,1629016,1627737,0021900250,2,1013,1022,0,2,1610612744
68,1610612760,101108,1628983,201568,203457,203471,1610612744,1626161,1629016,1629065,1629672,202692,0021900250,2,1042,1043,0,0,1610612760
69,1610612760,101108,1628983,201568,203457,203471,1610612744,1626161,1629016,1629065,1629672,202692,0021900250,2,1055,1056,0,0,1610612744
70,1610612760,101108,1628983,201568,203457,203471,1610612744,1626161,1629016,1629065,1629672,202692,0021900250,2,1068,1069,0,0,1610612760
71,1610612760,101108,1628983,201568,203457,203471,1610612744,1626161,1629016,1629065,1629672,202692,0021900250,2,1080,1082,0,0,1610612744
72,1610612760,101108,1628983,201568,203457,203471,1610612744,1626161,1629016,1629065,1629672,202692,0021900250,2,1098,1098,2,0,1610612760
73,1610612760,101108,1628983,201568,203457,203471,1610612744,1626161,1629016,1629065,1629672,202692,0021900250,2,1120,1126,0,2,1610612744
74,1610612760,101108,1628983,201568,203457,203471,1610612744,1626161,1629065,1629672,202692,203922,0021900250,2,1136,1136,2,0,1610612760
75,1610612760,101108,1628983,201568,203457,203471,1610612744,1626161,1629065,1629672,202692,203922,0021900250,2,1152,1152,0,0,1610612744
76,1610612760,101108,1628983,201568,203457,203471,1610612744,1626161,1627737,1629672,202692,203922,0021900250,2,1161,1163,0,0,1610612760
77,1610612760,101108,1628983,201568,203457,203471,1610612744,1626161,1627737,1629672,202692,203922,0021900250,2,1174,1174,0,0,1610612744
78,1610612760,101108,1628983,201568,203471,203500,1610612744,1626161,1627737,1629065,202692,203922,0021900250,2,1187,1187,2,0,1610612760
79,1610612760,101108,1628983,201568,203471,203500,1610612744,1626161,1627737,1629065,202692,203922,0021900250,2,1207,1207,0,2,1610612744
80,1610612760,101108,1628983,201568,203471,203500,1610612744,1626161,1627737,1629065,202692,203922,0021900250,2,1216,1216,0,0,1610612760
81,1610612760,101108,1628390,201568,203471,203500,1610612744,1626161,1627737,1629065,202692,203922,0021900250,2,1229,1231,0,0,1610612744
82,1610612760,101108,1628390,201568,203471,203500,1610612744,1626161,1627737,1629065,202692,203922,0021900250,2,1236,1242,0,0,1610612760
83,1610612760,101108,1628390,201568,203471,203500,1610612744,1626161,1627737,1629065,202692,203922,0021900250,2,1261,1267,0,0,1610612744
84,1610612760,101108,1628390,201568,203471,203500,1610612744,1626161,1627737,1629065,202692,203922,0021900250,2,1271,1271,3,0,1610612760
85,1610612760,101108,1628390,201568,203471,203500,1610612744,1626161,1627737,1629065,202692,203922,0021900250,2,1289,1289,0,2,1610612744
86,1610612760,101108,1628390,201568,203471,203500,1610612744,1626161,1627737,1629065,202692,203922,0021900250,2,1302,1302,0,0,1610612760
87,1610612760,101108,1628390,201568,203471,203500,1610612744,1626161,1627737,1629065,202692,203922,0021900250,2,1315,1324,0,0,1610612744
88,1610612760,101108,1628390,201568,203471,203500,1610612744,1626161,1627737,1629065,202692,203922,0021900250,2,1327,1329,2,0,1610612760
89,1610612760,101108,1628390,201568,203471,203500,1610612744,1626161,1627737,1629065,202692,203922,0021900250,2,1347,1347,0,2,1610612744
90,1610612760,101108,1628390,201568,203471,203500,1610612744,1626161,1627737,1629065,202692,203922,0021900250,2,1367,1371,0,0,1610612760
91,1610612760,101108,1628390,201568,203471,203500,1610612744,1626161,1627737,1629065,202692,203922,0021900250,2,1377,1377,0,3,1610612744
92,1610612760,101108,1628390,201568,203471,203500,1610612744,1626161,1627737,1629065,202692,203922,0021900250,2,1398,1398,0,0,1610612760
93,1610612760,101108,1628390,201568,203471,203500,1610612744,1626161,1627737,1629065,202692,203922,0021900250,2,1405,1405,0,3,1610612744
94,1610612760,101108,1628390,201568,203471,203500,1610612744,1626161,1627737,1629065,202692,203922,0021900250,2,1410,1410,3,0,1610612760
95,1610612760,101108,1628390,201568,203471,203500,1610612744,1626161,1627737,1629065,202692,203922,0021900250,2,1434,1436,0,0,1610612744
96,1610612760,101108,1628390,201568,203471,203500,1610612744,1626161,1627737,1629065,202692,203922,0021900250,2,1439,1439,3,0,1610612760
97,1610612760,101108,1628390,201568,203471,203500,1610612744,1626161,1627737,1629065,202692,203922,0021900250,2,1440,1440,0,0,316
98,1610612760,201568,1628390,203500,1628983,101108,1610612744,203922,1629672,1626161,202692,1629065,0021900250,3,1440,1460,0,2,1610612744
99,1610612760,201568,1628390,203500,1628983,101108,1610612744,203922,1629672,1626161,202692,1629065,0021900250,3,1474,1477,0,0,1610612760
100,1610612760,201568,1628390,203500,1628983,101108,1610612744,203922,1629672,1626161,202692,1629065,0021900250,3,1488,1488,0,2,1610612744
101,1610612760,201568,1628390,203500,1628983,101108,1610612744,203922,1629672,1626161,202692,1629065,0021900250,3,1500,1500,2,0,1610612760
102,1610612760,201568,1628390,203500,1628983,101108,1610612744,203922,1629672,1626161,202692,1629065,0021900250,3,1515,1536,0,0,1610612744
103,1610612760,201568,1628390,203500,1628983,101108,1610612744,203922,1629672,1626161,202692,1629065,0021900250,3,1553,1553,3,0,1610612760
104,1610612760,201568,1628390,203500,1628983,101108,1610612744,203922,1629672,1626161,202692,1629065,0021900250,3,1574,1576,0,0,1610612744
105,1610612760,201568,1628390,203500,1628983,101108,1610612744,203922,1629672,1626161,202692,1629065,0021900250,3,1579,1579,0,0,1610612760
106,1610612760,201568,1628390,203500,1628983,101108,1610612744,203922,1629672,1626161,202692,1629065,0021900250,3,1597,1611,0,2,1610612744
107,1610612760,201568,1628390,203500,1628983,101108,1610612744,203922,1629672,1626161,202692,1629065,0021900250,3,1625,1626,0,0,1610612760
108,1610612760,201568,1628390,203500,1628983,101108,1610612744,203922,1629672,1626161,202692,1629065,0021900250,3,1633,1635,0,0,1610612744
109,1610612760,201568,1628390,203500,1628983,101108,1610612744,203922,1629672,1626161,202692,1629065,0021900250,3,1642,1642,0,0,1610612760
110,1610612760,201568,1628390,203500,1628983,101108,1610612744,203922,1629672,1626161,202692,1629065,0021900250,3,1657,1657,0,2,1610612744
111,1610612760,201568,1628390,203500,1628983,101108,1610612744,203922,1629672,1626161,202692,1629065,0021900250,3,1675,1676,0,0,1610612760
112,1610612760,201568,1628390,203500,1628983,101108,1610612744,203922,1629672,1626161,202692,1629065,0021900250,3,1689,1689,0,0,1610612744
113,1610612760,201568,1628390,203500,1628983,101108,1610612744,203922,1629672,1626161,202692,1629065,0021900250,3,1694,1694,2,0,1610612760
114,1610612760,201568,1628390,203500,1628983,101108,1610612744,203922,1629672,1626161,202692,1629065,0021900250,3,1709,1713,0,2,1610612744
115,1610612760,101108,1628390,1628983,201568,203457,1610612744,203922,1629672,1626161,202692,1629065,0021900250,3,1736,1738,0,0,1610612760
116,1610612760,101108,1628390,1628983,201568,203457,1610612744,203922,1629672,1626161,202692,1629065,0021900250,3,1744,1744,0,3,1610612744
117,1610612760,101108,1628390,1628983,201568,203457,1610612744,203922,1629672,1626161,202692,1629065,0021900250,3,1755,1756,0,0,1610612760
118,1610612760,101108,1628390,1628983,201568,203457,1610612744,203922,1629672,1626161,202692,1629065,0021900250,3,1762,1762,0,3,1610612744
119,1610612760,101108,1628390,1628983,201568,203457,1610612744,1626161,1629672,1629673,202692,203922,0021900250,3,1786,1787,0,0,1610612760
120,1610612760,101108,1628390,1628983,201568,203457,1610612744,1626161,1629672,1629673,202692,203922,0021900250,3,1810,1811,0,0,1610612744
121,1610612760,1628390,1628983,201568,203457,203471,1610612744,1626161,1629672,1629673,202692,203922,0021900250,3,1830,1830,2,0,1610612760
122,1610612760,1628390,1628983,201568,203457,203471,1610612744,1626161,1629672,1629673,202692,203922,0021900250,3,1853,1855,0,0,1610612744
123,1610612760,1628390,1628983,201568,203457,203471,1610612744,1626161,1629672,1629673,202692,203922,0021900250,3,1867,1867,2,0,1610612760
124,1610612760,1628390,1628983,201568,203457,203471,1610612744,1626161,1629672,1629673,202692,203922,0021900250,3,1887,1889,0,0,1610612744
125,1610612760,1628390,1628983,201568,203457,203471,1610612744,1626161,1629672,1629673,202692,203922,0021900250,3,1897,1897,3,0,1610612760
126,1610612760,1628390,1628983,201568,203457,203471,1610612744,1626161,1629672,1629673,202692,203922,0021900250,3,1898,1920,0,2,1610612744
127,1610612760,1628390,1628983,201568,203457,203471,1610612744,1627737,1629016,1629673,202692,203922,0021900250,3,1938,1938,3,0,1610612760
128,1610612760,1628390,1628983,201568,203457,203471,1610612744,1627737,1629016,1629673,202692,203922,0021900250,3,1960,1963,0,0,1610612744
129,1610612760,1628390,1628983,201568,203457,203471,1610612744,1627737,1629016,1629065,1629672,1629673,0021900250,3,1977,1979,0,0,1610612760
130,1610612760,1628390,1628983,201568,203457,203471,1610612744,1627737,1629016,1629065,1629672,1629673,0021900250,3,1988,1991,0,0,1610612744
131,1610612760,1628390,1628983,201568,203457,203471,1610612744,1627737,1629016,1629065,1629672,1629673,0021900250,3,1995,1999,0,0,1610612760
132,1610612760,1628390,1628983,201568,203457,203471,1610612744,1627737,1629016,1629065,1629672,1629673,0021900250,3,2005,2018,0,2,1610612744
133,1610612760,101108,1628390,1629647,203457,203471,1610612744,1627737,1629016,1629065,1629672,1629673,0021900250,3,2031,2035,0,0,1610612760
134,1610612760,101108,1628390,1629647,203457,203471,1610612744,1627737,1629016,1629065,1629672,1629673,0021900250,3,2042,2046,0,0,1610612744
135,1610612760,101108,1628390,1629647,203457,203471,1610612744,1627737,1629016,1629065,1629672,1629673,0021900250,3,2055,2055,0,0,1610612760
136,1610612760,101108,1628390,1629647,203457,203471,1610612744,1627737,1629016,1629065,1629672,1629673,0021900250,3,2058,2058,0,2,1610612744
137,1610612760,101108,1628390,1629647,203471,203500,1610612744,1627737,1629016,1629065,1629672,1629673,0021900250,3,2070,2073,0,0,1610612760
138,1610612760,101108,1628390,1629647,203471,203500,1610612744,1627737,1629016,1629065,1629672,1629673,0021900250,3,2081,2085,0,0,1610612744
139,1610612760,101108,1628390,1629647,203471,203500,1610612744,1627737,1629016,1629065,1629672,1629673,0021900250,3,2087,2105,2,0,1610612760
140,1610612760,101108,1628390,1629647,203471,203500,1610612744,1627737,1629016,1629065,1629672,1629673,0021900250,3,2125,2127,0,0,1610612744
141,1610612760,101108,1628390,1629647,203471,203500,1610612744,1627737,1629016,1629065,1629672,1629673,0021900250,3,2131,2131,2,0,1610612760
142,1610612760,101108,1628390,1629647,203471,203500,1610612744,1627737,1629016,1629065,1629672,1629673,0021900250,3,2131,2147,0,2,1610612744
143,1610612760,101108,1628390,1629647,203471,203500,1610612744,1627737,1629016,1629065,1629673,203922,0021900250,3,2147,2160,0,0,1610612760
144,1610612760,203500,101108,203471,1627846,1629647,1610612744,1629672,1629065,1629673,1629016,1627737,0021900250,4,2160,2176,2,0,1610612760
145,1610612760,203500,101108,203471,1627846,1629647,1610612744,1629672,1629065,1629673,1629016,1627737,0021900250,4,2193,2193,0,0,1610612744
146,1610612760,203500,101108,203471,1627846,1629647,1610612744,1629672,1629065,1629673,1629016,1627737,0021900250,4,2208,2208,2,0,1610612760
147,1610612760,203500,101108,203471,1627846,1629647,1610612744,1629672,1629065,1629673,1629016,1627737,0021900250,4,2224,2224,0,3,1610612744
148,1610612760,203500,101108,203471,1627846,1629647,1610612744,1629672,1629065,1629673,1629016,1627737,0021900250,4,2244,2246,0,0,1610612760
149,1610612760,203500,101108,203471,1627846,1629647,1610612744,1629672,1629065,1629673,1629016,1627737,0021900250,4,2258,2258,0,3,1610612744
150,1610612760,203500,101108,203471,1627846,1629647,1610612744,1629672,1629065,1629673,1629016,1627737,0021900250,4,2271,2273,0,0,1610612760
151,1610612760,203500,101108,203471,1627846,1629647,1610612744,1629672,1629065,1629673,1629016,1627737,0021900250,4,2284,2284,0,0,1610612744
152,1610612760,203500,101108,203471,1627846,1629647,1610612744,1629672,1629065,1629673,1629016,1627737,0021900250,4,2284,2301,0,0,1610612760
153,1610612760,101108,1627846,1629647,203457,203471,1610612744,1627737,1629016,1629065,1629673,203922,0021900250,4,2303,2320,0,3,1610612744
154,1610612760,1627846,1628983,1629647,203457,203471,1610612744,1627737,1629016,1629065,1629673,203922,0021900250,4,2331,2333,0,0,1610612760
155,1610612760,1627846,1628983,1629647,203457,203471,1610612744,1627737,1629016,1629065,1629673,203922,0021900250,4,2341,2343,0,0,1610612744
156,1610612760,1627846,1628983,1629647,203457,203471,1610612744,1627737,1629016,1629065,1629673,203922,0021900250,4,2358,2364,0,0,1610612760
157,1610612760,1627846,1628983,1629647,203457,203471,1610612744,1627737,1629016,1629065,1629673,203922,0021900250,4,2369,2371,0,0,1610612744
158,1610612760,1627846,1628983,1629647,203457,203471,1610612744,1627737,1629016,1629065,1629673,203922,0021900250,4,2383,2383,2,0,1610612760
159,1610612760,1627846,1628983,1629647,203457,203471,1610612744,1627737,1629016,1629065,1629673,203922,0021900250,4,2404,2406,0,0,1610612744
160,1610612760,1627846,1628983,1629647,203457,203471,1610612744,1627737,1629016,1629065,1629673,203922,0021900250,4,2413,2415,0,0,1610612760
161,1610612760,1627846,1628983,1629647,203457,203471,1610612744,1627737,1629016,1629065,1629673,203922,0021900250,4,2420,2442,0,0,1610612744
162,1610612760,1628390,1628983,201568,203457,203471,1610612744,1626161,1629016,1629673,202692,203922,0021900250,4,2456,2458,2,0,1610612760
163,1610612760,1628390,1628983,201568,203457,203471,1610612744,1626161,1629016,1629673,202692,203922,0021900250,4,2483,2484,0,0,1610612744
164,1610612760,1628390,1628983,201568,203457,203471,1610612744,1626161,1629016,1629673,202692,203922,0021900250,4,2493,2493,3,0,1610612760
165,1610612760,1628390,1628983,201568,203457,203471,1610612744,1626161,1629016,1629673,202692,203922,0021900250,4,2519,2519,0,2,1610612744
166,1610612760,1628390,1628983,201568,203457,203471,1610612744,1626161,1629016,1629673,202692,203922,0021900250,4,2530,2530,2,0,1610612760
167,1610612760,1628390,1628983,201568,203457,203471,1610612744,1626161,1629016,1629673,202692,203922,0021900250,4,2539,2541,0,0,1610612744
168,1610612760,101108,1628390,1628983,201568,203457,1610612744,1626161,1629065,1629672,202692,203922,0021900250,4,2549,2549,0,0,1610612760
169,1610612760,101108,1628390,1628983,201568,203457,1610612744,1626161,1629065,1629672,202692,203922,0021900250,4,2568,2575,0,0,1610612744
170,1610612760,101108,1628390,1628983,201568,203457,1610612744,1626161,1629065,1629672,202692,203922,0021900250,4,2592,2594,0,0,1610612760
171,1610612760,101108,1628390,1628983,201568,203457,1610612744,1626161,1629065,1629672,202692,203922,0021900250,4,2610,2611,0,0,1610612744
172,1610612760,101108,1628390,1628983,201568,203457,1610612744,1626161,1629065,1629672,202692,203922,0021900250,4,2618,2620,0,0,1610612760
173,1610612760,101108,1628390,1628983,201568,203457,1610612744,1626161,1629065,1629672,202692,203922,0021900250,4,2625,2627,0,0,1610612744
174,1610612760,101108,1628390,1628983,201568,203457,1610612744,1626161,1629065,1629672,202692,203922,0021900250,4,2637,2648,0,0,1610612760
175,1610612760,101108,1628390,1628983,201568,203457,1610612744,1626161,1629065,1629672,202692,203922,0021900250,4,2648,2662,0,0,1610612744
176,1610612760,101108,1628983,201568,203471,203500,1610612744,1626161,1629065,1629672,202692,203922,0021900250,4,2668,2670,0,0,1610612760
177,1610612760,101108,1628983,201568,203471,203500,1610612744,1626161,1629065,1629672,202692,203922,0021900250,4,2682,2682,0,3,1610612744
178,1610612760,101108,1628983,201568,203471,203500,1610612744,1626161,1629065,1629672,202692,203922,0021900250,4,2682,2699,3,0,1610612760
179,1610612760,101108,1628983,201568,203471,203500,1610612744,1626161,1629065,1629672,202692,203922,0021900250,4,2716,2718,0,0,1610612744
180,1610612760,101108,1628983,201568,203471,203500,1610612744,1626161,1629065,1629672,202692,203922,0021900250,4,2725,2725,0,0,1610612760
181,1610612760,101108,1628983,201568,203471,203500,1610612744,1626161,1629065,1629672,202692,203922,0021900250,4,2735,2737,0,0,1610612744
182,1610612760,101108,1628983,201568,203471,203500,1610612744,1626161,1629065,1629672,202692,203922,0021900250,4,2743,2743,3,0,1610612760
183,1610612760,101108,1628983,201568,203471,203500,1610612744,1626161,1629065,1629672,202692,203922,0021900250,4,2763,2763,0,0,1610612744
184,1610612760,101108,1628983,201568,203471,203500,1610612744,1626161,1629065,1629672,202692,203922,0021900250,4,2771,2788,1,0,1610612760
185,1610612760,101108,1628983,201568,203471,203500,1610612744,1626161,1629065,1629672,202692,203922,0021900250,4,2798,2798,0,0,1610612744
186,1610612760,101108,1628983,201568,203471,203500,1610612744,1626161,1629065,1629672,202692,203922,0021900250,4,2802,2802,2,0,1610612760
187,1610612760,101108,1628983,201568,203471,203500,1610612744,1626161,1629065,1629672,202692,203922,0021900250,4,2802,2820,0,0,1610612744
188,1610612760,101108,1628983,201568,203471,203500,1610612744,1627737,1629065,1629672,202692,203922,0021900250,4,2844,2844,2,0,1610612760
189,1610612760,101108,1628983,201568,203471,203500,1610612744,1627737,1629065,1629672,202692,203922,0021900250,4,2857,2858,0,0,1610612744
190,1610612760,101108,1628983,201568,203471,203500,1610612744,1627737,1629065,1629672,202692,203922,0021900250,4,2858,2858,2,0,1610612760
191,1610612760,101108,1628390,1628983,201568,203500,1610612744,1627737,1629065,1629672,202692,203922,0021900250,4,2878,2880,0,0,1610612760
