,stint_end,t1_players,t2_pm,t2_points_scored,stint_start,t1_pm,t1_points_scored,t2_id,t1_id,t2_players,margin_per_100,num_poss
0,272,"[1628369, 1628400, 1628436, 203095, 1630202]",5,13,0,-5,8,1610612750,1610612738,"[1630162, 1630183, 1626157, 1626156, 201937]",-26.31578947368421,19.0
1,395,"[1628369, 1628400, 1628436, 203095, 1630202]",-5,17,273,5,22,1610612750,1610612738,"[1630162, 1630183, 1626157, 1626156, 201937]",17.857142857142858,28.0
2,428,"[1628369, 1628400, 1629605, 1630202, 203095]",-2,20,396,2,22,1610612750,1610612738,"[1630162, 1630183, 1626157, 1626156, 201937]",6.451612903225806,31.0
3,550,"[1628369, 1628400, 1629605, 1630202, 203095]",-10,20,429,10,30,1610612750,1610612738,"[1626157, 1629006, 1630162, 1630183, 201937]",26.31578947368421,38.0
4,640,"[1628369, 1628400, 1629684, 1630202, 203095]",-10,24,551,10,34,1610612750,1610612738,"[1629006, 1629675, 1630162, 1630183, 201937]",22.727272727272727,44.0
5,719,"[1629641, 1629684, 1630202, 203095, 203953]",-11,26,641,11,37,1610612750,1610612738,"[1627823, 1629006, 1629020, 1629162, 1629675]",21.568627450980394,51.0
6,768,"[1629641, 1629684, 1630174, 1630202, 203953]",-13,26,720,13,39,1610612750,1610612738,"[1626156, 1627823, 1629020, 1629162, 1629675]",24.528301886792452,53.0
7,793,"[1628436, 203953, 1629641, 1630174, 1629682]",-13,26,769,13,39,1610612750,1610612738,"[1626156, 1629675, 1629162, 1629020, 1627823]",23.636363636363637,55.0
8,965,"[1628436, 203953, 1629641, 1630174, 1629682]",-14,31,794,14,45,1610612750,1610612738,"[1626156, 1626157, 1627823, 1629020, 1629162]",20.588235294117645,68.0
9,1089,"[1628436, 1629641, 1629682, 1629684, 1630174]",-12,38,966,12,50,1610612750,1610612738,"[1626156, 1626157, 1627823, 1629020, 1629162]",15.18987341772152,79.0
10,1154,"[1628436, 1629641, 1629682, 1629684, 1630174]",-13,40,1090,13,53,1610612750,1610612738,"[1626157, 1627823, 1630162, 1630183, 201937]",15.476190476190476,84.0
11,1235,"[1628369, 1628400, 1628436, 1629682, 1630174]",-18,40,1155,18,58,1610612750,1610612738,"[1626157, 1627823, 1630162, 1630183, 201937]",20.224719101123593,89.0
12,1317,"[1628369, 1628400, 1628436, 1629682, 1630174]",-19,41,1236,19,60,1610612750,1610612738,"[1626156, 1626157, 1630162, 1630183, 201937]",20.43010752688172,93.0
13,1431,"[1628369, 1628400, 1628436, 1629682, 203095]",-19,47,1318,19,66,1610612750,1610612738,"[1626156, 1626157, 1630162, 1630183, 201937]",18.81188118811881,101.0
14,1434,"[1628369, 1628400, 1628436, 1630202, 203095]",-19,47,1432,19,66,1610612750,1610612738,"[1626156, 1626157, 1630162, 1630183, 201937]",18.627450980392158,102.0
15,1707,"[1628369, 1628436, 1629682, 1630202, 203095]",-17,55,1435,17,72,1610612750,1610612738,"[1626156, 1626157, 1630162, 1630183, 201937]",14.049586776859504,121.0
16,1779,"[1628369, 1628400, 1628436, 203095, 1630202]",-21,57,1708,21,78,1610612750,1610612738,"[1630162, 1630183, 1626157, 1626156, 201937]",16.666666666666664,126.0
17,1922,"[1628369, 1628400, 1628436, 203095, 1630202]",-20,63,1780,20,83,1610612750,1610612738,"[1626156, 1626157, 1629006, 1630162, 201937]",14.705882352941178,136.0
18,1966,"[1628369, 1628400, 1628436, 203095, 1630202]",-21,65,1923,21,86,1610612750,1610612738,"[1626156, 1626157, 1627823, 1629006, 1630162]",15.107913669064748,139.0
19,2035,"[1628369, 1628400, 1628436, 203095, 1630202]",-17,69,1967,17,86,1610612750,1610612738,"[1626157, 1627823, 1629006, 1629162, 1630162]",11.805555555555555,144.0
20,2159,"[1628369, 1629641, 1629684, 1630202, 203953]",-15,74,2036,15,89,1610612750,1610612738,"[1627774, 1627823, 1629006, 1629162, 1629675]",9.803921568627452,153.0
21,2244,"[1629641, 1629684, 1630174, 1630202, 203953]",-17,74,2160,17,91,1610612750,1610612738,"[1627774, 1627823, 1629006, 1629162, 1629675]",10.759493670886076,158.0
22,2275,"[1629684, 203953, 1629641, 1630174, 1629682]",-19,74,2245,19,93,1610612750,1610612738,"[1629006, 1629675, 1629162, 1627823, 1627774]",11.875,160.0
23,2333,"[1629684, 203953, 1629641, 1630174, 1629682]",-14,79,2276,14,93,1610612750,1610612738,"[1627774, 1627823, 1629162, 1629669, 1629675]",8.536585365853659,164.0
24,2401,"[1628436, 1629641, 1629682, 1630174, 203953]",-16,81,2334,16,97,1610612750,1610612738,"[1627774, 1627823, 1629162, 1629669, 1629675]",9.467455621301776,169.0
25,2508,"[1628436, 1629641, 1629682, 1630174, 203953]",-14,88,2402,14,102,1610612750,1610612738,"[1627774, 1627823, 1629020, 1629162, 1629669]",7.954545454545454,176.0
26,2615,"[1628436, 1629682, 1629684, 1630174, 203953]",-21,91,2509,21,112,1610612750,1610612738,"[1627774, 1629020, 1629669, 1629675, 1630162]",11.29032258064516,186.0
27,2848,"[1628369, 1628436, 1629682, 1629684, 203095]",-15,108,2616,15,123,1610612750,1610612738,"[1627774, 1629020, 1629669, 1629675, 1630162]",7.462686567164178,201.0
28,9999999,"[1629605, 1629641, 1629682, 1630174, 203953]",-16,108,2849,16,124,1610612750,1610612738,"[1627774, 1629020, 1629669, 1629675, 1630162]",7.8817733990147785,203.0
