,team1_id,team1_player1,team1_player2,team1_player3,team1_player4,team1_player5,team2_id,team2_player1,team2_player2,team2_player3,team2_player4,team2_player5,game_id,period,possession_start,possession_end,team1_points,team2_points,possession_team
0,1610612752,203493,203944,201959,1629628,201565,1610612737,1629631,1628381,203991,203992,1629027,0042000133,1,0,15,0,2,1610612737
1,1610612752,203493,203944,201959,1629628,201565,1610612737,1629631,1628381,203991,203992,1629027,0042000133,1,42,45,0,0,1610612752
2,1610612752,203493,203944,201959,1629628,201565,1610612737,1629631,1628381,203991,203992,1629027,0042000133,1,57,66,0,0,1610612737
3,1610612752,203493,203944,201959,1629628,201565,1610612737,1629631,1628381,203991,203992,1629027,0042000133,1,71,73,0,0,1610612752
4,1610612752,203493,203944,201959,1629628,201565,1610612737,1629631,1628381,203991,203992,1629027,0042000133,1,79,84,0,0,1610612737
5,1610612752,203493,203944,201959,1629628,201565,1610612737,1629631,1628381,203991,203992,1629027,0042000133,1,88,93,0,0,1610612752
6,1610612752,203493,203944,201959,1629628,201565,1610612737,1629631,1628381,203991,203992,1629027,0042000133,1,103,108,0,0,1610612737
7,1610612752,203493,203944,201959,1629628,201565,1610612737,1629631,1628381,203991,203992,1629027,0042000133,1,110,124,2,0,1610612752
8,1610612752,203493,203944,201959,1629628,201565,1610612737,1629631,1628381,203991,203992,1629027,0042000133,1,136,140,0,0,1610612737
9,1610612752,203493,203944,201959,1629628,201565,1610612737,1629631,1628381,203991,203992,1629027,0042000133,1,154,154,2,0,1610612752
10,1610612752,203493,203944,201959,1629628,201565,1610612737,1629631,1628381,203991,203992,1629027,0042000133,1,165,168,0,0,1610612737
11,1610612752,203493,203944,201959,1629628,201565,1610612737,1629631,1628381,203991,203992,1629027,0042000133,1,174,178,0,0,1610612752
12,1610612752,203493,203944,201959,1629628,201565,1610612737,1629631,1628381,203991,203992,1629027,0042000133,1,181,181,0,2,1610612737
13,1610612752,203493,203944,201959,1629628,201565,1610612737,1629631,1628381,203991,203992,1629027,0042000133,1,193,200,2,0,1610612752
14,1610612752,203493,203944,201959,1629628,201565,1610612737,1629631,1628381,203991,203992,1629027,0042000133,1,205,207,0,2,1610612737
15,1610612752,203493,203944,201959,1629628,201565,1610612737,1629631,1628381,203991,203992,1629027,0042000133,1,227,231,0,0,1610612752
16,1610612752,203493,203944,201959,1629628,201565,1610612737,1629631,1628381,203991,203992,1629027,0042000133,1,242,246,0,0,1610612737
17,1610612752,203493,203944,201959,1629628,201565,1610612737,1629631,1628381,203991,203992,1629027,0042000133,1,254,254,2,0,1610612752
18,1610612752,203493,203944,201959,1629628,201565,1610612737,1629631,1628381,203991,203992,1629027,0042000133,1,277,284,0,2,1610612737
19,1610612752,203493,203944,201959,1629628,201565,1610612737,1629631,1628381,203991,203992,1629027,0042000133,1,296,296,2,0,1610612752
20,1610612752,203493,203944,201959,1629628,201565,1610612737,1629631,1628381,203991,203992,1629027,0042000133,1,307,307,0,2,1610612737
21,1610612752,203493,203944,201959,1629628,201565,1610612737,1629631,1628381,203991,203992,1629027,0042000133,1,323,323,2,0,1610612752
22,1610612752,203493,203944,201959,1629628,201565,1610612737,1629631,1628381,203991,203992,1629027,0042000133,1,332,332,0,2,1610612737
23,1610612752,203493,203944,201959,1629628,201565,1610612737,1629631,1628381,203991,203992,1629027,0042000133,1,345,345,3,0,1610612752
24,1610612752,203493,203944,201959,1629628,201565,1610612737,1629631,1628381,203991,203992,1629027,0042000133,1,354,354,0,2,1610612737
25,1610612752,203493,203944,201959,1629628,201565,1610612737,1629631,1628381,203991,203992,1629027,0042000133,1,366,382,0,0,1610612752
26,1610612752,1629628,201565,203457,203493,203944,1610612737,1629631,1628381,203991,203992,1629027,0042000133,1,392,406,0,3,1610612737
27,1610612752,1629628,201565,203457,203493,203944,1610612737,1628381,1628989,1629027,1629631,201568,0042000133,1,421,421,0,0,1610612752
28,1610612752,1629628,201565,203457,203493,203944,1610612737,1628381,1628989,1629027,1629631,201568,0042000133,1,431,435,0,0,1610612737
29,1610612752,1629628,201565,203457,203493,203944,1610612737,1628381,1628989,1629027,1629631,201568,0042000133,1,444,449,2,0,1610612752
30,1610612752,1629628,201565,202692,203457,203944,1610612737,1628989,1629027,1629631,201568,203524,0042000133,1,467,467,0,3,1610612737
31,1610612752,1629628,201565,202692,203457,203944,1610612737,1628989,1629027,1629631,201568,203524,0042000133,1,485,485,2,0,1610612752
32,1610612752,1629628,201565,202692,203457,203944,1610612737,1628989,1629027,1629631,201568,203524,0042000133,1,496,504,0,0,1610612737
33,1610612752,1629628,201565,202692,203457,203944,1610612737,1628989,1629027,1629631,201568,203524,0042000133,1,519,522,0,0,1610612752
34,1610612752,1629628,201565,202692,203457,203944,1610612737,1628989,1629027,1629631,201568,203524,0042000133,1,539,543,0,0,1610612737
35,1610612752,1629628,201565,202692,203457,203944,1610612737,1628989,1629027,1629631,201568,203524,0042000133,1,548,561,2,0,1610612752
36,1610612752,1630193,201565,202692,203457,203944,1610612737,1628989,1629027,1630168,201568,203524,0042000133,1,561,561,0,1,1610612737
37,1610612752,1630193,201565,202692,203457,203944,1610612737,1628989,1629027,1630168,201568,203524,0042000133,1,577,577,0,0,1610612752
38,1610612752,1630193,201565,202692,203457,203944,1610612737,1628989,1629027,1630168,201568,203524,0042000133,1,587,587,0,3,1610612737
39,1610612752,1630193,201565,202692,203457,203944,1610612737,1628989,1629027,1630168,201568,203524,0042000133,1,605,617,0,0,1610612752
40,1610612752,1630193,201565,202692,203457,203944,1610612737,1628989,1629027,1630168,201568,203524,0042000133,1,618,618,0,0,1610612737
41,1610612752,1630193,201565,202692,203457,203944,1610612737,1628989,1629027,1630168,201568,203524,0042000133,1,620,648,0,0,1610612752
42,1610612752,1630193,201565,202692,203457,203944,1610612737,1628989,1629027,1630168,201568,203524,0042000133,1,652,652,0,3,1610612737
43,1610612752,1630193,201565,202692,203457,203944,1610612737,1628989,1629027,1630168,201568,203524,0042000133,1,666,668,0,0,1610612752
44,1610612752,1630193,201565,202692,203457,203944,1610612737,1628989,1629027,1630168,201568,203524,0042000133,1,676,677,0,0,1610612737
45,1610612752,1630193,201565,202692,203457,203944,1610612737,1628989,1629027,1630168,201568,203524,0042000133,1,677,677,2,0,1610612752
46,1610612752,1630193,202692,203457,203493,203944,1610612737,1628989,1629027,1630168,201568,203524,0042000133,1,691,695,0,0,1610612737
47,1610612752,1630193,202692,203457,203493,203944,1610612737,1628989,1629027,1630168,201568,203524,0042000133,1,706,706,2,0,1610612752
48,1610612752,1628373,202692,203457,203493,203944,1610612737,1628989,1629027,1630168,201568,203524,0042000133,1,708,708,0,2,1610612737
49,1610612752,1630193,202692,203457,203493,203944,1610612737,1628989,1629027,1630168,201568,203524,0042000133,1,719,719,3,0,1610612752
50,1610612752,1630193,202692,203457,203493,203944,1610612737,1628989,1629027,1630168,201568,203524,0042000133,1,719,719,0,0,1610612737
51,1610612752,1630193,202692,203457,203493,203944,1610612737,1628989,1629027,1630168,201568,203524,0042000133,1,720,720,3,0,1610612752
52,1610612752,203493,203457,202692,1630193,1630167,1610612737,203991,203992,1628989,201568,101150,0042000133,2,720,736,2,0,1610612752
53,1610612752,203493,203457,202692,1630193,1630167,1610612737,203991,203992,1628989,201568,101150,0042000133,2,756,756,0,0,1610612737
54,1610612752,203493,203457,202692,1630193,1630167,1610612737,203991,203992,1628989,201568,101150,0042000133,2,777,781,0,0,1610612752
55,1610612752,203493,203457,202692,1630193,1630167,1610612737,203991,203992,1628989,201568,101150,0042000133,2,784,793,0,3,1610612737
56,1610612752,203493,203457,202692,1630193,1630167,1610612737,203991,203992,1628989,201568,101150,0042000133,2,818,819,0,0,1610612752
57,1610612752,203493,203457,202692,1630193,1630167,1610612737,203991,203992,1628989,201568,101150,0042000133,2,829,829,0,2,1610612737
58,1610612752,203493,203457,202692,1630193,1630167,1610612737,203991,203992,1628989,201568,101150,0042000133,2,846,848,2,0,1610612752
59,1610612752,203493,203457,202692,1630193,1630167,1610612737,203991,203992,1628989,201568,101150,0042000133,2,858,858,0,0,1610612737
60,1610612752,203493,203457,202692,1630193,1630167,1610612737,203991,203992,1628989,201568,101150,0042000133,2,873,876,0,0,1610612752
61,1610612752,203493,203457,202692,1630193,1630167,1610612737,203991,203992,1628989,201568,101150,0042000133,2,888,891,0,0,1610612737
62,1610612752,203493,203457,202692,1630193,1630167,1610612737,203991,203992,1628989,201568,101150,0042000133,2,912,919,0,0,1610612752
63,1610612752,203493,203457,202692,1630193,1630167,1610612737,203991,203992,1628989,201568,101150,0042000133,2,926,926,0,0,1610612737
64,1610612752,203493,203457,202692,1630193,1630167,1610612737,203991,203992,1628989,201568,101150,0042000133,2,945,945,0,0,1610612752
65,1610612752,203493,203457,202692,1630193,1630167,1610612737,101150,1628381,1629631,201568,203992,0042000133,2,964,964,0,2,1610612737
66,1610612752,203493,203457,202692,1630193,1630167,1610612737,101150,1628381,1629631,201568,203992,0042000133,2,974,977,1,0,1610612752
67,1610612752,203493,203457,202692,1630193,1630167,1610612737,101150,1628381,1629631,201568,203992,0042000133,2,983,991,0,0,1610612737
68,1610612752,1630167,201565,201959,202692,203493,1610612737,101150,1628381,1629631,201568,203992,0042000133,2,1001,1001,3,0,1610612752
69,1610612752,1630167,201565,201959,202692,203493,1610612737,101150,1628381,1629631,201568,203992,0042000133,2,1012,1012,0,2,1610612737
70,1610612752,1630167,201565,201959,202692,203493,1610612737,101150,1628381,1629631,201568,203992,0042000133,2,1021,1021,0,0,1610612752
71,1610612752,1630167,201565,201959,202692,203493,1610612737,101150,1628381,1629631,201568,203992,0042000133,2,1021,1036,0,0,1610612737
72,1610612752,201565,201959,202692,203493,203944,1610612737,1628381,1629027,1629631,203991,203992,0042000133,2,1045,1045,0,0,1610612752
73,1610612752,201565,201959,202692,203493,203944,1610612737,1628381,1629027,1629631,203991,203992,0042000133,2,1052,1055,0,0,1610612737
74,1610612752,201565,201959,202692,203493,203944,1610612737,1628381,1629027,1629631,203991,203992,0042000133,2,1062,1062,0,0,1610612752
75,1610612752,201565,201959,202692,203493,203944,1610612737,1628381,1629027,1629631,203991,203992,0042000133,2,1081,1084,0,0,1610612737
76,1610612752,201565,201959,202692,203493,203944,1610612737,1628381,1629027,1629631,203991,203992,0042000133,2,1086,1091,0,0,1610612752
77,1610612752,201565,201959,202692,203493,203944,1610612737,1628381,1629027,1629631,203991,203992,0042000133,2,1096,1110,0,3,1610612737
78,1610612752,1629628,201565,201959,203493,203944,1610612737,1628381,1629027,1629631,203991,203992,0042000133,2,1132,1135,0,0,1610612752
79,1610612752,1629628,201565,201959,203493,203944,1610612737,1628381,1629027,1629631,203991,203992,0042000133,2,1146,1146,0,2,1610612737
80,1610612752,1629628,201565,201959,203493,203944,1610612737,1628381,1629027,1629631,203991,203992,0042000133,2,1159,1166,0,0,1610612752
81,1610612752,1629628,201565,201959,203493,203944,1610612737,1628381,1629027,1629631,203991,203992,0042000133,2,1171,1173,0,2,1610612737
82,1610612752,1629628,201565,201959,203493,203944,1610612737,1628381,1629027,1629631,203991,203992,0042000133,2,1181,1198,3,0,1610612752
83,1610612752,1629628,201565,201959,203493,203944,1610612737,1628381,1629027,1629631,203991,203992,0042000133,2,1221,1221,0,3,1610612737
84,1610612752,1629628,201565,201959,203493,203944,1610612737,1628381,1629027,1629631,203991,203992,0042000133,2,1243,1249,0,0,1610612752
85,1610612752,1629628,201565,201959,203493,203944,1610612737,1628381,1629027,1629631,203991,203992,0042000133,2,1261,1261,0,2,1610612737
86,1610612752,1629628,201565,201959,203493,203944,1610612737,1628381,1629027,1629631,203991,203992,0042000133,2,1269,1288,0,0,1610612752
87,1610612752,1629628,201565,201959,203493,203944,1610612737,1629027,1629631,201568,203991,203992,0042000133,2,1309,1309,0,2,1610612737
88,1610612752,1629628,201565,201959,203493,203944,1610612737,1629027,1629631,201568,203991,203992,0042000133,2,1322,1323,0,0,1610612752
89,1610612752,1629628,201565,201959,203493,203944,1610612737,1629027,1629631,201568,203991,203992,0042000133,2,1339,1342,0,0,1610612737
90,1610612752,1629628,201565,201959,203493,203944,1610612737,1629027,1629631,201568,203991,203992,0042000133,2,1346,1348,0,0,1610612752
91,1610612752,1629628,201565,201959,203493,203944,1610612737,1629027,1629631,201568,203991,203992,0042000133,2,1363,1363,0,3,1610612737
92,1610612752,1629628,201565,201959,203493,203944,1610612737,1629027,1629631,201568,203991,203992,0042000133,2,1390,1393,0,0,1610612752
93,1610612752,1629628,201565,201959,203493,203944,1610612737,1629027,1629631,201568,203991,203992,0042000133,2,1396,1410,0,3,1610612737
94,1610612752,1629628,201565,201959,203493,203944,1610612737,1629027,1629631,201568,203991,203992,0042000133,2,1420,1420,2,0,1610612752
95,1610612752,203493,203944,201959,1629628,201565,1610612737,1629631,1628381,203991,203992,1629027,0042000133,3,1440,1460,0,0,1610612752
96,1610612752,203493,203944,201959,1629628,201565,1610612737,1629631,1628381,203991,203992,1629027,0042000133,3,1470,1470,0,3,1610612737
97,1610612752,203493,203944,201959,1629628,201565,1610612737,1629631,1628381,203991,203992,1629027,0042000133,3,1485,1485,2,0,1610612752
98,1610612752,203493,203944,201959,1629628,201565,1610612737,1629631,1628381,203991,203992,1629027,0042000133,3,1501,1501,0,1,1610612737
99,1610612752,203493,203944,201959,1629628,201565,1610612737,1629631,1628381,203991,203992,1629027,0042000133,3,1501,1525,3,0,1610612752
100,1610612752,203493,203944,201959,1629628,201565,1610612737,1629631,1628381,203991,203992,1629027,0042000133,3,1544,1544,0,2,1610612737
101,1610612752,203493,203944,201959,1629628,201565,1610612737,1629631,1628381,203991,203992,1629027,0042000133,3,1569,1569,3,0,1610612752
102,1610612752,203493,203944,201959,1629628,201565,1610612737,1629631,1628381,203991,203992,1629027,0042000133,3,1590,1590,0,2,1610612737
103,1610612752,203493,203944,201959,1629628,201565,1610612737,1629631,1628381,203991,203992,1629027,0042000133,3,1610,1614,0,0,1610612752
104,1610612752,203493,203944,201959,1629628,201565,1610612737,1629631,1628381,203991,203992,1629027,0042000133,3,1619,1623,0,0,1610612737
105,1610612752,203493,203944,201959,1629628,201565,1610612737,1629631,1628381,203991,203992,1629027,0042000133,3,1634,1634,0,0,1610612752
106,1610612752,203493,203944,201959,1629628,201565,1610612737,1629631,1628381,203991,203992,1629027,0042000133,3,1640,1665,0,0,1610612737
107,1610612752,203493,203944,201959,1629628,201565,1610612737,1629631,1628381,203991,203992,1629027,0042000133,3,1672,1677,0,0,1610612752
108,1610612752,203493,203944,201959,1629628,201565,1610612737,1629631,1628381,203991,203992,1629027,0042000133,3,1693,1693,0,2,1610612737
109,1610612752,203493,203944,201959,1629628,201565,1610612737,1629631,1628381,203991,203992,1629027,0042000133,3,1712,1715,0,0,1610612752
110,1610612752,203493,203944,201959,1629628,201565,1610612737,1629631,1628381,203991,203992,1629027,0042000133,3,1724,1728,0,0,1610612737
111,1610612752,203493,203944,201959,1629628,201565,1610612737,1629631,1628381,203991,203992,1629027,0042000133,3,1740,1740,3,0,1610612752
112,1610612752,203493,203944,201959,1629628,201565,1610612737,1629631,1628381,203991,203992,1629027,0042000133,3,1757,1757,0,2,1610612737
113,1610612752,203493,203944,201959,1629628,201565,1610612737,1629631,1628381,203991,203992,1629027,0042000133,3,1773,1777,0,0,1610612752
114,1610612752,203493,203944,201959,1629628,201565,1610612737,1629631,1628381,203991,203992,1629027,0042000133,3,1785,1794,0,0,1610612737
115,1610612752,1629628,201565,203457,203493,203944,1610612737,1629631,1628381,203991,203992,1629027,0042000133,3,1797,1813,2,0,1610612752
116,1610612752,1629628,201565,203457,203493,203944,1610612737,1629631,1628381,203991,203992,1629027,0042000133,3,1829,1829,0,2,1610612737
117,1610612752,1629628,201565,203457,203493,203944,1610612737,1629631,1628381,203991,203992,1629027,0042000133,3,1848,1848,2,0,1610612752
118,1610612752,1629628,201565,203457,203493,203944,1610612737,1629631,1628381,203991,203992,1629027,0042000133,3,1859,1861,0,0,1610612737
119,1610612752,1629628,201565,203457,203493,203944,1610612737,1629631,1628381,203991,203992,1629027,0042000133,3,1869,1874,0,0,1610612752
120,1610612752,1629628,201565,203457,203493,203944,1610612737,1629631,1628381,203991,203992,1629027,0042000133,3,1886,1886,0,2,1610612737
121,1610612752,1629628,201565,203457,203493,203944,1610612737,1629631,1628381,203991,203992,1629027,0042000133,3,1886,1900,0,0,1610612752
122,1610612752,1629628,201565,203457,203493,203944,1610612737,1629631,1628381,203991,203992,1629027,0042000133,3,1909,1909,0,2,1610612737
123,1610612752,1629628,201565,203457,203493,203944,1610612737,1629631,1628381,203991,203992,1629027,0042000133,3,1920,1920,2,0,1610612752
124,1610612752,1629628,202692,203457,203493,203944,1610612737,1628381,1628989,1629027,201568,203992,0042000133,3,1937,1937,0,0,1610612737
125,1610612752,1629628,202692,203457,203493,203944,1610612737,101150,1628381,1628989,201568,203992,0042000133,3,1956,1956,2,0,1610612752
126,1610612752,1629628,202692,203457,203493,203944,1610612737,101150,1628381,1628989,201568,203992,0042000133,3,1974,1974,0,3,1610612737
127,1610612752,1629628,202692,203457,203493,203944,1610612737,101150,1628381,1628989,201568,203992,0042000133,3,1983,2001,3,0,1610612752
128,1610612752,1629628,202692,203457,203493,203944,1610612737,101150,1628989,1630168,201568,203992,0042000133,3,2020,2020,0,2,1610612737
129,1610612752,1629628,202692,203457,203493,203944,1610612737,101150,1628989,1630168,201568,203992,0042000133,3,2039,2039,2,0,1610612752
130,1610612752,1630193,202692,203457,203493,203944,1610612737,101150,1628989,1630168,201568,203992,0042000133,3,2048,2058,0,2,1610612737
131,1610612752,1630193,202692,203457,203493,203944,1610612737,101150,1628989,1630168,201568,203992,0042000133,3,2070,2070,0,0,1610612752
132,1610612752,1630193,202692,203457,203493,203944,1610612737,101150,1628989,1630168,201568,203992,0042000133,3,2090,2094,0,0,1610612737
133,1610612752,1630193,202692,203457,203493,203944,1610612737,101150,1628989,1630168,201568,203992,0042000133,3,2110,2113,1,0,1610612752
134,1610612752,1630193,202692,203457,203493,203944,1610612737,101150,1628989,1630168,201568,203992,0042000133,3,2128,2128,0,3,1610612737
135,1610612752,1630193,202692,203457,203493,203944,1610612737,101150,1628989,1630168,201568,203992,0042000133,3,2143,2143,3,0,1610612752
136,1610612752,1630193,202692,203457,203493,203944,1610612737,101150,1628989,1630168,201568,203992,0042000133,3,2158,2158,0,0,1610612737
137,1610612752,201565,203457,202692,1630193,1630167,1610612737,203991,203992,1628989,201568,101150,0042000133,4,2160,2174,0,3,1610612737
138,1610612752,201565,203457,202692,1630193,1630167,1610612737,203991,203992,1628989,201568,101150,0042000133,4,2200,2202,0,0,1610612752
139,1610612752,201565,203457,202692,1630193,1630167,1610612737,203991,203992,1628989,201568,101150,0042000133,4,2208,2209,0,0,1610612737
140,1610612752,201565,203457,202692,1630193,1630167,1610612737,203991,203992,1628989,201568,101150,0042000133,4,2209,2222,2,0,1610612752
141,1610612752,201565,203457,202692,1630193,1630167,1610612737,203991,203992,1628989,201568,101150,0042000133,4,2249,2255,0,0,1610612737
142,1610612752,201565,203457,202692,1630193,1630167,1610612737,203991,203992,1628989,201568,101150,0042000133,4,2264,2269,0,0,1610612752
143,1610612752,201565,203457,202692,1630193,1630167,1610612737,203991,203992,1628989,201568,101150,0042000133,4,2274,2274,0,3,1610612737
144,1610612752,201565,203457,202692,1630193,1630167,1610612737,203991,203992,1628989,201568,101150,0042000133,4,2289,2289,2,0,1610612752
145,1610612752,201565,203457,202692,1630193,1630167,1610612737,203991,203992,1628989,201568,101150,0042000133,4,2300,2300,0,0,1610612737
146,1610612752,201565,203457,202692,1630193,1630167,1610612737,1628989,1629027,1629631,201568,203991,0042000133,4,2311,2311,2,0,1610612752
147,1610612752,201565,203457,202692,1630193,1630167,1610612737,1628989,1629027,1629631,201568,203991,0042000133,4,2329,2329,0,0,1610612737
148,1610612752,201565,203457,202692,1630193,1630167,1610612737,1628989,1629027,1629631,201568,203991,0042000133,4,2332,2344,0,0,1610612752
149,1610612752,201565,203457,202692,1630193,1630167,1610612737,1628989,1629027,1629631,201568,203991,0042000133,4,2348,2348,0,2,1610612737
150,1610612752,201565,203457,202692,1630193,1630167,1610612737,1628989,1629027,1629631,201568,203991,0042000133,4,2361,2365,0,0,1610612752
151,1610612752,201565,203457,202692,1630193,1630167,1610612737,1628989,1629027,1629631,201568,203991,0042000133,4,2370,2373,0,0,1610612737
152,1610612752,201565,203457,202692,1630193,1630167,1610612737,1628989,1629027,1629631,201568,203991,0042000133,4,2375,2375,2,0,1610612752
153,1610612752,201565,203457,202692,1630193,1630167,1610612737,1628989,1629027,1629631,201568,203991,0042000133,4,2375,2400,0,0,1610612737
154,1610612752,201565,203457,202692,1630193,1630167,1610612737,1628381,1628989,1629027,1629631,201568,0042000133,4,2406,2410,0,0,1610612752
155,1610612752,201565,203457,202692,1630193,1630167,1610612737,1628381,1628989,1629027,1629631,201568,0042000133,4,2417,2417,0,3,1610612737
156,1610612752,201565,203457,202692,1630193,1630167,1610612737,1628381,1628989,1629027,1629631,201568,0042000133,4,2434,2434,0,0,1610612752
157,1610612752,201565,203457,202692,1630193,1630167,1610612737,1628381,1628989,1629027,1629631,201568,0042000133,4,2454,2458,0,0,1610612737
158,1610612752,201565,203457,202692,1630193,1630167,1610612737,1628381,1628989,1629027,1629631,201568,0042000133,4,2468,2468,0,0,1610612752
159,1610612752,1630167,1630193,201565,201959,202692,1610612737,1628381,1628989,1629027,1629631,201568,0042000133,4,2477,2482,0,0,1610612737
160,1610612752,1630167,1630193,201565,201959,202692,1610612737,1628381,1628989,1629027,1629631,201568,0042000133,4,2492,2496,0,0,1610612752
161,1610612752,1630167,1630193,201565,201959,202692,1610612737,1628381,1628989,1629027,1629631,201568,0042000133,4,2502,2514,0,0,1610612737
162,1610612752,1630167,201565,201959,202692,203493,1610612737,1628381,1629027,1629631,201568,203992,0042000133,4,2522,2522,2,0,1610612752
163,1610612752,1630167,201565,201959,202692,203493,1610612737,1628381,1629027,1629631,201568,203992,0042000133,4,2550,2553,0,0,1610612737
164,1610612752,1630167,201565,201959,202692,203493,1610612737,1628381,1629027,1629631,201568,203992,0042000133,4,2559,2562,3,0,1610612752
165,1610612752,1630167,201565,201959,202692,203493,1610612737,1628381,1629027,1629631,203991,203992,0042000133,4,2578,2584,0,0,1610612737
166,1610612752,1630167,201565,201959,202692,203493,1610612737,1628381,1629027,1629631,203991,203992,0042000133,4,2589,2593,0,0,1610612752
167,1610612752,1630167,201565,201959,202692,203493,1610612737,1628381,1629027,1629631,203991,203992,0042000133,4,2600,2603,0,0,1610612737
168,1610612752,1630167,201565,201959,202692,203493,1610612737,1628381,1629027,1629631,203991,203992,0042000133,4,2612,2617,0,0,1610612752
169,1610612752,1630167,201565,201959,202692,203493,1610612737,1628381,1629027,1629631,203991,203992,0042000133,4,2635,2635,0,3,1610612737
170,1610612752,1630167,201565,201959,202692,203493,1610612737,1628381,1629027,1629631,203991,203992,0042000133,4,2636,2651,2,0,1610612752
171,1610612752,1629628,201565,201959,203493,203944,1610612737,1628381,1629027,1629631,203991,203992,0042000133,4,2666,2666,0,2,1610612737
172,1610612752,1629628,201565,201959,203493,203944,1610612737,1628381,1629027,1629631,203991,203992,0042000133,4,2684,2687,0,0,1610612752
173,1610612752,1629628,201565,201959,203493,203944,1610612737,1628381,1629027,1629631,203991,203992,0042000133,4,2702,2718,0,0,1610612737
174,1610612752,1629628,201565,201959,203493,203944,1610612737,1628381,1629027,1629631,203991,203992,0042000133,4,2728,2728,2,0,1610612752
175,1610612752,1629628,201565,201959,203493,203944,1610612737,1628381,1629027,1629631,203991,203992,0042000133,4,2752,2752,0,2,1610612737
176,1610612752,1629628,201565,201959,203493,203944,1610612737,1628381,1629027,1629631,203991,203992,0042000133,4,2764,2776,2,0,1610612752
177,1610612752,1629628,201565,201959,203493,203944,1610612737,1628381,1629027,1629631,203991,203992,0042000133,4,2788,2806,0,1,1610612737
178,1610612752,1629628,201565,201959,203493,203944,1610612737,1628381,1629027,1629631,203991,203992,0042000133,4,2807,2807,0,0,1610612752
179,1610612752,1629628,201565,201959,203493,203944,1610612737,1628381,1628989,1629027,1629631,203992,0042000133,4,2822,2822,0,0,1610612737
180,1610612752,1629628,201565,201959,203493,203944,1610612737,1628381,1629027,1629631,203991,203992,0042000133,4,2839,2848,3,0,1610612752
181,1610612752,1629628,201565,201959,203493,203944,1610612737,1628381,1629027,1629631,203991,203992,0042000133,4,2873,2873,0,0,1610612737
182,1610612752,1629628,201565,201959,203493,203944,1610612737,1628381,1629027,1629631,203991,203992,0042000133,4,2879,2879,0,0,1610612752
