,TEAM_ID_1,TEAM_1_PLAYERS,TEAM_ID_2,TEAM_2_PLAYERS,PERIOD
0,1610612737,[1629631  203953 1627745 1628989 1629027],1610612748,[ 202710 1628389  203086 1629130 1629134],1
1,1610612737,[ 203953 1629027  203459 1628981 1627761],1610612748,[1629134 1629639 1627884  203482 1629735],2
2,1610612737,[1629631  203953 1627745 1628989 1629027],1610612748,[ 202710 1628389  203086 1629130 1629134],3
3,1610612737,[1629631 1627745 1629027  203459 1627761],1610612748,[1628389 1629130 1629134 1629639  203482],4
4,1610612737,[1629631 1629027  203458    1713  203459],1610612748,[ 202710 1628389 1629130 1629134 1627884],5
