,team1_id,team1_player1,team1_player2,team1_player3,team1_player4,team1_player5,team2_id,team2_player1,team2_player2,team2_player3,team2_player4,team2_player5,game_id,period,possession_start,possession_end,team1_points,team2_points,possession_team
0,1610612765,203503,1629635,203083,1628971,201565,1610612764,203078,1629067,101133,1627780,202738,0021900639,1,0,20,0,0,1610612765
1,1610612765,203503,1629635,203083,1628971,201565,1610612764,203078,1629067,101133,1627780,202738,0021900639,1,32,32,0,3,1610612764
2,1610612765,203503,1629635,203083,1628971,201565,1610612764,203078,1629067,101133,1627780,202738,0021900639,1,51,51,2,0,1610612765
3,1610612765,203503,1629635,203083,1628971,201565,1610612764,203078,1629067,101133,1627780,202738,0021900639,1,67,67,0,3,1610612764
4,1610612765,203503,1629635,203083,1628971,201565,1610612764,203078,1629067,101133,1627780,202738,0021900639,1,85,85,0,0,1610612765
5,1610612765,203503,1629635,203083,1628971,201565,1610612764,203078,1629067,101133,1627780,202738,0021900639,1,105,105,0,2,1610612764
6,1610612765,203503,1629635,203083,1628971,201565,1610612764,203078,1629067,101133,1627780,202738,0021900639,1,121,121,0,0,1610612765
7,1610612765,203503,1629635,203083,1628971,201565,1610612764,203078,1629067,101133,1627780,202738,0021900639,1,125,125,0,0,1610612764
8,1610612765,203503,1629635,203083,1628971,201565,1610612764,203078,1629067,101133,1627780,202738,0021900639,1,131,145,3,0,1610612765
9,1610612765,203503,1629635,203083,1628971,201565,1610612764,203078,1629067,101133,1627780,202738,0021900639,1,162,162,0,2,1610612764
10,1610612765,203503,1629635,203083,1628971,201565,1610612764,203078,1629067,101133,1627780,202738,0021900639,1,170,170,3,0,1610612765
11,1610612765,203503,1629635,203083,1628971,201565,1610612764,203078,1629067,101133,1627780,202738,0021900639,1,186,186,0,2,1610612764
12,1610612765,203503,1629635,203083,1628971,201565,1610612764,203078,1629067,101133,1627780,202738,0021900639,1,196,219,0,0,1610612765
13,1610612765,203503,1629635,203083,1628971,201565,1610612764,203078,1629067,101133,1627780,202738,0021900639,1,223,223,0,2,1610612764
14,1610612765,203503,1629635,203083,1628971,201565,1610612764,203078,1629067,101133,1627780,202738,0021900639,1,239,239,3,0,1610612765
15,1610612765,203503,1629635,203083,1628971,201565,1610612764,203078,1629067,101133,1627780,202738,0021900639,1,255,257,0,0,1610612764
16,1610612765,203503,1629635,203083,1628971,201565,1610612764,203078,1629067,101133,1627780,202738,0021900639,1,270,270,0,0,1610612765
17,1610612765,203503,1629635,203083,1628971,201565,1610612764,203078,1629067,101133,1627780,202738,0021900639,1,274,276,0,3,1610612764
18,1610612765,1629635,201565,203083,203503,204038,1610612764,203078,1629067,101133,1627780,202738,0021900639,1,284,284,2,0,1610612765
19,1610612765,1629635,201565,203083,203503,204038,1610612764,203078,1629067,101133,1627780,202738,0021900639,1,303,303,0,0,1610612764
20,1610612765,1629635,201565,203083,203503,204038,1610612764,203078,1629067,101133,1627780,202738,0021900639,1,317,323,3,0,1610612765
21,1610612765,1629635,201565,203083,203503,204038,1610612764,203078,1629067,101133,1627780,202738,0021900639,1,350,358,0,0,1610612764
22,1610612765,1629635,201565,203083,203503,204038,1610612764,101133,1627780,202722,202738,203078,0021900639,1,362,362,2,0,1610612765
23,1610612765,1629635,201565,203083,203503,204038,1610612764,101133,1627780,202722,202738,203078,0021900639,1,390,390,0,3,1610612764
24,1610612765,1629635,201565,203083,203503,204038,1610612764,101133,1627780,202722,202738,203078,0021900639,1,404,410,0,0,1610612765
25,1610612765,1629635,201565,203083,203503,204038,1610612764,101133,1627780,202722,202738,203078,0021900639,1,413,413,0,2,1610612764
26,1610612765,1629635,201565,203083,203503,204038,1610612764,101133,1627780,202722,202738,203078,0021900639,1,430,430,2,0,1610612765
27,1610612765,1629004,1629635,201565,203083,204038,1610612764,101133,202722,202738,203078,203895,0021900639,1,442,447,0,0,1610612764
28,1610612765,1629004,1629635,201565,203083,204038,1610612764,101133,202722,202738,203078,203895,0021900639,1,452,452,2,0,1610612765
29,1610612765,1629004,1629635,201565,203083,204038,1610612764,101133,202722,202738,203078,203895,0021900639,1,468,470,0,0,1610612764
30,1610612765,1629004,1629635,201565,203083,204038,1610612764,101133,202722,202738,203078,203895,0021900639,1,479,479,2,0,1610612765
31,1610612765,1629004,1629635,201565,203083,204038,1610612764,101133,202722,202738,203078,203895,0021900639,1,483,494,0,2,1610612764
32,1610612765,1629004,202693,203083,204025,204038,1610612764,1628418,1628972,202397,202722,203895,0021900639,1,510,513,2,0,1610612765
33,1610612765,1629004,202693,203083,204025,204038,1610612764,1628418,1628972,202397,202722,203895,0021900639,1,532,535,0,0,1610612764
34,1610612765,1629004,202693,203083,204025,204038,1610612764,1628418,1628972,202397,202722,203895,0021900639,1,540,544,0,0,1610612765
35,1610612765,1629004,202693,203083,204025,204038,1610612764,1628418,1628972,202397,202722,203895,0021900639,1,551,552,0,0,1610612764
36,1610612765,1629004,202693,203083,204025,204038,1610612764,1628418,1628972,202397,202722,203895,0021900639,1,564,568,0,0,1610612765
37,1610612765,1629004,202693,203083,204025,204038,1610612764,1628418,1628972,202397,202722,203895,0021900639,1,576,580,0,0,1610612764
38,1610612765,1629004,202693,203083,204025,204038,1610612764,1628418,1628972,202397,202722,203895,0021900639,1,592,592,3,0,1610612765
39,1610612765,1629004,202693,203083,204025,204038,1610612764,1628418,1628972,202397,202722,203895,0021900639,1,606,609,0,0,1610612764
40,1610612765,1629004,202693,203083,204025,204038,1610612764,1628418,1628972,202397,202722,203895,0021900639,1,611,611,2,0,1610612765
41,1610612765,1629004,202693,203083,204025,204038,1610612764,1628418,1628972,202397,202722,203895,0021900639,1,622,625,0,0,1610612764
42,1610612765,1629004,202693,203083,204025,204038,1610612764,1628418,1628972,202397,202722,203895,0021900639,1,637,651,0,0,1610612765
43,1610612765,1626174,1629004,202693,204025,204038,1610612764,1628418,1628972,202397,202722,203895,0021900639,1,655,655,0,1,1610612764
44,1610612765,1626174,1629004,202693,204025,204038,1610612764,1628418,1628972,202397,202722,203895,0021900639,1,672,672,2,0,1610612765
45,1610612765,1626174,1629004,202693,204025,204038,1610612764,1628418,1628972,202397,202722,203895,0021900639,1,685,685,0,0,1610612764
46,1610612765,1626174,1629004,202693,204025,204038,1610612764,1628418,1628972,202397,202722,203895,0021900639,1,690,694,0,0,1610612765
47,1610612765,1626174,1629004,202693,204025,204038,1610612764,1628418,1628972,202397,202722,203895,0021900639,1,712,712,0,2,1610612764
48,1610612765,1626174,1629004,202693,204025,204038,1610612764,1628418,1628972,202397,202722,203895,0021900639,1,718,718,2,0,1610612765
49,1610612765,1626174,1629004,202693,204025,204038,1610612764,1628418,1628972,202397,202722,203895,0021900639,1,720,720,0,3,1610612764
50,1610612765,1626174,1629004,202693,204025,204038,1610612764,1628418,1628972,202397,202722,203895,0021900639,1,720,720,0,0,151
51,1610612765,204038,1629004,204025,202693,1626174,1610612764,202722,203895,202397,1628972,1628418,0021900639,2,720,730,0,3,1610612764
52,1610612765,204038,1629004,204025,202693,1626174,1610612764,202722,203895,202397,1628972,1628418,0021900639,2,748,748,2,0,1610612765
53,1610612765,204038,1629004,204025,202693,1626174,1610612764,202722,203895,202397,1628972,1628418,0021900639,2,759,759,0,0,1610612764
54,1610612765,204038,1629004,204025,202693,1626174,1610612764,202722,203895,202397,1628972,1628418,0021900639,2,764,767,0,0,1610612765
55,1610612765,204038,1629004,204025,202693,1626174,1610612764,202722,203895,202397,1628972,1628418,0021900639,2,777,777,0,2,1610612764
56,1610612765,204038,1629004,204025,202693,1626174,1610612764,202722,203895,202397,1628972,1628418,0021900639,2,793,793,2,0,1610612765
57,1610612765,204038,1629004,204025,202693,1626174,1610612764,202722,203895,202397,1628972,1628418,0021900639,2,799,806,0,0,1610612764
58,1610612765,204038,1629004,204025,202693,1626174,1610612764,202722,203895,202397,1628972,1628418,0021900639,2,821,833,0,0,1610612765
59,1610612765,204038,1629004,204025,202693,1626174,1610612764,202722,203895,202397,1628972,1628418,0021900639,2,842,842,0,0,1610612764
60,1610612765,204038,1629004,204025,202693,1626174,1610612764,202722,203895,202397,1628972,1628418,0021900639,2,852,852,3,0,1610612765
61,1610612765,204038,1629004,204025,202693,1626174,1610612764,202722,203895,202397,1628972,1628418,0021900639,2,863,863,0,2,1610612764
62,1610612765,204038,1629004,204025,202693,1626174,1610612764,202722,203895,202397,1628972,1628418,0021900639,2,870,870,0,0,1610612765
63,1610612765,204038,1629004,204025,202693,1626174,1610612764,202722,203895,202397,1628972,1628418,0021900639,2,887,887,0,2,1610612764
64,1610612765,204038,1629004,204025,202693,1626174,1610612764,202722,203895,202397,1628972,1628418,0021900639,2,895,897,0,0,1610612765
65,1610612765,204038,1629004,204025,202693,1626174,1610612764,202722,203895,202397,1628972,1628418,0021900639,2,901,901,0,0,1610612764
66,1610612765,1626174,1629004,201565,202693,204038,1610612764,202722,203895,202397,1628972,1628418,0021900639,2,918,921,2,0,1610612765
67,1610612765,1626174,1629004,201565,202693,204038,1610612764,202722,203895,202397,1628972,1628418,0021900639,2,931,933,0,0,1610612764
68,1610612765,1626174,1629004,201565,202693,204038,1610612764,202722,203895,202397,1628972,1628418,0021900639,2,940,940,2,0,1610612765
69,1610612765,1626174,1629004,201565,202693,204038,1610612764,202722,203895,202397,1628972,1628418,0021900639,2,942,961,0,2,1610612764
70,1610612765,1626174,1629004,201565,202693,204038,1610612764,1628418,1628972,202397,202722,203078,0021900639,2,975,977,0,0,1610612765
71,1610612765,1626174,1629004,201565,202693,204038,1610612764,1628418,1628972,202397,202722,203078,0021900639,2,985,987,0,0,1610612764
72,1610612765,1626174,1629004,201565,202693,204038,1610612764,1628418,1628972,202397,202722,203078,0021900639,2,995,997,0,0,1610612765
73,1610612765,1626174,1629004,201565,202693,204038,1610612764,1628418,1628972,202397,202722,203078,0021900639,2,1005,1009,0,0,1610612764
74,1610612765,1626174,1629004,201565,202693,204038,1610612764,1628418,1628972,202397,202722,203078,0021900639,2,1016,1022,3,0,1610612765
75,1610612765,1626174,1629004,1629635,201565,204038,1610612764,101133,1628972,202397,202722,203078,0021900639,2,1032,1032,0,2,1610612764
76,1610612765,1626174,1629004,1629635,201565,204038,1610612764,101133,1628972,202397,202722,203078,0021900639,2,1052,1055,0,0,1610612765
77,1610612765,1626174,1629004,1629635,201565,204038,1610612764,101133,1628972,202397,202722,203078,0021900639,2,1058,1072,0,3,1610612764
78,1610612765,1626174,1628971,1629004,1629635,201565,1610612764,101133,1628972,202397,202722,203078,0021900639,2,1091,1091,2,0,1610612765
79,1610612765,1626174,1628971,1629004,1629635,201565,1610612764,101133,1628972,202397,202722,203078,0021900639,2,1103,1103,0,2,1610612764
80,1610612765,1628971,1629635,201565,203083,203503,1610612764,101133,1629067,202397,202722,203078,0021900639,2,1123,1123,1,0,1610612765
81,1610612765,1628971,1629635,201565,203083,203503,1610612764,101133,1629067,202397,202722,203078,0021900639,2,1132,1132,0,2,1610612764
82,1610612765,1628971,1629635,201565,203083,203503,1610612764,101133,1629067,202397,202722,203078,0021900639,2,1146,1149,0,0,1610612765
83,1610612765,1628971,1629635,201565,203083,203503,1610612764,101133,1629067,202397,202722,203078,0021900639,2,1154,1169,0,1,1610612764
84,1610612765,1628971,1629635,201565,203083,203503,1610612764,101133,1629067,202397,202722,203078,0021900639,2,1184,1184,2,0,1610612765
85,1610612765,1628971,1629635,201565,203083,203503,1610612764,101133,1629067,202722,203078,203895,0021900639,2,1201,1201,0,0,1610612764
86,1610612765,1628971,1629635,201565,203083,203503,1610612764,101133,1629067,202722,203078,203895,0021900639,2,1205,1207,0,0,1610612765
87,1610612765,1628971,1629635,201565,203083,203503,1610612764,101133,1629067,202722,203078,203895,0021900639,2,1219,1219,0,2,1610612764
88,1610612765,1628971,1629635,201565,203083,203503,1610612764,101133,1629067,202722,203078,203895,0021900639,2,1243,1246,0,0,1610612765
89,1610612765,1628971,1629635,201565,203083,203503,1610612764,101133,1629067,202722,203078,203895,0021900639,2,1261,1261,0,2,1610612764
90,1610612765,1628971,1629635,201565,203083,203503,1610612764,101133,1629067,202722,203078,203895,0021900639,2,1269,1276,2,0,1610612765
91,1610612765,1628971,1629635,203083,203503,204038,1610612764,101133,1627780,1629067,203078,203895,0021900639,2,1300,1304,0,0,1610612764
92,1610612765,1628971,1629635,203083,203503,204038,1610612764,101133,1627780,1629067,203078,203895,0021900639,2,1309,1309,0,0,1610612765
93,1610612765,1628971,1629635,203083,203503,204038,1610612764,101133,1627780,1629067,203078,203895,0021900639,2,1319,1319,0,0,1610612764
94,1610612765,1628971,1629635,203083,203503,204038,1610612764,101133,1627780,1629067,203078,203895,0021900639,2,1320,1338,2,0,1610612765
95,1610612765,1628971,1629635,203083,203503,204038,1610612764,1627780,1628418,1629067,203078,203895,0021900639,2,1349,1349,0,3,1610612764
96,1610612765,1628971,1629635,203083,203503,204038,1610612764,1627780,1628418,1629067,203078,203895,0021900639,2,1362,1362,0,0,1610612765
97,1610612765,1626174,1628971,1629635,203503,204038,1610612764,1627780,1628418,1629067,203078,203895,0021900639,2,1373,1373,0,2,1610612764
98,1610612765,1626174,1628971,1629635,203503,204038,1610612764,1627780,1628418,1629067,203078,203895,0021900639,2,1393,1393,0,0,1610612765
99,1610612765,1626174,1628971,1629635,203503,204038,1610612764,1627780,1628418,1629067,203078,203895,0021900639,2,1401,1403,0,0,1610612764
100,1610612765,1626174,1628971,1629635,203503,204038,1610612764,1627780,1628418,1629067,203078,203895,0021900639,2,1406,1406,0,0,1610612765
101,1610612765,1626174,1628971,1629635,203503,204038,1610612764,1627780,1628418,1629067,203078,203895,0021900639,2,1414,1419,0,0,1610612764
102,1610612765,1626174,1628971,1629635,203503,204038,1610612764,1627780,1628418,1629067,203078,203895,0021900639,2,1437,1437,0,0,1610612765
103,1610612765,203503,1629635,203083,1628971,201565,1610612764,203078,1629067,101133,1627780,202738,0021900639,3,1440,1466,0,0,1610612764
104,1610612765,203503,1629635,203083,1628971,201565,1610612764,203078,1629067,101133,1627780,202738,0021900639,3,1477,1477,0,0,1610612765
105,1610612765,203503,1629635,203083,1628971,201565,1610612764,203078,1629067,101133,1627780,202738,0021900639,3,1493,1493,0,2,1610612764
106,1610612765,203503,1629635,203083,1628971,201565,1610612764,203078,1629067,101133,1627780,202738,0021900639,3,1509,1511,0,0,1610612765
107,1610612765,203503,1629635,203083,1628971,201565,1610612764,203078,1629067,101133,1627780,202738,0021900639,3,1516,1518,0,0,1610612764
108,1610612765,203503,1629635,203083,1628971,201565,1610612764,203078,1629067,101133,1627780,202738,0021900639,3,1525,1537,2,0,1610612765
109,1610612765,203503,1629635,203083,1628971,201565,1610612764,1627780,1628418,1629067,202738,203078,0021900639,3,1555,1557,0,0,1610612764
110,1610612765,203503,1629635,203083,1628971,201565,1610612764,1627780,1628418,1629067,202738,203078,0021900639,3,1560,1562,0,0,1610612765
111,1610612765,203503,1629635,203083,1628971,201565,1610612764,1627780,1628418,1629067,202738,203078,0021900639,3,1572,1573,0,2,1610612764
112,1610612765,203503,1629635,203083,1628971,201565,1610612764,1627780,1628418,1629067,202738,203078,0021900639,3,1594,1594,2,0,1610612765
113,1610612765,203503,1629635,203083,1628971,201565,1610612764,1627780,1628418,1629067,202738,203078,0021900639,3,1600,1600,0,0,1610612764
114,1610612765,203503,1629635,203083,1628971,201565,1610612764,1627780,1628418,1629067,202738,203078,0021900639,3,1608,1608,2,0,1610612765
115,1610612765,203503,1629635,203083,1628971,201565,1610612764,1627780,1628418,1629067,202738,203078,0021900639,3,1630,1634,0,0,1610612764
116,1610612765,203503,1629635,203083,1628971,201565,1610612764,1627780,1628418,1629067,202738,203078,0021900639,3,1639,1639,0,0,1610612765
117,1610612765,203503,1629635,203083,1628971,201565,1610612764,1627780,1628418,1629067,202738,203078,0021900639,3,1654,1654,0,2,1610612764
118,1610612765,203503,1629635,203083,1628971,201565,1610612764,1627780,1628418,1629067,202738,203078,0021900639,3,1676,1676,0,0,1610612765
119,1610612765,203503,1629635,203083,1628971,201565,1610612764,1627780,1628418,1629067,202738,203078,0021900639,3,1683,1683,0,2,1610612764
120,1610612765,203503,1629635,203083,1628971,201565,1610612764,1627780,1628418,1629067,202738,203078,0021900639,3,1683,1717,0,0,1610612765
121,1610612765,203503,1629635,203083,1628971,201565,1610612764,1627780,1628418,1629067,202738,203078,0021900639,3,1720,1720,0,2,1610612764
122,1610612765,203503,1629635,203083,1628971,201565,1610612764,1627780,1628418,1629067,202738,203078,0021900639,3,1720,1738,0,0,1610612765
123,1610612765,203503,1629635,203083,1628971,201565,1610612764,1627780,1628418,1629067,202738,203078,0021900639,3,1741,1741,0,2,1610612764
124,1610612765,203503,1629635,203083,1628971,201565,1610612764,1627780,1628418,1629067,202738,203078,0021900639,3,1757,1763,3,0,1610612765
125,1610612765,203503,1629635,203083,1628971,201565,1610612764,1627780,1628418,1629067,202738,203078,0021900639,3,1782,1782,0,0,1610612764
126,1610612765,203503,1629635,203083,1628971,201565,1610612764,1627780,1628418,1629067,202738,203078,0021900639,3,1787,1787,3,0,1610612765
127,1610612765,203503,1629635,203083,1628971,201565,1610612764,1627780,1628418,1629067,202738,203078,0021900639,3,1811,1811,0,2,1610612764
128,1610612765,203503,1629635,203083,1628971,201565,1610612764,1627780,1628418,1629067,202738,203078,0021900639,3,1824,1824,2,0,1610612765
129,1610612765,203503,1629635,203083,1628971,201565,1610612764,1627780,1628418,1629067,202738,203078,0021900639,3,1837,1837,0,2,1610612764
130,1610612765,203503,1629635,203083,1628971,201565,1610612764,1627780,1628418,1629067,202738,203078,0021900639,3,1859,1863,2,0,1610612765
131,1610612765,203503,1629635,203083,1628971,201565,1610612764,1627780,1628418,1629067,202738,203078,0021900639,3,1872,1872,0,0,1610612764
132,1610612765,203503,1629635,203083,1628971,201565,1610612764,1627780,1628418,1629067,202738,203078,0021900639,3,1881,1884,0,0,1610612765
133,1610612765,203503,1629635,203083,1628971,201565,1610612764,1627780,1628418,1629067,202738,203078,0021900639,3,1898,1898,0,2,1610612764
134,1610612765,203503,1629635,203083,1628971,201565,1610612764,1627780,1628418,1629067,202738,203078,0021900639,3,1916,1919,2,0,1610612765
135,1610612765,203503,1629635,203083,1628971,201565,1610612764,1627780,1628418,1629067,202738,203078,0021900639,3,1934,1934,0,0,1610612764
136,1610612765,1628971,202693,203083,203503,204025,1610612764,1627780,1628418,1629067,202738,203078,0021900639,3,1954,1954,2,0,1610612765
137,1610612765,1629004,202693,203083,204025,204038,1610612764,1627780,1628418,1629067,202738,203078,0021900639,3,1971,1971,0,2,1610612764
138,1610612765,1629004,202693,203083,204025,204038,1610612764,1627780,1628418,1629067,202738,203078,0021900639,3,1984,1988,0,0,1610612765
139,1610612765,1629004,202693,203083,204025,204038,1610612764,1627780,1628418,1629067,202738,203078,0021900639,3,1997,2009,0,3,1610612764
140,1610612765,1629004,202693,203083,204025,204038,1610612764,1628418,1628972,202722,202738,203078,0021900639,3,2028,2032,0,0,1610612765
141,1610612765,1629004,202693,203083,204025,204038,1610612764,1628418,1628972,202722,202738,203078,0021900639,3,2037,2050,0,0,1610612764
142,1610612765,1629004,202693,203083,204025,204038,1610612764,1628972,1629140,202722,202738,203895,0021900639,3,2059,2059,2,0,1610612765
143,1610612765,1629004,202693,203083,204025,204038,1610612764,1628972,1629140,202397,202722,203895,0021900639,3,2075,2076,0,0,1610612764
144,1610612765,1629004,202693,203083,204025,204038,1610612764,1628972,1629140,202397,202722,203895,0021900639,3,2076,2095,0,0,1610612765
145,1610612765,1629004,202693,203083,204025,204038,1610612764,1628972,1629140,202397,202722,203895,0021900639,3,2099,2102,0,0,1610612764
146,1610612765,1629004,202693,203083,204025,204038,1610612764,1628972,1629140,202397,202722,203895,0021900639,3,2113,2116,1,0,1610612765
147,1610612765,1629004,202693,203083,204025,204038,1610612764,1628972,1629140,202397,202722,203895,0021900639,3,2132,2137,0,0,1610612764
148,1610612765,1629004,202693,203083,204025,204038,1610612764,1628972,1629140,202397,202722,203895,0021900639,3,2155,2159,0,0,1610612765
149,1610612765,1629004,202693,203083,204025,204038,1610612764,1628972,1629140,202397,202722,203895,0021900639,3,2160,2160,0,0,1610612765
150,1610612765,201565,204038,1629004,202693,1626174,1610612764,202722,203895,202397,1628972,1629140,0021900639,4,2160,2173,2,0,1610612765
151,1610612765,201565,204038,1629004,202693,1626174,1610612764,202722,203895,202397,1628972,1629140,0021900639,4,2189,2189,0,0,1610612764
152,1610612765,201565,204038,1629004,202693,1626174,1610612764,202722,203895,202397,1628972,1629140,0021900639,4,2204,2207,0,0,1610612765
153,1610612765,201565,204038,1629004,202693,1626174,1610612764,202722,203895,202397,1628972,1629140,0021900639,4,2218,2224,0,0,1610612764
154,1610612765,201565,204038,1629004,202693,1626174,1610612764,202722,203895,202397,1628972,1629140,0021900639,4,2226,2226,2,0,1610612765
155,1610612765,201565,204038,1629004,202693,1626174,1610612764,202722,203895,202397,1628972,1629140,0021900639,4,2240,2246,0,3,1610612764
156,1610612765,201565,204038,1629004,202693,1626174,1610612764,101133,1628972,202397,202722,203895,0021900639,4,2256,2269,2,0,1610612765
157,1610612765,201565,204038,1629004,202693,1626174,1610612764,101133,1628972,202397,202722,203895,0021900639,4,2280,2302,0,0,1610612764
158,1610612765,201565,204038,1629004,202693,1626174,1610612764,101133,1628972,202397,202722,203895,0021900639,4,2323,2327,0,0,1610612765
159,1610612765,201565,204038,1629004,202693,1626174,1610612764,101133,1628972,202397,202722,203895,0021900639,4,2338,2338,0,3,1610612764
160,1610612765,201565,204038,1629004,202693,1626174,1610612764,101133,1628972,202397,202722,203895,0021900639,4,2358,2361,0,0,1610612765
161,1610612765,1629004,201565,202693,203083,204038,1610612764,101133,1628972,202397,202722,203895,0021900639,4,2366,2369,0,0,1610612764
162,1610612765,1629004,201565,202693,203083,204038,1610612764,101133,1628972,202397,202722,203895,0021900639,4,2374,2379,0,0,1610612765
163,1610612765,1629004,201565,202693,203083,204038,1610612764,101133,1628972,202397,202722,203895,0021900639,4,2382,2382,0,2,1610612764
164,1610612765,1629004,201565,202693,203083,204038,1610612764,101133,1628972,202397,202722,203895,0021900639,4,2399,2402,0,0,1610612765
165,1610612765,1629004,201565,202693,203083,204038,1610612764,101133,1628972,202397,202722,203895,0021900639,4,2406,2406,0,2,1610612764
166,1610612765,1629004,201565,202693,203083,204038,1610612764,101133,1628972,202397,202722,203895,0021900639,4,2407,2429,0,0,1610612765
167,1610612765,201565,202693,203083,203503,204038,1610612764,101133,1628972,202397,202722,203895,0021900639,4,2440,2444,0,0,1610612764
168,1610612765,201565,202693,203083,203503,204038,1610612764,101133,1628972,202397,202722,203895,0021900639,4,2448,2449,0,0,1610612765
169,1610612765,201565,202693,203083,203503,204038,1610612764,101133,1628972,202397,202722,203895,0021900639,4,2454,2461,0,2,1610612764
170,1610612765,1628971,201565,203083,203503,204038,1610612764,101133,1628972,202397,203078,203895,0021900639,4,2471,2471,2,0,1610612765
171,1610612765,1628971,201565,203083,203503,204038,1610612764,101133,1628972,202397,203078,203895,0021900639,4,2489,2490,0,0,1610612764
172,1610612765,1628971,201565,203083,203503,204038,1610612764,101133,1628972,202397,203078,203895,0021900639,4,2505,2505,0,0,1610612765
173,1610612765,1628971,201565,203083,203503,204038,1610612764,101133,1628972,202397,203078,203895,0021900639,4,2522,2526,0,0,1610612764
174,1610612765,1628971,201565,203083,203503,204038,1610612764,101133,1628972,202397,203078,203895,0021900639,4,2529,2531,0,0,1610612765
175,1610612765,1628971,201565,203083,203503,204038,1610612764,101133,1628972,202397,203078,203895,0021900639,4,2541,2541,0,2,1610612764
176,1610612765,1628971,201565,203083,203503,204038,1610612764,101133,1628972,202397,203078,203895,0021900639,4,2544,2562,1,0,1610612765
177,1610612765,1628971,1629004,201565,203083,203503,1610612764,101133,1628972,1629067,202397,203078,0021900639,4,2584,2587,0,0,1610612764
178,1610612765,1628971,1629004,201565,203083,203503,1610612764,101133,1628972,1629067,202397,203078,0021900639,4,2589,2602,0,0,1610612765
179,1610612765,1628971,1629004,201565,203083,203503,1610612764,101133,1628972,1629067,202397,203078,0021900639,4,2622,2624,0,0,1610612764
180,1610612765,1628971,1629004,201565,203083,203503,1610612764,101133,1628972,1629067,202397,203078,0021900639,4,2632,2646,2,0,1610612765
181,1610612765,1628971,1629004,201565,203083,203503,1610612764,101133,1628972,202397,203078,203895,0021900639,4,2665,2665,0,2,1610612764
182,1610612765,1628971,1629004,201565,203083,203503,1610612764,101133,1628972,202397,203078,203895,0021900639,4,2674,2677,0,0,1610612765
183,1610612765,1628971,1629004,201565,203083,203503,1610612764,101133,1628972,202397,203078,203895,0021900639,4,2678,2678,0,1,1610612764
184,1610612765,1628971,1629004,201565,203083,203503,1610612764,101133,1628972,202397,203078,203895,0021900639,4,2687,2690,0,0,1610612765
185,1610612765,1628971,1629004,201565,203083,203503,1610612764,101133,1628972,202397,203078,203895,0021900639,4,2702,2702,0,2,1610612764
186,1610612765,1628971,1629004,201565,203083,203503,1610612764,101133,1628972,202397,203078,203895,0021900639,4,2705,2712,0,0,1610612765
187,1610612765,1628971,1629004,201565,203083,203503,1610612764,101133,1628972,202397,203078,203895,0021900639,4,2725,2725,0,0,1610612764
188,1610612765,1628971,1629004,201565,203083,203503,1610612764,101133,1628972,202397,203078,203895,0021900639,4,2735,2744,2,0,1610612765
189,1610612765,1628971,1629004,201565,203083,203503,1610612764,1628418,1628972,202397,203078,203895,0021900639,4,2759,2764,0,0,1610612764
190,1610612765,1628971,1629004,201565,203083,203503,1610612764,1628418,1628972,202397,203078,203895,0021900639,4,2768,2772,3,0,1610612765
191,1610612765,1628971,1629004,201565,203083,203503,1610612764,1628418,1628972,202397,203078,203895,0021900639,4,2792,2797,0,0,1610612764
192,1610612765,1628971,1629004,201565,203083,203503,1610612764,1628418,1628972,202397,203078,203895,0021900639,4,2804,2807,0,0,1610612765
193,1610612765,1628971,1629004,201565,203083,203503,1610612764,1628418,1628972,202397,203078,203895,0021900639,4,2825,2825,0,0,1610612764
194,1610612765,1628971,1629004,201565,203083,203503,1610612764,1628418,1628972,202397,203078,203895,0021900639,4,2827,2827,1,0,1610612765
195,1610612765,1628971,1629004,201565,203083,203503,1610612764,1628418,1628972,202397,203078,203895,0021900639,4,2844,2844,0,2,1610612764
196,1610612765,1628971,1629004,201565,203083,203503,1610612764,1628418,1628972,202397,203078,203895,0021900639,4,2845,2851,0,0,1610612765
197,1610612765,1629004,201565,203083,203503,204038,1610612764,1628418,1628972,202397,203078,203895,0021900639,4,2855,2855,0,0,1610612764
198,1610612765,1629004,201565,203083,203503,204038,1610612764,1628418,1628972,202397,203078,203895,0021900639,4,2858,2866,0,0,1610612765
199,1610612765,1629004,201565,203083,203503,204038,1610612764,1628418,1628972,202397,203078,203895,0021900639,4,2866,2866,0,2,1610612764
200,1610612765,1626174,1629004,201565,203503,204038,1610612764,1628418,1628972,202397,203078,203895,0021900639,4,2875,2875,2,0,1610612765
