,t1_points_scored,stint_end,t2_pm,t1_players,t2_id,t1_id,t2_players,t2_points_scored,t1_pm,stint_start,margin_per_100,num_poss
0,16,237,-6,"[2544, 203076, 201580, 201980, 202340]",1610612758,1610612747,"[203084, 202357, 1628385, 203992, 1628368]",10,6,0,37.5,16.0
1,25,325,-15,"[2544, 203076, 201580, 201980, 202340]",1610612758,1610612747,"[203084, 202357, 1628385, 203992, 1628368]",10,15,238,65.21739130434783,23.0
2,25,434,-12,"[2544, 203076, 201580, 201980, 202340]",1610612758,1610612747,"[1627741, 1628368, 202357, 203084, 203992]",13,12,326,42.857142857142854,28.0
3,35,598,-19,"[2544, 203076, 201580, 201980, 202340]",1610612758,1610612747,"[1627741, 1628368, 202357, 203084, 203145]",16,19,435,50.0,38.0
4,44,719,-22,"[1628398, 202340, 203076, 203484, 2544]",1610612758,1610612747,"[1627741, 1628450, 202357, 202709, 203145]",22,22,599,46.808510638297875,47.0
5,45,877,-14,"[1628398, 200765, 202340, 203076, 203484]",1610612758,1610612747,"[1627741, 1628450, 202709, 203084, 203145]",31,14,720,24.561403508771928,57.0
6,50,979,-16,"[1628398, 203484, 200765, 1627936, 2730]",1610612758,1610612747,"[203084, 203992, 202709, 1628450, 1627812]",34,16,878,25.0,64.0
7,56,1031,-18,"[1627936, 200765, 203484, 2544, 2730]",1610612758,1610612747,"[203084, 203992, 202709, 1628450, 1627812]",38,18,980,26.47058823529412,68.0
8,56,1091,-15,"[1627936, 200765, 203484, 2544, 2730]",1610612758,1610612747,"[1628368, 202357, 202709, 203084, 203992]",41,15,1032,21.12676056338028,71.0
9,58,1104,-17,"[1627936, 200765, 201980, 2544, 2730]",1610612758,1610612747,"[1627741, 1628368, 202357, 202709, 203084]",41,17,1092,23.28767123287671,73.0
10,70,1251,-20,"[1627936, 200765, 201980, 203076, 2544]",1610612758,1610612747,"[1627741, 1628368, 202357, 202709, 203084]",50,20,1105,23.25581395348837,86.0
11,73,1351,-15,"[1627936, 200765, 201980, 203076, 2544]",1610612758,1610612747,"[1627741, 1628368, 1628385, 202357, 202709]",58,15,1252,16.129032258064516,93.0
12,78,1410,-18,"[200765, 201980, 203076, 203484, 2544]",1610612758,1610612747,"[1627741, 1628368, 1628385, 202357, 203992]",60,18,1352,18.367346938775512,98.0
13,81,1439,-17,"[200765, 201980, 203076, 203484, 2544]",1610612758,1610612747,"[1627741, 1628368, 1628385, 203084, 203992]",64,17,1411,16.831683168316832,101.0
14,90,1709,-22,"[200765, 201980, 203076, 203484, 2544]",1610612758,1610612747,"[1628368, 1628385, 202709, 203145, 203992]",68,22,1440,18.64406779661017,118.0
15,92,1767,-21,"[2544, 203076, 201580, 201980, 202340]",1610612758,1610612747,"[203084, 202357, 1628385, 203992, 1628368]",71,21,1710,17.21311475409836,122.0
16,94,1911,-20,"[2544, 203076, 201580, 201980, 202340]",1610612758,1610612747,"[1628368, 1628450, 202357, 203084, 203992]",74,20,1768,15.151515151515152,132.0
17,94,1920,-17,"[2544, 203076, 201580, 201980, 202340]",1610612758,1610612747,"[1627741, 1628368, 1628450, 202357, 203992]",77,17,1912,12.781954887218044,133.0
18,104,2106,-16,"[1628398, 202340, 203076, 203484, 2544]",1610612758,1610612747,"[1627741, 1628368, 1628450, 201229, 203992]",88,16,1921,10.884353741496598,147.0
19,104,2154,-15,"[1627936, 1628398, 200765, 203076, 203484]",1610612758,1610612747,"[1627741, 1628368, 1628450, 201229, 202709]",89,15,2107,10.0,150.0
20,112,2317,-19,"[1627936, 1628398, 200765, 203076, 203484]",1610612758,1610612747,"[1627741, 1628368, 201229, 202709, 203084]",93,19,2155,11.875,160.0
21,124,2531,-24,"[2544, 1628398, 203484, 200765, 2730]",1610612758,1610612747,"[1628385, 1627741, 203145, 202709, 201229]",100,24,2318,13.714285714285715,175.0
22,124,2679,-20,"[2544, 1628398, 203484, 200765, 2730]",1610612758,1610612747,"[1627741, 1628368, 202357, 203084, 203992]",104,20,2532,10.81081081081081,185.0
23,131,2875,-20,"[1628398, 200765, 203484, 203584, 2730]",1610612758,1610612747,"[1627741, 1628368, 202357, 203084, 203992]",111,20,2680,10.0,200.0
24,131,9999999,-18,"[1626188, 1627936, 201162, 203584, 2730]",1610612758,1610612747,"[1627812, 1628450, 201229, 202709, 203145]",113,18,2876,8.955223880597014,201.0
