,TEAM_ID_1,TEAM_1_PLAYERS,TEAM_ID_2,TEAM_2_PLAYERS,PERIOD
0,1610612747,[  2544 203076   2730 201980 203484],1610612748,[ 202710  203109  203086 1629130 1629639],1
1,1610612747,[   2544 1628398  200765 1627936  202693],1610612748,[ 202710 1629639    2738  203482 1629134],2
2,1610612747,[  2544 203076   2730 201980 203484],1610612748,[ 202710  203109  203086 1629130 1629639],3
3,1610612747,[   2544 1628398  200765 1627936  202693],1610612748,[ 203109 1629639    2738  203482 1629134],4
