,TEAM_ID_1,TEAM_1_PLAYERS,TEAM_ID_2,TEAM_2_PLAYERS,PERIOD
0,1610612741,[ 201942 1629750  202696 1628366  203897],1610612752,[ 203095  203944 1629011  202692 1630193],1
1,1610612741,[ 201942 1628366 1630245 1627936 1627884],1610612752,[ 203944  202692  201565 1630167 1629656],2
2,1610612741,[ 201942 1629750  202696 1628366  203897],1610612752,[ 203095  203944 1629011  202692 1630193],3
3,1610612741,[ 201942 1629750 1630245 1627936 1627884],1610612752,[1629011  202692 1630193  201565 1630167],4
