,t1_points_scored,stint_end,t2_pm,t1_players,t2_id,t1_id,t2_players,t2_points_scored,t1_pm,stint_start,margin_per_100,num_poss
0,10,399,14,"[203914, 200794, 203999, 203115, 1627750]",1610612754,1610612743,"[203933, 1627734, 1626167, 203087, 1628988]",24,-14,0,-58.333333333333336,24.0
1,13,428,11,"[203914, 200794, 203999, 203115, 1627750]",1610612754,1610612743,"[203933, 1627734, 1626167, 203087, 1628988]",24,-11,400,-44.0,25.0
2,13,439,13,"[1627750, 1629008, 203914, 203924, 203999]",1610612754,1610612743,"[1626167, 1628988, 203087, 203200, 203933]",26,-13,429,-50.0,26.0
3,21,552,8,"[1627750, 1629008, 203486, 203914, 203924]",1610612754,1610612743,"[1626167, 1628988, 203087, 203200, 203933]",29,-8,440,-24.242424242424242,33.0
4,27,691,6,"[1627750, 1629008, 203486, 203914, 203924]",1610612754,1610612743,"[1626167, 203087, 203200, 203933, 204456]",33,-6,553,-14.285714285714285,42.0
5,27,719,8,"[1627750, 1629008, 203115, 203486, 203924]",1610612754,1610612743,"[1627734, 203087, 203200, 203933, 204456]",35,-8,692,-17.77777777777778,45.0
6,34,919,12,"[1628420, 1629008, 203115, 203486, 203924]",1610612754,1610612743,"[1627734, 1629048, 203200, 203926, 204456]",46,-12,720,-20.33898305084746,59.0
7,35,937,11,"[203115, 1629008, 203924, 203486, 1628420]",1610612754,1610612743,"[1627734, 203200, 204456, 203926, 1629048]",46,-11,920,-18.333333333333332,60.0
8,37,968,9,"[1628420, 203115, 203486, 203914, 203924]",1610612754,1610612743,"[1627734, 1629048, 203926, 203933, 204456]",46,-9,938,-14.0625,64.0
9,37,1016,9,"[1627750, 1628420, 203486, 203914, 203924]",1610612754,1610612743,"[1627734, 1629048, 203926, 203933, 204456]",46,-9,969,-13.432835820895523,67.0
10,39,1029,7,"[1627750, 1628420, 203914, 203924, 203999]",1610612754,1610612743,"[1627734, 203087, 203926, 203933, 204456]",46,-7,1017,-10.294117647058822,68.0
11,41,1053,8,"[1627750, 1628420, 203914, 203924, 203999]",1610612754,1610612743,"[1627734, 1628988, 203087, 203926, 203933]",49,-8,1030,-11.428571428571429,70.0
12,48,1166,6,"[1627750, 1628420, 203486, 203914, 203924]",1610612754,1610612743,"[1627734, 1628988, 203087, 203926, 203933]",54,-6,1054,-7.6923076923076925,78.0
13,48,1192,6,"[1627750, 1628420, 200794, 203486, 203914]",1610612754,1610612743,"[1626167, 1627734, 1628988, 203087, 203933]",54,-6,1167,-7.5,80.0
14,52,1286,6,"[1627750, 200794, 203115, 203486, 203914]",1610612754,1610612743,"[1626167, 1627734, 1628988, 203087, 203933]",58,-6,1193,-6.896551724137931,87.0
15,60,1436,4,"[1627750, 200794, 203115, 203486, 203914]",1610612754,1610612743,"[1626167, 1628988, 203087, 203200, 203933]",64,-4,1287,-4.2105263157894735,95.0
16,62,1438,2,"[1627750, 200794, 203115, 203486, 203914]",1610612754,1610612743,"[1626167, 203087, 203200, 203933, 204456]",64,-2,1437,-2.0618556701030926,97.0
17,62,1480,4,"[1627750, 1628420, 200794, 203486, 203914]",1610612754,1610612743,"[1626167, 203087, 203200, 203933, 204456]",66,-4,1439,-4.040404040404041,99.0
18,75,1773,4,"[203914, 200794, 203999, 203115, 1627750]",1610612754,1610612743,"[203933, 1627734, 1626167, 203087, 1628988]",79,-4,1481,-3.418803418803419,117.0
19,79,1934,2,"[203914, 200794, 203999, 203115, 1627750]",1610612754,1610612743,"[1626167, 1627734, 203087, 203933, 204456]",81,-2,1774,-1.5625,128.0
20,83,2031,1,"[1627750, 1629008, 200794, 203914, 203999]",1610612754,1610612743,"[1626167, 1627734, 203087, 203933, 204456]",84,-1,1935,-0.7518796992481203,133.0
21,87,2109,0,"[1627750, 1629008, 203486, 203914, 203924]",1610612754,1610612743,"[1626167, 1627734, 203200, 203926, 204456]",87,0,2032,0.0,137.0
22,90,2159,-2,"[1628420, 1629008, 203486, 203914, 203924]",1610612754,1610612743,"[1627734, 1629048, 203200, 203926, 204456]",88,2,2110,1.4184397163120568,141.0
23,100,2328,-9,"[1628420, 1629008, 203115, 203486, 203924]",1610612754,1610612743,"[1627734, 1629048, 203200, 203926, 204456]",91,9,2160,5.844155844155844,154.0
24,103,2410,-7,"[203115, 1629008, 203924, 203486, 1628420]",1610612754,1610612743,"[1627734, 203200, 204456, 203926, 1629048]",96,7,2329,4.430379746835443,158.0
25,109,2512,-5,"[203115, 1629008, 203924, 203486, 1628420]",1610612754,1610612743,"[1626167, 1628988, 203087, 203200, 203933]",104,5,2411,3.048780487804878,164.0
26,113,2619,-6,"[1627750, 1629008, 203914, 203924, 203999]",1610612754,1610612743,"[1626167, 1628988, 203087, 203200, 203933]",107,6,2513,3.571428571428571,168.0
27,124,2870,-8,"[1627750, 1629008, 200794, 203914, 203999]",1610612754,1610612743,"[1626167, 1627734, 1628988, 203087, 203933]",116,8,2620,4.3478260869565215,184.0
28,124,9999999,-8,"[1627750, 200794, 203115, 203914, 203999]",1610612754,1610612743,"[1626167, 1627734, 1628988, 203087, 203933]",116,8,2871,4.324324324324325,185.0
