,TEAM_ID_1,TEAM_1_PLAYERS,TEAM_ID_2,TEAM_2_PLAYERS,PERIOD
0,1610612745,[1627863 1630256  202326  201569  202322],1610612741,[1628374  203490 1628976  203897 1629632],1
1,1610612745,[1627863  202326  201569  202322  203463],1610612741,[ 203490 1628976 1628990  203107 1630172],2
2,1610612745,[1627863 1630256  202326  201569  202322],1610612741,[1628374  203897 1629632 1629655 1630172],3
3,1610612745,[1628021 1629598  203998  101123 1626170],1610612741,[1628990  203107 1630172 1627853  203943],4
