,team1_id,team1_player1,team1_player2,team1_player3,team1_player4,team1_player5,team2_id,team2_player1,team2_player2,team2_player3,team2_player4,team2_player5,game_id,period,possession_start,possession_end,team1_points,team2_points,possession_team
0,1610612744,1627780,203952,1626172,202691,201939,1610612742,203493,1627827,203939,1628973,1629029,0022100943,1,0,18,0,0,1610612744
1,1610612744,1627780,203952,1626172,202691,201939,1610612742,203493,1627827,203939,1628973,1629029,0022100943,1,23,23,0,2,1610612742
2,1610612744,1627780,203952,1626172,202691,201939,1610612742,203493,1627827,203939,1628973,1629029,0022100943,1,39,42,2,0,1610612744
3,1610612744,1627780,203952,1626172,202691,201939,1610612742,203493,1627827,203939,1628973,1629029,0022100943,1,58,58,0,2,1610612742
4,1610612744,1627780,203952,1626172,202691,201939,1610612742,203493,1627827,203939,1628973,1629029,0022100943,1,69,69,0,0,1610612744
5,1610612744,1627780,203952,1626172,202691,201939,1610612742,203493,1627827,203939,1628973,1629029,0022100943,1,82,82,0,3,1610612742
6,1610612744,1627780,203952,1626172,202691,201939,1610612742,203493,1627827,203939,1628973,1629029,0022100943,1,95,104,0,0,1610612744
7,1610612744,1627780,203952,1626172,202691,201939,1610612742,203493,1627827,203939,1628973,1629029,0022100943,1,116,119,0,0,1610612742
8,1610612744,1627780,203952,1626172,202691,201939,1610612742,203493,1627827,203939,1628973,1629029,0022100943,1,119,143,0,0,1610612744
9,1610612744,1627780,203952,1626172,202691,201939,1610612742,203493,1627827,203939,1628973,1629029,0022100943,1,146,146,0,0,1610612742
10,1610612744,1627780,203952,1626172,202691,201939,1610612742,203493,1627827,203939,1628973,1629029,0022100943,1,156,156,3,0,1610612744
11,1610612744,1627780,203952,1626172,202691,201939,1610612742,203493,1627827,203939,1628973,1629029,0022100943,1,170,173,0,0,1610612742
12,1610612744,1627780,203952,1626172,202691,201939,1610612742,203493,1627827,203939,1628973,1629029,0022100943,1,176,180,0,0,1610612744
13,1610612744,1627780,203952,1626172,202691,201939,1610612742,203493,1627827,203939,1628973,1629029,0022100943,1,184,184,0,3,1610612742
14,1610612744,1627780,203952,1626172,202691,201939,1610612742,203493,1627827,203939,1628973,1629029,0022100943,1,198,198,2,0,1610612744
15,1610612744,1627780,203952,1626172,202691,201939,1610612742,203493,1627827,203939,1628973,1629029,0022100943,1,214,214,0,2,1610612742
16,1610612744,1627780,203952,1626172,202691,201939,1610612742,203493,1627827,203939,1628973,1629029,0022100943,1,226,229,0,0,1610612744
17,1610612744,1627780,203952,1626172,202691,201939,1610612742,203493,1627827,203939,1628973,1629029,0022100943,1,235,242,0,2,1610612742
18,1610612744,1627780,203952,1626172,202691,201939,1610612742,203493,1627827,203939,1628973,1629029,0022100943,1,242,252,2,0,1610612744
19,1610612744,1627780,203952,1626172,202691,201939,1610612742,203493,1627827,203939,1628973,1629029,0022100943,1,274,274,0,3,1610612742
20,1610612744,1627780,203952,1626172,202691,201939,1610612742,203493,1627827,203939,1628973,1629029,0022100943,1,283,294,2,0,1610612744
21,1610612744,1627780,203952,1626172,202691,201939,1610612742,203493,1627827,203939,1628973,1629029,0022100943,1,314,314,0,2,1610612742
22,1610612744,1627780,203952,1626172,202691,201939,1610612742,203493,1627827,203939,1628973,1629029,0022100943,1,322,322,2,0,1610612744
23,1610612744,1627780,203952,1626172,202691,201939,1610612742,1628973,1629029,1630182,203493,203939,0022100943,1,345,349,0,0,1610612742
24,1610612744,1627780,203952,1626172,202691,201939,1610612742,1628973,1629029,1630182,203493,203939,0022100943,1,353,353,2,0,1610612744
25,1610612744,1627780,203952,1626172,202691,201939,1610612742,1628973,1629029,1630182,203493,203939,0022100943,1,371,380,0,0,1610612742
26,1610612744,1626172,1629673,201939,203490,203952,1610612742,1629029,1630182,203493,203915,203939,0022100943,1,387,389,0,0,1610612744
27,1610612744,1626172,1629673,201939,203490,203952,1610612742,1629029,1630182,203493,203915,203939,0022100943,1,400,400,0,3,1610612742
28,1610612744,1626172,1629673,201939,203490,203952,1610612742,1629029,1630182,203493,203915,203939,0022100943,1,426,430,0,0,1610612744
29,1610612744,1626172,1629673,201939,203490,203952,1610612742,1629029,1630182,203493,203915,203939,0022100943,1,441,443,0,0,1610612742
30,1610612744,1626172,1629673,201939,203490,203952,1610612742,1629029,1630182,203493,203915,203939,0022100943,1,449,453,0,0,1610612744
31,1610612744,1626172,1629673,201939,203490,203952,1610612742,1629029,1630182,203493,203915,203939,0022100943,1,465,470,0,0,1610612742
32,1610612744,1629673,201939,202357,203490,203952,1610612742,1629029,1630182,202722,203493,203915,0022100943,1,478,478,1,0,1610612744
33,1610612744,1629673,202357,202691,203490,203952,1610612742,1629029,1630182,202722,203493,203915,0022100943,1,490,499,0,2,1610612742
34,1610612744,1629673,202357,202691,203490,203952,1610612742,1628425,1629029,1630182,202722,203915,0022100943,1,506,506,2,0,1610612744
35,1610612744,1629673,202357,202691,203490,203952,1610612742,1628425,1629029,1630182,202722,203915,0022100943,1,520,520,0,2,1610612742
36,1610612744,1629673,202357,202691,203490,203952,1610612742,1628425,1629029,1630182,202722,203915,0022100943,1,532,533,0,0,1610612744
37,1610612744,1629673,202357,202691,203490,203952,1610612742,1628425,1629029,1630182,202722,203915,0022100943,1,539,539,0,2,1610612742
38,1610612744,1629673,202357,202691,203490,203952,1610612742,1628425,1629029,1630182,202722,203915,0022100943,1,556,560,1,0,1610612744
39,1610612744,1629673,202357,202691,203490,203952,1610612742,1628425,1629029,1630182,202722,203915,0022100943,1,580,580,0,2,1610612742
40,1610612744,1629673,202357,202691,203490,203952,1610612742,1628425,1629029,1630182,202722,203915,0022100943,1,596,596,3,0,1610612744
41,1610612744,1629673,202357,202691,203490,203952,1610612742,1628425,1629029,1630182,202722,203915,0022100943,1,622,622,0,0,1610612742
42,1610612744,1629673,202357,202691,203490,203952,1610612742,1628425,1629029,1630182,202722,203915,0022100943,1,630,630,3,0,1610612744
43,1610612744,1629673,202357,202691,203490,203952,1610612742,1628425,1629029,1630182,202722,203915,0022100943,1,654,654,0,3,1610612742
44,1610612744,1629673,202357,202691,203490,203952,1610612742,1628425,1629029,1630182,202722,203915,0022100943,1,670,673,2,0,1610612744
45,1610612744,1629673,202357,202691,203490,203952,1610612742,1628425,1629029,1630182,202722,203915,0022100943,1,688,688,0,3,1610612742
46,1610612744,1629673,202357,202691,203490,203952,1610612742,1628425,1629029,1630182,202722,203915,0022100943,1,706,709,0,0,1610612744
47,1610612744,1629673,202357,202691,203490,203952,1610612742,1628425,1629029,1630182,202722,203915,0022100943,1,718,720,0,2,1610612742
48,1610612744,1629673,202357,202691,203490,203952,1610612742,1628425,1629029,1630182,202722,203915,0022100943,1,720,720,0,0,0
49,1610612744,201939,1629673,203490,202357,1630228,1610612742,203493,1627827,203939,1628973,203915,0022100943,2,720,732,0,3,1610612742
50,1610612744,201939,1629673,203490,202357,1630228,1610612742,203493,1627827,203939,1628973,203915,0022100943,2,752,761,3,0,1610612744
51,1610612744,201939,1629673,203490,202357,1630228,1610612742,203493,1627827,203939,1628973,203915,0022100943,2,772,772,0,0,1610612742
52,1610612744,201939,1629673,203490,202357,1630228,1610612742,203493,1627827,203939,1628973,203915,0022100943,2,773,786,3,0,1610612744
53,1610612744,201939,1629673,203490,202357,1630228,1610612742,203493,1627827,203939,1628973,203915,0022100943,2,801,801,0,2,1610612742
54,1610612744,201939,1629673,203490,202357,1630228,1610612742,203493,1627827,203939,1628973,203915,0022100943,2,813,818,0,0,1610612744
55,1610612744,201939,1629673,203490,202357,1630228,1610612742,203493,1627827,203939,1628973,203915,0022100943,2,837,841,0,0,1610612742
56,1610612744,201939,1629673,203490,202357,1630228,1610612742,203493,1627827,203939,1628973,203915,0022100943,2,848,848,0,0,1610612744
57,1610612744,1629673,1630228,1630541,201939,202357,1610612742,203493,1627827,203939,1628973,203915,0022100943,2,859,859,0,3,1610612742
58,1610612744,1629673,1630228,1630541,201939,202357,1610612742,203493,1627827,203939,1628973,203915,0022100943,2,886,886,0,0,1610612744
59,1610612744,1629673,1630228,1630541,201939,202357,1610612742,203493,1627827,203939,1628973,203915,0022100943,2,907,908,0,2,1610612742
60,1610612744,1629673,1630228,1630541,201939,202357,1610612742,203493,1627827,203939,1628973,203915,0022100943,2,908,924,3,0,1610612744
61,1610612744,1627780,1629673,1630228,1630541,201939,1610612742,203493,1627827,203939,1628973,203915,0022100943,2,941,941,0,3,1610612742
62,1610612744,1627780,1629673,1630228,1630541,201939,1610612742,203493,1627827,203939,1628973,203915,0022100943,2,957,957,2,0,1610612744
63,1610612744,1627780,1629673,1630228,1630541,201939,1610612742,203493,1627827,203939,1628973,203915,0022100943,2,966,966,0,3,1610612742
64,1610612744,1627780,1629673,1630228,1630541,201939,1610612742,203493,1627827,203939,1628973,203915,0022100943,2,981,983,0,0,1610612744
65,1610612744,1627780,1629673,1630228,1630541,201939,1610612742,203493,1627827,203939,1628973,203915,0022100943,2,991,1008,0,0,1610612742
66,1610612744,1627780,1629673,1630228,1630541,201939,1610612742,203493,1627827,203939,1628973,203915,0022100943,2,1012,1012,2,0,1610612744
67,1610612744,1627780,1629673,1630228,1630541,201939,1610612742,203493,1627827,203939,1628973,203915,0022100943,2,1014,1035,0,0,1610612742
68,1610612744,1627780,1630228,1630541,201939,203952,1610612742,1627827,1628973,1629029,203493,203939,0022100943,2,1048,1048,2,0,1610612744
69,1610612744,1627780,1630228,1630541,201939,203952,1610612742,1627827,1628973,1629029,203493,203939,0022100943,2,1062,1062,0,0,1610612742
70,1610612744,1627780,1630228,1630541,201939,203952,1610612742,1627827,1628973,1629029,203493,203939,0022100943,2,1069,1090,0,0,1610612744
71,1610612744,1627780,1630228,1630541,201939,203952,1610612742,1627827,1628973,1629029,203493,203939,0022100943,2,1094,1097,0,2,1610612742
72,1610612744,1626172,1627780,1629673,1630541,203952,1610612742,1627827,1628973,1629029,1630182,203939,0022100943,2,1103,1109,2,0,1610612744
73,1610612744,1626172,1627780,1629673,1630541,203952,1610612742,1627827,1628973,1629029,1630182,203939,0022100943,2,1131,1131,0,1,1610612742
74,1610612744,1626172,1627780,1629673,1630541,203952,1610612742,1627827,1629029,1630182,203915,203939,0022100943,2,1148,1148,2,0,1610612744
75,1610612744,1626172,1627780,1629673,1630541,203952,1610612742,1627827,1629029,1630182,203915,203939,0022100943,2,1168,1168,0,3,1610612742
76,1610612744,1626172,1627780,1629673,1630541,203952,1610612742,1627827,1629029,1630182,203915,203939,0022100943,2,1187,1196,2,0,1610612744
77,1610612744,1626172,1627780,1629673,201939,203952,1610612742,1629029,1630182,202722,203493,203915,0022100943,2,1221,1223,0,0,1610612742
78,1610612744,1626172,1627780,1629673,201939,203952,1610612742,1629029,1630182,202722,203493,203915,0022100943,2,1237,1237,0,0,1610612744
79,1610612744,1626172,1627780,1629673,201939,203952,1610612742,1629029,1630182,202722,203493,203915,0022100943,2,1256,1266,0,2,1610612742
80,1610612744,1626172,1627780,1629673,201939,203952,1610612742,1627827,1629029,202722,203493,203915,0022100943,2,1276,1276,2,0,1610612744
81,1610612744,1626172,1629673,201939,202691,203952,1610612742,1627827,1629029,202722,203493,203915,0022100943,2,1288,1291,0,0,1610612742
82,1610612744,1626172,1629673,201939,202691,203952,1610612742,1627827,1629029,202722,203493,203915,0022100943,2,1309,1316,2,0,1610612744
83,1610612744,1626172,1629673,201939,202691,203952,1610612742,1627827,1629029,202722,203493,203915,0022100943,2,1333,1336,0,0,1610612742
84,1610612744,1626172,1629673,201939,202691,203952,1610612742,1627827,1629029,202722,203493,203915,0022100943,2,1342,1346,0,0,1610612744
85,1610612744,1626172,1629673,201939,202691,203952,1610612742,1627827,1628973,1629029,203493,203915,0022100943,2,1358,1358,0,3,1610612742
86,1610612744,1626172,1629673,201939,202691,203952,1610612742,1627827,1628973,1629029,203493,203915,0022100943,2,1382,1384,0,0,1610612744
87,1610612744,1626172,1629673,201939,202691,203952,1610612742,1627827,1628973,1629029,203493,203915,0022100943,2,1392,1392,0,3,1610612742
88,1610612744,1626172,1629673,201939,202691,203952,1610612742,1627827,1628973,1629029,203493,203915,0022100943,2,1405,1408,0,0,1610612744
89,1610612744,1626172,1629673,201939,202691,203952,1610612742,1627827,1628973,1629029,203493,203915,0022100943,2,1421,1424,0,0,1610612742
90,1610612744,1626172,1629673,201939,202691,203952,1610612742,1627827,1628973,1629029,203493,203915,0022100943,2,1439,1439,2,0,1610612744
91,1610612744,1627780,203952,1626172,202691,201939,1610612742,203493,1627827,203939,1628973,1629029,0022100943,3,1440,1460,0,3,1610612742
92,1610612744,1627780,203952,1626172,202691,201939,1610612742,203493,1627827,203939,1628973,1629029,0022100943,3,1474,1477,0,0,1610612744
93,1610612744,1627780,203952,1626172,202691,201939,1610612742,203493,1627827,203939,1628973,1629029,0022100943,3,1480,1485,0,0,1610612742
94,1610612744,1627780,203952,1626172,202691,201939,1610612742,203493,1627827,203939,1628973,1629029,0022100943,3,1493,1493,2,0,1610612744
95,1610612744,1627780,203952,1626172,202691,201939,1610612742,203493,1627827,203939,1628973,1629029,0022100943,3,1508,1508,0,0,1610612742
96,1610612744,1627780,203952,1626172,202691,201939,1610612742,203493,1627827,203939,1628973,1629029,0022100943,3,1516,1516,3,0,1610612744
97,1610612744,1627780,203952,1626172,202691,201939,1610612742,203493,1627827,203939,1628973,1629029,0022100943,3,1543,1561,0,2,1610612742
98,1610612744,1627780,203952,1626172,202691,201939,1610612742,203493,1627827,203939,1628973,1629029,0022100943,3,1576,1576,0,0,1610612744
99,1610612744,1627780,203952,1626172,202691,201939,1610612742,203493,1627827,203939,1628973,1629029,0022100943,3,1584,1584,0,0,1610612742
100,1610612744,1627780,203952,1626172,202691,201939,1610612742,203493,1627827,203939,1628973,1629029,0022100943,3,1590,1590,2,0,1610612744
101,1610612744,1627780,203952,1626172,202691,201939,1610612742,203493,1627827,203939,1628973,1629029,0022100943,3,1610,1613,0,0,1610612742
102,1610612744,1627780,203952,1626172,202691,201939,1610612742,203493,1627827,203939,1628973,1629029,0022100943,3,1619,1619,2,0,1610612744
103,1610612744,1627780,203952,1626172,202691,201939,1610612742,203493,1627827,203939,1628973,1629029,0022100943,3,1620,1647,0,0,1610612742
104,1610612744,1627780,203952,1626172,202691,201939,1610612742,203493,1627827,203939,1628973,1629029,0022100943,3,1653,1653,3,0,1610612744
105,1610612744,1627780,203952,1626172,202691,201939,1610612742,203493,1627827,203939,1628973,1629029,0022100943,3,1674,1674,0,2,1610612742
106,1610612744,1627780,203952,1626172,202691,201939,1610612742,203493,1627827,203939,1628973,1629029,0022100943,3,1681,1690,2,0,1610612744
107,1610612744,1627780,203952,1626172,202691,201939,1610612742,1627827,1628973,1629029,202722,203493,0022100943,3,1707,1711,0,0,1610612742
108,1610612744,1627780,203952,1626172,202691,201939,1610612742,1627827,1628973,1629029,202722,203493,0022100943,3,1717,1717,0,0,1610612744
109,1610612744,1627780,203952,1626172,202691,201939,1610612742,1627827,1628973,1629029,202722,203493,0022100943,3,1720,1720,0,2,1610612742
110,1610612744,1627780,203952,1626172,202691,201939,1610612742,1627827,1628973,1629029,202722,203493,0022100943,3,1735,1737,0,0,1610612744
111,1610612744,1627780,203952,1626172,202691,201939,1610612742,1627827,1628973,1629029,202722,203493,0022100943,3,1753,1753,0,0,1610612742
112,1610612744,1627780,203952,1626172,202691,201939,1610612742,1627827,1628973,1629029,202722,203493,0022100943,3,1754,1771,2,0,1610612744
113,1610612744,1627780,203952,1626172,202691,201939,1610612742,1627827,1628973,1629029,203493,203939,0022100943,3,1780,1780,0,3,1610612742
114,1610612744,1627780,203952,1626172,202691,201939,1610612742,1627827,1628973,1629029,203493,203939,0022100943,3,1793,1793,2,0,1610612744
115,1610612744,1627780,203952,1626172,202691,201939,1610612742,1627827,1628973,1629029,203493,203939,0022100943,3,1811,1811,0,3,1610612742
116,1610612744,1626172,1627780,1629673,201939,203952,1610612742,1627827,1628973,1629029,203493,203939,0022100943,3,1820,1820,3,0,1610612744
117,1610612744,1626172,1627780,1629673,201939,203952,1610612742,1627827,1628973,1629029,203493,203939,0022100943,3,1842,1842,0,2,1610612742
118,1610612744,1626172,1627780,1629673,201939,203952,1610612742,1627827,1628973,1629029,203493,203939,0022100943,3,1857,1857,3,0,1610612744
119,1610612744,1626172,1627780,1629673,201939,203952,1610612742,1627827,1628973,1629029,203493,203939,0022100943,3,1877,1877,0,3,1610612742
120,1610612744,1626172,1627780,1629673,201939,203952,1610612742,1627827,1628973,1629029,203493,203939,0022100943,3,1879,1898,0,0,1610612744
121,1610612744,1627780,1629673,1630228,201939,203952,1610612742,1627827,1628973,1629029,203493,203939,0022100943,3,1922,1925,0,2,1610612742
122,1610612744,1627780,1629673,1630228,201939,203952,1610612742,1627827,1628973,1629029,203493,203939,0022100943,3,1930,1937,2,0,1610612744
123,1610612744,1629673,1630228,201939,203490,203952,1610612742,1627827,1629029,1630182,203493,203915,0022100943,3,1958,1962,0,0,1610612742
124,1610612744,1629673,1630228,201939,203490,203952,1610612742,1627827,1629029,1630182,203493,203915,0022100943,3,1965,1965,0,0,1610612744
125,1610612744,1629673,1630228,201939,203490,203952,1610612742,1627827,1629029,1630182,203493,203915,0022100943,3,1967,1967,0,2,1610612742
126,1610612744,1629673,1630228,201939,203490,203952,1610612742,1627827,1629029,1630182,203493,203915,0022100943,3,1977,1977,3,0,1610612744
127,1610612744,1629673,1630228,201939,202691,203490,1610612742,1627827,1629029,1630182,203493,203915,0022100943,3,1992,1994,0,0,1610612742
128,1610612744,1629673,1630228,201939,202691,203490,1610612742,1627827,1629029,1630182,203493,203915,0022100943,3,1998,1998,2,0,1610612744
129,1610612744,1629673,1630228,201939,202691,203490,1610612742,1627827,1629029,1630182,203493,203915,0022100943,3,2012,2012,0,2,1610612742
130,1610612744,1629673,1630228,201939,202691,203490,1610612742,1627827,1629029,1630182,203493,203915,0022100943,3,2024,2026,0,0,1610612744
131,1610612744,1629673,1630228,201939,202691,203490,1610612742,1627827,1629029,1630182,203493,203915,0022100943,3,2031,2031,0,3,1610612742
132,1610612744,1629673,1630228,201939,202691,203490,1610612742,1627827,1629029,1630182,203493,203915,0022100943,3,2043,2051,3,0,1610612744
133,1610612744,1629673,1630228,202691,203490,203952,1610612742,1627827,1629029,1630182,203493,203915,0022100943,3,2071,2075,0,0,1610612742
134,1610612744,1629673,1630228,202691,203490,203952,1610612742,1627827,1629029,1630182,203493,203915,0022100943,3,2086,2086,2,0,1610612744
135,1610612744,1629673,1630228,202691,203490,203952,1610612742,1627827,1629029,1630182,203493,203915,0022100943,3,2103,2103,0,2,1610612742
136,1610612744,1629673,1630228,202691,203490,203952,1610612742,1627827,1629029,1630182,203493,203915,0022100943,3,2118,2118,0,0,1610612744
137,1610612744,1629673,1630228,202691,203490,203952,1610612742,1627827,1629029,1630182,203493,203915,0022100943,3,2121,2121,0,0,1610612742
138,1610612744,1629673,1630228,202691,203490,203952,1610612742,1627827,1629029,1630182,203493,203915,0022100943,3,2121,2123,1,0,1610612744
139,1610612744,1629673,1630228,202691,203490,203952,1610612742,1627827,1628973,1629029,202722,203915,0022100943,3,2129,2129,0,0,1610612742
140,1610612744,1627780,1629308,1630228,202691,203952,1610612742,1627827,1628973,1629029,202722,203915,0022100943,3,2150,2150,0,0,1610612744
141,1610612744,1627780,1629308,1630228,202691,203952,1610612742,1627827,1628973,1629029,202722,203915,0022100943,3,2153,2159,0,0,1610612744
142,1610612744,202691,201939,1629673,203490,1630228,1610612742,203493,1628973,1630182,203915,202722,0022100943,4,2160,2183,0,0,1610612744
143,1610612744,202691,201939,1629673,203490,1630228,1610612742,203493,1628973,1630182,203915,202722,0022100943,4,2191,2195,0,0,1610612742
144,1610612744,202691,201939,1629673,203490,1630228,1610612742,203493,1628973,1630182,203915,202722,0022100943,4,2200,2205,0,0,1610612744
145,1610612744,202691,201939,1629673,203490,1630228,1610612742,203493,1628973,1630182,203915,202722,0022100943,4,2205,2225,0,0,1610612742
146,1610612744,202691,201939,1629673,203490,1630228,1610612742,203493,1628973,1630182,203915,202722,0022100943,4,2232,2232,0,0,1610612744
147,1610612744,202691,201939,1629673,203490,1630228,1610612742,203493,1628973,1630182,203915,202722,0022100943,4,2244,2255,0,0,1610612742
148,1610612744,202691,201939,1629673,203490,1630228,1610612742,203493,1628973,1630182,203915,202722,0022100943,4,2263,2263,2,0,1610612744
149,1610612744,202691,201939,1629673,203490,1630228,1610612742,203493,1628973,1630182,203915,202722,0022100943,4,2278,2306,0,0,1610612742
150,1610612744,1629673,1630228,1630541,201939,203490,1610612742,1628973,1630182,203493,203915,203939,0022100943,4,2314,2314,0,0,1610612744
151,1610612744,1629673,1630228,1630541,201939,203490,1610612742,1628973,1629029,1630182,203493,203939,0022100943,4,2330,2330,0,3,1610612742
152,1610612744,1629673,1630228,1630541,201939,203490,1610612742,1628973,1629029,1630182,203493,203939,0022100943,4,2351,2351,3,0,1610612744
153,1610612744,1629673,1630228,1630541,201939,203490,1610612742,1628973,1629029,1630182,203493,203939,0022100943,4,2369,2371,0,0,1610612742
154,1610612744,1629673,1630228,1630541,201939,203490,1610612742,1628973,1629029,1630182,203493,203939,0022100943,4,2383,2387,0,0,1610612744
155,1610612744,1629673,1630228,1630541,201939,203490,1610612742,1628973,1629029,1630182,203493,203939,0022100943,4,2401,2401,0,2,1610612742
156,1610612744,1629673,1630228,1630541,201939,203490,1610612742,1628973,1629029,1630182,203493,203939,0022100943,4,2423,2423,2,0,1610612744
157,1610612744,1629673,1630228,1630541,201939,203490,1610612742,1628973,1629029,1630182,203493,203939,0022100943,4,2445,2450,0,0,1610612742
158,1610612744,1630228,1630541,201939,203490,203952,1610612742,1627827,1628973,1629029,203493,203939,0022100943,4,2463,2463,3,0,1610612744
159,1610612744,1630228,1630541,201939,203490,203952,1610612742,1627827,1628973,1629029,203493,203939,0022100943,4,2485,2485,0,0,1610612742
160,1610612744,1630228,1630541,201939,203490,203952,1610612742,1627827,1628973,1629029,203493,203939,0022100943,4,2492,2492,3,0,1610612744
161,1610612744,1630228,1630541,201939,203490,203952,1610612742,1627827,1628973,1629029,203493,203939,0022100943,4,2494,2514,0,2,1610612742
162,1610612744,1630228,1630541,201939,203490,203952,1610612742,1627827,1629029,203493,203915,203939,0022100943,4,2532,2534,0,0,1610612744
163,1610612744,1626172,1630541,201939,203490,203952,1610612742,1627827,1629029,203493,203915,203939,0022100943,4,2556,2556,0,2,1610612742
164,1610612744,1626172,1630541,201939,203490,203952,1610612742,1627827,1629029,203493,203915,203939,0022100943,4,2578,2578,2,0,1610612744
165,1610612744,1626172,1630541,201939,203490,203952,1610612742,1627827,1629029,203493,203915,203939,0022100943,4,2595,2595,0,2,1610612742
166,1610612744,1626172,1630541,201939,203490,203952,1610612742,1627827,1629029,203493,203915,203939,0022100943,4,2611,2611,2,0,1610612744
167,1610612744,1626172,1630541,201939,203490,203952,1610612742,1627827,1629029,203493,203915,203939,0022100943,4,2633,2633,0,2,1610612742
168,1610612744,1626172,1630541,201939,203490,203952,1610612742,1627827,1629029,203493,203915,203939,0022100943,4,2650,2650,0,0,1610612744
169,1610612744,1626172,1630541,201939,202691,203952,1610612742,1627827,1629029,203493,203915,203939,0022100943,4,2666,2666,0,3,1610612742
170,1610612744,1626172,1630541,201939,202691,203952,1610612742,1627827,1629029,203493,203915,203939,0022100943,4,2688,2688,0,0,1610612744
171,1610612744,1626172,1630541,201939,202691,203952,1610612742,1627827,1629029,203493,203915,203939,0022100943,4,2702,2720,0,0,1610612742
172,1610612744,1626172,1630541,201939,202691,203952,1610612742,1627827,1629029,203493,203915,203939,0022100943,4,2729,2729,3,0,1610612744
173,1610612744,1626172,1630541,201939,202691,203952,1610612742,1627827,1629029,203493,203915,203939,0022100943,4,2744,2744,0,3,1610612742
174,1610612744,1626172,1630541,201939,202691,203952,1610612742,1627827,1629029,203493,203915,203939,0022100943,4,2761,2761,2,0,1610612744
175,1610612744,1626172,1630541,201939,202691,203952,1610612742,1627827,1629029,203493,203915,203939,0022100943,4,2778,2783,0,0,1610612742
176,1610612744,1626172,1630541,201939,202691,203952,1610612742,1627827,1629029,203493,203915,203939,0022100943,4,2801,2801,0,0,1610612744
177,1610612744,1626172,1630541,201939,202691,203952,1610612742,1627827,1629029,203493,203915,203939,0022100943,4,2801,2824,0,2,1610612742
178,1610612744,1630541,201939,202691,203490,203952,1610612742,1627827,1629029,203493,203915,203939,0022100943,4,2834,2837,0,0,1610612744
179,1610612744,1630541,201939,202691,203490,203952,1610612742,1627827,1629029,203493,203915,203939,0022100943,4,2856,2856,0,2,1610612742
180,1610612744,1630541,201939,202691,203490,203952,1610612742,1627827,1629029,203493,203915,203939,0022100943,4,2856,2861,0,0,1610612744
