,TEAM_ID_1,TEAM_1_PLAYERS,TEAM_ID_2,TEAM_2_PLAYERS,PERIOD
0,1610612747,[  2544 203076 201188 203484 203471],1610612745,[1628021  200782 1626174  202322  201935],1
1,1610612747,[   2544  203484 1628398 1626149 1629659],1610612745,[ 202322  202326  201569 1630256  203463],2
2,1610612747,[  2544 203076 201188 203484 203471],1610612745,[1628021  200782 1626174  202322  201935],3
3,1610612747,[ 203076  203471 1627936 1628398 1626149],1610612745,[1626174  202322  201569 1630256  203463],4
