,TEAM_ID_1,TEAM_1_PLAYERS,TEAM_ID_2,TEAM_2_PLAYERS,PERIOD
0,1610612765,[1630180  203924  203486 1628367 1630240],1610612743,[1629008  203932  203999  203115 1628420],1
1,1610612765,[ 201961 1628977 1630191 1629635  202709],1610612743,[ 203115 1628420 1630267  203210  200794],2
2,1610612765,[1630180  203924  203486 1628367 1630240],1610612743,[1629008  203932  203999  203115 1628420],3
3,1610612765,[1628977 1630191  202709 1628402 1629076],1610612743,[ 203115 1628420 1628408  203210  200794],4
