,TEAM_ID_1,TEAM_1_PLAYERS,TEAM_ID_2,TEAM_2_PLAYERS,PERIOD
0,1610612760,[1628390  201568  203500 1628983  101108],1610612746,[ 202331  203090 1627826  201976 1629611],1
1,1610612760,[ 203500  101108  203471 1627846 1629647],1610612746,[ 203210  101150 1629010  203585 1626149],2
2,1610612760,[1628390  201568  203500 1628983  101108],1610612746,[ 202331  203090 1627826  201976 1629611],3
3,1610612760,[ 203500  101108  203471 1627846 1629647],1610612746,[ 203210  101150 1629010  203585 1626149],4
