,TEAM_ID_1,TEAM_1_PLAYERS,TEAM_ID_2,TEAM_2_PLAYERS,PERIOD
0,1610612748,[ 202710  203109 1628389 1629130  201609],1610612754,[1628988  203933 1626167  203506 1627763],1
1,1610612748,[ 201609 1627884 1629639    2738  203482],1610612754,[ 203200  203960  204456  203926 1628410],2
2,1610612748,[ 202710  203109 1628389 1629130  201609],1610612754,[1628988  203933 1626167  203506 1627763],3
3,1610612748,[ 201609 1627884 1629639    2738  203482],1610612754,[1628988  203200  203960  204456  203926],4
