,team1_id,team1_player1,team1_player2,team1_player3,team1_player4,team1_player5,team2_id,team2_player1,team2_player2,team2_player3,team2_player4,team2_player5,game_id,period,possession_start,possession_end,team1_points,team2_points,possession_team
0,1610612754,1629052,1630678,1630543,1627741,1630169,1610612737,1629631,201568,203991,1628989,1629027,0022101016,1,0,17,0,0,1610612737
1,1610612754,1629052,1630678,1630543,1627741,1630169,1610612737,1629631,201568,203991,1628989,1629027,0022101016,1,35,39,0,0,1610612754
2,1610612754,1629052,1630678,1630543,1627741,1630169,1610612737,1629631,201568,203991,1628989,1629027,0022101016,1,51,54,0,0,1610612737
3,1610612754,1629052,1630678,1630543,1627741,1630169,1610612737,1629631,201568,203991,1628989,1629027,0022101016,1,56,61,2,0,1610612754
4,1610612754,1629052,1630678,1630543,1627741,1630169,1610612737,1629631,201568,203991,1628989,1629027,0022101016,1,66,66,0,3,1610612737
5,1610612754,1629052,1630678,1630543,1627741,1630169,1610612737,1629631,201568,203991,1628989,1629027,0022101016,1,89,91,0,0,1610612754
6,1610612754,1629052,1630678,1630543,1627741,1630169,1610612737,1629631,201568,203991,1628989,1629027,0022101016,1,97,97,0,3,1610612737
7,1610612754,1629052,1630678,1630543,1627741,1630169,1610612737,1629631,201568,203991,1628989,1629027,0022101016,1,111,111,0,0,1610612754
8,1610612754,1629052,1630678,1630543,1627741,1630169,1610612737,1629631,201568,203991,1628989,1629027,0022101016,1,119,121,0,0,1610612737
9,1610612754,1629052,1630678,1630543,1627741,1630169,1610612737,1629631,201568,203991,1628989,1629027,0022101016,1,131,131,3,0,1610612754
10,1610612754,1629052,1630678,1630543,1627741,1630169,1610612737,1629631,201568,203991,1628989,1629027,0022101016,1,145,145,0,2,1610612737
11,1610612754,1629052,1630678,1630543,1627741,1630169,1610612737,1629631,201568,203991,1628989,1629027,0022101016,1,159,159,0,0,1610612754
12,1610612754,1629052,1630678,1630543,1627741,1630169,1610612737,1629631,201568,203991,1628989,1629027,0022101016,1,162,162,0,3,1610612737
13,1610612754,1629052,1630678,1630543,1627741,1630169,1610612737,1629631,201568,203991,1628989,1629027,0022101016,1,174,177,0,0,1610612754
14,1610612754,1629052,1630678,1630543,1627741,1630169,1610612737,1629631,201568,203991,1628989,1629027,0022101016,1,185,185,0,2,1610612737
15,1610612754,1629052,1630678,1630543,1627741,1630169,1610612737,1629631,201568,203991,1628989,1629027,0022101016,1,185,205,0,0,1610612754
16,1610612754,1629052,1630678,1630543,1627741,1630169,1610612737,1629631,201568,203991,1628989,1629027,0022101016,1,215,215,0,2,1610612737
17,1610612754,1629052,1630678,1630543,1627741,1630169,1610612737,1629631,201568,203991,1628989,1629027,0022101016,1,229,229,2,0,1610612754
18,1610612754,1629052,1630678,1630543,1627741,1630169,1610612737,1629631,201568,203991,1628989,1629027,0022101016,1,242,245,0,0,1610612737
19,1610612754,1629052,1630678,1630543,1627741,1630169,1610612737,1629631,201568,203991,1628989,1629027,0022101016,1,253,253,3,0,1610612754
20,1610612754,1629052,1630678,1630543,1627741,1630169,1610612737,1629631,201568,203991,1628989,1629027,0022101016,1,268,271,0,0,1610612737
21,1610612754,1629052,1630678,1630543,1627741,1630169,1610612737,1629631,201568,203991,1628989,1629027,0022101016,1,288,288,2,0,1610612754
22,1610612754,1629052,1630678,1630543,1627741,1630169,1610612737,1629631,201568,203991,1628989,1629027,0022101016,1,306,306,0,3,1610612737
23,1610612754,1629052,1630678,1630543,1627741,1630169,1610612737,1629631,201568,203991,1628989,1629027,0022101016,1,315,315,0,0,1610612754
24,1610612754,1626208,1627741,1630543,1630613,1630678,1610612737,1629631,201568,203991,1628989,1629027,0022101016,1,324,324,0,3,1610612737
25,1610612754,1626208,1627741,1630543,1630613,1630678,1610612737,1629631,201568,203991,1628989,1629027,0022101016,1,342,342,3,0,1610612754
26,1610612754,1626208,1627741,1630543,1630613,1630678,1610612737,1629631,201568,203991,1628989,1629027,0022101016,1,363,367,0,0,1610612737
27,1610612754,1626208,1627741,1630543,1630613,1630678,1610612737,1629631,201568,203991,1628989,1629027,0022101016,1,372,375,0,0,1610612754
28,1610612754,1626208,1627741,1630543,1630613,1630678,1610612737,1629631,201568,203991,1628989,1629027,0022101016,1,382,385,0,0,1610612737
29,1610612754,1626208,1627741,1630543,1630613,1630678,1610612737,1629631,201568,203991,1628989,1629027,0022101016,1,405,405,0,0,1610612754
30,1610612754,1626208,1627741,1630543,1630613,1630678,1610612737,1629631,201568,203991,1628989,1629027,0022101016,1,417,417,0,2,1610612737
31,1610612754,1626208,1627741,1630543,1630613,1630678,1610612737,1629631,201568,203991,1628989,1629027,0022101016,1,431,431,3,0,1610612754
32,1610612754,1626208,1627741,1630543,1630613,1630678,1610612737,1629631,201568,203991,1628989,1629027,0022101016,1,440,442,0,0,1610612737
33,1610612754,1626208,1627741,1630543,1630613,1630678,1610612737,1629631,201568,203991,1628989,1629027,0022101016,1,448,448,0,0,1610612754
34,1610612754,1626208,1627741,1630543,1630613,1630678,1610612737,1629631,201568,203991,1628989,1629027,0022101016,1,455,455,0,3,1610612737
35,1610612754,1626208,1627741,1630543,1630613,1630678,1610612737,1629631,201568,203991,1628989,1629027,0022101016,1,470,470,3,0,1610612754
36,1610612754,1626208,1627741,1630543,1630613,1630678,1610612737,1629631,201568,203991,1628989,1629027,0022101016,1,478,494,0,0,1610612737
37,1610612754,1626208,1627741,1630188,1630613,1630678,1610612737,1628989,1629027,1629631,1630168,203992,0022101016,1,513,516,0,0,1610612754
38,1610612754,1626208,1627741,1630188,1630613,1630678,1610612737,1628989,1629027,1629631,1630168,203992,0022101016,1,526,526,0,2,1610612737
39,1610612754,1626208,1627741,1630188,1630613,1630678,1610612737,1628989,1629027,1629631,1630168,203992,0022101016,1,539,542,0,0,1610612754
40,1610612754,1626208,1627741,1630188,1630613,1630678,1610612737,1628989,1629027,1629631,1630168,203992,0022101016,1,549,549,0,2,1610612737
41,1610612754,1626208,1627741,1630188,1630613,1630678,1610612737,1628989,1629027,1629631,1630168,203992,0022101016,1,562,562,2,0,1610612754
42,1610612754,1626208,1627741,1630188,1630613,1630678,1610612737,1628989,1629027,1629631,1630168,203992,0022101016,1,572,579,0,0,1610612737
43,1610612754,1626208,1629052,1630169,1630188,1630613,1610612737,101150,1626153,1629631,1630168,203992,0022101016,1,585,585,2,0,1610612754
44,1610612754,1626208,1629052,1630169,1630188,1630613,1610612737,101150,1626153,1629631,1630168,203992,0022101016,1,601,601,0,2,1610612737
45,1610612754,1626208,1629052,1630169,1630188,1630613,1610612737,101150,1626153,1629631,1630168,203992,0022101016,1,623,632,0,0,1610612754
46,1610612754,1626208,1629052,1630169,1630188,1630613,1610612737,101150,1626153,1629631,1630168,203992,0022101016,1,644,644,0,2,1610612737
47,1610612754,1626208,1629052,1630169,1630188,1630613,1610612737,101150,1626153,1629631,1630168,203992,0022101016,1,660,661,0,0,1610612754
48,1610612754,1626208,1629052,1630169,1630188,1630613,1610612737,101150,1626153,1629631,1630168,203992,0022101016,1,672,672,0,3,1610612737
49,1610612754,1626208,1629052,1630169,1630188,1630613,1610612737,101150,1626153,1629631,1630168,203992,0022101016,1,690,690,3,0,1610612754
50,1610612754,1626208,1629052,1630169,1630188,1630613,1610612737,101150,1626153,1629631,1630168,203992,0022101016,1,712,717,0,0,1610612737
51,1610612754,1626208,1629052,1630169,1630188,1630613,1610612737,101150,1626153,1629631,1630168,203992,0022101016,1,720,720,0,0,1610612754
52,1610612754,1629052,1630169,1626208,1630613,1630188,1610612737,201568,203992,1630168,1626153,101150,0022101016,2,720,746,2,0,1610612754
53,1610612754,1629052,1630169,1626208,1630613,1630188,1610612737,201568,203992,1630168,1626153,101150,0022101016,2,761,761,0,3,1610612737
54,1610612754,1629052,1630169,1626208,1630613,1630188,1610612737,201568,203992,1630168,1626153,101150,0022101016,2,775,775,2,0,1610612754
55,1610612754,1629052,1630169,1626208,1630613,1630188,1610612737,201568,203992,1630168,1626153,101150,0022101016,2,792,792,0,2,1610612737
56,1610612754,1629052,1630169,1626208,1630613,1630188,1610612737,201568,203992,1630168,1626153,101150,0022101016,2,800,801,1,0,1610612754
57,1610612754,1629052,1630169,1626208,1630613,1630188,1610612737,201568,203992,1630168,1626153,101150,0022101016,2,815,815,0,2,1610612737
58,1610612754,1626208,1630169,1630188,1630613,1630678,1610612737,201568,203992,1630168,1626153,101150,0022101016,2,836,842,2,0,1610612754
59,1610612754,1626208,1630169,1630188,1630613,1630678,1610612737,201568,203992,1630168,1626153,101150,0022101016,2,859,863,0,0,1610612737
60,1610612754,1626208,1630169,1630188,1630613,1630678,1610612737,201568,203992,1630168,1626153,101150,0022101016,2,868,872,0,0,1610612754
61,1610612754,1626208,1630169,1630188,1630613,1630678,1610612737,201568,203992,1630168,1626153,101150,0022101016,2,874,891,0,2,1610612737
62,1610612754,1626208,1630169,1630188,1630613,1630678,1610612737,201568,203992,1630168,1626153,101150,0022101016,2,906,910,0,0,1610612754
63,1610612754,1626208,1630169,1630188,1630613,1630678,1610612737,201568,203992,1630168,1626153,101150,0022101016,2,922,922,0,2,1610612737
64,1610612754,1626208,1630169,1630188,1630613,1630678,1610612737,201568,203992,1630168,1626153,101150,0022101016,2,923,941,2,0,1610612754
65,1610612754,1627741,1630169,1630188,1630543,1630613,1610612737,201568,203992,1630168,1626153,101150,0022101016,2,956,959,0,0,1610612737
66,1610612754,1627741,1630169,1630188,1630543,1630613,1610612737,201568,203992,1630168,1626153,101150,0022101016,2,967,970,0,0,1610612754
67,1610612754,1627741,1630169,1630188,1630543,1630613,1610612737,201568,203992,1630168,1626153,101150,0022101016,2,986,989,0,0,1610612737
68,1610612754,1627741,1630169,1630188,1630543,1630613,1610612737,201568,203992,1630168,1626153,101150,0022101016,2,998,1001,2,0,1610612754
69,1610612754,1626208,1627741,1630169,1630188,1630543,1610612737,1628989,1629027,201568,203991,203992,0022101016,2,1024,1024,0,3,1610612737
70,1610612754,1626208,1627741,1629052,1630169,1630543,1610612737,1628989,1629027,1629631,203991,203992,0022101016,2,1034,1034,3,0,1610612754
71,1610612754,1626208,1627741,1629052,1630169,1630543,1610612737,1628989,1629027,1629631,203991,203992,0022101016,2,1058,1058,0,3,1610612737
72,1610612754,1626208,1627741,1629052,1630169,1630543,1610612737,1628989,1629027,1629631,203991,203992,0022101016,2,1068,1070,1,0,1610612754
73,1610612754,1626208,1627741,1629052,1630543,1630613,1610612737,1628989,1629027,1629631,203991,203992,0022101016,2,1088,1095,0,0,1610612737
74,1610612754,1626208,1627741,1630543,1630613,1630678,1610612737,1628989,1629027,1629631,203991,203992,0022101016,2,1105,1108,0,0,1610612754
75,1610612754,1626208,1627741,1630543,1630613,1630678,1610612737,1628989,1629027,1629631,203991,203992,0022101016,2,1115,1118,0,0,1610612737
76,1610612754,1626208,1627741,1630543,1630613,1630678,1610612737,1628989,1629027,1629631,203991,203992,0022101016,2,1126,1142,0,0,1610612754
77,1610612754,1626208,1627741,1630543,1630613,1630678,1610612737,1628989,1629027,1629631,203991,203992,0022101016,2,1152,1152,0,3,1610612737
78,1610612754,1626208,1627741,1630543,1630613,1630678,1610612737,1628989,1629027,1629631,203991,203992,0022101016,2,1155,1178,2,0,1610612754
79,1610612754,1627741,1630169,1630543,1630613,1630678,1610612737,1628989,1629027,1629631,203991,203992,0022101016,2,1194,1196,0,0,1610612737
80,1610612754,1627741,1630169,1630543,1630613,1630678,1610612737,1628989,1629027,1629631,203991,203992,0022101016,2,1201,1201,2,0,1610612754
81,1610612754,1627741,1630169,1630543,1630613,1630678,1610612737,1628989,1629027,1629631,203991,203992,0022101016,2,1214,1214,0,3,1610612737
82,1610612754,1627741,1630169,1630543,1630613,1630678,1610612737,1628989,1629027,1629631,203991,203992,0022101016,2,1229,1231,2,0,1610612754
83,1610612754,1627741,1630169,1630543,1630613,1630678,1610612737,1628989,1629027,1629631,1630168,201568,0022101016,2,1251,1251,0,2,1610612737
84,1610612754,1627741,1630169,1630543,1630613,1630678,1610612737,1628989,1629027,1629631,1630168,201568,0022101016,2,1268,1272,0,0,1610612754
85,1610612754,1627741,1630169,1630543,1630613,1630678,1610612737,1628989,1629027,1629631,1630168,201568,0022101016,2,1285,1289,0,0,1610612737
86,1610612754,1627741,1630169,1630543,1630613,1630678,1610612737,1628989,1629027,1629631,1630168,201568,0022101016,2,1292,1292,0,0,1610612754
87,1610612754,1627741,1630169,1630543,1630613,1630678,1610612737,1628989,1629027,1629631,1630168,201568,0022101016,2,1300,1303,0,0,1610612737
88,1610612754,1627741,1630169,1630543,1630613,1630678,1610612737,1628989,1629027,1629631,1630168,201568,0022101016,2,1316,1316,2,0,1610612754
89,1610612754,1627741,1630169,1630543,1630613,1630678,1610612737,1628989,1629027,1629631,1630168,201568,0022101016,2,1333,1333,0,2,1610612737
90,1610612754,1627741,1630169,1630543,1630613,1630678,1610612737,1628989,1629027,1629631,1630168,201568,0022101016,2,1339,1339,0,0,1610612754
91,1610612754,1627741,1630169,1630543,1630613,1630678,1610612737,1628989,1629027,1629631,1630168,201568,0022101016,2,1341,1341,0,2,1610612737
92,1610612754,1627741,1630169,1630188,1630613,1630678,1610612737,1628989,1629027,1629631,1630168,201568,0022101016,2,1350,1350,3,0,1610612754
93,1610612754,1627741,1630169,1630188,1630613,1630678,1610612737,1628989,1629027,1629631,1630168,201568,0022101016,2,1365,1365,0,3,1610612737
94,1610612754,1627741,1630169,1630188,1630613,1630678,1610612737,1628989,1629027,1629631,1630168,201568,0022101016,2,1379,1379,2,0,1610612754
95,1610612754,1627741,1630169,1630188,1630613,1630678,1610612737,1628989,1629027,1629631,1630168,201568,0022101016,2,1390,1390,0,3,1610612737
96,1610612754,1627741,1630169,1630188,1630613,1630678,1610612737,1628989,1629027,1629631,1630168,201568,0022101016,2,1399,1399,2,0,1610612754
97,1610612754,1627741,1630169,1630188,1630613,1630678,1610612737,1626153,1629027,1629631,201568,203992,0022101016,2,1409,1409,0,3,1610612737
98,1610612754,1627741,1630169,1630188,1630613,1630678,1610612737,1626153,1629027,1629631,201568,203992,0022101016,2,1420,1420,0,0,1610612754
99,1610612754,1627741,1630169,1630188,1630613,1630678,1610612737,1626153,1629027,1629631,201568,203992,0022101016,2,1429,1429,0,2,1610612737
100,1610612754,1627741,1630169,1630188,1630613,1630678,1610612737,1626153,1627789,1629027,1629631,203992,0022101016,2,1439,1439,1,0,1610612754
101,1610612754,1629052,1630678,1630543,1627741,1630169,1610612737,1629631,201568,203991,1628989,1629027,0022101016,3,1440,1455,2,0,1610612754
102,1610612754,1629052,1630678,1630543,1627741,1630169,1610612737,1629631,201568,203991,1628989,1629027,0022101016,3,1477,1477,0,0,1610612737
103,1610612754,1629052,1630678,1630543,1627741,1630169,1610612737,1629631,201568,203991,1628989,1629027,0022101016,3,1480,1482,2,0,1610612754
104,1610612754,1629052,1630678,1630543,1627741,1630169,1610612737,1629631,201568,203991,1628989,1629027,0022101016,3,1500,1500,0,2,1610612737
105,1610612754,1629052,1630678,1630543,1627741,1630169,1610612737,1629631,201568,203991,1628989,1629027,0022101016,3,1516,1517,0,0,1610612754
106,1610612754,1629052,1630678,1630543,1627741,1630169,1610612737,1629631,201568,203991,1628989,1629027,0022101016,3,1517,1534,0,2,1610612737
107,1610612754,1629052,1630678,1630543,1627741,1630169,1610612737,1629631,201568,203991,1628989,1629027,0022101016,3,1552,1552,2,0,1610612754
108,1610612754,1629052,1630678,1630543,1627741,1630169,1610612737,1629631,201568,203991,1628989,1629027,0022101016,3,1565,1565,0,2,1610612737
109,1610612754,1629052,1630678,1630543,1627741,1630169,1610612737,1629631,201568,203991,1628989,1629027,0022101016,3,1588,1588,2,0,1610612754
110,1610612754,1629052,1630678,1630543,1627741,1630169,1610612737,1629631,201568,203991,1628989,1629027,0022101016,3,1600,1600,0,0,1610612737
111,1610612754,1629052,1630678,1630543,1627741,1630169,1610612737,1629631,201568,203991,1628989,1629027,0022101016,3,1618,1623,0,0,1610612754
112,1610612754,1629052,1630678,1630543,1627741,1630169,1610612737,1629631,201568,203991,1628989,1629027,0022101016,3,1624,1624,0,0,1610612737
113,1610612754,1629052,1630678,1630543,1627741,1630169,1610612737,1629631,201568,203991,1628989,1629027,0022101016,3,1639,1641,2,0,1610612754
114,1610612754,1629052,1630678,1630543,1627741,1630169,1610612737,1628989,1629027,1629631,1630168,201568,0022101016,3,1652,1661,0,2,1610612737
115,1610612754,1629052,1630678,1630543,1627741,1630169,1610612737,1628989,1629027,1629631,1630168,201568,0022101016,3,1675,1675,2,0,1610612754
116,1610612754,1629052,1630678,1630543,1627741,1630169,1610612737,1628989,1629027,1629631,1630168,201568,0022101016,3,1689,1693,0,2,1610612737
117,1610612754,1629052,1630678,1630543,1627741,1630169,1610612737,1628989,1629027,1629631,1630168,201568,0022101016,3,1716,1716,3,0,1610612754
118,1610612754,1629052,1630678,1630543,1627741,1630169,1610612737,1628989,1629027,1629631,1630168,201568,0022101016,3,1741,1744,0,0,1610612737
119,1610612754,1629052,1630678,1630543,1627741,1630169,1610612737,1628989,1629027,1629631,1630168,201568,0022101016,3,1753,1753,3,0,1610612754
120,1610612754,1629052,1630678,1630543,1627741,1630169,1610612737,1628989,1629027,1629631,1630168,201568,0022101016,3,1754,1774,0,0,1610612737
121,1610612754,1629052,1630678,1630543,1627741,1630169,1610612737,1628989,1629027,1629631,1630168,201568,0022101016,3,1783,1783,3,0,1610612754
122,1610612754,1629052,1630678,1630543,1627741,1630169,1610612737,1628989,1629027,1629631,1630168,201568,0022101016,3,1796,1796,0,0,1610612737
123,1610612754,1629052,1630678,1630543,1627741,1630169,1610612737,1628989,1629027,1629631,1630168,201568,0022101016,3,1796,1808,0,0,1610612754
124,1610612754,1629052,1630678,1630543,1627741,1630169,1610612737,1628989,1629027,1629631,1630168,203992,0022101016,3,1820,1820,0,2,1610612737
125,1610612754,1629052,1630678,1630543,1627741,1630169,1610612737,1628989,1629027,1629631,1630168,203992,0022101016,3,1846,1846,2,0,1610612754
126,1610612754,1629052,1630678,1630543,1627741,1630169,1610612737,1628989,1629027,1629631,1630168,203992,0022101016,3,1860,1860,0,3,1610612737
127,1610612754,1629052,1630678,1630543,1627741,1630169,1610612737,1628989,1629027,1629631,1630168,203992,0022101016,3,1882,1891,0,0,1610612754
128,1610612754,1629052,1630678,1630543,1627741,1630169,1610612737,1628989,1629027,1629631,1630168,203992,0022101016,3,1894,1894,0,2,1610612737
129,1610612754,1629052,1630678,1630543,1627741,1630169,1610612737,1628989,1629027,1629631,1630168,203992,0022101016,3,1894,1916,2,0,1610612754
130,1610612754,1627741,1629052,1630169,1630188,1630613,1610612737,1628989,1629027,1629631,1630168,203992,0022101016,3,1943,1943,0,3,1610612737
131,1610612754,1627741,1629052,1630169,1630188,1630613,1610612737,1628989,1629027,1629631,1630168,203992,0022101016,3,1962,1962,3,0,1610612754
132,1610612754,1627741,1629052,1630169,1630188,1630613,1610612737,1628989,1629027,1629631,1630168,203992,0022101016,3,1984,1984,0,2,1610612737
133,1610612754,1626208,1629052,1630169,1630188,1630613,1610612737,1628989,1629027,1629631,1630168,203992,0022101016,3,2002,2002,0,0,1610612754
134,1610612754,1626208,1629052,1630169,1630188,1630613,1610612737,1628989,1629027,1629631,1630168,203992,0022101016,3,2004,2015,0,2,1610612737
135,1610612754,1626208,1629052,1630169,1630188,1630613,1610612737,1626153,1629027,1629631,1630168,203992,0022101016,3,2025,2025,2,0,1610612754
136,1610612754,1626208,1629052,1630169,1630188,1630613,1610612737,1626153,1629027,1629631,1630168,203992,0022101016,3,2044,2047,0,0,1610612737
137,1610612754,1626208,1629052,1630169,1630188,1630613,1610612737,1626153,1629027,1629631,1630168,203992,0022101016,3,2052,2061,0,0,1610612754
138,1610612754,1626208,1629052,1630169,1630188,1630613,1610612737,1626153,1629027,1629631,1630168,203992,0022101016,3,2076,2081,0,0,1610612737
139,1610612754,1626208,1629052,1630169,1630188,1630613,1610612737,1626153,1629027,1629631,1630168,203992,0022101016,3,2083,2083,0,0,1610612754
140,1610612754,1626208,1629052,1630169,1630188,1630613,1610612737,1626153,1629027,1629631,1630168,203992,0022101016,3,2098,2109,0,0,1610612737
141,1610612754,1626208,1629052,1630169,1630188,1630613,1610612737,1626153,1629027,1629631,1630168,203992,0022101016,3,2114,2115,1,0,1610612754
142,1610612754,1626208,1629052,1630169,1630188,1630613,1610612737,101150,1626153,1629027,1630168,203992,0022101016,3,2133,2133,0,2,1610612737
143,1610612754,1626208,1629052,1630169,1630188,1630613,1610612737,101150,1626153,1629027,1630168,203992,0022101016,3,2136,2136,2,0,1610612754
144,1610612754,1626208,1629052,1630169,1630188,1630613,1610612737,101150,1626153,1629027,1630168,203992,0022101016,3,2148,2148,0,2,1610612737
145,1610612754,1626208,1629052,1630169,1630188,1630613,1610612737,101150,1626153,1629027,1630168,203992,0022101016,3,2158,2158,0,0,1610612754
146,1610612754,1630543,1627741,1626208,1630613,1630188,1610612737,201568,203992,1630168,1626153,101150,0022101016,4,2160,2172,1,3,1610612737
147,1610612754,1630543,1627741,1626208,1630613,1630188,1610612737,201568,203992,1630168,1626153,101150,0022101016,4,2184,2184,2,0,1610612754
148,1610612754,1630543,1627741,1626208,1630613,1630188,1610612737,201568,203992,1630168,1626153,101150,0022101016,4,2198,2201,0,0,1610612737
149,1610612754,1630543,1627741,1626208,1630613,1630188,1610612737,201568,203992,1630168,1626153,101150,0022101016,4,2210,2212,0,0,1610612754
150,1610612754,1630543,1627741,1626208,1630613,1630188,1610612737,201568,203992,1630168,1626153,101150,0022101016,4,2225,2225,0,0,1610612737
151,1610612754,1630543,1627741,1626208,1630613,1630188,1610612737,201568,203992,1630168,1626153,101150,0022101016,4,2233,2236,0,0,1610612754
152,1610612754,1630543,1627741,1626208,1630613,1630188,1610612737,201568,203992,1630168,1626153,101150,0022101016,4,2241,2244,0,0,1610612737
153,1610612754,1630543,1627741,1626208,1630613,1630188,1610612737,201568,203992,1630168,1626153,101150,0022101016,4,2250,2250,2,0,1610612754
154,1610612754,1630543,1627741,1626208,1630613,1630188,1610612737,201568,203992,1630168,1626153,101150,0022101016,4,2274,2274,0,3,1610612737
155,1610612754,1630543,1627741,1626208,1630613,1630188,1610612737,201568,203992,1630168,1626153,101150,0022101016,4,2286,2289,0,0,1610612754
156,1610612754,1627741,1630169,1630188,1630543,1630613,1610612737,201568,203992,1630168,1626153,101150,0022101016,4,2293,2299,0,0,1610612737
157,1610612754,1627741,1630169,1630188,1630543,1630613,1610612737,201568,203992,1630168,1626153,101150,0022101016,4,2302,2314,3,0,1610612754
158,1610612754,1627741,1630169,1630188,1630543,1630613,1610612737,201568,203992,1630168,1626153,101150,0022101016,4,2329,2331,0,0,1610612737
159,1610612754,1627741,1630169,1630188,1630543,1630613,1610612737,101150,1628989,1630168,201568,203992,0022101016,4,2342,2342,2,0,1610612754
160,1610612754,1627741,1630169,1630188,1630543,1630613,1610612737,101150,1628989,1630168,201568,203992,0022101016,4,2360,2360,0,2,1610612737
161,1610612754,1627741,1630169,1630188,1630543,1630613,1610612737,101150,1628989,1630168,201568,203992,0022101016,4,2375,2377,0,0,1610612754
162,1610612754,1627741,1630169,1630188,1630543,1630613,1610612737,101150,1628989,1630168,201568,203992,0022101016,4,2388,2388,0,3,1610612737
163,1610612754,1627741,1630169,1630188,1630543,1630613,1610612737,101150,1628989,1630168,201568,203992,0022101016,4,2389,2406,2,0,1610612754
164,1610612754,1627741,1630169,1630188,1630543,1630613,1610612737,101150,1628989,1630168,201568,203992,0022101016,4,2428,2428,0,2,1610612737
165,1610612754,1627741,1630169,1630188,1630543,1630613,1610612737,101150,1628989,1630168,201568,203992,0022101016,4,2442,2450,2,0,1610612754
166,1610612754,1627741,1630169,1630188,1630543,1630613,1610612737,101150,1628989,1630168,201568,203992,0022101016,4,2472,2474,0,0,1610612737
167,1610612754,1627741,1630169,1630188,1630543,1630613,1610612737,101150,1628989,1630168,201568,203992,0022101016,4,2480,2484,0,0,1610612754
168,1610612754,1627741,1629052,1630169,1630188,1630613,1610612737,1628989,1629027,1629631,203991,203992,0022101016,4,2497,2501,0,0,1610612737
169,1610612754,1627741,1629052,1630169,1630188,1630613,1610612737,1628989,1629027,1629631,203991,203992,0022101016,4,2504,2513,0,0,1610612754
170,1610612754,1627741,1629052,1630169,1630188,1630613,1610612737,1628989,1629027,1629631,203991,203992,0022101016,4,2523,2525,0,0,1610612737
171,1610612754,1627741,1629052,1630169,1630188,1630613,1610612737,1628989,1629027,1629631,203991,203992,0022101016,4,2539,2539,2,0,1610612754
172,1610612754,1627741,1629052,1630169,1630188,1630613,1610612737,1628989,1629027,1629631,203991,203992,0022101016,4,2540,2564,0,0,1610612737
173,1610612754,1627741,1629052,1630169,1630188,1630613,1610612737,1628989,1629027,1629631,203991,203992,0022101016,4,2576,2576,2,0,1610612754
174,1610612754,1627741,1629052,1630169,1630188,1630613,1610612737,1628989,1629027,1629631,203991,203992,0022101016,4,2595,2597,0,0,1610612737
175,1610612754,1627741,1629052,1630169,1630188,1630613,1610612737,1628989,1629027,1629631,203991,203992,0022101016,4,2602,2613,0,0,1610612754
176,1610612754,1627741,1629052,1630169,1630188,1630613,1610612737,1628989,1629027,1629631,203991,203992,0022101016,4,2631,2634,0,0,1610612737
177,1610612754,1627741,1629052,1630169,1630188,1630613,1610612737,1628989,1629027,1629631,203991,203992,0022101016,4,2642,2642,2,0,1610612754
178,1610612754,1627741,1629052,1630169,1630188,1630613,1610612737,1628989,1629027,1629631,203991,203992,0022101016,4,2646,2664,0,3,1610612737
179,1610612754,1627741,1629052,1630169,1630188,1630613,1610612737,1628989,1629027,1629631,203991,203992,0022101016,4,2678,2678,3,0,1610612754
180,1610612754,1627741,1629052,1630169,1630188,1630613,1610612737,1628989,1629027,1629631,203991,203992,0022101016,4,2701,2704,0,0,1610612737
181,1610612754,1627741,1629052,1630169,1630188,1630613,1610612737,1628989,1629027,1629631,203991,203992,0022101016,4,2716,2716,3,0,1610612754
182,1610612754,1627741,1629052,1630169,1630188,1630613,1610612737,1628989,1629027,1629631,203991,203992,0022101016,4,2740,2740,0,2,1610612737
183,1610612754,1627741,1629052,1630169,1630188,1630613,1610612737,1628989,1629027,1629631,203991,203992,0022101016,4,2752,2757,0,0,1610612754
184,1610612754,1627741,1629052,1630169,1630188,1630613,1610612737,1628989,1629027,1629631,203991,203992,0022101016,4,2767,2767,0,2,1610612737
185,1610612754,1627741,1629052,1630169,1630188,1630613,1610612737,1628989,1629027,1629631,203991,203992,0022101016,4,2767,2786,3,0,1610612754
186,1610612754,1627741,1629052,1630169,1630188,1630613,1610612737,1628989,1629027,1629631,203991,203992,0022101016,4,2809,2811,0,0,1610612737
187,1610612754,1627741,1629052,1630169,1630188,1630613,1610612737,1628989,1629027,1629631,203991,203992,0022101016,4,2811,2811,2,0,1610612754
188,1610612754,1627741,1629052,1630169,1630188,1630613,1610612737,1628989,1629027,1629631,203991,203992,0022101016,4,2828,2828,0,0,1610612737
189,1610612754,1627741,1629052,1630169,1630188,1630613,1610612737,1628989,1629027,1629631,203991,203992,0022101016,4,2848,2852,0,0,1610612754
190,1610612754,1627741,1629052,1630169,1630188,1630613,1610612737,1628989,1629027,1629631,203991,203992,0022101016,4,2852,2852,0,2,1610612737
191,1610612754,1627741,1629052,1630169,1630188,1630613,1610612737,1628989,1629027,1629631,203991,203992,0022101016,4,2866,2866,2,0,1610612754
192,1610612754,1627741,1629052,1630169,1630188,1630613,1610612737,1628989,1629027,1629631,203991,203992,0022101016,4,2866,2871,0,2,1610612737
193,1610612754,1627741,1629052,1630169,1630188,1630613,1610612737,1626153,1628989,1629027,1629631,203991,0022101016,4,2875,2875,2,0,1610612754
194,1610612754,1627741,1629052,1630169,1630188,1630613,1610612737,1626153,1628989,1629027,1629631,203991,0022101016,4,2875,2876,0,2,1610612737
195,1610612754,1627741,1629052,1630169,1630188,1630613,1610612737,1628989,1629027,1629631,201568,203992,0022101016,4,2877,2878,1,0,1610612754
