,team1_id,team1_player1,team1_player2,team1_player3,team1_player4,team1_player5,team2_id,team2_player1,team2_player2,team2_player3,team2_player4,team2_player5,game_id,period,possession_start,possession_end,team1_points,team2_points,possession_team
0,1610612751,1629066,201162,1628386,203925,1626156,1610612763,203937,1628991,201188,202066,201144,0021800570,1,0,17,0,2,1610612763
1,1610612751,1629066,201162,1628386,203925,1626156,1610612763,203937,1628991,201188,202066,201144,0021800570,1,39,42,0,0,1610612751
2,1610612751,1629066,201162,1628386,203925,1626156,1610612763,203937,1628991,201188,202066,201144,0021800570,1,50,52,0,0,1610612763
3,1610612751,1629066,201162,1628386,203925,1626156,1610612763,203937,1628991,201188,202066,201144,0021800570,1,68,80,0,0,1610612751
4,1610612751,1629066,201162,1628386,203925,1626156,1610612763,203937,1628991,201188,202066,201144,0021800570,1,95,100,0,0,1610612763
5,1610612751,1629066,201162,1628386,203925,1626156,1610612763,203937,1628991,201188,202066,201144,0021800570,1,104,107,0,0,1610612751
6,1610612751,1629066,201162,1628386,203925,1626156,1610612763,203937,1628991,201188,202066,201144,0021800570,1,114,114,0,2,1610612763
7,1610612751,1629066,201162,1628386,203925,1626156,1610612763,203937,1628991,201188,202066,201144,0021800570,1,127,127,3,0,1610612751
8,1610612751,1629066,201162,1628386,203925,1626156,1610612763,203937,1628991,201188,202066,201144,0021800570,1,150,150,0,2,1610612763
9,1610612751,1629066,201162,1628386,203925,1626156,1610612763,203937,1628991,201188,202066,201144,0021800570,1,160,160,2,0,1610612751
10,1610612751,1629066,201162,1628386,203925,1626156,1610612763,203937,1628991,201188,202066,201144,0021800570,1,178,178,0,2,1610612763
11,1610612751,1629066,201162,1628386,203925,1626156,1610612763,203937,1628991,201188,202066,201144,0021800570,1,192,192,3,0,1610612751
12,1610612751,1629066,201162,1628386,203925,1626156,1610612763,203937,1628991,201188,202066,201144,0021800570,1,208,208,0,2,1610612763
13,1610612751,1629066,201162,1628386,203925,1626156,1610612763,203937,1628991,201188,202066,201144,0021800570,1,231,231,0,0,1610612751
14,1610612751,1629066,201162,1628386,203925,1626156,1610612763,203937,1628991,201188,202066,201144,0021800570,1,231,244,0,0,1610612763
15,1610612751,1629066,201162,1628386,203925,1626156,1610612763,203937,1628991,201188,202066,201144,0021800570,1,250,252,0,0,1610612751
16,1610612751,1629066,201162,1628386,203925,1626156,1610612763,203937,1628991,201188,202066,201144,0021800570,1,261,261,0,2,1610612763
17,1610612751,1629066,201162,1628386,203925,1626156,1610612763,203937,1628991,201188,202066,201144,0021800570,1,272,286,0,0,1610612751
18,1610612751,1629066,201162,1628386,203925,1626156,1610612763,203937,1628991,201188,202066,201144,0021800570,1,295,295,0,2,1610612763
19,1610612751,1629066,201162,1628386,203925,1626156,1610612763,203937,1628991,201188,202066,201144,0021800570,1,295,310,0,0,1610612751
20,1610612751,1629066,201162,1628386,203925,1626156,1610612763,203937,1628991,201188,202066,201144,0021800570,1,332,334,0,0,1610612763
21,1610612751,1629066,201162,1628386,203925,1626156,1610612763,203937,1628991,201188,202066,201144,0021800570,1,340,341,0,0,1610612763
22,1610612751,1629066,201162,1628386,203925,1626156,1610612763,203937,1628991,201188,202066,201144,0021800570,1,341,341,0,0,1610612751
23,1610612751,1628386,201162,201960,203894,203915,1610612763,1628991,201144,202066,203210,203937,0021800570,1,363,363,0,0,1610612751
24,1610612751,1628386,201162,201960,203894,203915,1610612763,1628991,201144,202066,203210,203937,0021800570,1,372,372,0,2,1610612763
25,1610612751,1628386,201162,201960,203894,203915,1610612763,1628991,201144,202066,203210,203937,0021800570,1,383,383,3,0,1610612751
26,1610612751,1628386,201162,201960,203894,203915,1610612763,1628415,1628991,201144,203210,203937,0021800570,1,398,406,0,3,1610612763
27,1610612751,1628386,201162,201960,203894,203915,1610612763,1628415,1628991,201144,203210,203937,0021800570,1,419,419,0,0,1610612751
28,1610612751,1628386,201162,201960,203894,203915,1610612763,1628415,1628991,201144,203210,203937,0021800570,1,434,434,0,1,1610612763
29,1610612751,1628386,201162,201960,203894,203915,1610612763,1628415,1628991,201144,203210,203937,0021800570,1,451,451,2,0,1610612751
30,1610612751,1628386,201162,201960,203894,203915,1610612763,1628415,1628991,201144,203210,203937,0021800570,1,468,473,0,2,1610612763
31,1610612751,1628386,201162,201960,203894,203915,1610612763,1628415,1628991,201144,203210,203937,0021800570,1,488,497,3,0,1610612751
32,1610612751,201960,202334,203894,203915,203925,1610612763,1628415,1628991,202066,202714,203210,0021800570,1,518,520,0,0,1610612763
33,1610612751,201960,202334,203894,203915,203925,1610612763,1628415,1628991,202066,202714,203210,0021800570,1,529,529,2,0,1610612751
34,1610612751,201960,202334,203894,203915,203925,1610612763,1628415,1628991,202066,202714,203210,0021800570,1,548,552,0,0,1610612763
35,1610612751,201960,202334,203894,203915,203925,1610612763,1628415,1628991,202066,202714,203210,0021800570,1,555,555,2,0,1610612751
36,1610612751,1626156,201960,202334,203894,203915,1610612763,1628415,201188,202066,202714,203210,0021800570,1,573,573,0,2,1610612763
37,1610612751,1626156,201960,202334,203894,203915,1610612763,1628415,201188,202066,202714,203210,0021800570,1,581,591,3,0,1610612751
38,1610612751,1626156,201960,202334,203894,203915,1610612763,1628415,201188,202066,202714,203210,0021800570,1,610,620,0,2,1610612763
39,1610612751,1626156,201960,202334,203894,203915,1610612763,1628415,201188,202066,202714,203210,0021800570,1,634,636,0,0,1610612751
40,1610612751,1626156,201960,202334,203894,203915,1610612763,1628415,201188,202066,202714,203210,0021800570,1,641,654,0,0,1610612763
41,1610612751,1626156,201960,202334,203894,203915,1610612763,1628415,201188,202066,202714,203210,0021800570,1,659,659,3,0,1610612751
42,1610612751,1626156,201960,202334,203894,203915,1610612763,1628415,201188,202066,202714,203210,0021800570,1,676,678,0,0,1610612763
43,1610612751,1626156,201960,202334,203894,203915,1610612763,1628415,201188,202066,202714,203210,0021800570,1,683,687,0,0,1610612751
44,1610612751,1626156,201960,202334,203894,203915,1610612763,1628415,201188,202066,202714,203210,0021800570,1,695,695,0,0,1610612763
45,1610612751,1626156,201960,202334,203894,203915,1610612763,1628415,201188,202066,202714,203210,0021800570,1,718,720,0,0,1610612751
46,1610612751,1626156,201960,203894,202334,1626203,1610612763,202066,203210,1628415,1628975,201149,0021800570,2,720,736,0,0,1610612751
47,1610612751,1626156,201960,203894,202334,1626203,1610612763,202066,203210,1628415,1628975,201149,0021800570,2,749,749,0,2,1610612763
48,1610612751,1626156,201960,203894,202334,1626203,1610612763,202066,203210,1628415,1628975,201149,0021800570,2,764,764,0,0,1610612751
49,1610612751,1626156,201960,203894,202334,1626203,1610612763,202066,203210,1628415,1628975,201149,0021800570,2,770,770,0,3,1610612763
50,1610612751,1626156,201960,203894,202334,1626203,1610612763,202066,203210,1628415,1628975,201149,0021800570,2,795,795,0,0,1610612751
51,1610612751,1626156,201960,203894,202334,1626203,1610612763,202066,203210,1628415,1628975,201149,0021800570,2,804,808,0,0,1610612763
52,1610612751,1626156,201960,203894,202334,1626203,1610612763,202066,203210,1628415,1628975,201149,0021800570,2,816,821,0,0,1610612751
53,1610612751,1626156,201960,203894,202334,1626203,1610612763,202066,203210,1628415,1628975,201149,0021800570,2,827,831,0,0,1610612763
54,1610612751,1626156,201960,203894,202334,1626203,1610612763,202066,203210,1628415,1628975,201149,0021800570,2,838,841,0,0,1610612751
55,1610612751,1626156,201960,203894,202334,1626203,1610612763,202066,203210,1628415,1628975,201149,0021800570,2,850,850,0,2,1610612763
56,1610612751,1626156,201960,203894,202334,1626203,1610612763,202066,203210,1628415,1628975,201149,0021800570,2,878,878,0,0,1610612751
57,1610612751,1626156,201960,203894,202334,1626203,1610612763,202066,203210,1628415,1628975,201149,0021800570,2,883,887,0,0,1610612763
58,1610612751,1626156,201960,203894,202334,1626203,1610612763,202066,203210,1628415,1628975,201149,0021800570,2,901,901,0,0,1610612751
59,1610612751,1626156,1626203,201960,202334,203915,1610612763,1628415,1628975,201149,201956,202066,0021800570,2,908,911,0,0,1610612763
60,1610612751,1626156,1626203,201960,202334,203915,1610612763,1628415,1628975,201149,201956,202066,0021800570,2,919,919,2,0,1610612751
61,1610612751,1626156,1626203,201960,202334,203915,1610612763,1628415,1628975,201149,201956,202066,0021800570,2,927,931,0,0,1610612763
62,1610612751,1626156,1626203,201960,202334,203915,1610612763,1628415,1628975,201149,201956,202066,0021800570,2,938,938,3,0,1610612751
63,1610612751,1626156,1626203,201960,202334,203915,1610612763,1628975,201144,201149,201956,202066,0021800570,2,956,956,0,0,1610612763
64,1610612751,1626156,1626203,201960,202334,203915,1610612763,1628975,201144,201149,201956,202066,0021800570,2,971,974,0,0,1610612751
65,1610612751,1626156,1626203,201960,202334,203915,1610612763,1628975,201144,201149,201956,202066,0021800570,2,983,985,0,0,1610612763
66,1610612751,1626156,1626203,201960,202334,203915,1610612763,1628975,201144,201149,201956,202066,0021800570,2,989,991,2,0,1610612751
67,1610612751,1626156,1626203,201960,202334,203915,1610612763,1628975,1628991,201144,201956,203937,0021800570,2,1002,1005,0,0,1610612763
68,1610612751,1626156,1626203,201960,202334,203915,1610612763,1628975,1628991,201144,201956,203937,0021800570,2,1012,1012,0,0,1610612751
69,1610612751,1626156,1626203,201960,202334,203915,1610612763,1628975,1628991,201144,201956,203937,0021800570,2,1029,1032,0,0,1610612763
70,1610612751,1626156,1626203,201960,202334,203915,1610612763,1628975,1628991,201144,201956,203937,0021800570,2,1044,1044,2,0,1610612751
71,1610612751,1626156,1626203,201960,202334,203915,1610612763,1628975,1628991,201144,201956,203937,0021800570,2,1064,1065,0,0,1610612763
72,1610612751,1626156,1626203,201960,202334,203915,1610612763,1628975,1628991,201144,201956,203937,0021800570,2,1065,1085,2,0,1610612751
73,1610612751,1626156,1626203,201960,202334,203915,1610612763,1628991,201144,201188,201956,203937,0021800570,2,1098,1102,0,2,1610612763
74,1610612751,1626203,1629066,202334,203915,203925,1610612763,1628991,201144,201188,201956,203937,0021800570,2,1123,1127,0,0,1610612751
75,1610612751,1626203,1629066,202334,203915,203925,1610612763,1628991,201144,201188,201956,203937,0021800570,2,1132,1132,0,3,1610612763
76,1610612751,1626203,1629066,202334,203915,203925,1610612763,1628991,201144,201188,201956,203937,0021800570,2,1149,1149,0,0,1610612751
77,1610612751,1628386,1629066,201162,203915,203925,1610612763,1628991,201144,201188,201956,203937,0021800570,2,1156,1161,0,2,1610612763
78,1610612751,1628386,1629066,201162,203915,203925,1610612763,1628991,201144,201188,202066,203937,0021800570,2,1176,1180,0,0,1610612751
79,1610612751,1628386,1629066,201162,203915,203925,1610612763,1628991,201144,201188,202066,203937,0021800570,2,1190,1190,0,2,1610612763
80,1610612751,1628386,1629066,201162,203915,203925,1610612763,1628991,201144,201188,202066,203937,0021800570,2,1197,1197,0,0,1610612751
81,1610612751,1628386,1629066,201162,203915,203925,1610612763,1628991,201144,201188,202066,203937,0021800570,2,1210,1224,0,0,1610612763
82,1610612751,1626156,1628386,1629066,201162,203925,1610612763,1628991,201144,201188,202066,203937,0021800570,2,1238,1238,0,0,1610612751
83,1610612751,1626156,1628386,1629066,201162,203925,1610612763,1628991,201144,201188,202066,203937,0021800570,2,1254,1255,0,0,1610612763
84,1610612751,1626156,1628386,1629066,201162,203925,1610612763,1628991,201144,201188,202066,203937,0021800570,2,1255,1276,0,0,1610612751
85,1610612751,1626156,1628386,1629066,201162,203925,1610612763,1628991,201144,201188,202066,203937,0021800570,2,1291,1294,0,0,1610612763
86,1610612751,1626156,1628386,1629066,201162,203925,1610612763,1628991,201144,201188,202066,203937,0021800570,2,1314,1316,3,0,1610612751
87,1610612751,1626156,1628386,201162,203894,203925,1610612763,1628991,201144,201188,202066,203937,0021800570,2,1330,1341,0,1,1610612763
88,1610612751,1626156,1628386,201162,203894,203925,1610612763,1628991,201144,201188,202066,203937,0021800570,2,1346,1346,2,0,1610612751
89,1610612751,1626156,1628386,201162,203894,203925,1610612763,1628991,201144,201188,202066,203937,0021800570,2,1373,1373,0,2,1610612763
90,1610612751,1626156,1628386,201162,203894,203925,1610612763,1628991,201144,201188,202066,203937,0021800570,2,1384,1384,2,0,1610612751
91,1610612751,1626156,1628386,201162,203894,203925,1610612763,1628991,201144,201188,202066,203937,0021800570,2,1395,1395,0,0,1610612763
92,1610612751,1626156,1628386,201162,203894,203925,1610612763,1628991,201144,201188,202066,203937,0021800570,2,1399,1400,2,0,1610612751
93,1610612751,1626156,1628386,201162,203894,203925,1610612763,1628991,201144,201188,202066,203937,0021800570,2,1409,1409,0,0,1610612763
94,1610612751,1626156,1628386,201162,203894,203925,1610612763,201144,201188,202066,203210,203937,0021800570,2,1415,1415,2,0,1610612751
95,1610612751,1626156,1628386,201162,203894,203925,1610612763,201144,201188,202066,203210,203937,0021800570,2,1434,1434,0,2,1610612763
96,1610612751,1626156,1628386,201162,203894,203925,1610612763,201144,201188,202066,203210,203937,0021800570,2,1438,1438,0,0,1610612751
97,1610612751,1626156,1628386,201162,203894,203925,1610612763,201144,201188,202066,203210,203937,0021800570,2,1440,1440,0,0,1610612751
98,1610612751,1629066,201162,1628386,203925,1626156,1610612763,203937,1628991,201188,202066,201144,0021800570,3,1440,1449,2,0,1610612751
99,1610612751,1629066,201162,1628386,203925,1626156,1610612763,203937,1628991,201188,202066,201144,0021800570,3,1467,1467,0,0,1610612763
100,1610612751,1629066,201162,1628386,203925,1626156,1610612763,203937,1628991,201188,202066,201144,0021800570,3,1476,1476,2,0,1610612751
101,1610612751,1629066,201162,1628386,203925,1626156,1610612763,203937,1628991,201188,202066,201144,0021800570,3,1489,1489,0,2,1610612763
102,1610612751,1629066,201162,1628386,203925,1626156,1610612763,203937,1628991,201188,202066,201144,0021800570,3,1499,1503,2,0,1610612751
103,1610612751,1629066,201162,1628386,203925,1626156,1610612763,203937,1628991,201188,202066,201144,0021800570,3,1515,1519,0,0,1610612763
104,1610612751,1629066,201162,1628386,203925,1626156,1610612763,203937,1628991,201188,202066,201144,0021800570,3,1523,1532,0,0,1610612751
105,1610612751,1629066,201162,1628386,203925,1626156,1610612763,203937,1628991,201188,202066,201144,0021800570,3,1533,1533,0,2,1610612763
106,1610612751,1629066,201162,1628386,203925,1626156,1610612763,203937,1628991,201188,202066,201144,0021800570,3,1552,1552,2,0,1610612751
107,1610612751,1629066,201162,1628386,203925,1626156,1610612763,203937,1628991,201188,202066,201144,0021800570,3,1564,1571,0,3,1610612763
108,1610612751,1629066,201162,1628386,203925,1626156,1610612763,203937,1628991,201188,202066,201144,0021800570,3,1585,1591,3,1,1610612751
109,1610612751,1629066,201162,1628386,203925,1626156,1610612763,201144,201188,202066,203210,203937,0021800570,3,1600,1600,0,2,1610612763
110,1610612751,1629066,201162,1628386,203925,1626156,1610612763,201144,201188,202066,203210,203937,0021800570,3,1612,1612,0,0,1610612751
111,1610612751,1629066,201162,1628386,203925,1626156,1610612763,201144,201188,202066,203210,203937,0021800570,3,1620,1625,0,0,1610612763
112,1610612751,1629066,201162,1628386,203925,1626156,1610612763,201144,201188,202066,203210,203937,0021800570,3,1631,1631,0,0,1610612751
113,1610612751,1629066,201162,1628386,203925,1626156,1610612763,201144,201188,202066,203210,203937,0021800570,3,1644,1644,0,3,1610612763
114,1610612751,1629066,201162,1628386,203925,1626156,1610612763,201144,201188,202066,203210,203937,0021800570,3,1646,1678,2,0,1610612751
115,1610612751,1626156,1628386,201162,203915,203925,1610612763,201144,201188,202066,203210,203937,0021800570,3,1701,1701,0,0,1610612763
116,1610612751,1626156,1628386,201162,203915,203925,1610612763,201144,201188,202066,203210,203937,0021800570,3,1708,1712,0,0,1610612751
117,1610612751,1626156,1628386,201162,203915,203925,1610612763,201144,201188,202066,203210,203937,0021800570,3,1722,1722,0,3,1610612763
118,1610612751,1626156,1628386,201162,203915,203925,1610612763,201144,201188,202066,203210,203937,0021800570,3,1732,1732,0,0,1610612751
119,1610612751,1626156,1628386,201162,203915,203925,1610612763,201144,201188,202066,203210,203937,0021800570,3,1751,1751,0,0,1610612763
120,1610612751,1626156,1628386,201162,203915,203925,1610612763,201144,201188,202066,203210,203937,0021800570,3,1760,1760,3,0,1610612751
121,1610612751,1626156,1628386,201162,203915,203925,1610612763,201144,201188,202066,203210,203937,0021800570,3,1762,1783,0,0,1610612763
122,1610612751,1628386,201960,203894,203915,203925,1610612763,1628415,201144,201188,202066,203210,0021800570,3,1798,1798,0,0,1610612751
123,1610612751,1628386,201960,203894,203915,203925,1610612763,1628415,201144,201188,202066,203210,0021800570,3,1803,1815,0,0,1610612763
124,1610612751,1628386,201960,203894,203915,203925,1610612763,1628415,201144,201188,202066,203210,0021800570,3,1821,1821,2,0,1610612751
125,1610612751,1628386,201960,203894,203915,203925,1610612763,1628415,201144,201188,202066,203210,0021800570,3,1843,1843,0,2,1610612763
126,1610612751,1628386,201960,203894,203915,203925,1610612763,1628415,201144,201188,202066,203210,0021800570,3,1851,1851,2,0,1610612751
127,1610612751,201960,202334,203894,203915,203925,1610612763,1628415,201144,201188,202066,203210,0021800570,3,1867,1867,0,0,1610612763
128,1610612751,201960,202334,203894,203915,203925,1610612763,1628415,201144,201188,202066,203210,0021800570,3,1881,1881,3,0,1610612751
129,1610612751,201960,202334,203894,203915,203925,1610612763,1628415,201144,202066,203210,203937,0021800570,3,1898,1898,0,2,1610612763
130,1610612751,201960,202334,203894,203915,203925,1610612763,1628415,201144,202066,203210,203937,0021800570,3,1916,1919,0,0,1610612751
131,1610612751,201960,202334,203894,203915,203925,1610612763,1628415,201144,202066,203210,203937,0021800570,3,1920,1920,0,0,1610612763
132,1610612751,201960,202334,203894,203915,203925,1610612763,1628415,201144,202066,203210,203937,0021800570,3,1927,1927,0,0,1610612751
133,1610612751,201960,202334,203894,203915,203925,1610612763,1628415,201144,202066,203210,203937,0021800570,3,1929,1931,0,2,1610612763
134,1610612751,201960,202334,203894,203915,203925,1610612763,1628415,201144,202066,203210,203937,0021800570,3,1940,1940,2,0,1610612751
135,1610612751,201960,202334,203894,203915,203925,1610612763,1628415,201144,202066,203210,203937,0021800570,3,1956,1956,0,2,1610612763
136,1610612751,201960,202334,203894,203915,203925,1610612763,1628415,201144,202066,203210,203937,0021800570,3,1966,1970,0,0,1610612751
137,1610612751,201960,202334,203894,203915,203925,1610612763,1628415,201144,202066,203210,203937,0021800570,3,1977,1977,0,2,1610612763
138,1610612751,201960,202334,203894,203915,203925,1610612763,1628415,201144,202066,203210,203937,0021800570,3,1998,1998,3,0,1610612751
139,1610612751,201960,202334,203894,203915,203925,1610612763,1628415,201144,202066,203210,203937,0021800570,3,1998,1998,3,0,1610612751
140,1610612751,201960,202334,203894,203915,203925,1610612763,1628415,201144,202066,203210,203937,0021800570,3,2010,2025,0,0,1610612763
141,1610612751,1626156,201960,202334,203894,203915,1610612763,1628415,1628975,202066,203210,203937,0021800570,3,2025,2032,2,0,1610612751
142,1610612751,1626156,201960,202334,203894,203915,1610612763,1628415,1628975,202066,203210,203937,0021800570,3,2048,2048,0,2,1610612763
143,1610612751,1626156,201960,202334,203894,203915,1610612763,1628415,1628975,202066,203210,203937,0021800570,3,2064,2067,0,0,1610612751
144,1610612751,1626156,201960,202334,203894,203915,1610612763,1628415,1628975,202066,203210,203937,0021800570,3,2086,2090,0,0,1610612763
145,1610612751,1626156,201960,202334,203894,203915,1610612763,1628415,1628975,202066,203210,203937,0021800570,3,2102,2104,0,0,1610612751
146,1610612751,1626156,201960,202334,203894,203915,1610612763,1628415,1628975,202066,203210,203937,0021800570,3,2111,2111,0,2,1610612763
147,1610612751,1626156,201960,202334,203894,203915,1610612763,1628415,1628975,202066,203210,203937,0021800570,3,2119,2123,0,0,1610612751
148,1610612751,1626156,201960,202334,203894,203915,1610612763,1628415,1628975,202066,203210,203937,0021800570,3,2128,2131,0,0,1610612763
149,1610612751,1626156,201960,202334,203894,203915,1610612763,1628415,1628975,202066,203210,203937,0021800570,3,2146,2146,3,0,1610612751
150,1610612751,1626156,201960,202334,203894,203915,1610612763,1628415,1628975,202066,203210,203937,0021800570,3,2158,2158,0,0,1610612763
151,1610612751,1626156,201960,203894,202334,1626203,1610612763,203937,1628991,201188,201144,1628975,0021800570,4,2160,2176,0,0,1610612763
152,1610612751,1626156,201960,203894,202334,1626203,1610612763,203937,1628991,201188,201144,1628975,0021800570,4,2187,2187,2,0,1610612751
153,1610612751,1626156,201960,203894,202334,1626203,1610612763,203937,1628991,201188,201144,1628975,0021800570,4,2203,2203,0,2,1610612763
154,1610612751,1626156,201960,203894,202334,1626203,1610612763,203937,1628991,201188,201144,1628975,0021800570,4,2220,2232,0,0,1610612751
155,1610612751,1626156,201960,203894,202334,1626203,1610612763,203937,1628991,201188,201144,1628975,0021800570,4,2235,2250,0,0,1610612763
156,1610612751,1626156,201960,203894,202334,1626203,1610612763,203937,1628991,201188,201144,1628975,0021800570,4,2269,2269,0,0,1610612751
157,1610612751,1626156,201960,203894,202334,1626203,1610612763,203937,1628991,201188,201144,1628975,0021800570,4,2279,2279,0,2,1610612763
158,1610612751,1626156,201960,203894,202334,1626203,1610612763,203937,1628991,201188,201144,1628975,0021800570,4,2287,2287,3,0,1610612751
159,1610612751,1626156,201960,203894,202334,1626203,1610612763,203937,1628991,201188,201144,1628975,0021800570,4,2309,2313,0,0,1610612763
160,1610612751,1626156,201960,203894,202334,1626203,1610612763,203937,1628991,201188,201144,1628975,0021800570,4,2321,2321,3,0,1610612751
161,1610612751,1626156,201960,203894,202334,1626203,1610612763,203937,1628991,201188,201144,1628975,0021800570,4,2331,2342,0,1,1610612763
162,1610612751,1626156,201960,203894,202334,1626203,1610612763,1628991,201144,201188,202066,203937,0021800570,4,2358,2362,0,0,1610612751
163,1610612751,1626156,201960,203894,202334,1626203,1610612763,1628991,201144,201188,202066,203937,0021800570,4,2365,2365,0,2,1610612763
164,1610612751,1626156,201960,203894,202334,1626203,1610612763,1628991,201144,201188,202066,203937,0021800570,4,2372,2372,3,0,1610612751
165,1610612751,1626156,201960,203894,202334,1626203,1610612763,1628991,201144,201188,202066,203937,0021800570,4,2398,2402,0,0,1610612763
166,1610612751,1626156,201960,203894,202334,1626203,1610612763,1628991,201144,201188,202066,203937,0021800570,4,2409,2429,0,0,1610612751
167,1610612751,1626156,201960,203894,202334,1626203,1610612763,1628991,201144,201188,202066,203937,0021800570,4,2433,2433,0,3,1610612763
168,1610612751,1626156,201162,201960,202334,203915,1610612763,1628991,201144,201188,202066,203937,0021800570,4,2449,2453,0,0,1610612751
169,1610612751,1626156,201162,201960,202334,203915,1610612763,1628991,201144,201188,202066,203937,0021800570,4,2457,2458,0,0,1610612763
170,1610612751,1626156,201162,201960,202334,203915,1610612763,1628991,201144,201188,202066,203937,0021800570,4,2458,2477,3,0,1610612751
171,1610612751,1628386,201162,201960,203915,203925,1610612763,1628991,201144,201188,202066,203937,0021800570,4,2504,2508,0,0,1610612763
172,1610612751,1628386,201162,201960,203915,203925,1610612763,1628991,201144,201188,202066,203937,0021800570,4,2524,2526,0,0,1610612751
173,1610612751,1628386,201162,201960,203915,203925,1610612763,1628991,201144,201188,202066,203937,0021800570,4,2538,2538,0,2,1610612763
174,1610612751,1628386,201162,201960,203915,203925,1610612763,1628991,201144,201188,202066,203937,0021800570,4,2563,2566,0,0,1610612751
175,1610612751,1628386,201162,201960,203915,203925,1610612763,1628991,201144,201188,202066,203937,0021800570,4,2572,2576,0,0,1610612763
176,1610612751,1628386,201162,201960,203915,203925,1610612763,1628991,201144,201188,202066,203937,0021800570,4,2581,2586,2,0,1610612751
177,1610612751,1628386,201162,201960,203915,203925,1610612763,1628991,201144,201188,202066,203937,0021800570,4,2596,2599,0,0,1610612763
178,1610612751,1628386,201162,201960,203915,203925,1610612763,1628991,201144,201188,202066,203937,0021800570,4,2602,2606,0,0,1610612751
179,1610612751,1628386,201162,201960,203915,203925,1610612763,1628991,201144,201188,202066,203937,0021800570,4,2612,2612,0,3,1610612763
180,1610612751,1626156,1628386,201162,203915,203925,1610612763,1628991,201144,201188,202066,203937,0021800570,4,2620,2620,3,0,1610612751
181,1610612751,1626156,1628386,201162,203915,203925,1610612763,1628991,201144,201188,202066,203937,0021800570,4,2632,2632,0,2,1610612763
182,1610612751,1626156,1628386,201162,203915,203925,1610612763,1628991,201144,201188,202066,203937,0021800570,4,2644,2644,2,0,1610612751
183,1610612751,1626156,1628386,201162,203915,203925,1610612763,1628991,201144,201188,202066,203937,0021800570,4,2659,2662,0,0,1610612763
184,1610612751,1626156,1628386,201162,203915,203925,1610612763,1628991,201144,201188,202066,203937,0021800570,4,2680,2680,2,0,1610612751
185,1610612751,1626156,1628386,201162,203915,203925,1610612763,1628991,201144,201188,202066,203937,0021800570,4,2680,2694,0,0,1610612763
186,1610612751,1626156,1628386,201162,203915,203925,1610612763,1628991,201144,201188,202066,203937,0021800570,4,2709,2709,2,0,1610612751
187,1610612751,1626156,1628386,201162,203915,203925,1610612763,1628991,201144,201188,202066,203937,0021800570,4,2716,2718,0,0,1610612763
188,1610612751,1626156,1628386,201162,203915,203925,1610612763,1628991,201144,201188,202066,203937,0021800570,4,2720,2720,0,0,1610612751
189,1610612751,1626156,1628386,201162,203915,203925,1610612763,1628991,201144,201188,202066,203937,0021800570,4,2723,2726,0,0,1610612763
190,1610612751,1626156,1628386,201162,203915,203925,1610612763,1628991,201144,201188,202066,203937,0021800570,4,2745,2747,0,0,1610612751
191,1610612751,1626156,1628386,201162,203915,203925,1610612763,1628991,201144,201188,202066,203937,0021800570,4,2753,2755,0,2,1610612763
192,1610612751,1626156,1628386,201162,203915,203925,1610612763,1628991,201144,201188,202066,203937,0021800570,4,2776,2794,0,0,1610612751
193,1610612751,1626156,1628386,201162,203915,203925,1610612763,1628991,201144,201188,202066,203937,0021800570,4,2797,2797,0,2,1610612763
194,1610612751,1626156,1628386,201162,203915,203925,1610612763,1628991,201144,201188,202066,203937,0021800570,4,2819,2819,0,0,1610612751
195,1610612751,1626156,1628386,201162,203915,203925,1610612763,1628991,201144,201188,202066,203937,0021800570,4,2827,2827,0,2,1610612763
196,1610612751,1626156,1628386,201162,203915,203925,1610612763,1628991,201144,201188,202066,203937,0021800570,4,2834,2836,2,0,1610612751
197,1610612751,1626156,201162,203894,203915,203925,1610612763,1628991,201144,201188,202066,203937,0021800570,4,2843,2843,0,0,1610612763
198,1610612751,1626156,201162,203894,203915,203925,1610612763,1628991,201144,201188,202066,203937,0021800570,4,2843,2858,1,0,1610612751
199,1610612751,1626156,201162,203894,203915,203925,1610612763,1628991,201144,201188,202066,203937,0021800570,4,2858,2864,0,0,1610612763
