,TEAM_ID_1,TEAM_1_PLAYERS,TEAM_ID_2,TEAM_2_PLAYERS,PERIOD
0,1610612740,[ 201950 1627742  202324  200755 1628366],1610612758,[ 203084  202357 1626158 1627741 1628368],1
1,1610612740,[ 201950 1628404  202734 1629026 1626143],1610612758,[ 202357 1628368    2772  202709 1628385],2
2,1610612740,[ 201950 1627742  202324  200755 1628366],1610612758,[ 203084  202357 1626158 1627741 1628368],3
3,1610612740,[1627742  202324 1628366 1628404  202734],1610612758,[ 202357 1626158 1628368    2772  202709],4
