,t1_pm,t2_pm,stint_start,t2_points_scored,t2_players,t2_id,t1_id,t1_players,stint_end,t1_points_scored,margin_per_100,num_poss
0,2,-2,0,11,"[1630256, 203482, 1626174, 1629717, 1629645]",1610612745,1610612744,"[203952, 203110, 1626172, 201939, 203145]",356,13,8.0,25.0
1,-3,3,357,16,"[1630256, 203482, 1626174, 1629717, 1629645]",1610612745,1610612744,"[203952, 203110, 1626172, 201939, 203145]",425,13,-10.0,30.0
2,-3,3,426,19,"[1630256, 203482, 1626174, 1629717, 1629645]",1610612745,1610612744,"[1628539, 1629308, 201939, 203110, 203145]",509,16,-8.571428571428571,35.0
3,-2,2,510,24,"[1626174, 1629645, 1629717, 1630231, 1630256]",1610612745,1610612744,"[1628539, 1629308, 201939, 203110, 203145]",716,22,-4.0,50.0
4,-4,4,717,33,"[1626174, 1629610, 1629717, 1630231, 1630256]",1610612745,1610612744,"[1628539, 1629308, 1629673, 201939, 203110]",965,29,-5.970149253731343,67.0
5,-6,6,966,40,"[203482, 1629645, 1630231, 1629610, 1628391]",1610612745,1610612744,"[203952, 1626172, 203145, 1629308, 1629673]",1057,34,-8.108108108108109,74.0
6,-6,6,1058,40,"[203482, 1629645, 1630231, 1629610, 1628391]",1610612745,1610612744,"[1626172, 1628539, 1629308, 1629673, 203952]",1121,34,-7.59493670886076,79.0
7,-7,7,1122,44,"[1626174, 1628391, 1629610, 1629645, 1630231]",1610612745,1610612744,"[1628539, 1629308, 1629673, 201939, 203952]",1165,37,-8.536585365853659,82.0
8,-9,9,1166,46,"[1626174, 1629645, 1629717, 1630231, 1630256]",1610612745,1610612744,"[1628539, 201939, 203110, 203145, 203952]",1212,37,-10.465116279069768,86.0
9,-8,8,1213,50,"[1626174, 1629645, 1629717, 1630256, 203482]",1610612745,1610612744,"[1628539, 201939, 203110, 203145, 203952]",1310,42,-8.51063829787234,94.0
10,-3,3,1311,52,"[1626174, 1629645, 1629717, 1630256, 203482]",1610612745,1610612744,"[1629308, 201939, 203110, 203145, 203952]",1439,49,-2.857142857142857,105.0
11,6,-6,1440,59,"[1626174, 1629645, 1629717, 1630231, 1630256]",1610612745,1610612744,"[1629308, 201939, 203110, 203145, 203952]",1766,65,4.477611940298507,134.0
12,11,-11,1767,59,"[1630256, 203482, 1626174, 1629717, 1629645]",1610612745,1610612744,"[203952, 203110, 1626172, 201939, 203145]",1810,70,8.02919708029197,137.0
13,19,-19,1811,63,"[1626174, 1629645, 1629717, 1630231, 1630256]",1610612745,1610612744,"[203952, 203110, 1626172, 201939, 203145]",1990,82,12.751677852348994,149.0
14,20,-20,1991,65,"[1626174, 1628391, 1629645, 1630231, 1630256]",1610612745,1610612744,"[1628539, 1629308, 201939, 203110, 203952]",2056,85,12.987012987012985,154.0
15,18,-18,2057,67,"[1626174, 1628391, 1629645, 1630231, 1630256]",1610612745,1610612744,"[1628539, 1629308, 1629673, 201939, 203110]",2119,85,11.39240506329114,158.0
16,21,-21,2120,67,"[1628391, 1629610, 1630231, 1630256, 203482]",1610612745,1610612744,"[1628539, 1629308, 1629673, 201939, 203110]",2153,88,13.125,160.0
17,24,-24,2154,71,"[1628391, 1629610, 1629645, 1630231, 203482]",1610612745,1610612744,"[1628539, 1629308, 1629673, 201939, 203110]",2435,95,13.40782122905028,179.0
18,27,-27,2436,76,"[203482, 1629645, 1630231, 1629610, 1628391]",1610612745,1610612744,"[203952, 1626172, 203145, 1629308, 1629673]",2565,103,14.361702127659576,188.0
19,26,-26,2566,87,"[1628391, 1629717, 1630231, 1630237, 1630256]",1610612745,1610612744,"[1626172, 1628539, 1629308, 1629673, 203952]",2871,113,12.380952380952381,210.0
20,26,-26,2872,87,"[1628391, 1629610, 1629717, 1630231, 1630237]",1610612745,1610612744,"[1628539, 1629308, 1629346, 1629673, 1630185]",9999999,113,12.322274881516588,211.0
