,TEAM_ID_1,TEAM_1_PLAYERS,TEAM_ID_2,TEAM_2_PLAYERS,PERIOD
0,1610612741,[1629750  201942  202696  203897 1628366],1610612738,[1628369  201143 1629057 1627759  203935],1
1,1610612741,[ 201942 1630245 1627884 1627936 1628396],1610612738,[1628369  201143  203471 1629641 1629684],2
2,1610612741,[1629750  201942  202696  203897 1628366],1610612738,[1628369  201143 1629057 1627759  203935],3
3,1610612741,[ 203897 1630245 1627884 1627936 1628396],1610612738,[1628369  201143 1626196  203471 1629684],4
