,team1_id,team1_player1,team1_player2,team1_player3,team1_player4,team1_player5,team2_id,team2_player1,team2_player2,team2_player3,team2_player4,team2_player5,game_id,period,possession_start,possession_end,team1_points,team2_points,possession_team
0,1610612765,1630180,203924,1630191,1628977,1630165,1610612751,201142,1628971,201933,203925,201935,0022100092,1,0,15,0,1,1610612751
1,1610612765,1630180,203924,1630191,1628977,1630165,1610612751,201142,1628971,201933,203925,201935,0022100092,1,34,34,2,0,1610612765
2,1610612765,1630180,203924,1630191,1628977,1630165,1610612751,201142,1628971,201933,203925,201935,0022100092,1,49,52,0,0,1610612751
3,1610612765,1630180,203924,1630191,1628977,1630165,1610612751,201142,1628971,201933,203925,201935,0022100092,1,69,74,0,0,1610612765
4,1610612765,1630180,203924,1630191,1628977,1630165,1610612751,201142,1628971,201933,203925,201935,0022100092,1,85,85,0,2,1610612751
5,1610612765,1630180,203924,1630191,1628977,1630165,1610612751,201142,1628971,201933,203925,201935,0022100092,1,109,109,2,0,1610612765
6,1610612765,1630180,203924,1630191,1628977,1630165,1610612751,201142,1628971,201933,203925,201935,0022100092,1,125,131,0,2,1610612751
7,1610612765,1630180,203924,1630191,1628977,1630165,1610612751,201142,1628971,201933,203925,201935,0022100092,1,146,149,0,0,1610612765
8,1610612765,1630180,203924,1630191,1628977,1630165,1610612751,201142,1628971,201933,203925,201935,0022100092,1,156,159,0,0,1610612751
9,1610612765,1630180,203924,1630191,1628977,1630165,1610612751,201142,1628971,201933,203925,201935,0022100092,1,166,169,0,0,1610612765
10,1610612765,1630180,203924,1630191,1628977,1630165,1610612751,201142,1628971,201933,203925,201935,0022100092,1,171,182,0,0,1610612751
11,1610612765,1630180,203924,1630191,1628977,1630165,1610612751,201142,1628971,201933,203925,201935,0022100092,1,188,190,0,0,1610612765
12,1610612765,1630180,203924,1630191,1628977,1630165,1610612751,201142,1628971,201933,203925,201935,0022100092,1,198,198,0,3,1610612751
13,1610612765,1630180,203924,1630191,1628977,1630165,1610612751,201142,1628971,201933,203925,201935,0022100092,1,219,219,2,0,1610612765
14,1610612765,1630180,203924,1630191,1628977,1630165,1610612751,201142,1628971,201933,203925,201935,0022100092,1,229,232,0,0,1610612751
15,1610612765,1630180,203924,1630191,1628977,1630165,1610612751,201142,1628971,201933,203925,201935,0022100092,1,241,244,0,0,1610612765
16,1610612765,1630180,203924,1630191,1628977,1630165,1610612751,201142,1628971,201933,203925,201935,0022100092,1,246,246,0,3,1610612751
17,1610612765,1630180,203924,1630191,1628977,1630165,1610612751,201142,201933,201935,201988,203925,0022100092,1,270,276,0,0,1610612765
18,1610612765,1630180,203924,1630191,1628977,1630165,1610612751,201142,201933,201935,201988,203925,0022100092,1,285,285,0,2,1610612751
19,1610612765,1630180,203924,1630191,1628977,1630165,1610612751,201142,201933,201935,201988,203925,0022100092,1,298,298,2,0,1610612765
20,1610612765,1630180,203924,1630191,1628977,1630165,1610612751,201142,201933,201935,201988,203925,0022100092,1,310,310,0,3,1610612751
21,1610612765,1630180,203924,1630191,1628977,1630165,1610612751,201142,201933,201935,201988,203925,0022100092,1,319,334,2,0,1610612765
22,1610612765,1630180,203924,1630191,1628977,1630165,1610612751,201142,201933,201935,201988,203925,0022100092,1,358,361,0,0,1610612751
23,1610612765,1630180,203924,1630191,1628977,1630165,1610612751,201142,201933,201935,201988,203925,0022100092,1,366,376,0,0,1610612765
24,1610612765,1630180,203924,1630191,1628977,1630165,1610612751,201142,201933,201935,201988,203925,0022100092,1,390,390,0,0,1610612751
25,1610612765,1630180,203924,1630191,1628977,1630165,1610612751,201142,201933,201935,201988,203925,0022100092,1,395,398,0,0,1610612765
26,1610612765,1630180,203924,1630191,1628977,1630165,1610612751,201142,201933,201935,201988,203925,0022100092,1,400,400,0,0,1610612751
27,1610612765,1628367,1630180,202709,203482,203924,1610612751,201142,201933,201935,201988,203925,0022100092,1,418,418,3,0,1610612765
28,1610612765,1628367,1630180,202709,203482,203924,1610612751,201142,201933,201935,201988,203925,0022100092,1,447,447,0,2,1610612751
29,1610612765,1628367,1630180,202709,203482,203924,1610612751,201142,201933,201935,201988,203925,0022100092,1,468,470,0,0,1610612765
30,1610612765,1628367,1630180,202709,203482,203924,1610612751,200746,201142,201935,201988,203925,0022100092,1,486,486,0,2,1610612751
31,1610612765,1628367,1630180,202709,203482,203924,1610612751,200746,201142,201935,201988,203925,0022100092,1,504,507,0,0,1610612765
32,1610612765,1628367,1630180,202709,203482,203924,1610612751,200746,201142,201935,201988,203925,0022100092,1,520,520,0,0,1610612751
33,1610612765,1628367,1630180,202709,203482,203924,1610612751,200746,201142,201935,201988,203925,0022100092,1,528,528,2,0,1610612765
34,1610612765,1628367,1630180,202709,203482,203924,1610612751,200746,201142,201935,201988,203925,0022100092,1,537,537,0,3,1610612751
35,1610612765,1626168,1628367,202709,203482,203924,1610612751,1627761,200746,201142,201935,201988,0022100092,1,552,552,3,0,1610612765
36,1610612765,1626168,1628367,202709,203482,203924,1610612751,1627761,200746,201142,201935,201988,0022100092,1,553,568,0,0,1610612751
37,1610612765,1626168,1628367,202709,203482,203924,1610612751,1627761,1628971,200746,201142,201988,0022100092,1,577,580,0,0,1610612765
38,1610612765,1626168,1628367,202709,203482,203924,1610612751,1627761,1628971,200746,201142,201988,0022100092,1,587,587,0,2,1610612751
39,1610612765,1626168,1628367,202709,203482,203924,1610612751,1627761,1628971,200746,201142,201988,0022100092,1,607,610,0,0,1610612765
40,1610612765,1626168,1628367,202709,203482,203924,1610612751,1627761,1628971,200746,201142,201988,0022100092,1,625,627,0,0,1610612751
41,1610612765,1626168,1628367,202709,203482,203924,1610612751,1627761,1628971,200746,201142,201988,0022100092,1,634,634,2,0,1610612765
42,1610612765,1626168,1628367,202709,203482,203924,1610612751,1627761,1628971,200746,201142,201988,0022100092,1,652,652,0,1,1610612751
43,1610612765,1626168,1628367,1628402,202709,203482,1610612751,1627761,1628971,200746,201142,201988,0022100092,1,671,671,3,0,1610612765
44,1610612765,1626168,1628367,1628402,202709,203482,1610612751,1627761,1628971,200746,201142,201988,0022100092,1,682,682,0,2,1610612751
45,1610612765,1626168,1628367,1628402,202709,203482,1610612751,1627761,1628971,200746,201142,201988,0022100092,1,691,691,2,0,1610612765
46,1610612765,1626168,1628367,1628402,202709,203482,1610612751,1627761,1628971,200746,201142,201988,0022100092,1,713,716,0,0,1610612751
47,1610612765,1626168,1628367,1628402,202709,203482,1610612751,1627761,1628971,200746,201142,201988,0022100092,1,719,719,0,0,1610612765
48,1610612765,1630191,1628367,202709,1626168,1628402,1610612751,1628971,201988,200746,1627761,1628975,0022100092,2,720,734,3,0,1610612765
49,1610612765,1630191,1628367,202709,1626168,1628402,1610612751,1628971,201988,200746,1627761,1628975,0022100092,2,748,748,0,2,1610612751
50,1610612765,1630191,1628367,202709,1626168,1628402,1610612751,1628971,201988,200746,1627761,1628975,0022100092,2,766,766,2,0,1610612765
51,1610612765,1630191,1628367,202709,1626168,1628402,1610612751,1628971,201988,200746,1627761,1628975,0022100092,2,778,778,0,2,1610612751
52,1610612765,1630191,1628367,202709,1626168,1628402,1610612751,1628971,201988,200746,1627761,1628975,0022100092,2,800,800,2,0,1610612765
53,1610612765,1630191,1628367,202709,1626168,1628402,1610612751,1628971,201988,200746,1627761,1628975,0022100092,2,812,820,0,2,1610612751
54,1610612765,1630191,1628367,202709,1626168,1628402,1610612751,1628971,201988,200746,1627761,1628975,0022100092,2,831,834,0,0,1610612765
55,1610612765,1630191,1628367,202709,1626168,1628402,1610612751,1628971,201988,200746,1627761,1628975,0022100092,2,842,842,0,3,1610612751
56,1610612765,1630191,1628367,202709,1626168,1628402,1610612751,1628971,201988,200746,1627761,1628975,0022100092,2,858,858,0,0,1610612765
57,1610612765,1630191,1628367,202709,1626168,1628402,1610612751,1628971,201988,200746,1627761,1628975,0022100092,2,863,863,0,3,1610612751
58,1610612765,1630191,1628367,202709,1626168,1628402,1610612751,1628971,201988,200746,1627761,1628975,0022100092,2,864,877,0,0,1610612765
59,1610612765,1630191,1628367,202709,1626168,1628402,1610612751,1627761,1628971,1628975,200746,201949,0022100092,2,895,895,0,2,1610612751
60,1610612765,1630191,1628367,202709,1626168,1628402,1610612751,1627761,1628971,1628975,200746,201949,0022100092,2,917,924,2,0,1610612765
61,1610612765,1630191,1628367,202709,1626168,1628402,1610612751,1627761,1628971,1628975,200746,201949,0022100092,2,945,948,0,0,1610612751
62,1610612765,1630191,1628367,202709,1626168,1628402,1610612751,1627761,1628971,1628975,200746,201949,0022100092,2,951,957,3,0,1610612765
63,1610612765,1626168,1628402,1630165,1630180,1630191,1610612751,1627761,1628975,200746,201935,201949,0022100092,2,974,974,0,2,1610612751
64,1610612765,1626168,1628402,1630165,1630180,1630191,1610612751,1627761,1628975,200746,201935,201949,0022100092,2,988,988,2,0,1610612765
65,1610612765,1626168,1628402,1630165,1630180,1630191,1610612751,1627761,1628975,200746,201935,201949,0022100092,2,1003,1003,0,3,1610612751
66,1610612765,1626168,1628402,1630165,1630180,1630191,1610612751,1627761,1628975,200746,201935,201949,0022100092,2,1029,1032,0,0,1610612765
67,1610612765,1628402,1630165,1630180,1630191,203924,1610612751,200746,201142,201935,201949,203925,0022100092,2,1050,1050,0,2,1610612751
68,1610612765,1628402,1630165,1630180,1630191,203924,1610612751,200746,201142,201935,201949,203925,0022100092,2,1068,1070,0,0,1610612765
69,1610612765,1628402,1630165,1630180,1630191,203924,1610612751,200746,201142,201935,201949,203925,0022100092,2,1086,1086,0,0,1610612751
70,1610612765,1628402,1630165,1630180,1630191,203924,1610612751,200746,201142,201935,201949,203925,0022100092,2,1090,1090,2,0,1610612765
71,1610612765,1628402,1630165,1630180,1630191,203924,1610612751,200746,201142,201935,201949,203925,0022100092,2,1113,1115,0,0,1610612751
72,1610612765,1628402,1630165,1630180,1630191,203924,1610612751,200746,201142,201935,201949,203925,0022100092,2,1120,1123,0,0,1610612765
73,1610612765,1628402,1630165,1630180,1630191,203924,1610612751,200746,201142,201935,201949,203925,0022100092,2,1137,1137,0,2,1610612751
74,1610612765,1628402,1630165,1630180,1630191,203924,1610612751,200746,201142,201935,201949,203925,0022100092,2,1150,1150,2,0,1610612765
75,1610612765,1628367,1630165,1630180,203482,203924,1610612751,201142,201933,201935,201949,203925,0022100092,2,1174,1174,0,2,1610612751
76,1610612765,1628367,1630165,1630180,203482,203924,1610612751,201142,201933,201935,201949,203925,0022100092,2,1197,1197,2,0,1610612765
77,1610612765,1628367,1630165,1630180,203482,203924,1610612751,201142,201933,201935,201949,203925,0022100092,2,1215,1215,0,2,1610612751
78,1610612765,1628367,1630165,1630180,203482,203924,1610612751,201142,201933,201935,201949,203925,0022100092,2,1228,1231,0,0,1610612765
79,1610612765,1628367,1630165,1630180,203482,203924,1610612751,201142,201933,201935,201949,203925,0022100092,2,1244,1251,0,0,1610612751
80,1610612765,1628367,1630165,1630180,203482,203924,1610612751,1628971,201142,201933,201935,203925,0022100092,2,1262,1265,0,0,1610612765
81,1610612765,1628367,1630165,1630180,203482,203924,1610612751,1628971,201142,201933,201935,203925,0022100092,2,1280,1283,0,0,1610612751
82,1610612765,1628367,1630165,1630180,203482,203924,1610612751,1628971,201142,201933,201935,203925,0022100092,2,1290,1292,0,0,1610612765
83,1610612765,1628367,1630165,1630180,203482,203924,1610612751,1628971,201142,201933,201935,203925,0022100092,2,1295,1295,0,2,1610612751
84,1610612765,1628367,1630165,1630180,203482,203924,1610612751,1628971,201142,201933,201935,203925,0022100092,2,1300,1300,0,0,1610612765
85,1610612765,1628367,1630165,1630180,203482,203924,1610612751,1628971,201142,201933,201935,203925,0022100092,2,1300,1311,0,2,1610612751
86,1610612765,1628367,1630165,1630180,203482,203924,1610612751,1628971,201142,201933,201935,203925,0022100092,2,1336,1339,0,0,1610612765
87,1610612765,1628367,1630165,1630180,203482,203924,1610612751,1628971,201142,201933,201935,203925,0022100092,2,1343,1357,0,2,1610612751
88,1610612765,1628367,1630165,1630180,203482,203924,1610612751,1628971,201142,201933,201935,203925,0022100092,2,1365,1369,2,0,1610612765
89,1610612765,1628367,1630165,1630180,203482,203924,1610612751,1628971,201142,201933,201935,203925,0022100092,2,1376,1376,0,3,1610612751
90,1610612765,1628367,1630165,1630180,203482,203924,1610612751,1628971,201142,201933,201935,203925,0022100092,2,1397,1397,2,0,1610612765
91,1610612765,1628367,1630165,1630180,203482,203924,1610612751,1628971,201142,201933,201935,203925,0022100092,2,1411,1411,0,0,1610612751
92,1610612765,1628367,1630165,1630180,203482,203924,1610612751,1628971,201142,201933,201935,203925,0022100092,2,1416,1419,0,0,1610612765
93,1610612765,1628367,1630165,1630180,203482,203924,1610612751,1628971,201142,201933,201935,203925,0022100092,2,1440,1440,0,0,1610612765
94,1610612765,1630180,203924,1630191,1628977,1630165,1610612751,201142,1628971,201933,203925,201935,0022100092,3,1440,1451,0,0,1610612765
95,1610612765,1630180,203924,1630191,1628977,1630165,1610612751,201142,1628971,201933,203925,201935,0022100092,3,1456,1460,0,0,1610612751
96,1610612765,1630180,203924,1630191,1628977,1630165,1610612751,201142,1628971,201933,203925,201935,0022100092,3,1464,1464,0,0,1610612765
97,1610612765,1630180,203924,1630191,1628977,1630165,1610612751,201142,1628971,201933,203925,201935,0022100092,3,1475,1475,0,0,1610612751
98,1610612765,1630180,203924,1630191,1628977,1630165,1610612751,201142,1628971,201933,203925,201935,0022100092,3,1498,1502,0,0,1610612765
99,1610612765,1630180,203924,1630191,1628977,1630165,1610612751,201142,1628971,201933,203925,201935,0022100092,3,1507,1507,0,2,1610612751
100,1610612765,1630180,203924,1630191,1628977,1630165,1610612751,201142,1628971,201933,203925,201935,0022100092,3,1527,1527,3,0,1610612765
101,1610612765,1630180,203924,1630191,1628977,1630165,1610612751,201142,1628971,201933,203925,201935,0022100092,3,1539,1539,0,3,1610612751
102,1610612765,1630180,203924,1630191,1628977,1630165,1610612751,201142,1628971,201933,203925,201935,0022100092,3,1562,1562,3,0,1610612765
103,1610612765,1630180,203924,1630191,1628977,1630165,1610612751,201142,1628971,201933,203925,201935,0022100092,3,1579,1589,0,2,1610612751
104,1610612765,1630180,203924,1630191,1628977,1630165,1610612751,201142,1628971,201933,203925,201935,0022100092,3,1603,1609,0,0,1610612765
105,1610612765,1630180,203924,1630191,1628977,1630165,1610612751,201142,1628971,201933,203925,201935,0022100092,3,1625,1627,0,0,1610612751
106,1610612765,1630180,203924,1630191,1628977,1630165,1610612751,201142,1628971,201933,203925,201935,0022100092,3,1634,1634,0,0,1610612765
107,1610612765,1630180,203924,1630191,1628977,1630165,1610612751,201142,1628971,201933,203925,201935,0022100092,3,1653,1657,0,0,1610612751
108,1610612765,1630180,203924,1630191,1628977,1630165,1610612751,201142,1628971,201933,203925,201935,0022100092,3,1663,1666,0,0,1610612765
109,1610612765,1630180,203924,1630191,1628977,1630165,1610612751,201142,1628971,201933,203925,201935,0022100092,3,1669,1671,0,1,1610612751
110,1610612765,1626168,1628977,1630165,1630180,1630191,1610612751,201142,1628971,201933,203925,201935,0022100092,3,1691,1691,0,0,1610612765
111,1610612765,1626168,1628977,1630165,1630180,1630191,1610612751,201142,1628971,201933,203925,201935,0022100092,3,1697,1697,0,0,1610612751
112,1610612765,1626168,1628977,1630165,1630180,1630191,1610612751,201142,1628971,201933,203925,201935,0022100092,3,1697,1711,3,0,1610612765
113,1610612765,1626168,1628367,1630180,202709,203482,1610612751,201142,1628971,201933,203925,201935,0022100092,3,1731,1731,0,2,1610612751
114,1610612765,1626168,1628367,1630180,202709,203482,1610612751,201142,1628971,201933,203925,201935,0022100092,3,1753,1753,0,0,1610612765
115,1610612765,1626168,1628367,1630180,202709,203482,1610612751,201142,1628971,201933,203925,201935,0022100092,3,1759,1759,0,0,1610612751
116,1610612765,1626168,1628367,1630180,202709,203482,1610612751,201142,1628971,201933,203925,201935,0022100092,3,1767,1770,0,0,1610612765
117,1610612765,1626168,1628367,1630180,202709,203482,1610612751,201142,1628971,201933,203925,201935,0022100092,3,1779,1779,0,3,1610612751
118,1610612765,1626168,1628367,1630180,202709,203482,1610612751,201142,1628971,201933,203925,201935,0022100092,3,1790,1803,3,0,1610612765
119,1610612765,1626168,1628367,1630180,202709,203482,1610612751,201142,201933,201935,201988,203925,0022100092,3,1822,1827,0,3,1610612751
120,1610612765,1626168,1628367,1630180,202709,203482,1610612751,201142,201933,201935,201988,203925,0022100092,3,1844,1844,3,0,1610612765
121,1610612765,1626168,1628367,1630180,202709,203482,1610612751,201142,201933,201935,201988,203925,0022100092,3,1860,1860,0,3,1610612751
122,1610612765,1626168,1628367,1630180,202709,203482,1610612751,201142,201933,201935,201988,203925,0022100092,3,1885,1887,0,0,1610612765
123,1610612765,1626168,1628367,1630180,202709,203482,1610612751,201142,201933,201935,201988,203925,0022100092,3,1891,1894,0,0,1610612751
124,1610612765,1626168,1628367,1630180,202709,203482,1610612751,201142,201933,201935,201988,203925,0022100092,3,1899,1899,2,0,1610612765
125,1610612765,1626168,1628367,1630180,202709,203482,1610612751,200746,201142,201935,201988,203925,0022100092,3,1918,1918,0,0,1610612751
126,1610612765,1626168,1628367,1630180,202709,203482,1610612751,200746,201142,201935,201988,203925,0022100092,3,1921,1921,2,0,1610612765
127,1610612765,1626168,1628367,1630180,202709,203482,1610612751,200746,201142,201935,201988,203925,0022100092,3,1921,1942,0,2,1610612751
128,1610612765,1626168,1628367,1630180,202709,203482,1610612751,200746,201142,201935,201988,203925,0022100092,3,1957,1966,4,0,1610612765
129,1610612765,1626168,1628367,1630180,202709,203482,1610612751,1627761,200746,201935,201988,203925,0022100092,3,1989,1989,0,2,1610612751
130,1610612765,1626168,1628367,1630180,202709,203482,1610612751,1627761,200746,201935,201988,203925,0022100092,3,2010,2014,0,0,1610612765
131,1610612765,1626168,1628367,1630180,202709,203482,1610612751,1627761,200746,201935,201988,203925,0022100092,3,2032,2035,0,0,1610612751
132,1610612765,1626168,1628367,1630180,202709,203482,1610612751,1627761,200746,201935,201988,203925,0022100092,3,2036,2039,0,0,1610612765
133,1610612765,1626168,1628367,1628402,202709,203482,1610612751,1627761,200746,201935,201949,201988,0022100092,3,2058,2058,0,3,1610612751
134,1610612765,1626168,1628367,1628402,202709,203482,1610612751,1627761,200746,201935,201949,201988,0022100092,3,2079,2082,0,0,1610612765
135,1610612765,1626168,1628367,1628402,202709,203482,1610612751,1627761,200746,201935,201949,201988,0022100092,3,2091,2091,0,2,1610612751
136,1610612765,1626168,1628367,1628402,202709,203482,1610612751,1627761,200746,201935,201949,201988,0022100092,3,2109,2111,0,0,1610612765
137,1610612765,1626168,1628367,1628402,202709,203482,1610612751,1627761,200746,201935,201949,201988,0022100092,3,2126,2126,0,2,1610612751
138,1610612765,1626168,1628367,1628402,202709,203482,1610612751,1627761,200746,201935,201949,201988,0022100092,3,2138,2140,0,0,1610612765
139,1610612765,1626168,1628367,1628402,202709,203482,1610612751,1627761,200746,201935,201949,201988,0022100092,3,2140,2156,0,2,1610612751
140,1610612765,1626168,1628367,1628402,1628977,202709,1610612751,1627761,200746,201935,201988,203925,0022100092,3,2158,2158,2,0,1610612765
141,1610612765,1626168,1628367,1628402,1628977,202709,1610612751,1627761,200746,201935,201949,201988,0022100092,3,2160,2160,0,0,1610612765
142,1610612765,203924,1628367,203482,202709,1628402,1610612751,201988,200746,1627761,1628975,201949,0022100092,4,2160,2168,0,0,1610612751
143,1610612765,203924,1628367,203482,202709,1628402,1610612751,201988,200746,1627761,1628975,201949,0022100092,4,2183,2186,0,0,1610612765
144,1610612765,203924,1628367,203482,202709,1628402,1610612751,201988,200746,1627761,1628975,201949,0022100092,4,2190,2190,0,2,1610612751
145,1610612765,203924,1628367,203482,202709,1628402,1610612751,201988,200746,1627761,1628975,201949,0022100092,4,2209,2211,0,0,1610612765
146,1610612765,203924,1628367,203482,202709,1628402,1610612751,201988,200746,1627761,1628975,201949,0022100092,4,2214,2217,0,0,1610612751
147,1610612765,203924,1628367,203482,202709,1628402,1610612751,201988,200746,1627761,1628975,201949,0022100092,4,2233,2236,0,0,1610612765
148,1610612765,203924,1628367,203482,202709,1628402,1610612751,201988,200746,1627761,1628975,201949,0022100092,4,2255,2255,0,2,1610612751
149,1610612765,203924,1628367,203482,202709,1628402,1610612751,201988,200746,1627761,1628975,201949,0022100092,4,2280,2282,2,0,1610612765
150,1610612765,203924,1628367,203482,202709,1628402,1610612751,201988,200746,1627761,1628975,201949,0022100092,4,2296,2296,0,2,1610612751
151,1610612765,203924,1628367,203482,202709,1628402,1610612751,201988,200746,1627761,1628975,201949,0022100092,4,2314,2314,2,0,1610612765
152,1610612765,203924,1628367,203482,202709,1628402,1610612751,201988,200746,1627761,1628975,201949,0022100092,4,2328,2328,0,0,1610612751
153,1610612765,203924,1628367,203482,202709,1628402,1610612751,201988,200746,1627761,1628975,201949,0022100092,4,2341,2345,0,0,1610612765
154,1610612765,203924,1628367,203482,202709,1628402,1610612751,201988,200746,1627761,1628975,201949,0022100092,4,2359,2359,0,0,1610612751
155,1610612765,203924,1628367,203482,202709,1628402,1610612751,201988,200746,1627761,1628975,201949,0022100092,4,2362,2362,2,0,1610612765
156,1610612765,1628367,1628402,1630568,202709,203924,1610612751,201988,200746,1627761,1628975,201949,0022100092,4,2373,2377,0,0,1610612751
157,1610612765,1628367,1628402,1630568,202709,203924,1610612751,201988,200746,1627761,1628975,201949,0022100092,4,2379,2379,0,0,1610612765
158,1610612765,1628402,1628977,1630165,1630568,203924,1610612751,1627761,1628971,1628975,200746,201949,0022100092,4,2393,2402,0,3,1610612751
159,1610612765,1628402,1628977,1630165,1630568,203924,1610612751,1627761,1628971,1628975,200746,201949,0022100092,4,2413,2413,0,0,1610612765
160,1610612765,1628402,1628977,1630165,1630568,203924,1610612751,1627761,1628971,1628975,200746,201949,0022100092,4,2419,2419,0,2,1610612751
161,1610612765,1628402,1628977,1630165,1630568,203924,1610612751,1627761,1628971,1628975,200746,201949,0022100092,4,2423,2454,0,0,1610612765
162,1610612765,1628402,1628977,1630165,1630568,203924,1610612751,1627761,1628971,1628975,200746,201949,0022100092,4,2467,2470,0,0,1610612751
163,1610612765,1628402,1628977,1630165,1630568,203924,1610612751,1627761,1628971,1628975,1630549,201949,0022100092,4,2488,2492,0,0,1610612765
164,1610612765,1628402,1628977,1630165,1630568,203924,1610612751,1627761,1628971,1628975,1630549,201949,0022100092,4,2511,2514,0,1,1610612751
165,1610612765,1628402,1628977,1630165,1630568,203585,1610612751,1627761,1628971,1628975,1630549,201949,0022100092,4,2524,2526,0,0,1610612765
166,1610612765,1628402,1628977,1630165,1630568,203585,1610612751,1627761,1628971,1628975,1630549,201949,0022100092,4,2531,2531,0,0,1610612751
167,1610612765,1628402,1628977,1630165,1630568,203585,1610612751,1627761,1628971,1628975,1630549,201949,0022100092,4,2531,2553,0,0,1610612765
168,1610612765,1628402,1628977,1630165,1630568,203585,1610612751,1627761,1628975,1630549,1630560,201949,0022100092,4,2559,2559,0,0,1610612751
169,1610612765,1628402,1628977,1630165,1630568,203585,1610612751,1627761,1628975,1630549,1630560,201949,0022100092,4,2561,2561,0,0,1610612765
170,1610612765,1628402,1628977,1630240,1630568,203585,1610612751,1627761,1628975,1630549,1630560,201949,0022100092,4,2572,2572,0,2,1610612751
171,1610612765,1628402,1628977,1630240,1630568,203585,1610612751,1627761,1628975,1630549,1630560,201949,0022100092,4,2588,2601,3,0,1610612765
172,1610612765,1628402,1628977,1630240,1630568,203585,1610612751,1627761,1628975,1630549,1630560,201949,0022100092,4,2621,2627,0,2,1610612751
173,1610612765,1628402,1628977,1630240,1630568,203585,1610612751,1627761,1628975,1630549,1630560,201949,0022100092,4,2641,2641,2,0,1610612765
174,1610612765,1628402,1628977,1630240,1630568,203585,1610612751,1627761,1628975,1630549,1630560,201949,0022100092,4,2642,2642,0,0,1610612751
175,1610612765,1628977,1630240,1630568,1630691,203585,1610612751,1627761,1628975,1630549,1630560,201949,0022100092,4,2656,2656,3,0,1610612765
176,1610612765,1628977,1630240,1630568,1630691,203585,1610612751,1627761,1628975,1630549,1630560,201949,0022100092,4,2674,2674,0,0,1610612751
177,1610612765,1628977,1630240,1630568,1630691,203585,1610612751,1627761,1628975,1630549,1630560,201949,0022100092,4,2688,2692,0,0,1610612765
178,1610612765,1628977,1630240,1630568,1630691,203585,1610612751,1627761,1628975,1630549,1630560,201949,0022100092,4,2705,2705,0,3,1610612751
179,1610612765,1628977,1630240,1630568,1630691,203585,1610612751,1627761,1628975,1630549,1630560,201949,0022100092,4,2728,2730,0,0,1610612765
180,1610612765,1628977,1630240,1630568,1630691,203585,1610612751,1627761,1628975,1630549,1630560,201949,0022100092,4,2736,2739,0,0,1610612751
181,1610612765,1628977,1630240,1630568,1630691,203585,1610612751,1627761,1628975,1630549,1630560,201949,0022100092,4,2753,2753,2,0,1610612765
182,1610612765,1628977,1630240,1630568,1630691,203585,1610612751,1627761,1628975,1630549,1630560,201949,0022100092,4,2764,2767,0,0,1610612751
183,1610612765,1628977,1630240,1630568,1630691,203585,1610612751,1627761,1628975,1630549,1630560,201949,0022100092,4,2770,2770,1,0,1610612765
184,1610612765,1628977,1630240,1630568,1630691,203585,1610612751,1627761,1628975,1630549,1630560,201949,0022100092,4,2783,2786,0,0,1610612751
185,1610612765,1628977,1630240,1630568,1630691,203585,1610612751,1627761,1628975,1630549,1630560,201949,0022100092,4,2791,2791,0,0,1610612765
186,1610612765,1628977,1630240,1630568,1630691,203585,1610612751,1627761,1628975,1630549,1630560,201949,0022100092,4,2810,2810,0,2,1610612751
187,1610612765,1628977,1630240,1630568,1630691,203585,1610612751,1627761,1628975,1630549,1630560,201949,0022100092,4,2821,2821,0,0,1610612765
188,1610612765,1628977,1630240,1630568,1630691,203585,1610612751,1627761,1628975,1630549,1630560,201949,0022100092,4,2824,2824,0,0,1610612751
189,1610612765,1628977,1630240,1630568,1630691,203585,1610612751,1627761,1628975,1630549,1630560,201949,0022100092,4,2847,2851,0,0,1610612765
190,1610612765,1628977,1630240,1630568,1630691,203585,1610612751,1627761,1628975,1630549,1630560,201949,0022100092,4,2874,2874,0,0,1610612751
