,TEAM_ID_1,TEAM_1_PLAYERS,TEAM_ID_2,TEAM_2_PLAYERS,PERIOD
0,1610612752,[1629628  203944 1629011  203095  202692],1610612758,[ 203084 1626168 1627734  203200 1628368],1
1,1610612752,[1629628 1630193 1629629  201959 1630540],1610612758,[1627734  203200 1630558 1628978 1628367],2
2,1610612752,[1629628  203944  203095  202692  201959],1610612758,[ 203084 1626168 1627734  203200 1628368],3
3,1610612752,[1629628 1630579 1630193 1629629 1630540],1610612758,[ 203084 1627734  203200 1630558 1628978],4
