,team1_id,team1_player1,team1_player2,team1_player3,team1_player4,team1_player5,team2_id,team2_player1,team2_player2,team2_player3,team2_player4,team2_player5,game_id,period,possession_start,possession_end,team1_points,team2_points,possession_team
0,1610612765,1630180,203924,203486,1628367,202709,1610612742,1627827,204001,203939,1626196,1629029,0022000442,1,0,18,0,0,1610612765
1,1610612765,1630180,203924,203486,1628367,202709,1610612742,1627827,204001,203939,1626196,1629029,0022000442,1,36,36,0,2,1610612742
2,1610612765,1630180,203924,203486,1628367,202709,1610612742,1627827,204001,203939,1626196,1629029,0022000442,1,47,47,3,0,1610612765
3,1610612765,1630180,203924,203486,1628367,202709,1610612742,1627827,204001,203939,1626196,1629029,0022000442,1,62,64,0,0,1610612742
4,1610612765,1630180,203924,203486,1628367,202709,1610612742,1627827,204001,203939,1626196,1629029,0022000442,1,70,70,3,0,1610612765
5,1610612765,1630180,203924,203486,1628367,202709,1610612742,1627827,204001,203939,1626196,1629029,0022000442,1,86,90,0,0,1610612742
6,1610612765,1630180,203924,203486,1628367,202709,1610612742,1627827,204001,203939,1626196,1629029,0022000442,1,101,106,2,0,1610612765
7,1610612765,1630180,203924,203486,1628367,202709,1610612742,1627827,204001,203939,1626196,1629029,0022000442,1,134,134,0,3,1610612742
8,1610612765,1630180,203924,203486,1628367,202709,1610612742,1627827,204001,203939,1626196,1629029,0022000442,1,151,151,3,0,1610612765
9,1610612765,1630180,203924,203486,1628367,202709,1610612742,1627827,204001,203939,1626196,1629029,0022000442,1,162,162,0,2,1610612742
10,1610612765,1630180,203924,203486,1628367,202709,1610612742,1627827,204001,203939,1626196,1629029,0022000442,1,171,173,0,0,1610612765
11,1610612765,1630180,203924,203486,1628367,202709,1610612742,1627827,204001,203939,1626196,1629029,0022000442,1,180,180,0,3,1610612742
12,1610612765,1630180,203924,203486,1628367,202709,1610612742,1627827,204001,203939,1626196,1629029,0022000442,1,191,199,2,0,1610612765
13,1610612765,1630180,203924,203486,1628367,202709,1610612742,1627827,204001,203939,1626196,1629029,0022000442,1,210,210,0,2,1610612742
14,1610612765,1630180,203924,203486,1628367,202709,1610612742,1627827,204001,203939,1626196,1629029,0022000442,1,228,230,1,0,1610612765
15,1610612765,1630180,203924,203486,1628367,202709,1610612742,1627827,204001,203939,1626196,1629029,0022000442,1,243,243,0,3,1610612742
16,1610612765,1630180,203924,203486,1628367,202709,1610612742,1627827,204001,203939,1626196,1629029,0022000442,1,263,263,2,0,1610612765
17,1610612765,1630180,203924,203486,1628367,202709,1610612742,1627827,204001,203939,1626196,1629029,0022000442,1,274,277,0,0,1610612742
18,1610612765,1630180,203924,203486,1628367,202709,1610612742,1627827,204001,203939,1626196,1629029,0022000442,1,285,285,2,0,1610612765
19,1610612765,1630180,203924,203486,1628367,202709,1610612742,1627827,204001,203939,1626196,1629029,0022000442,1,292,292,0,3,1610612742
20,1610612765,1630180,203924,203486,1628367,202709,1610612742,1627827,204001,203939,1626196,1629029,0022000442,1,309,320,3,0,1610612765
21,1610612765,1630180,203924,203486,1628367,202709,1610612742,1627827,204001,203939,1626196,1629029,0022000442,1,321,340,0,0,1610612742
22,1610612765,1630180,203924,203486,1628367,202709,1610612742,1626196,1628467,1628973,203501,204001,0022000442,1,342,342,0,0,1610612765
23,1610612765,1630180,203924,203486,1628367,202709,1610612742,1626196,1628467,1628973,203501,204001,0022000442,1,353,355,0,0,1610612742
24,1610612765,1630180,203924,203486,1628367,202709,1610612742,1626196,1628467,1628973,203501,204001,0022000442,1,367,367,2,0,1610612765
25,1610612765,1630180,203924,203486,1628367,202709,1610612742,1626196,1628467,1628973,203501,204001,0022000442,1,377,384,0,0,1610612742
26,1610612765,1630180,203924,203486,1628367,202709,1610612742,1626196,1628467,1628973,203501,204001,0022000442,1,393,393,2,0,1610612765
27,1610612765,1630180,203924,203486,1628367,202709,1610612742,1626196,1628467,1628973,203501,204001,0022000442,1,409,409,0,3,1610612742
28,1610612765,1630180,203924,203486,1628367,202709,1610612742,1626196,1628467,1628973,203501,204001,0022000442,1,425,429,2,0,1610612765
29,1610612765,1630180,203924,203486,1628367,202709,1610612742,1626196,1628467,1628973,203501,204001,0022000442,1,449,449,0,0,1610612742
30,1610612765,1630180,203924,203486,1628367,202709,1610612742,1626196,1628467,1628973,203501,204001,0022000442,1,474,474,2,0,1610612765
31,1610612765,1630180,203924,203486,1628367,202709,1610612742,1626196,1628467,1628973,203501,204001,0022000442,1,484,484,0,2,1610612742
32,1610612765,1630180,203924,203486,1628367,202709,1610612742,1626196,1628467,1628973,203501,204001,0022000442,1,501,504,0,0,1610612765
33,1610612765,1630180,203924,203486,1628367,202709,1610612742,1626196,1628467,1628973,203501,204001,0022000442,1,512,515,0,2,1610612742
34,1610612765,1628367,1630180,1630191,1630240,203924,1610612742,1626161,1626196,1628467,1628973,203501,0022000442,1,530,530,3,0,1610612765
35,1610612765,1628367,1630180,1630191,1630240,203924,1610612742,1626161,1628467,1628973,1629029,203501,0022000442,1,541,547,0,1,1610612742
36,1610612765,1628402,1628977,1630191,1630240,203924,1610612742,1626161,1628467,1628973,1629029,203501,0022000442,1,562,563,0,0,1610612765
37,1610612765,1628402,1628977,1630191,1630240,203924,1610612742,1626161,1628467,1628973,1629029,203501,0022000442,1,569,573,0,0,1610612742
38,1610612765,1628402,1628977,1630191,1630240,203924,1610612742,1626161,1628467,1628973,1629029,203501,0022000442,1,593,594,0,0,1610612765
39,1610612765,1628402,1628977,1630191,1630240,203924,1610612742,1626161,1628467,1628973,1629029,203501,0022000442,1,605,610,0,3,1610612742
40,1610612765,1628402,1628977,1630191,1630240,203924,1610612742,1626161,1628467,1628973,1629029,203501,0022000442,1,635,635,2,0,1610612765
41,1610612765,1628402,1628977,1630191,1630240,203924,1610612742,1626161,1628467,1628973,1629029,203501,0022000442,1,646,646,0,2,1610612742
42,1610612765,1628402,1628977,1630191,1630240,203924,1610612742,1626161,1628467,1628973,1629029,203501,0022000442,1,666,669,0,0,1610612765
43,1610612765,1628402,1628977,1630191,1630240,203924,1610612742,1626161,1628467,1628973,1629029,203501,0022000442,1,687,692,0,2,1610612742
44,1610612765,1628402,1628977,1630191,1630240,203924,1610612742,1626161,1628467,1628973,1629029,203501,0022000442,1,709,709,2,0,1610612765
45,1610612765,1628402,1628977,1630191,1630240,203924,1610612742,1626161,1628467,1628973,1629029,203501,0022000442,1,718,719,0,0,1610612742
46,1610612765,1630240,1630191,1628402,1628977,1629076,1610612742,1629029,203501,1628467,1626161,200755,0022000442,2,720,741,0,2,1610612742
47,1610612765,1630240,1630191,1628402,1628977,1629076,1610612742,1629029,203501,1628467,1626161,200755,0022000442,2,759,765,2,0,1610612765
48,1610612765,1630240,1630191,1628402,1628977,1629076,1610612742,1629029,203501,1628467,1626161,200755,0022000442,2,765,775,0,0,1610612742
49,1610612765,1630240,1630191,1628402,1628977,1629076,1610612742,1629029,203501,1628467,1626161,200755,0022000442,2,788,788,2,0,1610612765
50,1610612765,1630240,1630191,1628402,1628977,1629076,1610612742,1629029,203501,1628467,1626161,200755,0022000442,2,807,807,0,0,1610612742
51,1610612765,1630240,1630191,1628402,1628977,1629076,1610612742,1629029,203501,1628467,1626161,200755,0022000442,2,812,812,0,0,1610612765
52,1610612765,1630240,1630191,1628402,1628977,1629076,1610612742,1629029,203501,1628467,1626161,200755,0022000442,2,828,844,0,3,1610612742
53,1610612765,1630240,1630191,1628402,1628977,1629076,1610612742,1626161,1627827,1629029,200755,203501,0022000442,2,870,878,0,0,1610612765
54,1610612765,1630240,1630191,1628402,1628977,1629076,1610612742,1626161,1627827,1629029,200755,203501,0022000442,2,893,894,0,0,1610612742
55,1610612765,1630240,1630191,1628402,1628977,1629076,1610612742,1626161,1627827,1629029,200755,203501,0022000442,2,894,904,0,0,1610612765
56,1610612765,1630240,1630191,1628402,1628977,1629076,1610612742,1626196,1627827,1628467,1629029,200755,0022000442,2,913,915,0,0,1610612742
57,1610612765,1630240,1630191,1628402,1628977,1629076,1610612742,1626196,1627827,1628467,1629029,200755,0022000442,2,921,921,2,0,1610612765
58,1610612765,1630240,1630191,1628402,1628977,1629076,1610612742,1626196,1627827,1628467,1629029,200755,0022000442,2,922,939,0,0,1610612742
59,1610612765,1630240,1630191,1628402,1628977,1629076,1610612742,1626196,1627827,1628467,1629029,200755,0022000442,2,952,952,3,0,1610612765
60,1610612765,1630240,1630191,1628402,1628977,1629076,1610612742,1626196,1627827,1628467,1629029,200755,0022000442,2,965,978,0,2,1610612742
61,1610612765,1628402,1628977,1629076,202709,203486,1610612742,1627827,1628467,1628973,200755,204001,0022000442,2,995,998,0,0,1610612765
62,1610612765,1628402,1628977,1629076,202709,203486,1610612742,1627827,1628467,1628973,200755,204001,0022000442,2,1003,1003,0,2,1610612742
63,1610612765,1628402,1628977,1629076,202709,203486,1610612742,1627827,1628467,1628973,200755,204001,0022000442,2,1017,1020,0,0,1610612765
64,1610612765,1628402,1628977,1629076,202709,203486,1610612742,1627827,1628467,1628973,200755,204001,0022000442,2,1029,1031,0,0,1610612742
65,1610612765,1628402,1628977,1629076,202709,203486,1610612742,1627827,1628467,1628973,200755,204001,0022000442,2,1049,1049,2,0,1610612765
66,1610612765,1628402,1628977,1629076,202709,203486,1610612742,1627827,1628467,1628973,200755,204001,0022000442,2,1061,1061,0,2,1610612742
67,1610612765,1628402,1628977,1629076,202709,203486,1610612742,1627827,1628467,1628973,200755,204001,0022000442,2,1070,1070,0,0,1610612765
68,1610612765,1628402,1628977,1629076,202709,203486,1610612742,1627827,1628467,1628973,200755,204001,0022000442,2,1077,1077,0,3,1610612742
69,1610612765,1628402,1628977,1629076,202709,203486,1610612742,1627827,1628467,1628973,200755,204001,0022000442,2,1085,1100,0,0,1610612765
70,1610612765,1628367,1630180,202709,203486,203924,1610612742,1626196,1627827,1628467,1628973,204001,0022000442,2,1114,1116,0,0,1610612742
71,1610612765,1628367,1630180,202709,203486,203924,1610612742,1626196,1627827,1628467,1628973,204001,0022000442,2,1127,1127,2,0,1610612765
72,1610612765,1628367,1630180,202709,203486,203924,1610612742,1626196,1627827,1628467,1628973,204001,0022000442,2,1140,1140,0,2,1610612742
73,1610612765,1628367,1630180,202709,203486,203924,1610612742,1626196,1627827,1628467,1628973,204001,0022000442,2,1165,1167,0,0,1610612765
74,1610612765,1628367,1630180,202709,203486,203924,1610612742,1626196,1627827,1628467,1628973,204001,0022000442,2,1184,1184,0,2,1610612742
75,1610612765,1628367,1630180,201961,202709,203486,1610612742,1626196,1627827,1628467,1628973,204001,0022000442,2,1192,1192,3,0,1610612765
76,1610612765,1628367,1630180,201961,202709,203486,1610612742,1626196,1627827,1628973,1629740,204001,0022000442,2,1203,1203,0,2,1610612742
77,1610612765,1628367,1630180,201961,202709,203486,1610612742,1626196,1627827,1628973,1629740,204001,0022000442,2,1214,1214,2,0,1610612765
78,1610612765,1628367,1630180,201961,202709,203486,1610612742,1626196,1627827,1628973,1629740,204001,0022000442,2,1230,1230,0,2,1610612742
79,1610612765,1628367,1630180,201961,202709,203486,1610612742,1626196,1627827,1628973,1629740,204001,0022000442,2,1248,1248,2,0,1610612765
80,1610612765,1628367,1630180,201961,202709,203486,1610612742,1626196,1627827,1628973,1629740,204001,0022000442,2,1259,1259,0,3,1610612742
81,1610612765,1628367,1630180,201961,202709,203486,1610612742,1626196,1627827,1628973,1629029,204001,0022000442,2,1274,1279,0,0,1610612765
82,1610612765,1628367,1630180,201961,202709,203486,1610612742,1626196,1627827,1628973,1629029,204001,0022000442,2,1283,1283,0,2,1610612742
83,1610612765,1628367,1630180,201961,202709,203486,1610612742,1626196,1627827,1628973,1629029,204001,0022000442,2,1292,1292,0,0,1610612765
84,1610612765,1628367,1630180,201961,202709,203486,1610612742,1626196,1627827,1628973,1629029,204001,0022000442,2,1301,1313,0,2,1610612742
85,1610612765,1628367,1630180,201961,202709,203486,1610612742,1627827,1628973,1629029,203501,204001,0022000442,2,1332,1333,0,0,1610612765
86,1610612765,1628367,1630180,201961,202709,203486,1610612742,1627827,1628973,1629029,203501,204001,0022000442,2,1340,1340,0,2,1610612742
87,1610612765,1628367,1630180,201961,202709,203486,1610612742,1627827,1628973,1629029,203501,204001,0022000442,2,1350,1362,2,0,1610612765
88,1610612765,1628367,1630180,201961,202709,203486,1610612742,1627827,1628973,1629029,203501,204001,0022000442,2,1373,1373,0,3,1610612742
89,1610612765,1628367,1630180,201961,202709,203486,1610612742,1627827,1628973,1629029,203501,204001,0022000442,2,1394,1396,0,0,1610612765
90,1610612765,1628367,1630180,201961,202709,203486,1610612742,1627827,1628973,1629029,203501,204001,0022000442,2,1411,1413,0,0,1610612742
91,1610612765,1628367,1630180,201961,202709,203486,1610612742,1627827,1628973,1629029,203501,204001,0022000442,2,1431,1434,0,0,1610612765
92,1610612765,1628367,1630180,201961,202709,203486,1610612742,1627827,1628973,1629029,203501,204001,0022000442,2,1440,1440,0,0,1610612765
93,1610612765,1630180,203924,203486,1628367,202709,1610612742,1627827,204001,203939,1626196,1629029,0022000442,3,1440,1454,0,0,1610612742
94,1610612765,1630180,203924,203486,1628367,202709,1610612742,1627827,204001,203939,1626196,1629029,0022000442,3,1462,1462,1,0,1610612765
95,1610612765,1630180,203924,203486,1628367,202709,1610612742,1627827,204001,203939,1626196,1629029,0022000442,3,1471,1478,0,3,1610612742
96,1610612765,1630180,203924,203486,1628367,202709,1610612742,1627827,204001,203939,1626196,1629029,0022000442,3,1498,1498,2,0,1610612765
97,1610612765,1630180,203924,203486,1628367,202709,1610612742,1627827,204001,203939,1626196,1629029,0022000442,3,1509,1509,0,2,1610612742
98,1610612765,1628367,1630180,201961,202709,203486,1610612742,1627827,204001,203939,1626196,1629029,0022000442,3,1523,1525,0,0,1610612765
99,1610612765,1628367,1630180,201961,202709,203486,1610612742,1627827,204001,203939,1626196,1629029,0022000442,3,1534,1534,0,0,1610612742
100,1610612765,1628367,1630180,201961,202709,203486,1610612742,1627827,204001,203939,1626196,1629029,0022000442,3,1545,1545,3,0,1610612765
101,1610612765,1628367,1630180,201961,202709,203486,1610612742,1627827,204001,203939,1626196,1629029,0022000442,3,1556,1560,0,0,1610612742
102,1610612765,1628367,1630180,201961,202709,203486,1610612742,1627827,204001,203939,1626196,1629029,0022000442,3,1568,1571,0,0,1610612765
103,1610612765,1628367,1630180,201961,202709,203486,1610612742,1627827,204001,203939,1626196,1629029,0022000442,3,1575,1579,0,2,1610612742
104,1610612765,1628367,1630180,201961,202709,203486,1610612742,1627827,204001,203939,1626196,1629029,0022000442,3,1596,1596,0,0,1610612765
105,1610612765,1628367,1630180,201961,202709,203486,1610612742,1627827,204001,203939,1626196,1629029,0022000442,3,1604,1604,0,0,1610612742
106,1610612765,1628367,1630180,201961,202709,203486,1610612742,1627827,204001,203939,1626196,1629029,0022000442,3,1621,1623,3,0,1610612765
107,1610612765,1628367,1630180,201961,202709,203486,1610612742,1627827,204001,203939,1626196,1629029,0022000442,3,1625,1650,0,0,1610612742
108,1610612765,1628367,1630180,201961,202709,203486,1610612742,1627827,204001,203939,1626196,1629029,0022000442,3,1663,1667,0,0,1610612765
109,1610612765,1628367,1630180,201961,202709,203486,1610612742,1627827,204001,203939,1626196,1629029,0022000442,3,1672,1675,0,1,1610612742
110,1610612765,1628367,1630180,201961,202709,203486,1610612742,1627827,204001,203939,1626196,1629029,0022000442,3,1682,1682,2,0,1610612765
111,1610612765,1628367,1630180,201961,202709,203486,1610612742,1627827,204001,203939,1626196,1629029,0022000442,3,1707,1707,0,3,1610612742
112,1610612765,1628367,1630180,201961,202709,203486,1610612742,1627827,204001,203939,1626196,1629029,0022000442,3,1717,1720,0,0,1610612765
113,1610612765,1628367,1630180,201961,202709,203486,1610612742,1627827,204001,203939,1626196,1629029,0022000442,3,1724,1724,0,2,1610612742
114,1610612765,1628367,1630180,201961,202709,203486,1610612742,1627827,204001,203939,1626196,1629029,0022000442,3,1740,1740,3,0,1610612765
115,1610612765,1628367,1630180,201961,202709,203486,1610612742,1627827,204001,203939,1626196,1629029,0022000442,3,1755,1758,0,2,1610612742
116,1610612765,1628367,1630180,201961,202709,203486,1610612742,1626196,1628973,1629740,203501,204001,0022000442,3,1768,1768,2,0,1610612765
117,1610612765,1628367,1630180,201961,202709,203486,1610612742,1626196,1628973,1629740,203501,204001,0022000442,3,1788,1799,0,2,1610612742
118,1610612765,1628367,1630180,201961,202709,203486,1610612742,1626196,1628973,1629740,203501,204001,0022000442,3,1807,1807,2,0,1610612765
119,1610612765,1628977,1630180,201961,202709,203486,1610612742,1626196,1628973,1629740,203501,204001,0022000442,3,1817,1817,0,0,1610612742
120,1610612765,1628977,1630180,201961,202709,203486,1610612742,1626196,1628973,1629740,203501,204001,0022000442,3,1834,1845,2,0,1610612765
121,1610612765,1628977,1630180,1630191,201961,202709,1610612742,1626196,1628973,1629740,203501,204001,0022000442,3,1865,1868,0,2,1610612742
122,1610612765,1628977,1630180,1630191,201961,202709,1610612742,1626196,1628973,1629740,203501,204001,0022000442,3,1876,1876,3,0,1610612765
123,1610612765,1628977,1630180,1630191,201961,202709,1610612742,1626196,1628973,1629740,203501,204001,0022000442,3,1892,1892,0,2,1610612742
124,1610612765,1628977,1630180,1630191,201961,202709,1610612742,1626196,1628973,1629740,203501,204001,0022000442,3,1907,1907,3,0,1610612765
125,1610612765,1628977,1630180,1630191,201961,202709,1610612742,1626196,1628973,1629740,203501,204001,0022000442,3,1921,1923,0,0,1610612742
126,1610612765,1628977,1630180,1630191,201961,202709,1610612742,1626196,1628973,1629740,203501,204001,0022000442,3,1929,1932,0,0,1610612765
127,1610612765,1628977,1630180,1630191,201961,202709,1610612742,1626196,1628973,1629740,203501,204001,0022000442,3,1942,1942,0,2,1610612742
128,1610612765,1628977,1630180,1630191,201961,202709,1610612742,1626196,1628973,1629740,203501,204001,0022000442,3,1961,1961,2,0,1610612765
129,1610612765,1628977,1630180,1630191,201961,202709,1610612742,1626196,1628973,1629740,203501,204001,0022000442,3,1977,1977,0,3,1610612742
130,1610612765,1628977,1630180,1630191,201961,202709,1610612742,1626196,1628973,1629740,203501,204001,0022000442,3,1985,1992,0,0,1610612765
131,1610612765,1628977,1630180,1630191,201961,202709,1610612742,1626196,1628973,1629740,203501,204001,0022000442,3,1999,2001,0,0,1610612742
132,1610612765,1628977,1630180,1630191,201961,202709,1610612742,1626196,1628973,1629740,203501,204001,0022000442,3,2014,2017,0,0,1610612765
133,1610612765,1628977,1630180,1630191,201961,202709,1610612742,1626196,1628973,1629740,203501,204001,0022000442,3,2024,2024,0,3,1610612742
134,1610612765,1628977,1630180,1630191,201961,202709,1610612742,1626161,1626196,1627827,1629029,203501,0022000442,3,2042,2044,1,0,1610612765
135,1610612765,1628977,1630180,1630191,201961,202709,1610612742,1626161,1627827,1628973,1629029,203501,0022000442,3,2064,2064,0,2,1610612742
136,1610612765,1628977,1630180,1630191,201961,202709,1610612742,1626161,1627827,1628973,1629029,203501,0022000442,3,2088,2089,0,0,1610612765
137,1610612765,1628977,1630180,1630191,201961,202709,1610612742,1626161,1627827,1628973,1629029,203501,0022000442,3,2106,2111,0,0,1610612742
138,1610612765,1628977,1630180,1630191,201961,202709,1610612742,1626161,1627827,1628973,1629029,203501,0022000442,3,2123,2123,0,0,1610612765
139,1610612765,1628977,1630180,1630191,201961,202709,1610612742,1626161,1627827,1628973,1629029,203501,0022000442,3,2127,2127,0,2,1610612742
140,1610612765,1628977,1630180,1630191,201961,202709,1610612742,1626161,1627827,1628973,1629029,203501,0022000442,3,2133,2133,3,0,1610612765
141,1610612765,1628977,1630180,1630191,201961,202709,1610612742,1626161,1627827,1628973,1629029,203501,0022000442,3,2154,2157,0,0,1610612742
142,1610612765,1628977,1630180,1630191,201961,202709,1610612742,1626161,1627827,1628973,1629029,203501,0022000442,3,2160,2160,0,0,1610612742
143,1610612765,203924,203486,202709,1628402,1628977,1610612742,1627827,1629029,203501,1626161,200755,0022000442,4,2160,2171,0,0,1610612765
144,1610612765,203924,203486,202709,1628402,1628977,1610612742,1627827,1629029,203501,1626161,200755,0022000442,4,2186,2191,0,0,1610612742
145,1610612765,203924,203486,202709,1628402,1628977,1610612742,1627827,1629029,203501,1626161,200755,0022000442,4,2204,2207,0,0,1610612765
146,1610612765,203924,203486,202709,1628402,1628977,1610612742,1627827,1629029,203501,1626161,200755,0022000442,4,2217,2217,0,1,1610612742
147,1610612765,203924,203486,202709,1628402,1628977,1610612742,1627827,1629029,203501,1626161,200755,0022000442,4,2229,2233,0,0,1610612765
148,1610612765,203924,203486,202709,1628402,1628977,1610612742,1627827,1629029,203501,1626161,200755,0022000442,4,2245,2251,0,1,1610612742
149,1610612765,203924,203486,202709,1628402,1628977,1610612742,1627827,1629029,203501,1626161,200755,0022000442,4,2261,2261,0,0,1610612765
150,1610612765,203924,203486,202709,1628402,1628977,1610612742,1627827,1629029,203501,1626161,200755,0022000442,4,2272,2272,0,3,1610612742
151,1610612765,203924,203486,202709,1628402,1628977,1610612742,1627827,1629029,203501,1626161,200755,0022000442,4,2289,2289,2,0,1610612765
152,1610612765,203924,203486,202709,1628402,1628977,1610612742,1627827,1629029,203501,1626161,200755,0022000442,4,2302,2302,0,2,1610612742
153,1610612765,203924,203486,202709,1628402,1628977,1610612742,1627827,1629029,203501,1626161,200755,0022000442,4,2303,2328,0,0,1610612765
154,1610612765,1628367,1628402,1630240,203486,203924,1610612742,1627827,1629029,203501,1626161,200755,0022000442,4,2341,2344,0,0,1610612742
155,1610612765,1628367,1628402,1630240,203486,203924,1610612742,1627827,1629029,203501,1626161,200755,0022000442,4,2356,2360,0,0,1610612765
156,1610612765,1628367,1628402,1630240,203486,203924,1610612742,1627827,1629029,203501,1626161,200755,0022000442,4,2366,2370,0,2,1610612742
157,1610612765,1628367,1628402,1630240,203486,203924,1610612742,1627827,1629029,203501,1626161,200755,0022000442,4,2370,2395,2,0,1610612765
158,1610612765,1628367,1628402,1630240,203486,203924,1610612742,1626196,1627827,1629029,200755,204001,0022000442,4,2414,2416,0,1,1610612742
159,1610612765,1628367,1628402,1630240,203486,203924,1610612742,1626196,1627827,1628973,200755,204001,0022000442,4,2434,2434,0,0,1610612765
160,1610612765,1628367,1628402,1630240,203486,203924,1610612742,1626196,1627827,1628973,200755,204001,0022000442,4,2444,2447,0,0,1610612742
161,1610612765,1628367,1628402,1630240,203486,203924,1610612742,1626196,1627827,1628973,200755,204001,0022000442,4,2457,2458,0,0,1610612765
162,1610612765,1628367,1628402,1630240,203486,203924,1610612742,1626196,1627827,1628973,200755,204001,0022000442,4,2467,2471,0,0,1610612742
163,1610612765,1628367,1628402,1630240,203486,203924,1610612742,1626196,1627827,1628973,200755,204001,0022000442,4,2486,2486,2,0,1610612765
164,1610612765,1628367,1628402,1630240,203486,203924,1610612742,1626196,1627827,1628973,200755,204001,0022000442,4,2507,2510,0,0,1610612742
165,1610612765,1628367,1628402,1630240,203486,203924,1610612742,1626196,1627827,1628973,200755,204001,0022000442,4,2516,2516,0,0,1610612765
166,1610612765,1628367,1628402,1630240,203486,203924,1610612742,1626196,1627827,1628973,200755,204001,0022000442,4,2516,2537,0,0,1610612742
167,1610612765,1628367,1628402,1630240,203486,203924,1610612742,1626196,1627827,1628973,200755,204001,0022000442,4,2540,2543,3,0,1610612765
168,1610612765,1628367,1628402,1630191,1630240,203924,1610612742,1626196,1627827,1628973,200755,204001,0022000442,4,2545,2558,0,2,1610612742
169,1610612765,1628367,1628402,1630191,1630240,203924,1610612742,1626196,1627827,1628973,1629029,204001,0022000442,4,2570,2574,1,0,1610612765
170,1610612765,1628367,1628402,1630191,202709,203924,1610612742,1626196,1627827,1628973,1629029,204001,0022000442,4,2595,2599,0,0,1610612742
171,1610612765,1628367,1628402,1630191,202709,203924,1610612742,1626196,1627827,1628973,1629029,204001,0022000442,4,2612,2613,0,0,1610612765
172,1610612765,1628367,1628402,1630191,202709,203924,1610612742,1626196,1627827,1628973,1629029,204001,0022000442,4,2637,2638,0,0,1610612742
173,1610612765,1628367,1628402,1630191,202709,203924,1610612742,1626196,1627827,1628973,1629029,204001,0022000442,4,2654,2654,2,0,1610612765
174,1610612765,1628367,1628402,1630191,202709,203924,1610612742,1626196,1627827,1628973,1629029,204001,0022000442,4,2672,2674,0,0,1610612742
175,1610612765,1628367,1628402,1630191,202709,203924,1610612742,1626196,1627827,1628973,1629029,204001,0022000442,4,2674,2674,2,0,1610612765
176,1610612765,1628367,201961,202709,203486,203924,1610612742,1627827,1628973,1629029,203501,204001,0022000442,4,2689,2691,0,1,1610612742
177,1610612765,1628367,201961,202709,203486,203924,1610612742,1627827,1628973,1629029,203501,204001,0022000442,4,2697,2697,0,0,1610612765
178,1610612765,1628367,201961,202709,203486,203924,1610612742,1627827,1628973,1629029,203501,204001,0022000442,4,2700,2700,0,2,1610612742
179,1610612765,1628367,201961,202709,203486,203924,1610612742,1627827,1628973,1629029,203501,204001,0022000442,4,2717,2717,3,0,1610612765
180,1610612765,1628367,201961,202709,203486,203924,1610612742,1627827,1628973,1629029,203501,204001,0022000442,4,2738,2738,0,3,1610612742
181,1610612765,1628367,201961,202709,203486,203924,1610612742,1627827,1628973,1629029,203501,204001,0022000442,4,2748,2748,2,0,1610612765
182,1610612765,1628367,201961,202709,203486,203924,1610612742,1627827,1628973,1629029,203501,204001,0022000442,4,2768,2768,0,0,1610612742
183,1610612765,1628367,201961,202709,203486,203924,1610612742,1627827,1628973,1629029,203501,204001,0022000442,4,2784,2786,0,0,1610612765
184,1610612765,1628367,201961,202709,203486,203924,1610612742,1627827,1628973,1629029,203501,204001,0022000442,4,2793,2793,0,3,1610612742
185,1610612765,1628367,201961,202709,203486,203924,1610612742,1627827,1628973,1629029,203501,204001,0022000442,4,2805,2805,3,0,1610612765
186,1610612765,1628367,201961,202709,203486,203924,1610612742,1626161,1627827,1628973,1629029,203501,0022000442,4,2827,2827,0,3,1610612742
187,1610612765,1628367,1630191,201961,202709,203924,1610612742,1626161,1627827,1628973,1629029,203501,0022000442,4,2833,2833,2,0,1610612765
188,1610612765,1628367,1630191,201961,202709,203924,1610612742,1627827,1628973,1629029,203501,203939,0022000442,4,2856,2856,0,3,1610612742
189,1610612765,1628367,1630191,201961,202709,203924,1610612742,1627827,1628973,1629029,203501,203939,0022000442,4,2868,2868,3,0,1610612765
