,TEAM_ID_1,TEAM_1_PLAYERS,TEAM_ID_2,TEAM_2_PLAYERS,PERIOD
0,1610612759,[1629022 1629640 1627751 1628401 1627749],1610612742,[ 203493 1627827  203939  203501 1629029],1
1,1610612759,[1629022 1629640 1627751 1628401 1630200],1610612742,[ 203493 1628467 1626161 1628973 1628373],2
2,1610612759,[1629022 1629640 1627751 1628401 1627749],1610612742,[ 203493 1627827  203939  203501 1629029],3
3,1610612759,[1629022 1628401 1630170 1628966 1629234],1610612742,[ 203493 1627827 1628467 1628973 1628373],4
