,TEAM_ID_1,TEAM_1_PLAYERS,TEAM_ID_2,TEAM_2_PLAYERS,PERIOD
0,1610612740,[1627742 1629627  203500  202339 1628366],1610612762,[ 202711 1626220  203497 1628378  201144],1
1,1610612740,[1629627 1629638 1628404 1629637  200755],1610612762,[ 203497  201144  203903  204060 1627777],2
2,1610612740,[1627742 1629627  203500  202339 1628366],1610612762,[ 202711 1626220  203497 1628378  201144],3
3,1610612740,[1629627 1629638 1628404 1629637  200755],1610612762,[ 203497  201144  203903  204060 1627777],4
