,stint_end,t2_points_scored,t1_id,t2_id,t2_pm,t1_players,t2_players,t1_points_scored,t1_pm,stint_start,margin_per_100,num_poss
0,149,5,1610612761,1610612751,-2,"[1630567, 1627783, 203920, 1629018, 1630201]","[1628971, 201949, 203083, 203552, 201988]",7,2,0,20.0,10.0
1,219,7,1610612761,1610612751,-2,"[1630567, 1627783, 203920, 1629018, 1630201]","[1628971, 201949, 203083, 203552, 201988]",9,2,150,16.666666666666664,12.0
2,296,10,1610612761,1610612751,-4,"[1630567, 1627783, 203920, 1629018, 1630201]","[1628971, 201933, 201988, 203083, 203552]",14,4,220,21.052631578947366,19.0
3,380,16,1610612761,1610612751,-1,"[1627783, 1629018, 1630173, 1630201, 1630567]","[1630560, 201933, 201988, 203083, 203552]",17,1,297,4.0,25.0
4,403,16,1610612761,1610612751,-1,"[1627783, 1628449, 1629018, 1630173, 1630567]","[1630556, 1630560, 201933, 201988, 203083]",17,1,381,3.7037037037037033,27.0
5,606,24,1610612761,1610612751,-9,"[1627783, 1628449, 1629018, 1630173, 1630567]","[1630556, 1630560, 200746, 201933, 201988]",33,9,404,21.951219512195124,41.0
6,716,27,1610612761,1610612751,-15,"[1627783, 1628449, 1629018, 1630173, 1630201]","[1630556, 1630560, 200746, 201609, 201933]",42,15,607,31.25,48.0
7,801,31,1610612761,1610612751,-13,"[1628449, 1629018, 1630173, 1630201, 1630567]","[1630556, 200746, 201609, 201933, 203552]",44,13,717,24.074074074074073,54.0
8,889,36,1610612761,1610612751,-13,"[1630567, 1627783, 1630173, 1628449, 201152]","[1628971, 201949, 203552, 201988, 200746]",49,13,802,20.967741935483872,62.0
9,908,36,1610612761,1610612751,-13,"[1627783, 1630173, 1630201, 1630567, 201152]","[1628971, 201949, 203552, 201988, 200746]",49,13,890,20.634920634920633,63.0
10,996,36,1610612761,1610612751,-18,"[1627783, 1629139, 1630201, 1630567, 201152]","[1628971, 201949, 203552, 201988, 200746]",54,18,909,26.47058823529412,68.0
11,1104,38,1610612761,1610612751,-21,"[1627783, 1629139, 1630201, 1630567, 201152]","[1628971, 200746, 201609, 201949, 201988]",59,21,997,28.37837837837838,74.0
12,1193,38,1610612761,1610612751,-25,"[1627783, 1629139, 1630201, 1630567, 201152]","[1628971, 1630560, 200746, 201609, 201949]",63,25,1105,31.25,80.0
13,1264,39,1610612761,1610612751,-28,"[1627783, 1629018, 1630201, 1630567, 201152]","[1628971, 1630560, 201609, 201949, 203083]",67,28,1194,32.94117647058823,85.0
14,1437,45,1610612761,1610612751,-26,"[1627783, 1629018, 1630173, 1630201, 1630567]","[1628971, 1630561, 201949, 203083, 203552]",71,26,1265,27.083333333333332,96.0
15,1756,58,1610612761,1610612751,-23,"[1627783, 1629018, 1630173, 1630201, 1630567]","[1628971, 1630561, 200746, 201988, 203552]",81,23,1438,20.72072072072072,111.0
16,1789,60,1610612761,1610612751,-23,"[1630567, 1627783, 203920, 1629018, 1630201]","[1628971, 201949, 203083, 203552, 201988]",83,23,1757,20.353982300884958,113.0
17,1815,60,1610612761,1610612751,-23,"[1630567, 1627783, 203920, 1629018, 1630201]","[1628971, 1630560, 201949, 203083, 203552]",83,23,1790,20.0,115.0
18,1859,60,1610612761,1610612751,-27,"[1627783, 1629018, 1630173, 1630201, 1630567]","[1628971, 1630560, 201949, 203083, 203552]",87,27,1816,22.5,120.0
19,1912,62,1610612761,1610612751,-27,"[1627783, 1629018, 1630173, 1630201, 1630567]","[1628971, 1630556, 1630560, 203083, 203552]",89,27,1860,21.951219512195124,123.0
20,1969,63,1610612761,1610612751,-28,"[1627783, 1628449, 1629018, 1630173, 1630201]","[1628971, 1630556, 1630560, 200746, 203552]",91,28,1913,21.875,128.0
21,2083,67,1610612761,1610612751,-30,"[1628449, 1629018, 1630173, 1630201, 1630567]","[1630556, 1630560, 200746, 201609, 203552]",97,30,1970,21.73913043478261,138.0
22,2157,69,1610612761,1610612751,-31,"[1628449, 1629018, 1630173, 1630201, 1630567]","[1630556, 1630560, 1630561, 200746, 201609]",100,31,2084,21.678321678321677,143.0
23,2290,71,1610612761,1610612751,-38,"[1629018, 1630173, 1630567, 1630625, 201152]","[1630556, 1630560, 1630561, 200746, 201609]",109,38,2158,24.675324675324674,154.0
24,2344,76,1610612761,1610612751,-33,"[1630567, 1630201, 1630173, 201152, 1630625]","[1630556, 201609, 1630561, 1629651, 1630549]",109,33,2291,21.019108280254777,157.0
25,2493,81,1610612761,1610612751,-35,"[1629004, 1629139, 1630551, 1630625, 201152]","[1630556, 201609, 1630561, 1629651, 1630549]",116,35,2345,20.958083832335326,167.0
26,2863,97,1610612761,1610612751,-36,"[1629004, 1629139, 1630551, 1630625, 201152]","[1629651, 1630549, 1630556, 1630560, 1630561]",133,36,2494,18.367346938775512,196.0
27,9999999,97,1610612761,1610612751,-36,"[1628391, 1629004, 1629139, 1630551, 1630625]","[1629651, 1630549, 1630556, 1630560, 1630561]",133,36,2864,18.274111675126903,197.0
