,TEAM_ID_1,TEAM_1_PLAYERS,TEAM_ID_2,TEAM_2_PLAYERS,PERIOD
0,1610612743,[1629008  203932  203999  203085 1630267],1610612756,[1628969  203109 1629028 1626164  101108],1
1,1610612743,[1629008  203115  203210 1628420  200794],1610612756,[ 101108  203967 1626166 1629661 1628470],2
2,1610612743,[1629008  203932  203999  203085 1630267],1610612756,[1628969  203109 1629028 1626164  101108],3
3,1610612743,[1629008  203210 1628420  200794 1630210],1610612756,[ 101108  203967 1626166 1629661 1628470],4
