,TEAM_ID_1,TEAM_1_PLAYERS,TEAM_ID_2,TEAM_2_PLAYERS,PERIOD
0,1610612759,[ 201942 1629640 1627751 1627749 1629022],1610612752,[ 203493  203944  203457 1629628  203901],1
1,1610612759,[1627751 1627749  201988  200752 1630170],1610612752,[1629628 1630193  201959  202692 1630167],2
2,1610612759,[ 201942 1629640 1627751 1627749 1629022],1610612752,[ 203493  203944  203457 1629628  203901],3
3,1610612759,[ 201942 1627751 1627749  201988  200752],1610612752,[ 203493  203944 1629628  201959  202692],4
