,team1_id,team1_player1,team1_player2,team1_player3,team1_player4,team1_player5,team2_id,team2_player1,team2_player2,team2_player3,team2_player4,team2_player5,game_id,period,possession_start,possession_end,team1_points,team2_points,possession_team
0,1610612743,1629008,200794,203999,203115,1627750,1610612753,203932,202329,202696,203095,203487,0022000661,1,0,20,0,2,1610612753
1,1610612743,1629008,200794,203999,203115,1627750,1610612753,203932,202329,202696,203095,203487,0022000661,1,46,50,0,0,1610612743
2,1610612743,1629008,200794,203999,203115,1627750,1610612753,203932,202329,202696,203095,203487,0022000661,1,58,58,0,2,1610612753
3,1610612743,1629008,200794,203999,203115,1627750,1610612753,203932,202329,202696,203095,203487,0022000661,1,76,92,0,0,1610612743
4,1610612743,1629008,200794,203999,203115,1627750,1610612753,203932,202329,202696,203095,203487,0022000661,1,109,110,0,0,1610612753
5,1610612743,1629008,200794,203999,203115,1627750,1610612753,203932,202329,202696,203095,203487,0022000661,1,116,116,2,0,1610612743
6,1610612743,1629008,200794,203999,203115,1627750,1610612753,203932,202329,202696,203095,203487,0022000661,1,131,133,0,0,1610612753
7,1610612743,1629008,200794,203999,203115,1627750,1610612753,203932,202329,202696,203095,203487,0022000661,1,143,143,3,0,1610612743
8,1610612743,1629008,200794,203999,203115,1627750,1610612753,203932,202329,202696,203095,203487,0022000661,1,156,160,0,0,1610612753
9,1610612743,1629008,200794,203999,203115,1627750,1610612753,203932,202329,202696,203095,203487,0022000661,1,166,168,0,0,1610612743
10,1610612743,1629008,200794,203999,203115,1627750,1610612753,203932,202329,202696,203095,203487,0022000661,1,177,177,0,0,1610612753
11,1610612743,1629008,200794,203999,203115,1627750,1610612753,203932,202329,202696,203095,203487,0022000661,1,192,195,0,0,1610612743
12,1610612743,1629008,200794,203999,203115,1627750,1610612753,203932,202329,202696,203095,203487,0022000661,1,203,206,0,0,1610612753
13,1610612743,1629008,200794,203999,203115,1627750,1610612753,203932,202329,202696,203095,203487,0022000661,1,215,215,0,0,1610612743
14,1610612743,1629008,200794,203999,203115,1627750,1610612753,203932,202329,202696,203095,203487,0022000661,1,219,231,0,0,1610612753
15,1610612743,1629008,200794,203999,203115,1627750,1610612753,203932,202329,202696,203095,203487,0022000661,1,242,242,2,0,1610612743
16,1610612743,1629008,200794,203999,203115,1627750,1610612753,203932,202329,202696,203095,203487,0022000661,1,266,266,0,0,1610612753
17,1610612743,1629008,200794,203999,203115,1627750,1610612753,203932,202329,202696,203095,203487,0022000661,1,285,285,2,0,1610612743
18,1610612743,1629008,200794,203999,203115,1627750,1610612753,203932,202329,202696,203095,203487,0022000661,1,306,306,0,2,1610612753
19,1610612743,1629008,200794,203999,203115,1627750,1610612753,203932,202329,202696,203095,203487,0022000661,1,334,334,0,0,1610612743
20,1610612743,1629008,200794,203999,203115,1627750,1610612753,203932,202329,202696,203095,203487,0022000661,1,338,341,0,0,1610612753
21,1610612743,1629008,200794,203999,203115,1627750,1610612753,203932,202329,202696,203095,203487,0022000661,1,347,347,2,0,1610612743
22,1610612743,1629008,200794,203999,203115,1627750,1610612753,203932,202329,202696,203095,203487,0022000661,1,365,365,0,0,1610612753
23,1610612743,1629008,200794,203999,203115,1627750,1610612753,203932,202329,202696,203095,203487,0022000661,1,370,372,0,0,1610612743
24,1610612743,1629008,200794,203999,203115,1627750,1610612753,203932,202329,202696,203095,203487,0022000661,1,382,382,0,2,1610612753
25,1610612743,1629008,200794,203999,203115,1627750,1610612753,203932,202329,202696,203095,203487,0022000661,1,401,401,2,0,1610612743
26,1610612743,1629008,200794,203999,203115,1627750,1610612753,203932,202329,202696,203095,203487,0022000661,1,408,422,0,0,1610612753
27,1610612743,1629008,1630267,200794,203115,203999,1610612753,1628407,1629643,202696,203095,203487,0022000661,1,432,432,2,0,1610612743
28,1610612743,1629008,1630267,200794,203115,203999,1610612753,1628407,1629643,202696,203095,203487,0022000661,1,451,451,0,2,1610612753
29,1610612743,1629008,1630267,200794,203115,203999,1610612753,1628407,1629643,202696,203095,203487,0022000661,1,473,473,2,0,1610612743
30,1610612743,1629008,1630267,200794,203115,203999,1610612753,1628407,1629643,202696,203095,203487,0022000661,1,483,495,0,3,1610612753
31,1610612743,1629008,1630267,203115,203210,203999,1610612753,1628407,1629643,202696,203487,203516,0022000661,1,514,514,2,0,1610612743
32,1610612743,1629008,1630267,203115,203210,203999,1610612753,1628407,1629643,202696,203487,203516,0022000661,1,533,536,0,0,1610612753
33,1610612743,1629008,1630267,203115,203210,203999,1610612753,1628407,1629643,202696,203487,203516,0022000661,1,558,565,3,0,1610612743
34,1610612743,1629008,1630267,203115,203210,203999,1610612753,1628407,1629643,202696,203487,203516,0022000661,1,588,588,0,0,1610612753
35,1610612743,1629008,1630267,203115,203210,203999,1610612753,1628407,1629643,202696,203487,203516,0022000661,1,591,591,0,0,1610612743
36,1610612743,1629008,1630267,203115,203210,203999,1610612753,1628407,1629643,202696,203487,203516,0022000661,1,600,600,0,0,1610612753
37,1610612743,1629008,1630267,203115,203210,203999,1610612753,1628407,1629643,202696,203487,203516,0022000661,1,608,608,2,0,1610612743
38,1610612743,1629008,1630267,203115,203210,203999,1610612753,1628407,1629643,202696,203487,203516,0022000661,1,618,618,0,0,1610612753
39,1610612743,1629008,1630267,203115,203210,203999,1610612753,1628407,1629643,202696,203487,203516,0022000661,1,623,639,2,0,1610612743
40,1610612743,1627750,1628408,1630192,1630267,203210,1610612753,1628407,1629643,203516,203920,203932,0022000661,1,663,663,0,2,1610612753
41,1610612743,1627750,1628408,1630192,1630267,203210,1610612753,1628407,1629643,203516,203920,203932,0022000661,1,673,673,2,0,1610612743
42,1610612743,1627750,1628408,1630192,1630267,203210,1610612753,1628407,1629643,203516,203920,203932,0022000661,1,691,694,0,0,1610612753
43,1610612743,1627750,1628408,1630192,1630267,203210,1610612753,1628407,1629643,203516,203920,203932,0022000661,1,715,717,2,0,1610612743
44,1610612743,1627750,1628408,1630192,1630267,203210,1610612753,1628407,1629643,203516,203920,203932,0022000661,1,720,720,0,0,1610612743
45,1610612743,1627750,1630267,203210,1628408,1630192,1610612753,203932,202329,203095,203516,203920,0022000661,2,720,744,0,0,1610612743
46,1610612743,1627750,1630267,203210,1628408,1630192,1610612753,203932,202329,203095,203516,203920,0022000661,2,756,756,0,0,1610612753
47,1610612743,1627750,1630267,203210,1628408,1630192,1610612753,203932,202329,203095,203516,203920,0022000661,2,756,756,2,0,1610612743
48,1610612743,1627750,1630267,203210,1628408,1630192,1610612753,203932,202329,203095,203516,203920,0022000661,2,756,776,0,2,1610612753
49,1610612743,1627750,1630267,203210,1628408,1630192,1610612753,203932,202329,203095,203516,203920,0022000661,2,802,805,0,0,1610612743
50,1610612743,1627750,1630267,203210,1628408,1630192,1610612753,203932,202329,203095,203516,203920,0022000661,2,807,810,0,0,1610612753
51,1610612743,1627750,1630267,203210,1628408,1630192,1610612753,203932,202329,203095,203516,203920,0022000661,2,814,814,0,0,1610612743
52,1610612743,1627750,1630267,203210,1628408,1630192,1610612753,203932,202329,203095,203516,203920,0022000661,2,819,819,0,0,1610612753
53,1610612743,1627750,1630267,203210,1628408,1630192,1610612753,203932,202329,203095,203516,203920,0022000661,2,825,825,2,0,1610612743
54,1610612743,1627750,1630267,203210,1628408,1630192,1610612753,203932,202329,203095,203516,203920,0022000661,2,840,854,0,0,1610612753
55,1610612743,1627750,1630267,203210,1628408,1630192,1610612753,203932,202329,203095,203516,203920,0022000661,2,860,860,2,0,1610612743
56,1610612743,1627750,1630267,203210,1628408,1630192,1610612753,203932,202329,203095,203516,203920,0022000661,2,864,864,0,0,1610612753
57,1610612743,1627750,1630267,203210,1628408,1630192,1610612753,203932,202329,203095,203516,203920,0022000661,2,876,876,2,0,1610612743
58,1610612743,1627750,1630267,203210,1628408,1630192,1610612753,203932,202329,203095,203516,203920,0022000661,2,884,891,0,0,1610612753
59,1610612743,1627750,1630267,203210,1628408,1630192,1610612753,203932,202329,203095,203516,203920,0022000661,2,900,903,0,0,1610612743
60,1610612743,1627750,1630267,203210,1628408,1630192,1610612753,203932,202329,203095,203516,203920,0022000661,2,904,904,0,0,1610612753
61,1610612743,1627750,1630267,203210,1628408,1630192,1610612753,203932,202329,203095,203516,203920,0022000661,2,917,922,0,0,1610612743
62,1610612743,1627750,1630267,203210,1628408,1630192,1610612753,203932,202329,203095,203516,203920,0022000661,2,943,943,0,2,1610612753
63,1610612743,1627750,1630267,203210,1628408,1630192,1610612753,203932,202329,203095,203516,203920,0022000661,2,960,960,2,0,1610612743
64,1610612743,1627750,1630267,203210,1628408,1630192,1610612753,203932,202329,203095,203516,203920,0022000661,2,980,983,0,3,1610612753
65,1610612743,1627750,1630267,203210,1628408,1630192,1610612753,203932,202329,203095,203516,203920,0022000661,2,1004,1007,0,0,1610612743
66,1610612743,1627750,1630267,203210,1628408,1630192,1610612753,203932,202329,203095,203516,203920,0022000661,2,1016,1016,0,3,1610612753
67,1610612743,1627750,1630267,203210,1628408,1630192,1610612753,203932,202329,203095,203516,203920,0022000661,2,1017,1032,3,0,1610612743
68,1610612743,1628408,1629008,1630267,203115,203999,1610612753,1628407,1629109,202696,203095,203487,0022000661,2,1047,1047,0,3,1610612753
69,1610612743,1628408,1629008,1630267,203115,203999,1610612753,1628407,1629109,202696,203095,203487,0022000661,2,1064,1065,0,0,1610612743
70,1610612743,1628408,1629008,1630267,203115,203999,1610612753,1628407,1629109,202696,203095,203487,0022000661,2,1080,1084,0,0,1610612753
71,1610612743,1628408,1629008,1630267,203115,203999,1610612753,1628407,1629109,202696,203095,203487,0022000661,2,1094,1096,0,0,1610612743
72,1610612743,1628408,1629008,1630267,203115,203999,1610612753,1628407,1629109,202696,203095,203487,0022000661,2,1101,1108,0,0,1610612753
73,1610612743,1628408,1629008,1630267,203115,203999,1610612753,1628407,1629109,202696,203095,203487,0022000661,2,1117,1117,2,0,1610612743
74,1610612743,1628408,1629008,1630267,203115,203999,1610612753,1628407,1629109,202696,203095,203487,0022000661,2,1139,1139,0,2,1610612753
75,1610612743,1628408,1629008,1630267,203115,203999,1610612753,1628407,1629109,202696,203095,203487,0022000661,2,1164,1168,0,0,1610612743
76,1610612743,1628408,1629008,1630267,203115,203999,1610612753,1628407,1629109,202696,203095,203487,0022000661,2,1170,1170,0,0,1610612753
77,1610612743,1628408,1629008,1630267,203115,203999,1610612753,1628407,1629109,202696,203095,203487,0022000661,2,1174,1174,2,0,1610612743
78,1610612743,1628408,1629008,1630267,203115,203999,1610612753,1628407,1629109,202696,203095,203487,0022000661,2,1183,1183,0,1,1610612753
79,1610612743,1627750,1629008,200794,203115,203999,1610612753,1628407,1629109,202696,203095,203487,0022000661,2,1199,1199,2,0,1610612743
80,1610612743,1627750,1629008,200794,203115,203999,1610612753,1628407,1629109,202696,203095,203487,0022000661,2,1212,1216,0,0,1610612753
81,1610612743,1627750,1629008,200794,203115,203999,1610612753,1628407,1629109,202696,203095,203487,0022000661,2,1222,1229,0,0,1610612743
82,1610612743,1627750,1629008,200794,203115,203999,1610612753,1628407,1629109,1629643,202696,203487,0022000661,2,1238,1241,0,0,1610612753
83,1610612743,1627750,1629008,200794,203115,203999,1610612753,1628407,1629109,1629643,202696,203487,0022000661,2,1244,1244,2,0,1610612743
84,1610612743,1627750,1629008,200794,203115,203999,1610612753,1628407,1629109,1629643,202696,203487,0022000661,2,1260,1260,0,3,1610612753
85,1610612743,1627750,1629008,200794,203115,203999,1610612753,1628407,1629109,1629643,202696,203487,0022000661,2,1274,1275,0,0,1610612743
86,1610612743,1627750,1629008,200794,203115,203999,1610612753,1628407,1629109,1629643,202696,203487,0022000661,2,1288,1290,0,0,1610612753
87,1610612743,1627750,1629008,200794,203115,203999,1610612753,1628407,1629109,1629643,202696,203487,0022000661,2,1295,1295,2,0,1610612743
88,1610612743,1627750,1629008,200794,203115,203999,1610612753,1628407,1629109,1629643,202696,203487,0022000661,2,1314,1314,0,3,1610612753
89,1610612743,1627750,1629008,200794,203115,203999,1610612753,1628407,1629109,1629643,202696,203487,0022000661,2,1336,1339,0,0,1610612743
90,1610612743,1627750,1629008,200794,203115,203999,1610612753,1628407,1629109,1629643,202696,203487,0022000661,2,1350,1352,0,0,1610612753
91,1610612743,1627750,1629008,200794,203115,203999,1610612753,1628407,1629109,1629643,202696,203487,0022000661,2,1356,1356,1,0,1610612743
92,1610612743,1627750,1629008,200794,203115,203999,1610612753,1629643,202696,203095,203516,203932,0022000661,2,1368,1370,0,0,1610612753
93,1610612743,1627750,1629008,200794,203115,203999,1610612753,1629643,202696,203095,203516,203932,0022000661,2,1381,1381,2,0,1610612743
94,1610612743,1627750,1629008,200794,203115,203999,1610612753,1629643,202696,203095,203516,203932,0022000661,2,1402,1402,0,0,1610612753
95,1610612743,1627750,1629008,200794,203115,203999,1610612753,1629643,202696,203095,203516,203932,0022000661,2,1404,1404,2,0,1610612743
96,1610612743,1627750,1629008,200794,203115,203999,1610612753,1629643,202696,203095,203516,203932,0022000661,2,1419,1426,0,2,1610612753
97,1610612743,1627750,1629008,200794,203115,203999,1610612753,1629643,202696,203095,203516,203932,0022000661,2,1440,1440,3,0,1610612743
98,1610612743,1627750,1629008,200794,203115,203999,1610612753,1629643,202696,203095,203516,203932,0022000661,2,1440,1452,2,0,1610612743
99,1610612743,1629008,200794,203999,203115,1627750,1610612753,203932,202329,202696,203095,203487,0022000661,3,1468,1468,0,2,1610612753
100,1610612743,1629008,200794,203999,203115,1627750,1610612753,203932,202329,202696,203095,203487,0022000661,3,1482,1482,0,0,1610612743
101,1610612743,1629008,200794,203999,203115,1627750,1610612753,203932,202329,202696,203095,203487,0022000661,3,1482,1501,0,0,1610612753
102,1610612743,1629008,200794,203999,203115,1627750,1610612753,203932,202329,202696,203095,203487,0022000661,3,1506,1509,0,0,1610612743
103,1610612743,1629008,200794,203999,203115,1627750,1610612753,203932,202329,202696,203095,203487,0022000661,3,1516,1516,0,2,1610612753
104,1610612743,1629008,200794,203999,203115,1627750,1610612753,203932,202329,202696,203095,203487,0022000661,3,1529,1532,0,0,1610612743
105,1610612743,1629008,200794,203999,203115,1627750,1610612753,203932,202329,202696,203095,203487,0022000661,3,1537,1537,0,2,1610612753
106,1610612743,1629008,200794,203999,203115,1627750,1610612753,203932,202329,202696,203095,203487,0022000661,3,1559,1562,0,0,1610612743
107,1610612743,1629008,200794,203999,203115,1627750,1610612753,203932,202329,202696,203095,203487,0022000661,3,1574,1574,0,2,1610612753
108,1610612743,1629008,200794,203999,203115,1627750,1610612753,203932,202329,202696,203095,203487,0022000661,3,1596,1596,0,0,1610612743
109,1610612743,1629008,200794,203999,203115,1627750,1610612753,203932,202329,202696,203095,203487,0022000661,3,1615,1615,0,2,1610612753
110,1610612743,1629008,200794,203999,203115,1627750,1610612753,203932,202329,202696,203095,203487,0022000661,3,1615,1638,2,0,1610612743
111,1610612743,1629008,200794,203999,203115,1627750,1610612753,203932,202329,202696,203095,203487,0022000661,3,1659,1661,0,0,1610612753
112,1610612743,1629008,200794,203999,203115,1627750,1610612753,203932,202329,202696,203095,203487,0022000661,3,1665,1674,0,0,1610612743
113,1610612743,1629008,200794,203999,203115,1627750,1610612753,203932,202329,202696,203095,203487,0022000661,3,1679,1682,0,2,1610612753
114,1610612743,1629008,200794,203999,203115,1627750,1610612753,203932,202329,202696,203095,203487,0022000661,3,1692,1704,0,0,1610612743
115,1610612743,1629008,200794,203999,203115,1627750,1610612753,203932,202329,202696,203095,203487,0022000661,3,1707,1707,0,3,1610612753
116,1610612743,1629008,200794,203999,203115,1627750,1610612753,203932,202329,202696,203095,203487,0022000661,3,1719,1719,2,0,1610612743
117,1610612743,1629008,200794,203999,203115,1627750,1610612753,203932,202329,202696,203095,203487,0022000661,3,1737,1737,0,2,1610612753
118,1610612743,1629008,200794,203999,203115,1627750,1610612753,203932,202329,202696,203095,203487,0022000661,3,1751,1755,0,0,1610612743
119,1610612743,1629008,200794,203999,203115,1627750,1610612753,203932,202329,202696,203095,203487,0022000661,3,1761,1761,0,3,1610612753
120,1610612743,1629008,200794,203999,203115,1627750,1610612753,203932,202329,202696,203095,203487,0022000661,3,1762,1787,0,0,1610612743
121,1610612743,1627750,1628408,1629008,203115,203999,1610612753,203932,202329,202696,203095,203487,0022000661,3,1806,1809,0,0,1610612753
122,1610612743,1627750,1628408,1629008,203115,203999,1610612753,203932,202329,202696,203095,203487,0022000661,3,1829,1834,2,0,1610612743
123,1610612743,1627750,1628408,1629008,203115,203999,1610612753,203932,202329,202696,203095,203487,0022000661,3,1834,1853,0,3,1610612753
124,1610612743,1627750,1628408,1629008,203115,203999,1610612753,203932,202329,202696,203095,203487,0022000661,3,1866,1866,3,0,1610612743
125,1610612743,1627750,1628408,1629008,203115,203999,1610612753,203932,202329,202696,203095,203487,0022000661,3,1879,1888,0,2,1610612753
126,1610612743,1627750,1628408,1629008,203115,203999,1610612753,203932,202329,202696,203095,203487,0022000661,3,1904,1904,2,0,1610612743
127,1610612743,1627750,1628408,1629008,203115,203999,1610612753,203932,202329,202696,203095,203487,0022000661,3,1925,1927,0,0,1610612753
128,1610612743,1627750,1628408,1629008,203115,203999,1610612753,203932,202329,202696,203095,203487,0022000661,3,1932,1936,0,0,1610612743
129,1610612743,1627750,1628408,1629008,203115,203999,1610612753,203932,202329,202696,203095,203487,0022000661,3,1945,1945,0,2,1610612753
130,1610612743,1627750,1628408,1629008,203115,203999,1610612753,203932,202329,202696,203095,203487,0022000661,3,1961,1961,0,0,1610612743
131,1610612743,1628408,1630267,203115,203210,203999,1610612753,1628407,1629643,202696,203487,203516,0022000661,3,1983,1987,0,0,1610612753
132,1610612743,1628408,1630267,203115,203210,203999,1610612753,1628407,1629643,202696,203487,203516,0022000661,3,1990,1994,0,0,1610612743
133,1610612743,1628408,1630267,203115,203210,203999,1610612753,1628407,1629643,202696,203487,203516,0022000661,3,2002,2005,0,0,1610612753
134,1610612743,1628408,1630267,203115,203210,203999,1610612753,1628407,1629643,202696,203487,203516,0022000661,3,2015,2015,0,0,1610612743
135,1610612743,1628408,1630267,203115,203210,203999,1610612753,1628407,1629643,202696,203487,203516,0022000661,3,2022,2024,0,0,1610612753
136,1610612743,1628408,1630267,203115,203210,203999,1610612753,1628407,1629643,202696,203487,203516,0022000661,3,2024,2044,2,0,1610612743
137,1610612743,1628408,1630267,203115,203210,203999,1610612753,1628407,1629643,203516,203920,203932,0022000661,3,2052,2056,0,0,1610612753
138,1610612743,1628408,1630267,203115,203210,203999,1610612753,1628407,1629643,203516,203920,203932,0022000661,3,2077,2077,2,0,1610612743
139,1610612743,1628408,1630267,203115,203210,203999,1610612753,1628407,1629643,203516,203920,203932,0022000661,3,2101,2102,0,0,1610612753
140,1610612743,1628408,1630267,203115,203210,203999,1610612753,1628407,1629643,203516,203920,203932,0022000661,3,2112,2115,0,0,1610612743
141,1610612743,1628408,1630267,203115,203210,203999,1610612753,1628407,1629643,203516,203920,203932,0022000661,3,2123,2125,0,1,1610612753
142,1610612743,1628408,1630267,203115,203210,203999,1610612753,1628407,1629643,203516,203920,203932,0022000661,3,2133,2133,2,0,1610612743
143,1610612743,1628408,1630267,203115,203210,203999,1610612753,1628407,1629643,203516,203920,203932,0022000661,3,2153,2153,0,2,1610612753
144,1610612743,1628408,1630267,203115,203210,203999,1610612753,1628407,1629643,203516,203920,203932,0022000661,3,2160,2160,0,0,1610612753
145,1610612743,1627750,1630267,203210,1628408,1630192,1610612753,203932,202329,203095,203516,203920,0022000661,4,2160,2178,0,2,1610612753
146,1610612743,1627750,1630267,203210,1628408,1630192,1610612753,203932,202329,203095,203516,203920,0022000661,4,2191,2195,0,0,1610612743
147,1610612743,1627750,1630267,203210,1628408,1630192,1610612753,203932,202329,203095,203516,203920,0022000661,4,2201,2201,0,2,1610612753
148,1610612743,1627750,1630267,203210,1628408,1630192,1610612753,203932,202329,203095,203516,203920,0022000661,4,2222,2236,0,0,1610612743
149,1610612743,1627750,1630267,203210,1628408,1630192,1610612753,203932,202329,203095,203516,203920,0022000661,4,2244,2244,0,2,1610612753
150,1610612743,1627750,1630267,203210,1628408,1630192,1610612753,203932,202329,203095,203516,203920,0022000661,4,2244,2265,3,0,1610612743
151,1610612743,1627750,1630267,203210,1628408,1630192,1610612753,203932,202329,203095,203516,203920,0022000661,4,2282,2283,0,0,1610612753
152,1610612743,1627750,1630267,203210,1628408,1630192,1610612753,203932,202329,203095,203516,203920,0022000661,4,2290,2290,2,0,1610612743
153,1610612743,1627750,1630267,203210,1628408,1630192,1610612753,203932,202329,203095,203516,203920,0022000661,4,2308,2320,0,1,1610612753
154,1610612743,1627750,1630267,203210,1628408,1630192,1610612753,203932,202329,203095,203516,203920,0022000661,4,2329,2332,0,0,1610612743
155,1610612743,1627750,1630267,203210,1628408,1630192,1610612753,203932,202329,203095,203516,203920,0022000661,4,2345,2362,0,0,1610612753
156,1610612743,1627750,1630267,203210,1628408,1630192,1610612753,203932,202329,203095,203516,203920,0022000661,4,2368,2368,2,0,1610612743
157,1610612743,1627750,1630267,203210,1628408,1630192,1610612753,203932,202329,203095,203516,203920,0022000661,4,2384,2384,0,3,1610612753
158,1610612743,1627750,1630267,203210,1628408,1630192,1610612753,203932,202329,203095,203516,203920,0022000661,4,2404,2407,0,0,1610612743
159,1610612743,1627750,1630267,203210,1628408,1630192,1610612753,203932,202329,203095,203516,203920,0022000661,4,2420,2420,0,2,1610612753
160,1610612743,1627750,1630267,203210,1628408,1630192,1610612753,203932,202329,203095,203516,203920,0022000661,4,2440,2444,2,0,1610612743
161,1610612743,1627750,1630267,203210,1628408,1630192,1610612753,203932,202329,203095,203516,203920,0022000661,4,2454,2454,0,3,1610612753
162,1610612743,1627750,1630267,203210,1628408,1630192,1610612753,203932,202329,203095,203516,203920,0022000661,4,2471,2471,2,0,1610612743
163,1610612743,1627750,1628408,1630267,203210,203999,1610612753,1628407,1629109,202696,203487,203516,0022000661,4,2480,2480,0,0,1610612753
164,1610612743,1627750,1628408,1630267,203210,203999,1610612753,1628407,1629109,202696,203487,203516,0022000661,4,2480,2507,1,0,1610612743
165,1610612743,1628408,1629008,1630267,203115,203999,1610612753,1628407,1629109,202696,203487,203516,0022000661,4,2514,2516,0,2,1610612753
166,1610612743,1627750,1628408,1629008,203115,203999,1610612753,1628407,1629109,1629643,202696,203487,0022000661,4,2534,2538,0,0,1610612743
167,1610612743,1627750,1628408,1629008,203115,203999,1610612753,1628407,1629109,1629643,202696,203487,0022000661,4,2564,2567,0,0,1610612753
168,1610612743,1627750,1628408,1629008,203115,203999,1610612753,1628407,1629109,1629643,202696,203487,0022000661,4,2567,2572,0,0,1610612743
169,1610612743,1627750,1628408,1629008,203115,203999,1610612753,1628407,1629109,1629643,202696,203487,0022000661,4,2577,2579,0,0,1610612753
170,1610612743,1627750,1628408,1629008,203115,203999,1610612753,1628407,1629109,1629643,202696,203487,0022000661,4,2597,2597,2,0,1610612743
171,1610612743,1627750,1628408,1629008,203115,203999,1610612753,1628407,1629109,1629643,202696,203487,0022000661,4,2607,2619,0,0,1610612753
172,1610612743,1627750,1628408,1629008,203115,203999,1610612753,1629643,202696,203095,203487,203932,0022000661,4,2625,2625,2,0,1610612743
173,1610612743,1627750,1628408,1629008,203115,203999,1610612753,1629643,202696,203095,203487,203932,0022000661,4,2638,2638,0,3,1610612753
174,1610612743,1627750,1628408,1629008,203115,203999,1610612753,1629643,202696,203095,203487,203932,0022000661,4,2656,2656,2,0,1610612743
175,1610612743,1627750,1628408,1629008,203115,203999,1610612753,1629643,202696,203095,203487,203932,0022000661,4,2659,2667,0,3,1610612753
176,1610612743,1627750,1628408,1629008,203115,203999,1610612753,202329,202696,203095,203487,203932,0022000661,4,2691,2691,3,0,1610612743
177,1610612743,1627750,1628408,1629008,203115,203999,1610612753,202329,202696,203095,203487,203932,0022000661,4,2710,2712,0,0,1610612753
178,1610612743,1627750,1628408,1629008,203115,203999,1610612753,202329,202696,203095,203487,203932,0022000661,4,2724,2727,3,0,1610612743
179,1610612743,1627750,1628408,1629008,203115,203999,1610612753,202329,202696,203095,203487,203932,0022000661,4,2728,2743,0,0,1610612753
180,1610612743,1627750,1628408,1629008,203115,203999,1610612753,202329,202696,203095,203487,203932,0022000661,4,2748,2757,2,0,1610612743
181,1610612743,1627750,1628408,1629008,203115,203999,1610612753,202329,202696,203095,203487,203932,0022000661,4,2767,2767,0,2,1610612753
182,1610612743,1627750,1628408,1629008,203115,203999,1610612753,202329,202696,203095,203487,203932,0022000661,4,2792,2792,2,0,1610612743
183,1610612743,1627750,1628408,1629008,203115,203999,1610612753,202329,202696,203095,203487,203932,0022000661,4,2806,2809,0,0,1610612753
184,1610612743,1627750,1628408,1629008,203115,203999,1610612753,202329,202696,203095,203487,203932,0022000661,4,2823,2827,2,0,1610612743
185,1610612743,1627750,1628408,1629008,203115,203999,1610612753,202329,202696,203095,203487,203932,0022000661,4,2834,2834,0,3,1610612753
186,1610612743,1627750,1628408,1629008,203115,203999,1610612753,202329,202696,203095,203487,203932,0022000661,4,2848,2848,0,0,1610612743
187,1610612743,1627750,1628408,1629008,203115,203999,1610612753,202329,202696,203095,203487,203932,0022000661,4,2858,2858,0,2,1610612753
