,t1_pm,t1_id,stint_start,stint_end,t2_points_scored,t2_players,t2_id,t1_players,t2_pm,t1_points_scored,margin_per_100,num_poss
0,1,1610612762,0,339,11,"[1630598, 1629647, 1630526, 1629652, 1630581]",1610612760,"[1626220, 202711, 203497, 1628378, 201144]",-1,12,4.545454545454546,22.0
1,-4,1610612762,340,480,16,"[1630598, 1629647, 1630526, 1629652, 1630581]",1610612760,"[1626220, 202711, 203497, 1628378, 201144]",4,12,-12.5,32.0
2,-4,1610612762,481,513,16,"[1630598, 1629647, 1630526, 1629652, 1630581]",1610612760,"[1626220, 1628378, 202355, 202711, 204060]",4,12,-11.76470588235294,34.0
3,-3,1610612762,514,540,17,"[1629647, 1629652, 1630177, 1630526, 1630581]",1610612760,"[1628378, 200752, 202355, 203903, 204060]",3,14,-8.333333333333332,36.0
4,-3,1610612762,541,579,17,"[1629647, 1629652, 1630177, 1630581, 202324]",1610612760,"[1628378, 200752, 203497, 203903, 204060]",3,14,-7.6923076923076925,39.0
5,-3,1610612762,580,629,19,"[1629026, 1629652, 1630177, 1630197, 202324]",1610612760,"[1628378, 200752, 203497, 203903, 204060]",3,16,-6.976744186046512,43.0
6,-4,1610612762,630,717,25,"[1629026, 1629652, 1630177, 1630197, 202324]",1610612760,"[200752, 201144, 203497, 203903, 204060]",4,21,-8.16326530612245,49.0
7,-8,1610612762,718,830,29,"[1629026, 1629660, 1630177, 1630197, 202324]",1610612760,"[200752, 201144, 203497, 203903, 204060]",8,21,-14.035087719298245,57.0
8,0,1610612762,831,937,29,"[1630177, 202324, 1630197, 1629026, 1629660]",1610612760,"[203497, 201144, 204060, 203903, 200752]",0,29,0.0,63.0
9,1,1610612762,938,973,31,"[1630177, 202324, 1630197, 1629026, 1629660]",1610612760,"[1630235, 200752, 203497, 203903, 204060]",-1,32,1.5384615384615385,65.0
10,3,1610612762,974,1007,31,"[1629026, 1629660, 1630177, 1630197, 203488]",1610612760,"[1629672, 1630235, 200752, 203903, 204060]",-3,34,4.411764705882353,68.0
11,1,1610612762,1008,1027,33,"[1629026, 1629652, 1629660, 1630177, 203488]",1610612760,"[1626220, 1628378, 1629672, 203903, 204060]",-1,34,1.4492753623188406,69.0
12,1,1610612762,1028,1103,35,"[1629026, 1629652, 1629660, 1630526, 203488]",1610612760,"[1626220, 1628378, 1629672, 202711, 203903]",-1,36,1.3513513513513513,74.0
13,0,1610612762,1104,1145,37,"[1629026, 1629652, 1630526, 1630581, 203488]",1610612760,"[1626220, 1628378, 1629672, 202711, 203903]",0,37,0.0,77.0
14,2,1610612762,1146,1248,40,"[1629647, 1629652, 1630526, 1630581, 203488]",1610612760,"[1626220, 1628378, 202711, 203497, 203903]",-2,42,2.3529411764705883,85.0
15,-1,1610612762,1249,1325,43,"[1629647, 1629652, 1630526, 1630581, 1630598]",1610612760,"[1626220, 1628378, 202711, 203497, 203903]",1,42,-1.0869565217391304,92.0
16,-2,1610612762,1326,1332,44,"[1629647, 1629652, 1630526, 1630581, 1630598]",1610612760,"[1626220, 1628378, 201144, 202711, 203497]",2,42,-2.1505376344086025,93.0
17,0,1610612762,1333,1439,49,"[1629647, 1629652, 1630526, 1630581, 1630598]",1610612760,"[1628378, 201144, 202711, 203497, 204060]",0,49,0.0,100.0
18,-2,1610612762,1440,1822,69,"[1629647, 1629652, 1630526, 1630581, 1630598]",1610612760,"[1626220, 1628378, 201144, 202711, 203497]",2,67,-1.574803149606299,127.0
19,-2,1610612762,1823,1929,74,"[1630598, 1629647, 1630526, 1629652, 1630581]",1610612760,"[1626220, 202711, 203497, 1628378, 201144]",2,72,-1.4814814814814816,135.0
20,2,1610612762,1930,2025,74,"[1629647, 1629652, 1630581, 1630598, 202324]",1610612760,"[1626220, 1628378, 1629672, 202711, 204060]",-2,76,1.4184397163120568,141.0
21,0,1610612762,2026,2086,76,"[1629647, 1629652, 1629660, 1630177, 202324]",1610612760,"[1628378, 200752, 203497, 203903, 204060]",0,76,0.0,147.0
22,3,1610612762,2087,2159,78,"[1629026, 1629660, 1630177, 1630197, 202324]",1610612760,"[200752, 201144, 203497, 203903, 204060]",-3,81,1.9736842105263157,152.0
23,0,1610612762,2160,2359,90,"[1629026, 1629660, 1630177, 1630197, 203488]",1610612760,"[200752, 201144, 203497, 203903, 204060]",0,90,0.0,164.0
24,-2,1610612762,2360,2424,92,"[1630581, 1630197, 1629026, 1629660, 203488]",1610612760,"[203497, 201144, 204060, 203903, 200752]",2,90,-1.1976047904191618,167.0
25,1,1610612762,2425,2451,92,"[1629026, 1629652, 1629660, 1630197, 202324]",1610612760,"[1628378, 1629672, 200752, 203903, 204060]",-1,93,0.591715976331361,169.0
26,1,1610612762,2452,2507,92,"[1629026, 1629652, 1629660, 1630197, 202324]",1610612760,"[1626220, 1628378, 1629672, 203903, 204060]",-1,93,0.5847953216374269,171.0
27,3,1610612762,2508,2582,94,"[1629026, 1629652, 1629660, 1630197, 202324]",1610612760,"[1626220, 1628378, 202711, 203497, 203903]",-3,97,1.7045454545454544,176.0
28,3,1610612762,2583,2620,96,"[1629647, 1629652, 1629660, 1630526, 1630581]",1610612760,"[1626220, 1628378, 202711, 203497, 203903]",-3,99,1.6853932584269662,178.0
29,5,1610612762,2621,2878,104,"[1629647, 1629652, 1630526, 1630581, 1630598]",1610612760,"[1626220, 1628378, 202711, 203497, 203903]",-5,109,2.564102564102564,195.0
30,6,1610612762,2879,9999999,104,"[1629647, 1629652, 1630526, 1630581, 1630598]",1610612760,"[1626220, 1628378, 201144, 202711, 203497]",-6,110,3.0456852791878175,197.0
