,TEAM_ID_1,TEAM_1_PLAYERS,TEAM_ID_2,TEAM_2_PLAYERS,PERIOD
0,1610612754,[ 203200 1628470 1627734 1627747 1630537],1610612760,[1630544 1629652 1630526 1630581 1628983],1
1,1610612754,[1627747 1629052  203087  202362 1630678],1610612760,[1629026 1629647 1629603 1629660 1630177],2
2,1610612754,[ 203200 1628470 1627734 1627747 1630537],1610612760,[1630544 1629652 1630581 1628983  203488],3
3,1610612754,[ 203200 1627734 1629052  203087  202362],1610612760,[1630526 1630581 1629026 1629647 1629660],4
4,1610612754,[ 203200 1627734 1627747 1629052  203087],1610612760,[1629652 1630581  203488 1629026 1629647],5
