,t1_pm,t2_pm,stint_start,t2_points_scored,t2_players,t2_id,t1_id,t1_players,stint_end,t1_points_scored,margin_per_100,num_poss
0,5,-5,0,9,"[203952, 203110, 1630164, 1626162, 1629673]",1610612744,1610612737,"[203503, 1628381, 203991, 203992, 1629027]",323,14,23.809523809523807,21.0
1,6,-6,324,9,"[203952, 203110, 1630164, 1626162, 1629673]",1610612744,1610612737,"[203503, 1628381, 203991, 203992, 1629027]",347,15,26.08695652173913,23.0
2,4,-4,348,11,"[1626162, 1630164, 1630185, 203110, 203952]",1610612744,1610612737,"[203503, 1628381, 203991, 203992, 1629027]",363,15,16.666666666666664,24.0
3,6,-6,364,11,"[1626162, 1629673, 1630164, 203110, 203952]",1610612744,1610612737,"[1628381, 1628989, 1629027, 203503, 203991]",390,17,24.0,25.0
4,9,-9,391,12,"[1629673, 1630164, 203110, 203145, 203952]",1610612744,1610612737,"[1628381, 1628989, 1629027, 203503, 203991]",466,21,29.03225806451613,31.0
5,7,-7,467,14,"[1629673, 1630164, 203110, 203145, 203952]",1610612744,1610612737,"[1628381, 1628989, 1629027, 201568, 203503]",521,21,20.588235294117645,34.0
6,4,-4,522,18,"[1626172, 1630185, 203110, 203145, 203952]",1610612744,1610612737,"[1628381, 1628989, 1629027, 201568, 203503]",584,22,10.526315789473683,38.0
7,7,-7,585,26,"[1626172, 1630185, 203110, 203145, 203952]",1610612744,1610612737,"[1628989, 1629027, 1630168, 201568, 203524]",718,33,14.893617021276595,47.0
8,6,-6,719,33,"[1626162, 1626172, 1627814, 1630185, 203145]",1610612744,1610612737,"[1628989, 1629027, 1630168, 201568, 203524]",848,39,10.714285714285714,56.0
9,8,-8,849,33,"[1626162, 1629673, 1630185, 1626172, 1627814]",1610612744,1610612737,"[1628989, 201568, 1630168, 203524, 1630219]",925,41,12.698412698412698,63.0
10,8,-8,926,33,"[1626162, 1629673, 1630185, 1626172, 1627814]",1610612744,1610612737,"[1628989, 1630219, 201568, 203524, 203991]",952,41,12.307692307692308,65.0
11,10,-10,953,33,"[1626162, 1629673, 1630185, 1626172, 1627814]",1610612744,1610612737,"[1628381, 1628989, 1630219, 203524, 203991]",1009,43,14.492753623188406,69.0
12,11,-11,1010,33,"[1629673, 1630164, 1630185, 203110, 203952]",1610612744,1610612737,"[1628381, 1628989, 1630219, 203524, 203991]",1023,44,15.714285714285714,70.0
13,12,-12,1024,40,"[1628539, 1629673, 1630164, 203110, 203952]",1610612744,1610612737,"[1628381, 1628989, 203524, 203991, 203992]",1147,52,15.384615384615385,78.0
14,19,-19,1148,45,"[1628539, 1629673, 1630164, 203110, 203952]",1610612744,1610612737,"[1628381, 1629027, 203503, 203991, 203992]",1308,64,21.59090909090909,88.0
15,19,-19,1309,45,"[1626162, 1628539, 1630164, 203110, 203952]",1610612744,1610612737,"[1628381, 1628989, 1629027, 203503, 203991]",1315,64,21.34831460674157,89.0
16,20,-20,1316,46,"[1626162, 1627814, 1629673, 203110, 203952]",1610612744,1610612737,"[1628381, 1628989, 1629027, 203503, 203991]",1339,66,21.978021978021978,91.0
17,18,-18,1340,52,"[1626162, 1627814, 1629673, 203110, 203952]",1610612744,1610612737,"[1628381, 1628989, 1629027, 201568, 203503]",1436,70,18.556701030927837,97.0
18,15,-15,1437,68,"[1626162, 1627814, 1629308, 1629673, 203952]",1610612744,1610612737,"[1628381, 1628989, 1629027, 201568, 203503]",1776,83,12.605042016806722,119.0
19,17,-17,1777,68,"[203952, 203110, 1630164, 1626162, 1629673]",1610612744,1610612737,"[203503, 1628381, 203991, 203992, 1629027]",1801,85,14.166666666666666,120.0
20,17,-17,1802,73,"[203952, 203110, 1630164, 1626162, 1629673]",1610612744,1610612737,"[1628381, 1629027, 201568, 203503, 203992]",1892,90,13.28125,128.0
21,17,-17,1893,73,"[1629673, 1630164, 203110, 203145, 203952]",1610612744,1610612737,"[1628381, 1629027, 201568, 203503, 203992]",1923,90,13.076923076923078,130.0
22,14,-14,1924,76,"[1629673, 1630164, 203110, 203145, 203952]",1610612744,1610612737,"[1629027, 201568, 203524, 203991, 203992]",1950,90,10.526315789473683,133.0
23,21,-21,1951,79,"[1626172, 1630185, 203110, 203145, 203952]",1610612744,1610612737,"[1629027, 201568, 203524, 203991, 203992]",2101,100,14.788732394366196,142.0
24,19,-19,2102,81,"[1626172, 1630185, 203110, 203145, 203952]",1610612744,1610612737,"[1628989, 1629027, 201568, 203524, 203991]",2159,100,13.013698630136986,146.0
25,19,-19,2160,88,"[1626162, 1626172, 1629308, 1630185, 203145]",1610612744,1610612737,"[1628989, 1629027, 201568, 203524, 203991]",2361,107,11.875,160.0
26,17,-17,2362,91,"[1626162, 1629673, 1630185, 1626172, 1629308]",1610612744,1610612737,"[1628381, 1628989, 201568, 203524, 1630219]",2407,108,10.493827160493826,162.0
27,17,-17,2408,91,"[1626162, 1626172, 1629672, 1629673, 1630185]",1610612744,1610612737,"[1628381, 1628989, 1629027, 203524, 203991]",2460,108,10.240963855421686,166.0
28,17,-17,2461,97,"[1626172, 1629672, 1629673, 1630185, 203952]",1610612744,1610612737,"[1628381, 1628989, 1629027, 203524, 203991]",2606,114,9.714285714285714,175.0
29,21,-21,2607,98,"[1626172, 1629672, 1629673, 1630185, 203952]",1610612744,1610612737,"[1628381, 1629027, 203524, 203991, 203992]",2669,119,11.731843575418994,179.0
30,19,-19,2670,100,"[1628539, 1629672, 1630164, 1630185, 203952]",1610612744,1610612737,"[1628381, 1628989, 1629027, 203991, 203992]",2708,119,10.555555555555555,180.0
31,21,-21,2709,100,"[1628539, 1629308, 1629672, 1630164, 1630185]",1610612744,1610612737,"[1628381, 1628989, 1630168, 1630219, 203992]",2742,121,11.538461538461538,182.0
32,24,-24,2743,100,"[1628539, 1629308, 1629672, 1630164, 1630185]",1610612744,1610612737,"[1628989, 1630168, 1630219, 1630233, 203992]",2780,124,12.972972972972974,185.0
33,19,-19,2781,105,"[1628539, 1629308, 1629672, 1630164, 1630185]",1610612744,1610612737,"[1628989, 1629164, 1630168, 1630219, 1630233]",2874,124,9.947643979057592,191.0
34,16,-16,2875,108,"[1628539, 1629308, 1629672, 1630164, 1630185]",1610612744,1610612737,"[1628981, 1629164, 1630168, 1630219, 1630233]",9999999,124,8.333333333333332,192.0
