,TEAM_ID_1,TEAM_1_PLAYERS,TEAM_ID_2,TEAM_2_PLAYERS,PERIOD
0,1610612761,[1628384 1627783  203920 1630567 1627832],1610612765,[1630180 1628977 1630191 1630595 1630165],1
1,1610612761,[1628384 1627783 1630567 1628449 1630551],1610612765,[1626168  202709 1628367 1630240 1630199],2
2,1610612761,[1628384 1627783 1630567 1627832 1630173],1610612765,[1630180 1628977 1630191 1630595 1630165],3
3,1610612761,[1627783 1630567 1627832 1628449 1629139],1610612765,[1626168  202709 1628367 1630240 1630199],4
