,team1_id,team1_player1,team1_player2,team1_player3,team1_player4,team1_player5,team2_id,team2_player1,team2_player2,team2_player3,team2_player4,team2_player5,game_id,period,possession_start,possession_end,team1_points,team2_points,possession_team
0,1610612741,1628464,1630172,202696,202066,1629632,1610612752,203493,203944,203457,1629628,203901,0022000937,1,0,14,0,2,1610612752
1,1610612741,1628464,1630172,202696,202066,1629632,1610612752,203493,203944,203457,1629628,203901,0022000937,1,38,38,2,0,1610612741
2,1610612741,1628464,1630172,202696,202066,1629632,1610612752,203493,203944,203457,1629628,203901,0022000937,1,54,64,0,0,1610612752
3,1610612741,1628464,1630172,202696,202066,1629632,1610612752,203493,203944,203457,1629628,203901,0022000937,1,71,73,0,0,1610612741
4,1610612741,1628464,1630172,202696,202066,1629632,1610612752,203493,203944,203457,1629628,203901,0022000937,1,79,79,0,3,1610612752
5,1610612741,1628464,1630172,202696,202066,1629632,1610612752,203493,203944,203457,1629628,203901,0022000937,1,98,98,2,0,1610612741
6,1610612741,1628464,1630172,202696,202066,1629632,1610612752,203493,203944,203457,1629628,203901,0022000937,1,115,117,0,0,1610612752
7,1610612741,1628464,1630172,202696,202066,1629632,1610612752,203493,203944,203457,1629628,203901,0022000937,1,125,127,0,0,1610612741
8,1610612741,1628464,1630172,202696,202066,1629632,1610612752,203493,203944,203457,1629628,203901,0022000937,1,140,140,0,2,1610612752
9,1610612741,1628464,1630172,202696,202066,1629632,1610612752,203493,203944,203457,1629628,203901,0022000937,1,156,158,0,0,1610612741
10,1610612741,1628464,1630172,202696,202066,1629632,1610612752,203493,203944,203457,1629628,203901,0022000937,1,167,167,0,3,1610612752
11,1610612741,1628464,1630172,202696,202066,1629632,1610612752,203493,203944,203457,1629628,203901,0022000937,1,188,190,0,0,1610612741
12,1610612741,1628464,1630172,202696,202066,1629632,1610612752,203493,203944,203457,1629628,203901,0022000937,1,196,198,0,0,1610612752
13,1610612741,1628464,1630172,202696,202066,1629632,1610612752,203493,203944,203457,1629628,203901,0022000937,1,208,208,2,0,1610612741
14,1610612741,1628464,1630172,202696,202066,1629632,1610612752,203493,203944,203457,1629628,203901,0022000937,1,222,222,0,2,1610612752
15,1610612741,1628464,1630172,202696,202066,1629632,1610612752,203493,203944,203457,1629628,203901,0022000937,1,237,239,0,0,1610612741
16,1610612741,1628464,1630172,202696,202066,1629632,1610612752,203493,203944,203457,1629628,203901,0022000937,1,249,251,0,0,1610612752
17,1610612741,1628464,1630172,202696,202066,1629632,1610612752,203493,203944,203457,1629628,203901,0022000937,1,262,262,0,0,1610612741
18,1610612741,1628464,1630172,202696,202066,1629632,1610612752,203493,203944,203457,1629628,203901,0022000937,1,265,267,0,2,1610612752
19,1610612741,1628464,1630172,202696,202066,1629632,1610612752,203493,203944,203457,1629628,203901,0022000937,1,278,280,0,0,1610612741
20,1610612741,1628464,1630172,202696,202066,1629632,1610612752,203493,203944,203457,1629628,203901,0022000937,1,296,296,0,2,1610612752
21,1610612741,1628464,1630172,202696,202066,1629632,1610612752,203493,203944,203457,1629628,203901,0022000937,1,322,322,2,0,1610612741
22,1610612741,1628464,1630172,202696,202066,1629632,1610612752,203493,203944,203457,1629628,203901,0022000937,1,336,336,0,3,1610612752
23,1610612741,1629632,1630172,201152,202696,203107,1610612752,203493,203944,203457,1629628,203901,0022000937,1,344,358,0,0,1610612741
24,1610612741,1629632,1630172,201152,202696,203107,1610612752,203493,203944,203457,1629628,203901,0022000937,1,373,375,0,0,1610612752
25,1610612741,1629632,1630172,201152,202696,203107,1610612752,203493,203944,203457,1629628,203901,0022000937,1,375,396,0,0,1610612741
26,1610612741,1629632,1630172,201152,202696,203107,1610612752,203493,203944,203457,1629628,203901,0022000937,1,406,406,0,2,1610612752
27,1610612741,1629632,1630172,201152,202696,203107,1610612752,203493,203944,203457,1629628,203901,0022000937,1,426,437,0,0,1610612741
28,1610612741,1629632,1630172,201152,202696,203107,1610612752,1629628,201565,201959,203493,203944,0022000937,1,451,451,0,2,1610612752
29,1610612741,1629632,1630172,201152,202696,203107,1610612752,1629628,201565,201959,203493,203944,0022000937,1,468,488,2,0,1610612741
30,1610612741,1628374,1629632,201152,202696,203107,1610612752,1629628,201565,201959,203493,203944,0022000937,1,507,507,0,3,1610612752
31,1610612741,1628374,1629632,201152,202696,203107,1610612752,1629628,201565,201959,203493,203944,0022000937,1,522,524,0,0,1610612741
32,1610612741,1628374,1629632,201152,202696,203107,1610612752,1629628,201565,201959,203493,203944,0022000937,1,536,538,0,0,1610612752
33,1610612741,1628374,1629632,201152,202696,203107,1610612752,1629628,201565,201959,203493,203944,0022000937,1,559,559,2,0,1610612741
34,1610612741,1628374,1629632,201152,202696,203107,1610612752,1629628,201565,201959,203493,203944,0022000937,1,571,571,0,2,1610612752
35,1610612741,1628374,1629632,201152,202696,203107,1610612752,1629628,201565,201959,203493,203944,0022000937,1,585,586,0,0,1610612741
36,1610612741,1628374,1629632,201152,202696,203107,1610612752,1629628,201565,201959,203493,203944,0022000937,1,589,589,0,2,1610612752
37,1610612741,1628374,1629632,201152,202696,203107,1610612752,1629628,201565,201959,203493,203944,0022000937,1,605,605,2,0,1610612741
38,1610612741,1628374,1629632,201152,202696,203107,1610612752,1629628,201565,201959,203493,203944,0022000937,1,622,624,0,0,1610612752
39,1610612741,1628374,1629632,201152,202696,203107,1610612752,1629628,201565,201959,203493,203944,0022000937,1,635,635,2,0,1610612741
40,1610612741,1628374,1629632,201152,202696,203107,1610612752,1629628,201565,201959,203493,203944,0022000937,1,650,650,0,2,1610612752
41,1610612741,1628374,1629632,201152,202696,203107,1610612752,1629628,201565,201959,203493,203944,0022000937,1,664,664,3,0,1610612741
42,1610612741,1628374,1628464,201152,202066,203107,1610612752,1629628,1630193,201565,201959,203944,0022000937,1,686,688,0,0,1610612752
43,1610612741,1628374,1628464,201152,202066,203107,1610612752,1629628,1630193,201565,201959,203944,0022000937,1,701,703,0,0,1610612741
44,1610612741,1628464,202066,201152,203107,1628374,1610612752,1629628,201565,201959,1630193,1630167,0022000937,2,720,733,0,0,1610612741
45,1610612741,1628464,202066,201152,203107,1628374,1610612752,1629628,201565,201959,1630193,1630167,0022000937,2,741,743,0,0,1610612752
46,1610612741,1628464,202066,201152,203107,1628374,1610612752,1629628,201565,201959,1630193,1630167,0022000937,2,751,753,0,0,1610612741
47,1610612741,1628464,202066,201152,203107,1628374,1610612752,1629628,201565,201959,1630193,1630167,0022000937,2,770,772,0,0,1610612752
48,1610612741,1628464,202066,201152,203107,1628374,1610612752,1629628,201565,201959,1630193,1630167,0022000937,2,785,789,3,0,1610612741
49,1610612741,1628464,202066,201152,203107,1628374,1610612752,1629628,201565,201959,1630193,1630167,0022000937,2,816,818,0,0,1610612752
50,1610612741,1628464,202066,201152,203107,1628374,1610612752,1629628,201565,201959,1630193,1630167,0022000937,2,827,827,2,0,1610612741
51,1610612741,1628464,202066,201152,203107,1628374,1610612752,1629628,201565,201959,1630193,1630167,0022000937,2,827,843,0,2,1610612752
52,1610612741,1628464,202066,201152,203107,1628374,1610612752,1629628,201565,201959,1630193,1630167,0022000937,2,855,864,0,0,1610612741
53,1610612741,1628464,202066,201152,203107,1628374,1610612752,1629628,201565,201959,1630193,1630167,0022000937,2,869,871,0,0,1610612752
54,1610612741,1628464,202066,201152,203107,1628374,1610612752,1629628,201565,201959,1630193,1630167,0022000937,2,878,878,0,0,1610612741
55,1610612741,1628464,202066,201152,203107,1628374,1610612752,1629628,201565,201959,1630193,1630167,0022000937,2,887,912,0,0,1610612752
56,1610612741,1628464,202066,201152,203107,1628374,1610612752,1629628,201565,201959,1630193,1630167,0022000937,2,930,930,2,0,1610612741
57,1610612741,1628464,202066,201152,203107,1628374,1610612752,1629628,201565,201959,1630193,1630167,0022000937,2,942,943,0,0,1610612752
58,1610612741,1627853,1628374,202066,202696,203107,1610612752,1630167,1630193,201565,201959,203493,0022000937,2,943,952,3,0,1610612741
59,1610612741,1627853,1628374,202066,202696,203107,1610612752,1630167,1630193,201565,201959,203493,0022000937,2,966,968,0,0,1610612752
60,1610612741,1627853,1628374,202066,202696,203107,1610612752,1630167,1630193,201565,201959,203493,0022000937,2,976,983,1,0,1610612741
61,1610612741,1627853,1628374,1629632,202066,202696,1610612752,1630193,201565,203457,203493,203944,0022000937,2,1000,1002,0,0,1610612752
62,1610612741,1627853,1628374,1629632,202066,202696,1610612752,1630193,201565,203457,203493,203944,0022000937,2,1008,1008,2,0,1610612741
63,1610612741,1627853,1628374,1629632,202066,202696,1610612752,1630193,201565,203457,203493,203944,0022000937,2,1029,1029,0,2,1610612752
64,1610612741,1627853,1628374,1629632,202066,202696,1610612752,1630193,201565,203457,203493,203944,0022000937,2,1047,1056,0,0,1610612741
65,1610612741,1627853,1628374,1629632,202066,202696,1610612752,1630193,203457,203493,203901,203944,0022000937,2,1077,1077,0,2,1610612752
66,1610612741,1627853,1628374,1629632,202066,202696,1610612752,1630193,203457,203493,203901,203944,0022000937,2,1089,1089,0,0,1610612741
67,1610612741,1627853,1628374,1629632,202066,202696,1610612752,1630193,203457,203493,203901,203944,0022000937,2,1095,1097,0,2,1610612752
68,1610612741,1627853,1628374,1629632,202066,202696,1610612752,1630193,203457,203493,203901,203944,0022000937,2,1112,1114,0,0,1610612741
69,1610612741,1627853,1628374,1629632,202066,202696,1610612752,1630193,203457,203493,203901,203944,0022000937,2,1125,1125,0,3,1610612752
70,1610612741,1627853,1628374,1629632,202066,202696,1610612752,1630193,203457,203493,203901,203944,0022000937,2,1137,1137,2,0,1610612741
71,1610612741,1627853,1628374,1629632,202066,202696,1610612752,1630193,203457,203493,203901,203944,0022000937,2,1151,1169,0,0,1610612752
72,1610612741,1627853,1628374,1629632,202066,202696,1610612752,1630193,203457,203493,203901,203944,0022000937,2,1171,1171,0,0,1610612741
73,1610612741,1627853,1628374,1629632,202066,202696,1610612752,1630193,203457,203493,203901,203944,0022000937,2,1177,1179,0,0,1610612752
74,1610612741,1627853,1628374,1629632,202066,202696,1610612752,1630193,203457,203493,203901,203944,0022000937,2,1188,1190,0,0,1610612741
75,1610612741,1627853,1628374,1629632,202066,202696,1610612752,1630193,203457,203493,203901,203944,0022000937,2,1204,1204,0,2,1610612752
76,1610612741,1627853,1628374,1629632,202066,202696,1610612752,1630193,203457,203493,203901,203944,0022000937,2,1204,1225,0,0,1610612741
77,1610612741,1628374,1629632,201152,202066,202696,1610612752,1630193,203457,203493,203901,203944,0022000937,2,1234,1236,0,0,1610612752
78,1610612741,1628374,1629632,201152,202066,202696,1610612752,1630193,203457,203493,203901,203944,0022000937,2,1241,1241,3,0,1610612741
79,1610612741,1628374,1629632,201152,202066,202696,1610612752,1630193,203457,203493,203901,203944,0022000937,2,1266,1270,0,0,1610612752
80,1610612741,1629632,1630172,201152,202066,202696,1610612752,1629628,203457,203493,203901,203944,0022000937,2,1280,1280,0,0,1610612741
81,1610612741,1629632,1630172,201152,202066,202696,1610612752,1629628,203457,203493,203901,203944,0022000937,2,1285,1287,0,0,1610612752
82,1610612741,1629632,1630172,201152,202066,202696,1610612752,1629628,203457,203493,203901,203944,0022000937,2,1297,1297,3,0,1610612741
83,1610612741,1629632,1630172,201152,202066,202696,1610612752,1629628,203457,203493,203901,203944,0022000937,2,1314,1314,0,3,1610612752
84,1610612741,1629632,1630172,201152,202066,202696,1610612752,1629628,203457,203493,203901,203944,0022000937,2,1337,1337,2,0,1610612741
85,1610612741,1629632,1630172,201152,202066,202696,1610612752,1629628,203457,203493,203901,203944,0022000937,2,1349,1365,0,0,1610612752
86,1610612741,1629632,1630172,201152,202066,202696,1610612752,1629628,203457,203493,203901,203944,0022000937,2,1378,1378,3,0,1610612741
87,1610612741,1629632,1630172,201152,202066,202696,1610612752,1629628,203457,203493,203901,203944,0022000937,2,1397,1397,0,3,1610612752
88,1610612741,1629632,1630172,201152,202066,202696,1610612752,1629628,203457,203493,203901,203944,0022000937,2,1406,1406,3,0,1610612741
89,1610612741,1629632,1630172,201152,202066,202696,1610612752,1629628,203457,203493,203901,203944,0022000937,2,1428,1431,0,1,1610612752
90,1610612741,1628374,1629632,201152,202066,202696,1610612752,1629628,203457,203493,203901,203944,0022000937,2,1439,1440,0,0,1610612741
91,1610612741,1628464,1630172,202696,202066,1629632,1610612752,203493,203944,203457,1629628,203901,0022000937,3,1440,1459,0,0,1610612741
92,1610612741,1628464,1630172,202696,202066,1629632,1610612752,203493,203944,203457,1629628,203901,0022000937,3,1474,1474,0,2,1610612752
93,1610612741,1628464,1630172,202696,202066,1629632,1610612752,203493,203944,203457,1629628,203901,0022000937,3,1491,1492,0,0,1610612741
94,1610612741,1628464,1630172,202696,202066,1629632,1610612752,203493,203944,203457,1629628,203901,0022000937,3,1499,1499,0,2,1610612752
95,1610612741,1628464,1630172,202696,202066,1629632,1610612752,203493,203944,203457,1629628,203901,0022000937,3,1520,1522,0,0,1610612741
96,1610612741,1628464,1630172,202696,202066,1629632,1610612752,203493,203944,203457,1629628,203901,0022000937,3,1524,1526,0,0,1610612752
97,1610612741,1628464,1630172,202696,202066,1629632,1610612752,203493,203944,203457,1629628,203901,0022000937,3,1533,1533,2,0,1610612741
98,1610612741,1628464,1630172,202696,202066,1629632,1610612752,203493,203944,203457,1629628,203901,0022000937,3,1556,1558,0,0,1610612752
99,1610612741,1628464,1630172,202696,202066,1629632,1610612752,203493,203944,203457,1629628,203901,0022000937,3,1566,1566,0,0,1610612741
100,1610612741,1628464,1630172,202696,202066,1629632,1610612752,203493,203944,203457,1629628,203901,0022000937,3,1569,1569,0,2,1610612752
101,1610612741,1628464,1630172,202696,202066,1629632,1610612752,203493,203944,203457,1629628,203901,0022000937,3,1569,1590,3,0,1610612741
102,1610612741,1628464,1630172,202696,202066,1629632,1610612752,203493,203944,203457,1629628,203901,0022000937,3,1617,1617,0,0,1610612752
103,1610612741,1628464,1629632,1630172,202696,203107,1610612752,203493,203944,203457,1629628,203901,0022000937,3,1630,1634,2,0,1610612741
104,1610612741,1628464,1629632,1630172,202696,203107,1610612752,203493,203944,203457,1629628,203901,0022000937,3,1649,1651,0,0,1610612752
105,1610612741,1628464,1629632,1630172,202696,203107,1610612752,203493,203944,203457,1629628,203901,0022000937,3,1659,1659,2,0,1610612741
106,1610612741,1628464,1629632,1630172,202696,203107,1610612752,203493,203944,203457,1629628,203901,0022000937,3,1667,1682,0,0,1610612752
107,1610612741,1628464,1629632,1630172,202696,203107,1610612752,203493,203944,203457,1629628,203901,0022000937,3,1700,1702,0,0,1610612741
108,1610612741,1628464,1629632,1630172,202696,203107,1610612752,203493,203944,203457,1629628,203901,0022000937,3,1706,1708,0,0,1610612752
109,1610612741,1628464,1629632,1630172,202696,203107,1610612752,203493,203944,203457,1629628,203901,0022000937,3,1720,1720,2,0,1610612741
110,1610612741,1628464,1629632,1630172,202696,203107,1610612752,203493,203944,203457,1629628,203901,0022000937,3,1740,1740,0,3,1610612752
111,1610612741,1628464,1629632,1630172,202696,203107,1610612752,203493,203944,203457,1629628,203901,0022000937,3,1755,1757,0,0,1610612741
112,1610612741,1628464,1629632,1630172,202696,203107,1610612752,203493,203944,203457,1629628,203901,0022000937,3,1772,1772,0,2,1610612752
113,1610612741,1628464,1629632,1630172,202696,203107,1610612752,203493,203944,203457,1629628,203901,0022000937,3,1791,1793,0,0,1610612741
114,1610612741,1628464,1629632,1630172,202696,203107,1610612752,203493,203944,203457,1629628,203901,0022000937,3,1798,1798,0,3,1610612752
115,1610612741,1628464,1629632,1630172,202696,203107,1610612752,203493,203944,203457,1629628,203901,0022000937,3,1798,1819,2,1,1610612741
116,1610612741,1629632,1630172,201152,202696,203107,1610612752,203493,203944,203457,1629628,203901,0022000937,3,1841,1843,0,0,1610612752
117,1610612741,1629632,1630172,201152,202696,203107,1610612752,203493,203944,203457,1629628,203901,0022000937,3,1851,1852,0,0,1610612741
118,1610612741,1629632,1630172,201152,202696,203107,1610612752,203493,203944,203457,1629628,203901,0022000937,3,1864,1866,0,0,1610612752
119,1610612741,1629632,1630172,201152,202696,203107,1610612752,203493,203944,203457,1629628,203901,0022000937,3,1869,1876,0,0,1610612741
120,1610612741,1629632,1630172,201152,202696,203107,1610612752,203493,203944,203457,1629628,203901,0022000937,3,1887,1889,0,0,1610612752
121,1610612741,1629632,1630172,201152,202696,203107,1610612752,203493,203944,203457,1629628,203901,0022000937,3,1890,1901,2,0,1610612741
122,1610612741,1629632,1630172,201152,202696,203107,1610612752,203493,203944,203457,1629628,203901,0022000937,3,1917,1917,0,2,1610612752
123,1610612741,1629632,1630172,201152,202696,203107,1610612752,203493,203944,203457,1629628,203901,0022000937,3,1937,1937,0,0,1610612741
124,1610612741,1629632,1630172,201152,202696,203107,1610612752,203493,203944,203457,1629628,203901,0022000937,3,1937,1952,0,1,1610612752
125,1610612741,1628374,1629632,201152,202696,203107,1610612752,1629628,201565,203457,203493,203944,0022000937,3,1974,1979,2,0,1610612741
126,1610612741,1628374,1629632,201152,202696,203107,1610612752,1629628,201565,203457,203493,203944,0022000937,3,1986,1986,0,2,1610612752
127,1610612741,1628374,201152,202066,202696,203107,1610612752,1629628,201565,201959,203493,203944,0022000937,3,1996,1996,2,0,1610612741
128,1610612741,1628374,201152,202066,202696,203107,1610612752,1629628,201565,201959,203493,203944,0022000937,3,2012,2014,0,0,1610612752
129,1610612741,1628374,201152,202066,202696,203107,1610612752,1629628,201565,201959,203493,203944,0022000937,3,2031,2031,2,0,1610612741
130,1610612741,1628374,201152,202066,202696,203107,1610612752,1629628,201565,201959,203493,203944,0022000937,3,2050,2058,0,2,1610612752
131,1610612741,1628374,201152,202066,202696,203107,1610612752,1629628,201565,201959,203493,203944,0022000937,3,2074,2074,3,0,1610612741
132,1610612741,1628374,201152,202066,202696,203107,1610612752,1629628,201565,201959,203493,203944,0022000937,3,2093,2095,0,0,1610612752
133,1610612741,1628374,201152,202066,202696,203107,1610612752,1629628,201565,201959,203493,203944,0022000937,3,2102,2102,3,0,1610612741
134,1610612741,1628374,1628464,201152,202066,203107,1610612752,1629628,1630193,201565,201959,203944,0022000937,3,2119,2121,0,0,1610612752
135,1610612741,1628374,1628464,201152,202066,203107,1610612752,1629628,1630193,201565,201959,203944,0022000937,3,2132,2132,0,0,1610612741
136,1610612741,1628374,1628464,201152,202066,203107,1610612752,1629628,1630193,201565,201959,203944,0022000937,3,2144,2144,0,2,1610612752
137,1610612741,1628374,1628464,201152,202066,203107,1610612752,1629628,1630193,201565,201959,203944,0022000937,3,2159,2160,0,0,1610612741
138,1610612741,1628464,202066,201152,203107,1628374,1610612752,1629628,201565,201959,1630193,1630167,0022000937,4,2160,2175,0,2,1610612752
139,1610612741,1628464,202066,201152,203107,1628374,1610612752,1629628,201565,201959,1630193,1630167,0022000937,4,2193,2193,0,0,1610612741
140,1610612741,1628464,202066,201152,203107,1628374,1610612752,1629628,201565,201959,1630193,1630167,0022000937,4,2201,2209,0,2,1610612752
141,1610612741,1628464,202066,201152,203107,1628374,1610612752,1629628,201565,201959,1630193,1630167,0022000937,4,2225,2227,0,0,1610612741
142,1610612741,1628464,202066,201152,203107,1628374,1610612752,1629628,201565,201959,1630193,1630167,0022000937,4,2237,2237,0,2,1610612752
143,1610612741,1628374,1628464,1630172,202066,203107,1610612752,1629628,201565,201959,1630193,1630167,0022000937,4,2253,2255,0,0,1610612741
144,1610612741,1628374,1628464,1630172,202066,203107,1610612752,1629628,201565,201959,1630193,1630167,0022000937,4,2261,2261,0,3,1610612752
145,1610612741,1628374,1628464,1630172,202066,203107,1610612752,1629628,201565,201959,1630193,1630167,0022000937,4,2275,2275,2,0,1610612741
146,1610612741,1628374,1628464,1630172,202066,203107,1610612752,1629628,201565,201959,1630193,1630167,0022000937,4,2297,2299,0,0,1610612752
147,1610612741,1628374,1628464,1630172,202066,203107,1610612752,1629628,201565,201959,1630193,1630167,0022000937,4,2306,2308,0,0,1610612741
148,1610612741,1628374,1628464,1630172,202066,203107,1610612752,1629628,201565,201959,1630193,1630167,0022000937,4,2314,2314,0,2,1610612752
149,1610612741,1628374,1628464,1630172,202066,203107,1610612752,1629628,201565,201959,1630193,1630167,0022000937,4,2335,2337,0,0,1610612741
150,1610612741,1628374,1628464,1630172,202066,203107,1610612752,1629628,201565,201959,1630193,1630167,0022000937,4,2346,2348,0,0,1610612752
151,1610612741,1628374,1628464,1630172,202066,203107,1610612752,1629628,201565,201959,1630193,1630167,0022000937,4,2349,2375,0,0,1610612741
152,1610612741,1628464,1629632,1630172,201152,202066,1610612752,1629628,201565,201959,1630193,1630167,0022000937,4,2375,2383,0,2,1610612752
153,1610612741,1629632,1630172,201152,202066,202696,1610612752,1629628,201565,201959,1630193,1630167,0022000937,4,2393,2408,0,0,1610612741
154,1610612741,1629632,1630172,201152,202066,202696,1610612752,1629628,201565,201959,1630193,1630167,0022000937,4,2416,2421,0,2,1610612752
155,1610612741,1629632,1630172,201152,202066,202696,1610612752,1629628,201565,201959,1630193,1630167,0022000937,4,2442,2444,0,0,1610612741
156,1610612741,1629632,1630172,201152,202066,202696,1610612752,1629628,201565,201959,1630193,1630167,0022000937,4,2457,2459,0,0,1610612752
157,1610612741,1629632,1630172,201152,202066,202696,1610612752,1629628,201565,201959,1630193,1630167,0022000937,4,2467,2467,2,0,1610612741
158,1610612741,1629632,1630172,201152,202066,202696,1610612752,1629628,201565,201959,1630193,1630167,0022000937,4,2481,2481,0,0,1610612752
159,1610612741,1629632,1630172,201152,202066,202696,1610612752,1629628,201565,201959,1630193,1630167,0022000937,4,2481,2499,2,0,1610612741
160,1610612741,1628374,1629632,201152,202066,202696,1610612752,1629628,1630167,201565,203457,203493,0022000937,4,2520,2522,0,2,1610612752
161,1610612741,1628374,1629632,201152,202066,202696,1610612752,1629628,1630167,201565,203457,203493,0022000937,4,2533,2533,3,0,1610612741
162,1610612741,1628374,1629632,201152,202066,202696,1610612752,1629628,1630167,201565,203457,203493,0022000937,4,2544,2556,0,2,1610612752
163,1610612741,1628374,1629632,201152,202066,202696,1610612752,1629628,201565,203457,203493,203944,0022000937,4,2579,2579,0,0,1610612741
164,1610612741,1628374,1629632,201152,202066,202696,1610612752,1629628,201565,203457,203493,203944,0022000937,4,2586,2588,0,2,1610612752
165,1610612741,1628374,1629632,201152,202066,202696,1610612752,1629628,201565,203457,203493,203944,0022000937,4,2604,2610,0,0,1610612741
166,1610612741,1628374,1629632,201152,202066,202696,1610612752,1629628,201565,203457,203493,203944,0022000937,4,2621,2621,0,2,1610612752
167,1610612741,1628374,1629632,201152,202066,202696,1610612752,1629628,201565,203457,203493,203944,0022000937,4,2632,2632,3,0,1610612741
168,1610612741,1628374,1629632,201152,202066,202696,1610612752,1629628,201565,203457,203493,203944,0022000937,4,2656,2658,0,0,1610612752
169,1610612741,1628374,1629632,201152,202066,202696,1610612752,1629628,201565,203457,203493,203944,0022000937,4,2671,2671,0,0,1610612741
170,1610612741,1628374,1629632,201152,202066,202696,1610612752,1629628,201565,203457,203493,203944,0022000937,4,2677,2677,0,3,1610612752
171,1610612741,1628374,1629632,201152,202066,202696,1610612752,1629628,201565,203457,203493,203944,0022000937,4,2696,2696,2,0,1610612741
172,1610612741,1628374,1629632,201152,202066,202696,1610612752,1629628,201565,203457,203493,203944,0022000937,4,2717,2721,0,3,1610612752
173,1610612741,1628374,1629632,201152,202066,202696,1610612752,1629628,201565,203457,203493,203944,0022000937,4,2736,2736,2,0,1610612741
174,1610612741,1628374,1629632,201152,202066,202696,1610612752,1629628,201565,203457,203493,203944,0022000937,4,2756,2759,0,2,1610612752
175,1610612741,1628374,1629632,201152,202066,202696,1610612752,1629628,201565,203457,203493,203944,0022000937,4,2771,2771,2,0,1610612741
176,1610612741,1628374,1629632,201152,202066,202696,1610612752,1629628,201565,203457,203493,203944,0022000937,4,2787,2787,0,3,1610612752
177,1610612741,1628374,1629632,201152,202066,202696,1610612752,1629628,201565,203457,203493,203944,0022000937,4,2787,2795,0,0,1610612741
178,1610612741,1626245,1627756,1627853,1629690,1629750,1610612752,1629628,201565,203457,203493,203944,0022000937,4,2817,2817,0,3,1610612752
179,1610612741,1626245,1627756,1627853,1629690,1629750,1610612752,1629628,201565,203457,203493,203944,0022000937,4,2818,2841,1,0,1610612741
180,1610612741,1626245,1627756,1627853,1629690,1629750,1610612752,1628373,1628995,1629033,1629607,203658,0022000937,4,2843,2845,0,0,1610612752
181,1610612741,1626245,1627756,1627853,1629690,1629750,1610612752,1628373,1628995,1629033,1629607,203658,0022000937,4,2860,2862,0,0,1610612741
