,TEAM_ID_1,TEAM_1_PLAYERS,TEAM_ID_2,TEAM_2_PLAYERS,PERIOD
0,1610612757,[1627884  203496  203994 1626181  203468],1610612759,[ 201942 1629640 1627751 1628401 1627749],1
1,1610612757,[1626181  202683 1629014    2546 1629642],1610612759,[1627751 1627749  201988 1629022  200752],2
2,1610612757,[1627884  203496  203994 1626181  203468],1610612759,[ 201942 1629640 1627751 1628401 1627749],3
3,1610612757,[ 203468  202683 1629014    2546 1629642],1610612759,[1627749 1629234  201988 1629022  200752],4
