,TEAM_ID_1,TEAM_1_PLAYERS,TEAM_ID_2,TEAM_2_PLAYERS,PERIOD
0,1610612744,[ 203952 1629308  203110 1626162  201939],1610612742,[1627827 1628467  204001 1626196 1629029],1
1,1610612744,[ 203952 1629308 1626162 1627814  202954],1610612742,[1627827 1626196 1629029  203939  203504],2
2,1610612744,[ 203952 1629308  203110 1626162  201939],1610612742,[1627827 1628467  204001 1626196 1629029],3
3,1610612744,[ 203952 1629308 1626162 1627814  202954],1610612742,[1626196 1629029  203501 1628973  203939],4
