,stint_end,t1_players,t2_pm,t2_points_scored,stint_start,t1_pm,t1_points_scored,t2_id,t1_id,t2_players,margin_per_100,num_poss
0,288,"[1629652, 1629647, 1629676, 1628983, 201588]",8,14,0,-8,6,1610612746,1610612760,"[202695, 201587, 201586, 202331, 201976]",-38.095238095238095,21.0
1,421,"[1629652, 1629647, 1629676, 1628983, 201588]",13,21,289,-13,8,1610612746,1610612760,"[202695, 201587, 201586, 202331, 201976]",-41.935483870967744,31.0
2,557,"[1628983, 1629647, 1629652, 201588, 203488]",13,25,422,-13,12,1610612746,1610612760,"[1628379, 201586, 201587, 202331, 202695]",-30.952380952380953,42.0
3,591,"[1628977, 1628983, 1630177, 1630197, 203488]",13,27,558,-13,14,1610612746,1610612760,"[1628379, 201586, 201587, 201976, 202695]",-29.545454545454547,44.0
4,719,"[1628977, 1628983, 1630177, 1630197, 203488]",20,36,592,-20,16,1610612746,1610612760,"[1627826, 1628379, 201976, 202694, 202695]",-37.03703703703704,54.0
5,789,"[1628977, 1628983, 1630177, 1630197, 203488]",15,36,720,-15,21,1610612746,1610612760,"[101150, 1627826, 1628379, 202694, 202695]",-25.0,60.0
6,1000,"[1629647, 1628977, 1630197, 1630177, 1629026]",24,52,790,-24,28,1610612746,1610612760,"[202331, 1628379, 1627826, 202694, 101150]",-30.37974683544304,79.0
7,1041,"[1629647, 1628977, 1630197, 1630177, 1629026]",27,55,1001,-27,28,1610612746,1610612760,"[101150, 1627826, 201976, 202331, 202694]",-33.33333333333333,81.0
8,1082,"[1628977, 1628983, 1629676, 1630177, 201588]",26,57,1042,-26,31,1610612746,1610612760,"[101150, 1627826, 201976, 202331, 202694]",-31.32530120481928,83.0
9,1188,"[1628977, 1628983, 1629676, 1630177, 201588]",23,59,1083,-23,36,1610612746,1610612760,"[101150, 1627826, 202331, 202694, 202695]",-25.842696629213485,89.0
10,1238,"[1628983, 1629652, 1629676, 1630177, 201588]",20,61,1189,-20,41,1610612746,1610612760,"[101150, 201586, 201587, 202694, 202695]",-21.73913043478261,92.0
11,1412,"[1628983, 1629652, 1629676, 1630177, 201588]",17,70,1239,-17,53,1610612746,1610612760,"[1628379, 201586, 201587, 202694, 202695]",-16.346153846153847,104.0
12,1439,"[1628983, 1629647, 1629652, 1629676, 201588]",17,70,1413,-17,53,1610612746,1610612760,"[1628379, 201586, 201587, 202331, 202695]",-16.037735849056602,106.0
13,1767,"[1628983, 1629647, 1629652, 1629676, 201588]",23,83,1440,-23,60,1610612746,1610612760,"[1628379, 201586, 202331, 202694, 202695]",-18.548387096774192,124.0
14,1856,"[1629652, 1629647, 1629676, 1628983, 201588]",18,83,1768,-18,65,1610612746,1610612760,"[202695, 201587, 201586, 202331, 201976]",-14.0625,128.0
15,1902,"[1629652, 1629647, 1629676, 1628983, 201588]",16,85,1857,-16,69,1610612746,1610612760,"[1628379, 201586, 201587, 202331, 202695]",-12.213740458015266,131.0
16,1932,"[1629652, 1629647, 1629676, 1628983, 201588]",13,85,1903,-13,72,1610612746,1610612760,"[1628379, 201586, 201587, 201976, 202695]",-9.774436090225564,133.0
17,1955,"[1628977, 1628983, 1629647, 1629652, 203488]",10,85,1933,-10,75,1610612746,1610612760,"[1628379, 201586, 201587, 201976, 202695]",-7.4074074074074066,135.0
18,2063,"[1628977, 1628983, 1629647, 1629652, 203488]",14,89,1956,-14,75,1610612746,1610612760,"[1627826, 1628379, 201587, 201976, 202695]",-9.929078014184398,141.0
19,2159,"[1628977, 1628983, 1629647, 1629652, 203488]",13,91,2064,-13,78,1610612746,1610612760,"[101150, 1627826, 201976, 202694, 202695]",-8.724832214765101,149.0
20,2301,"[1628977, 1629026, 1630177, 1630197, 203488]",14,95,2160,-14,81,1610612746,1610612760,"[101150, 1627826, 201976, 202694, 202695]",-8.80503144654088,159.0
21,2345,"[203488, 1628977, 1630197, 1630177, 1629026]",14,97,2302,-14,83,1610612746,1610612760,"[202331, 201976, 1627826, 202694, 101150]",-8.641975308641975,162.0
22,2367,"[203488, 1628977, 1630197, 1630177, 1629026]",14,97,2346,-14,83,1610612746,1610612760,"[101150, 201587, 201976, 202331, 202694]",-8.588957055214724,163.0
23,2405,"[1628977, 1628983, 1630177, 1630197, 203488]",17,102,2368,-17,85,1610612746,1610612760,"[101150, 201587, 201976, 202331, 202694]",-10.240963855421686,166.0
24,2438,"[1628977, 1628983, 1629652, 1630177, 203488]",15,102,2406,-15,87,1610612746,1610612760,"[101150, 201587, 201976, 202331, 202694]",-8.928571428571429,168.0
25,2576,"[1628983, 1629647, 1629652, 1629676, 201588]",16,107,2439,-16,91,1610612746,1610612760,"[101150, 201587, 201976, 202331, 202694]",-9.090909090909092,176.0
26,2711,"[1628983, 1629647, 1629652, 1629676, 201588]",12,112,2577,-12,100,1610612746,1610612760,"[101150, 201587, 202331, 202694, 202695]",-6.486486486486487,185.0
27,2828,"[1628983, 1629647, 1629652, 1629676, 201588]",13,118,2712,-13,105,1610612746,1610612760,"[201586, 201587, 202331, 202694, 202695]",-6.7357512953367875,193.0
28,2863,"[1628983, 1629647, 1629652, 1629676, 201588]",15,120,2829,-15,105,1610612746,1610612760,"[201586, 201587, 201976, 202331, 202695]",-7.653061224489796,196.0
29,9999999,"[1628983, 1629647, 1629652, 1629676, 201588]",14,120,2864,-14,106,1610612746,1610612760,"[1629611, 1629662, 1630187, 201587, 201976]",-7.1065989847715745,197.0
