,t1_pm,t2_pm,stint_start,t2_points_scored,t2_players,t2_id,t1_id,t1_players,stint_end,t1_points_scored,margin_per_100,num_poss
0,-10,10,0,20,"[202695, 202694, 1627826, 202331, 201976]",1610612746,1610612757,"[1626181, 203496, 202683, 203468, 203081]",257,10,-66.66666666666666,15.0
1,-11,11,258,35,"[202695, 202694, 1627826, 202331, 201976]",1610612746,1610612757,"[1626181, 203496, 202683, 203468, 203081]",458,24,-35.483870967741936,31.0
2,-9,9,459,38,"[1627826, 202331, 202694, 202695, 202704]",1610612746,1610612757,"[1626181, 203496, 202683, 203468, 203081]",534,29,-23.076923076923077,39.0
3,-8,8,535,38,"[1627826, 200765, 202331, 202694, 202704]",1610612746,1610612757,"[1627884, 202683, 203081, 203468, 2546]",595,30,-19.047619047619047,42.0
4,-13,13,596,45,"[200765, 202331, 202335, 202694, 202704]",1610612746,1610612757,"[1627884, 1629014, 1629642, 203081, 2546]",684,32,-27.083333333333332,48.0
5,-13,13,685,45,"[200765, 201587, 202331, 202335, 202704]",1610612746,1610612757,"[1627884, 1629014, 1629642, 203081, 2546]",718,32,-26.0,50.0
6,-20,20,719,53,"[200765, 201587, 202331, 202335, 202704]",1610612746,1610612757,"[1626181, 1627884, 1629642, 203081, 2546]",816,33,-35.08771929824561,57.0
7,-23,23,817,56,"[202695, 202704, 200765, 202335, 201587]",1610612746,1610612757,"[1626181, 203496, 203468, 2546, 1629642]",861,33,-38.333333333333336,60.0
8,-22,22,862,58,"[1629611, 201587, 202335, 202695, 202704]",1610612746,1610612757,"[1626181, 203496, 203468, 2546, 1629642]",888,36,-35.483870967741936,62.0
9,-25,25,889,64,"[1629611, 201587, 202326, 202695, 202704]",1610612746,1610612757,"[1626181, 202683, 203468, 203496, 2546]",978,39,-37.3134328358209,67.0
10,-23,23,979,66,"[1629611, 201587, 202326, 202695, 202704]",1610612746,1610612757,"[1626181, 202683, 203081, 203468, 203496]",1059,43,-31.506849315068493,73.0
11,-23,23,1060,68,"[1629611, 201587, 201976, 202326, 202695]",1610612746,1610612757,"[1626181, 202683, 203081, 203468, 203496]",1083,45,-30.666666666666664,75.0
12,-19,19,1084,68,"[201587, 201976, 202326, 202331, 202695]",1610612746,1610612757,"[1626181, 202683, 203081, 203468, 203496]",1112,49,-24.358974358974358,78.0
13,-13,13,1113,72,"[1627826, 201587, 201976, 202331, 202695]",1610612746,1610612757,"[1626181, 202683, 203081, 203468, 203496]",1301,59,-14.130434782608695,92.0
14,-7,7,1302,73,"[1627826, 201976, 202331, 202694, 202695]",1610612746,1610612757,"[1626181, 202683, 203081, 203468, 203496]",1439,66,-7.000000000000001,100.0
15,-9,9,1440,84,"[1627826, 200765, 202331, 202694, 202695]",1610612746,1610612757,"[1626181, 202683, 203081, 203468, 203496]",1767,75,-7.258064516129033,124.0
16,-7,7,1768,84,"[202695, 202694, 1627826, 202331, 201976]",1610612746,1610612757,"[1626181, 203496, 202683, 203468, 203081]",1790,77,-5.555555555555555,126.0
17,-5,5,1791,87,"[1627826, 202331, 202694, 202695, 202704]",1610612746,1610612757,"[1626181, 203496, 202683, 203468, 203081]",1883,82,-3.787878787878788,132.0
18,-5,5,1884,89,"[1627826, 202331, 202694, 202695, 202704]",1610612746,1610612757,"[202683, 203081, 203468, 203496, 2546]",1964,84,-3.6231884057971016,138.0
19,-5,5,1965,89,"[1627826, 200765, 202694, 202695, 202704]",1610612746,1610612757,"[202683, 203081, 203468, 203496, 2546]",1989,84,-3.597122302158273,139.0
20,-11,11,1990,100,"[1627826, 200765, 201587, 202695, 202704]",1610612746,1610612757,"[1626181, 202683, 203081, 203496, 2546]",2151,89,-7.28476821192053,151.0
21,-12,12,2152,101,"[200765, 201587, 202335, 202695, 202704]",1610612746,1610612757,"[1626181, 1627884, 203081, 203496, 2546]",2158,89,-7.894736842105263,152.0
22,-9,9,2159,101,"[1629611, 200765, 201587, 202695, 202704]",1610612746,1610612757,"[1626181, 203081, 203468, 203496, 2546]",2211,92,-5.806451612903226,155.0
23,-9,9,2212,105,"[202331, 202704, 200765, 202335, 201587]",1610612746,1610612757,"[1626181, 202683, 203468, 1627884, 2546]",2298,96,-5.555555555555555,162.0
24,-12,12,2299,110,"[202331, 202704, 200765, 202335, 201587]",1610612746,1610612757,"[1626181, 1629642, 202683, 203468, 2546]",2346,98,-7.228915662650602,166.0
25,-12,12,2347,110,"[1629611, 201587, 202331, 202335, 202704]",1610612746,1610612757,"[1626181, 1629642, 202683, 203468, 2546]",2405,98,-7.142857142857142,168.0
26,-14,14,2406,114,"[1629611, 201587, 202331, 202335, 202704]",1610612746,1610612757,"[1626181, 202683, 203081, 203468, 2546]",2438,100,-8.187134502923977,171.0
27,-16,16,2439,116,"[201587, 202331, 202335, 202695, 202704]",1610612746,1610612757,"[1626181, 202683, 203081, 203468, 203496]",2467,100,-9.248554913294797,173.0
28,-17,17,2468,123,"[201587, 202331, 202335, 202695, 202704]",1610612746,1610612757,"[1626181, 1629642, 202683, 203081, 203496]",2580,106,-9.392265193370166,181.0
29,-18,18,2581,126,"[201587, 202331, 202335, 202695, 202704]",1610612746,1610612757,"[1626181, 202683, 203081, 203468, 203496]",2644,108,-9.72972972972973,185.0
30,-18,18,2645,128,"[201587, 201976, 202331, 202335, 202695]",1610612746,1610612757,"[1626181, 202683, 203081, 203468, 203496]",2679,110,-9.62566844919786,187.0
31,-19,19,2680,133,"[1629611, 201587, 201976, 202326, 202695]",1610612746,1610612757,"[1627884, 1628385, 1629014, 1629604, 1629642]",2861,114,-9.5,200.0
32,-17,17,2862,133,"[1628379, 1629611, 201976, 202326, 202335]",1610612746,1610612757,"[1627884, 1628385, 1629014, 1629604, 1629642]",9999999,116,-8.45771144278607,201.0
