,team1_id,team1_player1,team1_player2,team1_player3,team1_player4,team1_player5,team2_id,team2_player1,team2_player2,team2_player3,team2_player4,team2_player5,game_id,period,possession_start,possession_end,team1_points,team2_points,possession_team
0,1610612754,1628410,203200,1627734,1627747,1627763,1610612745,1630256,203482,1626174,1629645,202322,0022000461,1,0,19,2,0,1610612754
1,1610612754,1628410,203200,1627734,1627747,1627763,1610612745,1630256,203482,1626174,1629645,202322,0022000461,1,34,35,0,0,1610612745
2,1610612754,1628410,203200,1627734,1627747,1627763,1610612745,1630256,203482,1626174,1629645,202322,0022000461,1,49,49,3,0,1610612754
3,1610612754,1628410,203200,1627734,1627747,1627763,1610612745,1630256,203482,1626174,1629645,202322,0022000461,1,61,61,0,0,1610612745
4,1610612754,1628410,203200,1627734,1627747,1627763,1610612745,1630256,203482,1626174,1629645,202322,0022000461,1,67,70,0,0,1610612754
5,1610612754,1628410,203200,1627734,1627747,1627763,1610612745,1630256,203482,1626174,1629645,202322,0022000461,1,90,93,0,0,1610612745
6,1610612754,1628410,203200,1627734,1627747,1627763,1610612745,1630256,203482,1626174,1629645,202322,0022000461,1,101,101,0,0,1610612754
7,1610612754,1628410,203200,1627734,1627747,1627763,1610612745,1630256,203482,1626174,1629645,202322,0022000461,1,105,105,0,2,1610612745
8,1610612754,1628410,203200,1627734,1627747,1627763,1610612745,1630256,203482,1626174,1629645,202322,0022000461,1,123,123,3,0,1610612754
9,1610612754,1628410,203200,1627734,1627747,1627763,1610612745,1630256,203482,1626174,1629645,202322,0022000461,1,146,146,0,2,1610612745
10,1610612754,1628410,203200,1627734,1627747,1627763,1610612745,1630256,203482,1626174,1629645,202322,0022000461,1,154,154,0,0,1610612754
11,1610612754,1628410,203200,1627734,1627747,1627763,1610612745,1630256,203482,1626174,1629645,202322,0022000461,1,160,162,0,0,1610612745
12,1610612754,1628410,203200,1627734,1627747,1627763,1610612745,1630256,203482,1626174,1629645,202322,0022000461,1,173,175,0,0,1610612754
13,1610612754,1628410,203200,1627734,1627747,1627763,1610612745,1630256,203482,1626174,1629645,202322,0022000461,1,184,184,0,2,1610612745
14,1610612754,1628410,203200,1627734,1627747,1627763,1610612745,1630256,203482,1626174,1629645,202322,0022000461,1,197,197,3,0,1610612754
15,1610612754,1628410,203200,1627734,1627747,1627763,1610612745,1630256,203482,1626174,1629645,202322,0022000461,1,208,208,0,3,1610612745
16,1610612754,1628410,203200,1627734,1627747,1627763,1610612745,1630256,203482,1626174,1629645,202322,0022000461,1,217,217,2,0,1610612754
17,1610612754,1628410,203200,1627734,1627747,1627763,1610612745,1630256,203482,1626174,1629645,202322,0022000461,1,228,228,0,0,1610612745
18,1610612754,1628410,203200,1627734,1627747,1627763,1610612745,1630256,203482,1626174,1629645,202322,0022000461,1,237,240,0,0,1610612754
19,1610612754,1628410,203200,1627734,1627747,1627763,1610612745,1630256,203482,1626174,1629645,202322,0022000461,1,247,250,0,0,1610612745
20,1610612754,1628410,203200,1627734,1627747,1627763,1610612745,1630256,203482,1626174,1629645,202322,0022000461,1,260,260,2,0,1610612754
21,1610612754,1628410,203200,1627734,1627747,1627763,1610612745,1630256,203482,1626174,1629645,202322,0022000461,1,288,288,0,0,1610612745
22,1610612754,1628410,203200,1627734,1627747,1627763,1610612745,1630256,203482,1626174,1629645,202322,0022000461,1,305,308,0,0,1610612754
23,1610612754,1628410,203200,1627734,1627747,1627763,1610612745,1630256,203482,1626174,1629645,202322,0022000461,1,317,317,0,2,1610612745
24,1610612754,1628410,203200,1627734,1627747,1627763,1610612745,1630256,203482,1626174,1629645,202322,0022000461,1,324,324,3,0,1610612754
25,1610612754,1628410,203200,1627734,1627747,1627763,1610612745,1630256,203482,1626174,1629645,202322,0022000461,1,339,341,0,0,1610612745
26,1610612754,1628410,203200,1627734,1627747,1627763,1610612745,1630256,203482,1626174,1629645,202322,0022000461,1,347,347,2,0,1610612754
27,1610612754,1628410,203200,1627734,1627747,1627763,1610612745,1630256,203482,1626174,1629645,202322,0022000461,1,347,365,0,2,1610612745
28,1610612754,1628410,203200,1627734,1627747,1627763,1610612745,1630256,203482,1626174,1629645,202322,0022000461,1,378,378,2,0,1610612754
29,1610612754,1628410,203200,1627734,1627747,1627763,1610612745,1630256,203482,1626174,1629645,202322,0022000461,1,396,398,0,0,1610612745
30,1610612754,1628410,203200,1627734,1627747,1627763,1610612745,1630256,203482,1626174,1629645,202322,0022000461,1,407,407,0,0,1610612754
31,1610612754,1628410,203200,1627734,1627747,1627763,1610612745,1626174,1630256,202322,202340,203482,0022000461,1,416,416,0,2,1610612745
32,1610612754,1628410,203200,1627734,1627747,1627763,1610612745,1626174,1630256,202322,202340,203482,0022000461,1,425,425,2,0,1610612754
33,1610612754,1628410,203200,1627734,1627747,1627763,1610612745,1626174,1630256,202322,202340,203482,0022000461,1,425,435,0,2,1610612745
34,1610612754,1628410,203200,1627734,1627747,1627763,1610612745,1626174,1630256,202322,202340,203482,0022000461,1,449,451,0,0,1610612754
35,1610612754,1628410,203200,1627734,1627747,1627763,1610612745,1626174,1630256,202322,202340,203482,0022000461,1,457,457,0,2,1610612745
36,1610612754,1628410,203200,1627734,1627747,1627763,1610612745,1626174,1630256,202322,202340,203482,0022000461,1,462,462,1,0,1610612754
37,1610612754,1627734,1627763,1628988,203200,204456,1610612745,1626174,1629717,1630231,202322,202340,0022000461,1,474,483,0,0,1610612745
38,1610612754,1627734,1627763,1628988,203200,204456,1610612745,1626174,1629717,1630231,202322,202340,0022000461,1,483,499,3,0,1610612754
39,1610612754,1627734,1627763,1628988,203200,204456,1610612745,1626174,1629717,1630231,202322,202340,0022000461,1,514,517,0,0,1610612745
40,1610612754,1627734,1627763,1628988,203200,204456,1610612745,1626174,1629717,1630231,202322,202340,0022000461,1,519,520,0,0,1610612754
41,1610612754,1627734,1627763,1628988,203200,204456,1610612745,1626174,1629717,1630231,202322,202340,0022000461,1,524,524,0,1,1610612745
42,1610612754,1627734,1627763,1628988,203200,204456,1610612745,1626174,1629717,1630231,202322,202340,0022000461,1,536,539,0,0,1610612754
43,1610612754,1627734,1627763,1628988,203200,204456,1610612745,1626174,1629717,1630231,202322,202340,0022000461,1,544,544,0,2,1610612745
44,1610612754,1627734,1627763,1628988,203200,204456,1610612745,1626174,1629717,1630231,202322,202340,0022000461,1,550,550,0,0,1610612754
45,1610612754,1627734,1627763,1628988,203200,204456,1610612745,1626174,1629717,1630231,202322,202340,0022000461,1,557,557,0,0,1610612745
46,1610612754,1627734,1627763,1628988,203200,204456,1610612745,1626174,1629717,1630231,202322,202340,0022000461,1,562,562,2,0,1610612754
47,1610612754,1627734,1627763,1628988,203200,204456,1610612745,1626174,1629717,1630231,202322,202340,0022000461,1,582,582,0,2,1610612745
48,1610612754,1627734,1627763,1628988,203200,204456,1610612745,1626174,1629717,1630231,202322,202340,0022000461,1,590,601,0,0,1610612754
49,1610612754,1627763,1628988,1629048,203200,204456,1610612745,1626174,1629645,1629717,1630231,202340,0022000461,1,617,629,0,0,1610612745
50,1610612754,1628988,1629048,203087,203200,204456,1610612745,1626174,1629645,1629717,1630231,202340,0022000461,1,633,633,0,0,1610612754
51,1610612754,1628988,1629048,1629052,203087,204456,1610612745,1628391,1629645,1629717,1630231,202340,0022000461,1,652,652,0,0,1610612745
52,1610612754,1628988,1629048,1629052,203087,204456,1610612745,1628391,1629645,1629717,1630231,202340,0022000461,1,660,662,0,0,1610612754
53,1610612754,1628988,1629048,1629052,203087,204456,1610612745,1628391,1629645,1629717,1630231,202340,0022000461,1,674,676,0,0,1610612745
54,1610612754,1628988,1629048,1629052,203087,204456,1610612745,1628391,1629645,1629717,1630231,202340,0022000461,1,689,689,2,0,1610612754
55,1610612754,1628988,1629048,1629052,203087,204456,1610612745,1628391,1629645,1629717,1630231,202340,0022000461,1,709,711,0,0,1610612745
56,1610612754,1628988,1629048,1629052,203087,204456,1610612745,1628391,1629645,1629717,1630231,202340,0022000461,1,715,719,1,0,1610612754
57,1610612754,1628988,1629048,1629052,203087,204456,1610612745,1628391,1629645,1629717,1630231,202340,0022000461,1,720,720,0,0,0
58,1610612754,1628988,204456,1629048,203087,1629052,1610612745,1629645,202340,1630231,1629717,1628391,0022000461,2,720,737,0,0,1610612745
59,1610612754,1628988,204456,1629048,203087,1629052,1610612745,1629645,202340,1630231,1629717,1628391,0022000461,2,748,748,2,0,1610612754
60,1610612754,1628988,204456,1629048,203087,1629052,1610612745,1629645,202340,1630231,1629717,1628391,0022000461,2,760,760,0,0,1610612745
61,1610612754,1628988,204456,1629048,203087,1629052,1610612745,1629645,202340,1630231,1629717,1628391,0022000461,2,763,763,2,0,1610612754
62,1610612754,1628988,204456,1629048,203087,1629052,1610612745,1629645,202340,1630231,1629717,1628391,0022000461,2,777,777,0,0,1610612745
63,1610612754,1628988,204456,1629048,203087,1629052,1610612745,1629645,202340,1630231,1629717,1628391,0022000461,2,785,785,3,0,1610612754
64,1610612754,1628988,204456,1629048,203087,1629052,1610612745,1629645,202340,1630231,1629717,1628391,0022000461,2,800,803,0,0,1610612745
65,1610612754,1628988,204456,1629048,203087,1629052,1610612745,1629645,202340,1630231,1629717,1628391,0022000461,2,815,815,2,0,1610612754
66,1610612754,1628988,204456,1629048,203087,1629052,1610612745,1629645,202340,1630231,1629717,1628391,0022000461,2,815,833,0,0,1610612745
67,1610612754,1628988,204456,1629048,203087,1629052,1610612745,1628391,1629645,1629717,202340,203482,0022000461,2,837,837,0,0,1610612754
68,1610612754,1628988,204456,1629048,203087,1629052,1610612745,1628391,1629645,1629717,202340,203482,0022000461,2,846,846,0,2,1610612745
69,1610612754,1628988,204456,1629048,203087,1629052,1610612745,1628391,1629645,1629717,202340,203482,0022000461,2,869,873,3,0,1610612754
70,1610612754,1628988,204456,1629048,203087,1629052,1610612745,1628391,1629645,1629717,202340,203482,0022000461,2,888,891,0,0,1610612745
71,1610612754,1628988,204456,1629048,203087,1629052,1610612745,1628391,1629645,1629717,202340,203482,0022000461,2,896,896,2,0,1610612754
72,1610612754,1628988,204456,1629048,203087,1629052,1610612745,1628391,1629645,1629717,202340,203482,0022000461,2,915,915,0,3,1610612745
73,1610612754,1628988,204456,1629048,203087,1629052,1610612745,1628391,1629645,1629717,202340,203482,0022000461,2,928,928,2,0,1610612754
74,1610612754,1628988,204456,1629048,203087,1629052,1610612745,1628391,1629645,1629717,202340,203482,0022000461,2,945,948,0,0,1610612745
75,1610612754,1628988,204456,1629048,203087,1629052,1610612745,1628391,1629645,1629717,202340,203482,0022000461,2,955,955,2,0,1610612754
76,1610612754,1628988,204456,1629048,203087,1629052,1610612745,1626174,1629645,202322,202340,203482,0022000461,2,968,971,0,3,1610612745
77,1610612754,1628988,204456,1629048,203087,1629052,1610612745,1626174,1629645,1630256,202322,203482,0022000461,2,985,985,3,0,1610612754
78,1610612754,1628988,204456,1629048,203087,1629052,1610612745,1626174,1629645,1630256,202322,203482,0022000461,2,1001,1001,0,3,1610612745
79,1610612754,1627734,1627747,1628988,203087,204456,1610612745,1626174,1629645,1630256,202322,203482,0022000461,2,1017,1017,2,0,1610612754
80,1610612754,1627734,1627747,1628988,203087,204456,1610612745,1626174,1629645,1630256,202322,203482,0022000461,2,1024,1024,0,3,1610612745
81,1610612754,1627734,1627747,203087,203200,204456,1610612745,1626174,1629645,1630256,202322,203482,0022000461,2,1045,1045,2,0,1610612754
82,1610612754,1627734,1627747,203087,203200,204456,1610612745,1626174,1629645,1630256,202322,203482,0022000461,2,1053,1053,0,2,1610612745
83,1610612754,1627734,1627747,203087,203200,204456,1610612745,1626174,1629645,1630256,202322,203482,0022000461,2,1061,1061,0,0,1610612754
84,1610612754,1627734,1627747,203087,203200,204456,1610612745,1626174,1629645,1630256,202322,203482,0022000461,2,1074,1074,0,2,1610612745
85,1610612754,1627734,1627747,203087,203200,204456,1610612745,1626174,1629645,1630256,202322,203482,0022000461,2,1089,1089,0,0,1610612754
86,1610612754,1627734,1627747,1627763,203087,203200,1610612745,1626174,1629645,1630256,202322,203482,0022000461,2,1096,1098,0,0,1610612745
87,1610612754,1627734,1627747,1627763,203087,203200,1610612745,1626174,1629645,1630256,202322,203482,0022000461,2,1103,1105,0,0,1610612754
88,1610612754,1627734,1627747,1627763,203087,203200,1610612745,1626174,1629645,1630256,202322,203482,0022000461,2,1114,1116,0,0,1610612745
89,1610612754,1627734,1627747,1627763,203087,203200,1610612745,1626174,1629645,1630256,202322,203482,0022000461,2,1119,1119,3,0,1610612754
90,1610612754,1627734,1627747,1627763,203087,203200,1610612745,1626174,1629645,1630256,202322,203482,0022000461,2,1134,1147,0,2,1610612745
91,1610612754,1627734,1627747,1627763,203087,203200,1610612745,1626174,1629645,1630256,202322,203482,0022000461,2,1163,1163,2,0,1610612754
92,1610612754,1627734,1627747,1627763,203087,203200,1610612745,1626174,1629645,1630256,202322,203482,0022000461,2,1172,1177,0,0,1610612745
93,1610612754,1627734,1627747,1627763,203087,203200,1610612745,1626174,1629645,1630256,202322,203482,0022000461,2,1184,1184,2,0,1610612754
94,1610612754,1627734,1627747,1627763,203087,203200,1610612745,1626174,1629645,1630256,202322,203482,0022000461,2,1200,1200,0,2,1610612745
95,1610612754,1627734,1627747,1627763,203087,203200,1610612745,1626174,1629645,1630256,202322,203482,0022000461,2,1208,1208,0,0,1610612754
96,1610612754,1627734,1627747,1627763,203087,203200,1610612745,1626174,1629645,1630256,202322,203482,0022000461,2,1212,1221,0,0,1610612745
97,1610612754,1627734,1627747,1627763,203087,203200,1610612745,1626174,1629645,1630256,202322,203482,0022000461,2,1234,1249,2,0,1610612754
98,1610612754,1627734,1627747,1627763,203087,203200,1610612745,1626174,1629645,1630256,202322,203482,0022000461,2,1257,1273,0,1,1610612745
99,1610612754,1627734,1627747,1627763,203087,203200,1610612745,1626174,1629645,1630256,202322,203482,0022000461,2,1275,1285,2,0,1610612754
100,1610612754,1627734,1627747,1627763,203087,203200,1610612745,1626174,1629645,1630256,202322,203482,0022000461,2,1296,1296,0,2,1610612745
101,1610612754,1627734,1627747,1627763,203087,203200,1610612745,1626174,1629645,1630256,202322,203482,0022000461,2,1318,1321,0,0,1610612754
102,1610612754,1627734,1627747,1627763,203087,203200,1610612745,1626174,1629645,1630256,202322,203482,0022000461,2,1330,1333,0,0,1610612745
103,1610612754,1627734,1627747,1627763,203087,203200,1610612745,1626174,1629645,1630256,202322,203482,0022000461,2,1337,1346,0,0,1610612754
104,1610612754,1627734,1627747,1627763,203087,203200,1610612745,1626174,1629645,1630256,202322,203482,0022000461,2,1354,1360,0,1,1610612745
105,1610612754,1627747,1627763,1629048,203087,203200,1610612745,1626174,1629645,1630256,202322,203482,0022000461,2,1371,1372,0,0,1610612754
106,1610612754,1627747,1627763,1629048,203087,203200,1610612745,1626174,1629645,1630256,202322,203482,0022000461,2,1381,1381,0,0,1610612745
107,1610612754,1627747,1627763,1629048,203087,203200,1610612745,1626174,1629645,1630256,202322,203482,0022000461,2,1392,1392,3,0,1610612754
108,1610612754,1627747,1627763,1629048,203087,203200,1610612745,1626174,1629645,1630256,202322,203482,0022000461,2,1404,1404,0,3,1610612745
109,1610612754,1627747,1627763,1629048,203087,203200,1610612745,1626174,1629645,1630256,202322,203482,0022000461,2,1408,1408,3,0,1610612754
110,1610612754,1627747,1627763,1629048,203087,203200,1610612745,1626174,1629645,1630256,202322,203482,0022000461,2,1419,1423,0,2,1610612745
111,1610612754,1627747,1627763,1629048,203087,203200,1610612745,1626174,1629645,1630256,202322,203482,0022000461,2,1439,1439,0,0,1610612754
112,1610612754,1628410,203200,1627734,1627747,1627763,1610612745,1630256,203482,1626174,1629645,202322,0022000461,3,1440,1452,0,2,1610612745
113,1610612754,1628410,203200,1627734,1627747,1627763,1610612745,1630256,203482,1626174,1629645,202322,0022000461,3,1467,1467,0,0,1610612754
114,1610612754,1628410,203200,1627734,1627747,1627763,1610612745,1630256,203482,1626174,1629645,202322,0022000461,3,1479,1479,0,3,1610612745
115,1610612754,1628410,203200,1627734,1627747,1627763,1610612745,1630256,203482,1626174,1629645,202322,0022000461,3,1501,1501,2,0,1610612754
116,1610612754,1628410,203200,1627734,1627747,1627763,1610612745,1630256,203482,1626174,1629645,202322,0022000461,3,1527,1529,0,0,1610612745
117,1610612754,1628410,203200,1627734,1627747,1627763,1610612745,1630256,203482,1626174,1629645,202322,0022000461,3,1539,1539,3,0,1610612754
118,1610612754,1628410,203200,1627734,1627747,1627763,1610612745,1630256,203482,1626174,1629645,202322,0022000461,3,1565,1565,0,2,1610612745
119,1610612754,1628410,203200,1627734,1627747,1627763,1610612745,1630256,203482,1626174,1629645,202322,0022000461,3,1572,1586,2,0,1610612754
120,1610612754,1628410,203200,1627734,1627747,1627763,1610612745,1630256,203482,1626174,1629645,202322,0022000461,3,1595,1595,0,3,1610612745
121,1610612754,1628410,203200,1627734,1627747,1627763,1610612745,1630256,203482,1626174,1629645,202322,0022000461,3,1608,1608,0,0,1610612754
122,1610612754,1628410,203200,1627734,1627747,1627763,1610612745,1630256,203482,1626174,1629645,202322,0022000461,3,1615,1615,0,0,1610612745
123,1610612754,1628410,203200,1627734,1627747,1627763,1610612745,1630256,203482,1626174,1629645,202322,0022000461,3,1625,1625,3,0,1610612754
124,1610612754,1628410,203200,1627734,1627747,1627763,1610612745,1630256,203482,1626174,1629645,202322,0022000461,3,1638,1638,0,2,1610612745
125,1610612754,1628410,203200,1627734,1627747,1627763,1610612745,1630256,203482,1626174,1629645,202322,0022000461,3,1649,1651,0,0,1610612754
126,1610612754,1628410,203200,1627734,1627747,1627763,1610612745,1630256,203482,1626174,1629645,202322,0022000461,3,1656,1656,0,2,1610612745
127,1610612754,1628410,203200,1627734,1627747,1627763,1610612745,1630256,203482,1626174,1629645,202322,0022000461,3,1663,1664,0,0,1610612754
128,1610612754,1628410,203200,1627734,1627747,1627763,1610612745,1630256,203482,1626174,1629645,202322,0022000461,3,1672,1672,0,2,1610612745
129,1610612754,1628410,203200,1627734,1627747,1627763,1610612745,1630256,203482,1626174,1629645,202322,0022000461,3,1672,1683,0,0,1610612754
130,1610612754,1628410,203200,1627734,1627747,1627763,1610612745,1630256,203482,1626174,1629645,202322,0022000461,3,1689,1693,0,2,1610612745
131,1610612754,1628410,203200,1627734,1627747,1627763,1610612745,1630256,203482,1626174,1629645,202322,0022000461,3,1708,1711,2,0,1610612754
132,1610612754,1628410,203200,1627734,1627747,1627763,1610612745,1630256,203482,1626174,1629645,202322,0022000461,3,1726,1726,0,0,1610612745
133,1610612754,1628410,203200,1627734,1627747,1627763,1610612745,1630256,203482,1626174,1629645,202322,0022000461,3,1732,1735,0,0,1610612754
134,1610612754,1628410,203200,1627734,1627747,1627763,1610612745,1630256,203482,1626174,1629645,202322,0022000461,3,1739,1742,0,0,1610612745
135,1610612754,1628410,203200,1627734,1627747,1627763,1610612745,1630256,203482,1626174,1629645,202322,0022000461,3,1754,1762,0,0,1610612754
136,1610612754,1628410,203200,1627734,1627747,1627763,1610612745,1630256,203482,1626174,1629645,202322,0022000461,3,1771,1773,0,2,1610612745
137,1610612754,1628410,203200,1627734,1627747,1627763,1610612745,1626174,1630256,202322,202340,203482,0022000461,3,1788,1788,2,0,1610612754
138,1610612754,1628410,203200,1627734,1627747,1627763,1610612745,1626174,1630256,202322,202340,203482,0022000461,3,1802,1802,0,0,1610612745
139,1610612754,1628410,203200,1627734,1627747,1627763,1610612745,1626174,1630256,202322,202340,203482,0022000461,3,1806,1806,0,0,1610612754
140,1610612754,1628410,203200,1627734,1627747,1627763,1610612745,1626174,1630256,202322,202340,203482,0022000461,3,1809,1809,0,2,1610612745
141,1610612754,1628410,203200,1627734,1627747,1627763,1610612745,1626174,1630256,202322,202340,203482,0022000461,3,1831,1835,1,0,1610612754
142,1610612754,1627734,1627763,1628410,203200,204456,1610612745,1626174,1630256,202322,202340,203482,0022000461,3,1849,1853,0,2,1610612745
143,1610612754,1627734,1627763,1628410,203200,204456,1610612745,1626174,1630256,202322,202340,203482,0022000461,3,1875,1875,3,0,1610612754
144,1610612754,1627734,1627763,1628410,203200,204456,1610612745,1626174,1630256,202322,202340,203482,0022000461,3,1891,1891,0,3,1610612745
145,1610612754,1627734,1627763,203087,203200,204456,1610612745,1626174,1630231,202322,202340,203482,0022000461,3,1907,1907,0,0,1610612754
146,1610612754,1627734,1627763,203087,203200,204456,1610612745,1626174,1630231,202322,202340,203482,0022000461,3,1910,1910,0,2,1610612745
147,1610612754,1627734,1627763,203087,203200,204456,1610612745,1626174,1630231,202322,202340,203482,0022000461,3,1922,1922,2,0,1610612754
148,1610612754,1627734,1627763,203087,203200,204456,1610612745,1626174,1630231,202322,202340,203482,0022000461,3,1922,1935,1,0,1610612745
149,1610612754,1627734,1627763,203087,203200,204456,1610612745,1626174,1630231,202322,202340,203482,0022000461,3,1941,1943,0,0,1610612754
150,1610612754,1627734,1627763,203087,203200,204456,1610612745,1626174,1630231,202322,202340,203482,0022000461,3,1947,1947,0,2,1610612745
151,1610612754,1627734,1627763,203087,203200,204456,1610612745,1626174,1630231,202322,202340,203482,0022000461,3,1958,1958,2,0,1610612754
152,1610612754,1627734,1627763,203087,203200,204456,1610612745,1626174,1630231,202322,202340,203482,0022000461,3,1977,1977,0,3,1610612745
153,1610612754,1627734,1627763,203087,203200,204456,1610612745,1626174,1630231,202322,202340,203482,0022000461,3,1988,1988,2,0,1610612754
154,1610612754,1627734,1627763,203087,203200,204456,1610612745,1626174,1630231,202322,202340,203482,0022000461,3,2000,2008,0,0,1610612745
155,1610612754,1627734,1627763,203087,203200,204456,1610612745,1626174,1630231,202322,202340,203482,0022000461,3,2012,2012,0,0,1610612754
156,1610612754,1627734,1627763,203087,203200,204456,1610612745,1626174,1630231,202322,202340,203482,0022000461,3,2015,2023,0,0,1610612745
157,1610612754,1627734,1627763,203087,203200,204456,1610612745,1629645,1629717,1630231,202340,203482,0022000461,3,2038,2061,2,0,1610612754
158,1610612754,1627734,1627763,203087,203200,204456,1610612745,1629645,1629717,1630231,202340,203482,0022000461,3,2079,2079,0,3,1610612745
159,1610612754,1627734,1627763,203087,203200,204456,1610612745,1629645,1629717,1630231,202340,203482,0022000461,3,2092,2094,0,0,1610612754
160,1610612754,1627734,1627763,203087,203200,204456,1610612745,1629645,1629717,1630231,202340,203482,0022000461,3,2101,2103,0,0,1610612745
161,1610612754,1627734,1627763,203087,203200,204456,1610612745,1629645,1629717,1630231,202340,203482,0022000461,3,2116,2118,2,0,1610612754
162,1610612754,1627734,1628988,203087,203200,204456,1610612745,1629645,1629717,1630231,202340,203482,0022000461,3,2138,2138,0,0,1610612745
163,1610612754,1627734,1628988,203087,203200,204456,1610612745,1629645,1629717,1630231,202340,203482,0022000461,3,2156,2156,2,0,1610612754
164,1610612754,1627734,1628988,203087,203200,204456,1610612745,1629645,1629717,1630231,202340,203482,0022000461,3,2160,2160,0,2,1610612745
165,1610612754,1627734,1628988,203087,203200,204456,1610612745,1629645,1629717,1630231,202340,203482,0022000461,3,2160,2160,0,0,510
166,1610612754,1628988,204456,1629048,203087,1629052,1610612745,1630256,1629645,202340,1630231,1629717,0022000461,4,2160,2171,3,0,1610612754
167,1610612754,1628988,204456,1629048,203087,1629052,1610612745,1630256,1629645,202340,1630231,1629717,0022000461,4,2179,2179,0,2,1610612745
168,1610612754,1628988,204456,1629048,203087,1629052,1610612745,1630256,1629645,202340,1630231,1629717,0022000461,4,2189,2189,0,0,1610612754
169,1610612754,1628988,204456,1629048,203087,1629052,1610612745,1630256,1629645,202340,1630231,1629717,0022000461,4,2195,2195,0,2,1610612745
170,1610612754,1628988,204456,1629048,203087,1629052,1610612745,1630256,1629645,202340,1630231,1629717,0022000461,4,2210,2213,0,0,1610612754
171,1610612754,1628988,204456,1629048,203087,1629052,1610612745,1630256,1629645,202340,1630231,1629717,0022000461,4,2219,2219,0,0,1610612745
172,1610612754,1628988,204456,1629048,203087,1629052,1610612745,1630256,1629645,202340,1630231,1629717,0022000461,4,2230,2230,0,0,1610612754
173,1610612754,1628988,204456,1629048,203087,1629052,1610612745,1630256,1629645,202340,1630231,1629717,0022000461,4,2243,2243,0,2,1610612745
174,1610612754,1628988,204456,1629048,203087,1629052,1610612745,1630256,1629645,202340,1630231,1629717,0022000461,4,2259,2272,2,0,1610612754
175,1610612754,1628988,204456,1629048,203087,1629052,1610612745,1630256,1629645,202340,1630231,1629717,0022000461,4,2281,2285,0,0,1610612745
176,1610612754,1628988,204456,1629048,203087,1629052,1610612745,1630256,1629645,202340,1630231,1629717,0022000461,4,2297,2297,0,0,1610612754
177,1610612754,1628988,204456,1629048,203087,1629052,1610612745,1630256,1629645,202340,1630231,1629717,0022000461,4,2309,2309,0,3,1610612745
178,1610612754,1628988,204456,1629048,203087,1629052,1610612745,1630256,1629645,202340,1630231,1629717,0022000461,4,2329,2329,0,0,1610612754
179,1610612754,1628988,204456,1629048,203087,1629052,1610612745,1630256,1629645,202340,1630231,1629717,0022000461,4,2333,2338,0,0,1610612745
180,1610612754,1628988,204456,1629048,203087,1629052,1610612745,1630256,1629645,202340,1630231,1629717,0022000461,4,2338,2338,3,0,1610612754
181,1610612754,1627734,1628988,1629052,203087,204456,1610612745,1630256,1629645,202340,1630231,1629717,0022000461,4,2354,2356,0,0,1610612745
182,1610612754,1627734,1628988,1629052,203087,204456,1610612745,1630256,1629645,202340,1630231,1629717,0022000461,4,2364,2370,0,0,1610612754
183,1610612754,1627734,1628988,1629052,203087,204456,1610612745,1630256,1629645,202340,1630231,1629717,0022000461,4,2373,2390,0,0,1610612745
184,1610612754,1627734,1627747,203087,203200,204456,1610612745,1626174,1629645,1630256,202322,202340,0022000461,4,2393,2393,2,0,1610612754
185,1610612754,1627734,1627747,203087,203200,204456,1610612745,1626174,1629645,1630256,202322,202340,0022000461,4,2393,2404,0,0,1610612745
186,1610612754,1627734,1627747,203087,203200,204456,1610612745,1626174,1629645,1630256,202322,203482,0022000461,4,2417,2417,0,0,1610612754
187,1610612754,1627734,1627747,203087,203200,204456,1610612745,1626174,1629645,1630256,202322,203482,0022000461,4,2433,2440,0,2,1610612745
188,1610612754,1627734,1627747,203087,203200,204456,1610612745,1626174,1629645,1630256,202322,203482,0022000461,4,2453,2453,0,0,1610612754
189,1610612754,1627734,1627747,203087,203200,204456,1610612745,1626174,1629645,1630256,202322,203482,0022000461,4,2462,2462,0,2,1610612745
190,1610612754,1627734,1627747,203087,203200,204456,1610612745,1626174,1629645,1630256,202322,203482,0022000461,4,2483,2483,0,0,1610612754
191,1610612754,1627734,1627747,203087,203200,204456,1610612745,1626174,1629645,1630256,202322,203482,0022000461,4,2485,2485,0,2,1610612745
192,1610612754,1627734,1627747,1627763,203087,203200,1610612745,1626174,1629645,1630256,202322,203482,0022000461,4,2505,2508,2,0,1610612754
193,1610612754,1627734,1627747,1627763,203087,203200,1610612745,1626174,1629645,1630256,202322,203482,0022000461,4,2522,2522,0,3,1610612745
194,1610612754,1627734,1627747,1627763,203087,203200,1610612745,1626174,1629645,1630256,202322,203482,0022000461,4,2540,2540,2,0,1610612754
195,1610612754,1627734,1627747,1627763,203087,203200,1610612745,1626174,1629645,1630256,202322,203482,0022000461,4,2556,2576,0,0,1610612745
196,1610612754,1627734,1627747,1627763,203087,203200,1610612745,1626174,1629645,1630256,202322,203482,0022000461,4,2580,2580,0,0,1610612754
197,1610612754,1627734,1627747,1627763,203087,203200,1610612745,1626174,1629645,1630256,202322,203482,0022000461,4,2587,2590,0,0,1610612745
198,1610612754,1627734,1627747,1627763,203087,203200,1610612745,1626174,1629645,1630256,202322,203482,0022000461,4,2590,2617,3,1,1610612754
199,1610612754,1627734,1627747,1627763,203087,203200,1610612745,1626174,1629645,1630256,202322,203482,0022000461,4,2627,2627,0,3,1610612745
200,1610612754,1627734,1627747,1627763,203087,203200,1610612745,1626174,1629645,1630256,202322,203482,0022000461,4,2645,2646,0,0,1610612754
201,1610612754,1627734,1627747,1627763,203087,203200,1610612745,1626174,1629645,1630256,202322,203482,0022000461,4,2656,2670,0,0,1610612745
202,1610612754,1627734,1627747,1627763,203087,203200,1610612745,1626174,1629645,1630256,202322,203482,0022000461,4,2694,2699,3,0,1610612754
203,1610612754,1627734,1627747,1627763,203087,203200,1610612745,1626174,1629645,1630256,202322,203482,0022000461,4,2715,2715,0,2,1610612745
204,1610612754,1627734,1627747,1627763,203087,203200,1610612745,1626174,1629645,1630256,202322,203482,0022000461,4,2739,2739,2,0,1610612754
205,1610612754,1627734,1627747,1627763,203087,203200,1610612745,1626174,1629645,1630256,202322,203482,0022000461,4,2760,2763,0,0,1610612745
206,1610612754,1627734,1627747,1627763,203087,203200,1610612745,1626174,1629645,1630256,202322,203482,0022000461,4,2781,2781,0,0,1610612754
207,1610612754,1627734,1627747,1627763,203087,203200,1610612745,1626174,1629645,1630256,202322,203482,0022000461,4,2781,2793,0,0,1610612745
208,1610612754,1627734,1627747,1627763,203087,203200,1610612745,1626174,1629645,1630256,202322,203482,0022000461,4,2811,2817,2,0,1610612754
209,1610612754,1627734,1627747,1627763,203087,203200,1610612745,1626174,1629645,1630256,202322,203482,0022000461,4,2827,2827,0,2,1610612745
210,1610612754,1627734,1627747,1627763,203087,203200,1610612745,1626174,1629645,1630256,202322,203482,0022000461,4,2833,2833,2,0,1610612754
211,1610612754,1627734,1627747,1627763,203087,203200,1610612745,1626174,1629645,1630256,202322,203482,0022000461,4,2840,2840,0,2,1610612745
212,1610612754,1627734,1627747,1627763,203087,203200,1610612745,1626174,1629645,1630256,202322,203482,0022000461,4,2861,2863,0,0,1610612754
213,1610612754,1627734,1627747,1627763,203087,203200,1610612745,1626174,1629645,1630256,202322,203482,0022000461,4,2866,2866,0,2,1610612745
