,team1_id,team1_player1,team1_player2,team1_player3,team1_player4,team1_player5,team2_id,team2_player1,team2_player2,team2_player3,team2_player4,team2_player5,game_id,period,possession_start,possession_end,team1_points,team2_points,possession_team
0,1610612757,1626181,203496,203994,203468,203081,1610612763,1628415,203937,202685,1628960,1629630,0022000939,1,0,17,2,0,1610612757
1,1610612757,1626181,203496,203994,203468,203081,1610612763,1628415,203937,202685,1628960,1629630,0022000939,1,40,40,0,2,1610612763
2,1610612757,1626181,203496,203994,203468,203081,1610612763,1628415,203937,202685,1628960,1629630,0022000939,1,56,56,2,0,1610612757
3,1610612757,1626181,203496,203994,203468,203081,1610612763,1628415,203937,202685,1628960,1629630,0022000939,1,72,75,0,0,1610612763
4,1610612757,1626181,203496,203994,203468,203081,1610612763,1628415,203937,202685,1628960,1629630,0022000939,1,82,82,2,0,1610612757
5,1610612757,1626181,203496,203994,203468,203081,1610612763,1628415,203937,202685,1628960,1629630,0022000939,1,94,94,0,3,1610612763
6,1610612757,1626181,203496,203994,203468,203081,1610612763,1628415,203937,202685,1628960,1629630,0022000939,1,118,121,0,0,1610612757
7,1610612757,1626181,203496,203994,203468,203081,1610612763,1628415,203937,202685,1628960,1629630,0022000939,1,126,126,0,3,1610612763
8,1610612757,1626181,203496,203994,203468,203081,1610612763,1628415,203937,202685,1628960,1629630,0022000939,1,138,141,0,0,1610612757
9,1610612757,1626181,203496,203994,203468,203081,1610612763,1628415,203937,202685,1628960,1629630,0022000939,1,148,150,0,0,1610612763
10,1610612757,1626181,203496,203994,203468,203081,1610612763,1628415,203937,202685,1628960,1629630,0022000939,1,158,162,0,0,1610612757
11,1610612757,1626181,203496,203994,203468,203081,1610612763,1628415,203937,202685,1628960,1629630,0022000939,1,172,175,0,0,1610612763
12,1610612757,1626181,203496,203994,203468,203081,1610612763,1628415,203937,202685,1628960,1629630,0022000939,1,183,183,2,0,1610612757
13,1610612757,1626181,203496,203994,203468,203081,1610612763,1628415,203937,202685,1628960,1629630,0022000939,1,195,195,0,2,1610612763
14,1610612757,1626181,203496,203994,203468,203081,1610612763,1628415,203937,202685,1628960,1629630,0022000939,1,213,215,0,0,1610612757
15,1610612757,1626181,203496,203994,203468,203081,1610612763,1628415,203937,202685,1628960,1629630,0022000939,1,220,222,0,0,1610612763
16,1610612757,1626181,203496,203994,203468,203081,1610612763,1628415,203937,202685,1628960,1629630,0022000939,1,233,233,2,0,1610612757
17,1610612757,1626181,203496,203994,203468,203081,1610612763,1628415,203937,202685,1628960,1629630,0022000939,1,255,260,0,0,1610612763
18,1610612757,1626181,203496,203994,203468,203081,1610612763,1628415,203937,202685,1628960,1629630,0022000939,1,261,261,3,0,1610612757
19,1610612757,1626181,203496,203994,203468,203081,1610612763,1628415,203937,202685,1628960,1629630,0022000939,1,273,273,0,0,1610612763
20,1610612757,1626181,203496,203994,203468,203081,1610612763,1628415,203937,202685,1628960,1629630,0022000939,1,274,298,0,0,1610612757
21,1610612757,1626181,203496,203994,203468,203081,1610612763,1628415,203937,202685,1628960,1629630,0022000939,1,303,307,0,0,1610612763
22,1610612757,1626181,203496,203994,203468,203081,1610612763,1628415,203937,202685,1628960,1629630,0022000939,1,320,324,0,0,1610612757
23,1610612757,1626181,203496,203994,203468,203081,1610612763,1628415,203937,202685,1628960,1629630,0022000939,1,325,336,0,1,1610612763
24,1610612757,1626181,203496,203994,203468,203081,1610612763,1628415,1629001,1629630,202685,203937,0022000939,1,347,347,2,0,1610612757
25,1610612757,1626181,203496,203994,203468,203081,1610612763,1628415,1629001,1629630,202685,203937,0022000939,1,370,370,0,2,1610612763
26,1610612757,1626181,203496,203994,203468,203081,1610612763,1628415,1629001,1629630,202685,203937,0022000939,1,387,387,3,0,1610612757
27,1610612757,1626181,203496,203994,203468,203081,1610612763,1628415,1629001,1629630,202685,203937,0022000939,1,398,398,0,0,1610612763
28,1610612757,1626181,203496,203994,203468,203081,1610612763,1628415,1628991,1629001,1629630,202685,0022000939,1,410,410,3,0,1610612757
29,1610612757,1626181,203496,203994,203468,203081,1610612763,1628415,1628991,1629001,1629630,202685,0022000939,1,423,423,0,2,1610612763
30,1610612757,1629014,203081,203496,203994,2546,1610612763,1628415,1628991,1629001,1629630,202685,0022000939,1,437,437,3,0,1610612757
31,1610612757,1629014,203081,203496,203994,2546,1610612763,1628415,1628991,1629001,1629630,202685,0022000939,1,448,453,0,0,1610612763
32,1610612757,1629014,203081,203496,203994,2546,1610612763,1628415,1628991,1629001,1629630,202685,0022000939,1,456,464,0,0,1610612757
33,1610612757,1626178,1629014,203081,203496,2546,1610612763,1628415,1628991,1629001,1629630,1629634,0022000939,1,469,469,0,3,1610612763
34,1610612757,1626178,1629014,203081,203496,2546,1610612763,1628415,1628991,1629001,1629630,1629634,0022000939,1,483,483,2,0,1610612757
35,1610612757,1626178,1629014,203081,203496,2546,1610612763,1628415,1628991,1629001,1629630,1629634,0022000939,1,495,495,0,0,1610612763
36,1610612757,1626178,1629014,203081,203496,2546,1610612763,1628415,1628991,1629001,1629630,1629634,0022000939,1,508,525,0,0,1610612757
37,1610612757,1626178,1629014,203081,203496,2546,1610612763,1628415,1628991,1629001,1629630,1629634,0022000939,1,526,526,0,3,1610612763
38,1610612757,1626178,1629014,203081,203496,2546,1610612763,1628415,1628991,1629001,1629630,1629634,0022000939,1,543,543,2,0,1610612757
39,1610612757,1626178,1629014,203081,203496,2546,1610612763,1628415,1628991,1629001,1629630,1629634,0022000939,1,557,559,0,0,1610612763
40,1610612757,1626178,1629014,203081,203496,2546,1610612763,1626159,1628991,1629001,1629634,1630217,0022000939,1,561,561,2,0,1610612757
41,1610612757,1626178,1629014,203081,203496,2546,1610612763,1626159,1628991,1629001,1629634,1630217,0022000939,1,586,586,0,2,1610612763
42,1610612757,1626178,1629014,203081,203496,2546,1610612763,1626159,1628991,1629001,1629634,1630217,0022000939,1,603,603,3,0,1610612757
43,1610612757,1626178,1629014,203081,203496,2546,1610612763,1626159,1628991,1629001,1629634,1630217,0022000939,1,613,615,0,0,1610612763
44,1610612757,1626178,1629014,203081,203496,2546,1610612763,1626159,1628991,1629001,1629634,1630217,0022000939,1,623,623,2,0,1610612757
45,1610612757,1626178,1629014,203081,203496,2546,1610612763,1626159,1628991,1629001,1629634,1630217,0022000939,1,641,644,0,0,1610612763
46,1610612757,1626178,1629014,203081,203496,2546,1610612763,1626159,1628991,1629001,1629634,1630217,0022000939,1,651,656,0,0,1610612757
47,1610612757,1626178,1629014,203081,203496,2546,1610612763,1626159,1628991,1629001,1629634,1630217,0022000939,1,661,668,0,0,1610612763
48,1610612757,1626178,1629014,203081,203496,2546,1610612763,1626159,1628991,1629001,1629634,1630217,0022000939,1,688,692,0,0,1610612757
49,1610612757,1626178,1629014,203081,203496,2546,1610612763,1626159,1628991,1629001,1629634,1630217,0022000939,1,692,692,0,0,1610612763
50,1610612757,1629014,203081,203468,203496,2546,1610612763,1626159,1628991,1629001,1629634,1630217,0022000939,1,715,715,3,0,1610612757
51,1610612757,1626181,203468,2546,1629014,202683,1610612763,202685,1629001,1629634,1626159,1630217,0022000939,2,720,731,0,2,1610612763
52,1610612757,1626181,203468,2546,1629014,202683,1610612763,202685,1629001,1629634,1626159,1630217,0022000939,2,750,750,2,0,1610612757
53,1610612757,1626181,203468,2546,1629014,202683,1610612763,202685,1629001,1629634,1626159,1630217,0022000939,2,768,771,0,0,1610612763
54,1610612757,1626181,203468,2546,1629014,202683,1610612763,202685,1629001,1629634,1626159,1630217,0022000939,2,776,778,0,0,1610612757
55,1610612757,1626181,203468,2546,1629014,202683,1610612763,202685,1629001,1629634,1626159,1630217,0022000939,2,782,784,0,1,1610612763
56,1610612757,1626181,203468,2546,1629014,202683,1610612763,202685,1629001,1629634,1626159,1630217,0022000939,2,804,804,2,0,1610612757
57,1610612757,1626181,203468,2546,1629014,202683,1610612763,202685,1629001,1629634,1626159,1630217,0022000939,2,819,825,0,0,1610612763
58,1610612757,1626181,203468,2546,1629014,202683,1610612763,202685,1629001,1629634,1626159,1630217,0022000939,2,836,840,0,0,1610612757
59,1610612757,1626181,203468,2546,1629014,202683,1610612763,202685,1629001,1629634,1626159,1630217,0022000939,2,844,858,0,2,1610612763
60,1610612757,1626181,203468,2546,1629014,202683,1610612763,202685,1629001,1629634,1626159,1630217,0022000939,2,864,864,2,0,1610612757
61,1610612757,1626181,203468,2546,1629014,202683,1610612763,202685,1629001,1629634,1626159,1630217,0022000939,2,881,881,0,2,1610612763
62,1610612757,1626181,203468,2546,1629014,202683,1610612763,202685,1629001,1629634,1626159,1630217,0022000939,2,894,896,2,0,1610612757
63,1610612757,1626181,203468,2546,1629014,202683,1610612763,202685,1629001,1629634,1626159,1630217,0022000939,2,896,919,0,0,1610612763
64,1610612757,1626181,203468,2546,1629014,202683,1610612763,202685,1629001,1629634,1626159,1630217,0022000939,2,934,934,3,0,1610612757
65,1610612757,1626181,203468,2546,1629014,202683,1610612763,202685,1629001,1629634,1626159,1630217,0022000939,2,948,948,0,2,1610612763
66,1610612757,1626181,203468,2546,1629014,202683,1610612763,202685,1629001,1629634,1626159,1630217,0022000939,2,968,968,2,0,1610612757
67,1610612757,1626181,203468,2546,1629014,202683,1610612763,202685,1629001,1629634,1626159,1630217,0022000939,2,977,977,0,0,1610612763
68,1610612757,1626181,203468,2546,1629014,202683,1610612763,1626159,1628415,1630217,202685,203937,0022000939,2,993,1003,2,0,1610612757
69,1610612757,1626181,202683,203081,203468,2546,1610612763,1626159,1628415,1628991,1630217,203937,0022000939,2,1012,1012,0,2,1610612763
70,1610612757,1626181,203081,203468,203994,2546,1610612763,1626159,1628415,1628991,1630217,203937,0022000939,2,1025,1025,3,0,1610612757
71,1610612757,1626181,203081,203468,203994,2546,1610612763,1626159,1628415,1628991,1630217,203937,0022000939,2,1037,1040,0,0,1610612763
72,1610612757,1626181,203081,203468,203994,2546,1610612763,1626159,1628415,1628991,1630217,203937,0022000939,2,1045,1048,0,0,1610612757
73,1610612757,1626181,203081,203468,203994,2546,1610612763,1626159,1628415,1628991,1630217,203937,0022000939,2,1054,1055,0,0,1610612763
74,1610612757,1626181,203081,203468,203994,2546,1610612763,1626159,1628415,1628991,1630217,203937,0022000939,2,1055,1079,2,0,1610612757
75,1610612757,1626181,203081,203468,203994,2546,1610612763,1628415,1628991,1629630,1630217,203937,0022000939,2,1084,1094,0,0,1610612763
76,1610612757,1626181,203081,203468,203994,2546,1610612763,1628415,1628991,1629630,1630217,203937,0022000939,2,1102,1102,0,0,1610612757
77,1610612757,1626181,203081,203468,203994,2546,1610612763,1628415,1628991,1629001,1629630,203937,0022000939,2,1113,1117,0,0,1610612763
78,1610612757,1626181,203081,203468,203994,2546,1610612763,1628415,1628991,1629001,1629630,203937,0022000939,2,1118,1127,0,0,1610612757
79,1610612757,1626181,203081,203468,203994,2546,1610612763,1628415,1628991,1629001,1629630,203937,0022000939,2,1130,1130,0,2,1610612763
80,1610612757,1626181,203081,203468,203994,2546,1610612763,1628415,1628991,1629001,1629630,203937,0022000939,2,1142,1142,2,0,1610612757
81,1610612757,1626181,203081,203468,203994,2546,1610612763,1628415,1628991,1629001,1629630,203937,0022000939,2,1149,1151,0,0,1610612763
82,1610612757,1626181,203081,203468,203994,2546,1610612763,1628415,1628991,1629001,1629630,203937,0022000939,2,1156,1156,2,0,1610612757
83,1610612757,1626181,203081,203468,203994,2546,1610612763,1628415,1628991,1629001,1629630,203937,0022000939,2,1156,1174,0,0,1610612763
84,1610612757,1626181,203081,203468,203496,203994,1610612763,1628415,1628991,1629001,1629630,203937,0022000939,2,1184,1184,2,0,1610612757
85,1610612757,1626181,203081,203468,203496,203994,1610612763,1628415,1628991,1629001,1629630,203937,0022000939,2,1198,1201,0,0,1610612763
86,1610612757,1626181,203081,203468,203496,203994,1610612763,1628415,1628991,1629001,1629630,203937,0022000939,2,1216,1219,0,0,1610612757
87,1610612757,1626181,203081,203468,203496,203994,1610612763,1628415,1628991,1629001,1629630,203937,0022000939,2,1222,1228,0,0,1610612763
88,1610612757,1626181,203081,203468,203496,203994,1610612763,1628415,1628991,1629001,1629630,203937,0022000939,2,1233,1233,2,0,1610612757
89,1610612757,1626181,203081,203468,203496,203994,1610612763,1628415,1628960,1628991,1629630,203937,0022000939,2,1244,1244,0,2,1610612763
90,1610612757,1626181,203081,203468,203496,203994,1610612763,1628415,1628960,1628991,1629630,203937,0022000939,2,1257,1257,2,0,1610612757
91,1610612757,1626181,203081,203468,203496,203994,1610612763,1628415,1628960,1628991,1629630,203937,0022000939,2,1268,1272,0,0,1610612763
92,1610612757,1626181,203081,203468,203496,203994,1610612763,1628415,1628960,1628991,1629630,203937,0022000939,2,1281,1281,3,0,1610612757
93,1610612757,1626181,203081,203468,203496,203994,1610612763,1628415,1628960,1628991,1629630,203937,0022000939,2,1299,1299,0,2,1610612763
94,1610612757,1626181,203081,203468,203496,203994,1610612763,1628415,1628960,1628991,1629630,203937,0022000939,2,1309,1309,0,0,1610612757
95,1610612757,1626181,203081,203468,203496,203994,1610612763,1628415,1628960,1628991,1629630,203937,0022000939,2,1309,1321,0,0,1610612763
96,1610612757,1626181,202683,203081,203468,203496,1610612763,1628415,1628960,1629630,1629634,202685,0022000939,2,1340,1340,0,0,1610612757
97,1610612757,1626181,202683,203081,203468,203496,1610612763,1628415,1628960,1629630,1629634,202685,0022000939,2,1343,1343,0,0,1610612763
98,1610612757,1626181,202683,203081,203468,203496,1610612763,1628415,1628960,1629630,1629634,202685,0022000939,2,1350,1350,0,0,1610612757
99,1610612757,1626181,202683,203081,203468,203496,1610612763,1628415,1628960,1629630,1629634,202685,0022000939,2,1355,1355,0,2,1610612763
100,1610612757,1626181,202683,203081,203468,203496,1610612763,1628415,1628960,1629630,1629634,202685,0022000939,2,1374,1374,3,0,1610612757
101,1610612757,1626181,202683,203081,203468,203496,1610612763,1628415,1628960,1629630,1629634,202685,0022000939,2,1385,1385,0,2,1610612763
102,1610612757,1626181,202683,203081,203468,203496,1610612763,1628415,1628960,1629630,1629634,202685,0022000939,2,1406,1411,0,0,1610612757
103,1610612757,1626181,202683,203081,203468,203496,1610612763,1628415,1628960,1629630,1629634,202685,0022000939,2,1418,1418,0,2,1610612763
104,1610612757,1626181,203081,203468,203496,2546,1610612763,1628415,1628960,1629630,1629634,202685,0022000939,2,1438,1438,0,0,1610612757
105,1610612757,1626181,203496,203994,203468,203081,1610612763,1628415,203937,202685,1628960,1629630,0022000939,3,1440,1452,0,2,1610612763
106,1610612757,1626181,203496,203994,203468,203081,1610612763,1628415,203937,202685,1628960,1629630,0022000939,3,1473,1473,0,0,1610612757
107,1610612757,1626181,203496,203994,203468,203081,1610612763,1628415,203937,202685,1628960,1629630,0022000939,3,1478,1478,0,2,1610612763
108,1610612757,1626181,203496,203994,203468,203081,1610612763,1628415,203937,202685,1628960,1629630,0022000939,3,1493,1493,2,0,1610612757
109,1610612757,1626181,203496,203994,203468,203081,1610612763,1628415,203937,202685,1628960,1629630,0022000939,3,1507,1510,0,0,1610612763
110,1610612757,1626181,203496,203994,203468,203081,1610612763,1628415,203937,202685,1628960,1629630,0022000939,3,1516,1519,1,0,1610612757
111,1610612757,1626181,203496,203994,203468,203081,1610612763,1628415,203937,202685,1628960,1629630,0022000939,3,1528,1532,0,0,1610612763
112,1610612757,1626181,203496,203994,203468,203081,1610612763,1628415,203937,202685,1628960,1629630,0022000939,3,1547,1547,2,0,1610612757
113,1610612757,1626181,203496,203994,203468,203081,1610612763,1628415,203937,202685,1628960,1629630,0022000939,3,1556,1556,0,1,1610612763
114,1610612757,1626181,203496,203994,203468,203081,1610612763,1628415,203937,202685,1628960,1629630,0022000939,3,1570,1572,0,0,1610612757
115,1610612757,1626181,203496,203994,203468,203081,1610612763,1628415,203937,202685,1628960,1629630,0022000939,3,1577,1584,0,2,1610612763
116,1610612757,1626181,203496,203994,203468,203081,1610612763,1628415,203937,202685,1628960,1629630,0022000939,3,1604,1605,3,0,1610612757
117,1610612757,1626181,203496,203994,203468,203081,1610612763,1628960,1629001,1629630,202685,203937,0022000939,3,1623,1625,0,0,1610612763
118,1610612757,1626181,203496,203994,203468,203081,1610612763,1628960,1629001,1629630,202685,203937,0022000939,3,1633,1635,0,0,1610612757
119,1610612757,1626181,203496,203994,203468,203081,1610612763,1628960,1629001,1629630,202685,203937,0022000939,3,1639,1644,0,0,1610612763
120,1610612757,1626181,203496,203994,203468,203081,1610612763,1628960,1629001,1629630,202685,203937,0022000939,3,1652,1655,0,0,1610612757
121,1610612757,1626181,203496,203994,203468,203081,1610612763,1628960,1629001,1629630,202685,203937,0022000939,3,1659,1659,0,2,1610612763
122,1610612757,1626181,203496,203994,203468,203081,1610612763,1628960,1629001,1629630,202685,203937,0022000939,3,1674,1674,0,0,1610612757
123,1610612757,1626181,203496,203994,203468,203081,1610612763,1628960,1629001,1629630,202685,203937,0022000939,3,1684,1689,0,0,1610612763
124,1610612757,1626181,203496,203994,203468,203081,1610612763,1628960,1629001,1629630,202685,203937,0022000939,3,1694,1694,2,0,1610612757
125,1610612757,1626181,203496,203994,203468,203081,1610612763,1628960,1629001,1629630,202685,203937,0022000939,3,1704,1704,0,2,1610612763
126,1610612757,1626181,203496,203994,203468,203081,1610612763,1628960,1629001,1629630,202685,203937,0022000939,3,1717,1720,0,0,1610612757
127,1610612757,1626181,203496,203994,203468,203081,1610612763,1628960,1629001,1629630,202685,203937,0022000939,3,1724,1724,0,3,1610612763
128,1610612757,1626181,203496,203994,203468,203081,1610612763,1628960,1629001,1629630,202685,203937,0022000939,3,1742,1742,0,0,1610612757
129,1610612757,1626181,203496,203994,203468,203081,1610612763,1628960,1629001,1629630,202685,203937,0022000939,3,1747,1747,0,2,1610612763
130,1610612757,1626181,203496,203994,203468,203081,1610612763,1628960,1629001,1629630,202685,203937,0022000939,3,1747,1762,1,0,1610612757
131,1610612757,1626181,203496,203994,203468,203081,1610612763,1628960,1628991,1629001,1629630,203937,0022000939,3,1780,1780,0,2,1610612763
132,1610612757,1626181,203496,203994,203468,203081,1610612763,1628960,1628991,1629001,1629630,203937,0022000939,3,1798,1798,0,0,1610612757
133,1610612757,1626181,203496,203994,203468,203081,1610612763,1628960,1628991,1629001,1629630,203937,0022000939,3,1804,1808,0,0,1610612763
134,1610612757,1626181,203496,203994,203468,203081,1610612763,1628960,1628991,1629001,1629630,203937,0022000939,3,1814,1814,2,0,1610612757
135,1610612757,1626181,203496,203994,203468,203081,1610612763,1628960,1628991,1629001,1629630,203937,0022000939,3,1821,1825,0,0,1610612763
136,1610612757,1626181,203496,203994,203468,203081,1610612763,1628960,1628991,1629001,1629630,203937,0022000939,3,1827,1827,2,0,1610612757
137,1610612757,1626181,203496,203994,203468,203081,1610612763,1628960,1628991,1629001,1629630,203937,0022000939,3,1834,1842,0,2,1610612763
138,1610612757,1626181,203496,203994,203468,203081,1610612763,1628991,1629001,1629630,1630217,203937,0022000939,3,1862,1865,0,0,1610612757
139,1610612757,1626181,203496,203994,203468,203081,1610612763,1628991,1629001,1629630,1630217,203937,0022000939,3,1872,1874,0,0,1610612763
140,1610612757,1626181,203496,203994,203468,203081,1610612763,1628991,1629001,1629630,1630217,203937,0022000939,3,1879,1882,0,0,1610612757
141,1610612757,1626181,203496,203994,203468,203081,1610612763,1628991,1629001,1629630,1630217,203937,0022000939,3,1885,1885,0,2,1610612763
142,1610612757,1626181,203496,203994,203468,203081,1610612763,1628991,1629001,1629630,1630217,203937,0022000939,3,1911,1914,0,0,1610612757
143,1610612757,1626181,203496,203994,203468,203081,1610612763,1628991,1629001,1629630,1630217,203937,0022000939,3,1919,1925,0,3,1610612763
144,1610612757,1626181,203496,203994,203468,203081,1610612763,1628991,1629001,1629630,1630217,203937,0022000939,3,1945,1947,2,0,1610612757
145,1610612757,1626178,1626181,203081,203496,2546,1610612763,1628991,1629001,1629630,1629634,1630217,0022000939,3,1956,1956,0,3,1610612763
146,1610612757,1626178,1626181,203081,203496,2546,1610612763,1628991,1629001,1629630,1629634,1630217,0022000939,3,1968,1968,2,0,1610612757
147,1610612757,1626178,1629014,203081,203496,2546,1610612763,1628991,1629001,1629630,1629634,1630217,0022000939,3,1984,1986,0,0,1610612763
148,1610612757,1626178,1629014,203081,203496,2546,1610612763,1628991,1629001,1629630,1629634,1630217,0022000939,3,1992,1995,0,0,1610612757
149,1610612757,1626178,1629014,203081,203496,2546,1610612763,1628991,1629001,1629630,1629634,1630217,0022000939,3,2000,2004,0,0,1610612763
150,1610612757,1626178,1629014,203081,203496,2546,1610612763,1628991,1629001,1629630,1629634,1630217,0022000939,3,2014,2014,3,0,1610612757
151,1610612757,1626178,1629014,203081,203496,2546,1610612763,1628991,1629001,1629630,1629634,1630217,0022000939,3,2037,2037,0,3,1610612763
152,1610612757,1626178,1629014,203081,203496,2546,1610612763,1628991,1629001,1629630,1629634,1630217,0022000939,3,2057,2061,0,0,1610612757
153,1610612757,1626178,1629014,203081,203496,2546,1610612763,1628991,1629001,1629630,1629634,1630217,0022000939,3,2061,2061,0,2,1610612763
154,1610612757,1626178,1629014,203081,203496,2546,1610612763,1628991,1629001,1629630,1629634,1630217,0022000939,3,2079,2084,3,0,1610612757
155,1610612757,1626178,1629014,203081,203496,2546,1610612763,1628991,1629001,1629630,1629634,1630217,0022000939,3,2092,2092,0,2,1610612763
156,1610612757,1626178,1629014,203081,203496,2546,1610612763,1626159,1628991,1629001,1629634,1630217,0022000939,3,2107,2107,3,0,1610612757
157,1610612757,1626178,1629014,203081,203496,2546,1610612763,1626159,1628991,1629001,1629634,1630217,0022000939,3,2127,2130,0,2,1610612763
158,1610612757,1626178,1629014,203081,203496,2546,1610612763,1626159,1628991,1629001,1629634,1630217,0022000939,3,2150,2150,0,0,1610612757
159,1610612757,1626178,1629014,203081,203496,2546,1610612763,1626159,1628991,1629001,1629634,1630217,0022000939,3,2158,2158,0,0,1610612763
160,1610612757,1626181,203468,2546,1629014,202683,1610612763,202685,1628960,1629634,1626159,1630217,0022000939,4,2160,2178,0,0,1610612757
161,1610612757,1626181,203468,2546,1629014,202683,1610612763,202685,1628960,1629634,1626159,1630217,0022000939,4,2181,2187,0,0,1610612763
162,1610612757,1626181,203468,2546,1629014,202683,1610612763,202685,1628960,1629634,1626159,1630217,0022000939,4,2191,2191,2,0,1610612757
163,1610612757,1626181,203468,2546,1629014,202683,1610612763,202685,1628960,1629634,1626159,1630217,0022000939,4,2213,2213,0,0,1610612763
164,1610612757,1626181,203468,2546,1629014,202683,1610612763,202685,1628960,1629634,1626159,1630217,0022000939,4,2224,2227,2,0,1610612757
165,1610612757,1626181,203468,2546,1629014,202683,1610612763,202685,1628960,1629634,1626159,1630217,0022000939,4,2242,2245,0,0,1610612763
166,1610612757,1626181,203468,2546,1629014,202683,1610612763,202685,1628960,1629634,1626159,1630217,0022000939,4,2263,2263,3,0,1610612757
167,1610612757,1626181,203468,2546,1629014,202683,1610612763,202685,1628960,1629634,1626159,1630217,0022000939,4,2285,2285,0,2,1610612763
168,1610612757,1626181,203468,2546,1629014,202683,1610612763,202685,1628960,1629634,1626159,1630217,0022000939,4,2306,2306,2,0,1610612757
169,1610612757,1626181,203468,2546,1629014,202683,1610612763,202685,1628960,1629634,1626159,1630217,0022000939,4,2319,2319,0,2,1610612763
170,1610612757,1626181,203468,2546,1629014,202683,1610612763,202685,1628960,1629634,1626159,1630217,0022000939,4,2345,2348,0,0,1610612757
171,1610612757,1626181,203468,2546,1629014,202683,1610612763,202685,1628960,1629634,1626159,1630217,0022000939,4,2354,2354,0,2,1610612763
172,1610612757,1626181,203468,2546,1629014,202683,1610612763,202685,1628960,1629634,1626159,1630217,0022000939,4,2382,2386,0,0,1610612757
173,1610612757,1626181,203468,2546,1629014,202683,1610612763,202685,1628960,1629634,1626159,1630217,0022000939,4,2393,2395,0,0,1610612763
174,1610612757,1626181,203468,2546,1629014,202683,1610612763,202685,1628960,1629634,1626159,1630217,0022000939,4,2412,2412,2,0,1610612757
175,1610612757,1626181,203468,2546,1629014,202683,1610612763,202685,1628960,1629634,1626159,1630217,0022000939,4,2424,2424,0,2,1610612763
176,1610612757,1626181,203468,2546,1629014,202683,1610612763,202685,1628960,1629634,1626159,1630217,0022000939,4,2445,2453,3,0,1610612757
177,1610612757,1626178,1626181,1629014,203468,2546,1610612763,1626159,1628415,1628960,1629630,202685,0022000939,4,2463,2463,0,0,1610612763
178,1610612757,1626178,1626181,1629014,203468,2546,1610612763,1626159,1628415,1628960,1629630,202685,0022000939,4,2467,2467,2,0,1610612757
179,1610612757,1626178,1626181,1629014,203468,2546,1610612763,1626159,1628415,1628960,1629630,202685,0022000939,4,2467,2491,0,2,1610612763
180,1610612757,1626178,1626181,203468,203496,2546,1610612763,1626159,1628415,1628960,1628991,1629630,0022000939,4,2513,2515,0,0,1610612757
181,1610612757,1626178,1626181,203468,203496,2546,1610612763,1626159,1628415,1628960,1628991,1629630,0022000939,4,2521,2533,0,0,1610612763
182,1610612757,1626178,1626181,203468,203496,2546,1610612763,1626159,1628415,1628960,1628991,1629630,0022000939,4,2549,2549,2,0,1610612757
183,1610612757,1626178,1626181,203468,203496,2546,1610612763,1626159,1628415,1628960,1628991,1629630,0022000939,4,2550,2567,0,0,1610612763
184,1610612757,1626178,1626181,1629014,1629642,203496,1610612763,1626145,1628991,1629681,1629723,1630214,0022000939,4,2584,2587,0,0,1610612757
185,1610612757,1626178,1626181,1629014,1629642,203496,1610612763,1626145,1628991,1629681,1629723,1630214,0022000939,4,2604,2604,0,2,1610612763
186,1610612757,1626178,1626181,1629014,1629642,203496,1610612763,1626145,1628991,1629681,1629723,1630214,0022000939,4,2617,2619,0,0,1610612757
187,1610612757,1626178,1626181,1629014,1629642,203496,1610612763,1626145,1628991,1629681,1629723,1630214,0022000939,4,2633,2635,0,0,1610612763
188,1610612757,1626178,1626181,1629014,1629642,203496,1610612763,1626145,1628991,1629681,1629723,1630214,0022000939,4,2648,2652,0,0,1610612757
189,1610612757,1626178,1626181,1629014,1629642,203496,1610612763,1626145,1628991,1629681,1629723,1630214,0022000939,4,2658,2658,0,3,1610612763
190,1610612757,1626178,1626181,1629014,1629642,203496,1610612763,1626145,1628991,1629681,1629723,1630214,0022000939,4,2678,2684,0,0,1610612757
191,1610612757,1626178,1626181,1629014,1629642,203496,1610612763,1626145,1628991,1629681,1629723,1630214,0022000939,4,2684,2686,0,2,1610612763
192,1610612757,1626178,1628385,1629014,1629604,1629642,1610612763,1626145,1628991,1629681,1629723,1630214,0022000939,4,2702,2702,2,0,1610612757
193,1610612757,1626178,1628385,1629014,1629604,1629642,1610612763,1626145,1628991,1629681,1629723,1630214,0022000939,4,2722,2722,0,2,1610612763
194,1610612757,1626178,1628385,1629014,1629604,1629642,1610612763,1626145,1628991,1629681,1629723,1630214,0022000939,4,2732,2732,2,0,1610612757
195,1610612757,1626178,1628385,1629014,1629604,1629642,1610612763,1626145,1628991,1629681,1629723,1630214,0022000939,4,2745,2745,0,1,1610612763
196,1610612757,1626178,1628385,1629604,1629642,1629833,1610612763,1626145,1628991,1629681,1629723,1630214,0022000939,4,2761,2761,0,0,1610612757
197,1610612757,1626178,1628385,1629604,1629642,1629833,1610612763,1626145,1628991,1629681,1629723,1630214,0022000939,4,2768,2768,0,3,1610612763
198,1610612757,1626178,1628385,1629604,1629642,1629833,1610612763,1626145,1628991,1629681,1629723,1630214,0022000939,4,2783,2790,1,0,1610612757
199,1610612757,1626178,1628385,1629604,1629642,1629833,1610612763,1626145,1628991,1629681,1629723,1630214,0022000939,4,2801,2801,0,0,1610612763
200,1610612757,1626178,1628385,1629604,1629642,1629833,1610612763,1626145,1628991,1629681,1629723,1630214,0022000939,4,2812,2814,0,0,1610612757
201,1610612757,1626178,1628385,1629604,1629642,1629833,1610612763,1626145,1628991,1629681,1629723,1630214,0022000939,4,2818,2821,0,0,1610612763
202,1610612757,1626178,1628385,1629604,1629642,1629833,1610612763,1626145,1628991,1629681,1629723,1630214,0022000939,4,2832,2832,2,0,1610612757
203,1610612757,1626178,1628385,1629604,1629642,1629833,1610612763,1626145,1628991,1629681,1629723,1630214,0022000939,4,2841,2841,0,3,1610612763
204,1610612757,1626178,1628385,1629604,1629642,1629833,1610612763,1626145,1628991,1629681,1629723,1630214,0022000939,4,2860,2872,3,0,1610612757
205,1610612757,1626178,1628385,1629604,1629642,1629833,1610612763,1626145,1628991,1629681,1629723,1630214,0022000939,4,2880,2880,0,0,1610612757
