,team1_id,team1_player1,team1_player2,team1_player3,team1_player4,team1_player5,team2_id,team2_player1,team2_player2,team2_player3,team2_player4,team2_player5,game_id,period,possession_start,possession_end,team1_points,team2_points,possession_team
0,1610612766,202330,1629023,202687,1626179,1628984,1610612737,1629631,1628381,203991,1629629,1629027,0022000110,1,0,26,0,0,1610612737
1,1610612766,202330,1629023,202687,1626179,1628984,1610612737,1629631,1628381,203991,1629629,1629027,0022000110,1,47,50,0,0,1610612766
2,1610612766,202330,1629023,202687,1626179,1628984,1610612737,1629631,1628381,203991,1629629,1629027,0022000110,1,58,61,0,0,1610612737
3,1610612766,202330,1629023,202687,1626179,1628984,1610612737,1629631,1628381,203991,1629629,1629027,0022000110,1,74,77,0,0,1610612766
4,1610612766,202330,1629023,202687,1626179,1628984,1610612737,1629631,1628381,203991,1629629,1629027,0022000110,1,82,82,0,0,1610612737
5,1610612766,202330,1629023,202687,1626179,1628984,1610612737,1629631,1628381,203991,1629629,1629027,0022000110,1,88,88,3,0,1610612766
6,1610612766,202330,1629023,202687,1626179,1628984,1610612737,1629631,1628381,203991,1629629,1629027,0022000110,1,113,115,0,0,1610612737
7,1610612766,202330,1629023,202687,1626179,1628984,1610612737,1629631,1628381,203991,1629629,1629027,0022000110,1,122,126,0,0,1610612766
8,1610612766,202330,1629023,202687,1626179,1628984,1610612737,1629631,1628381,203991,1629629,1629027,0022000110,1,134,137,0,0,1610612737
9,1610612766,202330,1629023,202687,1626179,1628984,1610612737,1629631,1628381,203991,1629629,1629027,0022000110,1,147,149,0,0,1610612766
10,1610612766,202330,1629023,202687,1626179,1628984,1610612737,1629631,1628381,203991,1629629,1629027,0022000110,1,160,163,0,0,1610612737
11,1610612766,202330,1629023,202687,1626179,1628984,1610612737,1629631,1628381,203991,1629629,1629027,0022000110,1,166,166,3,0,1610612766
12,1610612766,202330,1629023,202687,1626179,1628984,1610612737,1629631,1628381,203991,1629629,1629027,0022000110,1,187,190,0,0,1610612737
13,1610612766,202330,1629023,202687,1626179,1628984,1610612737,1629631,1628381,203991,1629629,1629027,0022000110,1,198,202,0,0,1610612766
14,1610612766,202330,1629023,202687,1626179,1628984,1610612737,1629631,1628381,203991,1629629,1629027,0022000110,1,208,208,0,2,1610612737
15,1610612766,202330,1629023,202687,1626179,1628984,1610612737,1629631,1628381,203991,1629629,1629027,0022000110,1,221,223,0,0,1610612766
16,1610612766,202330,1629023,202687,1626179,1628984,1610612737,1629631,1628381,203991,1629629,1629027,0022000110,1,233,238,0,0,1610612737
17,1610612766,202330,1629023,202687,1626179,1628984,1610612737,1629631,1628381,203991,1629629,1629027,0022000110,1,246,250,2,0,1610612766
18,1610612766,202330,1629023,202687,1626179,1628984,1610612737,1629631,1628381,203991,1629629,1629027,0022000110,1,263,267,0,2,1610612737
19,1610612766,202330,1629023,202687,1626179,1628984,1610612737,1629631,1628381,203991,1629629,1629027,0022000110,1,285,285,2,0,1610612766
20,1610612766,1626179,1629023,1630163,202330,202687,1610612737,1628381,1629027,1629629,203991,203992,0022000110,1,301,305,0,0,1610612737
21,1610612766,1626179,1629023,1630163,202330,202687,1610612737,1628381,1629027,1629629,203991,203992,0022000110,1,322,322,0,0,1610612766
22,1610612766,1626179,1629023,1630163,202330,202687,1610612737,1628381,1629027,1629629,203991,203992,0022000110,1,326,330,0,0,1610612737
23,1610612766,1626179,1629023,1630163,202330,202687,1610612737,1628381,1629027,1629629,203991,203992,0022000110,1,332,334,0,0,1610612766
24,1610612766,1626179,1629023,1630163,202330,202687,1610612737,1628381,1629027,1629629,203991,203992,0022000110,1,346,352,0,0,1610612737
25,1610612766,1628970,1628984,1629023,1630163,202330,1610612737,1628381,1628989,1629027,1630233,203992,0022000110,1,356,356,0,0,1610612766
26,1610612766,1628970,1628984,1629023,1630163,202330,1610612737,1628381,1628989,1629027,1630233,203992,0022000110,1,377,377,0,0,1610612737
27,1610612766,1628970,1628984,1629023,1630163,202330,1610612737,1628381,1628989,1629027,1630233,203992,0022000110,1,383,383,2,0,1610612766
28,1610612766,1628970,1628984,1629023,1630163,202330,1610612737,1628381,1628989,1629027,1630233,203992,0022000110,1,395,395,0,2,1610612737
29,1610612766,1628970,1628984,1629023,1630163,202330,1610612737,1628381,1628989,1629027,1630233,203992,0022000110,1,413,413,2,0,1610612766
30,1610612766,1628970,1628984,1629023,1630163,202330,1610612737,1628381,1628989,1629027,1630233,203992,0022000110,1,420,423,0,0,1610612737
31,1610612766,1628970,1628984,1629023,1630163,202330,1610612737,1628381,1628989,1629027,1630233,203992,0022000110,1,437,441,0,0,1610612766
32,1610612766,1628970,1628984,1629023,1630163,202330,1610612737,1628381,1628989,1629027,1630233,203992,0022000110,1,451,455,0,0,1610612737
33,1610612766,1628970,1628984,1629023,1630163,202330,1610612737,1628381,1628989,1629027,1630233,203992,0022000110,1,462,462,3,0,1610612766
34,1610612766,1628970,1628984,1629023,1630163,202330,1610612737,1628381,1628989,1629027,1630233,203992,0022000110,1,464,482,0,0,1610612737
35,1610612766,1628970,1628984,1630163,202330,202687,1610612737,1628989,1629027,1630233,203991,203992,0022000110,1,494,508,3,0,1610612766
36,1610612766,1628970,1628984,1630163,202330,202687,1610612737,1628989,1629027,1629631,203991,203992,0022000110,1,519,519,0,0,1610612737
37,1610612766,1628970,1628984,1630163,202330,202687,1610612737,1628989,1629027,1629631,203991,203992,0022000110,1,536,552,0,0,1610612766
38,1610612766,1628970,1628984,1630163,202330,202687,1610612737,1628989,1629027,1629631,203991,203992,0022000110,1,562,562,0,3,1610612737
39,1610612766,1628970,1628984,1630163,202330,202687,1610612737,1628989,1629027,1629631,203991,203992,0022000110,1,582,585,0,0,1610612766
40,1610612766,1628970,1628984,1630163,202330,202687,1610612737,1628989,1629027,1629631,203991,203992,0022000110,1,596,602,0,0,1610612737
41,1610612766,1628970,1628984,1630163,202330,202687,1610612737,1628989,1629027,1629631,203991,203992,0022000110,1,609,612,0,0,1610612766
42,1610612766,1628970,1628984,1630163,202330,202687,1610612737,1628989,1629027,1629631,203991,203992,0022000110,1,612,628,0,0,1610612737
43,1610612766,1628970,1628984,1628997,1629023,1630163,1610612737,1629164,1629629,1629631,203991,203992,0022000110,1,643,645,0,0,1610612766
44,1610612766,1628970,1628984,1628997,1629023,1630163,1610612737,1629164,1629629,1629631,203991,203992,0022000110,1,658,663,0,0,1610612737
45,1610612766,1628970,1628984,1628997,1629023,1630163,1610612737,1629164,1629629,1629631,203991,203992,0022000110,1,665,672,3,0,1610612766
46,1610612766,1628970,1628984,1628997,1629023,1630163,1610612737,1629164,1629629,1629631,203991,203992,0022000110,1,686,689,0,0,1610612737
47,1610612766,1628970,1628984,1628997,1629023,1630163,1610612737,1629164,1629629,1629631,203991,203992,0022000110,1,706,706,2,0,1610612766
48,1610612766,1628970,1628984,1628997,1628998,1630163,1610612737,1629027,1629164,1629629,203991,203992,0022000110,1,718,718,0,2,1610612737
49,1610612766,1628970,1628984,1628997,1628998,1630163,1610612737,1629027,1629164,1629629,203991,203992,0022000110,1,720,720,2,0,1610612766
50,1610612766,1629023,202687,1628984,1628997,1628998,1610612737,1628381,1629629,203992,1629164,203524,0022000110,2,720,739,2,0,1610612766
51,1610612766,1629023,202687,1628984,1628997,1628998,1610612737,1628381,1629629,203992,1629164,203524,0022000110,2,758,761,0,0,1610612737
52,1610612766,1629023,202687,1628984,1628997,1628998,1610612737,1628381,1629629,203992,1629164,203524,0022000110,2,767,771,0,0,1610612766
53,1610612766,1629023,202687,1628984,1628997,1628998,1610612737,1628381,1629629,203992,1629164,203524,0022000110,2,779,782,0,0,1610612737
54,1610612766,1629023,202687,1628984,1628997,1628998,1610612737,1628381,1629629,203992,1629164,203524,0022000110,2,798,798,2,0,1610612766
55,1610612766,1629023,202687,1628984,1628997,1628998,1610612737,1628381,1629629,203992,1629164,203524,0022000110,2,814,814,0,2,1610612737
56,1610612766,1629023,202687,1628984,1628997,1628998,1610612737,1628381,1629629,203992,1629164,203524,0022000110,2,835,838,0,0,1610612766
57,1610612766,1629023,202687,1628984,1628997,1628998,1610612737,1628381,1629629,203992,1629164,203524,0022000110,2,843,848,0,2,1610612737
58,1610612766,1629023,202687,1628984,1628997,1628998,1610612737,1628381,1629629,203992,1629164,203524,0022000110,2,851,858,0,0,1610612766
59,1610612766,1628997,1628998,1629023,1630163,202687,1610612737,1628381,1629629,203992,1629164,203524,0022000110,2,862,867,0,2,1610612737
60,1610612766,1628997,1628998,1629023,1630163,202687,1610612737,1628381,1629629,203992,1629164,203524,0022000110,2,882,885,0,0,1610612766
61,1610612766,1628997,1628998,1630163,202330,202687,1610612737,1628381,1629027,1629629,203524,203992,0022000110,2,891,891,0,0,1610612737
62,1610612766,1628997,1628998,1630163,202330,202687,1610612737,1628381,1629027,1629629,203524,203992,0022000110,2,905,905,2,0,1610612766
63,1610612766,1628997,1628998,1630163,202330,202687,1610612737,1628381,1628989,1629027,1629629,203524,0022000110,2,924,926,0,0,1610612737
64,1610612766,1628997,1628998,1630163,202330,202687,1610612737,1628381,1628989,1629027,1629629,203524,0022000110,2,938,941,0,0,1610612766
65,1610612766,1628997,1628998,1630163,202330,202687,1610612737,1628381,1628989,1629027,1629629,1629631,0022000110,2,956,964,0,3,1610612737
66,1610612766,1628997,1628998,1630163,202330,202687,1610612737,1628381,1628989,1629027,1629629,1629631,0022000110,2,978,978,2,0,1610612766
67,1610612766,1628997,1628998,1630163,202330,202687,1610612737,1628381,1628989,1629027,1629629,1629631,0022000110,2,1001,1002,0,2,1610612737
68,1610612766,1628997,1628998,1630163,202330,202687,1610612737,1628381,1628989,1629027,1629629,1629631,0022000110,2,1021,1021,2,0,1610612766
69,1610612766,1628997,1628998,1630163,202330,202687,1610612737,1628381,1628989,1629027,1629629,1629631,0022000110,2,1038,1046,0,0,1610612737
70,1610612766,1628997,1628998,1630163,202330,202687,1610612737,1628381,1628989,1629027,1629629,1629631,0022000110,2,1051,1054,0,0,1610612766
71,1610612766,1628997,1628998,1630163,202330,202687,1610612737,1628381,1628989,1629027,1629629,1629631,0022000110,2,1060,1060,0,2,1610612737
72,1610612766,1628997,1628998,1630163,202330,202687,1610612737,1628381,1628989,1629027,1629629,1629631,0022000110,2,1061,1072,2,0,1610612766
73,1610612766,1626179,1628984,1629023,1630163,202330,1610612737,1628381,1628989,1629027,1629629,1629631,0022000110,2,1093,1093,0,2,1610612737
74,1610612766,1626179,1628984,1629023,1630163,202330,1610612737,1628381,1628989,1629027,1629629,1629631,0022000110,2,1105,1109,0,0,1610612766
75,1610612766,1626179,1628984,1629023,1630163,202330,1610612737,1628381,1628989,1629027,1629629,1629631,0022000110,2,1113,1113,0,0,1610612737
76,1610612766,1626179,1628984,1629023,1630163,202330,1610612737,1628381,1628989,1629027,1629629,1629631,0022000110,2,1119,1123,0,0,1610612766
77,1610612766,1626179,1628984,1629023,1630163,202330,1610612737,1628381,1628989,1629027,1629629,1629631,0022000110,2,1143,1143,0,2,1610612737
78,1610612766,1626179,1628984,1629023,1630163,202330,1610612737,1628381,1628989,1629027,1629629,1629631,0022000110,2,1153,1153,3,0,1610612766
79,1610612766,1626179,1628984,1629023,1630163,202330,1610612737,1628381,1628989,1629027,1629629,1629631,0022000110,2,1168,1171,0,0,1610612737
80,1610612766,1626179,1628984,1629023,1630163,202330,1610612737,1628381,1628989,1629027,1629629,1629631,0022000110,2,1174,1174,3,0,1610612766
81,1610612766,1626179,1628984,1629023,1630163,202330,1610612737,1628381,1628989,1629027,1629629,1629631,0022000110,2,1190,1190,0,2,1610612737
82,1610612766,1626179,1628984,1629023,1630163,202330,1610612737,1628381,1628989,1629027,1629629,1629631,0022000110,2,1209,1209,3,0,1610612766
83,1610612766,1626179,1628984,1629023,1630163,202330,1610612737,1628381,1628989,1629027,1629629,1629631,0022000110,2,1210,1226,0,3,1610612737
84,1610612766,1626179,1628970,1628984,1629023,202330,1610612737,1628989,1629027,1629631,203991,203992,0022000110,2,1250,1250,2,0,1610612766
85,1610612766,1626179,1628970,1628984,1629023,202330,1610612737,1628989,1629027,1629631,203991,203992,0022000110,2,1265,1265,0,2,1610612737
86,1610612766,1626179,1628970,1628984,1629023,202330,1610612737,1628989,1629027,1629631,203991,203992,0022000110,2,1282,1286,0,0,1610612766
87,1610612766,1626179,1628970,1628984,1629023,202330,1610612737,1628989,1629027,1629631,203991,203992,0022000110,2,1289,1289,0,0,1610612737
88,1610612766,1626179,1628970,1628984,1629023,202330,1610612737,1628989,1629027,1629631,203991,203992,0022000110,2,1295,1295,3,0,1610612766
89,1610612766,1626179,1628970,1628984,1629023,202330,1610612737,1628989,1629027,1629631,203991,203992,0022000110,2,1307,1310,0,0,1610612737
90,1610612766,1626179,1628970,1628984,1629023,202330,1610612737,1628989,1629027,1629631,203991,203992,0022000110,2,1318,1318,2,0,1610612766
91,1610612766,1626179,1628970,1628984,1629023,202330,1610612737,1628989,1629027,1629631,203991,203992,0022000110,2,1324,1324,0,0,1610612737
92,1610612766,1626179,1628970,1628984,1629023,202330,1610612737,1628989,1629027,1629631,203991,203992,0022000110,2,1330,1330,2,0,1610612766
93,1610612766,1626179,1628970,1628984,1629023,202330,1610612737,1628989,1629027,1629629,1629631,203991,0022000110,2,1353,1356,0,0,1610612737
94,1610612766,1626179,1628970,1628984,1629023,202330,1610612737,1628989,1629027,1629629,1629631,203991,0022000110,2,1363,1366,0,0,1610612766
95,1610612766,1626179,1628970,1628984,1629023,202330,1610612737,1628989,1629027,1629629,1629631,203991,0022000110,2,1377,1377,0,0,1610612737
96,1610612766,1626179,1628970,1628984,1629023,202330,1610612737,1628989,1629027,1629629,1629631,203991,0022000110,2,1380,1380,2,0,1610612766
97,1610612766,1626179,1628970,1628984,1629023,202330,1610612737,1628989,1629027,1629629,1629631,203991,0022000110,2,1392,1398,0,2,1610612737
98,1610612766,1626179,1628970,1628984,1629023,202330,1610612737,1628989,1629027,1629629,1629631,203991,0022000110,2,1406,1409,0,0,1610612766
99,1610612766,1626179,1628970,1628984,1629023,202330,1610612737,1628989,1629027,1629629,1629631,203991,0022000110,2,1424,1424,0,3,1610612737
100,1610612766,1626179,1628970,1628984,1629023,202330,1610612737,1628989,1629027,1629629,1629631,203991,0022000110,2,1437,1439,0,0,1610612766
101,1610612766,202330,1629023,202687,1626179,1628984,1610612737,1629631,1628381,203991,1629629,1629027,0022000110,3,1440,1467,0,0,1610612766
102,1610612766,202330,1629023,202687,1626179,1628984,1610612737,1629631,1628381,203991,1629629,1629027,0022000110,3,1486,1492,0,2,1610612737
103,1610612766,202330,1629023,202687,1626179,1628984,1610612737,1629631,1628381,203991,1629629,1629027,0022000110,3,1501,1501,3,0,1610612766
104,1610612766,202330,1629023,202687,1626179,1628984,1610612737,1629631,1628381,203991,1629629,1629027,0022000110,3,1516,1516,0,2,1610612737
105,1610612766,202330,1629023,202687,1626179,1628984,1610612737,1629631,1628381,203991,1629629,1629027,0022000110,3,1539,1539,2,0,1610612766
106,1610612766,202330,1629023,202687,1626179,1628984,1610612737,1629631,1628381,203991,1629629,1629027,0022000110,3,1551,1551,0,2,1610612737
107,1610612766,202330,1629023,202687,1626179,1628984,1610612737,1629631,1628381,203991,1629629,1629027,0022000110,3,1575,1575,0,0,1610612766
108,1610612766,202330,1629023,202687,1626179,1628984,1610612737,1629631,1628381,203991,1629629,1629027,0022000110,3,1585,1585,0,3,1610612737
109,1610612766,202330,1629023,202687,1626179,1628984,1610612737,1629631,1628381,203991,1629629,1629027,0022000110,3,1598,1598,2,0,1610612766
110,1610612766,202330,1629023,202687,1626179,1628984,1610612737,1629631,1628381,203991,1629629,1629027,0022000110,3,1614,1620,0,0,1610612737
111,1610612766,202330,1629023,202687,1626179,1628984,1610612737,1629631,1628381,203991,1629629,1629027,0022000110,3,1622,1624,0,0,1610612766
112,1610612766,202330,1629023,202687,1626179,1628984,1610612737,1629631,1628381,203991,1629629,1629027,0022000110,3,1629,1629,0,2,1610612737
113,1610612766,202330,1629023,202687,1626179,1628984,1610612737,1629631,1628381,203991,1629629,1629027,0022000110,3,1645,1660,0,0,1610612766
114,1610612766,202330,1629023,202687,1626179,1628984,1610612737,1629631,1628381,203991,1629629,1629027,0022000110,3,1676,1679,0,0,1610612737
115,1610612766,202330,1629023,202687,1626179,1628984,1610612737,1629631,1628381,203991,1629629,1629027,0022000110,3,1683,1686,0,0,1610612766
116,1610612766,202330,1629023,202687,1626179,1628984,1610612737,1629631,1628381,203991,1629629,1629027,0022000110,3,1692,1696,0,0,1610612737
117,1610612766,202330,1629023,202687,1626179,1628984,1610612737,1629631,1628381,203991,1629629,1629027,0022000110,3,1704,1704,0,0,1610612766
118,1610612766,202330,1629023,202687,1626179,1628984,1610612737,1628381,1628989,1629027,1629631,203524,0022000110,3,1723,1723,0,2,1610612737
119,1610612766,202330,1629023,202687,1626179,1628984,1610612737,1628381,1628989,1629027,1629631,203524,0022000110,3,1749,1749,2,0,1610612766
120,1610612766,202330,1629023,202687,1626179,1628984,1610612737,1628381,1628989,1629027,1629631,203524,0022000110,3,1765,1768,0,0,1610612737
121,1610612766,202330,1629023,202687,1626179,1628984,1610612737,1628381,1628989,1629027,1629631,203524,0022000110,3,1769,1769,3,0,1610612766
122,1610612766,1626179,1628970,1630163,202330,202687,1610612737,1628381,1628989,1629027,203524,203992,0022000110,3,1791,1794,0,0,1610612737
123,1610612766,1626179,1628970,1630163,202330,202687,1610612737,1628381,1628989,1629027,203524,203992,0022000110,3,1816,1821,2,0,1610612766
124,1610612766,1626179,1628970,1630163,202330,202687,1610612737,1628381,1628989,1629027,203524,203992,0022000110,3,1833,1833,0,0,1610612737
125,1610612766,1626179,1628970,1630163,202330,202687,1610612737,1628381,1628989,1629027,203524,203992,0022000110,3,1842,1842,0,0,1610612766
126,1610612766,1626179,1628970,1630163,202330,202687,1610612737,1628381,1628989,1629027,203524,203992,0022000110,3,1860,1860,0,2,1610612737
127,1610612766,1626179,1628970,1630163,202330,202687,1610612737,1628381,1628989,1629027,203524,203992,0022000110,3,1873,1877,0,0,1610612766
128,1610612766,1626179,1628970,1630163,202330,202687,1610612737,1628381,1628989,1629027,203524,203992,0022000110,3,1880,1883,0,0,1610612737
129,1610612766,1626179,1628970,1630163,202330,202687,1610612737,1628381,1628989,1629027,203524,203992,0022000110,3,1890,1893,0,0,1610612766
130,1610612766,1626179,1628970,1630163,202330,202687,1610612737,1628381,1628989,1629027,203524,203992,0022000110,3,1900,1911,0,2,1610612737
131,1610612766,1626179,1628970,1629023,1630163,202330,1610612737,1628381,1628989,1629027,1629164,203524,0022000110,3,1925,1925,1,0,1610612766
132,1610612766,1628970,1628984,1629023,1630163,202330,1610612737,1628989,1629164,203524,203991,203992,0022000110,3,1942,1942,0,3,1610612737
133,1610612766,1628970,1628984,1629023,1630163,202330,1610612737,1628989,1629164,203524,203991,203992,0022000110,3,1959,1962,0,0,1610612766
134,1610612766,1628970,1628984,1629023,1630163,202330,1610612737,1628989,1629164,203524,203991,203992,0022000110,3,1977,1985,0,2,1610612737
135,1610612766,1628970,1628984,1629023,1630163,202330,1610612737,1628989,1629164,203524,203991,203992,0022000110,3,1985,2006,0,0,1610612766
136,1610612766,1628970,1628984,1628997,1629023,1630163,1610612737,1628989,1629164,203524,203991,203992,0022000110,3,2015,2015,0,2,1610612737
137,1610612766,1628970,1628984,1628997,1629023,1630163,1610612737,1628989,1629164,203524,203991,203992,0022000110,3,2019,2028,3,0,1610612766
138,1610612766,1628970,1628984,1628997,1629023,1630163,1610612737,1628989,1629164,203524,203991,203992,0022000110,3,2050,2053,0,0,1610612737
139,1610612766,1628970,1628984,1628997,1629023,1630163,1610612737,1628989,1629164,203524,203991,203992,0022000110,3,2058,2062,0,0,1610612766
140,1610612766,1628970,1628984,1628997,1629023,1630163,1610612737,1628989,1629164,203524,203991,203992,0022000110,3,2067,2071,0,0,1610612737
141,1610612766,1628970,1628984,1628997,1629023,1630163,1610612737,1628989,1629164,203524,203991,203992,0022000110,3,2078,2082,0,0,1610612766
142,1610612766,1628970,1628984,1628997,1629023,1630163,1610612737,1628989,1629164,203524,203991,203992,0022000110,3,2084,2084,0,2,1610612737
143,1610612766,1628970,1628984,1628997,1629023,1630163,1610612737,1628989,1629164,203524,203991,203992,0022000110,3,2099,2099,2,0,1610612766
144,1610612766,1628984,1628997,1628998,1629023,1630163,1610612737,1628989,1629164,203524,203991,203992,0022000110,3,2120,2123,0,0,1610612737
145,1610612766,1628984,1628997,1628998,1629023,1630163,1610612737,1628989,1629164,203524,203991,203992,0022000110,3,2130,2133,0,0,1610612766
146,1610612766,1628984,1628997,1628998,1629023,1630163,1610612737,1628989,1629164,203524,203991,203992,0022000110,3,2150,2155,0,1,1610612737
147,1610612766,1626179,1628984,1629023,1630163,202330,1610612737,1628989,1629164,1629629,203524,203991,0022000110,3,2159,2159,2,0,1610612766
148,1610612766,1626179,1628984,1629023,1630163,202330,1610612737,1628989,1629164,1629629,203524,203991,0022000110,3,2160,2160,0,0,1610612737
149,1610612766,1626179,1628984,1629023,1630163,202330,1610612737,1628989,1629164,1629629,203524,203991,0022000110,3,2160,2160,0,0,1610612737
150,1610612766,202330,202687,1628984,1628997,1628998,1610612737,1629631,203991,1629629,1628989,1629164,0022000110,4,2160,2192,0,0,1610612737
151,1610612766,202330,202687,1628984,1628997,1628998,1610612737,1629631,203991,1629629,1628989,1629164,0022000110,4,2202,2202,2,0,1610612766
152,1610612766,202330,202687,1628984,1628997,1628998,1610612737,1629631,203991,1629629,1628989,1629164,0022000110,4,2217,2231,0,2,1610612737
153,1610612766,202330,202687,1628984,1628997,1628998,1610612737,1629631,203991,1629629,1628989,1629164,0022000110,4,2240,2244,0,0,1610612766
154,1610612766,202330,202687,1628984,1628997,1628998,1610612737,1629631,203991,1629629,1628989,1629164,0022000110,4,2257,2257,0,3,1610612737
155,1610612766,202330,202687,1628984,1628997,1628998,1610612737,1629631,203991,1629629,1628989,1629164,0022000110,4,2277,2281,0,0,1610612766
156,1610612766,202330,202687,1628984,1628997,1628998,1610612737,1629631,203991,1629629,1628989,1629164,0022000110,4,2289,2292,0,0,1610612737
157,1610612766,202330,202687,1628984,1628997,1628998,1610612737,1629631,203991,1629629,1628989,1629164,0022000110,4,2296,2301,0,0,1610612766
158,1610612766,202330,202687,1628984,1628997,1628998,1610612737,1629631,203991,1629629,1628989,1629164,0022000110,4,2301,2301,0,2,1610612737
159,1610612766,202330,202687,1628984,1628997,1628998,1610612737,1629631,203991,1629629,1628989,1629164,0022000110,4,2301,2316,0,0,1610612766
160,1610612766,202330,202687,1628984,1628997,1628998,1610612737,1629631,203991,1629629,1628989,1629164,0022000110,4,2322,2323,0,2,1610612737
161,1610612766,202330,202687,1628984,1628997,1628998,1610612737,1629631,203991,1629629,1628989,1629164,0022000110,4,2323,2334,2,0,1610612766
162,1610612766,1628997,1628998,1629023,1630163,202330,1610612737,1629631,203991,1629629,1628989,1629164,0022000110,4,2357,2357,0,2,1610612737
163,1610612766,1628997,1628998,1629023,1630163,202330,1610612737,1629631,203991,1629629,1628989,1629164,0022000110,4,2371,2374,0,0,1610612766
164,1610612766,1628997,1628998,1629023,1630163,202330,1610612737,1629631,203991,1629629,1628989,1629164,0022000110,4,2390,2393,0,0,1610612737
165,1610612766,1628997,1628998,1629023,1630163,202330,1610612737,1629631,203991,1629629,1628989,1629164,0022000110,4,2399,2399,0,0,1610612766
166,1610612766,1628997,1628998,1629023,1630163,202330,1610612737,1629631,203991,1629629,1628989,1629164,0022000110,4,2410,2418,0,0,1610612737
167,1610612766,1626179,1628997,1629023,1630163,202330,1610612737,1628381,1628989,1629164,1629629,1629631,0022000110,4,2430,2430,0,0,1610612766
168,1610612766,1626179,1628997,1629023,1630163,202330,1610612737,1628381,1628989,1629164,1629629,1629631,0022000110,4,2432,2438,0,3,1610612737
169,1610612766,1626179,1628984,1629023,1630163,202330,1610612737,1628381,1628989,1629027,1629164,1629631,0022000110,4,2438,2438,0,3,1610612737
170,1610612766,1626179,1628984,1629023,1630163,202330,1610612737,1628381,1628989,1629027,1629164,1629631,0022000110,4,2460,2460,0,0,1610612766
171,1610612766,1626179,1628984,1629023,1630163,202330,1610612737,1628381,1628989,1629027,1629164,1629631,0022000110,4,2465,2472,0,0,1610612737
172,1610612766,1626179,1628970,1628984,1629023,1630163,1610612737,1628381,1628989,1629027,1629164,1629631,0022000110,4,2474,2503,0,0,1610612766
173,1610612766,1626179,1628970,1628984,1629023,1630163,1610612737,1628381,1628989,1629027,1629164,1629631,0022000110,4,2519,2519,0,2,1610612737
174,1610612766,1626179,1628970,1628984,1629023,1630163,1610612737,1628381,1628989,1629027,1629164,1629631,0022000110,4,2541,2544,0,0,1610612766
175,1610612766,1626179,1628970,1628984,1629023,1630163,1610612737,1628381,1628989,1629027,1629164,1629631,0022000110,4,2558,2558,0,3,1610612737
176,1610612766,1626179,1628970,1628984,1629023,202330,1610612737,1628381,1628989,1629027,1629164,1629631,0022000110,4,2572,2575,0,0,1610612766
177,1610612766,1626179,1628970,1628984,1629023,202330,1610612737,1628381,1628989,1629027,1629164,1629631,0022000110,4,2590,2593,0,0,1610612737
178,1610612766,1626179,1628970,1628984,1629023,202330,1610612737,1628381,1628989,1629027,1629164,1629631,0022000110,4,2593,2606,2,0,1610612766
179,1610612766,1626179,1628970,1628984,1629023,202330,1610612737,1628381,1628989,1629027,1629164,1629631,0022000110,4,2626,2628,0,0,1610612737
180,1610612766,1626179,1628970,1628984,1629023,202330,1610612737,1628381,1628989,1629027,1629164,1629631,0022000110,4,2644,2645,3,0,1610612766
181,1610612766,1626179,1628970,1628984,1629023,202330,1610612737,1628381,1628989,1629027,1629164,1629631,0022000110,4,2676,2676,0,0,1610612737
182,1610612766,1626179,1628970,1628984,1629023,202330,1610612737,1628381,1628989,1629027,1629164,1629631,0022000110,4,2676,2684,2,0,1610612766
183,1610612766,1626179,1628970,1628984,1629023,202330,1610612737,1628381,1628989,1629027,1629164,1629631,0022000110,4,2695,2698,0,0,1610612737
184,1610612766,1626179,1628970,1628984,1629023,202330,1610612737,1628381,1628989,1629027,1629164,1629631,0022000110,4,2717,2717,0,0,1610612766
185,1610612766,1626179,1628970,1628984,1629023,202330,1610612737,1628381,1628989,1629027,1629164,1629631,0022000110,4,2728,2728,0,2,1610612737
186,1610612766,1626179,1628970,1628984,1629023,202330,1610612737,1628381,1628989,1629027,1629164,1629631,0022000110,4,2742,2742,3,0,1610612766
187,1610612766,1626179,1628970,1628984,1629023,202330,1610612737,1628381,1628989,1629027,1629164,1629631,0022000110,4,2765,2765,0,2,1610612737
188,1610612766,1626179,1628970,1628984,1629023,202330,1610612737,1628381,1628989,1629027,1629164,1629631,0022000110,4,2788,2788,2,0,1610612766
189,1610612766,1626179,1628970,1628984,1629023,202330,1610612737,1628381,1628989,1629027,1629164,1629631,0022000110,4,2801,2806,0,0,1610612737
190,1610612766,1626179,1628970,1628984,1629023,202330,1610612737,1628381,1628989,1629027,1629164,1629631,0022000110,4,2817,2817,0,0,1610612766
191,1610612766,1626179,1628970,1628984,1629023,202330,1610612737,1628381,1628989,1629027,1629164,1629631,0022000110,4,2820,2820,0,0,1610612737
192,1610612766,1626179,1628970,1628984,1629023,202330,1610612737,1628381,1628989,1629027,1629164,1629631,0022000110,4,2825,2829,0,0,1610612766
193,1610612766,1626179,1628970,1628984,1629023,202330,1610612737,1628381,1628989,1629027,1629164,1629631,0022000110,4,2833,2833,0,2,1610612737
194,1610612766,1626179,1628970,1628984,1629023,202330,1610612737,1628381,1628989,1629027,1629164,1629631,0022000110,4,2836,2836,1,0,1610612766
195,1610612766,1626179,1628970,1628984,1629023,202330,1610612737,1628381,1628989,1629027,1629629,1629631,0022000110,4,2836,2859,0,0,1610612737
196,1610612766,1626179,1628970,1628984,1629023,202330,1610612737,1628381,1628989,1629027,1629629,1629631,0022000110,4,2859,2864,1,0,1610612766
197,1610612766,1626179,1628970,1628984,1629023,202330,1610612737,1628381,1628989,1629027,1629629,1629631,0022000110,4,2866,2870,0,0,1610612737
198,1610612766,1626179,1628970,1628984,1629023,202330,1610612737,1628381,1628989,1629027,1629629,1629631,0022000110,4,2870,2870,2,0,1610612766
199,1610612766,1626179,1628970,1628984,1629023,202330,1610612737,1628381,1628989,1629027,1629629,1629631,0022000110,4,2870,2870,0,2,1610612737
200,1610612766,1626179,1628970,1628984,1629023,202330,1610612737,1628381,1628989,1629027,1629629,1629631,0022000110,4,2870,2872,1,0,1610612766
201,1610612766,1626179,1628970,1628984,1629023,202330,1610612737,1628381,1628989,1629027,1629629,1629631,0022000110,4,2878,2878,0,0,1610612737
