,TEAM_ID_1,TEAM_1_PLAYERS,TEAM_ID_2,TEAM_2_PLAYERS,PERIOD
0,1610612738,[1628369 1628464  202684 1627759  202689],1610612742,[1627827  201949  203939 1626196 1629029],1
1,1610612738,[ 202689 1630202 1628400 1630174 1629057],1610612742,[1626196  203501 1628973 1626246  203504],2
2,1610612738,[1628369 1628464  202684 1627759  202689],1610612742,[1627827  201949  203939 1626196 1629029],3
3,1610612738,[1627759  202689 1628400 1630174 1629057],1610612742,[ 201949 1626196  203501 1628973 1626161],4
