,team1_id,team1_player1,team1_player2,team1_player3,team1_player4,team1_player5,team2_id,team2_player1,team2_player2,team2_player3,team2_player4,team2_player5,game_id,period,possession_start,possession_end,team1_points,team2_points,possession_team
0,1610612756,1628969,203109,1629028,1626164,101108,1610612766,202330,1629023,202687,1626179,1628984,0022000703,1,0,14,3,0,1610612756
1,1610612756,1628969,203109,1629028,1626164,101108,1610612766,202330,1629023,202687,1626179,1628984,0022000703,1,36,36,0,3,1610612766
2,1610612756,1628969,203109,1629028,1626164,101108,1610612766,202330,1629023,202687,1626179,1628984,0022000703,1,61,61,2,0,1610612756
3,1610612756,1628969,203109,1629028,1626164,101108,1610612766,202330,1629023,202687,1626179,1628984,0022000703,1,81,81,0,0,1610612766
4,1610612756,1628969,203109,1629028,1626164,101108,1610612766,202330,1629023,202687,1626179,1628984,0022000703,1,96,98,0,0,1610612756
5,1610612756,1628969,203109,1629028,1626164,101108,1610612766,202330,1629023,202687,1626179,1628984,0022000703,1,104,104,0,0,1610612766
6,1610612756,1628969,203109,1629028,1626164,101108,1610612766,202330,1629023,202687,1626179,1628984,0022000703,1,121,123,0,0,1610612756
7,1610612756,1628969,203109,1629028,1626164,101108,1610612766,202330,1629023,202687,1626179,1628984,0022000703,1,129,129,0,0,1610612766
8,1610612756,1628969,203109,1629028,1626164,101108,1610612766,202330,1629023,202687,1626179,1628984,0022000703,1,134,137,0,0,1610612756
9,1610612756,1628969,203109,1629028,1626164,101108,1610612766,202330,1629023,202687,1626179,1628984,0022000703,1,151,151,0,3,1610612766
10,1610612756,1628969,203109,1629028,1626164,101108,1610612766,202330,1629023,202687,1626179,1628984,0022000703,1,169,169,0,0,1610612756
11,1610612756,1628969,203109,1629028,1626164,101108,1610612766,202330,1629023,202687,1626179,1628984,0022000703,1,184,184,0,3,1610612766
12,1610612756,1628969,203109,1629028,1626164,101108,1610612766,202330,1629023,202687,1626179,1628984,0022000703,1,207,207,2,0,1610612756
13,1610612756,1628969,203109,1629028,1626164,101108,1610612766,202330,1629023,202687,1626179,1628984,0022000703,1,219,219,0,2,1610612766
14,1610612756,1628969,203109,1629028,1626164,101108,1610612766,202330,1629023,202687,1626179,1628984,0022000703,1,227,229,0,0,1610612756
15,1610612756,1628969,203109,1629028,1626164,101108,1610612766,202330,1629023,202687,1626179,1628984,0022000703,1,245,245,0,2,1610612766
16,1610612756,1628969,203109,1629028,1626164,101108,1610612766,202330,1629023,202687,1626179,1628984,0022000703,1,268,276,2,0,1610612756
17,1610612756,1628969,203109,1629028,1626164,101108,1610612766,202330,1629023,202687,1626179,1628984,0022000703,1,286,292,0,0,1610612766
18,1610612756,1628969,203109,1629028,1626164,101108,1610612766,202330,1629023,202687,1626179,1628984,0022000703,1,300,304,2,0,1610612756
19,1610612756,1628969,203109,1629028,1626164,101108,1610612766,202330,1629023,202687,1626179,1628984,0022000703,1,323,323,0,2,1610612766
20,1610612756,1628969,203109,1629028,1626164,101108,1610612766,1626179,1628998,1629023,202330,202687,0022000703,1,332,332,2,0,1610612756
21,1610612756,1628969,203109,1629028,1626164,101108,1610612766,1626179,1628998,1629023,202330,202687,0022000703,1,345,351,0,0,1610612766
22,1610612756,1628969,203109,1629028,1626164,101108,1610612766,1626179,1628998,1629023,202330,202687,0022000703,1,351,375,2,0,1610612756
23,1610612756,1628969,203109,1629028,1626164,101108,1610612766,1626179,1628970,1628998,1629023,202330,0022000703,1,383,383,0,0,1610612766
24,1610612756,1628969,203109,1629028,1626164,101108,1610612766,1626179,1628970,1628998,1629023,202330,0022000703,1,389,393,0,0,1610612756
25,1610612756,1628969,203109,1629028,1626164,101108,1610612766,1626179,1628970,1628998,1629023,202330,0022000703,1,400,400,0,2,1610612766
26,1610612756,1628969,203109,1629028,1626164,101108,1610612766,1626179,1628970,1628998,1629023,202330,0022000703,1,418,421,0,0,1610612756
27,1610612756,1628969,203109,1629028,1626164,101108,1610612766,1626179,1628970,1628998,1629023,202330,0022000703,1,427,430,0,0,1610612766
28,1610612756,1628969,203109,1629028,1626164,101108,1610612766,1626179,1628970,1628998,1629023,202330,0022000703,1,443,443,2,0,1610612756
29,1610612756,1628969,203109,1629028,1626164,101108,1610612766,1626179,1628970,1628998,1629023,202330,0022000703,1,457,481,0,2,1610612766
30,1610612756,1628969,203109,1629028,1626164,101108,1610612766,1626179,1628970,1628998,1629023,202330,0022000703,1,502,504,0,0,1610612756
31,1610612756,1628969,203109,1629028,1626164,101108,1610612766,1626179,1628970,1628998,1629023,202330,0022000703,1,519,519,0,2,1610612766
32,1610612756,1628969,203109,1629028,1626164,101108,1610612766,1626179,1628970,1628998,1629023,202330,0022000703,1,526,545,0,0,1610612756
33,1610612756,1626164,1626166,1628470,1629661,203967,1610612766,1626179,1628970,1628998,1629023,202330,0022000703,1,559,559,0,3,1610612766
34,1610612756,1626164,1626166,1628470,1629661,203967,1610612766,1626179,1628970,1628998,1629023,202330,0022000703,1,575,580,3,0,1610612756
35,1610612756,1626164,1626166,1628470,1629661,203967,1610612766,1626179,1628970,1628998,202330,203469,0022000703,1,595,601,0,1,1610612766
36,1610612756,1626164,1626166,1628470,1629661,203967,1610612766,1628970,1628984,1628998,202330,203469,0022000703,1,627,627,3,0,1610612756
37,1610612756,1626164,1626166,1628470,1629661,203967,1610612766,1628970,1628984,1628998,202330,203469,0022000703,1,651,654,0,0,1610612766
38,1610612756,1626164,1626166,1628470,1629661,203967,1610612766,1628970,1628984,1628998,202330,203469,0022000703,1,659,662,0,0,1610612756
39,1610612756,1626164,1626166,1628470,1629661,203967,1610612766,1628970,1628984,1628998,202330,203469,0022000703,1,667,667,0,2,1610612766
40,1610612756,1626164,1626166,1628470,1629661,203967,1610612766,1628970,1628984,1628998,202330,203469,0022000703,1,688,688,3,0,1610612756
41,1610612756,1626164,1626166,1628470,1629661,203967,1610612766,1628970,1628984,1628998,202330,203469,0022000703,1,706,711,0,2,1610612766
42,1610612756,1626164,1626166,1628470,1629661,203967,1610612766,1628970,1628984,1628998,202330,203469,0022000703,1,718,720,0,0,1610612756
43,1610612756,1629661,203967,1628470,1626166,204038,1610612766,1628984,1628998,1628970,203469,1628997,0022000703,2,720,746,0,0,1610612766
44,1610612756,1629661,203967,1628470,1626166,204038,1610612766,1628984,1628998,1628970,203469,1628997,0022000703,2,765,768,0,0,1610612756
45,1610612756,1629661,203967,1628470,1626166,204038,1610612766,1628984,1628998,1628970,203469,1628997,0022000703,2,779,779,0,2,1610612766
46,1610612756,1629661,203967,1628470,1626166,204038,1610612766,1628984,1628998,1628970,203469,1628997,0022000703,2,791,791,0,0,1610612756
47,1610612756,1629661,203967,1628470,1626166,204038,1610612766,1628984,1628998,1628970,203469,1628997,0022000703,2,804,804,0,3,1610612766
48,1610612756,1629661,203967,1628470,1626166,204038,1610612766,1628984,1628998,1628970,203469,1628997,0022000703,2,813,813,3,0,1610612756
49,1610612756,1629661,203967,1628470,1626166,204038,1610612766,1628984,1628998,1628970,203469,1628997,0022000703,2,827,830,0,0,1610612766
50,1610612756,1629661,203967,1628470,1626166,204038,1610612766,1628984,1628998,1628970,203469,1628997,0022000703,2,834,841,0,0,1610612756
51,1610612756,1629661,203967,1628470,1626166,204038,1610612766,1628984,1628998,1628970,203469,1628997,0022000703,2,847,851,0,0,1610612766
52,1610612756,1629661,203967,1628470,1626166,204038,1610612766,1628984,1628998,1628970,203469,1628997,0022000703,2,855,856,2,0,1610612756
53,1610612756,1629661,203967,1628470,1626166,204038,1610612766,1628984,1628998,1628970,203469,1628997,0022000703,2,870,870,0,0,1610612766
54,1610612756,1629661,203967,1628470,1626166,204038,1610612766,1628984,1628998,1628970,203469,1628997,0022000703,2,889,891,2,0,1610612756
55,1610612756,1626166,1628470,1628969,203967,204038,1610612766,1628984,1628998,1628970,203469,1628997,0022000703,2,907,907,0,0,1610612766
56,1610612756,1626166,1628470,1628969,203967,204038,1610612766,1628984,1628998,1628970,203469,1628997,0022000703,2,911,911,2,0,1610612756
57,1610612756,1626166,1628470,1628969,203967,204038,1610612766,1628984,1628998,1628970,203469,1628997,0022000703,2,911,925,0,0,1610612766
58,1610612756,101108,1628470,1628969,1629661,203967,1610612766,1626179,1628970,1628998,1629023,202687,0022000703,2,926,928,0,0,1610612756
59,1610612756,101108,1628470,1628969,1629661,203967,1610612766,1626179,1628970,1628998,1629023,202687,0022000703,2,947,956,0,0,1610612766
60,1610612756,101108,1628470,1628969,1629661,203967,1610612766,1626179,1628970,1628998,1629023,202687,0022000703,2,972,972,2,0,1610612756
61,1610612756,101108,1628470,1628969,1629661,203967,1610612766,1626179,1628970,1628998,1629023,202687,0022000703,2,995,995,0,2,1610612766
62,1610612756,101108,1628470,1628969,1629661,203967,1610612766,1626179,1628970,1628998,1629023,202687,0022000703,2,1012,1019,0,0,1610612756
63,1610612756,101108,1628470,1628969,1629661,203967,1610612766,1626179,1628970,1628998,1629023,202687,0022000703,2,1025,1025,0,2,1610612766
64,1610612756,101108,1628470,1628969,1629661,203967,1610612766,1626179,1628970,1628998,1629023,202687,0022000703,2,1039,1039,2,0,1610612756
65,1610612756,101108,1628470,1628969,1629661,203967,1610612766,1626179,1628970,1628998,1629023,202687,0022000703,2,1061,1071,0,2,1610612766
66,1610612756,101108,1628470,1628969,1629661,203967,1610612766,1626179,1628970,1628998,1629023,202687,0022000703,2,1074,1089,0,0,1610612756
67,1610612756,101108,1626164,1628969,1629028,203109,1610612766,1626179,1628998,1629023,202330,202687,0022000703,2,1094,1095,0,0,1610612766
68,1610612756,101108,1626164,1628969,1629028,203109,1610612766,1626179,1628998,1629023,202330,202687,0022000703,2,1100,1109,0,0,1610612756
69,1610612756,101108,1626164,1628969,1629028,203109,1610612766,1626179,1628998,1629023,202330,202687,0022000703,2,1128,1129,0,0,1610612766
70,1610612756,101108,1626164,1628969,1629028,203109,1610612766,1626179,1628998,1629023,202330,202687,0022000703,2,1137,1137,2,0,1610612756
71,1610612756,101108,1626164,1628969,1629028,203109,1610612766,1626179,1628998,1629023,202330,202687,0022000703,2,1158,1158,0,0,1610612766
72,1610612756,101108,1626164,1628969,1629028,203109,1610612766,1626179,1628998,1629023,202330,202687,0022000703,2,1162,1162,0,0,1610612756
73,1610612756,101108,1626164,1628969,1629028,203109,1610612766,1626179,1628998,1629023,202330,202687,0022000703,2,1165,1165,0,2,1610612766
74,1610612756,101108,1626164,1628969,1629028,203109,1610612766,1626179,1628998,1629023,202330,202687,0022000703,2,1183,1188,2,0,1610612756
75,1610612756,101108,1626164,1628969,1629028,203109,1610612766,1626179,1628998,1629023,202330,202687,0022000703,2,1200,1204,0,0,1610612766
76,1610612756,101108,1626164,1628969,1629028,203109,1610612766,1626179,1628998,1629023,202330,202687,0022000703,2,1216,1218,0,0,1610612756
77,1610612756,101108,1626164,1628969,1629028,203109,1610612766,1626179,1628998,1629023,202330,202687,0022000703,2,1224,1224,0,0,1610612766
78,1610612756,101108,1626164,1628969,1629028,203109,1610612766,1626179,1628998,1629023,202330,202687,0022000703,2,1228,1230,0,0,1610612756
79,1610612756,101108,1626164,1628969,1629028,203109,1610612766,1626179,1628998,1629023,202330,202687,0022000703,2,1234,1234,0,1,1610612766
80,1610612756,101108,1626164,1628969,1629028,203109,1610612766,1626179,1628998,1629023,202330,202687,0022000703,2,1242,1242,2,0,1610612756
81,1610612756,101108,1626164,1628969,1629028,203109,1610612766,1626179,1628984,1629023,202330,202687,0022000703,2,1255,1264,0,0,1610612766
82,1610612756,101108,1626164,1628969,1629028,203109,1610612766,1626179,1628984,1629023,202330,202687,0022000703,2,1284,1287,0,0,1610612756
83,1610612756,101108,1626164,1628969,1629028,203109,1610612766,1626179,1628984,1629023,202330,202687,0022000703,2,1293,1293,0,0,1610612766
84,1610612756,101108,1626164,1628969,1629028,203109,1610612766,1626179,1628984,1629023,202330,202687,0022000703,2,1293,1296,1,0,1610612756
85,1610612756,101108,1626164,1628969,1629028,203109,1610612766,1626179,1628984,1629023,202330,203469,0022000703,2,1311,1311,0,3,1610612766
86,1610612756,101108,1626164,1628969,1629028,203109,1610612766,1626179,1628984,1629023,202330,203469,0022000703,2,1319,1323,0,0,1610612756
87,1610612756,101108,1626164,1628969,1629028,203109,1610612766,1626179,1628984,1629023,202330,203469,0022000703,2,1328,1330,0,0,1610612766
88,1610612756,101108,1626164,1628969,1629028,203109,1610612766,1626179,1628984,1629023,202330,203469,0022000703,2,1336,1340,3,0,1610612756
89,1610612756,101108,1626164,1628969,1629028,203109,1610612766,1626179,1628984,1629023,202330,203469,0022000703,2,1352,1365,0,3,1610612766
90,1610612756,101108,1626164,1628969,1629028,203109,1610612766,1626179,1628984,1629023,202330,203469,0022000703,2,1376,1379,0,0,1610612756
91,1610612756,101108,1626164,1628969,1629028,203109,1610612766,1626179,1628984,1629023,202330,203469,0022000703,2,1386,1389,0,0,1610612766
92,1610612756,101108,1626164,1628969,1629028,203109,1610612766,1626179,1628984,1629023,202330,203469,0022000703,2,1407,1414,0,0,1610612756
93,1610612756,101108,1626164,1628969,1629028,203109,1610612766,1626179,1628984,1629023,202330,203469,0022000703,2,1435,1440,0,0,1610612756
94,1610612756,1628969,203109,1629028,1626164,101108,1610612766,202330,1629023,202687,1626179,1628984,0022000703,3,1440,1457,0,0,1610612766
95,1610612756,1628969,203109,1629028,1626164,101108,1610612766,202330,1629023,202687,1626179,1628984,0022000703,3,1476,1490,2,0,1610612756
96,1610612756,1628969,203109,1629028,1626164,101108,1610612766,202330,1629023,202687,1626179,1628984,0022000703,3,1513,1513,0,0,1610612766
97,1610612756,1628969,203109,1629028,1626164,101108,1610612766,202330,1629023,202687,1626179,1628984,0022000703,3,1521,1521,0,0,1610612756
98,1610612756,1628969,203109,1629028,1626164,101108,1610612766,202330,1629023,202687,1626179,1628984,0022000703,3,1528,1528,0,0,1610612766
99,1610612756,1628969,203109,1629028,1626164,101108,1610612766,202330,1629023,202687,1626179,1628984,0022000703,3,1550,1550,2,0,1610612756
100,1610612756,1628969,203109,1629028,1626164,101108,1610612766,202330,1629023,202687,1626179,1628984,0022000703,3,1579,1579,0,0,1610612766
101,1610612756,1628969,203109,1629028,1626164,101108,1610612766,202330,1629023,202687,1626179,1628984,0022000703,3,1580,1592,2,0,1610612756
102,1610612756,1628969,203109,1629028,1626164,101108,1610612766,202330,1629023,202687,1626179,1628984,0022000703,3,1610,1612,0,0,1610612766
103,1610612756,1628969,203109,1629028,1626164,101108,1610612766,202330,1629023,202687,1626179,1628984,0022000703,3,1617,1617,3,0,1610612756
104,1610612756,1628969,203109,1629028,1626164,101108,1610612766,202330,1629023,202687,1626179,1628984,0022000703,3,1618,1625,0,0,1610612766
105,1610612756,1628969,203109,1629028,1626164,101108,1610612766,1626179,1628970,1628984,1629023,202330,0022000703,3,1643,1643,2,0,1610612756
106,1610612756,1628969,203109,1629028,1626164,101108,1610612766,1626179,1628970,1628984,1629023,202330,0022000703,3,1658,1658,0,0,1610612766
107,1610612756,1628969,203109,1629028,1626164,101108,1610612766,1626179,1628970,1628984,1629023,202330,0022000703,3,1681,1700,0,0,1610612756
108,1610612756,1628969,203109,1629028,1626164,101108,1610612766,1626179,1628970,1628984,1629023,202330,0022000703,3,1706,1706,0,0,1610612766
109,1610612756,1628969,203109,1629028,1626164,101108,1610612766,1626179,1628970,1628984,1629023,202330,0022000703,3,1715,1715,0,0,1610612756
110,1610612756,1628969,203109,1629028,1626164,101108,1610612766,1626179,1628970,1628984,1629023,202330,0022000703,3,1718,1718,0,0,1610612766
111,1610612756,1628969,203109,1629028,1626164,101108,1610612766,1626179,1628970,1628984,1629023,202330,0022000703,3,1718,1729,4,1,1610612756
112,1610612756,1628969,203109,1629028,1626164,101108,1610612766,1626179,1628970,1628984,1629023,202330,0022000703,3,1744,1751,0,0,1610612766
113,1610612756,1628969,203109,1629028,1626164,101108,1610612766,1626179,1628970,1628984,1629023,202330,0022000703,3,1759,1761,0,0,1610612756
114,1610612756,1628969,203109,1629028,1626164,101108,1610612766,1626179,1628970,1628984,1629023,202330,0022000703,3,1771,1771,0,3,1610612766
115,1610612756,1628969,203109,1629028,1626164,101108,1610612766,1626179,1628970,1628984,1629023,202330,0022000703,3,1793,1796,0,0,1610612756
116,1610612756,1628969,203109,1629028,1626164,101108,1610612766,1626179,1628970,1628984,1629023,202330,0022000703,3,1801,1801,0,2,1610612766
117,1610612756,1628969,203109,1629028,1626164,101108,1610612766,1626179,1628970,1628984,1629023,202330,0022000703,3,1825,1825,2,0,1610612756
118,1610612756,1628969,203109,1629028,1626164,101108,1610612766,1626179,1628970,1628984,1629023,202330,0022000703,3,1844,1849,0,2,1610612766
119,1610612756,1628969,203109,1629028,1626164,101108,1610612766,1626179,1628970,1628984,1629023,202330,0022000703,3,1865,1867,2,0,1610612756
120,1610612756,1626164,1626166,1629028,1629661,203109,1610612766,1626179,1628970,1628998,1629023,202330,0022000703,3,1888,1890,0,0,1610612766
121,1610612756,1626164,1626166,1629028,1629661,203109,1610612766,1626179,1628970,1628998,1629023,202330,0022000703,3,1893,1893,2,0,1610612756
122,1610612756,1626164,1626166,1629028,1629661,203109,1610612766,1626179,1628970,1628998,1629023,202330,0022000703,3,1916,1917,0,3,1610612766
123,1610612756,1626164,1626166,1629028,1629661,203109,1610612766,1626179,1628970,1628998,1629023,202330,0022000703,3,1936,1938,0,0,1610612756
124,1610612756,1626164,1626166,1629028,1629661,203109,1610612766,1626179,1628970,1628998,1629023,202330,0022000703,3,1946,1949,0,1,1610612766
125,1610612756,1626164,1626166,1628470,1629661,203967,1610612766,1626179,1628970,1628998,202330,203469,0022000703,3,1974,1976,0,0,1610612756
126,1610612756,1626164,1626166,1628470,1629661,203967,1610612766,1626179,1628970,1628998,202330,203469,0022000703,3,1991,1993,0,0,1610612766
127,1610612756,1626164,1626166,1628470,1629661,203967,1610612766,1626179,1628970,1628998,202330,203469,0022000703,3,2001,2001,2,0,1610612756
128,1610612756,1626164,1626166,1628470,1629661,203967,1610612766,1626179,1628970,1628998,202330,203469,0022000703,3,2016,2016,0,1,1610612766
129,1610612756,1626164,1626166,1628470,1629661,203967,1610612766,1626179,1628970,1628998,202330,203469,0022000703,3,2030,2030,0,0,1610612756
130,1610612756,1626164,1626166,1628470,1629661,203967,1610612766,1626179,1628970,1628998,202330,203469,0022000703,3,2046,2046,0,2,1610612766
131,1610612756,1626164,1626166,1628470,1629661,203967,1610612766,1626179,1628970,1628998,202330,203469,0022000703,3,2070,2070,0,0,1610612756
132,1610612756,1626164,1626166,1628470,1629661,203967,1610612766,1626179,1628970,1628998,202330,203469,0022000703,3,2076,2076,0,2,1610612766
133,1610612756,1626164,1626166,1628470,1629661,203967,1610612766,1628984,1628998,202330,202954,203469,0022000703,3,2091,2091,2,0,1610612756
134,1610612756,1626164,1626166,1628470,1629661,203967,1610612766,1628984,1628998,202330,202954,203469,0022000703,3,2108,2111,0,1,1610612766
135,1610612756,1626164,1626166,1628470,1629661,203967,1610612766,1628984,1628998,202330,202954,203469,0022000703,3,2136,2138,2,0,1610612756
136,1610612756,1626164,1626166,1628470,1629661,203967,1610612766,1628984,1628998,202330,202954,203469,0022000703,3,2160,2160,0,0,1610612756
137,1610612756,1628969,1629661,203967,1628470,1626166,1610612766,1629023,1628984,1628998,1628970,202954,0022000703,4,2160,2183,3,0,1610612756
138,1610612756,1628969,1629661,203967,1628470,1626166,1610612766,1629023,1628984,1628998,1628970,202954,0022000703,4,2202,2215,0,0,1610612766
139,1610612756,1628969,1629661,203967,1628470,1626166,1610612766,1629023,1628984,1628998,1628970,202954,0022000703,4,2219,2219,2,0,1610612756
140,1610612756,1628969,1629661,203967,1628470,1626166,1610612766,1629023,1628984,1628998,1628970,202954,0022000703,4,2240,2240,0,0,1610612766
141,1610612756,1628969,1629661,203967,1628470,1626166,1610612766,1629023,1628984,1628998,1628970,202954,0022000703,4,2260,2266,2,0,1610612756
142,1610612756,1628969,1629661,203967,1628470,1626166,1610612766,1629023,1628984,1628998,1628970,202954,0022000703,4,2287,2287,0,3,1610612766
143,1610612756,1628969,1629661,203967,1628470,1626166,1610612766,1626179,1628970,1628984,1628998,1629023,0022000703,4,2310,2310,0,0,1610612756
144,1610612756,1628969,1629661,203967,1628470,1626166,1610612766,1626179,1628970,1628984,1628998,1629023,0022000703,4,2324,2329,0,2,1610612766
145,1610612756,1628969,1629661,203967,1628470,1626166,1610612766,1626179,1628970,1628984,1628998,1629023,0022000703,4,2346,2346,0,0,1610612756
146,1610612756,1628969,1629661,203967,1628470,1626166,1610612766,1626179,1628970,1628984,1628998,1629023,0022000703,4,2346,2369,0,2,1610612766
147,1610612756,1628969,1629661,203967,1628470,1626166,1610612766,1626179,1628970,1628984,1628998,1629023,0022000703,4,2369,2392,0,0,1610612756
148,1610612756,101108,1628470,1628969,1629661,203967,1610612766,1626179,1628970,1628984,1628998,1629023,0022000703,4,2408,2408,0,2,1610612766
149,1610612756,101108,1628470,1628969,1629661,203967,1610612766,1626179,1628970,1628984,1628998,1629023,0022000703,4,2437,2441,0,0,1610612756
150,1610612756,101108,1628470,1628969,1629661,203967,1610612766,1626179,1628970,1628984,1628998,1629023,0022000703,4,2449,2449,0,0,1610612766
151,1610612756,101108,1628470,1628969,1629661,203967,1610612766,1626179,1628970,1628984,1628998,1629023,0022000703,4,2465,2470,0,0,1610612756
152,1610612756,101108,1626164,1628470,1628969,1629028,1610612766,1626179,1628970,1628984,1628998,1629023,0022000703,4,2481,2484,0,0,1610612766
153,1610612756,101108,1626164,1628470,1628969,1629028,1610612766,1626179,1628970,1628984,1628998,1629023,0022000703,4,2491,2495,3,0,1610612756
154,1610612756,101108,1626164,1628470,1628969,1629028,1610612766,1626179,1628970,1628984,1628998,1629023,0022000703,4,2512,2512,0,0,1610612766
155,1610612756,101108,1626164,1628470,1628969,1629028,1610612766,1626179,1628970,1628984,1628998,1629023,0022000703,4,2518,2521,2,0,1610612756
156,1610612756,101108,1626164,1628470,1628969,1629028,1610612766,1626179,1628970,1628984,1628998,1629023,0022000703,4,2521,2541,0,0,1610612766
157,1610612756,101108,1626164,1628470,1628969,1629028,1610612766,1626179,1628970,1628984,1629023,202330,0022000703,4,2556,2560,0,0,1610612756
158,1610612756,101108,1626164,1628470,1628969,1629028,1610612766,1626179,1628970,1628984,1629023,202330,0022000703,4,2578,2578,0,3,1610612766
159,1610612756,101108,1626164,1628470,1628969,1629028,1610612766,1626179,1628970,1628984,1629023,202330,0022000703,4,2603,2603,0,0,1610612756
160,1610612756,101108,1626164,1628969,1629028,203109,1610612766,1626179,1628970,1628984,1629023,202330,0022000703,4,2620,2620,0,3,1610612766
161,1610612756,101108,1626164,1628969,1629028,203109,1610612766,1626179,1628970,1628984,1629023,202330,0022000703,4,2640,2640,0,0,1610612756
162,1610612756,101108,1626164,1628969,1629028,203109,1610612766,1626179,1628970,1628984,1629023,202330,0022000703,4,2641,2660,0,0,1610612766
163,1610612756,101108,1626164,1628969,1629028,203109,1610612766,1626179,1628970,1628984,1629023,202330,0022000703,4,2672,2680,2,0,1610612756
164,1610612756,101108,1626164,1628969,1629028,203109,1610612766,1626179,1628970,1628984,1629023,202330,0022000703,4,2680,2696,0,0,1610612766
165,1610612756,101108,1626164,1628969,1629028,203109,1610612766,1626179,1628970,1628984,1629023,202330,0022000703,4,2708,2721,0,0,1610612756
166,1610612756,101108,1626164,1628969,1629028,203109,1610612766,1626179,1628970,1628984,1629023,202330,0022000703,4,2721,2733,0,0,1610612766
167,1610612756,101108,1626164,1628969,1629028,203109,1610612766,1626179,1628970,1628984,1629023,202330,0022000703,4,2756,2759,0,0,1610612756
168,1610612756,101108,1626164,1628969,1629028,203109,1610612766,1626179,1628970,1628984,1629023,202330,0022000703,4,2763,2763,0,2,1610612766
169,1610612756,101108,1626164,1628969,1629028,203109,1610612766,1626179,1628970,1628984,1629023,202330,0022000703,4,2785,2789,0,0,1610612756
170,1610612756,101108,1626164,1628969,1629028,203109,1610612766,1626179,1628970,1628984,1629023,202330,0022000703,4,2798,2798,0,3,1610612766
171,1610612756,101108,1626164,1628969,1629028,203109,1610612766,1626179,1628970,1628984,1629023,202330,0022000703,4,2817,2842,0,0,1610612756
172,1610612756,101108,1626164,1628969,1629028,203109,1610612766,1626179,1628970,1628984,1629023,202330,0022000703,4,2846,2846,0,3,1610612766
173,1610612756,101108,1626164,1628969,1629028,203109,1610612766,1626179,1628970,1628984,1629023,202330,0022000703,4,2847,2854,0,0,1610612756
174,1610612756,101108,1626164,1628969,1629028,203109,1610612766,1626179,1628970,1628984,1629023,202330,0022000703,4,2878,2878,0,0,1610612756
175,1610612756,1628969,203109,1629028,1626164,101108,1610612766,202330,1629023,1626179,1628984,1628970,0022000703,5,2880,2907,0,0,1610612766
176,1610612756,1628969,203109,1629028,1626164,101108,1610612766,202330,1629023,1626179,1628984,1628970,0022000703,5,2917,2925,2,0,1610612756
177,1610612756,1628969,203109,1629028,1626164,101108,1610612766,202330,1629023,1626179,1628984,1628970,0022000703,5,2936,2939,0,0,1610612766
178,1610612756,1628969,203109,1629028,1626164,101108,1610612766,202330,1629023,1626179,1628984,1628970,0022000703,5,2959,2962,0,0,1610612756
179,1610612756,1628969,203109,1629028,1626164,101108,1610612766,202330,1629023,1626179,1628984,1628970,0022000703,5,2963,2963,0,2,1610612766
180,1610612756,1628969,203109,1629028,1626164,101108,1610612766,202330,1629023,1626179,1628984,1628970,0022000703,5,2982,2991,3,0,1610612756
181,1610612756,1628969,203109,1629028,1626164,101108,1610612766,202330,1629023,1626179,1628984,1628970,0022000703,5,3015,3017,0,0,1610612766
182,1610612756,1628969,203109,1629028,1626164,101108,1610612766,202330,1629023,1626179,1628984,1628970,0022000703,5,3032,3042,0,0,1610612756
183,1610612756,1628969,203109,1629028,1626164,101108,1610612766,202330,1629023,1626179,1628984,1628970,0022000703,5,3052,3054,0,0,1610612766
184,1610612756,1628969,203109,1629028,1626164,101108,1610612766,202330,1629023,1626179,1628984,1628970,0022000703,5,3075,3077,0,0,1610612756
185,1610612756,1628969,203109,1629028,1626164,101108,1610612766,202330,1629023,1626179,1628984,1628970,0022000703,5,3084,3084,0,0,1610612766
186,1610612756,1628969,203109,1629028,1626164,101108,1610612766,202330,1629023,1626179,1628984,1628970,0022000703,5,3084,3097,2,0,1610612756
187,1610612756,101108,1626164,1628470,1628969,203109,1610612766,202330,1629023,1626179,1628984,1628970,0022000703,5,3097,3118,0,0,1610612766
188,1610612756,101108,1626164,1628470,1628969,203109,1610612766,202330,1629023,1626179,1628984,1628970,0022000703,5,3132,3132,0,0,1610612756
189,1610612756,101108,1626164,1628470,1628969,203109,1610612766,202330,1629023,1626179,1628984,1628970,0022000703,5,3135,3135,0,3,1610612766
190,1610612756,101108,1626164,1628470,1628969,203109,1610612766,202330,1629023,1626179,1628984,1628970,0022000703,5,3135,3147,0,0,1610612756
191,1610612756,101108,1626164,1628470,1628969,203109,1610612766,202330,1629023,1626179,1628984,1628970,0022000703,5,3160,3162,0,0,1610612766
192,1610612756,101108,1626164,1628470,1628969,203109,1610612766,202330,1629023,1626179,1628984,1628970,0022000703,5,3166,3166,2,0,1610612756
193,1610612756,101108,1626164,1628470,1628969,203109,1610612766,202330,1629023,1626179,1628984,1628970,0022000703,5,3166,3172,0,2,1610612766
194,1610612756,101108,1626164,1628470,1629028,203109,1610612766,202330,1629023,1626179,1628984,1628970,0022000703,5,3172,3177,2,0,1610612756
195,1610612756,101108,1626164,1628470,1628969,203109,1610612766,202330,1629023,1626179,1628984,1628970,0022000703,5,3180,3180,0,0,1610612756
