,stint_start,t1_points_scored,t2_pm,stint_end,t1_id,t2_points_scored,t1_players,t2_id,t1_pm,t2_players,margin_per_100,num_poss
0,0,9,1,171,1610612763,10,"[203937, 1628991, 202685, 1628415, 1629630]",1610612758,-1,"[203084, 202357, 1628385, 203992, 1628368]",-10.0,10.0
1,172,11,9,305,1610612763,20,"[203937, 1628991, 202685, 1628415, 1629630]",1610612758,-9,"[203084, 202357, 1628385, 203992, 1628368]",-45.0,20.0
2,306,17,8,408,1610612763,25,"[203937, 1628991, 202685, 1628415, 1629630]",1610612758,-8,"[1627741, 1628368, 1628385, 202357, 203084]",-27.586206896551722,29.0
3,409,28,6,618,1610612763,34,"[1626145, 1628415, 1628991, 202685, 203937]",1610612758,-6,"[1627741, 1628368, 1628385, 202357, 203084]",-13.953488372093023,43.0
4,619,35,2,719,1610612763,37,"[1626145, 1628367, 1628991, 1629001, 202685]",1610612758,-2,"[1627741, 1628368, 1628385, 203084, 203145]",-3.9215686274509802,51.0
5,720,35,5,781,1610612763,40,"[1626145, 1628367, 1629001, 1629634, 203476]",1610612758,-5,"[1627741, 202709, 203084, 203145, 203953]",-8.928571428571429,56.0
6,782,35,7,791,1610612763,42,"[1629630, 1629001, 1628367, 1629634, 203476]",1610612758,-7,"[202357, 1627741, 203145, 202709, 203953]",-12.280701754385964,57.0
7,792,41,12,1059,1610612763,53,"[1628367, 1628415, 1629630, 1629634, 203476]",1610612758,-12,"[202357, 1627741, 203145, 202709, 203953]",-15.384615384615385,78.0
8,1060,48,10,1189,1610612763,58,"[1628415, 1629630, 1629634, 1629741, 203476]",1610612758,-10,"[202357, 202709, 203145, 203953, 203992]",-11.627906976744185,86.0
9,1190,55,9,1347,1610612763,64,"[1626145, 1628415, 1629634, 1629741, 202685]",1610612758,-9,"[1628368, 1628385, 202357, 203084, 203992]",-9.278350515463918,97.0
10,1348,59,5,1374,1610612763,64,"[1626145, 1628991, 1629001, 202685, 203937]",1610612758,-5,"[1628368, 1628385, 202357, 203084, 203992]",-5.0,100.0
11,1375,61,6,1439,1610612763,67,"[1628991, 1629001, 1629630, 1629634, 203937]",1610612758,-6,"[1627741, 1628368, 1628385, 203084, 203145]",-5.769230769230769,104.0
12,1440,65,13,1593,1610612763,78,"[1628991, 1629001, 1629630, 1629634, 203937]",1610612758,-13,"[1627741, 1628368, 202357, 203084, 203145]",-11.504424778761061,113.0
13,1594,67,14,1675,1610612763,81,"[203937, 1628991, 202685, 1628415, 1629630]",1610612758,-14,"[203084, 202357, 1628385, 203992, 1628368]",-11.76470588235294,119.0
14,1676,67,14,1752,1610612763,81,"[203937, 1628991, 202685, 1628415, 1629630]",1610612758,-14,"[1628368, 202357, 203084, 203953, 203992]",-11.475409836065573,122.0
15,1753,67,18,1796,1610612763,85,"[203937, 1628991, 202685, 1628415, 1629630]",1610612758,-18,"[1627741, 1628368, 202357, 203084, 203953]",-14.399999999999999,125.0
16,1797,69,16,1842,1610612763,85,"[1628415, 1628991, 1629630, 1629634, 203937]",1610612758,-16,"[1627741, 1628368, 202357, 203084, 203953]",-12.4031007751938,129.0
17,1843,81,8,1979,1610612763,89,"[1626145, 1628415, 1628991, 1629634, 203937]",1610612758,-8,"[1627741, 1628368, 202357, 203084, 203953]",-5.714285714285714,140.0
18,1980,83,7,2029,1610612763,90,"[1626145, 1628367, 1628991, 1629001, 1629634]",1610612758,-7,"[1627741, 1628368, 203084, 203145, 203953]",-4.895104895104895,143.0
19,2030,90,7,2159,1610612763,97,"[1626145, 1628367, 1628991, 1629001, 1629634]",1610612758,-7,"[1627741, 202709, 203084, 203145, 203953]",-4.57516339869281,153.0
20,2160,92,10,2276,1610612763,102,"[1626145, 1628367, 1628991, 1629001, 1629634]",1610612758,-10,"[1627741, 202357, 202709, 203084, 203145]",-6.211180124223603,161.0
21,2277,92,15,2339,1610612763,107,"[1629630, 1629001, 1628367, 1629634, 203476]",1610612758,-15,"[202357, 203992, 1627741, 203145, 202709]",-9.036144578313253,166.0
22,2340,97,10,2388,1610612763,107,"[1628367, 1628415, 1629630, 1629634, 203476]",1610612758,-10,"[202357, 203992, 1627741, 203145, 202709]",-5.847953216374268,171.0
23,2389,100,7,2427,1610612763,107,"[1628367, 1628415, 1629630, 203476, 203937]",1610612758,-7,"[202357, 203992, 1627741, 203145, 202709]",-4.046242774566474,173.0
24,2428,100,7,2444,1610612763,107,"[1628367, 1628415, 1629630, 203476, 203937]",1610612758,-7,"[1628368, 202357, 202709, 203145, 203992]",-4.022988505747127,174.0
25,2445,104,4,2509,1610612763,108,"[1628367, 1628415, 1629630, 203476, 203937]",1610612758,-4,"[1628368, 202357, 202709, 203084, 203992]",-2.2346368715083798,179.0
26,2510,104,6,2533,1610612763,110,"[1628367, 1628415, 1629630, 203476, 203937]",1610612758,-6,"[1628368, 1628385, 202709, 203084, 203992]",-3.314917127071823,181.0
27,2534,106,6,2642,1610612763,112,"[1628367, 1628415, 1628991, 1629630, 203937]",1610612758,-6,"[1628368, 1628385, 202709, 203084, 203992]",-3.1914893617021276,188.0
28,2643,113,7,2830,1610612763,120,"[1628415, 1628991, 1629001, 1629630, 203937]",1610612758,-7,"[1628368, 1628385, 202709, 203084, 203992]",-3.535353535353535,198.0
29,2831,116,6,2857,1610612763,122,"[1628415, 1628991, 1629001, 1629630, 1629634]",1610612758,-6,"[1627741, 1628368, 1628385, 202709, 203084]",-2.941176470588235,204.0
30,2858,116,6,2858,1610612763,122,"[1628415, 1628991, 1629001, 1629630, 1629634]",1610612758,-6,"[1628368, 1628385, 202709, 203084, 203145]",-2.941176470588235,204.0
31,2859,116,6,2864,1610612763,122,"[1626145, 1628991, 1629001, 1629630, 1629634]",1610612758,-6,"[1628368, 1628385, 202709, 203084, 203145]",-2.9268292682926833,205.0
32,2865,121,3,2870,1610612763,124,"[1626145, 1628991, 1629001, 1629630, 1629634]",1610612758,-3,"[1628368, 202357, 203084, 203145, 203953]",-1.4423076923076923,208.0
33,2871,121,3,2870,1610612763,124,"[1626145, 1628991, 1629001, 1629630, 1629634]",1610612758,-3,"[1627741, 1628368, 202709, 203084, 203145]",-1.4423076923076923,208.0
34,2871,121,4,2872,1610612763,125,"[1626145, 1628991, 1629001, 1629630, 1629634]",1610612758,-4,"[1628368, 1629713, 202709, 203084, 203145]",-1.9138755980861244,209.0
35,2873,125,4,2879,1610612763,129,"[1626145, 1628991, 1629001, 1629630, 1629634]",1610612758,-4,"[1628368, 202357, 203084, 203145, 203953]",-1.8779342723004695,213.0
36,2880,125,4,9999999,1610612763,129,"[1626145, 1628991, 1629001, 1629630, 1629634]",1610612758,-4,"[1627741, 1628368, 202709, 203084, 203145]",-1.8691588785046727,214.0
