,TEAM_ID_1,TEAM_1_PLAYERS,TEAM_ID_2,TEAM_2_PLAYERS,PERIOD
0,1610612758,[ 203084 1626158  202357 1627741 1628368],1610612757,[ 203496 1627884  202683  203468  203081],1
1,1610612758,[1629610  203953 1630169  202709  203922],1610612757,[ 203496  203468 1629014 1628385 1629604],2
2,1610612758,[ 203084 1626158  202357 1627741 1628368],1610612757,[ 203081    2546 1629018 1628385 1629604],3
3,1610612758,[1629610 1630169  203922 1626163 1629713],1610612757,[ 203496 1627884  202683  203468 1629604],4
