,team1_id,team1_player1,team1_player2,team1_player3,team1_player4,team1_player5,team2_id,team2_player1,team2_player2,team2_player3,team2_player4,team2_player5,game_id,period,possession_start,possession_end,team1_points,team2_points,possession_team
0,1610612753,1630532,1628976,1628964,1630175,1630591,1610612765,1630180,203924,1630191,1630165,1630595,0022100079,1,0,20,0,2,1610612765
1,1610612753,1630532,1628976,1628964,1630175,1630591,1610612765,1630180,203924,1630191,1630165,1630595,0022100079,1,44,44,2,0,1610612753
2,1610612753,1630532,1628976,1628964,1630175,1630591,1610612765,1630180,203924,1630191,1630165,1630595,0022100079,1,58,62,0,2,1610612765
3,1610612753,1630532,1628976,1628964,1630175,1630591,1610612765,1630180,203924,1630191,1630165,1630595,0022100079,1,75,77,0,0,1610612753
4,1610612753,1630532,1628976,1628964,1630175,1630591,1610612765,1630180,203924,1630191,1630165,1630595,0022100079,1,83,83,0,0,1610612765
5,1610612753,1630532,1628976,1628964,1630175,1630591,1610612765,1630180,203924,1630191,1630165,1630595,0022100079,1,91,91,3,0,1610612753
6,1610612753,1630532,1628976,1628964,1630175,1630591,1610612765,1630180,203924,1630191,1630165,1630595,0022100079,1,109,116,0,0,1610612765
7,1610612753,1630532,1628976,1628964,1630175,1630591,1610612765,1630180,203924,1630191,1630165,1630595,0022100079,1,124,127,0,0,1610612753
8,1610612753,1630532,1628976,1628964,1630175,1630591,1610612765,1630180,203924,1630191,1630165,1630595,0022100079,1,131,133,0,0,1610612765
9,1610612753,1630532,1628976,1628964,1630175,1630591,1610612765,1630180,203924,1630191,1630165,1630595,0022100079,1,145,145,3,0,1610612753
10,1610612753,1630532,1628976,1628964,1630175,1630591,1610612765,1630180,203924,1630191,1630165,1630595,0022100079,1,164,164,0,0,1610612765
11,1610612753,1630532,1628976,1628964,1630175,1630591,1610612765,1630180,203924,1630191,1630165,1630595,0022100079,1,175,175,0,0,1610612753
12,1610612753,1630532,1628976,1628964,1630175,1630591,1610612765,1630180,203924,1630191,1630165,1630595,0022100079,1,175,202,0,3,1610612765
13,1610612753,1630532,1628976,1628964,1630175,1630591,1610612765,1630180,203924,1630191,1630165,1630595,0022100079,1,227,227,0,0,1610612753
14,1610612753,1630532,1628976,1628964,1630175,1630591,1610612765,1630180,203924,1630191,1630165,1630595,0022100079,1,243,246,0,0,1610612765
15,1610612753,1630532,1628976,1628964,1630175,1630591,1610612765,1630180,203924,1630191,1630165,1630595,0022100079,1,259,261,0,0,1610612753
16,1610612753,1630532,1628976,1628964,1630175,1630591,1610612765,1630180,203924,1630191,1630165,1630595,0022100079,1,266,266,0,2,1610612765
17,1610612753,1630532,1628976,1628964,1630175,1630591,1610612765,1630180,203924,1630191,1630165,1630595,0022100079,1,276,276,0,0,1610612753
18,1610612753,1630532,1628976,1628964,1630175,1630591,1610612765,1630180,203924,1630191,1630165,1630595,0022100079,1,300,303,0,0,1610612765
19,1610612753,1630532,1628976,1628964,1630175,1630591,1610612765,1630180,203924,1630191,1630165,1630595,0022100079,1,309,313,0,0,1610612753
20,1610612753,1630532,1628976,1628964,1630175,1630591,1610612765,1630180,203924,1630191,1630165,1630595,0022100079,1,324,339,0,3,1610612765
21,1610612753,1630532,1628976,1628964,1630175,1630591,1610612765,1630180,203924,1630191,1630165,1630595,0022100079,1,356,370,0,0,1610612753
22,1610612753,1628964,1628976,1630175,203082,203914,1610612765,1630180,203924,1630191,1630165,1630595,0022100079,1,390,391,0,0,1610612765
23,1610612753,1628964,1628976,1630175,203082,203914,1610612765,1630180,203924,1630191,1630165,1630595,0022100079,1,407,410,0,0,1610612753
24,1610612753,1628964,1628976,1630175,203082,203914,1610612765,1630180,203924,1630191,1630165,1630595,0022100079,1,425,428,0,0,1610612765
25,1610612753,1628964,1628976,1630175,203082,203914,1610612765,1630180,203924,1630191,1630165,1630595,0022100079,1,444,449,0,0,1610612753
26,1610612753,1628964,1628976,1630175,203082,203914,1610612765,1630180,203924,1630191,1630165,1630595,0022100079,1,460,460,0,2,1610612765
27,1610612753,1628964,1628976,1630175,203082,203914,1610612765,1630180,203924,1630191,1630165,1630595,0022100079,1,477,477,2,0,1610612753
28,1610612753,1628964,1628976,1630175,203082,203914,1610612765,1630180,203924,1630191,1630165,1630595,0022100079,1,491,494,0,0,1610612765
29,1610612753,1628964,1628976,1630175,203082,203914,1610612765,1630180,203924,1630191,1630165,1630595,0022100079,1,506,506,2,0,1610612753
30,1610612753,1628964,1628976,1630175,203082,203914,1610612765,1630180,203924,1630191,1630165,1630595,0022100079,1,512,512,0,2,1610612765
31,1610612753,1628964,1628976,1630175,203082,203914,1610612765,1630180,203924,1630191,1630165,1630595,0022100079,1,513,533,2,0,1610612753
32,1610612753,1629643,1630181,1630532,203082,203914,1610612765,1628367,1630180,202709,203482,203924,0022100079,1,553,558,0,0,1610612765
33,1610612753,1629643,1630181,1630532,203082,203914,1610612765,1628367,1630180,202709,203482,203924,0022100079,1,568,575,0,0,1610612753
34,1610612753,1629643,1630181,1630532,203082,203914,1610612765,1628367,1630180,202709,203482,203924,0022100079,1,584,584,0,2,1610612765
35,1610612753,1629643,1630181,1630532,203082,203914,1610612765,1628367,1630180,202709,203482,203924,0022100079,1,605,605,2,0,1610612753
36,1610612753,1629643,1630181,1630532,203082,203914,1610612765,1628367,1630180,202709,203482,203924,0022100079,1,622,622,0,2,1610612765
37,1610612753,1629643,1630181,1630532,203082,203914,1610612765,1628367,1628402,202709,203482,203924,0022100079,1,630,630,2,0,1610612753
38,1610612753,1629643,1630181,1630532,203082,203914,1610612765,1628367,1628402,202709,203482,203924,0022100079,1,646,649,0,0,1610612765
39,1610612753,1629643,1630181,1630532,203082,203914,1610612765,1628367,1628402,202709,203482,203924,0022100079,1,654,657,0,0,1610612753
40,1610612753,1629643,1630181,1630532,203082,203914,1610612765,1628367,1628402,202709,203482,203924,0022100079,1,662,662,0,3,1610612765
41,1610612753,1629643,1630181,1630532,203082,203914,1610612765,1628367,1628402,202709,203482,203924,0022100079,1,675,675,0,0,1610612753
42,1610612753,1629643,1630181,1630532,203082,203914,1610612765,1628367,1628402,202709,203482,203924,0022100079,1,685,685,0,2,1610612765
43,1610612753,1629643,1630181,1630532,203082,203914,1610612765,1628367,1628402,202709,203482,203924,0022100079,1,694,708,0,0,1610612753
44,1610612753,1629643,1630181,1630532,203082,203914,1610612765,1628367,1628402,202709,203482,203924,0022100079,1,710,710,0,0,1610612765
45,1610612753,1629643,1630181,1630532,203082,203914,1610612765,1628367,1628402,202709,203482,203924,0022100079,1,715,718,2,0,1610612753
46,1610612753,1630532,203914,203082,1629643,1630181,1610612765,202709,203482,1628367,1628402,1626168,0022100079,2,720,749,0,0,1610612753
47,1610612753,1630532,203914,203082,1629643,1630181,1610612765,202709,203482,1628367,1628402,1626168,0022100079,2,758,760,0,0,1610612765
48,1610612753,1630532,203914,203082,1629643,1630181,1610612765,202709,203482,1628367,1628402,1626168,0022100079,2,764,764,0,0,1610612753
49,1610612753,1630532,203914,203082,1629643,1630181,1610612765,202709,203482,1628367,1628402,1626168,0022100079,2,770,770,0,2,1610612765
50,1610612753,1630532,203914,203082,1629643,1630181,1610612765,202709,203482,1628367,1628402,1626168,0022100079,2,790,790,2,0,1610612753
51,1610612753,1630532,203914,203082,1629643,1630181,1610612765,202709,203482,1628367,1628402,1626168,0022100079,2,804,804,0,2,1610612765
52,1610612753,1630532,203914,203082,1629643,1630181,1610612765,202709,203482,1628367,1628402,1626168,0022100079,2,816,816,0,0,1610612753
53,1610612753,1630532,203914,203082,1629643,1630181,1610612765,202709,203482,1628367,1628402,1626168,0022100079,2,824,830,0,0,1610612765
54,1610612753,1630532,203914,203082,1629643,1630181,1610612765,202709,203482,1628367,1628402,1626168,0022100079,2,838,842,0,0,1610612753
55,1610612753,1630532,203914,203082,1629643,1630181,1610612765,202709,203482,1628367,1628402,1626168,0022100079,2,852,858,0,3,1610612765
56,1610612753,1630532,203914,203082,1629643,1630181,1610612765,202709,203482,1628367,1628402,1626168,0022100079,2,873,877,0,0,1610612753
57,1610612753,1630532,203914,203082,1629643,1630181,1610612765,202709,203482,1628367,1628402,1626168,0022100079,2,884,884,0,0,1610612765
58,1610612753,1628964,1630181,1630532,1630591,203082,1610612765,202709,203482,1628367,1628402,1626168,0022100079,2,902,904,0,0,1610612753
59,1610612753,1628964,1630181,1630532,1630591,203082,1610612765,202709,203482,1628367,1628402,1626168,0022100079,2,905,905,0,0,1610612765
60,1610612753,1628964,1630175,1630532,1630591,203082,1610612765,202709,203482,1628367,1628402,1626168,0022100079,2,911,914,3,0,1610612753
61,1610612753,1628964,1628976,1630175,1630591,203082,1610612765,202709,203482,1628367,1628402,1626168,0022100079,2,927,930,0,0,1610612765
62,1610612753,1628964,1628976,1630175,1630591,203082,1610612765,202709,203482,1628367,1628402,1626168,0022100079,2,945,948,0,0,1610612753
63,1610612753,1628964,1628976,1630175,1630591,203082,1610612765,202709,203482,1628367,1628402,1626168,0022100079,2,955,969,0,0,1610612765
64,1610612753,1628964,1628976,1630175,1630591,203082,1610612765,202709,203482,1628367,1628402,1626168,0022100079,2,986,986,0,0,1610612753
65,1610612753,1628964,1628976,1630175,1630591,203082,1610612765,202709,203482,1628367,1628402,1626168,0022100079,2,987,987,0,1,1610612765
66,1610612753,1628964,1628976,1630175,1630591,203082,1610612765,202709,203482,1628367,1628402,1626168,0022100079,2,997,997,1,0,1610612753
67,1610612753,1628964,1628976,1630175,1630591,203082,1610612765,1626168,1628367,1628402,1630191,202709,0022100079,2,997,1014,0,2,1610612765
68,1610612753,1628964,1628976,1630175,1630591,203082,1610612765,1626168,1628367,1630165,1630191,1630595,0022100079,2,1024,1024,0,0,1610612753
69,1610612753,1628964,1628976,1630175,1630591,203082,1610612765,1626168,1630165,1630180,1630191,1630595,0022100079,2,1038,1038,0,0,1610612765
70,1610612753,1628964,1628976,1630175,1630591,203082,1610612765,1626168,1630165,1630180,1630191,1630595,0022100079,2,1049,1063,0,0,1610612753
71,1610612753,1628964,1628976,1630175,1630591,203082,1610612765,1630165,1630180,1630191,1630595,203924,0022100079,2,1069,1069,0,0,1610612765
72,1610612753,1628964,1628976,1630175,1630591,203082,1610612765,1630165,1630180,1630191,1630595,203924,0022100079,2,1075,1080,2,0,1610612753
73,1610612753,1628964,1628976,1630175,1630591,203082,1610612765,1630165,1630180,1630191,1630595,203924,0022100079,2,1090,1090,0,0,1610612765
74,1610612753,1628964,1628976,1630175,1630591,203082,1610612765,1630165,1630180,1630191,1630595,203924,0022100079,2,1105,1105,2,0,1610612753
75,1610612753,1628964,1628976,1630175,1630591,203082,1610612765,1630165,1630180,1630191,1630595,203924,0022100079,2,1116,1130,0,2,1610612765
76,1610612753,1628964,1628976,1630175,1630591,203082,1610612765,1630165,1630180,1630191,1630595,203924,0022100079,2,1152,1157,2,0,1610612753
77,1610612753,1628964,1628976,1630175,1630591,203082,1610612765,1630165,1630180,1630191,1630595,203924,0022100079,2,1174,1174,0,0,1610612765
78,1610612753,1628964,1628976,1630175,1630591,203082,1610612765,1630165,1630180,1630191,1630595,203924,0022100079,2,1184,1186,0,0,1610612753
79,1610612753,1628964,1628976,1630175,1630591,203082,1610612765,1630165,1630180,1630191,1630595,203924,0022100079,2,1190,1195,0,3,1610612765
80,1610612753,1628964,1628976,1630175,1630591,203082,1610612765,1630165,1630180,1630191,1630595,203924,0022100079,2,1195,1207,3,0,1610612753
81,1610612753,1628964,1629021,1630175,1630591,203914,1610612765,1630165,1630180,1630191,1630595,203924,0022100079,2,1230,1230,0,3,1610612765
82,1610612753,1628964,1629021,1630175,1630591,203914,1610612765,1630165,1630180,1630191,1630595,203924,0022100079,2,1253,1253,3,0,1610612753
83,1610612753,1628964,1629021,1630175,1630591,203914,1610612765,1630165,1630180,1630191,1630595,203924,0022100079,2,1262,1262,0,0,1610612765
84,1610612753,1628964,1629021,1630175,1630591,203914,1610612765,1630165,1630180,1630191,1630595,203924,0022100079,2,1266,1266,2,0,1610612753
85,1610612753,1629021,1630181,1630532,1630591,203914,1610612765,1630165,1630180,1630191,1630595,203924,0022100079,2,1283,1283,0,2,1610612765
86,1610612753,1629021,1630181,1630532,1630591,203914,1610612765,1630165,1630180,1630191,1630595,203924,0022100079,2,1299,1302,0,0,1610612753
87,1610612753,1629021,1630181,1630532,1630591,203914,1610612765,1630165,1630180,1630191,1630595,203924,0022100079,2,1307,1310,0,0,1610612765
88,1610612753,1629021,1630181,1630532,1630591,203914,1610612765,1630165,1630180,1630191,1630595,203924,0022100079,2,1311,1311,0,0,1610612753
89,1610612753,1629021,1630181,1630532,1630591,203914,1610612765,1630165,1630180,1630191,1630595,203924,0022100079,2,1323,1325,0,0,1610612765
90,1610612753,1629021,1630181,1630532,1630591,203914,1610612765,1630165,1630180,1630191,1630595,203924,0022100079,2,1331,1334,0,0,1610612753
91,1610612753,1629021,1630181,1630532,1630591,203914,1610612765,1630165,1630180,1630191,1630595,203924,0022100079,2,1339,1343,0,1,1610612765
92,1610612753,1629021,1629643,1630175,1630181,1630532,1610612765,1630165,1630180,1630191,203482,203924,0022100079,2,1351,1354,0,0,1610612753
93,1610612753,1629021,1629643,1630175,1630181,1630532,1610612765,1630165,1630180,1630191,203482,203924,0022100079,2,1366,1366,0,2,1610612765
94,1610612753,1629021,1629643,1630175,1630181,1630532,1610612765,1630165,1630180,1630191,203482,203924,0022100079,2,1379,1379,2,0,1610612753
95,1610612753,1629021,1629643,1630175,1630181,1630532,1610612765,1630165,1630180,1630191,203482,203924,0022100079,2,1396,1398,0,0,1610612765
96,1610612753,1629021,1629643,1630175,1630181,1630532,1610612765,1630165,1630180,1630191,203482,203924,0022100079,2,1408,1408,3,0,1610612753
97,1610612753,1629021,1629643,1630175,1630181,1630532,1610612765,1630165,1630180,1630191,203482,203924,0022100079,2,1418,1418,0,0,1610612765
98,1610612753,1629021,1629643,1630175,1630181,1630532,1610612765,1630165,1630180,202709,203482,203924,0022100079,2,1434,1434,2,0,1610612753
99,1610612753,1629021,1629643,1630175,1630181,1630532,1610612765,1630165,1630180,202709,203482,203924,0022100079,2,1440,1440,0,0,1610612753
100,1610612753,1630532,1628976,1628964,1630175,1630591,1610612765,1630180,203924,1630191,1630165,1630595,0022100079,3,1440,1465,0,0,1610612753
101,1610612753,1630532,1628976,1628964,1630175,1630591,1610612765,1630180,203924,1630191,1630165,1630595,0022100079,3,1479,1479,0,2,1610612765
102,1610612753,1630532,1628976,1628964,1630175,1630591,1610612765,1630180,203924,1630191,1630165,1630595,0022100079,3,1503,1503,0,0,1610612753
103,1610612753,1630532,1628976,1628964,1630175,1630591,1610612765,1630180,203924,1630191,1630165,1630595,0022100079,3,1503,1518,0,0,1610612765
104,1610612753,1630532,1628976,1628964,1630175,1630591,1610612765,1630180,203924,1630191,1630165,1630595,0022100079,3,1521,1521,0,0,1610612753
105,1610612753,1630532,1628976,1628964,1630175,1630591,1610612765,1630180,203924,1630191,1630165,1630595,0022100079,3,1530,1535,0,2,1610612765
106,1610612753,1630532,1628976,1628964,1630175,1630591,1610612765,1630180,203924,1630191,1630165,1630595,0022100079,3,1550,1550,0,0,1610612753
107,1610612753,1630532,1628976,1628964,1630175,1630591,1610612765,1630180,203924,1630191,1630165,1630595,0022100079,3,1559,1561,0,0,1610612765
108,1610612753,1630532,1628976,1628964,1630175,1630591,1610612765,1630180,203924,1630191,1630165,1630595,0022100079,3,1570,1570,2,0,1610612753
109,1610612753,1630532,1628976,1628964,1630175,1630591,1610612765,1630180,203924,1630191,1630165,1630595,0022100079,3,1576,1596,0,0,1610612765
110,1610612753,1630532,1628976,1628964,1630175,1630591,1610612765,1630180,203924,1630191,1630165,1630595,0022100079,3,1614,1618,3,0,1610612753
111,1610612753,1630532,1628976,1628964,1630175,1630591,1610612765,1630180,203924,1630191,1630165,1630595,0022100079,3,1639,1639,0,3,1610612765
112,1610612753,1630532,1628976,1628964,1630175,1630591,1610612765,1630180,203924,1630191,1630165,1630595,0022100079,3,1650,1656,0,0,1610612753
113,1610612753,1628964,1629021,1630175,1630532,1630591,1610612765,1630180,203924,1630191,1630165,1630595,0022100079,3,1662,1662,0,0,1610612765
114,1610612753,1628964,1629021,1630175,1630532,1630591,1610612765,1630180,203924,1630191,1630165,1630595,0022100079,3,1666,1666,2,0,1610612753
115,1610612753,1628964,1629021,1630175,1630532,1630591,1610612765,1630180,203924,1630191,1630165,1630595,0022100079,3,1689,1692,0,0,1610612765
116,1610612753,1628964,1629021,1630175,1630532,1630591,1610612765,1630180,203924,1630191,1630165,1630595,0022100079,3,1694,1694,2,0,1610612753
117,1610612753,1628964,1629021,1630175,1630532,1630591,1610612765,1630180,203924,1630191,1630165,1630595,0022100079,3,1695,1718,0,0,1610612765
118,1610612753,1628964,1629021,1630175,1630532,1630591,1610612765,1630180,203924,1630191,1630165,1630595,0022100079,3,1720,1736,3,0,1610612753
119,1610612753,1628964,1629021,1630175,1630532,1630591,1610612765,1628367,1630165,1630180,1630191,203924,0022100079,3,1753,1756,0,0,1610612765
120,1610612753,1628964,1629021,1630175,1630532,1630591,1610612765,1628367,1630165,1630180,1630191,203924,0022100079,3,1765,1765,3,0,1610612753
121,1610612753,1628964,1629021,1630175,1630532,1630591,1610612765,1628367,1630165,1630180,1630191,203924,0022100079,3,1789,1789,0,2,1610612765
122,1610612753,1628964,1629021,1630175,1630532,1630591,1610612765,1628367,1630180,202709,203482,203924,0022100079,3,1808,1813,2,0,1610612753
123,1610612753,1628964,1629021,1630175,1630532,1630591,1610612765,1628367,1630180,202709,203482,203924,0022100079,3,1836,1836,0,3,1610612765
124,1610612753,1628964,1629021,1630175,1630532,1630591,1610612765,1628367,1630180,202709,203482,203924,0022100079,3,1836,1847,3,0,1610612753
125,1610612753,1628964,1629021,1630175,1630532,1630591,1610612765,1628367,1630180,202709,203482,203924,0022100079,3,1860,1860,0,3,1610612765
126,1610612753,1628964,1629021,1630175,1630532,1630591,1610612765,1628367,1630180,202709,203482,203924,0022100079,3,1866,1866,0,0,1610612753
127,1610612753,1629021,1629643,1630532,1630591,203914,1610612765,1628367,1630180,202709,203482,203924,0022100079,3,1890,1891,0,0,1610612765
128,1610612753,1629021,1629643,1630532,1630591,203914,1610612765,1628367,1630180,202709,203482,203924,0022100079,3,1892,1892,2,0,1610612753
129,1610612753,1629021,1629643,1630532,1630591,203914,1610612765,1628367,1630180,202709,203482,203924,0022100079,3,1913,1913,0,2,1610612765
130,1610612753,1629021,1629643,1630532,1630591,203914,1610612765,1628367,1630180,202709,203482,203924,0022100079,3,1928,1928,0,0,1610612753
131,1610612753,1629021,1629643,1630532,1630591,203914,1610612765,1628367,1630180,202709,203482,203924,0022100079,3,1934,1934,0,2,1610612765
132,1610612753,1629021,1629643,1630532,1630591,203914,1610612765,1628367,1630180,202709,203482,203924,0022100079,3,1946,1946,1,0,1610612753
133,1610612753,1629021,1629643,1630181,203082,203914,1610612765,1628367,1630180,202709,203482,203924,0022100079,3,1961,1961,0,3,1610612765
134,1610612753,1629021,1629643,1630181,203082,203914,1610612765,1628367,1630180,202709,203482,203924,0022100079,3,1971,1971,0,0,1610612753
135,1610612753,1629021,1629643,1630181,203082,203914,1610612765,1628367,1630180,202709,203482,203924,0022100079,3,1989,1989,0,3,1610612765
136,1610612753,1629021,1629643,1630181,203082,203914,1610612765,1628367,1630180,202709,203482,203924,0022100079,3,1989,2010,0,0,1610612753
137,1610612753,1629021,1629643,1630181,203082,203914,1610612765,1628367,1630180,202709,203482,203924,0022100079,3,2018,2023,0,3,1610612765
138,1610612753,1629021,1629643,1630181,203082,203914,1610612765,1628367,1630180,202709,203482,203924,0022100079,3,2032,2034,0,0,1610612753
139,1610612753,1629021,1629643,1630181,203082,203914,1610612765,1628367,1630180,202709,203482,203924,0022100079,3,2043,2043,0,2,1610612765
140,1610612753,1629021,1629643,1630181,203082,203914,1610612765,1628367,1630180,202709,203482,203924,0022100079,3,2058,2058,0,0,1610612753
141,1610612753,1629021,1629643,1630181,203082,203914,1610612765,1628367,1630180,202709,203482,203924,0022100079,3,2058,2058,0,2,1610612765
142,1610612753,1629021,1629643,1630181,203082,203914,1610612765,1628367,1630180,202709,203482,203924,0022100079,3,2077,2077,0,0,1610612753
143,1610612753,1629021,1629643,1630181,203082,203914,1610612765,1628367,1630180,202709,203482,203924,0022100079,3,2082,2085,0,0,1610612765
144,1610612753,1629021,1629643,1630181,203082,203914,1610612765,1628367,1630180,202709,203482,203924,0022100079,3,2090,2093,0,0,1610612753
145,1610612753,1629021,1629643,1630181,203082,203914,1610612765,1628367,1630180,202709,203482,203924,0022100079,3,2107,2107,0,2,1610612765
146,1610612753,1629021,1629643,1630181,203082,203914,1610612765,1628367,1630180,202709,203482,203924,0022100079,3,2122,2125,0,0,1610612753
147,1610612753,1629021,1629643,1630181,203082,203914,1610612765,1628367,1630180,202709,203482,203924,0022100079,3,2136,2139,0,0,1610612765
148,1610612753,1629021,1629643,1630181,203082,203914,1610612765,1628367,1630180,202709,203482,203924,0022100079,3,2155,2155,3,0,1610612753
149,1610612753,1629021,1629643,1630181,203082,203914,1610612765,1628367,1630180,202709,203482,203924,0022100079,3,2160,2160,0,0,1610612753
150,1610612753,1628964,1630175,203914,203082,1629649,1610612765,202709,203482,1628367,1628402,1626168,0022100079,4,2160,2178,0,0,1610612765
151,1610612753,1628964,1630175,203914,203082,1629649,1610612765,202709,203482,1628367,1628402,1626168,0022100079,4,2184,2184,0,0,1610612753
152,1610612753,1628964,1630175,203914,203082,1629649,1610612765,202709,203482,1628367,1628402,1626168,0022100079,4,2197,2197,0,2,1610612765
153,1610612753,1628964,1630175,203914,203082,1629649,1610612765,202709,203482,1628367,1628402,1626168,0022100079,4,2215,2215,0,0,1610612753
154,1610612753,1628964,1630175,203914,203082,1629649,1610612765,202709,203482,1628367,1628402,1626168,0022100079,4,2227,2227,0,2,1610612765
155,1610612753,1628964,1630175,203914,203082,1629649,1610612765,202709,203482,1628367,1628402,1626168,0022100079,4,2244,2244,0,0,1610612753
156,1610612753,1628964,1630175,203914,203082,1629649,1610612765,202709,203482,1628367,1628402,1626168,0022100079,4,2246,2246,0,2,1610612765
157,1610612753,1628964,1629649,1630175,1630591,203082,1610612765,202709,203482,1628367,1628402,1626168,0022100079,4,2265,2265,3,0,1610612753
158,1610612753,1628964,1629649,1630175,1630591,203082,1610612765,202709,203482,1628367,1628402,1626168,0022100079,4,2281,2284,0,0,1610612765
159,1610612753,1628964,1629649,1630175,1630591,203082,1610612765,202709,203482,1628367,1628402,1626168,0022100079,4,2291,2291,3,0,1610612753
160,1610612753,1628964,1629649,1630175,1630591,203082,1610612765,202709,203482,1628367,1628402,1626168,0022100079,4,2310,2310,0,2,1610612765
161,1610612753,1628964,1629649,1630175,1630591,203082,1610612765,202709,203482,1628367,1628402,1626168,0022100079,4,2331,2331,0,0,1610612753
162,1610612753,1628964,1629649,1630175,1630591,203082,1610612765,202709,203482,1628367,1628402,1626168,0022100079,4,2335,2335,0,2,1610612765
163,1610612753,1628964,1629649,1630175,1630591,203082,1610612765,202709,203482,1628367,1628402,1626168,0022100079,4,2335,2373,2,0,1610612753
164,1610612753,1628964,1630175,1630532,1630591,203082,1610612765,202709,203482,1628367,1628402,1626168,0022100079,4,2397,2401,0,0,1610612765
165,1610612753,1628964,1630175,1630532,1630591,203082,1610612765,202709,203482,1628367,1628402,1626168,0022100079,4,2412,2415,0,0,1610612753
166,1610612753,1628964,1630175,1630532,1630591,203082,1610612765,202709,203482,1628367,1628402,1626168,0022100079,4,2425,2425,0,3,1610612765
167,1610612753,1628964,1630175,1630532,1630591,203082,1610612765,202709,203482,1628367,1628402,1626168,0022100079,4,2447,2450,0,0,1610612753
168,1610612753,1628964,1630175,1630532,1630591,203082,1610612765,202709,203482,1628367,1628402,1626168,0022100079,4,2455,2455,0,2,1610612765
169,1610612753,1628964,1630175,1630532,1630591,203082,1610612765,202709,203482,1628367,1628402,1626168,0022100079,4,2473,2473,2,0,1610612753
170,1610612753,1628964,1630175,1630532,1630591,203082,1610612765,202709,203482,1628367,1628402,1626168,0022100079,4,2489,2489,0,3,1610612765
171,1610612753,1628964,1630175,1630532,1630591,203082,1610612765,202709,203482,1628367,1628402,1626168,0022100079,4,2507,2523,2,0,1610612753
172,1610612753,1628964,1630175,1630181,1630532,203082,1610612765,202709,203482,1628367,1628402,1626168,0022100079,4,2541,2543,0,0,1610612765
173,1610612753,1628964,1630175,1630181,1630532,203082,1610612765,202709,203482,1628367,1628402,1626168,0022100079,4,2550,2553,0,0,1610612753
174,1610612753,1628964,1630175,1630181,1630532,203082,1610612765,202709,203482,1628367,1628402,1626168,0022100079,4,2569,2577,0,3,1610612765
175,1610612753,1628964,1630175,1630181,1630532,203082,1610612765,202709,203482,1628367,1628402,1626168,0022100079,4,2599,2599,3,0,1610612753
176,1610612753,1628964,1630175,1630181,1630532,203082,1610612765,202709,203482,1628367,1628402,1626168,0022100079,4,2606,2621,0,0,1610612765
177,1610612753,1629021,1629643,1629649,1630175,1630181,1610612765,1628402,1630180,202709,203482,203924,0022100079,4,2633,2633,0,0,1610612753
178,1610612753,1629021,1629643,1629649,1630175,1630181,1610612765,1628402,1630180,202709,203482,203924,0022100079,4,2659,2663,0,0,1610612765
179,1610612753,1629021,1629643,1629649,1630175,1630181,1610612765,1628402,1630180,202709,203482,203924,0022100079,4,2680,2680,0,0,1610612753
180,1610612753,1629021,1629643,1629649,1630175,1630181,1610612765,1628402,1630180,202709,203482,203924,0022100079,4,2680,2680,0,0,1610612765
181,1610612753,1628539,1629021,1629649,1630175,1630181,1610612765,1628402,1630180,202709,203482,203924,0022100079,4,2698,2708,3,0,1610612753
182,1610612753,1628539,1629021,1629649,1630175,1630181,1610612765,1628402,1630180,202709,203482,203924,0022100079,4,2726,2726,0,2,1610612765
183,1610612753,1628539,1629021,1629649,1630175,1630181,1610612765,1628402,1630180,202709,203482,203924,0022100079,4,2738,2738,3,0,1610612753
184,1610612753,1628539,1629021,1629649,1630175,1630181,1610612765,1628402,1630180,202709,203482,203924,0022100079,4,2759,2759,0,0,1610612765
185,1610612753,1628539,1629021,1629649,1630175,1630181,1610612765,1628402,1630180,202709,203482,203924,0022100079,4,2763,2779,0,0,1610612753
186,1610612753,1628539,1629021,1629649,1630175,1630181,1610612765,1628402,1630180,202709,203482,203924,0022100079,4,2802,2815,0,0,1610612765
187,1610612753,1628539,1629021,1629649,1630175,1630181,1610612765,1628402,1630180,202709,203482,203924,0022100079,4,2818,2823,0,0,1610612753
188,1610612753,1628539,1629021,1629649,1630175,1630181,1610612765,1628402,1630180,202709,203482,203924,0022100079,4,2837,2839,0,0,1610612765
189,1610612753,1628539,1629021,1629649,1630175,1630181,1610612765,1628402,1630180,202709,203482,203924,0022100079,4,2843,2843,2,0,1610612753
190,1610612753,1628539,1629021,1629649,1630175,1630181,1610612765,1628402,1630180,202709,203482,203924,0022100079,4,2858,2858,0,2,1610612765
191,1610612753,1628539,1629021,1629649,1630175,1630181,1610612765,1628402,1630180,202709,203482,203924,0022100079,4,2864,2864,2,0,1610612753
192,1610612753,1628539,1629021,1629649,1630175,1630181,1610612765,1628402,1630180,202709,203482,203924,0022100079,4,2865,2865,0,1,1610612765
193,1610612753,1628539,1629021,1629649,1630175,1630181,1610612765,1628402,1630180,202709,203482,203924,0022100079,4,2870,2870,3,0,1610612753
194,1610612753,1628539,1629021,1629649,1630175,1630181,1610612765,1628402,1630180,202709,203482,203924,0022100079,4,2872,2872,0,2,1610612765
195,1610612753,1628539,1629021,1629649,1630175,1630181,1610612765,1628402,1630180,202709,203482,203924,0022100079,4,2878,2878,2,0,1610612753
