,t1_points_scored,stint_end,t2_pm,t1_players,t2_id,t1_id,t2_players,t2_points_scored,t1_pm,stint_start,margin_per_100,num_poss
0,8,337,10,"[1629631, 1628381, 203473, 1628989, 1629027]",1610612763,1610612737,"[1628415, 203937, 202685, 1629001, 1629630]",18,-10,0,-40.0,25.0
1,8,364,12,"[1629631, 1628381, 203473, 1628989, 1629027]",1610612763,1610612737,"[1628415, 203937, 202685, 1629001, 1629630]",20,-12,338,-44.44444444444444,27.0
2,9,432,15,"[1628381, 1628981, 1628989, 1629629, 201952]",1610612763,1610612737,"[1628415, 203937, 202685, 1629001, 1629630]",24,-15,365,-46.875,32.0
3,9,498,17,"[1628381, 1628981, 1628989, 1629629, 201952]",1610612763,1610612737,"[1626145, 1628415, 1629630, 202685, 203937]",26,-17,433,-45.94594594594595,37.0
4,11,551,15,"[1628381, 1628981, 1628989, 1629629, 201952]",1610612763,1610612737,"[1626145, 1628367, 1628415, 202685, 203476]",26,-15,499,-37.5,40.0
5,18,679,17,"[1626203, 1627745, 1628381, 1629629, 201952]",1610612763,1610612737,"[1626145, 1628367, 1628415, 201229, 203476]",35,-17,552,-35.41666666666667,48.0
6,18,715,20,"[1626203, 1627745, 1629629, 1713, 201952]",1610612763,1610612737,"[1626145, 1628367, 1629723, 201229, 203476]",38,-20,680,-39.21568627450981,51.0
7,20,763,18,"[1627745, 1629027, 1629629, 1713, 201952]",1610612763,1610612737,"[1626145, 1628367, 1629723, 201229, 203476]",38,-18,716,-32.72727272727273,55.0
8,20,817,19,"[1628381, 1628989, 1629027, 1629629, 1713]",1610612763,1610612737,"[1626145, 203476, 1628367, 201229, 1629723]",39,-19,764,-32.20338983050847,59.0
9,22,937,21,"[1628381, 1628989, 1629027, 1629629, 1713]",1610612763,1610612737,"[1628367, 1629630, 1629723, 201229, 203476]",43,-21,818,-30.88235294117647,68.0
10,26,1013,21,"[1628381, 1628989, 1629027, 1629629, 1629631]",1610612763,1610612737,"[1628367, 1629630, 1629723, 201229, 203476]",47,-21,938,-28.767123287671232,73.0
11,29,1106,20,"[1626203, 1628381, 1628989, 1629027, 203473]",1610612763,1610612737,"[1628367, 1629001, 1629630, 203476, 203937]",49,-20,1014,-25.0,80.0
12,34,1198,20,"[1626203, 1628381, 1628989, 1629027, 203473]",1610612763,1610612737,"[1628415, 1629001, 1629630, 202685, 203937]",54,-20,1107,-22.988505747126435,87.0
13,34,1258,24,"[1628381, 1629027, 1629631, 201952, 203473]",1610612763,1610612737,"[1626145, 1628415, 1629001, 202685, 203937]",58,-24,1199,-26.08695652173913,92.0
14,37,1322,23,"[1628381, 1629629, 1629631, 201952, 203473]",1610612763,1610612737,"[1626145, 1628415, 1629001, 202685, 203937]",60,-23,1259,-23.958333333333336,96.0
15,45,1437,21,"[1628381, 1628989, 1629629, 1629631, 1713]",1610612763,1610612737,"[1626145, 1628415, 1629001, 202685, 203937]",66,-21,1323,-20.0,105.0
16,56,1692,18,"[1628381, 1628989, 1629631, 1713, 201952]",1610612763,1610612737,"[1628367, 1629001, 1629630, 202685, 203937]",74,-18,1438,-14.285714285714285,126.0
17,62,1770,21,"[1629631, 1628381, 203473, 1628989, 1629027]",1610612763,1610612737,"[1628415, 203937, 202685, 1629001, 1629630]",83,-21,1693,-15.671641791044777,134.0
18,65,1845,22,"[1626203, 1628989, 1629027, 1629631, 203473]",1610612763,1610612737,"[1628415, 203937, 202685, 1629001, 1629630]",87,-22,1771,-15.827338129496402,139.0
19,67,1933,22,"[1626203, 1628381, 1628981, 1629027, 201952]",1610612763,1610612737,"[1628367, 1629001, 1629630, 202685, 203937]",89,-22,1846,-15.172413793103448,145.0
20,68,2014,21,"[1628381, 1628981, 1629164, 1713, 201952]",1610612763,1610612737,"[1626145, 1628367, 1629630, 202685, 203476]",89,-21,1934,-14.000000000000002,150.0
21,75,2134,16,"[1628381, 1628981, 1629164, 1713, 201952]",1610612763,1610612737,"[1626145, 1628367, 1629723, 202685, 203476]",91,-16,2015,-10.062893081761008,159.0
22,78,2158,15,"[1628381, 1628989, 1629164, 1629631, 1713]",1610612763,1610612737,"[1626145, 1628367, 1629723, 201229, 203476]",93,-15,2135,-9.316770186335404,161.0
23,80,2292,18,"[1628381, 1628989, 1629027, 1629631, 1713]",1610612763,1610612737,"[1626145, 1628367, 1629723, 201229, 203476]",98,-18,2159,-10.650887573964498,169.0
24,82,2311,16,"[1629631, 203473, 1628989, 1629027, 1713]",1610612763,1610612737,"[1626145, 203476, 1628367, 201229, 1629723]",98,-16,2293,-9.35672514619883,171.0
25,83,2379,18,"[1629631, 203473, 1628989, 1629027, 1713]",1610612763,1610612737,"[1626145, 1628367, 1629001, 201229, 203476]",101,-18,2312,-10.285714285714285,175.0
26,85,2451,19,"[1626203, 1628989, 1629027, 1629631, 203473]",1610612763,1610612737,"[1628367, 1629001, 1629630, 201229, 203476]",104,-19,2380,-10.497237569060774,181.0
27,92,2601,17,"[1626203, 1628381, 1628989, 1629027, 203473]",1610612763,1610612737,"[1628415, 1629001, 1629630, 202685, 203937]",109,-17,2452,-8.762886597938143,194.0
28,95,2639,16,"[1626203, 1628381, 1628989, 1629027, 1629631]",1610612763,1610612737,"[1628415, 1629001, 1629630, 202685, 203937]",111,-16,2602,-8.121827411167512,197.0
29,98,2673,14,"[1626203, 1628381, 1628989, 1629631, 201952]",1610612763,1610612737,"[1628415, 1629001, 1629630, 202685, 203937]",112,-14,2640,-7.000000000000001,200.0
30,101,2809,17,"[1628381, 1628989, 1629631, 1713, 201952]",1610612763,1610612737,"[1628415, 1629001, 1629630, 202685, 203937]",118,-17,2674,-8.212560386473431,207.0
31,101,2849,17,"[1628381, 1628989, 1629164, 1713, 201952]",1610612763,1610612737,"[1628415, 1629001, 1629630, 202685, 203937]",118,-17,2810,-8.133971291866029,209.0
32,101,2875,17,"[1626203, 1628981, 1629164, 1713, 201952]",1610612763,1610612737,"[1627784, 1629139, 1629723, 1629741, 201229]",118,-17,2850,-8.095238095238095,210.0
33,101,9999999,17,"[1626203, 1627745, 1628981, 1629164, 201952]",1610612763,1610612737,"[1627784, 1629139, 1629723, 1629741, 201229]",118,-17,2876,-8.056872037914692,211.0
