,TEAM_ID_1,TEAM_1_PLAYERS,TEAM_ID_2,TEAM_2_PLAYERS,PERIOD
0,1610612753,[ 203932 1628371  202696  203095  201571],1610612755,[ 203496  203967  203954 1628365 1627732],1
1,1610612753,[ 203932  203613 1626170 1628964  203082],1610612755,[ 203496  203967  203954 1628365  200755],2
2,1610612753,[ 203932  202696  203095  201571 1626185],1610612755,[ 203496  203967  203954 1628365 1627732],3
3,1610612753,[1626170 1628964  203082 1628411 1628518],1610612755,[ 203488 1629013 1627788  204456 1628413],4
