,team1_id,team1_player1,team1_player2,team1_player3,team1_player4,team1_player5,team2_id,team2_player1,team2_player2,team2_player3,team2_player4,team2_player5,game_id,period,possession_start,possession_end,team1_points,team2_points,possession_team
0,1610612751,203925,1629066,1628386,203459,1626156,1610612760,202331,203924,203500,1628390,201566,0021801017,1,0,14,0,0,1610612751
1,1610612751,203925,1629066,1628386,203459,1626156,1610612760,202331,203924,203500,1628390,201566,0021801017,1,30,37,0,0,1610612760
2,1610612751,203925,1629066,1628386,203459,1626156,1610612760,202331,203924,203500,1628390,201566,0021801017,1,53,53,2,0,1610612751
3,1610612751,203925,1629066,1628386,203459,1626156,1610612760,202331,203924,203500,1628390,201566,0021801017,1,74,79,0,0,1610612760
4,1610612751,203925,1629066,1628386,203459,1626156,1610612760,202331,203924,203500,1628390,201566,0021801017,1,94,100,3,0,1610612751
5,1610612751,203925,1629066,1628386,203459,1626156,1610612760,202331,203924,203500,1628390,201566,0021801017,1,116,128,0,0,1610612760
6,1610612751,203925,1629066,1628386,203459,1626156,1610612760,202331,203924,203500,1628390,201566,0021801017,1,135,135,2,0,1610612751
7,1610612751,203925,1629066,1628386,203459,1626156,1610612760,202331,203924,203500,1628390,201566,0021801017,1,146,146,0,0,1610612760
8,1610612751,203925,1629066,1628386,203459,1626156,1610612760,202331,203924,203500,1628390,201566,0021801017,1,149,153,0,0,1610612751
9,1610612751,203925,1629066,1628386,203459,1626156,1610612760,202331,203924,203500,1628390,201566,0021801017,1,162,162,0,0,1610612760
10,1610612751,203925,1629066,1628386,203459,1626156,1610612760,202331,203924,203500,1628390,201566,0021801017,1,164,164,2,0,1610612751
11,1610612751,203925,1629066,1628386,203459,1626156,1610612760,202331,203924,203500,1628390,201566,0021801017,1,180,180,0,0,1610612760
12,1610612751,203925,1629066,1628386,203459,1626156,1610612760,202331,203924,203500,1628390,201566,0021801017,1,188,191,0,0,1610612751
13,1610612751,203925,1629066,1628386,203459,1626156,1610612760,202331,203924,203500,1628390,201566,0021801017,1,199,204,0,1,1610612760
14,1610612751,203925,1629066,1628386,203459,1626156,1610612760,202331,203924,203500,1628390,201566,0021801017,1,217,217,2,0,1610612751
15,1610612751,203925,1629066,1628386,203459,1626156,1610612760,202331,203924,203500,1628390,201566,0021801017,1,241,244,0,3,1610612760
16,1610612751,203925,1629066,1628386,203459,1626156,1610612760,202331,203924,203500,1628390,201566,0021801017,1,266,268,0,0,1610612751
17,1610612751,203925,1629066,1628386,203459,1626156,1610612760,202331,203924,203500,1628390,201566,0021801017,1,280,281,0,0,1610612760
18,1610612751,203925,1629066,1628386,203459,1626156,1610612760,202331,203924,203500,1628390,201566,0021801017,1,281,299,0,0,1610612751
19,1610612751,203925,1629066,1628386,203459,1626156,1610612760,202331,203924,203500,1628390,201566,0021801017,1,307,309,0,0,1610612760
20,1610612751,203925,1629066,1628386,203459,1626156,1610612760,202331,203924,203500,1628390,201566,0021801017,1,319,321,0,0,1610612751
21,1610612751,203925,1629066,1628386,203459,1626156,1610612760,202331,203924,203500,1628390,201566,0021801017,1,330,343,0,2,1610612760
22,1610612751,1626156,1628386,1629066,203915,203925,1610612760,202331,203924,203500,1628390,201566,0021801017,1,359,359,3,0,1610612751
23,1610612751,1626156,1628386,1629066,203915,203925,1610612760,202331,203924,203500,1628390,201566,0021801017,1,371,374,0,2,1610612760
24,1610612751,1626156,1628386,1629066,203915,203925,1610612760,202331,203924,203500,1628390,201566,0021801017,1,391,393,0,0,1610612751
25,1610612751,1626156,1628386,1629066,203915,203925,1610612760,202331,203924,203500,1628390,201566,0021801017,1,400,412,0,0,1610612760
26,1610612751,1626156,1628386,1629066,203915,203925,1610612760,1628390,201566,203471,203500,203924,0021801017,1,426,426,2,0,1610612751
27,1610612751,1626156,1628386,1629066,203915,203925,1610612760,1628390,201566,203471,203500,203924,0021801017,1,434,437,0,0,1610612760
28,1610612751,1626156,1628386,1629066,203915,203925,1610612760,1628390,201566,203471,203500,203924,0021801017,1,458,458,3,0,1610612751
29,1610612751,1626156,1628386,1629066,203915,203925,1610612760,1628390,201566,203471,203500,203924,0021801017,1,476,476,0,2,1610612760
30,1610612751,1626156,1628386,1629066,203915,203925,1610612760,1628390,201566,203471,203500,203924,0021801017,1,492,492,0,0,1610612751
31,1610612751,1626156,1628386,1629066,203915,203925,1610612760,1628390,201566,203471,203500,203924,0021801017,1,492,500,0,3,1610612760
32,1610612751,1627747,202334,203459,203915,203925,1610612760,1628390,201566,203457,203471,203924,0021801017,1,520,520,2,0,1610612751
33,1610612751,1627747,202334,203459,203915,203925,1610612760,1628390,201566,203457,203471,203924,0021801017,1,531,533,0,0,1610612760
34,1610612751,1627747,202334,203459,203915,203925,1610612760,1628390,201566,203457,203471,203924,0021801017,1,540,553,0,0,1610612751
35,1610612751,1627747,201162,202334,203459,203915,1610612760,1628390,201566,203457,203471,203924,0021801017,1,569,569,0,2,1610612760
36,1610612751,1627747,201162,202334,203459,203915,1610612760,1628390,201566,203457,203471,203924,0021801017,1,592,594,0,0,1610612751
37,1610612751,1627747,201162,202334,203459,203915,1610612760,1628390,201566,203457,203471,203924,0021801017,1,603,606,0,0,1610612760
38,1610612751,1627747,201162,202334,203459,203915,1610612760,1628390,201566,203457,203471,203924,0021801017,1,617,617,3,0,1610612751
39,1610612751,1627747,201162,202334,203459,203915,1610612760,1627846,1629126,202331,203457,203471,0021801017,1,629,629,0,2,1610612760
40,1610612751,1627747,201162,202334,203459,203915,1610612760,1627846,1629126,202331,203457,203471,0021801017,1,645,645,3,0,1610612751
41,1610612751,1627747,201162,202334,203459,203915,1610612760,1627846,1629126,202331,203457,203471,0021801017,1,657,657,0,0,1610612760
42,1610612751,1627747,201162,202334,203459,203915,1610612760,1627846,1629126,202331,203457,203471,0021801017,1,677,679,0,0,1610612751
43,1610612751,1627747,201162,202334,203459,203915,1610612760,1627846,1629126,202331,203457,203471,0021801017,1,685,685,0,2,1610612760
44,1610612751,1627747,201162,202334,203459,203915,1610612760,1627846,1629126,202331,203457,203471,0021801017,1,709,709,0,0,1610612751
45,1610612751,1627747,201162,202334,203459,203915,1610612760,1627846,1629126,202331,203457,203471,0021801017,1,717,719,0,0,1610612751
46,1610612751,1627747,201162,202334,203459,203915,1610612760,1627846,1629126,202331,203457,203471,0021801017,1,720,738,0,3,1610612760
47,1610612751,203459,1626156,1627747,202334,201162,1610612760,202331,203471,203457,1629126,1627846,0021801017,2,758,760,0,0,1610612751
48,1610612751,203459,1626156,1627747,202334,201162,1610612760,202331,203471,203457,1629126,1627846,0021801017,2,767,768,0,0,1610612760
49,1610612751,203459,1626156,1627747,202334,201162,1610612760,202331,203471,203457,1629126,1627846,0021801017,2,785,788,0,0,1610612751
50,1610612751,203459,1626156,1627747,202334,201162,1610612760,202331,203471,203457,1629126,1627846,0021801017,2,799,799,0,0,1610612760
51,1610612751,203459,1626156,1627747,202334,201162,1610612760,202331,203471,203457,1629126,1627846,0021801017,2,803,803,3,0,1610612751
52,1610612751,203459,1626156,1627747,202334,201162,1610612760,202331,203471,203457,1629126,1627846,0021801017,2,830,833,0,0,1610612760
53,1610612751,203459,1626156,1627747,202334,201162,1610612760,202331,203471,203457,1629126,1627846,0021801017,2,840,873,0,0,1610612751
54,1610612751,203459,1626156,1627747,202334,201162,1610612760,101109,1629126,202331,203457,203471,0021801017,2,884,884,0,0,1610612760
55,1610612751,203459,1626156,1627747,202334,201162,1610612760,101109,1629126,202331,203457,203471,0021801017,2,891,891,0,0,1610612751
56,1610612751,203459,1626156,1627747,202334,201162,1610612760,101109,1629126,202331,203457,203471,0021801017,2,897,900,0,0,1610612760
57,1610612751,203459,1626156,1627747,202334,201162,1610612760,101109,1629126,202331,203457,203471,0021801017,2,912,912,2,0,1610612751
58,1610612751,203459,1626156,1627747,202334,201162,1610612760,101109,1629126,202331,203457,203471,0021801017,2,927,929,0,0,1610612760
59,1610612751,203459,1626156,1627747,202334,201162,1610612760,101109,1629126,202331,203457,203471,0021801017,2,938,938,2,0,1610612751
60,1610612751,203459,1626156,1627747,202334,201162,1610612760,101109,1629126,202331,203457,203471,0021801017,2,953,953,0,2,1610612760
61,1610612751,203459,1626156,1627747,202334,201162,1610612760,101109,1629126,202331,203457,203471,0021801017,2,970,973,0,0,1610612751
62,1610612751,203459,1626156,1627747,202334,201162,1610612760,101109,1629126,202331,203457,203471,0021801017,2,978,982,0,0,1610612760
63,1610612751,203459,1626156,1627747,202334,201162,1610612760,101109,1629126,202331,203457,203471,0021801017,2,994,994,2,0,1610612751
64,1610612751,203459,1626156,1627747,202334,201162,1610612760,101109,1629126,202331,203457,203471,0021801017,2,994,1005,0,0,1610612760
65,1610612751,1626156,1628386,201162,203459,203915,1610612760,101109,201566,203471,203500,203924,0021801017,2,1018,1018,2,0,1610612751
66,1610612751,1626156,1628386,201162,203459,203915,1610612760,101109,201566,203471,203500,203924,0021801017,2,1030,1032,0,0,1610612760
67,1610612751,1626156,1628386,201162,203459,203915,1610612760,101109,201566,203471,203500,203924,0021801017,2,1047,1047,0,0,1610612751
68,1610612751,1626156,1628386,201162,203459,203915,1610612760,101109,201566,203471,203500,203924,0021801017,2,1055,1055,0,0,1610612760
69,1610612751,1626156,1628386,201162,203915,203925,1610612760,101109,1628390,201566,203500,203924,0021801017,2,1072,1072,2,0,1610612751
70,1610612751,1626156,1628386,201162,203915,203925,1610612760,101109,1628390,201566,203500,203924,0021801017,2,1082,1083,0,0,1610612760
71,1610612751,1626156,1628386,201162,203915,203925,1610612760,101109,1628390,201566,203500,203924,0021801017,2,1104,1108,0,0,1610612751
72,1610612751,1626156,1628386,201162,203915,203925,1610612760,1628390,201566,202331,203500,203924,0021801017,2,1113,1113,0,1,1610612760
73,1610612751,1626156,1628386,1629066,203915,203925,1610612760,1628390,201566,202331,203500,203924,0021801017,2,1133,1133,2,0,1610612751
74,1610612751,1626156,1628386,1629066,203915,203925,1610612760,1628390,201566,202331,203500,203924,0021801017,2,1141,1146,0,2,1610612760
75,1610612751,1626156,1628386,1629066,203915,203925,1610612760,1628390,201566,202331,203500,203924,0021801017,2,1162,1162,0,0,1610612751
76,1610612751,1626156,1628386,1629066,203915,203925,1610612760,1628390,201566,202331,203471,203500,0021801017,2,1180,1180,0,3,1610612760
77,1610612751,1626156,1628386,1629066,203915,203925,1610612760,1628390,201566,202331,203471,203500,0021801017,2,1198,1198,2,0,1610612751
78,1610612751,1626156,1628386,1629066,203915,203925,1610612760,1628390,201566,202331,203471,203500,0021801017,2,1209,1211,0,0,1610612760
79,1610612751,1626156,1628386,1629066,203915,203925,1610612760,1628390,201566,202331,203471,203500,0021801017,2,1229,1232,0,0,1610612751
80,1610612751,1626156,1628386,1629066,203915,203925,1610612760,1628390,201566,202331,203471,203500,0021801017,2,1245,1245,0,1,1610612760
81,1610612751,1626156,1628386,1629066,203915,203925,1610612760,1628390,201566,202331,203471,203500,0021801017,2,1245,1256,0,0,1610612751
82,1610612751,1626156,1628386,1629066,203915,203925,1610612760,1628390,201566,202331,203471,203500,0021801017,2,1261,1262,0,0,1610612760
83,1610612751,1626156,1628386,1629066,203915,203925,1610612760,1628390,201566,202331,203471,203500,0021801017,2,1271,1271,0,0,1610612751
84,1610612751,1626156,1628386,1629066,203915,203925,1610612760,1628390,201566,202331,203471,203500,0021801017,2,1287,1289,0,3,1610612760
85,1610612751,1626156,1628386,1629066,203915,203925,1610612760,1628390,201566,202331,203471,203500,0021801017,2,1303,1303,2,0,1610612751
86,1610612751,1626156,1628386,1629066,203915,203925,1610612760,1628390,201566,202331,203471,203500,0021801017,2,1318,1318,0,0,1610612760
87,1610612751,1627747,1628386,1629066,203915,203925,1610612760,1628390,201566,202331,203471,203500,0021801017,2,1335,1335,2,0,1610612751
88,1610612751,1627747,1628386,1629066,203915,203925,1610612760,1628390,201566,202331,203471,203500,0021801017,2,1345,1345,0,2,1610612760
89,1610612751,1627747,1628386,1629066,203915,203925,1610612760,1628390,201566,202331,203471,203500,0021801017,2,1370,1370,0,0,1610612751
90,1610612751,1627747,1628386,1629066,203915,203925,1610612760,1628390,201566,202331,203471,203500,0021801017,2,1375,1375,0,2,1610612760
91,1610612751,1627747,1628386,1629066,203915,203925,1610612760,1628390,201566,202331,203471,203500,0021801017,2,1383,1389,2,0,1610612751
92,1610612751,1627747,1628386,1629066,203915,203925,1610612760,1628390,201566,202331,203471,203500,0021801017,2,1396,1396,0,0,1610612760
93,1610612751,1627747,1628386,1629066,203915,203925,1610612760,1628390,201566,202331,203471,203500,0021801017,2,1413,1413,2,0,1610612751
94,1610612751,1627747,1628386,1629066,203915,203925,1610612760,1628390,201566,202331,203471,203500,0021801017,2,1434,1434,0,2,1610612760
95,1610612751,1627747,1628386,1629066,203915,203925,1610612760,1628390,201566,202331,203471,203500,0021801017,2,1437,1437,0,0,1610612751
96,1610612751,1627747,1628386,1629066,203915,203925,1610612760,1628390,201566,202331,203471,203500,0021801017,2,1440,1440,0,2,1610612760
97,1610612751,1627747,1628386,1629066,203915,203925,1610612760,1628390,201566,202331,203471,203500,0021801017,2,1440,1440,0,0,1610612760
98,1610612751,203925,1629066,1628386,203459,1626156,1610612760,202331,203924,203500,1628390,201566,0021801017,3,1440,1448,0,2,1610612760
99,1610612751,203925,1629066,1628386,203459,1626156,1610612760,202331,203924,203500,1628390,201566,0021801017,3,1462,1464,1,0,1610612751
100,1610612751,203925,1629066,1628386,203459,1626156,1610612760,202331,203924,203500,1628390,201566,0021801017,3,1473,1473,0,2,1610612760
101,1610612751,203925,1629066,1628386,203459,1626156,1610612760,202331,203924,203500,1628390,201566,0021801017,3,1486,1494,0,0,1610612751
102,1610612751,203925,1629066,1628386,203459,1626156,1610612760,202331,203924,203500,1628390,201566,0021801017,3,1499,1499,0,3,1610612760
103,1610612751,203925,1629066,1628386,203459,1626156,1610612760,202331,203924,203500,1628390,201566,0021801017,3,1521,1523,0,0,1610612751
104,1610612751,203925,1629066,1628386,203459,1626156,1610612760,202331,203924,203500,1628390,201566,0021801017,3,1540,1540,0,2,1610612760
105,1610612751,203925,1629066,1628386,203459,1626156,1610612760,202331,203924,203500,1628390,201566,0021801017,3,1556,1556,3,0,1610612751
106,1610612751,203925,1629066,1628386,203459,1626156,1610612760,202331,203924,203500,1628390,201566,0021801017,3,1567,1572,0,2,1610612760
107,1610612751,203925,1629066,1628386,203459,1626156,1610612760,202331,203924,203500,1628390,201566,0021801017,3,1574,1599,2,0,1610612751
108,1610612751,203925,1629066,1628386,203459,1626156,1610612760,201566,202331,203471,203500,203924,0021801017,3,1609,1609,0,3,1610612760
109,1610612751,203925,1629066,1628386,203459,1626156,1610612760,201566,202331,203471,203500,203924,0021801017,3,1621,1623,0,0,1610612751
110,1610612751,203925,1629066,1628386,203459,1626156,1610612760,201566,202331,203471,203500,203924,0021801017,3,1629,1629,0,3,1610612760
111,1610612751,203925,1629066,1628386,203459,1626156,1610612760,201566,202331,203471,203500,203924,0021801017,3,1641,1641,0,0,1610612751
112,1610612751,203925,1629066,1628386,203459,1626156,1610612760,201566,202331,203471,203500,203924,0021801017,3,1647,1649,0,0,1610612760
113,1610612751,203925,1629066,1628386,203459,1626156,1610612760,201566,202331,203471,203500,203924,0021801017,3,1656,1656,0,0,1610612751
114,1610612751,203925,1629066,1628386,203459,1626156,1610612760,201566,202331,203471,203500,203924,0021801017,3,1661,1661,0,3,1610612760
115,1610612751,203925,1629066,1628386,203459,1626156,1610612760,201566,202331,203471,203500,203924,0021801017,3,1683,1683,0,0,1610612751
116,1610612751,203925,1629066,1628386,203459,1626156,1610612760,201566,202331,203471,203500,203924,0021801017,3,1694,1697,0,0,1610612760
117,1610612751,203925,1629066,1628386,203459,1626156,1610612760,201566,202331,203471,203500,203924,0021801017,3,1705,1719,0,0,1610612751
118,1610612751,203925,1629066,1628386,203459,1626156,1610612760,201566,202331,203471,203500,203924,0021801017,3,1723,1729,0,0,1610612760
119,1610612751,203925,1629066,1628386,203459,1626156,1610612760,201566,202331,203471,203500,203924,0021801017,3,1736,1736,3,0,1610612751
120,1610612751,203925,1629066,1628386,203459,1626156,1610612760,201566,202331,203471,203500,203924,0021801017,3,1753,1753,0,1,1610612760
121,1610612751,203925,1629066,1628386,203459,1626156,1610612760,201566,202331,203471,203500,203924,0021801017,3,1761,1766,2,0,1610612751
122,1610612751,203925,1629066,1628386,203459,1626156,1610612760,201566,202331,203471,203500,203924,0021801017,3,1775,1775,0,0,1610612760
123,1610612751,203925,1629066,1628386,203459,1626156,1610612760,201566,202331,203471,203500,203924,0021801017,3,1781,1781,2,0,1610612751
124,1610612751,1626156,1628386,1629066,203915,203925,1610612760,1627846,201566,203471,203500,203924,0021801017,3,1793,1797,0,0,1610612760
125,1610612751,1626156,1628386,1629066,203915,203925,1610612760,1627846,201566,203471,203500,203924,0021801017,3,1807,1807,0,0,1610612751
126,1610612751,1626156,1628386,1629066,203915,203925,1610612760,1627846,201566,203471,203500,203924,0021801017,3,1821,1833,0,2,1610612760
127,1610612751,1626156,1628386,1629066,203915,203925,1610612760,1627846,201566,203471,203500,203924,0021801017,3,1845,1845,0,0,1610612751
128,1610612751,1627747,1628386,203459,203915,203925,1610612760,1627846,201566,203471,203500,203924,0021801017,3,1859,1859,0,2,1610612760
129,1610612751,1627747,1628386,203459,203915,203925,1610612760,1627846,201566,203471,203500,203924,0021801017,3,1880,1883,0,0,1610612751
130,1610612751,1627747,1628386,203459,203915,203925,1610612760,1627846,201566,203471,203500,203924,0021801017,3,1887,1890,0,0,1610612760
131,1610612751,1627747,1628386,203459,203915,203925,1610612760,1627846,201566,203471,203500,203924,0021801017,3,1896,1896,2,0,1610612751
132,1610612751,1627747,1628386,203459,203915,203925,1610612760,1627846,201566,203471,203500,203924,0021801017,3,1908,1910,0,0,1610612760
133,1610612751,1627747,1628386,203459,203915,203925,1610612760,1627846,201566,203471,203500,203924,0021801017,3,1915,1915,3,0,1610612751
134,1610612751,1627747,1628386,203459,203915,203925,1610612760,1627846,201566,203471,203500,203924,0021801017,3,1926,1926,0,2,1610612760
135,1610612751,1627747,202334,203459,203915,203925,1610612760,1627846,201566,203457,203471,203924,0021801017,3,1935,1937,0,0,1610612751
136,1610612751,1627747,202334,203459,203915,203925,1610612760,1627846,201566,203457,203471,203924,0021801017,3,1952,1952,0,3,1610612760
137,1610612751,1627747,201162,202334,203459,203915,1610612760,1627846,1629126,201566,203457,203471,0021801017,3,1961,1961,0,0,1610612751
138,1610612751,1627747,201162,202334,203459,203915,1610612760,1627846,1629126,201566,203457,203471,0021801017,3,1971,1975,0,0,1610612760
139,1610612751,1627747,201162,202334,203459,203915,1610612760,1627846,1629126,201566,203457,203471,0021801017,3,1981,1983,0,0,1610612751
140,1610612751,1627747,201162,202334,203459,203915,1610612760,1627846,1629126,201566,203457,203471,0021801017,3,1988,1988,0,3,1610612760
141,1610612751,1627747,201162,202334,203459,203915,1610612760,1627846,1629126,201566,203457,203471,0021801017,3,2000,2000,1,0,1610612751
142,1610612751,1627747,201162,202334,203459,203915,1610612760,1627846,1629126,202331,203457,203471,0021801017,3,2012,2016,0,0,1610612760
143,1610612751,1627747,201162,202334,203459,203915,1610612760,1627846,1629126,202331,203457,203471,0021801017,3,2022,2022,0,0,1610612751
144,1610612751,1627747,201162,202334,203459,203915,1610612760,1627846,1629126,202331,203457,203471,0021801017,3,2025,2025,0,3,1610612760
145,1610612751,1627747,201162,202334,203459,203915,1610612760,1627846,1629126,202331,203457,203471,0021801017,3,2039,2039,3,0,1610612751
146,1610612751,1627747,201162,202334,203459,203915,1610612760,1627846,1629126,202331,203457,203471,0021801017,3,2061,2061,0,2,1610612760
147,1610612751,1627747,201162,202334,203459,203915,1610612760,1627846,1629126,202331,203457,203471,0021801017,3,2087,2088,0,0,1610612751
148,1610612751,1627747,201162,202334,203459,203915,1610612760,1627846,1629126,202331,203457,203471,0021801017,3,2094,2096,0,0,1610612760
149,1610612751,1627747,201162,202334,203459,203915,1610612760,1627846,1629126,202331,203457,203471,0021801017,3,2118,2118,3,0,1610612751
150,1610612751,1627747,201162,202334,203459,203915,1610612760,1627846,1629126,202331,203457,203471,0021801017,3,2128,2132,0,0,1610612760
151,1610612751,1627747,201162,202334,203459,203915,1610612760,1627846,1629126,202331,203457,203471,0021801017,3,2135,2135,1,0,1610612751
152,1610612751,1627747,201162,202334,203459,203915,1610612760,1627846,1629126,202331,203457,203471,0021801017,3,2152,2156,0,0,1610612760
153,1610612751,1627747,201162,202334,203459,203915,1610612760,1627846,1629126,202331,203457,203471,0021801017,3,2160,2160,0,0,1610612760
154,1610612751,203459,203915,1627747,202334,201162,1610612760,202331,203471,203457,1629126,1627846,0021801017,4,2160,2173,0,0,1610612751
155,1610612751,203459,203915,1627747,202334,201162,1610612760,202331,203471,203457,1629126,1627846,0021801017,4,2184,2191,0,0,1610612760
156,1610612751,203459,203915,1627747,202334,201162,1610612760,202331,203471,203457,1629126,1627846,0021801017,4,2208,2210,0,0,1610612751
157,1610612751,203459,203915,1627747,202334,201162,1610612760,202331,203471,203457,1629126,1627846,0021801017,4,2225,2225,0,2,1610612760
158,1610612751,203459,203915,1627747,202334,201162,1610612760,202331,203471,203457,1629126,1627846,0021801017,4,2238,2238,2,0,1610612751
159,1610612751,203459,203915,1627747,202334,201162,1610612760,202331,203471,203457,1629126,1627846,0021801017,4,2255,2256,0,0,1610612760
160,1610612751,203459,203915,1627747,202334,201162,1610612760,202331,203471,203457,1629126,1627846,0021801017,4,2260,2260,3,0,1610612751
161,1610612751,203459,203915,1627747,202334,201162,1610612760,202331,203471,203457,1629126,1627846,0021801017,4,2263,2286,0,2,1610612760
162,1610612751,203459,203915,1627747,202334,201162,1610612760,1628390,1629126,202331,203457,203471,0021801017,4,2296,2296,0,0,1610612751
163,1610612751,203459,203915,1627747,202334,201162,1610612760,1628390,1629126,202331,203457,203471,0021801017,4,2308,2313,0,0,1610612760
164,1610612751,203459,203915,1627747,202334,201162,1610612760,1628390,1629126,202331,203457,203471,0021801017,4,2324,2326,0,0,1610612751
165,1610612751,203459,203915,1627747,202334,201162,1610612760,1628390,1629126,202331,203457,203471,0021801017,4,2339,2339,0,2,1610612760
166,1610612751,203459,203915,1627747,202334,201162,1610612760,1628390,1629126,202331,203457,203471,0021801017,4,2354,2354,2,0,1610612751
167,1610612751,1626156,201162,202334,203459,203915,1610612760,1627846,1628390,1629126,201566,203457,0021801017,4,2368,2376,0,2,1610612760
168,1610612751,1626156,201162,202334,203459,203915,1610612760,1627846,1628390,1629126,201566,203457,0021801017,4,2399,2403,0,0,1610612751
169,1610612751,1626156,201162,202334,203459,203915,1610612760,1627846,1628390,1629126,201566,203457,0021801017,4,2411,2413,0,0,1610612760
170,1610612751,1626156,201162,202334,203459,203915,1610612760,1627846,1628390,1629126,201566,203457,0021801017,4,2420,2420,2,0,1610612751
171,1610612751,1626156,201162,202334,203459,203915,1610612760,1627846,1628390,1629126,201566,203457,0021801017,4,2444,2444,0,2,1610612760
172,1610612751,1626156,201162,202334,203459,203915,1610612760,1627846,1628390,1629126,201566,203457,0021801017,4,2459,2461,0,0,1610612751
173,1610612751,1626156,201162,202334,203459,203915,1610612760,1627846,1628390,1629126,201566,203457,0021801017,4,2472,2483,0,2,1610612760
174,1610612751,1626156,1628386,1629066,203915,203925,1610612760,1628390,201566,202331,203500,203924,0021801017,4,2503,2505,0,0,1610612751
175,1610612751,1626156,1628386,1629066,203915,203925,1610612760,1628390,201566,202331,203500,203924,0021801017,4,2510,2510,0,2,1610612760
176,1610612751,1626156,1628386,1629066,203915,203925,1610612760,1628390,201566,202331,203500,203924,0021801017,4,2520,2535,0,0,1610612751
177,1610612751,1626156,1628386,1629066,203915,203925,1610612760,1628390,201566,202331,203500,203924,0021801017,4,2539,2539,0,3,1610612760
178,1610612751,1626156,1628386,1629066,203915,203925,1610612760,1628390,201566,202331,203500,203924,0021801017,4,2558,2560,0,0,1610612751
179,1610612751,1626156,1628386,1629066,203915,203925,1610612760,1628390,201566,202331,203500,203924,0021801017,4,2571,2587,0,3,1610612760
180,1610612751,1626156,1628386,1629066,203915,203925,1610612760,1628390,201566,202331,203500,203924,0021801017,4,2589,2606,0,0,1610612751
181,1610612751,1626156,1628386,1629066,203459,203925,1610612760,1628390,201566,202331,203500,203924,0021801017,4,2614,2619,0,2,1610612760
182,1610612751,1626156,1628386,1629066,203459,203925,1610612760,1628390,201566,202331,203500,203924,0021801017,4,2629,2640,3,0,1610612751
183,1610612751,1626156,1628386,1629066,203459,203925,1610612760,1628390,201566,202331,203500,203924,0021801017,4,2656,2656,0,2,1610612760
184,1610612751,1626156,1628386,1629066,203459,203925,1610612760,1628390,201566,202331,203500,203924,0021801017,4,2668,2682,0,0,1610612751
185,1610612751,1626156,1628386,1629066,203459,203925,1610612760,1628390,201566,202331,203500,203924,0021801017,4,2697,2697,0,2,1610612760
186,1610612751,1626156,1628386,1629066,203459,203925,1610612760,1628390,201566,202331,203500,203924,0021801017,4,2714,2715,0,0,1610612751
187,1610612751,1626156,1628386,1629066,203459,203925,1610612760,1628390,201566,202331,203500,203924,0021801017,4,2729,2731,0,0,1610612760
188,1610612751,1626156,1628386,1629066,203459,203925,1610612760,1628390,201566,202331,203500,203924,0021801017,4,2739,2739,3,0,1610612751
189,1610612751,1626156,1628386,1629066,203459,203925,1610612760,1628390,201566,202331,203500,203924,0021801017,4,2759,2763,0,0,1610612760
190,1610612751,1626156,1628386,1629066,203459,203925,1610612760,1628390,201566,202331,203500,203924,0021801017,4,2766,2766,3,0,1610612751
191,1610612751,1626156,1628386,1629066,203459,203925,1610612760,1628390,201566,202331,203500,203924,0021801017,4,2784,2784,0,2,1610612760
192,1610612751,1626156,1628386,1629066,203459,203925,1610612760,1628390,201566,202331,203500,203924,0021801017,4,2796,2798,0,0,1610612751
193,1610612751,1626156,1628386,1629066,203459,203925,1610612760,1628390,201566,202331,203500,203924,0021801017,4,2811,2813,0,0,1610612760
194,1610612751,1626156,1628386,1629066,203459,203925,1610612760,1628390,201566,202331,203500,203924,0021801017,4,2816,2818,0,0,1610612751
195,1610612751,1626156,1628386,1629066,203459,203925,1610612760,1628390,201566,202331,203500,203924,0021801017,4,2831,2833,0,0,1610612760
196,1610612751,1626156,1628386,1629033,1629066,203925,1610612760,1628390,201566,202331,203500,203924,0021801017,4,2849,2852,0,0,1610612751
197,1610612751,1626156,1628386,1629033,1629066,203925,1610612760,1628390,201566,202331,203500,203924,0021801017,4,2876,2876,0,0,1610612760
