,TEAM_ID_1,TEAM_1_PLAYERS,TEAM_ID_2,TEAM_2_PLAYERS,PERIOD
0,1610612755,[ 202699  203118  201143 1626196 1627732],1610612742,[1627827 1628467  203939  203501 1629029],1
1,1610612755,[ 203118 1626196 1627732  203658 1627788],1610612742,[1628467 1629029 1626153 1628382  203552],2
2,1610612755,[ 202699  203118  201143 1626196 1627732],1610612742,[1627827 1628467  203939  203501 1629029],3
3,1610612755,[ 203118 1626196 1627732  203658 1627788],1610612742,[1626153 1628382 1628973  203552 1626246],4
