,t1_points_scored,stint_end,t2_pm,t1_players,t2_id,t1_id,t2_players,t2_points_scored,t1_pm,stint_start,margin_per_100,num_poss
0,14,321,3,"[202734, 1629026, 202324, 1628402, 201950]",1610612748,1610612740,"[202710, 1628389, 203086, 1629130, 1629134]",17,-3,0,-13.043478260869565,23.0
1,17,493,6,"[202734, 1629026, 202324, 1628402, 201950]",1610612748,1610612740,"[202710, 1628389, 203086, 1629130, 1629134]",23,-6,322,-20.0,30.0
2,20,587,5,"[1629026, 1629740, 201950, 202324, 202734]",1610612748,1610612740,"[202710, 1628389, 203086, 1629130, 1629134]",25,-5,494,-13.88888888888889,36.0
3,22,685,5,"[1629026, 1629637, 1629638, 1629740, 201950]",1610612748,1610612740,"[1629134, 1629639, 1629735, 202710, 203086]",27,-5,588,-11.904761904761903,42.0
4,22,719,7,"[1629026, 1629637, 1629638, 1629740, 201950]",1610612748,1610612740,"[1629133, 1629639, 1629735, 202710, 203482]",29,-7,686,-15.555555555555555,45.0
5,25,920,6,"[1629026, 1629637, 1629638, 1629740, 201950]",1610612748,1610612740,"[1629130, 1629133, 1629639, 1629735, 203482]",31,-6,720,-10.0,60.0
6,30,1013,4,"[202734, 1629740, 1629637, 1629638, 1627982]",1610612748,1610612740,"[1628389, 1629130, 1629639, 203482, 1629133]",34,-4,921,-6.153846153846154,65.0
7,30,1090,10,"[1627982, 1629597, 1629638, 1629740, 202734]",1610612748,1610612740,"[1628389, 1629130, 1629134, 1629639, 203482]",40,-10,1014,-14.285714285714285,70.0
8,34,1247,10,"[1627982, 1629026, 1629597, 201950, 202734]",1610612748,1610612740,"[1628389, 1629134, 1629639, 202710, 203482]",44,-10,1091,-12.5,80.0
9,43,1361,3,"[1627982, 1629026, 1629597, 201950, 202734]",1610612748,1610612740,"[1629134, 1629639, 1629735, 202710, 203482]",46,-3,1248,-3.3707865168539324,89.0
10,49,1439,3,"[1629026, 1629637, 1629638, 201950, 202734]",1610612748,1610612740,"[1628389, 1629134, 1629639, 202710, 203482]",52,-3,1362,-3.1578947368421053,95.0
11,57,1749,4,"[1629026, 1629637, 1629638, 201950, 202734]",1610612748,1610612740,"[1628389, 1629130, 1629134, 1629639, 202710]",61,-4,1440,-3.418803418803419,117.0
12,61,1880,2,"[202734, 1629026, 201950, 1629740, 1629637]",1610612748,1610612740,"[202710, 1628389, 203086, 1629130, 1629134]",63,-2,1750,-1.6,125.0
13,61,1937,5,"[1629026, 1629597, 1629638, 1629740, 202734]",1610612748,1610612740,"[202710, 1628389, 203086, 1629130, 1629134]",66,-5,1881,-3.90625,128.0
14,61,1983,9,"[1629026, 1629597, 1629638, 1629740, 201950]",1610612748,1610612740,"[1629130, 1629639, 1629735, 202710, 203086]",70,-9,1938,-6.870229007633588,131.0
15,63,2082,9,"[1629026, 1629597, 1629638, 1629740, 201950]",1610612748,1610612740,"[1629130, 1629639, 1629735, 202710, 203482]",72,-9,1984,-6.61764705882353,136.0
16,65,2159,10,"[1627982, 1629026, 1629637, 1629638, 201950]",1610612748,1610612740,"[1629130, 1629639, 1629735, 202710, 203482]",75,-10,2083,-6.944444444444445,144.0
17,72,2313,12,"[1627982, 1629026, 1629637, 1629638, 201950]",1610612748,1610612740,"[1629130, 1629134, 1629639, 1629735, 203482]",84,-12,2160,-7.741935483870968,155.0
18,78,2373,8,"[202734, 1629026, 201950, 1629740, 1629638]",1610612748,1610612740,"[1629130, 1629134, 1629639, 1629735, 203482]",86,-8,2314,-5.031446540880504,159.0
19,83,2591,12,"[202734, 1629026, 201950, 1629740, 1629638]",1610612748,1610612740,"[1628389, 1629130, 1629134, 1629639, 203482]",95,-12,2374,-6.896551724137931,174.0
20,86,2656,15,"[202734, 1629026, 201950, 1629740, 1629638]",1610612748,1610612740,"[1628389, 1629134, 1629639, 202710, 203482]",101,-15,2592,-8.47457627118644,177.0
21,94,2871,15,"[1629026, 1629597, 1629637, 1629638, 202734]",1610612748,1610612740,"[1628389, 1629134, 1629639, 202710, 203482]",109,-15,2657,-7.894736842105263,190.0
22,94,9999999,15,"[1627982, 1629597, 1629637, 1629638, 202734]",1610612748,1610612740,"[1628389, 1629134, 1629639, 202710, 203482]",109,-15,2872,-7.853403141361256,191.0
