,TEAM_ID_1,TEAM_1_PLAYERS,TEAM_ID_2,TEAM_2_PLAYERS,PERIOD
0,1610612745,[1628425 1630256 1628383  201569  203506],1610612758,[ 203084 1628963 1626158 1627741 1628368],1
1,1610612745,[1630256  201569 1629645 1630231  203463],1610612758,[1628963 1628368 1630169  202709 1629610],2
2,1610612745,[1628425 1630256 1628383  201569  203506],1610612758,[ 203084 1628963 1626158 1627741 1628368],3
3,1610612745,[1628425 1629645 1630231  203463 1630237],1610612758,[1626158 1627741 1628368  202357  202709],4
