,TEAM_ID_1,TEAM_1_PLAYERS,TEAM_ID_2,TEAM_2_PLAYERS,PERIOD
0,1610612758,[ 203084 1628963 1626158 1627741 1628368],1610612743,[1629008  200794  203999  203914 1627750],1
1,1610612758,[ 203084 1628963 1627741  202709 1630169],1610612743,[ 203115 1628408 1628420 1630267 1628392],2
2,1610612758,[ 203084 1628963 1626158 1627741 1628368],1610612743,[1629008  200794  203999  203914 1627750],3
3,1610612758,[1627741  202709  202357  202355 1630169],1610612743,[1629008 1627750  203115 1628420 1628392],4
4,1610612758,[ 203084 1627741 1628368  202709  202355],1610612743,[1629008  200794  203999  203914  203115],5
