,TEAM_ID_1,TEAM_1_PLAYERS,TEAM_ID_2,TEAM_2_PLAYERS,PERIOD
0,1610612749,[ 203114  203507 1626171 1628960  201950],1610612748,[1628997  200782  203473 1629130  200768],1
1,1610612749,[ 203507 1626171 1628960 1630606  202083],1610612748,[ 200782 1629639 1629216 1629622 1629644],2
2,1610612749,[ 203114  203507 1626171 1628960  201950],1610612748,[1628997  200782  203473 1629130  200768],3
3,1610612749,[ 203114  203507 1626171 1628960  202083],1610612748,[ 200782 1629639 1629216 1629622 1629644],4
