,team1_id,team1_player1,team1_player2,team1_player3,team1_player4,team1_player5,team2_id,team2_player1,team2_player2,team2_player3,team2_player4,team2_player5,game_id,period,possession_start,possession_end,team1_points,team2_points,possession_team
0,1610612762,202711,1626220,203497,1628378,204060,1610612753,1628407,202329,202696,203095,203487,0022000516,1,0,28,0,0,1610612762
1,1610612762,202711,1626220,203497,1628378,204060,1610612753,1628407,202329,202696,203095,203487,0022000516,1,40,43,0,0,1610612753
2,1610612762,202711,1626220,203497,1628378,204060,1610612753,1628407,202329,202696,203095,203487,0022000516,1,48,52,0,0,1610612762
3,1610612762,202711,1626220,203497,1628378,204060,1610612753,1628407,202329,202696,203095,203487,0022000516,1,59,59,0,2,1610612753
4,1610612762,202711,1626220,203497,1628378,204060,1610612753,1628407,202329,202696,203095,203487,0022000516,1,77,77,2,0,1610612762
5,1610612762,202711,1626220,203497,1628378,204060,1610612753,1628407,202329,202696,203095,203487,0022000516,1,97,99,0,0,1610612753
6,1610612762,202711,1626220,203497,1628378,204060,1610612753,1628407,202329,202696,203095,203487,0022000516,1,107,107,2,0,1610612762
7,1610612762,202711,1626220,203497,1628378,204060,1610612753,1628407,202329,202696,203095,203487,0022000516,1,128,130,0,0,1610612753
8,1610612762,202711,1626220,203497,1628378,204060,1610612753,1628407,202329,202696,203095,203487,0022000516,1,139,139,0,0,1610612762
9,1610612762,202711,1626220,203497,1628378,204060,1610612753,1628407,202329,202696,203095,203487,0022000516,1,142,142,0,2,1610612753
10,1610612762,202711,1626220,203497,1628378,204060,1610612753,1628407,202329,202696,203095,203487,0022000516,1,165,165,3,0,1610612762
11,1610612762,202711,1626220,203497,1628378,204060,1610612753,1628407,202329,202696,203095,203487,0022000516,1,184,184,0,2,1610612753
12,1610612762,202711,1626220,203497,1628378,204060,1610612753,1628407,202329,202696,203095,203487,0022000516,1,193,198,0,0,1610612762
13,1610612762,202711,1626220,203497,1628378,204060,1610612753,1628407,202329,202696,203095,203487,0022000516,1,204,209,0,0,1610612753
14,1610612762,202711,1626220,203497,1628378,204060,1610612753,1628407,202329,202696,203095,203487,0022000516,1,216,216,2,0,1610612762
15,1610612762,202711,1626220,203497,1628378,204060,1610612753,1628407,202329,202696,203095,203487,0022000516,1,231,237,0,2,1610612753
16,1610612762,202711,1626220,203497,1628378,204060,1610612753,1628407,202329,202696,203095,203487,0022000516,1,247,252,0,0,1610612762
17,1610612762,202711,1626220,203497,1628378,204060,1610612753,1628407,202329,202696,203095,203487,0022000516,1,258,258,0,0,1610612753
18,1610612762,202711,1626220,203497,1628378,204060,1610612753,1628407,202329,202696,203095,203487,0022000516,1,268,273,0,0,1610612762
19,1610612762,202711,1626220,203497,1628378,204060,1610612753,1628407,202329,202696,203095,203487,0022000516,1,275,277,0,1,1610612753
20,1610612762,202711,1626220,203497,1628378,204060,1610612753,1628407,202329,202696,203095,203487,0022000516,1,293,297,0,0,1610612762
21,1610612762,202711,1626220,203497,1628378,204060,1610612753,1628407,202329,202696,203095,203487,0022000516,1,302,305,0,0,1610612753
22,1610612762,202711,1626220,203497,1628378,204060,1610612753,1628407,202329,202696,203095,203487,0022000516,1,319,319,2,0,1610612762
23,1610612762,202711,1626220,203497,1628378,204060,1610612753,1628407,202329,202696,203095,203487,0022000516,1,335,338,0,0,1610612753
24,1610612762,202711,1626220,203497,1628378,204060,1610612753,1628407,202329,202696,203095,203487,0022000516,1,344,344,0,0,1610612762
25,1610612762,202711,1626220,203497,1628378,204060,1610612753,1628407,202329,202696,203095,203487,0022000516,1,348,348,0,2,1610612753
26,1610612762,202711,1626220,203497,1628378,204060,1610612753,1628407,202329,202696,203095,203487,0022000516,1,348,370,0,0,1610612762
27,1610612762,1626220,1628378,202324,202711,203903,1610612753,1629643,202696,203082,203095,203487,0022000516,1,372,372,0,2,1610612753
28,1610612762,1626220,1628378,202324,202711,203903,1610612753,1629643,202696,203082,203095,203487,0022000516,1,385,385,0,0,1610612762
29,1610612762,1626220,1628378,202324,202711,203903,1610612753,1629643,202696,203082,203095,203487,0022000516,1,393,396,0,0,1610612753
30,1610612762,1626220,1628378,202324,202711,203903,1610612753,1629643,202696,203082,203095,203487,0022000516,1,399,406,2,0,1610612762
31,1610612762,1626220,1628378,202324,202711,203903,1610612753,1629643,202696,203082,203095,203487,0022000516,1,420,423,0,0,1610612753
32,1610612762,1626220,1628378,202324,202711,203903,1610612753,1629643,202696,203082,203095,203487,0022000516,1,428,440,2,0,1610612762
33,1610612762,1626220,1628378,202324,202711,203903,1610612753,1629643,202696,203082,203095,203487,0022000516,1,453,453,0,3,1610612753
34,1610612762,1626220,1628378,202324,202711,203903,1610612753,1629643,202696,203082,203095,203487,0022000516,1,467,470,0,0,1610612762
35,1610612762,1626220,1627777,1628378,202324,203903,1610612753,1626184,1629643,202696,203082,203095,0022000516,1,485,488,0,0,1610612753
36,1610612762,1626220,1627777,1628378,202324,203903,1610612753,1626184,1629643,202696,203082,203095,0022000516,1,494,504,0,0,1610612762
37,1610612762,1626220,1627777,1628378,202324,203903,1610612753,1626184,1629643,202696,203082,203095,0022000516,1,511,512,0,0,1610612753
38,1610612762,1626220,1627777,1628378,202324,203903,1610612753,1626184,1629643,202696,203082,203095,0022000516,1,522,528,0,0,1610612762
39,1610612762,1626220,1627777,1628378,202324,203903,1610612753,1626184,1628407,1629643,202696,203082,0022000516,1,545,547,0,0,1610612753
40,1610612762,1626220,1627777,1628378,202324,203903,1610612753,1626184,1628407,1628964,1629643,203082,0022000516,1,555,565,2,0,1610612762
41,1610612762,1627777,1629671,203497,203903,204060,1610612753,1626184,1628407,1628964,1629643,203082,0022000516,1,580,580,0,3,1610612753
42,1610612762,1627777,1629671,203497,203903,204060,1610612753,1626184,1628407,1628964,1629643,203082,0022000516,1,593,593,3,0,1610612762
43,1610612762,1627777,1629671,203497,203903,204060,1610612753,1626184,1628407,1628964,1629643,203082,0022000516,1,609,612,0,0,1610612753
44,1610612762,1627777,1629671,203497,203903,204060,1610612753,1626184,1628407,1628964,1629643,203082,0022000516,1,624,627,0,0,1610612762
45,1610612762,1627777,1629671,203497,203903,204060,1610612753,1626184,1628407,1628964,1629643,203082,0022000516,1,639,652,0,0,1610612753
46,1610612762,1627777,1629671,203497,203903,204060,1610612753,1626184,1628407,1628964,1629643,203082,0022000516,1,665,674,0,0,1610612762
47,1610612762,1627777,1629671,203497,203903,204060,1610612753,1626184,1628407,1628964,1629643,203082,0022000516,1,689,689,0,2,1610612753
48,1610612762,1627777,1629671,203497,203903,204060,1610612753,1626184,1628407,1628964,1629643,203082,0022000516,1,698,708,2,0,1610612762
49,1610612762,1627777,1629671,203497,203903,204060,1610612753,1626184,1628407,1628964,1629643,203082,0022000516,1,719,719,0,0,1610612753
50,1610612762,203497,204060,203903,1627777,1629671,1610612753,202329,203095,203487,203082,1628964,0022000516,2,720,737,0,0,1610612753
51,1610612762,203497,204060,203903,1627777,1629671,1610612753,202329,203095,203487,203082,1628964,0022000516,2,748,751,0,0,1610612762
52,1610612762,203497,204060,203903,1627777,1629671,1610612753,202329,203095,203487,203082,1628964,0022000516,2,751,761,0,3,1610612753
53,1610612762,203497,204060,203903,1627777,1629671,1610612753,202329,203095,203487,203082,1628964,0022000516,2,778,793,0,0,1610612762
54,1610612762,203497,204060,203903,1627777,1629671,1610612753,202329,203095,203487,203082,1628964,0022000516,2,807,807,0,3,1610612753
55,1610612762,203497,204060,203903,1627777,1629671,1610612753,202329,203095,203487,203082,1628964,0022000516,2,824,827,0,0,1610612762
56,1610612762,203497,204060,203903,1627777,1629671,1610612753,202329,203095,203487,203082,1628964,0022000516,2,836,836,0,2,1610612753
57,1610612762,203497,204060,203903,1627777,1629671,1610612753,202329,203095,203487,203082,1628964,0022000516,2,836,852,3,0,1610612762
58,1610612762,203497,204060,203903,1627777,1629671,1610612753,202329,203095,203487,203082,1628964,0022000516,2,869,869,0,2,1610612753
59,1610612762,203497,204060,203903,1627777,1629671,1610612753,202329,203095,203487,203082,1628964,0022000516,2,883,883,3,0,1610612762
60,1610612762,203497,204060,203903,1627777,1629671,1610612753,202329,203095,203487,203082,1628964,0022000516,2,903,906,0,0,1610612753
61,1610612762,203497,204060,203903,1627777,1629671,1610612753,202329,203095,203487,203082,1628964,0022000516,2,908,916,0,0,1610612762
62,1610612762,203497,204060,203903,1627777,1629671,1610612753,202329,203095,203487,203082,1628964,0022000516,2,924,926,0,0,1610612753
63,1610612762,203497,204060,203903,1627777,1629671,1610612753,202329,203095,203487,203082,1628964,0022000516,2,937,937,3,0,1610612762
64,1610612762,203497,204060,203903,1627777,1629671,1610612753,202329,203095,203487,203082,1628964,0022000516,2,951,951,0,0,1610612753
65,1610612762,1627777,1628378,1629671,202324,203903,1610612753,1626184,1628964,202329,203082,203095,0022000516,2,966,966,2,0,1610612762
66,1610612762,1627777,1628378,1629671,202324,203903,1610612753,1626184,1628964,202329,203082,203095,0022000516,2,989,993,0,0,1610612753
67,1610612762,1627777,1628378,1629671,202324,203903,1610612753,1626184,1628964,202329,203082,203095,0022000516,2,995,1004,3,0,1610612762
68,1610612762,1627777,1628378,1629671,202324,203903,1610612753,1626184,1628407,1629109,202696,203082,0022000516,2,1023,1027,0,0,1610612753
69,1610612762,1627777,1628378,1629671,202324,203903,1610612753,1626184,1628407,1629109,202696,203082,0022000516,2,1033,1036,0,0,1610612762
70,1610612762,1627777,1628378,1629671,202324,203903,1610612753,1626184,1628407,1629109,202696,203082,0022000516,2,1054,1059,0,2,1610612753
71,1610612762,1627777,1628378,1629671,202324,203903,1610612753,1626184,1628407,1629109,202696,203082,0022000516,2,1059,1089,3,0,1610612762
72,1610612762,1627777,1628378,1629671,202324,203903,1610612753,1626184,1628407,1629109,202696,203082,0022000516,2,1090,1112,0,3,1610612753
73,1610612762,1626220,1628378,202324,202711,203903,1610612753,1626184,1628407,1629109,202696,203082,0022000516,2,1121,1125,0,0,1610612762
74,1610612762,1626220,1628378,202324,202711,203903,1610612753,1626184,1628407,1629109,202696,203082,0022000516,2,1133,1133,0,3,1610612753
75,1610612762,1626220,1628378,202324,202711,203903,1610612753,1626184,1628407,1629109,202696,203095,0022000516,2,1146,1146,0,0,1610612762
76,1610612762,1626220,1628378,202324,202711,203903,1610612753,1626184,1628407,1629109,202696,203095,0022000516,2,1151,1153,0,0,1610612753
77,1610612762,1626220,1628378,202324,202711,203903,1610612753,1626184,1628407,1629109,202696,203095,0022000516,2,1158,1158,2,0,1610612762
78,1610612762,1626220,1628378,202324,202711,203903,1610612753,1626184,1628407,1629109,202696,203095,0022000516,2,1158,1161,0,0,1610612762
79,1610612762,1626220,1628378,202324,202711,203903,1610612753,1626184,1628407,1629109,202696,203095,0022000516,2,1183,1183,0,0,1610612753
80,1610612762,1626220,1628378,202324,202711,203903,1610612753,1626184,1628407,1629109,202696,203095,0022000516,2,1197,1197,2,0,1610612762
81,1610612762,1626220,1628378,202324,202711,203903,1610612753,1626184,1628407,1629643,202696,203095,0022000516,2,1208,1208,0,3,1610612753
82,1610612762,1626220,1628378,202324,202711,203903,1610612753,1626184,1628407,1629643,202696,203095,0022000516,2,1217,1220,0,0,1610612762
83,1610612762,1626220,1628378,202324,202711,203903,1610612753,1626184,1628407,1629643,202696,203095,0022000516,2,1232,1235,0,0,1610612753
84,1610612762,1626220,1628378,202324,202711,203903,1610612753,1626184,1628407,1629643,202696,203095,0022000516,2,1247,1251,0,0,1610612762
85,1610612762,1626220,1628378,202324,202711,203903,1610612753,1626184,1628407,1629643,202696,203095,0022000516,2,1258,1258,0,3,1610612753
86,1610612762,1626220,1628378,202324,202711,203903,1610612753,1626184,1628407,1629643,202696,203095,0022000516,2,1270,1270,0,0,1610612762
87,1610612762,1626220,1628378,202324,202711,203903,1610612753,1626184,1628407,1629643,202696,203095,0022000516,2,1272,1286,0,2,1610612753
88,1610612762,1626220,1628378,202711,203497,204060,1610612753,1629643,202696,203082,203095,203487,0022000516,2,1301,1305,2,0,1610612762
89,1610612762,1626220,1628378,202711,203497,204060,1610612753,1629643,202696,203082,203095,203487,0022000516,2,1329,1329,0,0,1610612753
90,1610612762,1626220,1628378,202711,203497,204060,1610612753,1629643,202696,203082,203095,203487,0022000516,2,1334,1340,5,0,1610612762
91,1610612762,1626220,1628378,202711,203497,204060,1610612753,1626184,1629643,202696,203082,203095,0022000516,2,1361,1364,0,0,1610612753
92,1610612762,1626220,1628378,202711,203497,204060,1610612753,1626184,1629643,202696,203082,203095,0022000516,2,1368,1368,0,0,1610612762
93,1610612762,1626220,1628378,202711,203497,204060,1610612753,1626184,1628407,1629643,202696,203082,0022000516,2,1380,1380,0,3,1610612753
94,1610612762,1626220,1628378,202711,203497,204060,1610612753,1626184,1628407,1629643,202696,203082,0022000516,2,1396,1396,2,0,1610612762
95,1610612762,1626220,1628378,202711,203497,204060,1610612753,1626184,1628407,1629643,202696,203082,0022000516,2,1413,1416,0,0,1610612753
96,1610612762,1626220,1628378,202711,203497,204060,1610612753,1626184,1628407,1629643,202696,203082,0022000516,2,1436,1440,2,0,1610612762
97,1610612762,202711,1626220,203497,1628378,204060,1610612753,1628407,202329,202696,203095,203487,0022000516,3,1440,1449,0,2,1610612753
98,1610612762,202711,1626220,203497,1628378,204060,1610612753,1628407,202329,202696,203095,203487,0022000516,3,1468,1468,3,0,1610612762
99,1610612762,202711,1626220,203497,1628378,204060,1610612753,1628407,202329,202696,203095,203487,0022000516,3,1481,1481,0,2,1610612753
100,1610612762,202711,1626220,203497,1628378,204060,1610612753,1628407,202329,202696,203095,203487,0022000516,3,1493,1493,2,0,1610612762
101,1610612762,202711,1626220,203497,1628378,204060,1610612753,1628407,202329,202696,203095,203487,0022000516,3,1507,1510,0,0,1610612753
102,1610612762,202711,1626220,203497,1628378,204060,1610612753,1628407,202329,202696,203095,203487,0022000516,3,1523,1523,2,0,1610612762
103,1610612762,202711,1626220,203497,1628378,204060,1610612753,1628407,202329,202696,203095,203487,0022000516,3,1529,1533,0,2,1610612753
104,1610612762,202711,1626220,203497,1628378,204060,1610612753,1628407,202329,202696,203095,203487,0022000516,3,1551,1551,0,0,1610612762
105,1610612762,202711,1626220,203497,1628378,204060,1610612753,1628407,202329,202696,203095,203487,0022000516,3,1566,1571,0,0,1610612753
106,1610612762,202711,1626220,203497,1628378,204060,1610612753,1628407,202329,202696,203095,203487,0022000516,3,1579,1579,3,0,1610612762
107,1610612762,202711,1626220,203497,1628378,204060,1610612753,1628407,202329,202696,203095,203487,0022000516,3,1600,1600,0,0,1610612753
108,1610612762,202711,1626220,203497,1628378,204060,1610612753,1628407,202329,202696,203095,203487,0022000516,3,1613,1616,0,0,1610612762
109,1610612762,202711,1626220,203497,1628378,204060,1610612753,1628407,202329,202696,203095,203487,0022000516,3,1621,1621,0,3,1610612753
110,1610612762,202711,1626220,203497,1628378,204060,1610612753,1628407,202329,202696,203095,203487,0022000516,3,1636,1636,2,0,1610612762
111,1610612762,202711,1626220,203497,1628378,204060,1610612753,1628407,202329,202696,203095,203487,0022000516,3,1654,1657,0,0,1610612753
112,1610612762,202711,1626220,203497,1628378,204060,1610612753,1628407,202329,202696,203095,203487,0022000516,3,1662,1673,3,0,1610612762
113,1610612762,202711,1626220,203497,1628378,204060,1610612753,1628407,202329,202696,203095,203487,0022000516,3,1684,1696,0,0,1610612753
114,1610612762,202711,1626220,203497,1628378,204060,1610612753,1628407,202329,202696,203095,203487,0022000516,3,1702,1702,3,0,1610612762
115,1610612762,202711,1626220,203497,1628378,204060,1610612753,1626184,1628407,202329,202696,203095,0022000516,3,1724,1729,0,2,1610612753
116,1610612762,202711,1626220,203497,1628378,204060,1610612753,1626184,1628407,202329,202696,203095,0022000516,3,1729,1739,0,0,1610612762
117,1610612762,202711,1626220,203497,1628378,204060,1610612753,1626184,1628407,202329,202696,203095,0022000516,3,1747,1751,0,0,1610612753
118,1610612762,202711,1626220,203497,1628378,204060,1610612753,1626184,1628407,202329,202696,203095,0022000516,3,1752,1769,0,0,1610612762
119,1610612762,202711,1626220,203497,1628378,204060,1610612753,1626184,1628407,202329,202696,203095,0022000516,3,1785,1787,0,0,1610612753
120,1610612762,202711,1626220,203497,1628378,204060,1610612753,1626184,1628407,202329,202696,203095,0022000516,3,1792,1792,2,0,1610612762
121,1610612762,202711,1626220,203497,1628378,204060,1610612753,1626184,1628407,202329,202696,203095,0022000516,3,1809,1811,0,0,1610612753
122,1610612762,202711,1626220,203497,1628378,204060,1610612753,1626184,1628407,202329,202696,203095,0022000516,3,1819,1819,0,0,1610612762
123,1610612762,202711,1626220,203497,1628378,204060,1610612753,1626184,1628407,202329,202696,203095,0022000516,3,1825,1825,0,2,1610612753
124,1610612762,202711,1626220,203497,1628378,204060,1610612753,1626184,1628407,202329,202696,203095,0022000516,3,1840,1845,0,0,1610612762
125,1610612762,202711,1626220,203497,1628378,204060,1610612753,1626184,1628407,202329,202696,203095,0022000516,3,1849,1854,0,2,1610612753
126,1610612762,202711,1626220,203497,1628378,204060,1610612753,1626184,1628407,202329,202696,203095,0022000516,3,1857,1878,3,0,1610612762
127,1610612762,1626220,1628378,202324,202711,203903,1610612753,1626184,1629643,202696,203082,203095,0022000516,3,1892,1896,0,0,1610612753
128,1610612762,1626220,1628378,202324,202711,203903,1610612753,1626184,1629643,202696,203082,203095,0022000516,3,1907,1907,2,0,1610612762
129,1610612762,1626220,1628378,202324,202711,203903,1610612753,1626184,1629643,202696,203082,203095,0022000516,3,1924,1924,0,2,1610612753
130,1610612762,1626220,1628378,202324,202711,203903,1610612753,1626184,1629643,202696,203082,203095,0022000516,3,1934,1937,0,0,1610612762
131,1610612762,1626220,1628378,202324,202711,203903,1610612753,1626184,1629643,202696,203082,203095,0022000516,3,1937,1950,0,3,1610612753
132,1610612762,1626220,1627777,1628378,202324,203903,1610612753,1626184,1628407,1629643,202696,203082,0022000516,3,1969,1986,2,0,1610612762
133,1610612762,1626220,1627777,1628378,202324,203903,1610612753,1626184,1628407,1629643,202696,203082,0022000516,3,2008,2008,0,2,1610612753
134,1610612762,1626220,1627777,1628378,202324,203903,1610612753,1626184,1628407,1629643,202696,203082,0022000516,3,2023,2023,2,0,1610612762
135,1610612762,1626220,1627777,1628378,202324,203903,1610612753,1626184,1628407,1629643,202696,203082,0022000516,3,2045,2050,0,0,1610612753
136,1610612762,1626220,1627777,1628378,202324,203903,1610612753,1626184,1628407,1629643,202696,203082,0022000516,3,2056,2056,2,0,1610612762
137,1610612762,1626220,1627777,1628378,202324,203903,1610612753,1626184,1628407,1629643,202696,203082,0022000516,3,2071,2071,0,2,1610612753
138,1610612762,1626220,1627777,1628378,202324,203903,1610612753,1626184,1628407,1629643,202696,203082,0022000516,3,2085,2100,2,0,1610612762
139,1610612762,1626220,1627777,203497,203903,204060,1610612753,1626184,1628407,1628964,1629643,203082,0022000516,3,2110,2110,0,0,1610612753
140,1610612762,1627777,1629671,203497,203903,204060,1610612753,1626184,1628407,1628964,1629643,203082,0022000516,3,2118,2118,0,0,1610612762
141,1610612762,1627777,1629671,203497,203903,204060,1610612753,1626184,1628407,1628964,1629643,203082,0022000516,3,2120,2131,0,0,1610612753
142,1610612762,1627777,1629671,203497,203903,204060,1610612753,1626184,1628407,1628964,1629643,203082,0022000516,3,2137,2141,0,0,1610612762
143,1610612762,1627777,1629671,203497,203903,204060,1610612753,1626184,1628407,1628964,1629643,203082,0022000516,3,2157,2160,0,2,1610612753
144,1610612762,203497,204060,203903,1627777,1629671,1610612753,202329,203095,203487,203082,1628964,0022000516,4,2160,2179,3,0,1610612762
145,1610612762,203497,204060,203903,1627777,1629671,1610612753,202329,203095,203487,203082,1628964,0022000516,4,2202,2216,0,3,1610612753
146,1610612762,203497,204060,203903,1627777,1629671,1610612753,202329,203095,203487,203082,1628964,0022000516,4,2232,2232,0,0,1610612762
147,1610612762,203497,204060,203903,1627777,1629671,1610612753,202329,203095,203487,203082,1628964,0022000516,4,2241,2241,0,3,1610612753
148,1610612762,203497,204060,203903,1627777,1629671,1610612753,202329,203095,203487,203082,1628964,0022000516,4,2261,2264,0,0,1610612762
149,1610612762,203497,204060,203903,1627777,1629671,1610612753,202329,203095,203487,203082,1628964,0022000516,4,2270,2275,0,0,1610612753
150,1610612762,203497,204060,203903,1627777,1629671,1610612753,202329,203095,203487,203082,1628964,0022000516,4,2282,2282,3,0,1610612762
151,1610612762,203497,204060,203903,1627777,1629671,1610612753,202329,203095,203487,203082,1628964,0022000516,4,2300,2303,0,0,1610612753
152,1610612762,203497,204060,203903,1627777,1629671,1610612753,202329,203095,203487,203082,1628964,0022000516,4,2324,2324,2,0,1610612762
153,1610612762,203497,204060,203903,1627777,1629671,1610612753,202329,203095,203487,203082,1628964,0022000516,4,2345,2348,0,0,1610612753
154,1610612762,203497,204060,203903,1627777,1629671,1610612753,202329,203095,203487,203082,1628964,0022000516,4,2360,2360,2,0,1610612762
155,1610612762,203497,204060,203903,1627777,1629671,1610612753,202329,203095,203487,203082,1628964,0022000516,4,2370,2386,0,3,1610612753
156,1610612762,1627777,1628378,202324,203903,204060,1610612753,202329,202696,203082,203095,203487,0022000516,4,2402,2402,3,0,1610612762
157,1610612762,1627777,1628378,202324,203903,204060,1610612753,202329,202696,203082,203095,203487,0022000516,4,2422,2425,0,0,1610612753
158,1610612762,1627777,1628378,202324,203903,204060,1610612753,202329,202696,203082,203095,203487,0022000516,4,2436,2436,2,0,1610612762
159,1610612762,1627777,1628378,202324,203903,204060,1610612753,202329,202696,203082,203095,203487,0022000516,4,2448,2450,0,0,1610612753
160,1610612762,1627777,1628378,202324,203903,204060,1610612753,202329,202696,203082,203095,203487,0022000516,4,2456,2456,2,0,1610612762
161,1610612762,1626220,1628378,202324,202711,203903,1610612753,1626184,1628407,1629643,202696,203082,0022000516,4,2467,2467,0,2,1610612753
162,1610612762,1626220,1628378,202324,202711,203903,1610612753,1626184,1628407,1629643,202696,203082,0022000516,4,2491,2491,2,0,1610612762
163,1610612762,1626220,1628378,202324,202711,203903,1610612753,1626184,1628407,1629643,202696,203082,0022000516,4,2503,2503,0,2,1610612753
164,1610612762,1626220,1628378,202324,202711,203903,1610612753,1626184,1628407,1629643,202696,203082,0022000516,4,2515,2515,2,0,1610612762
165,1610612762,1626220,1628378,202324,202711,203903,1610612753,1626184,1628407,1629643,202696,203082,0022000516,4,2526,2526,0,2,1610612753
166,1610612762,1626220,1628378,202324,202711,203903,1610612753,1626184,1628407,1629643,202696,203082,0022000516,4,2533,2537,2,0,1610612762
167,1610612762,1626220,1628378,202324,202711,203903,1610612753,1626184,1628407,1629643,202696,203082,0022000516,4,2551,2551,0,2,1610612753
168,1610612762,1626220,1628378,202324,202711,203903,1610612753,1626184,1628407,1629643,202696,203082,0022000516,4,2568,2568,2,0,1610612762
169,1610612762,1626220,1628378,202324,202711,203903,1610612753,1626184,1628407,1629643,202696,203082,0022000516,4,2582,2582,0,2,1610612753
170,1610612762,1626220,1628378,202324,202711,203903,1610612753,1626184,1628407,1629643,202696,203082,0022000516,4,2594,2594,0,0,1610612762
171,1610612762,1626220,1628378,202324,202711,203903,1610612753,1629643,202696,203082,203095,203487,0022000516,4,2601,2614,0,3,1610612753
172,1610612762,1626220,1628378,202711,203497,203903,1610612753,1629643,202696,203082,203095,203487,0022000516,4,2633,2636,0,0,1610612762
173,1610612762,1626220,1628378,202711,203497,203903,1610612753,1629643,202696,203082,203095,203487,0022000516,4,2639,2639,0,2,1610612753
174,1610612762,1626220,1628378,202711,203497,203903,1610612753,1629643,202696,203082,203095,203487,0022000516,4,2639,2651,3,0,1610612762
175,1610612762,1626220,1628378,202711,203497,204060,1610612753,1629643,202696,203082,203095,203487,0022000516,4,2668,2678,0,0,1610612753
176,1610612762,1626220,1628378,202711,203497,204060,1610612753,1629643,202696,203082,203095,203487,0022000516,4,2680,2680,0,0,1610612762
177,1610612762,1626220,1628378,202711,203497,204060,1610612753,1629643,202696,203082,203095,203487,0022000516,4,2689,2689,0,0,1610612753
178,1610612762,1626220,1628378,202711,203497,204060,1610612753,1629643,202696,203082,203095,203487,0022000516,4,2697,2697,0,0,1610612762
179,1610612762,1626220,1628378,202711,203497,204060,1610612753,1629643,202696,203082,203095,203487,0022000516,4,2706,2706,0,2,1610612753
180,1610612762,1626220,1628378,202711,203497,204060,1610612753,1629643,202696,203082,203095,203487,0022000516,4,2729,2729,3,0,1610612762
181,1610612762,1626220,1628378,202711,203497,204060,1610612753,1629643,202696,203082,203095,203487,0022000516,4,2745,2745,0,3,1610612753
182,1610612762,1626220,1628378,202711,203497,204060,1610612753,1629643,202696,203082,203095,203487,0022000516,4,2771,2771,2,0,1610612762
183,1610612762,1626220,1628378,202711,203497,204060,1610612753,1629643,202696,203082,203095,203487,0022000516,4,2783,2786,0,0,1610612753
184,1610612762,1626220,1628378,202711,203497,204060,1610612753,1629643,202696,203082,203095,203487,0022000516,4,2803,2803,2,0,1610612762
185,1610612762,1626220,1628378,202711,203497,204060,1610612753,1629643,202696,203082,203095,203487,0022000516,4,2803,2821,0,2,1610612753
186,1610612762,1627777,1629671,1629714,1629752,1630235,1610612753,1626184,1628407,1628964,1629109,1629643,0022000516,4,2831,2834,0,0,1610612762
187,1610612762,1627777,1629671,1629714,1629752,1630235,1610612753,1626184,1628407,1628964,1629109,1629643,0022000516,4,2841,2841,0,2,1610612753
188,1610612762,1627777,1629671,1629714,1629752,1630235,1610612753,1626184,1628407,1628964,1629109,1629643,0022000516,4,2857,2857,2,0,1610612762
189,1610612762,1627777,1629671,1629714,1629752,1630235,1610612753,1626184,1628407,1628964,1629109,1629643,0022000516,4,2879,2879,0,0,1610612753
