,stint_end,t2_points_scored,t1_id,t2_id,t2_pm,t1_players,t2_players,t1_points_scored,t1_pm,stint_start,margin_per_100,num_poss
0,442,8,1610612756,1610612747,-8,"[1628969, 203109, 1629028, 1629013, 101108]","[203145, 203076, 201599, 201961, 201566]",16,8,0,25.0,32.0
1,463,11,1610612756,1610612747,-5,"[1628969, 203109, 1629028, 1629013, 101108]","[203145, 203076, 201599, 201961, 201566]",16,5,443,14.705882352941178,34.0
2,512,11,1610612756,1610612747,-8,"[1626166, 1628969, 1629028, 1629661, 203109]","[1629134, 201566, 201961, 203076, 2546]",19,8,464,21.62162162162162,37.0
3,540,13,1610612756,1610612747,-8,"[1626166, 1627846, 1628969, 1629661, 201580]","[1629134, 201566, 201961, 203076, 2546]",21,8,513,20.51282051282051,39.0
4,718,18,1610612756,1610612747,-10,"[1626166, 1627846, 1628969, 1629661, 201580]","[1629134, 200765, 201961, 203076, 2546]",28,10,541,20.0,50.0
5,782,20,1610612756,1610612747,-10,"[1626166, 1627846, 1629013, 1629661, 201580]","[1629134, 1630559, 200765, 203076, 2546]",30,10,719,17.857142857142858,56.0
6,816,22,1610612756,1610612747,-8,"[1629013, 101108, 1629661, 201580, 1627846]","[2546, 1629134, 200765, 1630559, 2730]",30,8,783,13.793103448275861,58.0
7,844,22,1610612756,1610612747,-10,"[101108, 1629013, 1629661, 201580, 203109]","[2546, 1629134, 200765, 1630559, 2730]",32,10,817,16.666666666666664,60.0
8,930,25,1610612756,1610612747,-9,"[101108, 1629013, 1629028, 1629661, 203109]","[2546, 1629134, 200765, 1630559, 2730]",34,9,845,13.636363636363635,66.0
9,1013,28,1610612756,1610612747,-10,"[101108, 1628969, 1629028, 1629661, 203109]","[2546, 1629134, 200765, 1630559, 2730]",38,10,931,13.698630136986301,73.0
10,1227,36,1610612756,1610612747,-4,"[101108, 1628969, 1629028, 1629661, 203109]","[1629134, 201566, 203145, 2546, 2730]",40,4,1014,4.651162790697675,86.0
11,1439,44,1610612756,1610612747,-4,"[101108, 1626166, 1628969, 1629028, 203109]","[201566, 201961, 203076, 203145, 2730]",48,4,1228,3.8095238095238098,105.0
12,1789,56,1610612756,1610612747,-12,"[1626166, 1628969, 1629013, 201580, 203109]","[201566, 201961, 203076, 203145, 2730]",68,12,1440,8.955223880597014,134.0
13,1846,61,1610612756,1610612747,-9,"[1628969, 203109, 1629028, 1629013, 101108]","[203145, 203076, 201599, 201961, 201566]",70,9,1790,6.569343065693431,137.0
14,1898,61,1610612756,1610612747,-9,"[1628969, 203109, 1629028, 1629013, 101108]","[200765, 201566, 203076, 203145, 2546]",70,9,1847,6.382978723404255,141.0
15,1911,61,1610612756,1610612747,-9,"[1626166, 1628969, 1629013, 1629028, 1629661]","[200765, 201566, 203076, 203145, 2546]",70,9,1899,6.293706293706294,143.0
16,1965,61,1610612756,1610612747,-13,"[1626166, 1628969, 1629013, 1629661, 201580]","[200765, 201566, 203076, 203145, 2546]",74,13,1912,8.724832214765101,149.0
17,2159,64,1610612756,1610612747,-24,"[1626166, 1627846, 1629661, 1630188, 201580]","[200765, 201566, 203076, 203145, 2546]",88,24,1966,14.634146341463413,164.0
18,2289,69,1610612756,1610612747,-26,"[1626166, 1627846, 1629661, 1630188, 201580]","[1629134, 1630559, 200765, 201599, 2546]",95,26,2160,14.942528735632186,174.0
19,2392,75,1610612756,1610612747,-23,"[1626166, 1629661, 201580, 1627846, 1630188]","[1629134, 1630559, 1630602, 1628419, 1630243]",98,23,2290,12.5,184.0
20,2636,85,1610612756,1610612747,-25,"[1626163, 1626166, 1627846, 1630188, 203901]","[1629134, 1630559, 1630602, 1628419, 1630243]",110,25,2393,12.5,200.0
21,2877,94,1610612756,1610612747,-29,"[1626163, 1626184, 1628990, 1630188, 203901]","[1628419, 1630243, 1630555, 1630559, 1630602]",123,29,2637,13.36405529953917,217.0
22,9999999,94,1610612756,1610612747,-29,"[1626163, 1626184, 1628990, 1630188, 203901]","[1628419, 1630243, 1630555, 1630602, 1630644]",123,29,2878,13.302752293577983,218.0
