,TEAM_ID_1,TEAM_1_PLAYERS,TEAM_ID_2,TEAM_2_PLAYERS,PERIOD
0,1610612759,[ 201942 1629640 1627751 1630170 1627749],1610612762,[ 202711 1627777  203497 1626220  204060],1
1,1610612759,[1627751 1627749  201988 1629022  200752],1610612762,[1627777  203497  204060  203903 1629671],2
2,1610612759,[ 201942 1629640 1627751 1630170 1627749],1610612762,[ 202711 1627777  203497 1626220  204060],3
3,1610612759,[1627749  201988 1629022  200752  203476],1610612762,[1627777  203497  204060  203903 1629671],4
