,team1_id,team1_player1,team1_player2,team1_player3,team1_player4,team1_player5,team2_id,team2_player1,team2_player2,team2_player3,team2_player4,team2_player5,game_id,period,possession_start,possession_end,team1_points,team2_points,possession_team
0,1610612743,1628470,200794,203999,203914,1627750,1610612757,203090,202329,202683,203468,203081,0041800234,1,0,18,0,0,1610612743
1,1610612743,1628470,200794,203999,203914,1627750,1610612757,203090,202329,202683,203468,203081,0041800234,1,27,27,0,2,1610612757
2,1610612743,1628470,200794,203999,203914,1627750,1610612757,203090,202329,202683,203468,203081,0041800234,1,53,53,2,0,1610612743
3,1610612743,1628470,200794,203999,203914,1627750,1610612757,203090,202329,202683,203468,203081,0041800234,1,77,77,0,3,1610612757
4,1610612743,1628470,200794,203999,203914,1627750,1610612757,203090,202329,202683,203468,203081,0041800234,1,77,104,0,0,1610612743
5,1610612743,1628470,200794,203999,203914,1627750,1610612757,203090,202329,202683,203468,203081,0041800234,1,110,110,0,2,1610612757
6,1610612743,1628470,200794,203999,203914,1627750,1610612757,203090,202329,202683,203468,203081,0041800234,1,121,121,3,0,1610612743
7,1610612743,1628470,200794,203999,203914,1627750,1610612757,203090,202329,202683,203468,203081,0041800234,1,141,144,0,0,1610612757
8,1610612743,1628470,200794,203999,203914,1627750,1610612757,203090,202329,202683,203468,203081,0041800234,1,153,155,1,0,1610612743
9,1610612743,1628470,200794,203999,203914,1627750,1610612757,203090,202329,202683,203468,203081,0041800234,1,166,168,0,0,1610612757
10,1610612743,1628470,200794,203999,203914,1627750,1610612757,203090,202329,202683,203468,203081,0041800234,1,175,175,2,0,1610612743
11,1610612743,1628470,200794,203999,203914,1627750,1610612757,203090,202329,202683,203468,203081,0041800234,1,194,196,0,0,1610612757
12,1610612743,1628470,200794,203999,203914,1627750,1610612757,203090,202329,202683,203468,203081,0041800234,1,200,206,2,0,1610612743
13,1610612743,1628470,200794,203999,203914,1627750,1610612757,203090,202329,202683,203468,203081,0041800234,1,216,216,0,1,1610612757
14,1610612743,1628470,200794,203999,203914,1627750,1610612757,203090,202329,202683,203468,203081,0041800234,1,230,230,0,0,1610612743
15,1610612743,1628470,200794,203999,203914,1627750,1610612757,203090,202329,202683,203468,203081,0041800234,1,238,251,0,0,1610612757
16,1610612743,1628470,200794,203999,203914,1627750,1610612757,203090,202329,202683,203468,203081,0041800234,1,258,258,3,0,1610612743
17,1610612743,1628470,200794,203999,203914,1627750,1610612757,203090,202329,202683,203468,203081,0041800234,1,278,279,0,2,1610612757
18,1610612743,1628470,200794,203999,203914,1627750,1610612757,203090,202329,202683,203468,203081,0041800234,1,287,287,0,0,1610612743
19,1610612743,1628470,200794,203999,203914,1627750,1610612757,203090,202329,202683,203468,203081,0041800234,1,294,294,0,0,1610612757
20,1610612743,1628470,200794,203999,203914,1627750,1610612757,203090,202329,202683,203468,203081,0041800234,1,311,311,2,0,1610612743
21,1610612743,1628470,200794,203999,203914,1627750,1610612757,203090,202329,202683,203468,203081,0041800234,1,313,340,0,0,1610612757
22,1610612743,1628470,200794,203999,203914,1627750,1610612757,203090,202329,202683,203468,203081,0041800234,1,341,349,2,0,1610612743
23,1610612743,1628470,200794,203999,203914,1627750,1610612757,203090,202329,202683,203468,203081,0041800234,1,361,361,0,2,1610612757
24,1610612743,1628470,200794,203999,203914,1627750,1610612757,203090,202329,202683,203468,203081,0041800234,1,380,380,0,0,1610612743
25,1610612743,1628470,200794,203999,203914,1627750,1610612757,203090,202329,202683,203468,203081,0041800234,1,383,383,0,2,1610612757
26,1610612743,1628470,200794,203999,203914,1627750,1610612757,203090,202329,202683,203468,203081,0041800234,1,400,411,0,0,1610612743
27,1610612743,1628470,200794,203999,203914,1627750,1610612757,203090,202329,202683,203468,203081,0041800234,1,419,419,0,0,1610612757
28,1610612743,1628470,200794,203999,203914,1627750,1610612757,203090,202329,202683,203468,203081,0041800234,1,421,421,0,0,1610612743
29,1610612743,1628470,200794,203999,203914,1627750,1610612757,203090,202329,202683,203468,203081,0041800234,1,427,427,0,2,1610612757
30,1610612743,1628470,200794,203999,203914,1627750,1610612757,203090,202329,202683,203468,203081,0041800234,1,429,446,2,0,1610612743
31,1610612743,1628470,200794,203999,203914,1627750,1610612757,202329,202683,203081,203468,203918,0041800234,1,459,459,0,2,1610612757
32,1610612743,1627736,1627750,200794,203914,203999,1610612757,202329,202683,203081,203468,203918,0041800234,1,470,470,2,0,1610612743
33,1610612743,1627736,1627750,200794,203914,203999,1610612757,202329,202683,203081,203468,203918,0041800234,1,488,488,0,2,1610612757
34,1610612743,1627736,1627750,200794,203914,203999,1610612757,202329,202683,203081,203468,203918,0041800234,1,504,504,2,0,1610612743
35,1610612743,1627736,1627750,200794,203914,203999,1610612757,202329,202683,203081,203468,203918,0041800234,1,530,530,0,0,1610612757
36,1610612743,1627736,1627750,200794,203914,203999,1610612757,202329,202683,203081,203468,203918,0041800234,1,542,542,2,0,1610612743
37,1610612743,1627736,1627750,200794,203914,203999,1610612757,1628380,202329,203081,203552,203918,0041800234,1,558,558,0,2,1610612757
38,1610612743,1627736,1627750,200794,203914,203999,1610612757,1628380,202329,203081,203552,203918,0041800234,1,570,572,0,0,1610612743
39,1610612743,1627736,1627750,200794,203914,203999,1610612757,1628380,202329,203081,203552,203918,0041800234,1,574,574,0,2,1610612757
40,1610612743,1627736,1627750,203115,203486,203999,1610612757,1628380,202329,203081,203552,203918,0041800234,1,590,592,0,0,1610612743
41,1610612743,1627736,1627750,203115,203486,203999,1610612757,1628380,202329,203081,203552,203918,0041800234,1,603,603,0,4,1610612757
42,1610612743,1627736,1627750,203115,203486,203999,1610612757,1628380,202329,203081,203552,203918,0041800234,1,623,623,2,0,1610612743
43,1610612743,1627736,1627750,203115,203486,203999,1610612757,1628380,202329,203081,203552,203918,0041800234,1,637,640,0,2,1610612757
44,1610612743,1627736,1627750,203115,203486,203999,1610612757,1628380,202329,203081,203552,203918,0041800234,1,661,665,2,0,1610612743
45,1610612743,1627736,1627750,203115,203486,203999,1610612757,1628380,202329,203081,203552,203918,0041800234,1,688,688,0,3,1610612757
46,1610612743,1627736,1627750,203115,203486,203999,1610612757,1628380,202329,203081,203552,203918,0041800234,1,712,716,0,0,1610612743
47,1610612743,1627736,1627750,203115,203486,203999,1610612757,1628380,202329,203081,203552,203918,0041800234,1,718,718,0,0,1610612757
48,1610612743,1627736,1627750,203115,203486,203999,1610612757,1628380,202329,203081,203552,203918,0041800234,1,720,720,0,0,1610612757
49,1610612743,200794,1627736,203115,203486,1628420,1610612757,203468,203918,203552,1628380,202323,0041800234,2,720,740,0,2,1610612757
50,1610612743,200794,1627736,203115,203486,1628420,1610612757,203468,203918,203552,1628380,202323,0041800234,2,753,753,2,0,1610612743
51,1610612743,200794,1627736,203115,203486,1628420,1610612757,203468,203918,203552,1628380,202323,0041800234,2,772,773,0,0,1610612757
52,1610612743,200794,1627736,203115,203486,1628420,1610612757,203468,203918,203552,1628380,202323,0041800234,2,787,802,0,0,1610612743
53,1610612743,200794,1627736,203115,203486,1628420,1610612757,203468,203918,203552,1628380,202323,0041800234,2,816,819,0,0,1610612757
54,1610612743,200794,1627736,203115,203486,1628420,1610612757,203468,203918,203552,1628380,202323,0041800234,2,825,825,3,0,1610612743
55,1610612743,200794,1627736,203115,203486,1628420,1610612757,203468,203918,203552,1628380,202323,0041800234,2,839,844,0,0,1610612757
56,1610612743,200794,1627736,203115,203486,1628420,1610612757,203468,203918,203552,1628380,202323,0041800234,2,849,849,2,0,1610612743
57,1610612743,200794,1627736,203115,203486,1628420,1610612757,203468,203918,203552,1628380,202323,0041800234,2,867,867,0,0,1610612757
58,1610612743,200794,1627736,203115,203486,1628420,1610612757,203468,203918,203552,1628380,202323,0041800234,2,873,877,3,0,1610612743
59,1610612743,200794,1627736,203115,203486,1628420,1610612757,203468,203918,203552,1628380,202323,0041800234,2,877,892,0,3,1610612757
60,1610612743,200794,1627736,203115,203486,1628420,1610612757,203468,203918,203552,1628380,202323,0041800234,2,910,913,0,0,1610612743
61,1610612743,200794,1627736,203115,203486,1628420,1610612757,203468,203918,203552,1628380,202323,0041800234,2,928,928,0,2,1610612757
62,1610612743,200794,1627736,203115,203486,1628420,1610612757,203468,203918,203552,1628380,202323,0041800234,2,939,940,0,0,1610612743
63,1610612743,200794,1627736,203115,203486,1628420,1610612757,203468,203918,203552,1628380,202323,0041800234,2,949,949,0,2,1610612757
64,1610612743,200794,1627736,203115,203486,1628420,1610612757,203468,203918,203552,1628380,202323,0041800234,2,949,965,0,0,1610612743
65,1610612743,1628420,200794,203115,203486,203914,1610612757,203468,203918,203552,1628380,202323,0041800234,2,976,976,0,2,1610612757
66,1610612743,1628420,200794,203115,203486,203914,1610612757,203468,203918,203552,1628380,202323,0041800234,2,1001,1003,0,0,1610612743
67,1610612743,1627750,203115,203486,203914,203999,1610612757,203468,203918,203552,1628380,202323,0041800234,2,1010,1019,0,0,1610612757
68,1610612743,1627750,203115,203486,203914,203999,1610612757,1628380,202323,202683,203468,203552,0041800234,2,1035,1041,0,0,1610612743
69,1610612743,1627750,203115,203486,203914,203999,1610612757,1628380,202323,202683,203468,203552,0041800234,2,1054,1057,0,0,1610612757
70,1610612743,1627750,203115,203486,203914,203999,1610612757,1628380,202323,202683,203468,203552,0041800234,2,1062,1062,2,0,1610612743
71,1610612743,1627750,203115,203486,203914,203999,1610612757,1628380,202323,202683,203468,203552,0041800234,2,1081,1081,0,3,1610612757
72,1610612743,1627750,203115,203486,203914,203999,1610612757,1628380,202323,202683,203468,203552,0041800234,2,1095,1095,3,0,1610612743
73,1610612743,1627750,203115,203486,203914,203999,1610612757,1628380,202323,202683,203468,203552,0041800234,2,1109,1109,0,3,1610612757
74,1610612743,1627750,203115,203486,203914,203999,1610612757,1628380,202323,202683,203468,203552,0041800234,2,1123,1123,2,0,1610612743
75,1610612743,1627750,203115,203486,203914,203999,1610612757,1628380,202323,202683,203468,203552,0041800234,2,1142,1142,0,3,1610612757
76,1610612743,1627750,203115,203486,203914,203999,1610612757,1628380,202323,202683,203468,203552,0041800234,2,1143,1169,0,0,1610612743
77,1610612743,1627750,1628470,200794,203914,203999,1610612757,202329,202683,203081,203090,203552,0041800234,2,1181,1181,0,2,1610612757
78,1610612743,1627750,1628470,200794,203914,203999,1610612757,202329,202683,203081,203090,203552,0041800234,2,1193,1197,2,0,1610612743
79,1610612743,1627750,1628470,200794,203914,203999,1610612757,202329,202683,203081,203090,203552,0041800234,2,1217,1220,0,0,1610612757
80,1610612743,1627750,1628470,200794,203914,203999,1610612757,202329,202683,203081,203090,203552,0041800234,2,1222,1228,2,0,1610612743
81,1610612743,1627750,1628470,200794,203914,203999,1610612757,202329,202683,203081,203090,203552,0041800234,2,1242,1247,0,0,1610612757
82,1610612743,1627750,1628470,200794,203914,203999,1610612757,202329,202683,203081,203090,203552,0041800234,2,1252,1255,0,0,1610612743
83,1610612743,1627750,1628470,200794,203914,203999,1610612757,202329,202683,203081,203090,203552,0041800234,2,1258,1260,0,3,1610612757
84,1610612743,1627750,1628470,200794,203914,203999,1610612757,202329,202683,203081,203090,203552,0041800234,2,1271,1271,2,0,1610612743
85,1610612743,1627750,1628470,200794,203914,203999,1610612757,202329,202683,203081,203090,203552,0041800234,2,1295,1299,0,2,1610612757
86,1610612743,1627750,1628470,200794,203914,203999,1610612757,202329,202683,203081,203090,203552,0041800234,2,1310,1316,3,0,1610612743
87,1610612743,1627750,1628470,200794,203914,203999,1610612757,202329,202683,203081,203090,203552,0041800234,2,1334,1334,0,0,1610612757
88,1610612743,1627750,1628470,200794,203914,203999,1610612757,202329,202683,203081,203090,203552,0041800234,2,1351,1351,0,0,1610612743
89,1610612743,1627750,1628470,200794,203914,203999,1610612757,202329,202683,203081,203468,203552,0041800234,2,1361,1370,0,0,1610612757
90,1610612743,1627750,1628470,200794,203914,203999,1610612757,202329,202683,203081,203468,203552,0041800234,2,1376,1377,0,0,1610612743
91,1610612743,1627750,1628470,200794,203914,203999,1610612757,202329,202683,203081,203468,203552,0041800234,2,1383,1386,0,0,1610612757
92,1610612743,1627750,1628470,200794,203914,203999,1610612757,202329,202683,203081,203468,203552,0041800234,2,1410,1415,2,0,1610612743
93,1610612743,1627736,1627750,200794,203115,203486,1610612757,202329,202683,203081,203468,203552,0041800234,2,1429,1440,0,3,1610612757
94,1610612743,1627736,1627750,200794,203115,203486,1610612757,202683,203081,203468,203552,203918,0041800234,2,1440,1440,0,0,347
95,1610612743,1628470,200794,203999,203914,1627750,1610612757,203090,202329,202683,203468,203081,0041800234,3,1440,1459,0,0,1610612757
96,1610612743,1628470,200794,203999,203914,1627750,1610612757,203090,202329,202683,203468,203081,0041800234,3,1465,1465,2,0,1610612743
97,1610612743,1628470,200794,203999,203914,1627750,1610612757,203090,202329,202683,203468,203081,0041800234,3,1483,1483,0,2,1610612757
98,1610612743,1628470,200794,203999,203914,1627750,1610612757,203090,202329,202683,203468,203081,0041800234,3,1495,1495,3,0,1610612743
99,1610612743,1628470,200794,203999,203914,1627750,1610612757,203090,202329,202683,203468,203081,0041800234,3,1513,1515,0,0,1610612757
100,1610612743,1628470,200794,203999,203914,1627750,1610612757,203090,202329,202683,203468,203081,0041800234,3,1524,1524,3,0,1610612743
101,1610612743,1628470,200794,203999,203914,1627750,1610612757,203090,202329,202683,203468,203081,0041800234,3,1539,1539,0,0,1610612757
102,1610612743,1628470,200794,203999,203914,1627750,1610612757,203090,202329,202683,203468,203081,0041800234,3,1554,1554,2,0,1610612743
103,1610612743,1628470,200794,203999,203914,1627750,1610612757,203090,202329,202683,203468,203081,0041800234,3,1566,1566,0,2,1610612757
104,1610612743,1628470,200794,203999,203914,1627750,1610612757,203090,202329,202683,203468,203081,0041800234,3,1574,1575,0,0,1610612743
105,1610612743,1628470,200794,203999,203914,1627750,1610612757,203090,202329,202683,203468,203081,0041800234,3,1585,1585,0,0,1610612757
106,1610612743,1628470,200794,203999,203914,1627750,1610612757,203090,202329,202683,203468,203081,0041800234,3,1609,1611,0,0,1610612743
107,1610612743,1628470,200794,203999,203914,1627750,1610612757,203090,202329,202683,203468,203081,0041800234,3,1617,1618,0,0,1610612757
108,1610612743,1628470,200794,203999,203914,1627750,1610612757,203090,202329,202683,203468,203081,0041800234,3,1631,1631,0,0,1610612743
109,1610612743,1628470,200794,203999,203914,1627750,1610612757,203090,202329,202683,203468,203081,0041800234,3,1648,1648,0,2,1610612757
110,1610612743,1628470,200794,203999,203914,1627750,1610612757,203090,202329,202683,203468,203081,0041800234,3,1663,1663,2,0,1610612743
111,1610612743,1628470,200794,203999,203914,1627750,1610612757,203090,202329,202683,203468,203081,0041800234,3,1676,1676,0,2,1610612757
112,1610612743,1628470,200794,203999,203914,1627750,1610612757,203090,202329,202683,203468,203081,0041800234,3,1697,1697,2,0,1610612743
113,1610612743,1627750,200794,203115,203914,203999,1610612757,203090,202329,202683,203468,203081,0041800234,3,1708,1712,0,0,1610612757
114,1610612743,1627750,200794,203115,203914,203999,1610612757,203090,202329,202683,203468,203081,0041800234,3,1728,1729,0,0,1610612743
115,1610612743,1627750,200794,203115,203914,203999,1610612757,203090,202329,202683,203468,203081,0041800234,3,1736,1737,0,0,1610612757
116,1610612743,1627750,200794,203115,203914,203999,1610612757,203090,202329,202683,203468,203081,0041800234,3,1745,1746,0,0,1610612743
117,1610612743,1627750,200794,203115,203914,203999,1610612757,203090,202329,202683,203468,203081,0041800234,3,1766,1766,0,0,1610612757
118,1610612743,1627750,200794,203115,203914,203999,1610612757,203090,202329,202683,203468,203081,0041800234,3,1768,1768,2,0,1610612743
119,1610612743,1627750,200794,203115,203914,203999,1610612757,203090,202329,202683,203468,203081,0041800234,3,1786,1787,0,1,1610612757
120,1610612743,1627750,200794,203115,203914,203999,1610612757,203090,202329,202683,203468,203081,0041800234,3,1805,1806,0,0,1610612743
121,1610612743,1627750,200794,203115,203914,203999,1610612757,203090,202329,202683,203468,203081,0041800234,3,1819,1820,0,0,1610612757
122,1610612743,1627750,200794,203115,203914,203999,1610612757,203090,202329,202683,203468,203081,0041800234,3,1830,1831,0,0,1610612743
123,1610612743,1627750,200794,203115,203914,203999,1610612757,203090,202329,202683,203468,203081,0041800234,3,1848,1848,0,0,1610612757
124,1610612743,1627750,200794,203115,203914,203999,1610612757,203090,202329,202683,203468,203081,0041800234,3,1848,1862,2,0,1610612743
125,1610612743,1627750,200794,203115,203914,203999,1610612757,202329,202683,203081,203468,203918,0041800234,3,1882,1897,0,0,1610612757
126,1610612743,1627750,200794,203115,203914,203999,1610612757,202329,202683,203081,203468,203918,0041800234,3,1909,1911,0,0,1610612743
127,1610612743,1627750,200794,203115,203914,203999,1610612757,202329,202683,203081,203468,203918,0041800234,3,1922,1922,0,0,1610612757
128,1610612743,1627750,200794,203115,203914,203999,1610612757,1628380,202329,203081,203468,203918,0041800234,3,1936,1936,3,0,1610612743
129,1610612743,1627750,200794,203115,203914,203999,1610612757,1628380,202329,203081,203468,203918,0041800234,3,1954,1955,0,0,1610612757
130,1610612743,1627750,200794,203115,203914,203999,1610612757,1628380,202329,203081,203468,203918,0041800234,3,1975,1985,0,0,1610612743
131,1610612743,1627750,200794,203115,203914,203999,1610612757,1628380,202329,203081,203468,203918,0041800234,3,1985,2001,0,0,1610612757
132,1610612743,1627750,200794,203115,203914,203999,1610612757,1628380,202329,203081,203552,203918,0041800234,3,2025,2025,2,0,1610612743
133,1610612743,1627750,200794,203115,203914,203999,1610612757,1628380,202329,203081,203552,203918,0041800234,3,2049,2054,0,2,1610612757
134,1610612743,1628420,203115,203486,203914,203999,1610612757,1628380,202329,203081,203552,203918,0041800234,3,2066,2068,0,0,1610612743
135,1610612743,1628420,203115,203486,203914,203999,1610612757,1628380,202329,203081,203552,203918,0041800234,3,2090,2090,0,2,1610612757
136,1610612743,1628420,203115,203486,203914,203999,1610612757,1628380,202329,203081,203552,203918,0041800234,3,2105,2107,0,0,1610612743
137,1610612743,1628420,203115,203486,203914,203999,1610612757,1628380,202329,203081,203552,203918,0041800234,3,2108,2108,0,0,1610612757
138,1610612743,1628420,203115,203486,203914,203999,1610612757,1628380,202329,203081,203552,203918,0041800234,3,2119,2119,2,0,1610612743
139,1610612743,1628420,203115,203486,203914,203999,1610612757,1628380,202329,203081,203552,203918,0041800234,3,2125,2125,0,1,1610612757
140,1610612743,1627736,1628420,203115,203486,203999,1610612757,1628380,202329,203081,203552,203918,0041800234,3,2132,2134,2,0,1610612743
141,1610612743,1627736,1628420,203115,203486,203999,1610612757,1628380,202329,203081,203552,203918,0041800234,3,2156,2158,0,0,1610612757
142,1610612743,1627736,1628420,203115,203486,203999,1610612757,1628380,202329,203081,203552,203918,0041800234,3,2160,2160,0,0,1610612757
143,1610612743,200794,1627736,203115,203486,1628420,1610612757,203468,203918,203552,1628380,202323,0041800234,4,2160,2183,3,0,1610612743
144,1610612743,200794,1627736,203115,203486,1628420,1610612757,203468,203918,203552,1628380,202323,0041800234,4,2199,2223,0,2,1610612757
145,1610612743,200794,1627736,203115,203486,1628420,1610612757,203468,203918,203552,1628380,202323,0041800234,4,2238,2239,0,0,1610612743
146,1610612743,200794,1627736,203115,203486,1628420,1610612757,203468,203918,203552,1628380,202323,0041800234,4,2255,2255,0,3,1610612757
147,1610612743,200794,1627736,203115,203486,1628420,1610612757,203468,203918,203552,1628380,202323,0041800234,4,2277,2279,0,0,1610612743
148,1610612743,200794,1627736,203115,203486,1628420,1610612757,203468,203918,203552,1628380,202323,0041800234,4,2294,2296,0,0,1610612757
149,1610612743,200794,1627736,203115,203486,1628420,1610612757,203468,203918,203552,1628380,202323,0041800234,4,2308,2310,0,0,1610612743
150,1610612743,200794,1627736,203115,203486,1628420,1610612757,203468,203918,203552,1628380,202323,0041800234,4,2317,2317,0,3,1610612757
151,1610612743,200794,1627736,203115,203486,1628420,1610612757,203468,203918,203552,1628380,202323,0041800234,4,2331,2331,0,0,1610612743
152,1610612743,200794,1627736,203115,203486,1628420,1610612757,203468,203918,203552,1628380,202323,0041800234,4,2344,2346,0,0,1610612757
153,1610612743,200794,1627736,203115,203486,1628420,1610612757,203468,203918,203552,1628380,202323,0041800234,4,2354,2370,0,0,1610612743
154,1610612743,200794,1627736,203115,203486,1628420,1610612757,203468,203918,203552,1628380,202323,0041800234,4,2378,2380,0,0,1610612757
155,1610612743,200794,1627736,203115,203486,1628420,1610612757,203468,203918,203552,1628380,202323,0041800234,4,2387,2387,2,0,1610612743
156,1610612743,1627736,1627750,200794,203115,203999,1610612757,203468,203918,203552,1628380,202323,0041800234,4,2400,2400,0,2,1610612757
157,1610612743,1627736,1627750,200794,203115,203999,1610612757,203468,203918,203552,1628380,202323,0041800234,4,2421,2425,2,0,1610612743
158,1610612743,1627736,1627750,200794,203115,203999,1610612757,203468,203918,203552,1628380,202323,0041800234,4,2441,2441,0,1,1610612757
159,1610612743,1627750,200794,203115,203914,203999,1610612757,203468,203918,203552,1628380,202323,0041800234,4,2450,2450,3,0,1610612743
160,1610612743,1627750,200794,203115,203914,203999,1610612757,203468,203918,203552,1628380,202323,0041800234,4,2450,2469,0,0,1610612757
161,1610612743,1627750,200794,203115,203914,203999,1610612757,1628380,202329,203081,203468,203918,0041800234,4,2481,2496,0,0,1610612743
162,1610612743,1627750,200794,203115,203914,203999,1610612757,1628380,202329,203081,203468,203918,0041800234,4,2504,2504,0,3,1610612757
163,1610612743,1627750,200794,203115,203914,203999,1610612757,1628380,202329,203081,203468,203918,0041800234,4,2523,2542,2,0,1610612743
164,1610612743,1627750,200794,203115,203914,203999,1610612757,1628380,202329,203081,203468,203918,0041800234,4,2552,2552,0,2,1610612757
165,1610612743,1627750,200794,203115,203914,203999,1610612757,1628380,202329,203081,203468,203918,0041800234,4,2564,2564,3,0,1610612743
166,1610612743,1627750,200794,203115,203914,203999,1610612757,202329,202683,203081,203468,203918,0041800234,4,2572,2574,0,0,1610612757
167,1610612743,1627750,200794,203115,203914,203999,1610612757,202329,202683,203081,203468,203918,0041800234,4,2597,2599,0,0,1610612743
168,1610612743,1627750,200794,203115,203914,203999,1610612757,202329,202683,203081,203468,203918,0041800234,4,2605,2606,0,1,1610612757
169,1610612743,1627750,200794,203115,203914,203999,1610612757,202329,202683,203081,203468,203552,0041800234,4,2622,2622,0,0,1610612743
170,1610612743,1627750,200794,203115,203914,203999,1610612757,202329,202683,203081,203468,203552,0041800234,4,2626,2628,0,2,1610612757
171,1610612743,1627750,200794,203115,203914,203999,1610612757,202329,202683,203081,203468,203552,0041800234,4,2628,2654,0,0,1610612743
172,1610612743,1627750,200794,203115,203914,203999,1610612757,202329,202683,203081,203468,203552,0041800234,4,2672,2674,0,2,1610612757
173,1610612743,1627750,200794,203115,203914,203999,1610612757,202329,202683,203081,203468,203552,0041800234,4,2698,2698,3,0,1610612743
174,1610612743,1627750,200794,203115,203914,203999,1610612757,202329,202683,203081,203468,203552,0041800234,4,2713,2713,0,2,1610612757
175,1610612743,1627750,200794,203115,203914,203999,1610612757,202329,202683,203081,203468,203552,0041800234,4,2740,2740,2,0,1610612743
176,1610612743,1627750,200794,203115,203914,203999,1610612757,202329,202683,203081,203468,203552,0041800234,4,2753,2753,0,2,1610612757
177,1610612743,1627750,200794,203115,203914,203999,1610612757,202329,202683,203081,203468,203552,0041800234,4,2777,2777,3,0,1610612743
178,1610612743,1627750,200794,203115,203914,203999,1610612757,202329,202683,203081,203468,203552,0041800234,4,2793,2793,0,2,1610612757
179,1610612743,1627750,200794,203115,203914,203999,1610612757,202329,202683,203081,203468,203552,0041800234,4,2793,2793,0,2,1610612757
180,1610612743,1627750,200794,203115,203914,203999,1610612757,202329,202683,203081,203468,203552,0041800234,4,2817,2817,3,0,1610612743
181,1610612743,1627750,1628470,200794,203115,203914,1610612757,202683,203081,203468,203552,203918,0041800234,4,2828,2828,0,3,1610612757
182,1610612743,1627750,1628470,200794,203115,203914,1610612757,202683,203081,203468,203552,203918,0041800234,4,2833,2852,0,0,1610612743
183,1610612743,1628470,200794,203115,203486,203914,1610612757,202683,203081,203468,203552,203918,0041800234,4,2853,2860,0,1,1610612757
184,1610612743,1627750,200794,203115,203914,203999,1610612757,202329,202683,203081,203468,203918,0041800234,4,2867,2867,2,0,1610612743
185,1610612743,1627750,200794,203115,203914,203999,1610612757,202329,202683,203081,203468,203918,0041800234,4,2867,2873,0,2,1610612757
186,1610612743,1627750,1628470,200794,203115,203914,1610612757,202329,203081,203468,203552,203918,0041800234,4,2873,2874,2,0,1610612743
187,1610612743,1627750,200794,203115,203914,203999,1610612757,202329,202683,203081,203468,203918,0041800234,4,2874,2876,0,2,1610612757
188,1610612743,1627750,1628470,200794,203115,203914,1610612757,202683,203081,203468,203552,203918,0041800234,4,2876,2877,2,0,1610612743
189,1610612743,1627750,1628470,200794,203115,203914,1610612757,202683,203081,203468,203552,203918,0041800234,4,2880,2880,0,0,1610612743
