,TEAM_ID_1,TEAM_1_PLAYERS,TEAM_ID_2,TEAM_2_PLAYERS,PERIOD
0,1610612760,[1628390  201568  203500 1628983  101108],1610612757,[203918   2546 202355 203468 203081],1
1,1610612760,[ 203500  203471 1629647 1627846 1629126],1610612757,[   2546  203468 1629014 1627746  203145],2
2,1610612760,[1628390  201568  203500 1628983  101108],1610612757,[203918   2546 202355 203468 203081],3
3,1610612760,[1628390  201568  203500 1628983  203471],1610612757,[   2546  203468 1629014 1627746  203145],4
