,t1_pm,t2_pm,stint_start,t2_points_scored,t2_players,t2_id,t1_id,t1_players,stint_end,t1_points_scored,margin_per_100,num_poss
0,3,-3,0,12,"[203200, 1627734, 1626167, 1627747, 1628410]",1610612754,1610612766,"[202330, 1629023, 202687, 1626179, 1628984]",321,15,14.285714285714285,21.0
1,2,-2,322,17,"[203200, 1627734, 1626167, 1627747, 1628410]",1610612754,1610612766,"[202330, 1629023, 202687, 1626179, 1628984]",440,19,6.25,32.0
2,3,-3,441,22,"[203200, 1627734, 1626167, 1627747, 1628410]",1610612754,1610612766,"[1626179, 1629023, 202330, 202954, 203469]",622,25,6.521739130434782,46.0
3,4,-4,623,24,"[1627734, 1627747, 203200, 203926, 204456]",1610612754,1610612766,"[1626179, 1628970, 202330, 202954, 203469]",706,28,7.547169811320755,53.0
4,2,-2,707,26,"[1628988, 1629048, 203926, 203960, 204456]",1610612754,1610612766,"[1628970, 1628984, 202330, 202954, 203469]",779,28,3.508771929824561,57.0
5,-2,2,780,30,"[204456, 203926, 1628988, 203960, 1629048]",1610612754,1610612766,"[1629023, 1628984, 202954, 1628970, 1628998]",859,28,-3.1746031746031744,63.0
6,-2,2,860,38,"[1628410, 1628988, 1629048, 203926, 204456]",1610612754,1610612766,"[1629023, 1628984, 202954, 1628970, 1628998]",981,36,-2.7777777777777777,72.0
7,-2,2,982,38,"[1628410, 1628988, 1629048, 203926, 204456]",1610612754,1610612766,"[1626179, 1628970, 1628984, 1628998, 1629023]",1009,36,-2.7027027027027026,74.0
8,-1,1,1010,41,"[1626167, 1628410, 1628988, 203926, 204456]",1610612754,1610612766,"[1626179, 1628970, 1628998, 1629023, 202954]",1148,40,-1.1627906976744187,86.0
9,4,-4,1149,46,"[1626167, 1627734, 1627747, 1628410, 204456]",1610612754,1610612766,"[1626179, 1629023, 202330, 202954, 203469]",1311,50,4.166666666666666,96.0
10,8,-8,1312,46,"[1626167, 1627734, 1627747, 203200, 204456]",1610612754,1610612766,"[1626179, 1628970, 202330, 202954, 203469]",1401,54,7.766990291262135,103.0
11,8,-8,1402,49,"[1626167, 1627734, 1627747, 203200, 203926]",1610612754,1610612766,"[1626179, 1628970, 1628984, 202330, 203469]",1438,57,7.6190476190476195,105.0
12,14,-14,1439,53,"[1627734, 1627747, 1628410, 203200, 203926]",1610612754,1610612766,"[1626179, 1628970, 1628984, 202330, 203469]",1640,67,11.570247933884298,121.0
13,13,-13,1641,57,"[203200, 1627734, 1626167, 1627747, 1628410]",1610612754,1610612766,"[1629023, 202687, 1626179, 1628984, 1628970]",1751,70,10.236220472440944,127.0
14,12,-12,1752,62,"[203200, 1627734, 1626167, 1627747, 1628410]",1610612754,1610612766,"[1626179, 1628970, 1629023, 202687, 202954]",1916,74,8.695652173913043,138.0
15,10,-10,1917,69,"[1626167, 1627734, 1627747, 203926, 204456]",1610612754,1610612766,"[1626179, 1628998, 1629023, 202954, 203469]",2028,79,6.802721088435375,147.0
16,9,-9,2029,73,"[1627734, 1627747, 1628988, 203926, 204456]",1610612754,1610612766,"[1628970, 1628984, 1628998, 202954, 203469]",2125,82,5.806451612903226,155.0
17,6,-6,2126,76,"[1628988, 1629048, 203200, 203926, 204456]",1610612754,1610612766,"[1628970, 1628984, 1628998, 202954, 203469]",2159,82,3.821656050955414,157.0
18,11,-11,2160,82,"[1628988, 1629048, 203200, 203926, 204456]",1610612754,1610612766,"[1626179, 1628970, 1628998, 202954, 203469]",2347,93,6.547619047619048,168.0
19,9,-9,2348,88,"[203200, 1626167, 204456, 203926, 1628988]",1610612754,1610612766,"[1626179, 1628984, 203469, 1628970, 1628998]",2500,97,5.056179775280898,178.0
20,6,-6,2501,91,"[1626167, 1627747, 1628410, 203926, 204456]",1610612754,1610612766,"[1626179, 1628998, 1629023, 202687, 202954]",2532,97,3.296703296703297,182.0
21,10,-10,2533,93,"[1626167, 1627747, 1628410, 203926, 204456]",1610612754,1610612766,"[1626179, 1628970, 1629023, 202687, 202954]",2685,103,5.208333333333334,192.0
22,12,-12,2686,93,"[1626167, 1627747, 203200, 203926, 204456]",1610612754,1610612766,"[1626179, 1628970, 1629023, 202954, 203469]",2715,105,6.185567010309279,194.0
23,17,-17,2716,93,"[1626167, 1627747, 203200, 203926, 204456]",1610612754,1610612766,"[1626179, 1628970, 1628984, 1629023, 203469]",2778,110,8.585858585858585,198.0
24,18,-18,2779,96,"[1627747, 1629048, 203200, 203926, 204456]",1610612754,1610612766,"[1626179, 1628970, 1628984, 1629023, 203469]",2858,114,8.866995073891626,203.0
25,17,-17,2859,97,"[1628988, 1629048, 1629103, 1630199, 203960]",1610612754,1610612766,"[1628997, 1628998, 1629667, 1630176, 202954]",9999999,114,8.333333333333332,204.0
