,team1_id,team1_player1,team1_player2,team1_player3,team1_player4,team1_player5,team2_id,team2_player1,team2_player2,team2_player3,team2_player4,team2_player5,game_id,period,possession_start,possession_end,team1_points,team2_points,possession_team
0,1610612743,1629008,200794,203999,203914,1628420,1610612758,203084,1628963,1626158,1627741,1628368,0022000055,1,0,13,0,0,1610612758
1,1610612743,1629008,200794,203999,203914,1628420,1610612758,203084,1628963,1626158,1627741,1628368,0022000055,1,28,28,2,0,1610612743
2,1610612743,1629008,200794,203999,203914,1628420,1610612758,203084,1628963,1626158,1627741,1628368,0022000055,1,49,49,0,2,1610612758
3,1610612743,1629008,200794,203999,203914,1628420,1610612758,203084,1628963,1626158,1627741,1628368,0022000055,1,74,74,2,0,1610612743
4,1610612743,1629008,200794,203999,203914,1628420,1610612758,203084,1628963,1626158,1627741,1628368,0022000055,1,96,99,0,0,1610612758
5,1610612743,1629008,200794,203999,203914,1628420,1610612758,203084,1628963,1626158,1627741,1628368,0022000055,1,114,114,2,0,1610612743
6,1610612743,1629008,200794,203999,203914,1628420,1610612758,203084,1628963,1626158,1627741,1628368,0022000055,1,114,122,0,0,1610612758
7,1610612743,1629008,200794,203999,203914,1628420,1610612758,203084,1628963,1626158,1627741,1628368,0022000055,1,127,127,2,0,1610612743
8,1610612743,1629008,200794,203999,203914,1628420,1610612758,203084,1628963,1626158,1627741,1628368,0022000055,1,152,152,0,3,1610612758
9,1610612743,1629008,200794,203999,203914,1628420,1610612758,203084,1628963,1626158,1627741,1628368,0022000055,1,163,163,2,0,1610612743
10,1610612743,1629008,200794,203999,203914,1628420,1610612758,203084,1628963,1626158,1627741,1628368,0022000055,1,173,176,0,0,1610612758
11,1610612743,1629008,200794,203999,203914,1628420,1610612758,203084,1628963,1626158,1627741,1628368,0022000055,1,177,177,0,0,1610612743
12,1610612743,1629008,200794,203999,203914,1628420,1610612758,203084,1628963,1626158,1627741,1628368,0022000055,1,181,181,0,0,1610612758
13,1610612743,1629008,200794,203999,203914,1628420,1610612758,203084,1628963,1626158,1627741,1628368,0022000055,1,190,193,2,0,1610612743
14,1610612743,1629008,200794,203999,203914,1628420,1610612758,203084,1628963,1626158,1627741,1628368,0022000055,1,200,207,0,2,1610612758
15,1610612743,1629008,200794,203999,203914,1628420,1610612758,203084,1628963,1626158,1627741,1628368,0022000055,1,219,219,2,0,1610612743
16,1610612743,1629008,200794,203999,203914,1628420,1610612758,203084,1628963,1626158,1627741,1628368,0022000055,1,233,233,0,2,1610612758
17,1610612743,1629008,200794,203999,203914,1628420,1610612758,203084,1628963,1626158,1627741,1628368,0022000055,1,247,247,2,0,1610612743
18,1610612743,1629008,200794,203999,203914,1628420,1610612758,203084,1628963,1626158,1627741,1628368,0022000055,1,255,255,0,2,1610612758
19,1610612743,1629008,200794,203999,203914,1628420,1610612758,203084,1628963,1626158,1627741,1628368,0022000055,1,265,265,0,0,1610612743
20,1610612743,1629008,200794,203999,203914,1628420,1610612758,203084,1628963,1626158,1627741,1628368,0022000055,1,277,277,0,2,1610612758
21,1610612743,1629008,200794,203999,203914,1628420,1610612758,203084,1628963,1626158,1627741,1628368,0022000055,1,290,295,0,0,1610612743
22,1610612743,1629008,200794,203999,203914,1628420,1610612758,203084,1628963,1626158,1627741,1628368,0022000055,1,298,298,0,3,1610612758
23,1610612743,1629008,200794,203999,203914,1628420,1610612758,203084,1628963,1626158,1627741,1628368,0022000055,1,326,326,2,0,1610612743
24,1610612743,1629008,200794,203999,203914,1628420,1610612758,203084,1628963,1626158,1627741,1628368,0022000055,1,330,345,0,3,1610612758
25,1610612743,1629008,200794,203999,203914,1628420,1610612758,203084,1628963,1626158,1627741,1628368,0022000055,1,364,375,0,0,1610612743
26,1610612743,1629008,200794,203999,203914,1628420,1610612758,1626158,1627741,1628963,202709,203084,0022000055,1,393,393,0,2,1610612758
27,1610612743,1629008,200794,203999,203914,1628420,1610612758,1626158,1627741,1628963,202709,203084,0022000055,1,407,407,2,0,1610612743
28,1610612743,1629008,200794,203999,203914,1628420,1610612758,1626158,1627741,1628963,202709,203084,0022000055,1,427,427,0,0,1610612758
29,1610612743,1629008,200794,203999,203914,1628420,1610612758,1627741,202355,202357,202709,203084,0022000055,1,437,437,0,0,1610612743
30,1610612743,1628420,200794,203115,203914,203999,1610612758,1627741,202355,202357,202709,203084,0022000055,1,451,451,0,3,1610612758
31,1610612743,1628420,200794,203115,203914,203999,1610612758,1627741,202355,202357,202709,203084,0022000055,1,463,463,2,0,1610612743
32,1610612743,1628420,200794,203115,203914,203999,1610612758,1627741,202355,202357,202709,203084,0022000055,1,471,471,0,0,1610612758
33,1610612743,1628420,200794,203115,203914,203999,1610612758,1628368,202355,202357,202709,203084,0022000055,1,488,491,2,0,1610612743
34,1610612743,1628420,200794,203115,203914,203999,1610612758,1628368,202355,202357,202709,203084,0022000055,1,507,512,0,0,1610612758
35,1610612743,1628420,200794,203115,203914,203999,1610612758,1628368,202355,202357,202709,203084,0022000055,1,514,514,3,0,1610612743
36,1610612743,1628420,200794,203115,203914,203999,1610612758,1628368,202355,202357,202709,203084,0022000055,1,526,528,0,0,1610612758
37,1610612743,1628420,200794,203115,203914,203999,1610612758,1628368,202355,202357,202709,203084,0022000055,1,545,548,0,0,1610612743
38,1610612743,1628420,200794,203115,203914,203999,1610612758,1628368,202355,202357,202709,203084,0022000055,1,553,553,0,3,1610612758
39,1610612743,1628420,200794,203115,203914,203999,1610612758,1628368,202355,202357,202709,203084,0022000055,1,561,561,3,0,1610612743
40,1610612743,1628408,1628420,1630267,203115,203999,1610612758,1628368,1630169,202355,202357,202709,0022000055,1,576,580,0,0,1610612758
41,1610612743,1628408,1628420,1630267,203115,203999,1610612758,1628368,1630169,202355,202357,202709,0022000055,1,595,595,2,0,1610612743
42,1610612743,1628408,1628420,1630267,203115,203999,1610612758,1628368,1630169,202355,202357,202709,0022000055,1,608,613,0,0,1610612758
43,1610612743,1628408,1628420,1630267,203115,203999,1610612758,1628368,1630169,202355,202357,202709,0022000055,1,629,641,0,0,1610612743
44,1610612743,1628392,1628408,1628420,1630267,203115,1610612758,1628368,1630169,202355,202357,202709,0022000055,1,643,643,0,1,1610612758
45,1610612743,1628392,1628408,1629626,1630267,203115,1610612758,1628368,1630169,202355,202357,202709,0022000055,1,658,661,0,0,1610612743
46,1610612743,1628392,1628408,1629626,1630267,203115,1610612758,1628368,1630169,202355,202357,202709,0022000055,1,664,664,0,2,1610612758
47,1610612743,1628392,1628408,1629626,1630267,203115,1610612758,1628368,1630169,202355,202357,202709,0022000055,1,678,681,0,0,1610612743
48,1610612743,1628392,1628408,1629626,1630267,203115,1610612758,1628368,1630169,202355,202357,202709,0022000055,1,689,689,0,2,1610612758
49,1610612743,1628392,1628408,1629626,1630267,203115,1610612758,1628368,1630169,202355,202357,202709,0022000055,1,708,708,2,0,1610612743
50,1610612743,1628392,1628408,1629626,1630267,203115,1610612758,1628368,1630169,202355,202357,202709,0022000055,1,720,720,0,0,1610612743
51,1610612743,203115,1630267,1628408,1628392,1629626,1610612758,1627741,202709,202357,202355,1630169,0022000055,2,720,736,3,0,1610612743
52,1610612743,203115,1630267,1628408,1628392,1629626,1610612758,1627741,202709,202357,202355,1630169,0022000055,2,751,754,0,0,1610612758
53,1610612743,203115,1630267,1628408,1628392,1629626,1610612758,1627741,202709,202357,202355,1630169,0022000055,2,764,764,0,0,1610612743
54,1610612743,203115,1630267,1628408,1628392,1629626,1610612758,1627741,202709,202357,202355,1630169,0022000055,2,777,777,0,3,1610612758
55,1610612743,203115,1630267,1628408,1628392,1629626,1610612758,1627741,202709,202357,202355,1630169,0022000055,2,789,789,1,0,1610612743
56,1610612743,203115,1630267,1628408,1628392,1629626,1610612758,1627741,202709,202357,202355,1630169,0022000055,2,802,802,0,3,1610612758
57,1610612743,203115,1630267,1628408,1628392,1629626,1610612758,1627741,202709,202357,202355,1630169,0022000055,2,803,819,0,0,1610612743
58,1610612743,203115,1630267,1628408,1628392,1629626,1610612758,1627741,1628963,1630169,202357,202709,0022000055,2,842,842,0,3,1610612758
59,1610612743,203115,1630267,1628408,1628392,1629626,1610612758,1627741,1628963,1630169,202357,202709,0022000055,2,857,857,3,0,1610612743
60,1610612743,203115,1630267,1628408,1628392,1629626,1610612758,1627741,1628963,1630169,202357,202709,0022000055,2,866,866,0,0,1610612758
61,1610612743,1628392,1628408,1629008,1630267,203115,1610612758,1627741,1628963,1630169,202357,202709,0022000055,2,881,891,0,0,1610612743
62,1610612743,1628392,1628408,1629008,1630267,203115,1610612758,1627741,1628963,1630169,202357,202709,0022000055,2,894,897,0,0,1610612758
63,1610612743,1628392,1628408,1629008,1630267,203115,1610612758,1627741,1628963,1630169,202357,202709,0022000055,2,897,907,2,0,1610612743
64,1610612743,1628392,1628408,1629008,1630267,203115,1610612758,1627741,1628963,1630169,202357,203084,0022000055,2,925,925,0,2,1610612758
65,1610612743,1628392,1628408,1629008,1630267,203115,1610612758,1627741,1628963,1630169,202357,203084,0022000055,2,944,944,0,0,1610612743
66,1610612743,1628392,1628408,1629008,1630267,203115,1610612758,1627741,1628963,1630169,202357,203084,0022000055,2,960,960,0,3,1610612758
67,1610612743,1628392,1628408,1629008,1630267,203115,1610612758,1627741,1628963,1630169,202357,203084,0022000055,2,973,973,0,0,1610612743
68,1610612743,1628392,1628408,1629008,1630267,203115,1610612758,1627741,1628963,1630169,202357,203084,0022000055,2,981,981,0,0,1610612758
69,1610612743,1628392,1628408,1629008,1630267,203115,1610612758,1627741,1628963,1630169,202357,203084,0022000055,2,988,988,0,0,1610612743
70,1610612743,1628392,1628408,1629008,1630267,203115,1610612758,1627741,1628963,1630169,202357,203084,0022000055,2,991,991,0,0,1610612758
71,1610612743,1628392,1628408,1629008,1630267,203115,1610612758,1627741,1628963,1630169,202357,203084,0022000055,2,994,994,2,0,1610612743
72,1610612743,1628420,1629008,203115,203914,203999,1610612758,1627741,1628963,1630169,202357,203084,0022000055,2,999,1023,0,2,1610612758
73,1610612743,1628420,1629008,203115,203914,203999,1610612758,1626158,1627741,1628963,1630169,203084,0022000055,2,1046,1049,0,0,1610612743
74,1610612743,1628420,1629008,203115,203914,203999,1610612758,1626158,1627741,1628963,1630169,203084,0022000055,2,1057,1060,0,0,1610612758
75,1610612743,1628420,1629008,203115,203914,203999,1610612758,1626158,1627741,1628963,1630169,203084,0022000055,2,1070,1074,2,0,1610612743
76,1610612743,1628420,1629008,200794,203914,203999,1610612758,1626158,1627741,1628368,1628963,203084,0022000055,2,1092,1092,0,3,1610612758
77,1610612743,1628420,1629008,200794,203914,203999,1610612758,1626158,1627741,1628368,1628963,203084,0022000055,2,1113,1113,0,0,1610612743
78,1610612743,1628420,1629008,200794,203914,203999,1610612758,1626158,1627741,1628368,1628963,203084,0022000055,2,1117,1117,0,2,1610612758
79,1610612743,1628420,1629008,200794,203914,203999,1610612758,1626158,1627741,1628368,1628963,203084,0022000055,2,1118,1127,2,0,1610612743
80,1610612743,1628420,1629008,200794,203914,203999,1610612758,1626158,1627741,1628368,1628963,203084,0022000055,2,1141,1141,0,3,1610612758
81,1610612743,1628420,1629008,200794,203914,203999,1610612758,1626158,1627741,1628368,1628963,203084,0022000055,2,1158,1158,2,0,1610612743
82,1610612743,1628420,1629008,200794,203914,203999,1610612758,1626158,1627741,1628368,1628963,203084,0022000055,2,1165,1169,0,2,1610612758
83,1610612743,1628420,1629008,200794,203914,203999,1610612758,1626158,1627741,1628368,1628963,203084,0022000055,2,1184,1197,2,0,1610612743
84,1610612743,1628420,1629008,200794,203914,203999,1610612758,1626158,1627741,1628368,1628963,203084,0022000055,2,1217,1222,0,0,1610612758
85,1610612743,1628420,1629008,200794,203914,203999,1610612758,1626158,1627741,1628368,1628963,203084,0022000055,2,1234,1234,0,0,1610612743
86,1610612743,1628420,1629008,200794,203914,203999,1610612758,1626158,1627741,1628368,1628963,203084,0022000055,2,1234,1256,0,2,1610612758
87,1610612743,1628420,1629008,200794,203914,203999,1610612758,1626158,1627741,1628368,1628963,203084,0022000055,2,1261,1261,0,0,1610612743
88,1610612743,1628420,1629008,200794,203914,203999,1610612758,1626158,1627741,1628368,1628963,203084,0022000055,2,1284,1284,0,2,1610612758
89,1610612743,1628420,1629008,200794,203914,203999,1610612758,1626158,1627741,1628368,1628963,203084,0022000055,2,1296,1296,1,0,1610612743
90,1610612743,1628420,1629008,200794,203914,203999,1610612758,1626158,1627741,1628368,1628963,203084,0022000055,2,1303,1303,0,2,1610612758
91,1610612743,1628420,1629008,200794,203914,203999,1610612758,1626158,1627741,1628368,1628963,203084,0022000055,2,1319,1319,3,0,1610612743
92,1610612743,1628420,1629008,200794,203914,203999,1610612758,1626158,1627741,1628368,1628963,203084,0022000055,2,1328,1328,0,3,1610612758
93,1610612743,1628420,1629008,200794,203914,203999,1610612758,1626158,1627741,1628368,1628963,203084,0022000055,2,1339,1339,2,0,1610612743
94,1610612743,1628420,1629008,200794,203914,203999,1610612758,1626158,1627741,1628368,1628963,203084,0022000055,2,1351,1354,0,0,1610612758
95,1610612743,1628420,1629008,200794,203914,203999,1610612758,1626158,1627741,1628368,1628963,203084,0022000055,2,1364,1364,0,0,1610612743
96,1610612743,1628420,1629008,200794,203914,203999,1610612758,1626158,1627741,1628368,1628963,203084,0022000055,2,1379,1379,0,2,1610612758
97,1610612743,1628420,1629008,200794,203914,203999,1610612758,1626158,1627741,1628368,1628963,203084,0022000055,2,1398,1401,0,0,1610612743
98,1610612743,1628420,1629008,200794,203914,203999,1610612758,1626158,1627741,1628368,1628963,203084,0022000055,2,1407,1407,0,2,1610612758
99,1610612743,1628420,1629008,200794,203914,203999,1610612758,1626158,1627741,1628368,1628963,203084,0022000055,2,1419,1419,3,0,1610612743
100,1610612743,1628420,1629008,200794,203914,203999,1610612758,1626158,1627741,1628368,1628963,203084,0022000055,2,1440,1440,0,3,1610612758
101,1610612743,1628420,1629008,200794,203914,203999,1610612758,1626158,1627741,1628368,1628963,203084,0022000055,2,1440,1440,0,0,306
102,1610612743,1629008,200794,203999,203914,1628420,1610612758,203084,1628963,1626158,1627741,1628368,0022000055,3,1440,1461,0,0,1610612743
103,1610612743,1629008,200794,203999,203914,1628420,1610612758,203084,1628963,1626158,1627741,1628368,0022000055,3,1462,1464,0,0,1610612758
104,1610612743,1629008,200794,203999,203914,1628420,1610612758,203084,1628963,1626158,1627741,1628368,0022000055,3,1482,1482,2,0,1610612743
105,1610612743,1629008,200794,203999,203914,1628420,1610612758,203084,1628963,1626158,1627741,1628368,0022000055,3,1500,1500,0,0,1610612758
106,1610612743,1629008,200794,203999,203914,1628420,1610612758,203084,1628963,1626158,1627741,1628368,0022000055,3,1512,1512,0,0,1610612743
107,1610612743,1629008,200794,203999,203914,1628420,1610612758,203084,1628963,1626158,1627741,1628368,0022000055,3,1527,1527,0,2,1610612758
108,1610612743,1629008,200794,203999,203914,1628420,1610612758,203084,1628963,1626158,1627741,1628368,0022000055,3,1536,1536,0,0,1610612743
109,1610612743,1629008,200794,203999,203914,1628420,1610612758,203084,1628963,1626158,1627741,1628368,0022000055,3,1557,1563,0,2,1610612758
110,1610612743,1629008,200794,203999,203914,1628420,1610612758,203084,1628963,1626158,1627741,1628368,0022000055,3,1570,1579,3,0,1610612743
111,1610612743,1629008,200794,203999,203914,1628420,1610612758,203084,1628963,1626158,1627741,1628368,0022000055,3,1600,1603,0,0,1610612758
112,1610612743,1629008,200794,203999,203914,1628420,1610612758,203084,1628963,1626158,1627741,1628368,0022000055,3,1609,1609,2,0,1610612743
113,1610612743,1629008,200794,203999,203914,1628420,1610612758,203084,1628963,1626158,1627741,1628368,0022000055,3,1609,1622,0,3,1610612758
114,1610612743,1629008,200794,203999,203914,1628420,1610612758,203084,1628963,1626158,1627741,1628368,0022000055,3,1645,1645,2,0,1610612743
115,1610612743,1629008,200794,203999,203914,1628420,1610612758,203084,1628963,1626158,1627741,1628368,0022000055,3,1655,1658,0,0,1610612758
116,1610612743,1629008,200794,203999,203914,1628420,1610612758,203084,1628963,1626158,1627741,1628368,0022000055,3,1664,1669,0,0,1610612743
117,1610612743,1629008,200794,203999,203914,1628420,1610612758,203084,1628963,1626158,1627741,1628368,0022000055,3,1673,1675,0,0,1610612758
118,1610612743,1629008,200794,203999,203914,1628420,1610612758,203084,1628963,1626158,1627741,1628368,0022000055,3,1686,1686,2,0,1610612743
119,1610612743,1629008,200794,203999,203914,1628420,1610612758,203084,1628963,1626158,1627741,1628368,0022000055,3,1706,1711,0,0,1610612758
120,1610612743,1629008,200794,203999,203914,1628420,1610612758,203084,1628963,1626158,1627741,1628368,0022000055,3,1713,1727,2,0,1610612743
121,1610612743,1629008,200794,203999,203914,1628420,1610612758,203084,1628963,1626158,1627741,1628368,0022000055,3,1727,1745,0,0,1610612758
122,1610612743,1629008,200794,203999,203914,1628420,1610612758,203084,1628963,1626158,1627741,1628368,0022000055,3,1748,1748,2,0,1610612743
123,1610612743,1629008,200794,203999,203914,1628420,1610612758,1626158,1627741,1628963,202709,203084,0022000055,3,1764,1764,0,0,1610612758
124,1610612743,1629008,200794,203999,203914,1628420,1610612758,1626158,1627741,1628963,202709,203084,0022000055,3,1768,1768,2,0,1610612743
125,1610612743,1629008,200794,203999,203914,1628420,1610612758,1626158,1627741,1628963,202709,203084,0022000055,3,1768,1793,0,0,1610612758
126,1610612743,1629008,200794,203999,203914,1628420,1610612758,1627741,202355,202357,202709,203084,0022000055,3,1795,1795,3,0,1610612743
127,1610612743,1629008,200794,203999,203914,1628420,1610612758,1627741,202355,202357,202709,203084,0022000055,3,1818,1822,0,0,1610612758
128,1610612743,1629008,200794,203999,203914,1628420,1610612758,1627741,202355,202357,202709,203084,0022000055,3,1830,1830,3,0,1610612743
129,1610612743,1629008,200794,203999,203914,1628420,1610612758,1627741,202355,202357,202709,203084,0022000055,3,1851,1854,0,0,1610612758
130,1610612743,1629008,200794,203999,203914,1628420,1610612758,1627741,202355,202357,202709,203084,0022000055,3,1867,1870,0,0,1610612743
131,1610612743,1629008,200794,203999,203914,1628420,1610612758,1627741,202355,202357,202709,203084,0022000055,3,1877,1880,0,2,1610612758
132,1610612743,1629008,200794,203999,203914,1628420,1610612758,1627741,202355,202357,202709,203084,0022000055,3,1895,1895,2,0,1610612743
133,1610612743,1628420,1629008,203115,203914,203999,1610612758,1628368,1630169,202355,202357,202709,0022000055,3,1910,1910,0,0,1610612758
134,1610612743,1628420,1629008,203115,203914,203999,1610612758,1628368,1630169,202355,202357,202709,0022000055,3,1910,1910,2,0,1610612743
135,1610612743,1628408,1628420,1629008,203115,203999,1610612758,1628368,1630169,202355,202357,202709,0022000055,3,1927,1932,0,0,1610612758
136,1610612743,1628408,1628420,1629008,203115,203999,1610612758,1628368,1630169,202355,202357,202709,0022000055,3,1936,1936,0,0,1610612743
137,1610612743,1628408,1628420,1629008,203115,203999,1610612758,1628368,1630169,202355,202357,202709,0022000055,3,1944,1944,0,2,1610612758
138,1610612743,1628408,1628420,1629008,203115,203999,1610612758,1628368,1630169,202355,202357,202709,0022000055,3,1973,1973,2,0,1610612743
139,1610612743,1628408,1628420,1629008,203115,203999,1610612758,1628368,1630169,202355,202357,202709,0022000055,3,1981,1981,0,2,1610612758
140,1610612743,1628408,1628420,1629008,203115,203999,1610612758,1628368,1630169,202355,202357,202709,0022000055,3,1998,1998,3,0,1610612743
141,1610612743,1628408,1628420,1629008,203115,203999,1610612758,1628368,1630169,202355,202357,202709,0022000055,3,2013,2013,0,2,1610612758
142,1610612743,1628408,1628420,1629008,203115,203999,1610612758,1628368,1630169,202355,202357,202709,0022000055,3,2038,2038,2,0,1610612743
143,1610612743,1628408,1629008,1630267,203115,203999,1610612758,1628368,1630169,202355,202357,202709,0022000055,3,2053,2053,0,0,1610612758
144,1610612743,1628408,1629008,1630267,203115,203999,1610612758,1628368,1630169,202355,202357,202709,0022000055,3,2061,2061,3,0,1610612743
145,1610612743,1628408,1629008,1630267,203115,203999,1610612758,1628368,1630169,202355,202357,202709,0022000055,3,2077,2077,0,2,1610612758
146,1610612743,1628408,1629008,1630267,203115,203999,1610612758,1628368,1630169,202355,202357,202709,0022000055,3,2106,2108,0,0,1610612743
147,1610612743,1628408,1629008,1630267,203115,203999,1610612758,1628368,1630169,202355,202357,202709,0022000055,3,2118,2121,0,1,1610612758
148,1610612743,1628408,1629008,1630267,203115,203999,1610612758,1628368,1630169,202355,202357,202709,0022000055,3,2127,2131,0,0,1610612743
149,1610612743,1628408,1629008,1630267,203115,203999,1610612758,1628368,1630169,202355,202357,202709,0022000055,3,2147,2147,0,2,1610612758
150,1610612743,1628408,1629008,1630267,203115,203999,1610612758,1628368,1630169,202355,202357,202709,0022000055,3,2153,2153,1,0,1610612743
151,1610612743,1628392,1628408,1630267,203115,203914,1610612758,1628368,1630169,202357,202709,203084,0022000055,3,2156,2156,0,2,1610612758
152,1610612743,1628408,1630267,203115,203914,203999,1610612758,1626158,1628368,1630169,202709,203084,0022000055,3,2160,2160,0,0,1610612758
153,1610612743,1629008,203115,1630267,1628408,1628392,1610612758,1626158,1628368,202709,202357,1630169,0022000055,4,2160,2170,0,2,1610612758
154,1610612743,1629008,203115,1630267,1628408,1628392,1610612758,1626158,1628368,202709,202357,1630169,0022000055,4,2187,2194,2,0,1610612743
155,1610612743,1629008,203115,1630267,1628408,1628392,1610612758,1626158,1628368,202709,202357,1630169,0022000055,4,2207,2209,0,0,1610612758
156,1610612743,1629008,203115,1630267,1628408,1628392,1610612758,1626158,1628368,202709,202357,1630169,0022000055,4,2213,2217,0,0,1610612743
157,1610612743,1629008,203115,1630267,1628408,1628392,1610612758,1626158,1628368,202709,202357,1630169,0022000055,4,2224,2227,0,0,1610612758
158,1610612743,1629008,203115,1630267,1628408,1628392,1610612758,1626158,1628368,202709,202357,1630169,0022000055,4,2231,2231,0,0,1610612743
159,1610612743,1629008,203115,1630267,1628408,1628392,1610612758,1626158,1628368,202709,202357,1630169,0022000055,4,2241,2244,0,0,1610612758
160,1610612743,1629008,203115,1630267,1628408,1628392,1610612758,1626158,1628368,202709,202357,1630169,0022000055,4,2248,2250,0,0,1610612743
161,1610612743,1629008,203115,1630267,1628408,1628392,1610612758,1626158,1628368,202709,202357,1630169,0022000055,4,2257,2269,0,0,1610612758
162,1610612743,1629008,203115,1630267,1628408,1628392,1610612758,1626158,1628368,202709,202357,1630169,0022000055,4,2282,2282,3,0,1610612743
163,1610612743,1629008,203115,1630267,1628408,1628392,1610612758,1626158,1628368,202709,202357,1630169,0022000055,4,2301,2301,0,3,1610612758
164,1610612743,1629008,203115,1630267,1628408,1628392,1610612758,1626158,1628368,202709,202357,1630169,0022000055,4,2312,2312,0,0,1610612743
165,1610612743,1629008,203115,1630267,1628408,1628392,1610612758,1626158,1628368,202709,202357,1630169,0022000055,4,2322,2329,0,3,1610612758
166,1610612743,1629008,203115,1630267,1628408,1628392,1610612758,1626158,1628368,202709,202357,1630169,0022000055,4,2330,2342,0,0,1610612743
167,1610612743,1628408,1628420,1629008,203115,203999,1610612758,1626158,1628368,202709,202357,1630169,0022000055,4,2350,2350,0,2,1610612758
168,1610612743,1628408,1628420,1629008,203115,203999,1610612758,1626158,1628368,202709,202357,1630169,0022000055,4,2374,2374,0,0,1610612743
169,1610612743,1628408,1628420,1629008,203115,203999,1610612758,1626158,1628368,202709,202357,1630169,0022000055,4,2387,2387,0,0,1610612758
170,1610612743,1628408,1628420,1629008,203115,203999,1610612758,1626158,1628368,202709,202357,1630169,0022000055,4,2396,2396,2,0,1610612743
171,1610612743,1628408,1628420,1629008,203115,203999,1610612758,1626158,1628368,202709,202357,1630169,0022000055,4,2418,2423,0,0,1610612758
172,1610612743,1628408,1628420,1629008,203115,203999,1610612758,1626158,1628368,202709,202357,1630169,0022000055,4,2427,2437,0,0,1610612743
173,1610612743,1628408,1628420,1629008,203115,203999,1610612758,1626158,1628368,202709,202357,1630169,0022000055,4,2449,2449,0,3,1610612758
174,1610612743,1628420,1629008,203115,203914,203999,1610612758,1626158,1627741,1630169,202357,202709,0022000055,4,2457,2468,1,0,1610612743
175,1610612743,1628420,1629008,203115,203914,203999,1610612758,1626158,1627741,1630169,202709,203084,0022000055,4,2481,2484,0,0,1610612758
176,1610612743,1628420,1629008,203115,203914,203999,1610612758,1626158,1627741,1630169,202709,203084,0022000055,4,2487,2487,0,0,1610612743
177,1610612743,1628420,1629008,203115,203914,203999,1610612758,1626158,1627741,1630169,202709,203084,0022000055,4,2494,2494,0,2,1610612758
178,1610612743,1628420,1629008,203115,203914,203999,1610612758,1626158,1627741,1630169,202709,203084,0022000055,4,2515,2516,0,0,1610612743
179,1610612743,1628420,1629008,203115,203914,203999,1610612758,1626158,1627741,1630169,202709,203084,0022000055,4,2525,2525,0,2,1610612758
180,1610612743,1628420,1629008,203115,203914,203999,1610612758,1626158,1627741,1630169,202709,203084,0022000055,4,2544,2547,0,0,1610612743
181,1610612743,1628420,1629008,203115,203914,203999,1610612758,1626158,1627741,1630169,202709,203084,0022000055,4,2550,2550,0,0,1610612758
182,1610612743,1628420,1629008,203115,203914,203999,1610612758,1626158,1627741,1630169,202709,203084,0022000055,4,2560,2578,0,0,1610612743
183,1610612743,1628420,1629008,200794,203914,203999,1610612758,1626158,1627741,1630169,202709,203084,0022000055,4,2597,2599,0,0,1610612758
184,1610612743,1628420,1629008,200794,203914,203999,1610612758,1626158,1627741,1630169,202709,203084,0022000055,4,2599,2618,0,0,1610612743
185,1610612743,1628420,1629008,200794,203914,203999,1610612758,1626158,1627741,1630169,202709,203084,0022000055,4,2621,2621,0,2,1610612758
186,1610612743,1628420,1629008,200794,203914,203999,1610612758,1626158,1627741,1630169,202709,203084,0022000055,4,2622,2642,0,0,1610612743
187,1610612743,1628420,1629008,200794,203914,203999,1610612758,1626158,1627741,1628368,1630169,203084,0022000055,4,2654,2654,0,2,1610612758
188,1610612743,1628420,1629008,200794,203914,203999,1610612758,1626158,1627741,1628368,1630169,203084,0022000055,4,2675,2675,0,0,1610612743
189,1610612743,1628420,1629008,200794,203914,203999,1610612758,1626158,1627741,1628368,1630169,203084,0022000055,4,2675,2696,0,3,1610612758
190,1610612743,1628420,1629008,200794,203914,203999,1610612758,1626158,1627741,1628368,1630169,203084,0022000055,4,2711,2714,0,0,1610612743
191,1610612743,1628420,1629008,200794,203914,203999,1610612758,1626158,1627741,1628368,1630169,203084,0022000055,4,2727,2734,0,0,1610612758
192,1610612743,1628420,1629008,200794,203914,203999,1610612758,1626158,1627741,1628368,1630169,203084,0022000055,4,2742,2742,3,0,1610612743
193,1610612743,1628420,1629008,200794,203914,203999,1610612758,1626158,1627741,1628368,1630169,203084,0022000055,4,2766,2770,0,0,1610612758
194,1610612743,1628420,1629008,200794,203914,203999,1610612758,1626158,1627741,1628368,1630169,203084,0022000055,4,2780,2780,2,0,1610612743
195,1610612743,1628420,1629008,200794,203914,203999,1610612758,1626158,1627741,1628368,1630169,203084,0022000055,4,2803,2805,0,0,1610612758
196,1610612743,1628420,1629008,200794,203914,203999,1610612758,1626158,1627741,1628368,1630169,203084,0022000055,4,2811,2815,0,0,1610612743
197,1610612743,1628420,1629008,200794,203914,203999,1610612758,1626158,1627741,1628368,1630169,203084,0022000055,4,2829,2829,0,2,1610612758
198,1610612743,1628420,1629008,200794,203914,203999,1610612758,1626158,1627741,1628368,1630169,203084,0022000055,4,2829,2829,0,0,1610612743
199,1610612743,1628420,1629008,200794,203914,203999,1610612758,1626158,1627741,1628368,1630169,203084,0022000055,4,2848,2848,0,3,1610612758
200,1610612743,1628420,1629008,200794,203914,203999,1610612758,1626158,1627741,1628368,1630169,203084,0022000055,4,2854,2854,2,0,1610612743
201,1610612743,1628420,1629008,200794,203914,203999,1610612758,1626158,1627741,1628368,1630169,203084,0022000055,4,2856,2878,0,0,1610612758
