,TEAM_ID_1,TEAM_1_PLAYERS,TEAM_ID_2,TEAM_2_PLAYERS,PERIOD
0,1610612765,[1629004  203503  203083 1628971  204025],1610612762,[ 202711 1626220  203497  204060 1628378],1
1,1610612765,[1628971  201565 1626174  204038 1627748],1610612762,[ 204060 1628378  203903 1628396 1629752],2
2,1610612765,[1629004  203503  203083 1628971  204025],1610612762,[ 202711 1626220  203497  204060 1628378],3
3,1610612765,[1629004  201565 1626174  204038 1627748],1610612762,[1628378 1626144 1627777  203903 1628396],4
