,stint_end,t1_players,t2_pm,t2_points_scored,stint_start,t1_pm,t1_points_scored,t2_id,t1_id,t2_players,margin_per_100,num_poss
0,415,"[1629008, 203932, 203999, 203115, 1627750]",-8,12,0,8,20,1610612746,1610612743,"[202695, 202694, 1627826, 202331, 202704]",32.0,25.0
1,503,"[1629008, 203932, 203999, 203115, 1627750]",-13,14,416,13,27,1610612746,1610612743,"[202695, 202694, 1627826, 202331, 202704]",40.625,32.0
2,547,"[1629008, 1630267, 203115, 203932, 203999]",-13,14,504,13,27,1610612746,1610612743,"[202695, 202694, 1627826, 202331, 202704]",37.142857142857146,35.0
3,623,"[1628408, 1630267, 203115, 203932, 203999]",-11,18,548,11,29,1610612746,1610612743,"[1627826, 1629611, 201587, 202694, 202695]",26.82926829268293,41.0
4,718,"[1628408, 1630267, 200794, 203932, 203999]",-13,20,624,13,33,1610612746,1610612743,"[1627826, 1628379, 1629611, 201587, 202695]",27.083333333333332,48.0
5,994,"[1628408, 1630267, 200794, 203210, 203932]",-13,31,719,13,44,1610612746,1610612743,"[1628379, 1629611, 201587, 202335, 202695]",20.0,65.0
6,1017,"[1627750, 1630267, 1628408, 200794, 203210]",-16,31,995,16,47,1610612746,1610612743,"[202331, 201587, 1629611, 1628379, 202335]",24.242424242424242,66.0
7,1040,"[1627750, 1629008, 1630267, 203932, 203999]",-16,31,1018,16,47,1610612746,1610612743,"[1627826, 1628379, 1629611, 202331, 202695]",23.52941176470588,68.0
8,1067,"[1629008, 1630267, 203115, 203932, 203999]",-15,33,1041,15,48,1610612746,1610612743,"[1627826, 1629611, 202331, 202694, 202695]",21.428571428571427,70.0
9,1210,"[1627750, 1629008, 203115, 203932, 203999]",-14,41,1068,14,55,1610612746,1610612743,"[1627826, 1629611, 202331, 202694, 202695]",18.181818181818183,77.0
10,1409,"[1627750, 1629008, 203115, 203932, 203999]",-15,46,1211,15,61,1610612746,1610612743,"[1627826, 201587, 202694, 202695, 202704]",16.853932584269664,89.0
11,1437,"[1627750, 1629008, 203115, 203932, 203999]",-15,49,1410,15,64,1610612746,1610612743,"[201587, 202331, 202694, 202695, 202704]",16.483516483516482,91.0
12,1737,"[1627750, 1628408, 1629008, 203115, 203932]",-18,55,1438,18,73,1610612746,1610612743,"[201587, 202331, 202694, 202695, 202704]",16.822429906542055,107.0
13,1822,"[1629008, 203932, 203999, 203115, 1627750]",-14,59,1738,14,73,1610612746,1610612743,"[202695, 202694, 1627826, 202331, 202704]",12.389380530973451,113.0
14,1925,"[1629008, 203932, 203999, 203115, 1627750]",-9,69,1823,9,78,1610612746,1610612743,"[202331, 202335, 202694, 202695, 202704]",7.5,120.0
15,2057,"[1629008, 1630267, 203115, 203932, 203999]",-14,69,1926,14,83,1610612746,1610612743,"[1629611, 202335, 202694, 202695, 202704]",10.852713178294573,129.0
16,2090,"[1628408, 1630267, 203115, 203932, 203999]",-13,70,2058,13,83,1610612746,1610612743,"[1629611, 201587, 202335, 202694, 202695]",10.0,130.0
17,2154,"[1627750, 1628408, 1630267, 203932, 203999]",-13,70,2091,13,83,1610612746,1610612743,"[1628379, 1629611, 201587, 202335, 202695]",9.701492537313433,134.0
18,2393,"[1627750, 1628408, 1630267, 200794, 203932]",-10,76,2155,10,86,1610612746,1610612743,"[1628379, 1629611, 201587, 202335, 202695]",6.802721088435375,147.0
19,2440,"[1627750, 1630267, 1628408, 200794, 203210]",-5,81,2394,5,86,1610612746,1610612743,"[1627826, 202331, 201587, 1629611, 1628379]",3.3333333333333335,150.0
20,2522,"[1627750, 1629008, 200794, 203115, 203999]",-3,83,2441,3,86,1610612746,1610612743,"[1627826, 202331, 201587, 1629611, 1628379]",1.948051948051948,154.0
21,2723,"[1627750, 1629008, 203115, 203932, 203999]",-7,88,2523,7,95,1610612746,1610612743,"[1627826, 1628379, 1629611, 201587, 202695]",4.242424242424243,165.0
22,2754,"[1627750, 1629008, 203115, 203932, 203999]",-7,88,2724,7,95,1610612746,1610612743,"[1627826, 1629611, 201587, 202695, 202704]",4.216867469879518,166.0
23,2854,"[1627750, 1629008, 203115, 203932, 203999]",-10,92,2755,10,102,1610612746,1610612743,"[1627826, 1629611, 201587, 202331, 202695]",5.747126436781609,174.0
24,2866,"[1627750, 1629008, 203115, 203932, 203999]",-11,92,2855,11,103,1610612746,1610612743,"[1629611, 201587, 202331, 202694, 202695]",6.2857142857142865,175.0
25,9999999,"[1627750, 1629008, 1630267, 203115, 203932]",-9,94,2867,9,103,1610612746,1610612743,"[1628379, 201587, 202331, 202694, 202695]",5.113636363636364,176.0
