,stint_start,t1_points_scored,t2_pm,stint_end,t1_id,t2_points_scored,t1_players,t2_id,t1_pm,t2_players,margin_per_100,num_poss
0,0,9,-1,210,1610612762,8,"[202711, 1626220, 203497, 204060, 1628378]",1610612744,1,"[203922, 203110, 1626161, 1627814, 1626156]",8.333333333333332,12.0
1,211,15,-5,310,1610612762,10,"[202711, 1626220, 203497, 204060, 1628378]",1610612744,5,"[203922, 203110, 1626161, 1627814, 1626156]",26.31578947368421,19.0
2,311,17,-5,415,1610612762,12,"[202711, 1626220, 203497, 204060, 1628378]",1610612744,5,"[1626156, 1627737, 1627814, 203110, 203922]",20.833333333333336,24.0
3,416,19,-7,486,1610612762,12,"[1626220, 202711, 203497, 203903, 204060]",1610612744,7,"[1626156, 1627737, 1627814, 203110, 203922]",25.0,28.0
4,487,19,-7,501,1610612762,12,"[1627777, 202711, 203497, 203903, 204060]",1610612744,7,"[1627737, 1627814, 1628980, 202692, 203110]",24.137931034482758,29.0
5,502,24,-12,574,1610612762,12,"[1627777, 201144, 202711, 203497, 203903]",1610612744,12,"[1627737, 1627814, 1628980, 1629672, 202692]",35.294117647058826,34.0
6,575,25,-13,585,1610612762,12,"[1627777, 201144, 202711, 203497, 203903]",1610612744,13,"[1627737, 1628980, 1629672, 1629673, 202692]",37.142857142857146,35.0
7,586,31,-14,714,1610612762,17,"[1626220, 1628396, 201144, 202711, 203903]",1610612744,14,"[1627737, 1628980, 1629672, 1629673, 202692]",33.33333333333333,42.0
8,715,38,-13,918,1610612762,25,"[1626220, 1628378, 1628396, 201144, 203903]",1610612744,13,"[1627737, 1628980, 1629672, 1629673, 202692]",23.636363636363637,55.0
9,919,40,-13,1011,1610612762,27,"[204060, 1628378, 203903, 1627777, 1628396]",1610612744,13,"[1626156, 202692, 1629672, 1629673, 1629016]",21.666666666666668,60.0
10,1012,42,-15,1035,1610612762,27,"[1627777, 201144, 203497, 203903, 204060]",1610612744,15,"[1626156, 202692, 1629672, 1629673, 1629016]",24.59016393442623,61.0
11,1036,48,-17,1139,1610612762,31,"[1626220, 201144, 202711, 203497, 203903]",1610612744,17,"[1626156, 1626161, 1629016, 202692, 203922]",25.0,68.0
12,1140,50,-16,1225,1610612762,34,"[1626220, 201144, 202711, 203497, 203903]",1610612744,16,"[1626156, 1626161, 1627814, 1629016, 203922]",21.91780821917808,73.0
13,1226,53,-17,1274,1610612762,36,"[1626220, 201144, 202711, 203497, 203903]",1610612744,17,"[1626161, 1627814, 202692, 203110, 203922]",21.518987341772153,79.0
14,1275,63,-20,1433,1610612762,43,"[1626220, 1628378, 202711, 203497, 204060]",1610612744,20,"[1626161, 1627814, 202692, 203110, 203922]",22.22222222222222,90.0
15,1434,65,-22,1438,1610612762,43,"[1626220, 1628378, 202711, 203497, 204060]",1610612744,22,"[1626156, 1627814, 202692, 203110, 203922]",24.175824175824175,91.0
16,1439,82,-30,1771,1610612762,52,"[1628378, 202711, 203497, 203903, 204060]",1610612744,30,"[1626156, 1627814, 202692, 203110, 203922]",26.548672566371685,113.0
17,1772,82,-30,1794,1610612762,52,"[202711, 1626220, 203497, 204060, 1628378]",1610612744,30,"[203922, 203110, 1626161, 1627814, 1626156]",26.08695652173913,115.0
18,1795,82,-28,1830,1610612762,54,"[1627777, 202711, 203497, 203903, 204060]",1610612744,28,"[203922, 203110, 1626161, 1627814, 1626156]",23.728813559322035,118.0
19,1831,89,-28,1941,1610612762,61,"[1627777, 202711, 203497, 203903, 204060]",1610612744,28,"[1626156, 1627814, 1629672, 203110, 203922]",22.22222222222222,126.0
20,1942,97,-31,2084,1610612762,66,"[1627777, 202711, 203497, 203903, 204060]",1610612744,31,"[1628980, 1629672, 202692, 203110, 203922]",23.134328358208954,134.0
21,2085,100,-31,2158,1610612762,69,"[1627777, 201144, 202711, 203497, 203903]",1610612744,31,"[1628980, 1629672, 202692, 203110, 203922]",22.142857142857142,140.0
22,2159,104,-33,2310,1610612762,71,"[1627777, 201144, 202711, 203497, 203903]",1610612744,33,"[1628980, 1629672, 1629673, 202692, 203110]",22.2972972972973,148.0
23,2311,108,-33,2379,1610612762,75,"[1626220, 1628378, 203903, 201144, 202334]",1610612744,33,"[1626156, 1627737, 202692, 1629672, 1629673]",21.29032258064516,155.0
24,2380,108,-31,2425,1610612762,77,"[1626144, 1626220, 201144, 202334, 203903]",1610612744,31,"[1626156, 1627737, 202692, 1629672, 1629673]",19.49685534591195,159.0
25,2426,112,-33,2520,1610612762,79,"[1626144, 1626220, 201144, 202334, 203903]",1610612744,33,"[1626156, 1627737, 1628980, 1629016, 1629673]",19.879518072289155,166.0
26,2521,115,-30,2575,1610612762,85,"[1626144, 1627777, 1629730, 201144, 202334]",1610612744,30,"[1627814, 1628980, 1629016, 1629672, 1629673]",17.543859649122805,171.0
27,2576,129,-35,2858,1610612762,94,"[1626144, 1627777, 1629730, 1629752, 202334]",1610612744,35,"[1627814, 1628980, 1629016, 1629672, 1629673]",18.229166666666664,192.0
28,2859,129,-33,9999999,1610612762,96,"[1626144, 1627777, 1628396, 1629730, 1629752]",1610612744,33,"[1627737, 1628980, 1629016, 1629672, 1629673]",17.010309278350515,194.0
