,t2_players,stint_start,t1_id,t2_points_scored,t1_pm,t2_pm,stint_end,t2_id,t1_points_scored,t1_players,margin_per_100,num_poss
0,"[201142, 1627761, 200746, 201988, 201935]",0,1610612756,12,9,-9,452,1610612751,21,"[1628969, 203109, 1629028, 1626164, 101108]",27.27272727272727,33.0
1,"[201142, 1627761, 200746, 201988, 201935]",453,1610612756,15,10,-10,540,1610612751,25,"[1628969, 203109, 1629028, 1626164, 101108]",25.64102564102564,39.0
2,"[1628971, 1630560, 200746, 201142, 201935]",541,1610612756,15,12,-12,569,1610612751,27,"[1626164, 1626166, 1628969, 1629028, 1629661]",29.268292682926827,41.0
3,"[1628971, 1630560, 200794, 201142, 201935]",570,1610612756,20,14,-14,719,1610612751,34,"[1626164, 1626166, 1628969, 1629661, 201580]",26.923076923076923,52.0
4,"[1628971, 1630560, 200794, 201142, 201988]",720,1610612756,25,15,-15,884,1610612751,40,"[1626164, 1626166, 1629013, 1629661, 201580]",24.193548387096776,62.0
5,"[201988, 201935, 200794, 1628975, 201949]",885,1610612756,25,17,-17,909,1610612751,42,"[1628969, 1629661, 1626166, 201580, 1629013]",26.5625,64.0
6,"[201988, 201935, 200794, 1628975, 201949]",910,1610612756,29,19,-19,1028,1610612751,48,"[101108, 1628969, 1629013, 1629661, 201580]",26.76056338028169,71.0
7,"[1627761, 200794, 201142, 201935, 201949]",1029,1610612756,35,16,-16,1147,1610612751,51,"[101108, 1628969, 1629013, 1629661, 201580]",19.51219512195122,82.0
8,"[1627761, 200746, 201142, 201935, 201949]",1148,1610612756,37,14,-14,1228,1610612751,51,"[101108, 1628969, 1629013, 1629028, 1629661]",16.091954022988507,87.0
9,"[1627761, 200746, 201142, 201949, 201988]",1229,1610612756,39,12,-12,1251,1610612751,51,"[101108, 1626164, 1628969, 1629028, 203109]",13.636363636363635,88.0
10,"[1627761, 200746, 201142, 201949, 201988]",1252,1610612756,39,12,-12,1266,1610612751,51,"[101108, 1626164, 1626166, 1629028, 203109]",13.48314606741573,89.0
11,"[1627761, 200746, 201142, 201935, 201988]",1267,1610612756,44,7,-7,1340,1610612751,51,"[101108, 1626164, 1626166, 1629028, 203109]",7.446808510638298,94.0
12,"[1627761, 200746, 201142, 201935, 201949]",1341,1610612756,46,8,-8,1439,1610612751,54,"[101108, 1626164, 1626166, 1629028, 203109]",8.0,100.0
13,"[1627761, 200746, 201142, 201935, 201949]",1440,1610612756,61,16,-16,1822,1610612751,77,"[101108, 1626164, 1628969, 1629028, 203109]",12.8,125.0
14,"[201142, 1627761, 200746, 201988, 201935]",1823,1610612756,61,18,-18,1904,1610612751,79,"[1628969, 203109, 1629028, 1626164, 101108]",13.740458015267176,131.0
15,"[1627761, 1630560, 200746, 201142, 201935]",1905,1610612756,63,18,-18,1931,1610612751,81,"[1628969, 203109, 1629028, 1626164, 101108]",13.533834586466165,133.0
16,"[1627761, 1630560, 200746, 201142, 201935]",1932,1610612756,63,18,-18,1983,1610612751,81,"[1626164, 1626166, 1628969, 1629028, 1629661]",13.138686131386862,137.0
17,"[1630560, 200746, 201142, 201949, 201988]",1984,1610612756,70,20,-20,2150,1610612751,90,"[101108, 1626166, 1628969, 1629028, 1629661]",13.422818791946309,149.0
18,"[1630560, 200746, 201142, 201949, 201988]",2151,1610612756,72,18,-18,2159,1610612751,90,"[101108, 1626166, 1629013, 1629661, 201580]",12.0,150.0
19,"[1627761, 1628971, 200746, 201142, 201949]",2160,1610612756,77,21,-21,2273,1610612751,98,"[101108, 1626166, 1629013, 1629661, 201580]",13.043478260869565,161.0
20,"[201142, 201988, 201935, 1630560, 201949]",2274,1610612756,77,21,-21,2314,1610612751,98,"[1628969, 1629661, 1626166, 201580, 1629013]",12.804878048780488,164.0
21,"[1627761, 201142, 201935, 201949, 201988]",2315,1610612756,84,18,-18,2422,1610612751,102,"[1628969, 1629661, 1626166, 201580, 1629013]",10.465116279069768,172.0
22,"[1627761, 201142, 201935, 201949, 201988]",2423,1610612756,86,18,-18,2464,1610612751,104,"[1626164, 1626166, 1628969, 201580, 203109]",10.227272727272728,176.0
23,"[1627761, 201142, 201935, 201949, 201988]",2465,1610612756,94,12,-12,2585,1610612751,106,"[101108, 1626166, 1628969, 201580, 203109]",6.521739130434782,184.0
24,"[1627761, 201142, 201935, 201949, 201988]",2586,1610612756,103,7,-7,2841,1610612751,110,"[101108, 1626166, 1628969, 1629028, 203109]",3.5175879396984926,199.0
25,"[1627761, 201142, 201935, 201949, 201988]",2842,1610612756,105,6,-6,2860,1610612751,111,"[101108, 1626164, 1628969, 1629028, 203109]",2.9850746268656714,201.0
26,"[1627761, 201142, 201935, 201949, 201988]",2861,1610612756,107,6,-6,9999999,1610612751,113,"[101108, 1626164, 1628969, 1629661, 203109]",2.955665024630542,203.0
