,TEAM_ID_1,TEAM_1_PLAYERS,TEAM_ID_2,TEAM_2_PLAYERS,PERIOD
0,1610612754,[ 202711  201152 1626167  202709  201954],1610612740,[ 203121 1629026 1626143  201950 1628402],1
1,1610612754,[1627734 1628988 1628410  201936 1628388],1610612740,[1626143 1628402 1627767  203546  204025],2
2,1610612754,[ 202711  201152 1626167  202709  201954],1610612740,[ 203121 1629026 1626143  201950 1628402],3
3,1610612754,[ 201152 1627734 1628988 1628410  201936],1610612740,[ 203121 1626143  201950  203546  203524],4
