,TEAM_ID_1,TEAM_1_PLAYERS,TEAM_ID_2,TEAM_2_PLAYERS,PERIOD
0,1610612741,[ 202066 1630172 1628976  203897 1629632],1610612755,[ 201980  202699  203954  203552 1629680],1
1,1610612741,[1630172  203107 1627756 1627853 1629655],1610612755,[1627788    2730  203118 1630178 1630198],2
2,1610612741,[ 202066 1630172 1628976  203897 1629632],1610612755,[ 201980  202699  203954  203552 1629680],3
3,1610612741,[1629632  203107  201152 1627756 1627853],1610612755,[ 203552 1627788    2730  203118 1630178],4
