,t1_points_scored,stint_end,t2_pm,t1_players,t2_id,t1_id,t2_players,t2_points_scored,t1_pm,stint_start,margin_per_100,num_poss
0,5,165,-5,"[203937, 201229, 202685, 1628415, 1629630]",1610612761,1610612763,"[1628384, 1627783, 201188, 1627832, 200768]",0,5,0,45.45454545454545,11.0
1,11,386,-5,"[203937, 201229, 202685, 1628415, 1629630]",1610612761,1610612763,"[1628384, 1627783, 201188, 1627832, 200768]",6,5,166,19.230769230769234,26.0
2,11,455,0,"[1628415, 1628960, 1629630, 201229, 202685]",1610612761,1610612763,"[1628384, 1627783, 201188, 1627832, 200768]",11,0,387,0.0,30.0
3,20,593,-5,"[1628415, 1628960, 1629630, 1629634, 203476]",1610612761,1610612763,"[1626181, 1627783, 1627832, 200768, 201586]",15,5,456,12.195121951219512,41.0
4,23,662,-6,"[1628960, 1629001, 1629630, 1629634, 203476]",1610612761,1610612763,"[1626181, 1627783, 1627832, 1629056, 201586]",17,6,594,12.76595744680851,47.0
5,25,706,-5,"[1628960, 1629001, 1629630, 1629634, 203476]",1610612761,1610612763,"[1626178, 1626181, 1629056, 200768, 201586]",20,5,663,10.0,50.0
6,32,897,-6,"[1628960, 1629001, 1629630, 1629634, 202685]",1610612761,1610612763,"[1626178, 1626181, 1629056, 200768, 201586]",26,6,707,9.523809523809524,63.0
7,32,967,0,"[203937, 202685, 1628415, 1629634, 1629001]",1610612761,1610612763,"[200768, 201586, 1626181, 1626178, 1629744]",32,0,898,0.0,68.0
8,34,998,0,"[1628415, 1629001, 201229, 202685, 203937]",1610612761,1610612763,"[1628384, 1629056, 1629744, 200768, 201586]",34,0,968,0.0,70.0
9,36,1071,3,"[1628415, 1628960, 201229, 202685, 203937]",1610612761,1610612763,"[1628384, 1629056, 1629744, 200768, 201586]",39,-3,999,-3.9473684210526314,76.0
10,39,1081,0,"[1628415, 1628960, 201229, 202685, 203937]",1610612761,1610612763,"[1627783, 1627832, 1628384, 200768, 201586]",39,0,1072,0.0,77.0
11,39,1157,5,"[1628960, 1629630, 201229, 203476, 203937]",1610612761,1610612763,"[1627783, 1627832, 1628384, 200768, 201188]",44,-5,1082,-5.952380952380952,84.0
12,41,1228,6,"[1628415, 1628960, 1629630, 201229, 203476]",1610612761,1610612763,"[1626181, 1627783, 1627832, 1628384, 201188]",47,-6,1158,-6.741573033707865,89.0
13,43,1308,11,"[1628960, 1629001, 1629630, 201229, 203476]",1610612761,1610612763,"[1626181, 1627783, 1627832, 1628384, 201188]",54,-11,1229,-11.458333333333332,96.0
14,54,1439,6,"[1628960, 1629001, 1629630, 1629634, 202685]",1610612761,1610612763,"[1626181, 1627783, 1627832, 1628384, 201188]",60,-6,1309,-5.660377358490567,106.0
15,57,1539,5,"[1628960, 1629001, 1629630, 1629634, 202685]",1610612761,1610612763,"[1626181, 1627783, 1627832, 200768, 201188]",62,-5,1440,-4.424778761061947,113.0
16,62,1767,12,"[203937, 201229, 202685, 1628415, 1629630]",1610612761,1610612763,"[1628384, 1627783, 201188, 1627832, 200768]",74,-12,1540,-9.375,128.0
17,62,1808,15,"[1628415, 1628960, 1629630, 201229, 202685]",1610612761,1610612763,"[1628384, 1627783, 201188, 1627832, 200768]",77,-15,1768,-11.363636363636363,132.0
18,68,1989,11,"[1628415, 1628960, 1629630, 1629634, 202685]",1610612761,1610612763,"[1628384, 1627783, 201188, 1627832, 200768]",79,-11,1809,-7.6923076923076925,143.0
19,68,2041,15,"[1628960, 1629001, 1629630, 1629634, 203476]",1610612761,1610612763,"[1626181, 1627783, 1627832, 1628384, 201586]",83,-15,1990,-10.273972602739725,146.0
20,70,2110,13,"[1628960, 1629001, 1629630, 1629634, 203476]",1610612761,1610612763,"[1626181, 1627832, 1628449, 1629744, 201586]",83,-13,2042,-8.49673202614379,153.0
21,70,2152,16,"[1628415, 1629001, 1629634, 203476, 203937]",1610612761,1610612763,"[1626181, 1627832, 1628449, 1629744, 201586]",86,-16,2111,-10.256410256410255,156.0
22,70,2159,16,"[1628415, 1629001, 1629630, 1629634, 203476]",1610612761,1610612763,"[1626181, 1628449, 1629744, 200768, 201586]",86,-16,2153,-10.191082802547772,157.0
23,79,2323,12,"[1628415, 1629001, 1629630, 1629634, 201229]",1610612761,1610612763,"[1626181, 1628449, 1629744, 200768, 201586]",91,-12,2160,-7.0588235294117645,170.0
24,79,2385,12,"[201229, 202685, 1628415, 1629630, 1629001]",1610612761,1610612763,"[200768, 201586, 1626181, 1629744, 1628449]",91,-12,2324,-6.857142857142858,175.0
25,79,2410,15,"[201229, 202685, 1628415, 1629630, 1629001]",1610612761,1610612763,"[1626181, 1627783, 1628384, 200768, 201586]",94,-15,2386,-8.47457627118644,177.0
26,82,2469,12,"[1628415, 1628960, 1629630, 201229, 202685]",1610612761,1610612763,"[1626181, 1627783, 1628384, 200768, 201586]",94,-12,2411,-6.666666666666667,180.0
27,90,2629,5,"[1628415, 1628960, 1629630, 1629634, 201229]",1610612761,1610612763,"[1626181, 1627783, 1628384, 200768, 201586]",95,-5,2470,-2.604166666666667,192.0
28,94,2825,7,"[1628415, 1628960, 1629630, 1629634, 201229]",1610612761,1610612763,"[1627783, 1627832, 1628384, 200768, 201586]",101,-7,2630,-3.431372549019608,204.0
29,96,2850,9,"[1628415, 1628960, 1629630, 1629634, 201229]",1610612761,1610612763,"[1626181, 1627783, 1627832, 200768, 201188]",105,-9,2826,-4.326923076923077,208.0
30,99,2879,9,"[1628415, 1628960, 1629630, 1629634, 201229]",1610612761,1610612763,"[1626181, 1627783, 1627832, 1628384, 200768]",108,-9,2851,-4.225352112676056,213.0
31,99,9999999,9,"[1628415, 1628960, 1629630, 1629634, 201229]",1610612761,1610612763,"[1626181, 1627783, 1627832, 200768, 201188]",108,-9,2880,-4.205607476635514,214.0
