,TEAM_ID_1,TEAM_1_PLAYERS,TEAM_ID_2,TEAM_2_PLAYERS,PERIOD
0,1610612747,[  2544 201162 201580 201980 203484],1610612754,[ 203933 1627734 1626167  203087 1627763],1
1,1610612747,[   2544  202340    2730 1627936  200765],1610612754,[1627734 1628988  203200  204456  203926],2
2,1610612747,[  2544 201162 201580 201980 203484],1610612754,[ 203933 1627734 1626167  203087 1627763],3
3,1610612747,[  2544 202340   2730 200765 203584],1610612754,[1627734 1628988  203200  204456  203926],4
