,team1_id,team1_player1,team1_player2,team1_player3,team1_player4,team1_player5,team2_id,team2_player1,team2_player2,team2_player3,team2_player4,team2_player5,game_id,period,possession_start,possession_end,team1_points,team2_points,possession_team
0,1610612746,202695,202694,1627826,202331,201976,1610612743,203924,200794,203999,203914,1627750,0041900234,1,0,27,0,0,1610612743
1,1610612746,202695,202694,1627826,202331,201976,1610612743,203924,200794,203999,203914,1627750,0041900234,1,31,34,0,0,1610612746
2,1610612746,202695,202694,1627826,202331,201976,1610612743,203924,200794,203999,203914,1627750,0041900234,1,37,41,0,0,1610612743
3,1610612746,202695,202694,1627826,202331,201976,1610612743,203924,200794,203999,203914,1627750,0041900234,1,51,51,2,0,1610612746
4,1610612746,202695,202694,1627826,202331,201976,1610612743,203924,200794,203999,203914,1627750,0041900234,1,78,78,0,0,1610612743
5,1610612746,202695,202694,1627826,202331,201976,1610612743,203924,200794,203999,203914,1627750,0041900234,1,97,97,0,0,1610612746
6,1610612746,202695,202694,1627826,202331,201976,1610612743,203924,200794,203999,203914,1627750,0041900234,1,106,110,0,0,1610612743
7,1610612746,202695,202694,1627826,202331,201976,1610612743,203924,200794,203999,203914,1627750,0041900234,1,115,122,0,0,1610612746
8,1610612746,202695,202694,1627826,202331,201976,1610612743,203924,200794,203999,203914,1627750,0041900234,1,132,132,0,0,1610612743
9,1610612746,202695,202694,1627826,202331,201976,1610612743,203924,200794,203999,203914,1627750,0041900234,1,142,142,3,0,1610612746
10,1610612746,202695,202694,1627826,202331,201976,1610612743,203924,200794,203999,203914,1627750,0041900234,1,158,158,0,1,1610612743
11,1610612746,202695,202694,1627826,202331,201976,1610612743,203924,200794,203999,203914,1627750,0041900234,1,168,168,2,0,1610612746
12,1610612746,202695,202694,1627826,202331,201976,1610612743,203924,200794,203999,203914,1627750,0041900234,1,190,194,0,0,1610612743
13,1610612746,202695,202694,1627826,202331,201976,1610612743,203924,200794,203999,203914,1627750,0041900234,1,203,205,0,0,1610612746
14,1610612746,202695,202694,1627826,202331,201976,1610612743,203924,200794,203999,203914,1627750,0041900234,1,215,215,0,2,1610612743
15,1610612746,202695,202694,1627826,202331,201976,1610612743,203924,200794,203999,203914,1627750,0041900234,1,234,234,0,0,1610612746
16,1610612746,202695,202694,1627826,202331,201976,1610612743,203924,200794,203999,203914,1627750,0041900234,1,235,256,0,0,1610612743
17,1610612746,1627826,1629013,202331,202694,202695,1610612743,203924,200794,203999,203914,1627750,0041900234,1,271,271,2,0,1610612746
18,1610612746,1627826,1629013,202331,202694,202695,1610612743,203924,200794,203999,203914,1627750,0041900234,1,290,290,0,0,1610612743
19,1610612746,1627826,1629013,202331,202694,202695,1610612743,203924,200794,203999,203914,1627750,0041900234,1,295,317,2,0,1610612746
20,1610612746,1627826,1629013,202331,202694,202695,1610612743,203924,200794,203999,203914,1627750,0041900234,1,333,333,0,2,1610612743
21,1610612746,1627826,1629013,202331,202694,202695,1610612743,203924,200794,203999,203914,1627750,0041900234,1,349,349,2,0,1610612746
22,1610612746,1627826,1629013,202331,202694,202695,1610612743,203924,200794,203999,203914,1627750,0041900234,1,366,367,0,0,1610612743
23,1610612746,1627826,1629013,202331,202694,202695,1610612743,203924,200794,203999,203914,1627750,0041900234,1,377,381,0,0,1610612746
24,1610612746,1627826,1629013,202331,202694,202695,1610612743,203924,200794,203999,203914,1627750,0041900234,1,392,392,0,2,1610612743
25,1610612746,1627826,1629013,202331,202694,202695,1610612743,203924,200794,203999,203914,1627750,0041900234,1,413,413,3,0,1610612746
26,1610612746,1627826,1629013,202331,202694,202695,1610612743,203924,200794,203999,203914,1627750,0041900234,1,423,425,0,0,1610612743
27,1610612746,1627826,1629013,202331,202694,202695,1610612743,203924,200794,203999,203914,1627750,0041900234,1,432,434,0,0,1610612746
28,1610612746,101150,1627826,1629013,202694,202695,1610612743,1628420,200794,203914,203924,203999,0041900234,1,444,448,0,0,1610612743
29,1610612746,101150,1627826,1629013,202694,202695,1610612743,1628420,200794,203914,203924,203999,0041900234,1,453,453,2,0,1610612746
30,1610612746,101150,1627826,1629013,202694,202695,1610612743,1628420,1628470,1629008,203924,203999,0041900234,1,464,475,0,0,1610612743
31,1610612746,101150,1627826,1629013,202694,202695,1610612743,1628420,1628470,1629008,203924,203999,0041900234,1,487,490,0,0,1610612746
32,1610612746,101150,1627826,1629013,202694,202695,1610612743,1628420,1628470,1629008,203924,203999,0041900234,1,497,499,0,0,1610612743
33,1610612746,101150,1627826,1629013,202694,202695,1610612743,1628420,1628470,1629008,203924,203999,0041900234,1,509,521,2,0,1610612746
34,1610612746,101150,1627826,1629013,202694,202695,1610612743,1628420,1628470,1629008,203924,203999,0041900234,1,521,521,2,0,1610612746
35,1610612746,101150,1627826,1629013,202694,202695,1610612743,1628420,1628470,1629008,203924,203999,0041900234,1,521,537,0,0,1610612743
36,1610612746,101150,1627826,1629013,202695,203210,1610612743,1627750,1628420,1628470,1629008,203999,0041900234,1,545,545,2,0,1610612746
37,1610612746,101150,1627826,1629013,202695,203210,1610612743,1627750,1628420,1628470,1629008,203999,0041900234,1,561,561,0,0,1610612743
38,1610612746,101150,1627826,1629013,202695,203210,1610612743,1627750,1628420,1628470,1629008,203999,0041900234,1,575,575,2,0,1610612746
39,1610612746,101150,1627826,1629013,202695,203210,1610612743,1627750,1628420,1628470,1629008,203999,0041900234,1,586,586,0,2,1610612743
40,1610612746,101150,1627826,1629013,202695,203210,1610612743,1627750,1628420,1628470,1629008,203999,0041900234,1,605,607,0,0,1610612746
41,1610612746,101150,1627826,1629013,202695,203210,1610612743,1627750,1628420,1628470,1629008,203999,0041900234,1,613,613,0,1,1610612743
42,1610612746,101150,1627826,1629013,202695,203210,1610612743,1627750,1628420,1628470,1629008,203999,0041900234,1,613,639,0,0,1610612746
43,1610612746,101150,1626149,201976,202331,203210,1610612743,1627750,1628420,1628470,1629008,203486,0041900234,1,644,647,0,0,1610612743
44,1610612746,101150,1626149,201976,202331,203210,1610612743,1627750,1628420,1628470,1629008,203486,0041900234,1,655,655,2,0,1610612746
45,1610612746,101150,1626149,201976,202331,203210,1610612743,1627750,1628420,1628470,1629008,203486,0041900234,1,671,671,0,0,1610612743
46,1610612746,101150,1626149,201976,202331,203210,1610612743,1627750,1628420,1628470,1629008,203486,0041900234,1,693,694,0,0,1610612746
47,1610612746,101150,1626149,201976,202331,203210,1610612743,1627750,1628420,1628470,1629008,203486,0041900234,1,716,716,0,2,1610612743
48,1610612746,101150,1626149,201976,202331,203210,1610612743,1627750,1628420,1628470,1629008,203486,0041900234,1,720,720,0,0,1610612743
49,1610612746,202331,201976,101150,203210,1626149,1610612743,1627750,1628420,1628470,1629008,203486,0041900234,2,720,739,3,0,1610612746
50,1610612746,202331,201976,101150,203210,1626149,1610612743,1627750,1628420,1628470,1629008,203486,0041900234,2,753,756,0,0,1610612743
51,1610612746,202331,201976,101150,203210,1626149,1610612743,1627750,1628420,1628470,1629008,203486,0041900234,2,760,762,0,0,1610612746
52,1610612746,202331,201976,101150,203210,1626149,1610612743,1627750,1628420,1628470,1629008,203486,0041900234,2,767,767,0,2,1610612743
53,1610612746,202331,201976,101150,203210,1626149,1610612743,1627750,1628420,1628470,1629008,203486,0041900234,2,787,787,2,0,1610612746
54,1610612746,202331,201976,101150,203210,1626149,1610612743,1627750,1628420,1628470,1629008,203486,0041900234,2,801,804,0,0,1610612743
55,1610612746,202331,201976,101150,203210,1626149,1610612743,1627750,1628420,1628470,1629008,203486,0041900234,2,806,806,0,0,1610612746
56,1610612746,202331,201976,101150,203210,1626149,1610612743,1627750,1628420,1628470,1629008,203486,0041900234,2,816,816,0,0,1610612743
57,1610612746,202331,201976,101150,203210,1626149,1610612743,1627750,1628420,1628470,1629008,203486,0041900234,2,828,828,0,0,1610612746
58,1610612746,202331,201976,101150,203210,1626149,1610612743,1627750,1628420,1628470,1629008,203486,0041900234,2,833,836,0,0,1610612743
59,1610612746,202331,201976,101150,203210,1626149,1610612743,1627750,1628420,1628470,1629008,203486,0041900234,2,839,842,1,0,1610612746
60,1610612746,202331,201976,101150,203210,1626149,1610612743,1627750,1628420,1629008,203914,203999,0041900234,2,846,846,0,3,1610612743
61,1610612746,202331,201976,101150,203210,1626149,1610612743,1627750,1628420,1629008,203914,203999,0041900234,2,862,862,2,0,1610612746
62,1610612746,202331,201976,101150,203210,1626149,1610612743,1627750,1628420,1629008,203914,203999,0041900234,2,877,886,0,2,1610612743
63,1610612746,1626149,201976,202331,202695,203210,1610612743,1627750,1629008,203914,203924,203999,0041900234,2,905,905,0,0,1610612746
64,1610612746,1626149,201976,202331,202695,203210,1610612743,1627750,1629008,203914,203924,203999,0041900234,2,911,916,0,2,1610612743
65,1610612746,1626149,1629013,202331,202695,203210,1610612743,1627750,1629008,203914,203924,203999,0041900234,2,929,929,2,0,1610612746
66,1610612746,1626149,1629013,202331,202695,203210,1610612743,1627750,1629008,203914,203924,203999,0041900234,2,947,950,0,0,1610612743
67,1610612746,1626149,1629013,202331,202695,203210,1610612743,1627750,1629008,203914,203924,203999,0041900234,2,954,954,1,0,1610612746
68,1610612746,1626149,1629013,202331,202695,203210,1610612743,1627750,1629008,203914,203924,203999,0041900234,2,969,969,0,2,1610612743
69,1610612746,1626149,1629013,202331,202695,203210,1610612743,1627750,1629008,203914,203924,203999,0041900234,2,986,986,2,0,1610612746
70,1610612746,1626149,1629013,202331,202695,203210,1610612743,1627750,1629008,203914,203924,203999,0041900234,2,999,999,0,2,1610612743
71,1610612746,1626149,1629013,202331,202695,203210,1610612743,1627750,1629008,203914,203924,203999,0041900234,2,1010,1010,0,0,1610612746
72,1610612746,1627826,1629013,201976,202695,203210,1610612743,1627750,1629008,203914,203924,203999,0041900234,2,1018,1018,0,2,1610612743
73,1610612746,1627826,1629013,201976,202695,203210,1610612743,1627750,1629008,203914,203924,203999,0041900234,2,1028,1028,2,0,1610612746
74,1610612746,1627826,1629013,201976,202694,202695,1610612743,1627750,1628470,1629008,203924,203999,0041900234,2,1046,1049,0,0,1610612743
75,1610612746,1627826,1629013,201976,202694,202695,1610612743,1627750,1628470,1629008,203924,203999,0041900234,2,1062,1064,0,0,1610612746
76,1610612746,1627826,1629013,201976,202694,202695,1610612743,1627750,1628470,1629008,203924,203999,0041900234,2,1086,1086,0,3,1610612743
77,1610612746,1627826,1629013,201976,202694,202695,1610612743,1627750,1628470,1629008,203924,203999,0041900234,2,1105,1105,2,0,1610612746
78,1610612746,1627826,1629013,201976,202694,202695,1610612743,1627750,1628470,1629008,203924,203999,0041900234,2,1123,1125,0,0,1610612743
79,1610612746,101150,1627826,1629013,202694,202695,1610612743,1627750,1628470,1629008,203924,203999,0041900234,2,1141,1144,2,0,1610612746
80,1610612746,101150,1627826,1629013,202694,202695,1610612743,1627750,1628470,1629008,203924,203999,0041900234,2,1144,1156,0,3,1610612743
81,1610612746,101150,1627826,1629013,202694,202695,1610612743,1627750,1628470,1629008,203924,203999,0041900234,2,1178,1189,0,0,1610612746
82,1610612746,101150,1627826,1629013,202694,202695,1610612743,1627750,1628470,1629008,203924,203999,0041900234,2,1200,1200,0,3,1610612743
83,1610612746,101150,1627826,1629013,202694,202695,1610612743,1627750,1628470,1629008,203924,203999,0041900234,2,1225,1225,3,0,1610612746
84,1610612746,101150,1627826,1629013,202694,202695,1610612743,1627750,1628470,1629008,203924,203999,0041900234,2,1254,1254,0,2,1610612743
85,1610612746,101150,1627826,1629013,202694,202695,1610612743,1627750,1628470,1629008,203924,203999,0041900234,2,1263,1281,0,0,1610612746
86,1610612746,101150,1627826,1629013,202694,202695,1610612743,1627750,1628470,1629008,203924,203999,0041900234,2,1293,1293,0,2,1610612743
87,1610612746,101150,1627826,1629013,202694,202695,1610612743,1627750,1628470,1629008,203924,203999,0041900234,2,1307,1312,0,0,1610612746
88,1610612746,101150,1626149,201976,202694,202695,1610612743,1627750,1628470,1629008,203924,203999,0041900234,2,1336,1336,0,0,1610612743
89,1610612746,101150,1626149,201976,202694,202695,1610612743,1627750,1628470,1629008,203486,203924,0041900234,2,1361,1365,0,0,1610612746
90,1610612746,101150,1626149,201976,202694,202695,1610612743,1627750,1628470,1629008,203486,203924,0041900234,2,1378,1388,0,0,1610612743
91,1610612746,101150,1626149,201976,202694,202695,1610612743,1627750,1628470,1629008,203486,203924,0041900234,2,1410,1416,0,0,1610612746
92,1610612746,101150,1626149,201976,202694,202695,1610612743,1627750,1628470,1629008,203486,203924,0041900234,2,1436,1438,0,0,1610612743
93,1610612746,101150,1626149,201976,202694,202695,1610612743,1627750,1628470,1629008,203486,203924,0041900234,2,1440,1440,0,0,1610612743
94,1610612746,202695,202694,1627826,202331,201976,1610612743,203924,200794,203999,203914,1627750,0041900234,3,1440,1458,0,0,1610612746
95,1610612746,202695,202694,1627826,202331,201976,1610612743,203924,200794,203999,203914,1627750,0041900234,3,1462,1468,0,3,1610612743
96,1610612746,202695,202694,1627826,202331,201976,1610612743,203924,200794,203999,203914,1627750,0041900234,3,1487,1489,0,0,1610612746
97,1610612746,202695,202694,1627826,202331,201976,1610612743,203924,200794,203999,203914,1627750,0041900234,3,1494,1512,0,3,1610612743
98,1610612746,202695,202694,1627826,202331,201976,1610612743,203924,200794,203999,203914,1627750,0041900234,3,1531,1534,0,0,1610612746
99,1610612746,202695,202694,1627826,202331,201976,1610612743,203924,200794,203999,203914,1627750,0041900234,3,1545,1549,0,2,1610612743
100,1610612746,1627826,1629013,201976,202694,202695,1610612743,203924,200794,203999,203914,1627750,0041900234,3,1564,1564,2,0,1610612746
101,1610612746,1627826,1629013,201976,202694,202695,1610612743,203924,200794,203999,203914,1627750,0041900234,3,1578,1581,0,0,1610612743
102,1610612746,1627826,1629013,201976,202694,202695,1610612743,203924,200794,203999,203914,1627750,0041900234,3,1597,1597,2,0,1610612746
103,1610612746,1627826,1629013,201976,202694,202695,1610612743,203924,200794,203999,203914,1627750,0041900234,3,1612,1612,0,2,1610612743
104,1610612746,1627826,1629013,201976,202694,202695,1610612743,203924,200794,203999,203914,1627750,0041900234,3,1624,1624,3,0,1610612746
105,1610612746,1627826,1629013,201976,202694,202695,1610612743,203924,200794,203999,203914,1627750,0041900234,3,1649,1649,0,1,1610612743
106,1610612746,101150,1627826,1629013,202694,202695,1610612743,203924,200794,203999,203914,1627750,0041900234,3,1662,1674,3,0,1610612746
107,1610612746,101150,1627826,1629013,202694,202695,1610612743,1627750,1628470,200794,203924,203999,0041900234,3,1693,1696,0,0,1610612743
108,1610612746,101150,1627826,1629013,202694,202695,1610612743,1627750,1628470,200794,203924,203999,0041900234,3,1704,1705,0,0,1610612746
109,1610612746,101150,1627826,1629013,202694,202695,1610612743,1627750,1628470,200794,203924,203999,0041900234,3,1713,1732,0,0,1610612743
110,1610612746,101150,1627826,1629013,202694,202695,1610612743,1627750,1628470,200794,203924,203999,0041900234,3,1737,1737,2,0,1610612746
111,1610612746,101150,1627826,1629013,202694,202695,1610612743,1627750,1628470,200794,203924,203999,0041900234,3,1758,1758,0,2,1610612743
112,1610612746,101150,1627826,1629013,202694,202695,1610612743,1627750,1628470,200794,203924,203999,0041900234,3,1779,1779,3,0,1610612746
113,1610612746,101150,1627826,1629013,202694,202695,1610612743,1627750,1628470,200794,203924,203999,0041900234,3,1789,1789,0,0,1610612743
114,1610612746,101150,1627826,1629013,202694,202695,1610612743,1627750,1628470,200794,203924,203999,0041900234,3,1794,1794,2,0,1610612746
115,1610612746,101150,1627826,1629013,202694,202695,1610612743,1627750,1628470,200794,203924,203999,0041900234,3,1794,1818,0,0,1610612743
116,1610612746,101150,1627826,1629013,202694,202695,1610612743,1628420,1628470,200794,203924,203999,0041900234,3,1818,1844,0,0,1610612746
117,1610612746,101150,1627826,1629013,202694,202695,1610612743,1628420,1628470,1629008,203924,203999,0041900234,3,1855,1858,0,0,1610612743
118,1610612746,101150,1627826,1629013,202694,202695,1610612743,1628420,1628470,1629008,203924,203999,0041900234,3,1864,1866,2,0,1610612746
119,1610612746,101150,1627826,1629013,202694,202695,1610612743,1628420,1628470,1629008,203924,203999,0041900234,3,1889,1889,0,0,1610612743
120,1610612746,101150,1627826,1629013,202694,202695,1610612743,1628420,1628470,1629008,203924,203999,0041900234,3,1889,1916,0,0,1610612746
121,1610612746,101150,1627826,1629013,202694,202695,1610612743,1627750,1628420,1628470,1629008,203999,0041900234,3,1932,1936,0,0,1610612743
122,1610612746,101150,1627826,1629013,202694,202695,1610612743,1627750,1628420,1628470,1629008,203999,0041900234,3,1947,1947,2,0,1610612746
123,1610612746,101150,1627826,1629013,202694,202695,1610612743,1627750,1628420,1628470,1629008,203999,0041900234,3,1964,1964,0,3,1610612743
124,1610612746,101150,1627826,1629013,202694,202695,1610612743,1627750,1628420,1628470,1629008,203999,0041900234,3,1976,1976,2,0,1610612746
125,1610612746,101150,1627826,1629013,202694,202695,1610612743,1627750,1628420,1628470,1629008,203999,0041900234,3,1989,1989,0,0,1610612743
126,1610612746,101150,1627826,1629013,202694,202695,1610612743,1627750,1628420,1628470,1629008,203999,0041900234,3,2003,2006,0,0,1610612746
127,1610612746,101150,1627826,1629013,202694,202695,1610612743,1627750,1628420,1628470,1629008,203999,0041900234,3,2015,2017,0,2,1610612743
128,1610612746,101150,1627826,1629013,202694,202695,1610612743,1627750,1628420,1628470,1629008,203999,0041900234,3,2034,2037,2,0,1610612746
129,1610612746,101150,1627826,1629013,202695,203210,1610612743,1627750,1628420,1628470,1629008,203999,0041900234,3,2047,2052,0,0,1610612743
130,1610612746,101150,1627826,1629013,202695,203210,1610612743,1627750,1628420,1628470,1629008,203999,0041900234,3,2069,2072,0,0,1610612746
131,1610612746,101150,1627826,1629013,202695,203210,1610612743,1627750,1628420,1628470,1629008,203999,0041900234,3,2085,2086,0,0,1610612743
132,1610612746,101150,1627826,1629013,202695,203210,1610612743,1627750,1628420,1628470,1629008,203999,0041900234,3,2092,2094,0,0,1610612746
133,1610612746,101150,1627826,1629013,202695,203210,1610612743,1627750,1628420,1628470,1629008,203999,0041900234,3,2096,2096,0,2,1610612743
134,1610612746,101150,1626149,1629013,202695,203210,1610612743,1627750,1628420,1628470,1629008,203999,0041900234,3,2116,2120,0,0,1610612746
135,1610612746,101150,1626149,1629013,202695,203210,1610612743,1627750,1628420,1628470,1629008,203999,0041900234,3,2123,2123,0,2,1610612743
136,1610612746,101150,1626149,1629013,202695,203210,1610612743,1627750,1628420,1628470,1629008,203486,0041900234,3,2131,2134,0,0,1610612746
137,1610612746,101150,1626149,1629013,202695,203210,1610612743,1627750,1628420,1628470,1629008,203486,0041900234,3,2155,2155,0,1,1610612743
138,1610612746,101150,1626149,1629013,202695,203210,1610612743,1627750,1628420,1628470,1629008,203486,0041900234,3,2160,2160,0,0,1610612743
139,1610612746,202331,201976,101150,203210,1626149,1610612743,1627750,1628420,1628470,1629008,203486,0041900234,4,2160,2200,0,0,1610612743
140,1610612746,202331,201976,101150,203210,1626149,1610612743,1627750,1628420,1628470,1629008,203486,0041900234,4,2216,2216,2,0,1610612746
141,1610612746,202331,201976,101150,203210,1626149,1610612743,1627750,1628420,1628470,1629008,203486,0041900234,4,2223,2223,0,0,1610612743
142,1610612746,202331,201976,101150,203210,1626149,1610612743,1627750,1628420,1628470,1629008,203486,0041900234,4,2238,2241,0,0,1610612746
143,1610612746,202331,201976,101150,203210,1626149,1610612743,1627750,1628420,1628470,1629008,203486,0041900234,4,2255,2255,0,2,1610612743
144,1610612746,202331,201976,101150,203210,1626149,1610612743,1627750,1628420,1628470,1629008,203486,0041900234,4,2269,2271,1,0,1610612746
145,1610612746,202331,201976,101150,203210,1626149,1610612743,1627750,1628420,1628470,1629008,203486,0041900234,4,2276,2295,0,0,1610612743
146,1610612746,202331,201976,101150,203210,1626149,1610612743,1627750,1628420,1628470,1629008,203486,0041900234,4,2306,2306,2,0,1610612746
147,1610612746,202331,201976,101150,203210,1626149,1610612743,1627750,1628420,1628470,1629008,203486,0041900234,4,2307,2330,0,0,1610612743
148,1610612746,202331,201976,101150,203210,1626149,1610612743,1627750,1629008,203914,203924,203999,0041900234,4,2349,2349,2,0,1610612746
149,1610612746,202331,201976,101150,203210,1626149,1610612743,1627750,1629008,203914,203924,203999,0041900234,4,2357,2370,0,2,1610612743
150,1610612746,202331,201976,101150,203210,1626149,1610612743,1627750,1629008,203914,203924,203999,0041900234,4,2394,2397,0,0,1610612746
151,1610612746,101150,1626149,202331,202695,203210,1610612743,1627750,1629008,203914,203924,203999,0041900234,4,2403,2416,3,0,1610612746
152,1610612746,1626149,201976,202331,202695,203210,1610612743,1627750,1629008,203914,203924,203999,0041900234,4,2430,2431,0,0,1610612743
153,1610612746,1626149,201976,202331,202695,203210,1610612743,1627750,1629008,203914,203924,203999,0041900234,4,2431,2443,3,0,1610612746
154,1610612746,1626149,201976,202331,202695,203210,1610612743,1627750,1629008,203914,203924,203999,0041900234,4,2445,2466,0,2,1610612743
155,1610612746,1626149,201976,202331,202695,203210,1610612743,1627750,1629008,203914,203924,203999,0041900234,4,2492,2497,0,0,1610612746
156,1610612746,1626149,201976,202331,202695,203210,1610612743,1627750,1629008,203914,203924,203999,0041900234,4,2506,2506,0,0,1610612743
157,1610612746,1626149,201976,202331,202695,203210,1610612743,1627750,1629008,203914,203924,203999,0041900234,4,2511,2511,0,0,1610612746
158,1610612746,1626149,201976,202331,202695,203210,1610612743,1627750,1629008,203914,203924,203999,0041900234,4,2532,2532,0,0,1610612743
159,1610612746,1626149,201976,202331,202695,203210,1610612743,1627750,1629008,203914,203924,203999,0041900234,4,2536,2536,2,0,1610612746
160,1610612746,101150,1626149,202331,202695,203210,1610612743,1627750,1629008,203914,203924,203999,0041900234,4,2546,2546,0,0,1610612743
161,1610612746,101150,1626149,202331,202695,203210,1610612743,1627750,1629008,203914,203924,203999,0041900234,4,2552,2556,0,0,1610612746
162,1610612746,101150,1626149,202331,202695,203210,1610612743,1627750,1629008,203914,203924,203999,0041900234,4,2560,2560,0,2,1610612743
163,1610612746,101150,1626149,202331,202695,203210,1610612743,1627750,1629008,203914,203924,203999,0041900234,4,2577,2577,2,0,1610612746
164,1610612746,101150,1626149,202331,202695,203210,1610612743,1627750,1629008,203914,203924,203999,0041900234,4,2589,2589,0,3,1610612743
165,1610612746,101150,1626149,202331,202695,203210,1610612743,1627750,1629008,203914,203924,203999,0041900234,4,2613,2613,2,0,1610612746
166,1610612746,101150,1626149,202331,202695,203210,1610612743,1627750,1629008,203914,203924,203999,0041900234,4,2624,2624,0,2,1610612743
167,1610612746,101150,1626149,202331,202694,202695,1610612743,1627750,1629008,203914,203924,203999,0041900234,4,2644,2644,0,0,1610612746
168,1610612746,101150,1626149,202331,202694,202695,1610612743,1627750,1629008,203914,203924,203999,0041900234,4,2650,2650,0,2,1610612743
169,1610612746,101150,1626149,202331,202694,202695,1610612743,1627750,1629008,203914,203924,203999,0041900234,4,2664,2678,0,0,1610612746
170,1610612746,101150,1626149,202331,202694,202695,1610612743,1627750,1629008,203914,203924,203999,0041900234,4,2686,2686,0,2,1610612743
171,1610612746,101150,1626149,202331,202694,202695,1610612743,1627750,1629008,203914,203924,203999,0041900234,4,2686,2711,0,0,1610612746
172,1610612746,101150,1627826,202331,202694,202695,1610612743,1627750,1629008,203914,203924,203999,0041900234,4,2725,2728,0,0,1610612743
173,1610612746,101150,1627826,202331,202694,202695,1610612743,1627750,1629008,203914,203924,203999,0041900234,4,2741,2741,0,0,1610612746
174,1610612746,101150,1627826,202331,202694,202695,1610612743,1627750,1629008,203914,203924,203999,0041900234,4,2751,2751,0,3,1610612743
175,1610612746,101150,1627826,202331,202694,202695,1610612743,1627750,1629008,203914,203924,203999,0041900234,4,2765,2765,2,0,1610612746
176,1610612746,101150,1627826,202331,202694,202695,1610612743,1627750,1629008,203914,203924,203999,0041900234,4,2778,2778,0,0,1610612743
177,1610612746,101150,1627826,202331,202694,202695,1610612743,1627750,1629008,203914,203924,203999,0041900234,4,2799,2810,1,0,1610612746
178,1610612746,1627826,201976,202331,202694,202695,1610612743,1627750,1629008,203914,203924,203999,0041900234,4,2817,2826,0,0,1610612743
179,1610612746,1627826,1629013,202331,202694,202695,1610612743,1627750,1629008,203914,203924,203999,0041900234,4,2826,2826,1,0,1610612746
180,1610612746,1627826,1629013,202331,202694,202695,1610612743,1627750,1629008,203914,203924,203999,0041900234,4,2826,2839,0,0,1610612743
181,1610612746,1627826,1629013,202331,202694,202695,1610612743,1627750,1628420,1629008,203924,203999,0041900234,4,2840,2862,0,0,1610612746
182,1610612746,1627826,1629013,1629611,202694,202704,1610612743,1628408,1628420,1628470,1629008,203486,0041900234,4,2870,2870,0,2,1610612743
