,TEAM_ID_1,TEAM_1_PLAYERS,TEAM_ID_2,TEAM_2_PLAYERS,PERIOD
0,1610612748,[1629639 1628389  203086 1629134 1626159],1610612750,[1626203  203496 1626157  203952  201952],1
1,1610612748,[1629134 1626159  203482  201609 1629735],1610612750,[1629006  203894 1627774 1629633  203943],2
2,1610612748,[1629639 1628389  203086 1629134 1626159],1610612750,[1626203  203496 1626157  203952  201952],3
3,1610612748,[1629639 1626159  203482  201609 1629130],1610612750,[ 203952 1629006  203894 1627774  203943],4
