,stint_end,t2_points_scored,t1_id,t2_id,t2_pm,t1_players,t2_players,t1_points_scored,t1_pm,stint_start,margin_per_100,num_poss
0,367,10,1610612742,1610612740,-10,"[1627827, 204001, 203939, 203493, 1629029]","[1630529, 1627742, 202685, 202066, 1628984]",20,10,0,40.0,25.0
1,487,14,1610612742,1610612740,-13,"[1627827, 204001, 203939, 203493, 1629029]","[1630529, 1627742, 202685, 202066, 1628984]",27,13,368,41.935483870967744,31.0
2,610,18,1610612742,1610612740,-17,"[1627827, 1628467, 1628973, 1629029, 203501]","[1626195, 1627742, 1628984, 1630529, 202066]",35,17,488,44.73684210526316,38.0
3,719,23,1610612742,1610612740,-18,"[1628425, 1628467, 1628973, 1629029, 203501]","[1626195, 1627742, 1629638, 1630184, 1630529]",41,18,611,40.0,45.0
4,904,28,1610612742,1610612740,-18,"[1628425, 1628973, 1629029, 203501, 204001]","[1627742, 1629638, 1630184, 202066, 202685]",46,18,720,32.142857142857146,56.0
5,972,32,1610612742,1610612740,-16,"[204001, 1628973, 203501, 1628425, 203504]","[202685, 1628984, 1629638, 1630530, 203107]",48,16,905,26.229508196721312,61.0
6,989,35,1610612742,1610612740,-13,"[1626246, 1628973, 203501, 203504, 204001]","[202685, 1628984, 1629638, 1630530, 203107]",48,13,973,20.634920634920633,63.0
7,1019,35,1610612742,1610612740,-13,"[1626246, 203493, 203501, 203504, 204001]","[202685, 1628984, 1629638, 1630530, 203107]",48,13,990,20.3125,64.0
8,1034,35,1610612742,1610612740,-13,"[1626246, 1628467, 203493, 203501, 203504]","[202685, 1628984, 1629638, 1630530, 203107]",48,13,1020,20.0,65.0
9,1084,38,1610612742,1610612740,-12,"[1626246, 1628467, 203493, 203501, 203504]","[1627742, 1628984, 1629638, 202685, 203107]",50,12,1035,17.647058823529413,68.0
10,1211,41,1610612742,1610612740,-16,"[1626246, 1627827, 1628467, 203493, 203504]","[1627742, 1628984, 1629638, 202685, 203107]",57,16,1085,21.333333333333336,75.0
11,1318,41,1610612742,1610612740,-20,"[1626246, 1627827, 1628467, 1629029, 203493]","[1627742, 1629638, 1630529, 202685, 203107]",61,20,1212,24.096385542168676,83.0
12,1429,46,1610612742,1610612740,-21,"[1627827, 1628467, 1629029, 203493, 204001]","[1627742, 1628984, 1629638, 1630529, 202685]",67,21,1319,23.333333333333332,90.0
13,1439,46,1610612742,1610612740,-21,"[1627827, 1628973, 1629029, 203501, 204001]","[1627742, 1628984, 1630529, 202066, 202685]",67,21,1430,23.076923076923077,91.0
14,1722,53,1610612742,1610612740,-25,"[1627827, 1628973, 1629029, 203501, 204001]","[1627742, 1628984, 1630529, 202066, 203107]",78,25,1440,22.321428571428573,112.0
15,1831,57,1610612742,1610612740,-23,"[1627827, 204001, 203939, 203493, 1629029]","[1630529, 1627742, 202685, 202066, 1628984]",80,23,1723,19.327731092436977,119.0
16,2011,66,1610612742,1610612740,-25,"[1627827, 1628467, 1629029, 203493, 204001]","[1626195, 1627742, 1628984, 1629638, 202066]",91,25,1832,19.53125,128.0
17,2133,75,1610612742,1610612740,-27,"[1627827, 1628467, 1628973, 1629029, 203501]","[1626195, 1627742, 1629638, 1630184, 202066]",102,27,2012,19.852941176470587,136.0
18,2154,75,1610612742,1610612740,-27,"[1628425, 1628467, 1628973, 203501, 203504]","[1626195, 1627742, 1629638, 1630184, 1630530]",102,27,2134,19.708029197080293,137.0
19,2350,82,1610612742,1610612740,-30,"[1628425, 1628467, 1628973, 203501, 203504]","[1627742, 1629638, 1630184, 1630529, 1630530]",112,30,2155,20.27027027027027,148.0
20,2365,82,1610612742,1610612740,-30,"[204001, 1628973, 203501, 1628425, 203504]","[1630529, 1628984, 1629638, 1630530, 203107]",112,30,2351,20.13422818791946,149.0
21,2462,87,1610612742,1610612740,-29,"[1626246, 1628973, 203501, 203504, 204001]","[1630529, 1628984, 1629638, 1630530, 203107]",116,29,2366,18.70967741935484,155.0
22,2556,91,1610612742,1610612740,-30,"[1626246, 1628973, 203501, 203504, 204001]","[1626195, 1628984, 1629638, 1630529, 203107]",121,30,2463,18.633540372670808,161.0
23,2654,93,1610612742,1610612740,-36,"[1626246, 1628425, 1628973, 203501, 203504]","[1629637, 1629638, 1630230, 1630530, 203107]",129,36,2557,21.301775147928996,169.0
24,2851,104,1610612742,1610612740,-33,"[1626246, 1628425, 1630182, 1630647, 203504]","[1629637, 1630184, 1630230, 1630530, 1630631]",137,33,2655,17.741935483870968,186.0
25,9999999,107,1610612742,1610612740,-32,"[1628425, 1629650, 1630182, 1630605, 1630647]","[1629637, 1630184, 1630230, 1630530, 1630631]",139,32,2852,17.02127659574468,188.0
