,t1_points_scored,stint_end,stint_start,t1_id,t1_players,t2_players,t2_id,t2_points_scored,t2_pm,t1_pm,margin_per_100,num_poss
0,17,428,0,1610612743,"[203932, 201145, 203210, 203115, 1628420]","[1626181, 203496, 203994, 203468, 203081]",1610612757,19,2,-2,-7.142857142857142,28.0
1,19,508,429,1610612743,"[203932, 201145, 203210, 203115, 1628420]","[1626181, 203496, 203994, 203468, 203081]",1610612757,19,0,0,0.0,33.0
2,19,518,509,1610612743,"[1628408, 1628420, 203085, 203210, 203932]","[1629014, 1629642, 203081, 203469, 203496]",1610612757,19,0,0,0.0,34.0
3,21,549,519,1610612743,"[1628408, 1628420, 1630267, 203085, 203932]","[1629014, 1629642, 203081, 203469, 203496]",1610612757,20,-1,1,2.7777777777777777,36.0
4,21,561,550,1610612743,"[1628408, 1628420, 1630192, 1630267, 203085]","[1626204, 1629014, 1629642, 203081, 203469]",1610612757,22,1,-1,-2.7027027027027026,37.0
5,24,670,562,1610612743,"[1628408, 1630192, 1630267, 201145, 203085]","[1626204, 1629014, 1629642, 203081, 203469]",1610612757,27,3,-3,-6.976744186046512,43.0
6,27,716,671,1610612743,"[1628408, 1630192, 1630267, 201145, 203085]","[1626204, 1629014, 1629642, 203468, 203469]",1610612757,33,6,-6,-12.244897959183673,49.0
7,35,1009,717,1610612743,"[1630192, 1630267, 201145, 203085, 203115]","[1626204, 1629014, 1629642, 203468, 203469]",1610612757,40,5,-5,-7.575757575757576,66.0
8,37,1026,1010,1610612743,"[203210, 203115, 203085, 1630267, 1630192]","[203468, 1629014, 1629642, 1626204, 203503]",1610612757,43,6,-6,-8.823529411764707,68.0
9,43,1127,1027,1610612743,"[1628420, 1630267, 203085, 203210, 203932]","[1626181, 1629014, 203081, 203503, 203994]",1610612757,45,2,-2,-2.7777777777777777,72.0
10,46,1172,1128,1610612743,"[1628420, 1630267, 201145, 203085, 203932]","[1626181, 1629014, 203081, 203503, 203994]",1610612757,45,-1,1,1.3333333333333335,75.0
11,46,1224,1173,1610612743,"[1628420, 1630267, 201145, 203085, 203932]","[1626181, 1629014, 203081, 203496, 203994]",1610612757,48,2,-2,-2.564102564102564,78.0
12,49,1376,1225,1610612743,"[1628420, 1630267, 201145, 203115, 203932]","[1626181, 203081, 203468, 203496, 203994]",1610612757,60,11,-11,-12.222222222222221,90.0
13,52,1434,1377,1610612743,"[1628420, 201145, 203115, 203210, 203932]","[1626181, 203081, 203468, 203496, 203994]",1610612757,64,12,-12,-12.631578947368421,95.0
14,52,1439,1435,1610612743,"[1630267, 201145, 203115, 203210, 203932]","[1626181, 203081, 203468, 203496, 203994]",1610612757,64,12,-12,-12.631578947368421,95.0
15,68,1859,1440,1610612743,"[1630267, 201145, 203085, 203115, 203210]","[1626181, 203081, 203468, 203496, 203994]",1610612757,79,11,-11,-9.01639344262295,122.0
16,70,1893,1860,1610612743,"[203932, 201145, 203210, 203115, 1628420]","[1626181, 203496, 203994, 203468, 203081]",1610612757,80,10,-10,-8.0,125.0
17,72,1988,1894,1610612743,"[1628420, 1630267, 201145, 203210, 203932]","[1626181, 1629014, 203081, 203469, 203496]",1610612757,83,11,-11,-8.527131782945736,129.0
18,77,2057,1989,1610612743,"[1628420, 1630267, 201145, 203085, 203932]","[1629014, 1629642, 203081, 203469, 203496]",1610612757,86,9,-9,-6.7669172932330826,133.0
19,79,2153,2058,1610612743,"[1628420, 1630192, 1630267, 203085, 203932]","[1629014, 1629642, 203468, 203469, 203496]",1610612757,88,9,-9,-6.521739130434782,138.0
20,82,2322,2154,1610612743,"[1630192, 1630267, 203085, 203115, 203932]","[1626204, 1629014, 1629642, 203468, 203469]",1610612757,97,15,-15,-10.273972602739725,146.0
21,84,2395,2323,1610612743,"[201145, 203115, 203085, 1630267, 1630192]","[203468, 1629014, 1629642, 1626204, 203503]",1610612757,99,15,-15,-10.0,150.0
22,92,2488,2396,1610612743,"[201145, 203115, 203085, 1630267, 1630192]","[1626204, 1629014, 1629642, 203081, 203503]",1610612757,104,12,-12,-7.643312101910828,157.0
23,92,2590,2489,1610612743,"[1628420, 1630267, 201145, 203115, 203932]","[1626181, 1626204, 1629014, 1629642, 203081]",1610612757,107,15,-15,-9.202453987730062,163.0
24,94,2659,2591,1610612743,"[1628420, 1630267, 201145, 203115, 203932]","[1626181, 203081, 203468, 203496, 203994]",1610612757,111,17,-17,-10.059171597633137,169.0
25,98,2860,2660,1610612743,"[1628420, 201145, 203115, 203210, 203932]","[1626181, 203081, 203468, 203496, 203994]",1610612757,119,21,-21,-11.41304347826087,184.0
26,100,9999999,2861,1610612743,"[1627822, 1628427, 1629626, 1630210, 1630267]","[1628372, 1629604, 1629642, 1630535, 203463]",1610612757,119,19,-19,-10.27027027027027,185.0
