,TEAM_ID_1,TEAM_1_PLAYERS,TEAM_ID_2,TEAM_2_PLAYERS,PERIOD
0,1610612745,[1628021  200782 1626174  201569  203506],1610612741,[ 202066 1628374 1628976  203897 1629632],1
1,1610612745,[1628021  201569 1630256 1630222  202326],1610612741,[1629632 1629655 1627853 1627756  201152],2
2,1610612745,[1628021  200782 1626174  201569  203506],1610612741,[ 202066 1628374 1628976  203897 1629632],3
3,1610612745,[ 201569  203463 1630256 1630222  202326],1610612741,[1628976 1629632 1627853 1627756  201152],4
