,TEAM_ID_1,TEAM_1_PLAYERS,TEAM_ID_2,TEAM_2_PLAYERS,PERIOD
0,1610612738,[ 202330 1628369 1628464 1627759  203935],1610612764,[ 203895 1629067  101133 1627780  202738],1
1,1610612738,[1628369 1628464  202954 1629035 1629684],1610612764,[1627780 1628972 1628394  202397 1629726],2
2,1610612738,[ 202330 1628369 1628464 1627759  203935],1610612764,[ 203895 1629067  101133 1627780  202738],3
3,1610612738,[ 202330  202683  202954 1629684 1629682],1610612764,[1629067 1628972 1628394  202397 1629678],4
