,TEAM_ID_1,TEAM_1_PLAYERS,TEAM_ID_2,TEAM_2_PLAYERS,PERIOD
0,1610612759,[ 201942  200746 1626168 1627854 1627749],1610612737,[1629631  203953  203458 1629629 1629027],1
1,1610612759,[1628401  200752  201988  201158 1627751],1610612737,[ 203953 1629629 1627820 1627761 1627745],2
2,1610612759,[ 201942  200746 1626168 1627854 1627749],1610612737,[1629631  203953  203458 1629629 1629027],3
3,1610612759,[1627854 1627749  200752  201158 1627751],1610612737,[1629631  203953 1629027 1628989 1628981],4
