,TEAM_ID_1,TEAM_1_PLAYERS,TEAM_ID_2,TEAM_2_PLAYERS,PERIOD
0,1610612740,[1627742 1629627  202324  201950 1628366],1610612758,[ 203084  202357 1626158  203992 1628368],1
1,1610612740,[1629627  201950  200755 1629740 1628402],1610612758,[1626158  202709  203145 1627741 1629610],2
2,1610612740,[1627742 1629627  202324  201950 1628366],1610612758,[ 203084  202357 1626158  203992 1628368],3
3,1610612740,[1629627  201950 1628366  200755 1629740],1610612758,[ 203084 1626158  202709  203145 1627741],4
