,TEAM_ID_1,TEAM_1_PLAYERS,TEAM_ID_2,TEAM_2_PLAYERS,PERIOD
0,1610612747,[  2544 203076 201580 201980 203484],1610612741,[ 203490 1628374 1628976  203897  203107],1
1,1610612747,[   2544 1628398 1627936  203584    2730],1610612741,[1629632 1628436 1627739  201152 1628990],2
2,1610612747,[  2544 203076 201580 201980 203484],1610612741,[ 203490 1628374 1628976  203897  203107],3
3,1610612747,[1628398 1626188 1627936  203584    2730],1610612741,[1629632 1628436 1627739  201152 1628990],4
