,TEAM_ID_1,TEAM_1_PLAYERS,TEAM_ID_2,TEAM_2_PLAYERS,PERIOD
0,1610612755,[1629680  202699  203083 1627788 1630178],1610612763,[1628415 1628991  203500 1630217 1626145],1
1,1610612755,[1630178  201980 1629003 1627777 1629646],1610612763,[1628991 1630217 1630214 1629723 1629681],2
2,1610612755,[1629680  202699  203083 1627788 1630178],1610612763,[1628415 1628991  203500 1630217 1626145],3
3,1610612755,[ 201980 1629003 1627777 1629646 1630198],1610612763,[1628991 1630217 1630214 1629723 1629681],4
