,TEAM_ID_1,TEAM_1_PLAYERS,TEAM_ID_2,TEAM_2_PLAYERS,PERIOD
0,1610612746,[202695 201587 201586 202704 201976],1610612764,[1629726 1629060 1629021  203078  201566],1
1,1610612746,[ 202695 1629611  101150 1627826 1628379],1610612764,[ 201566 1630166  203526  201577  202722],2
2,1610612746,[202695 201587 201586 202704 201976],1610612764,[1629726 1629060 1629021  203078  201566],3
3,1610612746,[ 202704 1629611  101150 1627826 1628379],1610612764,[ 201566 1630166  203526  201577  202722],4
