,team1_id,team1_player1,team1_player2,team1_player3,team1_player4,team1_player5,team2_id,team2_player1,team2_player2,team2_player3,team2_player4,team2_player5,game_id,period,possession_start,possession_end,team1_points,team2_points,possession_team
0,1610612762,1626220,202711,203497,1628378,201144,1610612764,203484,1630166,1629655,203078,203915,0022100392,1,0,5,2,0,1610612762
1,1610612762,1626220,202711,203497,1628378,201144,1610612764,203484,1630166,1629655,203078,203915,0022100392,1,33,33,0,2,1610612764
2,1610612762,1626220,202711,203497,1628378,201144,1610612764,203484,1630166,1629655,203078,203915,0022100392,1,43,44,0,0,1610612762
3,1610612762,1626220,202711,203497,1628378,201144,1610612764,203484,1630166,1629655,203078,203915,0022100392,1,51,51,0,0,1610612764
4,1610612762,1626220,202711,203497,1628378,201144,1610612764,203484,1630166,1629655,203078,203915,0022100392,1,68,70,0,0,1610612762
5,1610612762,1626220,202711,203497,1628378,201144,1610612764,203484,1630166,1629655,203078,203915,0022100392,1,80,80,0,2,1610612764
6,1610612762,1626220,202711,203497,1628378,201144,1610612764,203484,1630166,1629655,203078,203915,0022100392,1,94,94,3,0,1610612762
7,1610612762,1626220,202711,203497,1628378,201144,1610612764,203484,1630166,1629655,203078,203915,0022100392,1,122,123,0,0,1610612764
8,1610612762,1626220,202711,203497,1628378,201144,1610612764,203484,1630166,1629655,203078,203915,0022100392,1,131,135,0,0,1610612762
9,1610612762,1626220,202711,203497,1628378,201144,1610612764,203484,1630166,1629655,203078,203915,0022100392,1,141,149,0,2,1610612764
10,1610612762,1626220,202711,203497,1628378,201144,1610612764,203484,1630166,1629655,203078,203915,0022100392,1,154,154,0,0,1610612762
11,1610612762,1626220,202711,203497,1628378,201144,1610612764,203484,1630166,1629655,203078,203915,0022100392,1,174,174,0,0,1610612764
12,1610612762,1626220,202711,203497,1628378,201144,1610612764,203484,1630166,1629655,203078,203915,0022100392,1,183,186,0,0,1610612762
13,1610612762,1626220,202711,203497,1628378,201144,1610612764,203484,1630166,1629655,203078,203915,0022100392,1,202,205,0,0,1610612764
14,1610612762,1626220,202711,203497,1628378,201144,1610612764,203484,1630166,1629655,203078,203915,0022100392,1,210,210,2,0,1610612762
15,1610612762,1626220,202711,203497,1628378,201144,1610612764,203484,1630166,1629655,203078,203915,0022100392,1,229,229,0,0,1610612764
16,1610612762,1626220,202711,203497,1628378,201144,1610612764,203484,1630166,1629655,203078,203915,0022100392,1,238,238,2,0,1610612762
17,1610612762,1626220,202711,203497,1628378,201144,1610612764,203484,1630166,1629655,203078,203915,0022100392,1,257,257,0,0,1610612764
18,1610612762,1626220,202711,203497,1628378,201144,1610612764,203484,1630166,1629655,203078,203915,0022100392,1,269,269,2,0,1610612762
19,1610612762,1626220,202711,203497,1628378,201144,1610612764,203484,1630166,1629655,203078,203915,0022100392,1,283,283,0,2,1610612764
20,1610612762,1626220,202711,203497,1628378,201144,1610612764,203484,1630166,1629655,203078,203915,0022100392,1,292,292,3,0,1610612762
21,1610612762,1626220,202711,203497,1628378,201144,1610612764,203484,1630166,1629655,203078,203915,0022100392,1,309,312,0,0,1610612764
22,1610612762,1626220,202711,203497,1628378,201144,1610612764,203484,1630166,1629655,203078,203915,0022100392,1,312,336,2,0,1610612762
23,1610612762,1626220,1628378,202355,202711,204060,1610612764,1629655,202722,203078,203484,203526,0022100392,1,350,350,0,3,1610612764
24,1610612762,1626220,1628378,202355,202711,204060,1610612764,1629655,202722,203078,203484,203526,0022100392,1,367,369,0,0,1610612762
25,1610612762,1626220,1628378,202355,202711,204060,1610612764,1629655,202722,203078,203484,203526,0022100392,1,375,379,0,2,1610612764
26,1610612762,1626220,1628378,202355,202711,204060,1610612764,1629655,202722,203078,203484,203526,0022100392,1,396,399,0,0,1610612762
27,1610612762,1626220,1628378,202355,202711,204060,1610612764,1629655,202722,203078,203484,203526,0022100392,1,407,410,0,0,1610612764
28,1610612762,1626220,1628378,202355,202711,204060,1610612764,1629655,202722,203078,203484,203526,0022100392,1,422,422,2,0,1610612762
29,1610612762,1626220,1628378,202355,202711,204060,1610612764,1629655,202722,203078,203484,203526,0022100392,1,438,442,0,2,1610612764
30,1610612762,1626220,1628378,202355,202711,204060,1610612764,1629655,202722,203078,203484,203526,0022100392,1,442,454,3,0,1610612762
31,1610612762,1626220,1628378,202355,202711,204060,1610612764,1629655,202722,203078,203484,203526,0022100392,1,468,468,0,2,1610612764
32,1610612762,1628378,200752,202355,203903,204060,1610612764,1626149,1630557,202722,203078,203526,0022100392,1,481,486,0,0,1610612762
33,1610612762,1628378,200752,202355,203903,204060,1610612764,1626149,1630557,202722,203078,203526,0022100392,1,489,490,0,0,1610612764
34,1610612762,1628378,200752,202355,203903,204060,1610612764,1626149,1630557,202722,203078,203526,0022100392,1,497,498,0,0,1610612762
35,1610612762,1628378,200752,202355,203903,204060,1610612764,1626149,1630557,202722,203078,203526,0022100392,1,503,503,0,0,1610612764
36,1610612762,1628378,200752,202355,203903,204060,1610612764,1626149,1630557,202722,203078,203526,0022100392,1,516,517,0,0,1610612762
37,1610612762,1628378,200752,202355,203903,204060,1610612764,1626149,1630557,202722,203078,203526,0022100392,1,530,530,0,2,1610612764
38,1610612762,1628378,200752,202355,203903,204060,1610612764,1626149,1630557,202722,203078,203526,0022100392,1,530,549,0,0,1610612762
39,1610612762,200752,201144,203497,203903,204060,1610612764,1626149,1630557,202722,203078,203526,0022100392,1,563,563,0,3,1610612764
40,1610612762,200752,201144,203497,203903,204060,1610612764,1626149,1630557,202722,203078,203526,0022100392,1,576,583,2,0,1610612762
41,1610612762,200752,201144,203497,203903,204060,1610612764,1626149,1630557,202722,203078,203526,0022100392,1,594,598,0,0,1610612764
42,1610612762,200752,201144,203497,203903,204060,1610612764,1626149,1630557,202722,203078,203526,0022100392,1,607,607,2,0,1610612762
43,1610612762,200752,201144,203497,203903,204060,1610612764,1626149,1630557,202722,203078,203526,0022100392,1,621,621,0,2,1610612764
44,1610612762,200752,201144,203497,203903,204060,1610612764,1626149,1630557,202722,203078,203526,0022100392,1,638,638,3,0,1610612762
45,1610612762,200752,201144,203497,203903,204060,1610612764,1626149,1630557,202722,203078,203526,0022100392,1,661,663,0,0,1610612764
46,1610612762,200752,201144,203497,203903,204060,1610612764,1626149,1630557,202722,203078,203526,0022100392,1,673,676,0,0,1610612762
47,1610612762,200752,201144,203497,203903,204060,1610612764,1626149,1630557,202722,203078,203526,0022100392,1,682,685,0,0,1610612764
48,1610612762,200752,201144,203497,203903,204060,1610612764,1626149,1630557,202722,203078,203526,0022100392,1,699,701,0,0,1610612762
49,1610612762,200752,201144,203497,203903,204060,1610612764,1626149,1630557,202722,203078,203526,0022100392,1,718,718,0,0,1610612764
50,1610612762,203497,201144,204060,203903,200752,1610612764,1630166,203915,1626149,1630557,1628988,0022100392,2,720,744,0,2,1610612764
51,1610612762,203497,201144,204060,203903,200752,1610612764,1630166,203915,1626149,1630557,1628988,0022100392,2,761,762,0,0,1610612762
52,1610612762,203497,201144,204060,203903,200752,1610612764,1630166,203915,1626149,1630557,1628988,0022100392,2,782,784,0,0,1610612764
53,1610612762,203497,201144,204060,203903,200752,1610612764,1630166,203915,1626149,1630557,1628988,0022100392,2,787,804,0,0,1610612762
54,1610612762,203497,201144,204060,203903,200752,1610612764,1630166,203915,1626149,1630557,1628988,0022100392,2,812,812,0,3,1610612764
55,1610612762,203497,201144,204060,203903,200752,1610612764,1630166,203915,1626149,1630557,1628988,0022100392,2,826,826,2,0,1610612762
56,1610612762,203497,201144,204060,203903,200752,1610612764,1630166,203915,1626149,1630557,1628988,0022100392,2,845,851,0,3,1610612764
57,1610612762,1630235,200752,203497,203903,204060,1610612764,1630166,203915,1626149,1630557,1628988,0022100392,2,866,866,2,0,1610612762
58,1610612762,1630235,200752,203497,203903,204060,1610612764,1630166,203915,1626149,1630557,1628988,0022100392,2,885,890,0,0,1610612764
59,1610612762,1630235,200752,203497,203903,204060,1610612764,1630166,203915,1626149,1630557,1628988,0022100392,2,894,900,0,0,1610612762
60,1610612762,1630235,200752,203497,203903,204060,1610612764,1630166,203915,1626149,1630557,1628988,0022100392,2,916,919,0,0,1610612764
61,1610612762,1630235,200752,203497,203903,204060,1610612764,1630166,203915,1626149,1630557,1628988,0022100392,2,930,941,2,0,1610612762
62,1610612762,1630235,200752,203497,203903,204060,1610612764,1630166,203915,1626149,1630557,1628988,0022100392,2,969,971,0,0,1610612764
63,1610612762,1630235,200752,203497,203903,204060,1610612764,1630166,203915,1626149,1630557,1628988,0022100392,2,976,976,0,0,1610612762
64,1610612762,1630235,200752,203497,203903,204060,1610612764,1630166,203915,1626149,1630557,1628988,0022100392,2,976,999,0,2,1610612764
65,1610612762,1628378,1630235,200752,202355,203903,1610612764,1626149,1630166,1630557,203484,203526,0022100392,2,1016,1016,2,0,1610612762
66,1610612762,1628378,1630235,200752,202355,203903,1610612764,1626149,1630166,1630557,203484,203526,0022100392,2,1016,1032,0,0,1610612764
67,1610612762,1628378,1630235,200752,202355,203903,1610612764,1626149,1630166,1630557,203484,203526,0022100392,2,1040,1040,3,0,1610612762
68,1610612762,1628378,1630235,200752,202355,203903,1610612764,1626149,1630166,1630557,203484,203526,0022100392,2,1052,1054,0,0,1610612764
69,1610612762,1628378,1630235,200752,202355,203903,1610612764,1626149,1630166,1630557,203484,203526,0022100392,2,1063,1065,0,0,1610612762
70,1610612762,1628378,1630235,200752,202355,203903,1610612764,1626149,1630166,1630557,203484,203526,0022100392,2,1070,1074,0,2,1610612764
71,1610612762,1626220,1628378,202355,202711,203903,1610612764,1626149,1630166,203078,203484,203526,0022100392,2,1086,1090,0,0,1610612762
72,1610612762,1626220,1628378,202355,202711,203903,1610612764,1626149,1630166,203078,203484,203526,0022100392,2,1108,1108,0,3,1610612764
73,1610612762,1626220,1628378,202355,202711,203903,1610612764,1626149,1630166,203078,203484,203526,0022100392,2,1117,1117,2,0,1610612762
74,1610612762,1626220,1628378,202355,202711,203903,1610612764,1629655,202722,203078,203484,203526,0022100392,2,1144,1144,0,0,1610612764
75,1610612762,1626220,1628378,202355,202711,203903,1610612764,1629655,202722,203078,203484,203526,0022100392,2,1159,1159,0,0,1610612762
76,1610612762,1626220,1628378,202355,202711,203903,1610612764,1629655,202722,203078,203484,203526,0022100392,2,1166,1170,0,0,1610612764
77,1610612762,1626220,1628378,202355,202711,203903,1610612764,1629655,202722,203078,203484,203526,0022100392,2,1179,1184,2,0,1610612762
78,1610612762,1626220,1628378,202355,202711,203903,1610612764,1629655,202722,203078,203484,203526,0022100392,2,1196,1196,0,2,1610612764
79,1610612762,1626220,1628378,202355,202711,203903,1610612764,1629655,202722,203078,203484,203526,0022100392,2,1222,1227,2,0,1610612762
80,1610612762,1626220,1628378,202355,202711,203903,1610612764,1629655,202722,203078,203484,203526,0022100392,2,1244,1246,0,0,1610612764
81,1610612762,1626220,1628378,202355,202711,203903,1610612764,1629655,202722,203078,203484,203526,0022100392,2,1257,1260,0,0,1610612762
82,1610612762,1626220,1628378,202355,202711,203903,1610612764,1629655,202722,203078,203484,203526,0022100392,2,1267,1267,0,2,1610612764
83,1610612762,1626220,1628378,202355,202711,203903,1610612764,1629655,202722,203078,203484,203526,0022100392,2,1267,1285,0,0,1610612762
84,1610612762,1626220,1628378,201144,202711,203497,1610612764,1629655,202722,203078,203484,203915,0022100392,2,1290,1290,0,2,1610612764
85,1610612762,1626220,1628378,201144,202711,203497,1610612764,1629655,202722,203078,203484,203915,0022100392,2,1311,1313,2,0,1610612762
86,1610612762,1626220,1628378,201144,202711,203497,1610612764,1629655,202722,203078,203484,203915,0022100392,2,1325,1325,0,0,1610612764
87,1610612762,1626220,1628378,201144,202711,203497,1610612764,1629655,202722,203078,203484,203915,0022100392,2,1335,1335,3,0,1610612762
88,1610612762,1626220,1628378,201144,202711,203497,1610612764,1629655,202722,203078,203484,203915,0022100392,2,1349,1349,0,2,1610612764
89,1610612762,1626220,1628378,201144,202711,203497,1610612764,1629655,202722,203078,203484,203915,0022100392,2,1374,1378,0,0,1610612762
90,1610612762,1626220,1628378,201144,202711,203497,1610612764,1629655,202722,203078,203484,203915,0022100392,2,1384,1384,0,2,1610612764
91,1610612762,1626220,1628378,201144,202711,203497,1610612764,1629655,202722,203078,203484,203915,0022100392,2,1399,1404,0,0,1610612762
92,1610612762,1626220,1628378,201144,202711,203497,1610612764,1629655,202722,203078,203484,203915,0022100392,2,1410,1410,0,2,1610612764
93,1610612762,1626220,1628378,201144,202711,203497,1610612764,1629655,202722,203078,203484,203915,0022100392,2,1429,1433,0,0,1610612762
94,1610612762,1626220,1628378,201144,202711,203497,1610612764,1629655,202722,203078,203484,203915,0022100392,2,1440,1440,0,0,1610612764
95,1610612762,1626220,202711,203497,1628378,201144,1610612764,203484,1630166,1629655,203078,203915,0022100392,3,1440,1456,0,2,1610612764
96,1610612762,1626220,202711,203497,1628378,201144,1610612764,203484,1630166,1629655,203078,203915,0022100392,3,1477,1479,0,0,1610612762
97,1610612762,1626220,202711,203497,1628378,201144,1610612764,203484,1630166,1629655,203078,203915,0022100392,3,1484,1484,0,0,1610612764
98,1610612762,1626220,202711,203497,1628378,201144,1610612764,203484,1630166,1629655,203078,203915,0022100392,3,1492,1499,2,0,1610612762
99,1610612762,1626220,202711,203497,1628378,201144,1610612764,203484,1630166,1629655,203078,203915,0022100392,3,1511,1511,0,2,1610612764
100,1610612762,1626220,202711,203497,1628378,201144,1610612764,203484,1630166,1629655,203078,203915,0022100392,3,1519,1519,0,0,1610612762
101,1610612762,1626220,202711,203497,1628378,201144,1610612764,203484,1630166,1629655,203078,203915,0022100392,3,1521,1521,0,0,1610612764
102,1610612762,1626220,202711,203497,1628378,201144,1610612764,203484,1630166,1629655,203078,203915,0022100392,3,1525,1525,3,0,1610612762
103,1610612762,1626220,202711,203497,1628378,201144,1610612764,203484,1630166,1629655,203078,203915,0022100392,3,1548,1551,0,0,1610612764
104,1610612762,1626220,202711,203497,1628378,201144,1610612764,203484,1630166,1629655,203078,203915,0022100392,3,1557,1562,0,0,1610612762
105,1610612762,1626220,202711,203497,1628378,201144,1610612764,203484,1630166,1629655,203078,203915,0022100392,3,1574,1574,0,2,1610612764
106,1610612762,1626220,202711,203497,1628378,201144,1610612764,203484,1630166,1629655,203078,203915,0022100392,3,1587,1596,2,0,1610612762
107,1610612762,1626220,202711,203497,1628378,201144,1610612764,203484,1630166,1629655,203078,203915,0022100392,3,1620,1624,0,0,1610612764
108,1610612762,1626220,202711,203497,1628378,201144,1610612764,203484,1630166,1629655,203078,203915,0022100392,3,1639,1639,0,0,1610612762
109,1610612762,1626220,202711,203497,1628378,201144,1610612764,203484,1630166,1629655,203078,203915,0022100392,3,1640,1647,0,2,1610612764
110,1610612762,1626220,202711,203497,1628378,201144,1610612764,203484,1630166,1629655,203078,203915,0022100392,3,1668,1670,2,0,1610612762
111,1610612762,1626220,202711,203497,1628378,201144,1610612764,203484,1630166,1629655,203078,203915,0022100392,3,1682,1682,0,2,1610612764
112,1610612762,1626220,202711,203497,1628378,201144,1610612764,203484,1630166,1629655,203078,203915,0022100392,3,1697,1697,2,0,1610612762
113,1610612762,1626220,202711,203497,1628378,201144,1610612764,1629655,1630166,203078,203484,203526,0022100392,3,1712,1717,0,0,1610612764
114,1610612762,1626220,202711,203497,1628378,201144,1610612764,1629655,1630166,203078,203484,203526,0022100392,3,1718,1721,2,0,1610612762
115,1610612762,1626220,202711,203497,1628378,201144,1610612764,1629655,1630166,203078,203484,203526,0022100392,3,1739,1739,0,2,1610612764
116,1610612762,1626220,202711,203497,1628378,201144,1610612764,1629655,1630166,203078,203484,203526,0022100392,3,1751,1754,0,0,1610612762
117,1610612762,1626220,202711,203497,1628378,201144,1610612764,1629655,1630166,203078,203484,203526,0022100392,3,1761,1763,0,0,1610612764
118,1610612762,1626220,202711,203497,1628378,201144,1610612764,1629655,1630166,203078,203484,203526,0022100392,3,1763,1771,3,0,1610612762
119,1610612762,1626220,1628378,202711,203497,204060,1610612764,1629655,202722,203078,203484,203526,0022100392,3,1789,1799,0,0,1610612764
120,1610612762,1626220,1628378,202355,202711,204060,1610612764,1626149,202722,203078,203484,203526,0022100392,3,1805,1805,2,0,1610612762
121,1610612762,1626220,1628378,202355,202711,204060,1610612764,1626149,202722,203078,203484,203526,0022100392,3,1813,1817,0,0,1610612764
122,1610612762,1626220,1628378,202355,202711,204060,1610612764,1626149,202722,203078,203484,203526,0022100392,3,1818,1818,0,0,1610612762
123,1610612762,1626220,1628378,202355,202711,204060,1610612764,1626149,202722,203078,203484,203526,0022100392,3,1825,1825,0,2,1610612764
124,1610612762,1626220,1628378,202355,202711,204060,1610612764,1626149,202722,203078,203484,203526,0022100392,3,1845,1851,0,0,1610612762
125,1610612762,1626220,1628378,202355,202711,204060,1610612764,1626149,202722,203078,203484,203526,0022100392,3,1862,1862,0,0,1610612764
126,1610612762,1626220,1628378,202355,202711,204060,1610612764,1626149,202722,203078,203484,203526,0022100392,3,1871,1874,0,0,1610612762
127,1610612762,1626220,1628378,202355,202711,204060,1610612764,1626149,202722,203078,203484,203526,0022100392,3,1890,1890,0,0,1610612764
128,1610612762,1626220,1628378,202355,202711,204060,1610612764,1626149,202722,203078,203484,203526,0022100392,3,1891,1891,1,0,1610612762
129,1610612762,1626220,1628378,202355,202711,204060,1610612764,1626149,1630557,202722,203078,203526,0022100392,3,1905,1908,0,0,1610612764
130,1610612762,1626220,1628378,202355,202711,204060,1610612764,1626149,1630557,202722,203078,203526,0022100392,3,1912,1914,2,0,1610612762
131,1610612762,1626220,1628378,202355,202711,204060,1610612764,1626149,1630557,202722,203078,203526,0022100392,3,1914,1939,0,0,1610612764
132,1610612762,1626220,1628378,202355,202711,204060,1610612764,1626149,1630557,202722,203078,203526,0022100392,3,1950,1950,0,0,1610612762
133,1610612762,1628378,200752,202355,203903,204060,1610612764,1626149,1630557,202722,203078,203526,0022100392,3,1968,1968,0,2,1610612764
134,1610612762,1628378,200752,202355,203903,204060,1610612764,1626149,1630557,202722,203078,203526,0022100392,3,1984,1984,2,0,1610612762
135,1610612762,1628378,200752,202355,203903,204060,1610612764,1626149,1630557,202722,203078,203526,0022100392,3,1996,2000,0,0,1610612764
136,1610612762,1628378,200752,202355,203903,204060,1610612764,1626149,1630557,202722,203078,203526,0022100392,3,2001,2004,0,0,1610612762
137,1610612762,1628378,200752,202355,203903,204060,1610612764,1626149,1630557,202722,203078,203526,0022100392,3,2012,2015,0,0,1610612764
138,1610612762,1628378,200752,202355,203903,204060,1610612764,1626149,1630557,202722,203078,203526,0022100392,3,2020,2020,2,0,1610612762
139,1610612762,1628378,200752,202355,203903,204060,1610612764,1626149,1630557,202722,203078,203526,0022100392,3,2037,2037,0,0,1610612764
140,1610612762,1628378,200752,202355,203903,204060,1610612764,1626149,1630557,202722,203078,203526,0022100392,3,2044,2044,2,0,1610612762
141,1610612762,1628378,200752,202355,203903,204060,1610612764,1626149,1630557,202722,203078,203526,0022100392,3,2058,2070,0,2,1610612764
142,1610612762,200752,201144,203497,203903,204060,1610612764,1626149,1630166,1630557,203526,203915,0022100392,3,2093,2093,2,0,1610612762
143,1610612762,200752,201144,203497,203903,204060,1610612764,1626149,1630166,1630557,203526,203915,0022100392,3,2103,2105,0,0,1610612764
144,1610612762,200752,201144,203497,203903,204060,1610612764,1626149,1630166,1630557,203526,203915,0022100392,3,2122,2122,2,0,1610612762
145,1610612762,200752,201144,203497,203903,204060,1610612764,1626149,1630166,1630557,203526,203915,0022100392,3,2128,2132,0,0,1610612764
146,1610612762,200752,201144,203497,203903,204060,1610612764,1626149,1630166,1630557,203526,203915,0022100392,3,2155,2155,0,0,1610612762
147,1610612762,200752,201144,203497,203903,204060,1610612764,1626149,1630166,1630557,203526,203915,0022100392,3,2159,2159,0,0,1610612762
148,1610612762,203497,201144,204060,203903,200752,1610612764,1630166,203915,1626149,1630557,1628988,0022100392,4,2160,2173,3,0,1610612762
149,1610612762,203497,201144,204060,203903,200752,1610612764,1630166,203915,1626149,1630557,1628988,0022100392,4,2187,2191,0,0,1610612764
150,1610612762,203497,201144,204060,203903,200752,1610612764,1630166,203915,1626149,1630557,1628988,0022100392,4,2194,2195,0,0,1610612762
151,1610612762,203497,201144,204060,203903,200752,1610612764,1630166,203915,1626149,1630557,1628988,0022100392,4,2205,2216,0,2,1610612764
152,1610612762,203497,201144,204060,203903,200752,1610612764,1630166,203915,1626149,1630557,1628988,0022100392,4,2239,2239,3,0,1610612762
153,1610612762,203497,201144,204060,203903,200752,1610612764,1630166,203915,1626149,1630557,1628988,0022100392,4,2251,2251,0,2,1610612764
154,1610612762,203497,201144,204060,203903,200752,1610612764,1630166,203915,1626149,1630557,1628988,0022100392,4,2265,2277,2,0,1610612762
155,1610612762,203497,201144,204060,203903,200752,1610612764,1630166,203915,1626149,1630557,1628988,0022100392,4,2299,2299,0,3,1610612764
156,1610612762,203497,201144,204060,203903,200752,1610612764,1630166,203915,1626149,1630557,1628988,0022100392,4,2309,2309,2,0,1610612762
157,1610612762,203497,201144,204060,203903,200752,1610612764,1630166,203915,1626149,1630557,1628988,0022100392,4,2309,2334,0,2,1610612764
158,1610612762,203497,201144,204060,203903,200752,1610612764,1626149,1628988,1630557,202722,203915,0022100392,4,2345,2345,2,0,1610612762
159,1610612762,203497,201144,204060,203903,200752,1610612764,1626149,1628988,1630557,202722,203915,0022100392,4,2361,2364,0,0,1610612764
160,1610612762,203497,201144,204060,203903,200752,1610612764,1626149,1628988,1630557,202722,203915,0022100392,4,2374,2394,0,0,1610612762
161,1610612762,203497,201144,204060,203903,200752,1610612764,1626149,1628988,1630557,202722,203915,0022100392,4,2403,2403,0,1,1610612764
162,1610612762,1628378,200752,202355,203903,204060,1610612764,1626149,1630557,202722,203078,203526,0022100392,4,2421,2421,2,0,1610612762
163,1610612762,1628378,200752,202355,203903,204060,1610612764,1626149,1630557,202722,203078,203526,0022100392,4,2437,2441,0,0,1610612764
164,1610612762,1626220,1628378,200752,202355,203903,1610612764,1626149,1630557,202722,203078,203526,0022100392,4,2455,2455,3,0,1610612762
165,1610612762,1626220,1628378,202355,202711,203903,1610612764,1629655,1630557,202722,203078,203526,0022100392,4,2473,2478,0,3,1610612764
166,1610612762,1626220,1628378,202355,202711,203903,1610612764,1629655,1630557,202722,203078,203526,0022100392,4,2497,2499,0,0,1610612762
167,1610612762,1626220,1628378,202355,202711,203903,1610612764,1629655,1630557,202722,203078,203526,0022100392,4,2503,2503,0,2,1610612764
168,1610612762,1626220,1628378,202355,202711,203903,1610612764,1629655,1630557,202722,203078,203526,0022100392,4,2525,2525,2,0,1610612762
169,1610612762,1626220,1628378,202355,202711,203903,1610612764,1629655,1630557,202722,203078,203526,0022100392,4,2538,2538,0,2,1610612764
170,1610612762,1626220,1628378,202355,202711,203903,1610612764,1629655,1630557,202722,203078,203526,0022100392,4,2557,2557,2,0,1610612762
171,1610612762,1626220,1628378,202355,202711,203903,1610612764,1629655,1630557,202722,203078,203526,0022100392,4,2581,2585,0,0,1610612764
172,1610612762,1626220,1628378,202355,202711,203903,1610612764,1629655,1630557,202722,203078,203526,0022100392,4,2600,2617,3,0,1610612762
173,1610612762,1626220,1628378,202355,202711,203903,1610612764,1629655,202722,203078,203484,203915,0022100392,4,2632,2632,0,2,1610612764
174,1610612762,1626220,1628378,201144,202711,203497,1610612764,1629655,202722,203078,203484,203915,0022100392,4,2641,2641,2,0,1610612762
175,1610612762,1626220,1628378,201144,202711,203497,1610612764,1629655,1630166,203078,203484,203915,0022100392,4,2652,2652,0,0,1610612764
176,1610612762,1626220,1628378,201144,202711,203497,1610612764,1629655,1630166,203078,203484,203915,0022100392,4,2655,2655,0,0,1610612762
177,1610612762,1626220,1628378,201144,202711,203497,1610612764,1629655,1630166,203078,203484,203915,0022100392,4,2667,2671,0,2,1610612764
178,1610612762,1626220,1628378,201144,202711,203497,1610612764,1629655,1630166,203078,203484,203915,0022100392,4,2685,2688,0,0,1610612762
179,1610612762,1626220,1628378,201144,202711,203497,1610612764,1629655,1630166,203078,203484,203915,0022100392,4,2696,2696,0,0,1610612764
180,1610612762,1626220,1628378,201144,202711,203497,1610612764,1629655,1630166,203078,203484,203915,0022100392,4,2707,2707,3,0,1610612762
181,1610612762,1626220,1628378,201144,202711,203497,1610612764,1629655,1630166,203078,203484,203915,0022100392,4,2709,2724,0,2,1610612764
182,1610612762,1629671,1629672,1630215,1630235,202355,1610612764,1628988,1630216,1630225,1630264,1630555,0022100392,4,2731,2731,3,0,1610612762
183,1610612762,1629671,1629672,1630215,1630235,202355,1610612764,1628988,1630216,1630225,1630264,1630555,0022100392,4,2740,2740,0,3,1610612764
184,1610612762,1629671,1629672,1630215,1630235,202355,1610612764,1628988,1630216,1630225,1630264,1630555,0022100392,4,2755,2759,2,0,1610612762
185,1610612762,1629671,1629672,1630215,1630235,202355,1610612764,1628988,1630216,1630225,1630264,1630555,0022100392,4,2777,2780,0,0,1610612764
186,1610612762,1629671,1629672,1630215,1630235,202355,1610612764,1628988,1630216,1630225,1630264,1630555,0022100392,4,2789,2789,3,0,1610612762
187,1610612762,1629671,1629672,1630215,1630235,202355,1610612764,1628988,1630216,1630225,1630264,1630555,0022100392,4,2805,2809,0,0,1610612764
188,1610612762,1629671,1629672,1630215,1630235,202355,1610612764,1628988,1630216,1630225,1630264,1630555,0022100392,4,2814,2814,2,0,1610612762
189,1610612762,1629671,1629672,1630215,1630235,202355,1610612764,1628988,1630216,1630225,1630264,1630555,0022100392,4,2830,2830,0,3,1610612764
190,1610612762,1629671,1629672,1630215,1630235,202355,1610612764,1628988,1630216,1630225,1630264,1630555,0022100392,4,2845,2845,3,0,1610612762
191,1610612762,1629671,1629672,1630215,1630235,202355,1610612764,1628988,1630216,1630225,1630264,1630555,0022100392,4,2855,2860,0,0,1610612764
