,TEAM_ID_1,TEAM_1_PLAYERS,TEAM_ID_2,TEAM_2_PLAYERS,PERIOD
0,1610612750,[1629006  203496  203476  203952  203894],1610612743,[ 203115  200794  203999  203914 1627750],1
1,1610612750,[ 203496  203952  201952 1629669  203943],1610612743,[ 203914  203924 1628420 1629008  203486],2
2,1610612750,[1629006  203496  203476  203952  203894],1610612743,[ 203115  200794  203999  203914 1627750],3
3,1610612750,[ 203952  201952 1628966 1629669  203943],1610612743,[ 203115  203924 1628420  203486 1627736],4
