,stint_start,t1_points_scored,t2_pm,stint_end,t1_id,t2_points_scored,t1_players,t2_id,t1_pm,t2_players,margin_per_100,num_poss
0,0,9,-5,183,1610612756,4,"[1626162, 203967, 1626163, 1626164, 204020]",1610612750,5,"[1629633, 203943, 1626157, 203952, 201952]",41.66666666666667,12.0
1,184,17,-1,364,1610612756,16,"[1626162, 203967, 1626163, 1626164, 204020]",1610612750,1,"[1629633, 203943, 1626157, 203952, 201952]",3.571428571428571,28.0
2,365,19,2,437,1610612756,21,"[1626162, 1626163, 1626164, 1628969, 204020]",1610612750,-2,"[1626157, 1628966, 1629633, 201952, 203952]",-6.451612903225806,31.0
3,438,19,2,454,1610612756,21,"[1626162, 1626163, 1626164, 1628969, 204020]",1610612750,-2,"[1626157, 1628966, 1629669, 201952, 203952]",-6.0606060606060606,33.0
4,455,19,2,474,1610612756,21,"[1626162, 1626163, 1626164, 1628969, 204020]",1610612750,-2,"[1628966, 1629669, 201952, 203476, 203952]",-5.714285714285714,35.0
5,475,24,-1,577,1610612756,23,"[1626162, 1626164, 1628969, 1629059, 203967]",1610612750,1,"[1628966, 1629669, 201952, 203476, 203952]",2.380952380952381,42.0
6,578,26,-3,667,1610612756,23,"[1626162, 1626164, 1628969, 1629059, 203967]",1610612750,3,"[1628966, 1629103, 1629669, 203476, 203952]",6.122448979591836,49.0
7,668,28,-5,689,1610612756,23,"[1626164, 1628969, 1629059, 1629661, 203967]",1610612750,5,"[1628966, 1629103, 1629669, 203476, 203952]",9.803921568627452,51.0
8,690,30,-7,717,1610612756,23,"[1628969, 1629059, 1629661, 203967, 204020]",1610612750,7,"[1626157, 1628966, 1629103, 1629669, 201952]",13.20754716981132,53.0
9,718,33,-7,928,1610612756,26,"[1627767, 1628969, 1629059, 1629661, 204020]",1610612750,7,"[1626157, 1628966, 1629103, 1629669, 201952]",10.294117647058822,68.0
10,929,38,-9,990,1610612756,29,"[204020, 1628969, 1629059, 1629661, 1627767]",1610612750,9,"[1629633, 203943, 1626157, 201952, 1629103]",12.5,72.0
11,991,40,-6,1093,1610612756,34,"[1626162, 1627767, 1629059, 1629661, 204020]",1610612750,6,"[1629633, 203943, 1626157, 201952, 1629103]",7.59493670886076,79.0
12,1094,43,-7,1208,1610612756,36,"[1626162, 1626163, 1626164, 1629661, 204020]",1610612750,7,"[1626157, 1628395, 1628966, 1629633, 203952]",8.235294117647058,85.0
13,1209,47,-7,1307,1610612756,40,"[1626162, 1626163, 1626164, 203967, 204020]",1610612750,7,"[1626157, 1628395, 1628966, 1629633, 203952]",7.6923076923076925,91.0
14,1308,52,-7,1439,1610612756,45,"[1626162, 1626163, 1626164, 1629059, 203967]",1610612750,7,"[1628395, 1628966, 201952, 203476, 203952]",6.9306930693069315,101.0
15,1440,61,-2,1702,1610612756,59,"[1626162, 1626163, 1626164, 1629059, 203967]",1610612750,2,"[1626157, 1628966, 201952, 203476, 203952]",1.7241379310344827,116.0
16,1703,63,-1,1765,1610612756,62,"[1626162, 203967, 1626163, 1626164, 204020]",1610612750,1,"[1629633, 1626157, 203952, 201952, 1628966]",0.819672131147541,122.0
17,1766,68,-1,1890,1610612756,67,"[1626162, 203967, 1626163, 1626164, 204020]",1610612750,1,"[1626157, 1628966, 1629633, 1629669, 201952]",0.7575757575757576,132.0
18,1891,79,-8,2107,1610612756,71,"[1626162, 1626164, 1628969, 1629059, 203967]",1610612750,8,"[1626157, 1628966, 1629103, 1629669, 201952]",5.442176870748299,147.0
19,2108,79,-8,2126,1610612756,71,"[1626164, 1627767, 1628969, 1629059, 1629661]",1610612750,8,"[1628966, 1629103, 1629669, 203476, 203952]",5.405405405405405,148.0
20,2127,80,-7,2155,1610612756,73,"[1626162, 1627767, 1628969, 1629059, 1629661]",1610612750,7,"[1628966, 1629103, 1629669, 203476, 203952]",4.666666666666667,150.0
21,2156,85,-10,2263,1610612756,75,"[1626162, 1627767, 1628969, 1629059, 1629661]",1610612750,10,"[1626157, 1628966, 1629103, 1629669, 201952]",6.369426751592357,157.0
22,2264,85,-8,2302,1610612756,77,"[1626162, 1628969, 1629059, 1629661, 1627767]",1610612750,8,"[1629633, 1626157, 201952, 1629103, 1628395]",5.0,160.0
23,2303,85,-8,2358,1610612756,77,"[1626162, 1627767, 1628969, 1629059, 203967]",1610612750,8,"[1629633, 1626157, 201952, 1629103, 1628395]",4.848484848484849,165.0
24,2359,90,-7,2503,1610612756,83,"[1626162, 1627767, 1628969, 203967, 204020]",1610612750,7,"[1626157, 1628395, 1629633, 201952, 203952]",3.977272727272727,176.0
25,2504,92,-6,2593,1610612756,86,"[1626162, 1626163, 1626164, 203967, 204020]",1610612750,6,"[1626157, 1628395, 1628966, 1629633, 203952]",3.314917127071823,181.0
26,2594,96,-2,2821,1610612756,94,"[1626162, 1626163, 1626164, 1629661, 204020]",1610612750,2,"[1626157, 1628395, 1628966, 1629633, 203952]",1.0309278350515463,194.0
27,2822,98,-4,2831,1610612756,94,"[1626162, 1626163, 1626164, 1629661, 204020]",1610612750,4,"[1626157, 1628395, 1628966, 201952, 203952]",2.051282051282051,195.0
28,2832,98,-3,2874,1610612756,95,"[1626162, 1626163, 1626164, 1628969, 1629661]",1610612750,3,"[1626157, 1628395, 1628966, 201952, 203952]",1.5228426395939088,197.0
29,2875,98,-3,2874,1610612756,95,"[1626162, 1626163, 1626164, 1629661, 204020]",1610612750,3,"[1626157, 1628395, 1628966, 201952, 203952]",1.5228426395939088,197.0
30,2875,100,-2,9999999,1610612756,98,"[1626162, 1626163, 1626164, 1628969, 1629661]",1610612750,2,"[1626157, 1628395, 1628966, 1629669, 201952]",1.0,200.0
