,t1_pm,t2_pm,stint_start,t2_points_scored,t2_players,t2_id,t1_id,t1_players,stint_end,t1_points_scored,margin_per_100,num_poss
0,-2,2,0,22,"[1626181, 203496, 203994, 203468, 203081]",1610612757,1610612743,"[1629008, 203932, 203999, 203085, 1630267]",397,20,-7.142857142857142,28.0
1,-1,1,398,23,"[1626181, 203496, 203994, 203468, 203081]",1610612757,1610612743,"[1629008, 203932, 203999, 203085, 1630267]",429,22,-3.3333333333333335,30.0
2,-6,6,430,31,"[1626181, 203081, 203468, 203994, 2546]",1610612757,1610612743,"[1628420, 1629008, 200794, 203085, 203932]",556,25,-15.384615384615385,39.0
3,-6,6,557,33,"[1626181, 203081, 203468, 203496, 2546]",1610612757,1610612743,"[1628420, 1629008, 200794, 203085, 203932]",629,27,-13.333333333333334,45.0
4,-9,9,630,36,"[1626178, 1629014, 203081, 203496, 2546]",1610612757,1610612743,"[1628420, 1629008, 200794, 203085, 203210]",700,27,-17.647058823529413,51.0
5,-7,7,701,36,"[1626178, 1629014, 203081, 203496, 2546]",1610612757,1610612743,"[1628420, 1629008, 1630267, 200794, 203210]",718,29,-13.461538461538462,52.0
6,-10,10,719,41,"[1626181, 1629014, 203081, 203468, 2546]",1610612757,1610612743,"[1627885, 1628420, 1630267, 203085, 203210]",809,31,-17.24137931034483,58.0
7,-7,7,810,48,"[1626181, 203468, 2546, 1626178, 1629014]",1610612757,1610612743,"[1630267, 200794, 1628420, 203210, 1630210]",965,41,-10.144927536231885,69.0
8,-7,7,966,48,"[1626181, 1629014, 203468, 203994, 2546]",1610612757,1610612743,"[1628420, 1630210, 1630267, 203210, 203999]",994,41,-9.859154929577464,71.0
9,-5,5,995,48,"[1629014, 203081, 203468, 203994, 2546]",1610612757,1610612743,"[1628420, 1630210, 1630267, 203932, 203999]",1036,43,-6.756756756756757,74.0
10,-3,3,1037,50,"[1629014, 203081, 203468, 203994, 2546]",1610612757,1610612743,"[1630210, 1630267, 203085, 203932, 203999]",1113,47,-3.79746835443038,79.0
11,-7,7,1114,56,"[1629014, 203081, 203468, 203496, 203994]",1610612757,1610612743,"[1629008, 1630267, 203085, 203932, 203999]",1222,49,-7.865168539325842,89.0
12,-7,7,1223,68,"[1626181, 203081, 203468, 203496, 203994]",1610612757,1610612743,"[1629008, 1630267, 203085, 203932, 203999]",1439,61,-6.796116504854369,103.0
13,-15,15,1440,85,"[1626181, 1629014, 203081, 203496, 203994]",1610612757,1610612743,"[1628420, 1629008, 203085, 203932, 203999]",1709,70,-12.605042016806722,119.0
14,-16,16,1710,86,"[1626181, 203496, 203994, 203468, 203081]",1610612757,1610612743,"[1629008, 203932, 203999, 203085, 1630267]",1724,70,-13.333333333333334,120.0
15,-17,17,1725,96,"[1626181, 203496, 203994, 203468, 203081]",1610612757,1610612743,"[1628420, 1629008, 203085, 203932, 203999]",1880,79,-13.076923076923078,130.0
16,-14,14,1881,98,"[1629014, 203081, 203468, 203496, 203994]",1610612757,1610612743,"[1628420, 1629008, 203085, 203932, 203999]",1968,84,-10.218978102189782,137.0
17,-11,11,1969,100,"[1629014, 203081, 203468, 203994, 2546]",1610612757,1610612743,"[1628420, 203085, 203210, 203932, 203999]",2038,89,-7.6923076923076925,143.0
18,-7,7,2039,100,"[1629014, 203081, 203496, 203994, 2546]",1610612757,1610612743,"[1628420, 1630267, 203210, 203932, 203999]",2090,93,-4.761904761904762,147.0
19,-7,7,2091,102,"[1626181, 1629014, 203081, 203496, 2546]",1610612757,1610612743,"[1628420, 1629008, 1630267, 203210, 203999]",2155,95,-4.635761589403973,151.0
20,-9,9,2156,104,"[1626181, 1629014, 203081, 203496, 2546]",1610612757,1610612743,"[1628420, 1629008, 203085, 203210, 203999]",2159,95,-5.921052631578947,152.0
21,-4,4,2160,109,"[1629014, 203081, 203468, 203496, 2546]",1610612757,1610612743,"[1628420, 1629008, 203085, 203210, 203999]",2453,105,-2.366863905325444,169.0
22,-3,3,2454,111,"[203496, 203468, 203081, 2546, 1626178]",1610612757,1610612743,"[1629008, 203085, 200794, 1628420, 203210]",2520,108,-1.744186046511628,172.0
23,-1,1,2521,111,"[1626181, 203081, 203468, 203994, 2546]",1610612757,1610612743,"[1628420, 1629008, 203085, 203210, 203999]",2547,110,-0.5780346820809248,173.0
24,5,-5,2548,116,"[1626181, 203081, 203468, 203994, 2546]",1610612757,1610612743,"[1628420, 203085, 203210, 203932, 203999]",2793,121,2.6737967914438503,187.0
25,6,-6,2794,118,"[1626181, 203081, 203468, 203496, 203994]",1610612757,1610612743,"[1628420, 203085, 203210, 203932, 203999]",2848,124,3.1578947368421053,190.0
26,8,-8,2849,118,"[1626181, 203081, 203468, 203496, 2546]",1610612757,1610612743,"[1628420, 203085, 203210, 203932, 203999]",2857,126,4.18848167539267,191.0
27,8,-8,2858,118,"[1626178, 1628388, 1629014, 1629642, 1629833]",1610612757,1610612743,"[1628420, 203085, 203210, 203932, 203999]",9999999,126,4.166666666666666,192.0
