,TEAM_ID_1,TEAM_1_PLAYERS,TEAM_ID_2,TEAM_2_PLAYERS,PERIOD
0,1610612759,[1628966 1630563 1627751 1627749 1629022],1610612752,[1629628  203944 1629011  202692  203095],1
1,1610612759,[1627751 1627749 1629022 1629719 1627854],1610612752,[ 202692 1630193  201959 1629656 1630167],2
2,1610612759,[1628966 1630563 1627751 1627749 1629022],1610612752,[1629628  203944 1629011  202692  203095],3
3,1610612759,[1630563 1627751 1629022 1629719 1627854],1610612752,[1629628 1630193  201959 1629656 1630167],4
