,TEAM_ID_1,TEAM_1_PLAYERS,TEAM_ID_2,TEAM_2_PLAYERS,PERIOD
0,1610612750,[1630162 1629006 1626157 1627736  201937],1610612766,[1626179  202330  203469 1628984 1630163],1
1,1610612750,[1627736 1630183 1629675 1629162 1629669],1610612766,[1626179  203469 1630163 1628970 1628370],2
2,1610612750,[1630162 1629006 1626157 1627736  201937],1610612766,[1626179  202330  203469 1628984 1630163],3
3,1610612750,[1627736 1630183 1629675 1629162 1629669],1610612766,[1626179  203469 1628984 1628970 1628370],4
