,stint_start,t1_points_scored,t2_pm,stint_end,t1_id,t2_points_scored,t1_players,t2_id,t1_pm,t2_players,margin_per_100,num_poss
0,0,9,2,321,1610612760,11,"[1628390, 201568, 203500, 1628983, 101108]",1610612747,-2,"[2544, 203076, 201580, 201980, 203484]",-10.526315789473683,19.0
1,322,9,4,339,1610612760,13,"[1628390, 201568, 203500, 1628983, 101108]",1610612747,-4,"[2544, 203076, 201580, 201980, 203484]",-20.0,20.0
2,340,11,2,352,1610612760,13,"[101108, 1628390, 1628983, 201568, 203457]",1610612747,-2,"[2544, 203076, 201580, 201980, 203484]",-8.695652173913043,23.0
3,353,13,7,423,1610612760,20,"[101108, 1628390, 1628983, 201568, 203457]",1610612747,-7,"[1628398, 201980, 203076, 203484, 2544]",-21.875,32.0
4,424,15,7,482,1610612760,22,"[1628390, 1628983, 201568, 203457, 203471]",1610612747,-7,"[1628398, 200765, 201980, 203076, 2544]",-19.444444444444446,36.0
5,483,17,5,489,1610612760,22,"[1628390, 1628983, 1629647, 203457, 203471]",1610612747,-5,"[1628398, 200765, 201980, 203076, 2544]",-13.513513513513514,37.0
6,490,17,5,536,1610612760,22,"[1628390, 1628983, 1629647, 203457, 203471]",1610612747,-5,"[1626188, 1627936, 1628398, 200765, 203076]",-12.82051282051282,39.0
7,537,19,6,595,1610612760,25,"[1627846, 1628983, 1629647, 203457, 203471]",1610612747,-6,"[1626188, 1627936, 1628398, 200765, 203076]",-13.636363636363635,44.0
8,596,26,6,694,1610612760,32,"[1627846, 1629126, 1629647, 203457, 203471]",1610612747,-6,"[1626188, 1627936, 1628398, 200765, 203076]",-12.0,50.0
9,695,26,7,706,1610612760,33,"[1627846, 1629126, 1629647, 203471, 203500]",1610612747,-7,"[1626188, 1627936, 1628398, 200765, 203076]",-13.461538461538462,52.0
10,707,28,5,717,1610612760,33,"[101108, 1627846, 201568, 203471, 203500]",1610612747,-5,"[1627936, 1628398, 200765, 203076, 2730]",-9.433962264150944,53.0
11,718,31,4,768,1610612760,35,"[101108, 1627846, 1629647, 203471, 203500]",1610612747,-4,"[1626188, 1627936, 1628398, 200765, 203076]",-7.142857142857142,56.0
12,769,33,5,841,1610612760,38,"[203500, 101108, 203471, 1629647, 1627846]",1610612747,-5,"[2544, 1628398, 200765, 1627936, 2730]",-8.333333333333332,60.0
13,842,33,5,878,1610612760,38,"[101108, 1628390, 1629647, 203471, 203500]",1610612747,-5,"[2544, 1628398, 200765, 1627936, 2730]",-7.936507936507936,63.0
14,879,35,5,969,1610612760,40,"[101108, 1628390, 1629647, 203457, 203471]",1610612747,-5,"[2544, 1628398, 200765, 1627936, 2730]",-7.246376811594203,69.0
15,970,39,4,1029,1610612760,43,"[101108, 1628390, 1629126, 203457, 203471]",1610612747,-4,"[1627936, 200765, 203484, 2544, 2730]",-5.555555555555555,72.0
16,1030,39,6,1071,1610612760,45,"[101108, 1628390, 1628983, 1629126, 203457]",1610612747,-6,"[1627936, 200765, 203484, 2544, 2730]",-7.894736842105263,76.0
17,1072,41,6,1109,1610612760,47,"[101108, 1628390, 1628983, 201568, 203457]",1610612747,-6,"[1627936, 200765, 203484, 2544, 2730]",-7.6923076923076925,78.0
18,1110,41,11,1176,1610612760,52,"[101108, 1628390, 1628983, 201568, 203457]",1610612747,-11,"[1626188, 1627936, 203076, 203484, 2730]",-13.580246913580247,81.0
19,1177,51,4,1280,1610612760,55,"[101108, 1628390, 1628983, 201568, 203500]",1610612747,-4,"[1626188, 201980, 203076, 203484, 2730]",-4.545454545454546,88.0
20,1281,53,10,1439,1610612760,63,"[1628390, 1628983, 201568, 203471, 203500]",1610612747,-10,"[1626188, 200765, 203076, 203484, 2730]",-9.900990099009901,101.0
21,1440,67,2,1694,1610612760,69,"[1628390, 1628983, 201568, 203471, 203500]",1610612747,-2,"[200765, 203076, 203484, 2544, 2730]",-1.694915254237288,118.0
22,1695,71,7,1836,1610612760,78,"[1628390, 201568, 203500, 1628983, 101108]",1610612747,-7,"[2544, 203076, 201580, 201980, 203484]",-5.426356589147287,129.0
23,1837,73,9,1904,1610612760,82,"[101108, 1628390, 1628983, 201568, 203457]",1610612747,-9,"[2544, 203076, 201580, 201980, 203484]",-6.7669172932330826,133.0
24,1905,78,4,1933,1610612760,82,"[101108, 1628390, 201568, 203457, 203471]",1610612747,-4,"[200765, 201580, 203076, 203484, 2544]",-2.941176470588235,136.0
25,1934,80,5,2014,1610612760,85,"[1628390, 1628983, 201568, 203457, 203471]",1610612747,-5,"[200765, 203076, 203484, 2544, 2730]",-3.571428571428571,140.0
26,2015,80,9,2067,1610612760,89,"[1628390, 1628983, 1629647, 203457, 203471]",1610612747,-9,"[1626188, 200765, 203076, 203484, 2730]",-6.25,144.0
27,2068,87,6,2159,1610612760,93,"[1628390, 1628983, 1629647, 203471, 203500]",1610612747,-6,"[1626188, 1627936, 200765, 203076, 2730]",-3.9735099337748347,151.0
28,2160,87,8,2213,1610612760,95,"[1627846, 1628983, 1629647, 203471, 203500]",1610612747,-8,"[1626188, 1627936, 200765, 203076, 2730]",-5.194805194805195,154.0
29,2214,87,11,2298,1610612760,98,"[203500, 1628983, 203471, 1629647, 1627846]",1610612747,-11,"[2544, 200765, 1626188, 1627936, 2730]",-6.875000000000001,160.0
30,2299,89,9,2368,1610612760,98,"[203500, 1628983, 203471, 1629647, 1627846]",1610612747,-9,"[1626188, 1627936, 200765, 201580, 2544]",-5.487804878048781,164.0
31,2369,89,9,2384,1610612760,98,"[1627846, 1628983, 1629126, 203457, 203471]",1610612747,-9,"[1626188, 1627936, 200765, 201580, 2544]",-5.421686746987952,166.0
32,2385,91,7,2391,1610612760,98,"[101108, 1627846, 1629126, 203457, 203471]",1610612747,-7,"[1626188, 1627936, 200765, 201580, 2544]",-4.191616766467066,167.0
33,2392,93,7,2445,1610612760,100,"[101108, 1627846, 1629126, 203457, 203471]",1610612747,-7,"[1626188, 1627936, 201580, 203484, 2544]",-4.142011834319527,169.0
34,2446,95,7,2578,1610612760,102,"[101108, 1629126, 201568, 203457, 203471]",1610612747,-7,"[1626188, 1627936, 201580, 203484, 2544]",-3.954802259887006,177.0
35,2579,98,6,2631,1610612760,104,"[101108, 1629126, 201568, 203457, 203471]",1610612747,-6,"[1627936, 201580, 203076, 203484, 2544]",-3.35195530726257,179.0
36,2632,98,11,2680,1610612760,109,"[101108, 1628983, 1629126, 201568, 203457]",1610612747,-11,"[201580, 201980, 203076, 203484, 2544]",-6.043956043956044,182.0
37,2681,105,4,2776,1610612760,109,"[101108, 1628390, 1628983, 201568, 203457]",1610612747,-4,"[201580, 201980, 203076, 203484, 2544]",-2.13903743315508,187.0
38,2777,107,5,2850,1610612760,112,"[101108, 1628983, 201568, 203457, 203471]",1610612747,-5,"[201580, 201980, 203076, 203484, 2544]",-2.6178010471204187,191.0
39,2851,107,5,9999999,1610612760,112,"[101108, 1628983, 201568, 203457, 203471]",1610612747,-5,"[200765, 201980, 203076, 203484, 2544]",-2.5906735751295336,193.0
