,TEAM_ID_1,TEAM_1_PLAYERS,TEAM_ID_2,TEAM_2_PLAYERS,PERIOD
0,1610612737,[ 203503 1628381  203991  203992 1629027],1610612744,[ 203952  203110 1630164 1626162 1629673],1
1,1610612737,[1628989  201568 1630168  203524 1630219],1610612744,[1626162 1629673 1630185 1626172 1627814],2
2,1610612737,[ 203503 1628381  203991  203992 1629027],1610612744,[ 203952  203110 1630164 1626162 1629673],3
3,1610612737,[1628381 1628989  201568  203524 1630219],1610612744,[1626162 1629673 1630185 1626172 1629308],4
