,t1_points_scored,stint_end,t2_pm,t1_players,t2_id,t1_id,t2_players,t2_points_scored,t1_pm,stint_start,margin_per_100,num_poss
0,8,224,2,"[1626192, 203648, 201577, 202083, 1628425]",1610612743,1610612749,"[203115, 200794, 203999, 203914, 1627750]",10,-2,0,-14.285714285714285,14.0
1,11,263,2,"[1626192, 203648, 201577, 202083, 1628425]",1610612743,1610612749,"[203115, 200794, 203999, 203914, 1627750]",13,-2,225,-11.76470588235294,17.0
2,17,451,5,"[1626192, 1628391, 1628425, 202083, 203648]",1610612743,1610612749,"[203115, 200794, 203999, 203914, 1627750]",22,-5,264,-16.129032258064516,31.0
3,17,524,7,"[1628391, 1628412, 1628425, 201577, 202083]",1610612743,1610612749,"[203115, 200794, 203999, 203914, 1627750]",24,-7,452,-19.444444444444446,36.0
4,19,582,8,"[101141, 1626192, 1628391, 1628412, 2594]",1610612743,1610612749,"[1628420, 203115, 203914, 203924, 203999]",27,-8,525,-20.0,40.0
5,19,601,8,"[101141, 1626192, 1628391, 1628412, 2594]",1610612743,1610612749,"[1628420, 1629008, 203914, 203924, 203999]",27,-8,583,-19.51219512195122,41.0
6,24,714,15,"[101141, 1626192, 1628391, 1628412, 2594]",1610612743,1610612749,"[1627750, 1628420, 1629008, 203486, 203924]",39,-15,602,-30.0,50.0
7,28,793,13,"[101141, 1626192, 1628412, 203648, 2594]",1610612743,1610612749,"[1627750, 1628420, 1629008, 203486, 203924]",41,-13,715,-23.636363636363637,55.0
8,30,830,11,"[1626192, 1628425, 1628412, 101141, 2594]",1610612743,1610612749,"[1627750, 203924, 1628420, 1629008, 203486]",41,-11,794,-18.96551724137931,58.0
9,34,958,14,"[101141, 1628412, 1628425, 202083, 203648]",1610612743,1610612749,"[1627750, 203924, 1628420, 1629008, 203486]",48,-14,831,-20.28985507246377,69.0
10,36,1026,14,"[1628412, 1628425, 201577, 202083, 203648]",1610612743,1610612749,"[1627750, 203924, 1628420, 1629008, 203486]",50,-14,959,-19.17808219178082,73.0
11,36,1121,16,"[1628391, 1628412, 1628425, 201577, 202083]",1610612743,1610612749,"[1627750, 1628420, 200794, 203115, 203924]",52,-16,1027,-20.0,80.0
12,42,1198,12,"[1628391, 1628412, 1628425, 201577, 202083]",1610612743,1610612749,"[1628420, 200794, 203115, 203914, 203924]",54,-12,1122,-13.636363636363635,88.0
13,44,1267,13,"[101141, 1626192, 201577, 202083, 2594]",1610612743,1610612749,"[1628420, 200794, 203115, 203914, 203999]",57,-13,1199,-13.978494623655912,93.0
14,54,1390,6,"[101141, 1626192, 1628412, 202083, 2594]",1610612743,1610612749,"[1627750, 200794, 203115, 203914, 203999]",60,-6,1268,-5.88235294117647,102.0
15,54,1439,8,"[101141, 1626192, 1628412, 1628425, 2594]",1610612743,1610612749,"[1627750, 203115, 203914, 203924, 203999]",62,-8,1391,-7.6190476190476195,105.0
16,59,1715,8,"[1626192, 1628412, 1628425, 201577, 2594]",1610612743,1610612749,"[1627750, 203115, 203914, 203924, 203999]",67,-8,1440,-6.299212598425196,127.0
17,61,1810,6,"[1626192, 203648, 201577, 202083, 1628425]",1610612743,1610612749,"[203115, 200794, 203999, 203914, 1627750]",67,-6,1716,-4.580152671755725,131.0
18,61,1923,11,"[1628391, 1628412, 1628425, 201577, 202083]",1610612743,1610612749,"[203115, 200794, 203999, 203914, 1627750]",72,-11,1811,-7.801418439716312,141.0
19,66,1998,6,"[1628391, 1628412, 1628425, 201577, 202083]",1610612743,1610612749,"[1628420, 200794, 203115, 203914, 203999]",72,-6,1924,-4.10958904109589,146.0
20,66,2033,6,"[101141, 1626192, 1628391, 1628412, 2594]",1610612743,1610612749,"[1628420, 1629008, 203914, 203924, 203999]",72,-6,1999,-4.081632653061225,147.0
21,71,2159,3,"[101141, 1626192, 1628391, 1628412, 2594]",1610612743,1610612749,"[1628420, 1629008, 203486, 203914, 203924]",74,-3,2034,-1.89873417721519,158.0
22,76,2284,6,"[101141, 1626192, 1628391, 1628412, 2594]",1610612743,1610612749,"[1627750, 1628420, 1629008, 203486, 203924]",82,-6,2160,-3.571428571428571,168.0
23,79,2344,3,"[1626192, 203648, 201577, 1628425, 2594]",1610612743,1610612749,"[1627750, 203924, 1628420, 203486, 1628470]",82,-3,2285,-1.744186046511628,172.0
24,79,2393,6,"[1628425, 201577, 202083, 203648, 2594]",1610612743,1610612749,"[1627750, 203924, 1628420, 203486, 1628470]",85,-6,2345,-3.4090909090909087,176.0
25,81,2452,6,"[1628412, 1628425, 201577, 202083, 203648]",1610612743,1610612749,"[1627750, 203924, 1628420, 203486, 1628470]",87,-6,2394,-3.35195530726257,179.0
26,81,2467,8,"[1628412, 1628425, 201577, 202083, 203648]",1610612743,1610612749,"[1627750, 1628420, 203115, 203486, 203924]",89,-8,2453,-4.41988950276243,181.0
27,81,2536,12,"[101141, 1628412, 1628425, 202083, 2594]",1610612743,1610612749,"[1627750, 1628420, 203115, 203486, 203924]",93,-12,2468,-6.451612903225806,186.0
28,89,2674,7,"[101141, 1628412, 1628425, 202083, 2594]",1610612743,1610612749,"[1627750, 203115, 203914, 203924, 203999]",96,-7,2537,-3.608247422680412,194.0
29,91,2733,8,"[1628391, 1628425, 201577, 202083, 2594]",1610612743,1610612749,"[1627750, 203115, 203914, 203924, 203999]",99,-8,2675,-4.060913705583756,197.0
30,93,2776,10,"[1626192, 1628391, 201577, 202083, 2594]",1610612743,1610612749,"[1627750, 203115, 203914, 203924, 203999]",103,-10,2734,-5.0,200.0
31,95,2826,12,"[1626192, 1628425, 201577, 202083, 2594]",1610612743,1610612749,"[1627750, 203115, 203914, 203924, 203999]",107,-12,2777,-5.853658536585367,205.0
32,95,2833,14,"[1626192, 1628391, 1628425, 201577, 2594]",1610612743,1610612749,"[1627750, 203115, 203914, 203924, 203999]",109,-14,2827,-6.796116504854369,206.0
33,95,2849,14,"[1626192, 1628391, 1628412, 1628425, 203648]",1610612743,1610612749,"[1627750, 1628470, 203115, 203914, 203924]",109,-14,2834,-6.763285024154589,207.0
34,95,9999999,14,"[1626192, 1628391, 1628412, 1628425, 203648]",1610612743,1610612749,"[1628408, 1628470, 1629008, 203584, 203943]",109,-14,2850,-6.730769230769231,208.0
