,team1_id,team1_player1,team1_player2,team1_player3,team1_player4,team1_player5,team2_id,team2_player1,team2_player2,team2_player3,team2_player4,team2_player5,game_id,period,possession_start,possession_end,team1_points,team2_points,possession_team
0,1610612741,1627739,1628374,1628976,203897,203107,1610612742,203501,1627827,203939,200826,1629029,0021900545,1,0,19,0,0,1610612741
1,1610612741,1627739,1628374,1628976,203897,203107,1610612742,203501,1627827,203939,200826,1629029,0021900545,1,35,35,0,3,1610612742
2,1610612741,1627739,1628374,1628976,203897,203107,1610612742,203501,1627827,203939,200826,1629029,0021900545,1,62,63,0,0,1610612741
3,1610612741,1627739,1628374,1628976,203897,203107,1610612742,203501,1627827,203939,200826,1629029,0021900545,1,76,76,0,0,1610612742
4,1610612741,1627739,1628374,1628976,203897,203107,1610612742,203501,1627827,203939,200826,1629029,0021900545,1,99,113,0,0,1610612741
5,1610612741,1627739,1628374,1628976,203897,203107,1610612742,203501,1627827,203939,200826,1629029,0021900545,1,125,125,0,3,1610612742
6,1610612741,1627739,1628374,1628976,203897,203107,1610612742,203501,1627827,203939,200826,1629029,0021900545,1,148,148,0,0,1610612741
7,1610612741,1627739,1628374,1628976,203897,203107,1610612742,203501,1627827,203939,200826,1629029,0021900545,1,151,151,0,2,1610612742
8,1610612741,1627739,1628374,1628976,203897,203107,1610612742,203501,1627827,203939,200826,1629029,0021900545,1,173,186,2,0,1610612741
9,1610612741,1627739,1628374,1628976,203897,203107,1610612742,203501,1627827,203939,200826,1629029,0021900545,1,202,202,0,3,1610612742
10,1610612741,1627739,1628374,1628976,203897,203107,1610612742,203501,1627827,203939,200826,1629029,0021900545,1,213,213,3,0,1610612741
11,1610612741,1627739,1628374,1628976,203897,203107,1610612742,203501,1627827,203939,200826,1629029,0021900545,1,229,229,0,2,1610612742
12,1610612741,1627739,1628374,1628976,203897,203107,1610612742,203501,1627827,203939,200826,1629029,0021900545,1,241,241,2,0,1610612741
13,1610612741,1627739,1628374,1628976,203897,203107,1610612742,203501,1627827,203939,200826,1629029,0021900545,1,261,261,0,2,1610612742
14,1610612741,1627739,1628374,1628976,203897,203107,1610612742,203501,1627827,203939,200826,1629029,0021900545,1,272,272,2,0,1610612741
15,1610612741,1627739,1628374,1628976,203897,203107,1610612742,203501,1627827,203939,200826,1629029,0021900545,1,280,280,0,0,1610612742
16,1610612741,1627739,1628374,1628976,203897,203107,1610612742,203501,1627827,203939,200826,1629029,0021900545,1,289,289,3,0,1610612741
17,1610612741,1627739,1628374,1628976,203897,203107,1610612742,203501,1627827,203939,200826,1629029,0021900545,1,291,303,0,3,1610612742
18,1610612741,1627739,1628374,1628976,203897,203107,1610612742,203501,1627827,203939,200826,1629029,0021900545,1,318,318,2,0,1610612741
19,1610612741,1627739,1628374,1628976,203897,203107,1610612742,203501,1627827,203939,200826,1629029,0021900545,1,332,335,0,0,1610612742
20,1610612741,1627739,1628374,1628976,203897,203107,1610612742,203501,1627827,203939,200826,1629029,0021900545,1,340,344,0,0,1610612741
21,1610612741,1627739,1628374,1628976,203897,203107,1610612742,203501,1627827,203939,200826,1629029,0021900545,1,362,364,0,0,1610612742
22,1610612741,1627739,1628374,1628976,203897,203107,1610612742,203501,1627827,203939,200826,1629029,0021900545,1,374,374,2,0,1610612741
23,1610612741,1627739,1628374,1628976,203897,203107,1610612742,203501,1627827,203939,200826,1629029,0021900545,1,392,396,0,0,1610612742
24,1610612741,1627739,1628374,1628976,203897,203107,1610612742,203501,1627827,203939,200826,1629029,0021900545,1,405,405,2,0,1610612741
25,1610612741,1627739,1628374,1628976,203897,203107,1610612742,203501,1627827,203939,200826,1629029,0021900545,1,421,421,0,0,1610612742
26,1610612741,1627739,1628374,1628976,203897,203107,1610612742,203501,1627827,203939,200826,1629029,0021900545,1,427,433,0,0,1610612741
27,1610612741,1627739,1628374,1628976,203897,203107,1610612742,203501,1627827,203939,200826,1629029,0021900545,1,438,438,0,2,1610612742
28,1610612741,1627739,1628374,1628976,203897,203107,1610612742,203501,1627827,203939,200826,1629029,0021900545,1,452,460,0,0,1610612741
29,1610612741,1627739,1628374,1628976,203897,203107,1610612742,203501,1627827,203939,200826,1629029,0021900545,1,463,463,0,3,1610612742
30,1610612741,1628374,1629632,1629655,201152,203897,1610612742,1627827,1628467,1629029,203501,203552,0021900545,1,482,484,0,0,1610612741
31,1610612741,1628374,1629632,1629655,201152,203897,1610612742,1627827,1628467,1629029,203501,203552,0021900545,1,490,490,0,3,1610612742
32,1610612741,1628374,1629632,1629655,201152,203897,1610612742,1627827,1628467,1629029,203501,203552,0021900545,1,518,519,0,0,1610612741
33,1610612741,1628374,1629632,1629655,201152,203897,1610612742,1627827,1628467,1629029,203501,203552,0021900545,1,523,523,0,2,1610612742
34,1610612741,1628374,1629632,1629655,201152,203897,1610612742,1626153,1627827,1628467,1629029,203552,0021900545,1,534,537,0,0,1610612741
35,1610612741,1628374,1629632,1629655,201152,203897,1610612742,1626153,1627827,1628467,1629029,203552,0021900545,1,549,552,0,0,1610612742
36,1610612741,1628374,1629632,1629655,201152,203897,1610612742,1626153,1627827,1628467,1629029,203552,0021900545,1,557,557,2,0,1610612741
37,1610612741,1628374,1628990,1629632,1629655,201152,1610612742,1626153,1628382,1628467,1628973,203552,0021900545,1,575,578,0,0,1610612742
38,1610612741,1628374,1628990,1629632,1629655,201152,1610612742,1626153,1628382,1628467,1628973,203552,0021900545,1,583,583,0,0,1610612741
39,1610612741,1628374,1628990,1629632,1629655,201152,1610612742,1626153,1628382,1628467,1628973,203552,0021900545,1,595,595,0,2,1610612742
40,1610612741,1628374,1628990,1629632,1629655,201152,1610612742,1626153,1628382,1628467,1628973,203552,0021900545,1,608,626,0,0,1610612741
41,1610612741,1628990,1629632,1629655,201152,203107,1610612742,1626153,1628382,1628467,1628973,203552,0021900545,1,638,638,0,2,1610612742
42,1610612741,1628990,1629632,1629655,201152,203107,1610612742,1626153,1628382,1628467,1628973,203552,0021900545,1,658,658,2,0,1610612741
43,1610612741,1628990,1629632,1629655,201152,203107,1610612742,1626153,1628382,1628467,1628973,203552,0021900545,1,677,677,0,0,1610612742
44,1610612741,1628990,1629632,1629655,201152,203107,1610612742,1626153,1628382,1628467,1628973,203552,0021900545,1,686,691,3,0,1610612741
45,1610612741,1628990,1629632,1629655,201152,203107,1610612742,1626153,1628382,1628467,1628973,203552,0021900545,1,710,710,0,1,1610612742
46,1610612741,1628990,1629632,1629655,201152,203107,1610612742,1626153,1628382,1628467,1628973,203552,0021900545,1,715,715,2,0,1610612741
47,1610612741,1628990,1629632,1629655,201152,203107,1610612742,1626153,1628382,1628973,203552,203939,0021900545,1,720,720,0,0,1610612741
48,1610612741,203107,1629632,1629655,201152,1628990,1610612742,203939,203552,1626153,1628973,1628382,0021900545,2,720,734,0,0,1610612742
49,1610612741,203107,1629632,1629655,201152,1628990,1610612742,203939,203552,1626153,1628973,1628382,0021900545,2,752,752,2,0,1610612741
50,1610612741,203107,1629632,1629655,201152,1628990,1610612742,203939,203552,1626153,1628973,1628382,0021900545,2,765,765,0,2,1610612742
51,1610612741,203107,1629632,1629655,201152,1628990,1610612742,203939,203552,1626153,1628973,1628382,0021900545,2,783,786,0,0,1610612741
52,1610612741,203107,1629632,1629655,201152,1628990,1610612742,203939,203552,1626153,1628973,1628382,0021900545,2,790,799,0,0,1610612742
53,1610612741,203107,1629632,1629655,201152,1628990,1610612742,203939,203552,1626153,1628973,1628382,0021900545,2,823,826,2,0,1610612741
54,1610612741,203107,1629632,1629655,201152,1628990,1610612742,203939,203552,1626153,1628973,1628382,0021900545,2,832,832,0,2,1610612742
55,1610612741,203107,1629632,1629655,201152,1628990,1610612742,203939,203552,1626153,1628973,1628382,0021900545,2,859,859,2,0,1610612741
56,1610612741,203107,1629632,1629655,201152,1628990,1610612742,203939,203552,1626153,1628973,1628382,0021900545,2,884,886,0,0,1610612742
57,1610612741,203107,1629632,1629655,201152,1628990,1610612742,203939,203552,1626153,1628973,1628382,0021900545,2,892,895,0,0,1610612741
58,1610612741,203107,1629632,1629655,201152,1628990,1610612742,203939,203552,1626153,1628973,1628382,0021900545,2,901,901,0,2,1610612742
59,1610612741,203107,1629632,1629655,201152,1628990,1610612742,203939,203552,1626153,1628973,1628382,0021900545,2,909,929,0,0,1610612741
60,1610612741,1628976,1629632,201152,203107,203897,1610612742,1626153,1627827,1628973,203552,203939,0021900545,2,940,950,0,2,1610612742
61,1610612741,1628374,1628976,1629632,201152,203897,1610612742,1626153,1627827,1628973,203552,203939,0021900545,2,957,957,2,0,1610612741
62,1610612741,1628374,1628976,1629632,201152,203897,1610612742,1626153,1627827,1628973,203552,203939,0021900545,2,977,991,0,0,1610612742
63,1610612741,1628374,1628976,1629632,201152,203897,1610612742,1626153,1627827,1628973,203552,203939,0021900545,2,996,996,3,0,1610612741
64,1610612741,1628374,1628976,1629632,201152,203897,1610612742,1626153,1627827,1628973,203552,203939,0021900545,2,998,1011,0,2,1610612742
65,1610612741,1627739,1628374,1628976,201152,203897,1610612742,1627827,1628467,1629029,203501,203939,0021900545,2,1033,1034,0,0,1610612741
66,1610612741,1627739,1628374,1628976,201152,203897,1610612742,1627827,1628467,1629029,203501,203939,0021900545,2,1046,1046,0,2,1610612742
67,1610612741,1627739,1628374,1628976,201152,203897,1610612742,1627827,1628467,1629029,203501,203939,0021900545,2,1061,1061,2,0,1610612741
68,1610612741,1627739,1628374,1628976,201152,203897,1610612742,1627827,1628467,1629029,203501,203939,0021900545,2,1076,1076,0,0,1610612742
69,1610612741,1627739,1628374,1628976,201152,203897,1610612742,1627827,1628467,1629029,203501,203939,0021900545,2,1090,1099,2,0,1610612741
70,1610612741,1627739,1628374,1628976,201152,203897,1610612742,1627827,1628382,1628467,1629029,203501,0021900545,2,1120,1125,0,0,1610612742
71,1610612741,1627739,1628374,1628976,201152,203897,1610612742,1627827,1628382,1628467,1629029,203501,0021900545,2,1129,1129,2,0,1610612741
72,1610612741,1627739,1628374,1628976,201152,203897,1610612742,1627827,1628382,1628467,1629029,203501,0021900545,2,1147,1149,0,0,1610612742
73,1610612741,1627739,1628374,1628976,201152,203897,1610612742,1627827,1628382,1628467,1629029,203501,0021900545,2,1154,1157,0,0,1610612741
74,1610612741,1627739,1628374,1628976,201152,203897,1610612742,1627827,1628382,1628467,1629029,203501,0021900545,2,1170,1170,0,0,1610612742
75,1610612741,1627739,1628374,1628976,201152,203897,1610612742,1627827,1628382,1628467,1629029,203501,0021900545,2,1174,1174,2,0,1610612741
76,1610612741,1627739,1628374,1628976,201152,203897,1610612742,1627827,1628382,1628467,1629029,203501,0021900545,2,1192,1194,0,0,1610612742
77,1610612741,1627739,1628374,1628976,201152,203897,1610612742,1627827,1628382,1628467,1629029,203501,0021900545,2,1199,1199,2,0,1610612741
78,1610612741,1627739,1628374,1628976,201152,203897,1610612742,1627827,1628382,1628467,1629029,203501,0021900545,2,1199,1219,0,2,1610612742
79,1610612741,1627739,1628374,1628976,201152,203897,1610612742,1627827,1628467,1629029,203501,203939,0021900545,2,1227,1227,2,0,1610612741
80,1610612741,1627739,1628374,1628976,201152,203897,1610612742,1627827,1628467,1629029,203501,203939,0021900545,2,1234,1239,0,4,1610612742
81,1610612741,1628374,1628976,201152,203107,203897,1610612742,1627827,1628467,1629029,203501,203939,0021900545,2,1249,1251,0,0,1610612741
82,1610612741,1628374,1628976,201152,203107,203897,1610612742,1627827,1628467,1629029,203501,203939,0021900545,2,1259,1259,0,3,1610612742
83,1610612741,1628374,1628976,201152,203107,203897,1610612742,1627827,1628467,1629029,203501,203939,0021900545,2,1276,1284,0,0,1610612741
84,1610612741,1628374,1628976,201152,203107,203897,1610612742,1627827,1628467,1629029,203501,203939,0021900545,2,1295,1296,0,0,1610612742
85,1610612741,1628374,1629655,201152,203107,203897,1610612742,1627827,1628467,1629029,203501,203939,0021900545,2,1306,1306,3,0,1610612741
86,1610612741,1628374,1629655,201152,203107,203897,1610612742,1627827,1628467,1629029,203501,203939,0021900545,2,1328,1331,0,0,1610612742
87,1610612741,1628374,1629655,201152,203107,203897,1610612742,1627827,1628467,1629029,203501,203939,0021900545,2,1334,1337,2,0,1610612741
88,1610612741,1628374,1629655,201152,203107,203897,1610612742,1627827,1628467,1629029,203501,203939,0021900545,2,1359,1370,0,3,1610612742
89,1610612741,1628374,1629632,1629655,203107,203897,1610612742,1627827,1628467,1629029,203501,203939,0021900545,2,1383,1386,0,0,1610612741
90,1610612741,1628374,1629632,1629655,203107,203897,1610612742,1627827,1628467,1629029,203501,203939,0021900545,2,1399,1400,0,2,1610612742
91,1610612741,1628374,1629632,1629655,203107,203897,1610612742,1627827,1628467,1629029,203501,203939,0021900545,2,1400,1410,0,0,1610612741
92,1610612741,1628374,1629632,201152,203107,203897,1610612742,1627827,1628467,1629029,203501,203939,0021900545,2,1420,1420,0,2,1610612742
93,1610612741,1628374,1629632,201152,203107,203897,1610612742,1627827,1628382,1629029,203501,203939,0021900545,2,1440,1440,0,0,1610612742
94,1610612741,1627739,1628374,1628976,203897,203107,1610612742,203501,1627827,203939,200826,1629029,0021900545,3,1440,1464,0,0,1610612742
95,1610612741,1627739,1628374,1628976,203897,203107,1610612742,203501,1627827,203939,200826,1629029,0021900545,3,1477,1482,0,0,1610612741
96,1610612741,1627739,1628374,1628976,203897,203107,1610612742,203501,1627827,203939,200826,1629029,0021900545,3,1486,1486,0,0,1610612742
97,1610612741,1627739,1628374,1628976,203897,203107,1610612742,203501,1627827,203939,200826,1629029,0021900545,3,1496,1500,0,0,1610612741
98,1610612741,1627739,1628374,1628976,203897,203107,1610612742,203501,1627827,203939,200826,1629029,0021900545,3,1513,1513,0,0,1610612742
99,1610612741,1627739,1628374,1628976,203897,203107,1610612742,203501,1627827,203939,200826,1629029,0021900545,3,1517,1517,2,0,1610612741
100,1610612741,1627739,1628374,1628976,203897,203107,1610612742,203501,1627827,203939,200826,1629029,0021900545,3,1532,1535,0,0,1610612742
101,1610612741,1627739,1628374,1628976,203897,203107,1610612742,203501,1627827,203939,200826,1629029,0021900545,3,1542,1551,0,0,1610612741
102,1610612741,1627739,1628374,1628976,203897,203107,1610612742,203501,1627827,203939,200826,1629029,0021900545,3,1561,1561,0,2,1610612742
103,1610612741,1627739,1628374,1628976,203897,203107,1610612742,203501,1627827,203939,200826,1629029,0021900545,3,1575,1583,0,0,1610612741
104,1610612741,1627739,1628374,1628976,203897,203107,1610612742,203501,1627827,203939,200826,1629029,0021900545,3,1588,1606,0,0,1610612742
105,1610612741,1627885,1628374,1628976,203107,203897,1610612742,203501,1627827,203939,200826,1629029,0021900545,3,1619,1619,2,0,1610612741
106,1610612741,1627885,1628374,1628976,203107,203897,1610612742,203501,1627827,203939,200826,1629029,0021900545,3,1633,1633,0,2,1610612742
107,1610612741,1627885,1628374,1628976,203107,203897,1610612742,203501,1627827,203939,200826,1629029,0021900545,3,1646,1648,0,0,1610612741
108,1610612741,1627885,1628374,1628976,203107,203897,1610612742,203501,1627827,203939,200826,1629029,0021900545,3,1651,1655,0,2,1610612742
109,1610612741,1627885,1628374,1628976,203107,203897,1610612742,203501,1627827,203939,200826,1629029,0021900545,3,1655,1671,3,0,1610612741
110,1610612741,1627885,1628374,1629655,203107,203897,1610612742,203501,1627827,203939,200826,1629029,0021900545,3,1684,1694,0,2,1610612742
111,1610612741,1627885,1628374,1629655,203107,203897,1610612742,203501,1627827,203939,200826,1629029,0021900545,3,1715,1715,2,0,1610612741
112,1610612741,1627885,1628374,1629655,203107,203897,1610612742,203501,1627827,203939,200826,1629029,0021900545,3,1736,1742,0,0,1610612742
113,1610612741,1627885,1628374,1629655,203107,203897,1610612742,203501,1627827,203939,200826,1629029,0021900545,3,1746,1746,2,0,1610612741
114,1610612741,1627885,1628374,1629655,203107,203897,1610612742,203501,1627827,203939,200826,1629029,0021900545,3,1767,1769,0,0,1610612742
115,1610612741,1627885,1628374,1629655,203107,203897,1610612742,203501,1627827,203939,200826,1629029,0021900545,3,1771,1771,2,0,1610612741
116,1610612741,1627885,1628374,1629655,203107,203897,1610612742,203501,1627827,203939,200826,1629029,0021900545,3,1772,1785,0,0,1610612742
117,1610612741,1627885,1628374,1629655,203107,203897,1610612742,1627827,1629029,200826,203552,203939,0021900545,3,1801,1812,1,0,1610612741
118,1610612741,1627885,1629632,1629655,201152,203897,1610612742,1627827,1628467,1629029,200826,203552,0021900545,3,1825,1825,0,3,1610612742
119,1610612741,1627885,1629632,1629655,201152,203897,1610612742,1627827,1628467,1629029,200826,203552,0021900545,3,1843,1845,0,0,1610612741
120,1610612741,1627885,1629632,1629655,201152,203897,1610612742,1627827,1628467,1629029,200826,203552,0021900545,3,1851,1851,0,2,1610612742
121,1610612741,1627885,1629632,1629655,201152,203897,1610612742,1627827,1628467,1629029,200826,203552,0021900545,3,1870,1870,0,0,1610612741
122,1610612741,1627885,1628374,1629632,201152,203897,1610612742,1626153,1627827,1628467,1629029,203552,0021900545,3,1880,1880,0,0,1610612742
123,1610612741,1627885,1628374,1629632,201152,203897,1610612742,1626153,1627827,1628467,1629029,203552,0021900545,3,1897,1899,0,0,1610612741
124,1610612741,1627885,1628374,1629632,201152,203897,1610612742,1626153,1627827,1628467,1629029,203552,0021900545,3,1908,1908,0,2,1610612742
125,1610612741,1627885,1628374,1629632,201152,203897,1610612742,1626153,1627827,1628467,1629029,203552,0021900545,3,1916,1916,2,0,1610612741
126,1610612741,1627885,1628374,1629632,201152,203897,1610612742,1626153,1627827,1628467,1629029,203552,0021900545,3,1933,1937,0,0,1610612742
127,1610612741,1627885,1628374,1629632,201152,203897,1610612742,1626153,1627827,1628467,1629029,203552,0021900545,3,1939,1943,0,0,1610612741
128,1610612741,1627885,1628374,1629632,201152,203897,1610612742,1626153,1627827,1628467,1629029,203552,0021900545,3,1944,1947,0,2,1610612742
129,1610612741,1627885,1628374,1629632,201152,203897,1610612742,1626153,1627827,1628467,1629029,203552,0021900545,3,1959,1959,0,0,1610612741
130,1610612741,1627885,1628374,1629632,201152,203897,1610612742,1626153,1627827,1628467,1629029,203552,0021900545,3,1963,1967,0,0,1610612742
131,1610612741,1627885,1628374,1629632,201152,203897,1610612742,1626153,1627827,1628467,1629029,203552,0021900545,3,1974,1974,2,0,1610612741
132,1610612741,1627885,1628374,1629632,201152,203897,1610612742,1626153,1627827,1628467,1629029,203552,0021900545,3,1987,1987,0,3,1610612742
133,1610612741,1627885,1628374,1629632,201152,203897,1610612742,1626153,1627827,1628467,1629029,203552,0021900545,3,2001,2001,2,0,1610612741
134,1610612741,1627885,1628374,1629632,201152,203897,1610612742,1626153,1627827,1628467,1629029,203552,0021900545,3,2019,2019,0,2,1610612742
135,1610612741,1627885,1628374,1629632,201152,203897,1610612742,1626153,1627827,1628467,1629029,203552,0021900545,3,2037,2037,3,0,1610612741
136,1610612741,1627885,1628374,1629632,201152,203897,1610612742,1626153,1627827,1628467,1629029,203552,0021900545,3,2056,2056,0,2,1610612742
137,1610612741,1627885,1628374,1629632,201152,203897,1610612742,1626153,1627827,1628467,1629029,203552,0021900545,3,2075,2077,2,0,1610612741
138,1610612741,1627885,1628374,1629632,201152,203897,1610612742,1626153,1627827,1628467,1629029,203552,0021900545,3,2094,2096,0,0,1610612742
139,1610612741,1627885,1628374,1629632,201152,203897,1610612742,1626153,1627827,1628467,1629029,203552,0021900545,3,2107,2109,2,0,1610612741
140,1610612741,1627885,1628374,1629632,201152,203897,1610612742,1626153,1627827,1628467,1629029,203552,0021900545,3,2125,2125,0,3,1610612742
141,1610612741,1627885,1628374,1629632,201152,203897,1610612742,1626153,1627827,1628467,1629029,203552,0021900545,3,2132,2136,0,0,1610612741
142,1610612741,1627885,1628374,1629632,201152,203897,1610612742,1626153,1627827,1628467,1629029,203552,0021900545,3,2152,2158,0,0,1610612742
143,1610612741,1627739,203107,1629632,1629655,201152,1610612742,203552,1628467,1626153,1628973,1628382,0021900545,4,2160,2178,0,0,1610612741
144,1610612741,1627739,203107,1629632,1629655,201152,1610612742,203552,1628467,1626153,1628973,1628382,0021900545,4,2191,2196,0,0,1610612742
145,1610612741,1627739,203107,1629632,1629655,201152,1610612742,203552,1628467,1626153,1628973,1628382,0021900545,4,2200,2204,0,0,1610612741
146,1610612741,1627739,203107,1629632,1629655,201152,1610612742,203552,1628467,1626153,1628973,1628382,0021900545,4,2212,2212,0,0,1610612742
147,1610612741,1627739,203107,1629632,1629655,201152,1610612742,203552,1628467,1626153,1628973,1628382,0021900545,4,2224,2226,2,0,1610612741
148,1610612741,1627739,203107,1629632,1629655,201152,1610612742,203552,1628467,1626153,1628973,1628382,0021900545,4,2245,2251,0,2,1610612742
149,1610612741,1627739,203107,1629632,1629655,201152,1610612742,203552,1628467,1626153,1628973,1628382,0021900545,4,2263,2263,2,0,1610612741
150,1610612741,1627739,203107,1629632,1629655,201152,1610612742,203552,1628467,1626153,1628973,1628382,0021900545,4,2287,2287,0,3,1610612742
151,1610612741,1627739,203107,1629632,1629655,201152,1610612742,203552,1628467,1626153,1628973,1628382,0021900545,4,2314,2314,2,0,1610612741
152,1610612741,1627739,203107,1629632,1629655,201152,1610612742,203552,1628467,1626153,1628973,1628382,0021900545,4,2335,2335,0,2,1610612742
153,1610612741,1627739,203107,1629632,1629655,201152,1610612742,203552,1628467,1626153,1628973,1628382,0021900545,4,2349,2349,2,0,1610612741
154,1610612741,1627739,203107,1629632,1629655,201152,1610612742,203552,1628467,1626153,1628973,1628382,0021900545,4,2359,2388,0,3,1610612742
155,1610612741,1629632,1629655,201152,203107,203897,1610612742,203552,1628467,1626153,1628973,1628382,0021900545,4,2405,2405,0,0,1610612741
156,1610612741,1629632,1629655,201152,203107,203897,1610612742,203552,1628467,1626153,1628973,1628382,0021900545,4,2412,2412,0,2,1610612742
157,1610612741,1629632,1629655,201152,203107,203897,1610612742,203552,1628467,1626153,1628973,1628382,0021900545,4,2424,2424,2,0,1610612741
158,1610612741,1629632,1629655,201152,203107,203897,1610612742,203552,1628467,1626153,1628973,1628382,0021900545,4,2440,2443,0,0,1610612742
159,1610612741,1629632,1629655,201152,203107,203897,1610612742,203552,1628467,1626153,1628973,1628382,0021900545,4,2449,2453,0,0,1610612741
160,1610612741,1629632,1629655,201152,203107,203897,1610612742,203552,1628467,1626153,1628973,1628382,0021900545,4,2465,2465,0,3,1610612742
161,1610612741,1629632,1629655,201152,203107,203897,1610612742,203552,1628467,1626153,1628973,1628382,0021900545,4,2466,2490,0,0,1610612741
162,1610612741,1628374,1629655,201152,203107,203897,1610612742,1626153,1627827,1628382,1628467,1628973,0021900545,4,2504,2506,0,0,1610612742
163,1610612741,1628374,1629655,201152,203107,203897,1610612742,1626153,1627827,1628382,1628467,1628973,0021900545,4,2511,2515,0,0,1610612741
164,1610612741,1628374,1629655,201152,203107,203897,1610612742,1626153,1627827,1628382,1628467,1628973,0021900545,4,2530,2532,0,0,1610612742
165,1610612741,1628374,1629655,201152,203107,203897,1610612742,1626153,1627827,1628382,1628467,1628973,0021900545,4,2537,2544,0,0,1610612741
166,1610612741,1627739,1628374,1629655,203107,203897,1610612742,1626153,1627827,1628382,1629029,203939,0021900545,4,2560,2560,0,3,1610612742
167,1610612741,1627739,1628374,1629655,203107,203897,1610612742,1626153,1627827,1628382,1629029,203939,0021900545,4,2585,2585,2,0,1610612741
168,1610612741,1627739,1628374,1629655,203107,203897,1610612742,1626153,1627827,1628382,1629029,203939,0021900545,4,2604,2608,0,0,1610612742
169,1610612741,1627739,1628374,1629655,203107,203897,1610612742,1626153,1627827,1628382,1629029,203939,0021900545,4,2610,2610,2,0,1610612741
170,1610612741,1627739,1628374,1629655,203107,203897,1610612742,1626153,1627827,1628382,1629029,203939,0021900545,4,2612,2624,0,2,1610612742
171,1610612741,1627739,1628374,1629655,203107,203897,1610612742,1626153,1627827,1628467,1629029,203939,0021900545,4,2636,2636,2,0,1610612741
172,1610612741,1627739,1628374,1629655,203107,203897,1610612742,1626153,1627827,1628467,1629029,203939,0021900545,4,2654,2654,0,2,1610612742
173,1610612741,1627739,1628374,1629655,203107,203897,1610612742,1626153,1627827,1628467,1629029,203939,0021900545,4,2664,2666,0,0,1610612741
174,1610612741,1627739,1628374,1629655,203107,203897,1610612742,1626153,1627827,1628467,1629029,203939,0021900545,4,2680,2683,0,0,1610612742
175,1610612741,1627739,1628374,1629655,203107,203897,1610612742,1626153,1627827,1628467,1629029,203939,0021900545,4,2687,2689,0,0,1610612741
176,1610612741,1627739,1628374,1629655,203107,203897,1610612742,1626153,1627827,1628467,1629029,203939,0021900545,4,2691,2700,0,0,1610612742
177,1610612741,1627739,1628374,1629655,203107,203897,1610612742,1626153,1627827,1628467,1629029,203939,0021900545,4,2704,2704,2,0,1610612741
178,1610612741,1627739,1628374,1629655,203107,203897,1610612742,1626153,1627827,1628467,1629029,203939,0021900545,4,2726,2726,0,3,1610612742
179,1610612741,1627739,1628374,1629655,203107,203897,1610612742,1626153,1627827,1628467,1629029,203939,0021900545,4,2742,2742,2,0,1610612741
180,1610612741,1627739,1628374,1629655,203107,203897,1610612742,1626153,1627827,1628467,1629029,203939,0021900545,4,2764,2764,0,3,1610612742
181,1610612741,1627739,1628374,1629655,203107,203897,1610612742,1626153,1627827,1628467,1629029,203939,0021900545,4,2776,2776,3,0,1610612741
182,1610612741,1627739,1628374,1629655,203107,203897,1610612742,1626153,1627827,1628467,1629029,203939,0021900545,4,2794,2794,0,2,1610612742
183,1610612741,1627739,1628374,1629655,203107,203897,1610612742,1626153,1627827,1628467,1629029,203939,0021900545,4,2806,2811,3,0,1610612741
184,1610612741,1627739,1628374,1629655,203107,203897,1610612742,1626153,1627827,1628467,1629029,203939,0021900545,4,2833,2835,0,0,1610612742
185,1610612741,1627739,1628374,1629655,203107,203897,1610612742,1626153,1627827,1628467,1629029,203939,0021900545,4,2843,2846,0,0,1610612741
186,1610612741,1627739,1628374,1629655,203107,203897,1610612742,1626153,1627827,1628467,1629029,203939,0021900545,4,2849,2857,0,0,1610612742
187,1610612741,1627739,1627885,1629655,203107,203897,1610612742,1626153,1627827,1628973,1629029,203939,0021900545,4,2862,2870,2,0,1610612741
