,TEAM_ID_1,TEAM_1_PLAYERS,TEAM_ID_2,TEAM_2_PLAYERS,PERIOD
0,1610612750,[1629006  203496 1626157 1629633  201952],1610612760,[1627846  201568  203500 1628983  101108],1
1,1610612750,[ 203894 1629103 1628966  203476 1626203],1610612760,[ 203500  101108 1629647  203471 1629652],2
2,1610612750,[1629006  203496 1626157 1629633  201952],1610612760,[1627846  201568  203500 1628983  101108],3
3,1610612750,[1629006  203496 1629633  203894  203476],1610612760,[ 203500 1628983  101108 1629647  203471],4
4,1610612750,[1629006  203496 1626157  201952 1628395],1610612760,[ 201568  203500 1628983  101108  203471],5
