,t2_pm,stint_end,t1_points_scored,t1_players,stint_start,t2_players,t1_id,t2_id,t2_points_scored,t1_pm,margin_per_100,num_poss
0,2,407,17,"[1629652, 1629647, 1630526, 1630581, 1628983]",0,"[1630567, 1627783, 1628449, 1629018, 1627832]",1610612760,1610612761,19,-2,-6.451612903225806,31.0
1,4,483,19,"[1629652, 1629647, 1630526, 1630581, 1628983]",408,"[1630567, 1627783, 1628449, 1629018, 1627832]",1610612760,1610612761,23,-4,-11.11111111111111,36.0
2,7,580,21,"[1628778, 1628983, 1629647, 1629652, 1630526]",484,"[1627783, 1627832, 1629018, 1629067, 1629139]",1610612760,1610612761,28,-7,-16.27906976744186,43.0
3,10,719,26,"[1628778, 1628983, 1629652, 1630544, 202324]",581,"[1627783, 1627832, 1629018, 1629067, 1629139]",1610612760,1610612761,36,-10,-19.607843137254903,51.0
4,8,787,29,"[1628983, 1629026, 1629652, 1630544, 202324]",720,"[1627832, 1629004, 1629067, 1629139, 1630567]",1610612760,1610612761,37,-8,-14.285714285714285,56.0
5,7,878,33,"[1630581, 202324, 1630544, 1629026, 1630197]",788,"[1630567, 1629067, 1629139, 1629004, 1630625]",1610612760,1610612761,40,-7,-11.29032258064516,62.0
6,7,911,33,"[1630581, 202324, 1630544, 1629026, 1630197]",879,"[1629018, 1629067, 1629139, 1630567, 1630625]",1610612760,1610612761,40,-7,-10.9375,64.0
7,7,993,33,"[1630581, 202324, 1630544, 1629026, 1630197]",912,"[1628449, 1629018, 1629139, 1630567, 1630625]",1610612760,1610612761,40,-7,-10.294117647058822,68.0
8,9,1026,33,"[1630581, 202324, 1630544, 1629026, 1630197]",994,"[1627783, 1628449, 1629018, 1630567, 1630625]",1610612760,1610612761,42,-9,-12.676056338028168,71.0
9,8,1099,36,"[1629026, 1629647, 1630197, 1630581, 203488]",1027,"[1627783, 1628449, 1629018, 1630567, 1630625]",1610612760,1610612761,44,-8,-10.38961038961039,77.0
10,5,1161,41,"[1629026, 1629647, 1630197, 1630581, 203488]",1100,"[1627783, 1627832, 1628449, 1629018, 1630567]",1610612760,1610612761,46,-5,-6.097560975609756,82.0
11,11,1306,46,"[1628983, 1629026, 1629647, 1629652, 203488]",1162,"[1627783, 1627832, 1628449, 1629018, 1630567]",1610612760,1610612761,57,-11,-12.222222222222221,90.0
12,10,1438,54,"[1628983, 1629026, 1629647, 1629652, 203488]",1307,"[1627783, 1627832, 1628449, 1629018, 1629139]",1610612760,1610612761,64,-10,-10.1010101010101,99.0
13,3,1796,70,"[1628983, 1629647, 1629652, 1630526, 203488]",1439,"[1627783, 1627832, 1628449, 1629018, 1629139]",1610612760,1610612761,73,-3,-2.479338842975207,121.0
14,0,1901,73,"[1629652, 1629647, 1630526, 1630581, 1628983]",1797,"[1630567, 1627783, 1628449, 1629018, 1627832]",1610612760,1610612761,73,0,0.0,126.0
15,0,1901,73,"[1629652, 1629647, 1630526, 1630581, 1628983]",1902,"[1627783, 1627832, 1629018, 1629067, 1629139]",1610612760,1610612761,73,0,0.0,126.0
16,-1,2025,77,"[1628983, 1629647, 1629652, 1630544, 202324]",1902,"[1627783, 1627832, 1629018, 1629067, 1629139]",1610612760,1610612761,76,1,0.7352941176470588,136.0
17,-11,2156,87,"[1628983, 1629647, 1629652, 1630544, 202324]",2026,"[1627832, 1629018, 1629067, 1629139, 1630567]",1610612760,1610612761,76,11,7.534246575342466,146.0
18,-13,2375,91,"[1628983, 1629026, 1629652, 1630544, 202324]",2157,"[1627832, 1629067, 1629139, 1630567, 1630625]",1610612760,1610612761,78,13,8.176100628930817,159.0
19,-13,2401,91,"[1630581, 202324, 1630544, 1629026, 1630197]",2376,"[1630567, 1627783, 1629004, 1630625, 1630551]",1610612760,1610612761,78,13,8.074534161490684,161.0
20,-13,2461,93,"[1629026, 1629652, 1630544, 1630581, 202324]",2402,"[1627783, 1627832, 1629018, 1630551, 1630567]",1610612760,1610612761,80,13,7.878787878787878,165.0
21,-9,2575,97,"[1629026, 1629652, 1630544, 1630581, 203488]",2462,"[1627783, 1627832, 1629018, 1630551, 1630567]",1610612760,1610612761,88,9,5.232558139534884,172.0
22,-1,2871,110,"[1628983, 1629026, 1629647, 1629652, 203488]",2576,"[1627783, 1627832, 1629018, 1630551, 1630567]",1610612760,1610612761,109,1,0.5128205128205128,195.0
23,-1,9999999,110,"[1628983, 1629647, 1629652, 1630581, 203488]",2872,"[1627783, 1627832, 1629018, 1630551, 1630567]",1610612760,1610612761,109,1,0.5102040816326531,196.0
