,TEAM_ID_1,TEAM_1_PLAYERS,TEAM_ID_2,TEAM_2_PLAYERS,PERIOD
0,1610612756,[1628969  203967  203382 1626164  201937],1610612757,[  2772   2546 202355 203468 203081],1
1,1610612756,[1628969  203382  201937 1627767 1629660],1610612757,[ 203468 1629018 1628403 1626209 1629014],2
2,1610612756,[1628969  203967  203382 1626164  201937],1610612757,[  2772   2546 202355 203468 203081],3
3,1610612756,[1628969  203382  201937 1628975 1629660],1610612757,[ 202355  203468  203081 1626209 1629014],4
