,TEAM_ID_1,TEAM_1_PLAYERS,TEAM_ID_2,TEAM_2_PLAYERS,PERIOD
0,1610612758,[ 203084 1628963 1626158 1627741 1628368],1610612761,[1629056 1627783  203382 1627832  200768],1
1,1610612758,[ 203084 1628368 1630169  202709  202355],1610612761,[1629056 1627832 1626169 1628449 1629139],2
2,1610612758,[ 203084 1628963 1626158 1627741 1628368],1610612761,[1629056 1627783 1627832  200768 1626169],3
3,1610612758,[ 203084 1628368 1630169  202709  202355],1610612761,[1627783  203382  200768 1629139 1627761],4
