,team1_id,team1_player1,team1_player2,team1_player3,team1_player4,team1_player5,team2_id,team2_player1,team2_player2,team2_player3,team2_player4,team2_player5,game_id,period,possession_start,possession_end,team1_points,team2_points,possession_team
0,1610612738,1627759,1628369,1628464,203935,202689,1610612746,202695,203090,1627826,202331,201976,0021900212,1,0,27,0,3,1610612746
1,1610612738,1627759,1628369,1628464,203935,202689,1610612746,202695,203090,1627826,202331,201976,0021900212,1,44,47,0,0,1610612738
2,1610612738,1627759,1628369,1628464,203935,202689,1610612746,202695,203090,1627826,202331,201976,0021900212,1,54,57,0,0,1610612746
3,1610612738,1627759,1628369,1628464,203935,202689,1610612746,202695,203090,1627826,202331,201976,0021900212,1,70,78,0,0,1610612738
4,1610612738,1627759,1628369,1628464,203935,202689,1610612746,202695,203090,1627826,202331,201976,0021900212,1,95,95,0,0,1610612746
5,1610612738,1627759,1628369,1628464,203935,202689,1610612746,202695,203090,1627826,202331,201976,0021900212,1,104,107,0,0,1610612738
6,1610612738,1627759,1628369,1628464,203935,202689,1610612746,202695,203090,1627826,202331,201976,0021900212,1,116,116,0,3,1610612746
7,1610612738,1627759,1628369,1628464,203935,202689,1610612746,202695,203090,1627826,202331,201976,0021900212,1,135,139,0,0,1610612738
8,1610612738,1627759,1628369,1628464,203935,202689,1610612746,202695,203090,1627826,202331,201976,0021900212,1,146,160,0,0,1610612746
9,1610612738,1627759,1628369,1628464,203935,202689,1610612746,202695,203090,1627826,202331,201976,0021900212,1,170,173,0,0,1610612738
10,1610612738,1627759,1628369,1628464,203935,202689,1610612746,202695,203090,1627826,202331,201976,0021900212,1,189,191,0,0,1610612746
11,1610612738,1627759,1628369,1628464,203935,202689,1610612746,202695,203090,1627826,202331,201976,0021900212,1,199,199,2,0,1610612738
12,1610612738,1627759,1628369,1628464,203935,202689,1610612746,202695,203090,1627826,202331,201976,0021900212,1,216,219,0,0,1610612746
13,1610612738,1627759,1628369,1628464,203935,202689,1610612746,202695,203090,1627826,202331,201976,0021900212,1,231,235,0,0,1610612738
14,1610612738,1627759,1628369,1628464,203935,202689,1610612746,202695,203090,1627826,202331,201976,0021900212,1,237,245,0,0,1610612746
15,1610612738,1627759,1628369,1628464,203935,202689,1610612746,202695,203090,1627826,202331,201976,0021900212,1,248,248,2,0,1610612738
16,1610612738,1627759,1628369,1628464,203935,202689,1610612746,202695,203090,1627826,202331,201976,0021900212,1,262,262,0,2,1610612746
17,1610612738,1627759,1628369,1628464,203935,202689,1610612746,202695,203090,1627826,202331,201976,0021900212,1,286,286,2,0,1610612738
18,1610612738,1627759,1628369,1628464,203935,202689,1610612746,202695,203090,1627826,202331,201976,0021900212,1,298,298,0,2,1610612746
19,1610612738,1627759,1628369,1628464,203935,202689,1610612746,202695,203090,1627826,202331,201976,0021900212,1,309,311,1,0,1610612738
20,1610612738,1627759,1628369,1628464,202689,202954,1610612746,202695,203090,1627826,202331,201976,0021900212,1,326,326,0,2,1610612746
21,1610612738,1627759,1628369,1628464,202689,202954,1610612746,202695,203090,1627826,202331,201976,0021900212,1,352,355,0,0,1610612738
22,1610612738,1627759,1628369,1628464,202689,202954,1610612746,202695,203090,1627826,202331,201976,0021900212,1,359,362,0,0,1610612746
23,1610612738,1627759,1628369,1628464,202689,202954,1610612746,202695,203090,1627826,202331,201976,0021900212,1,371,372,0,0,1610612738
24,1610612738,1627759,1628369,1628464,202689,202954,1610612746,202695,203090,1627826,202331,201976,0021900212,1,381,381,0,0,1610612746
25,1610612738,1627759,1628369,1628464,202689,202954,1610612746,202695,203090,1627826,202331,201976,0021900212,1,383,383,1,0,1610612738
26,1610612738,1627759,1628400,202683,202689,202954,1610612746,101150,1627826,201976,202331,203090,0021900212,1,394,394,0,2,1610612746
27,1610612738,1627759,1628400,202683,202689,202954,1610612746,101150,1627826,201976,202331,203090,0021900212,1,416,416,2,0,1610612738
28,1610612738,1627759,1628400,202683,202689,202954,1610612746,101150,1627826,201976,202331,203090,0021900212,1,427,427,0,2,1610612746
29,1610612738,1627759,1628400,202683,202689,202954,1610612746,101150,1627826,201976,202331,203090,0021900212,1,445,448,2,0,1610612738
30,1610612738,1627759,1628400,202683,202689,202954,1610612746,101150,1627826,201976,202331,203090,0021900212,1,458,458,0,2,1610612746
31,1610612738,1627759,1628400,202683,202689,202954,1610612746,101150,1627826,201976,202331,203090,0021900212,1,474,474,1,0,1610612738
32,1610612738,1627759,1628400,202683,202689,202954,1610612746,101150,1626149,202331,203210,203585,0021900212,1,493,493,0,2,1610612746
33,1610612738,1627759,1628400,202683,202689,202954,1610612746,101150,1626149,202331,203210,203585,0021900212,1,510,510,2,0,1610612738
34,1610612738,1627759,1628400,202683,202689,202954,1610612746,101150,1626149,202331,203210,203585,0021900212,1,523,526,0,0,1610612746
35,1610612738,1627759,1628400,202683,202689,202954,1610612746,101150,1626149,202331,203210,203585,0021900212,1,532,532,2,0,1610612738
36,1610612738,1627759,1628400,202683,202689,202954,1610612746,101150,1626149,202331,203210,203585,0021900212,1,547,552,0,0,1610612746
37,1610612738,1627759,1628400,202683,202689,202954,1610612746,101150,1626149,202331,203210,203585,0021900212,1,572,572,2,0,1610612738
38,1610612738,1627759,1628400,202683,202689,202954,1610612746,101150,1626149,202331,203210,203585,0021900212,1,586,588,0,0,1610612746
39,1610612738,1627759,1628400,202683,202689,202954,1610612746,101150,1626149,202331,203210,203585,0021900212,1,604,606,0,0,1610612738
40,1610612738,1627759,1628400,202683,202689,202954,1610612746,101150,1626149,202331,203210,203585,0021900212,1,612,615,0,0,1610612746
41,1610612738,1627759,1628400,202683,202689,202954,1610612746,101150,1626149,202331,203210,203585,0021900212,1,615,629,0,0,1610612738
42,1610612738,1628369,1629684,202683,202954,203935,1610612746,101150,1626149,1629611,203210,203585,0021900212,1,637,639,0,0,1610612746
43,1610612738,1628369,1629684,202683,202954,203935,1610612746,101150,1626149,1629611,203210,203585,0021900212,1,645,647,0,0,1610612738
44,1610612738,1628369,1629684,202683,202954,203935,1610612746,101150,1626149,1629611,203210,203585,0021900212,1,655,655,0,0,1610612746
45,1610612738,1628369,1629684,202683,202954,203935,1610612746,101150,1626149,1629611,203210,203585,0021900212,1,658,658,2,0,1610612738
46,1610612738,1628369,1629684,202683,202954,203935,1610612746,101150,1626149,1629611,203210,203585,0021900212,1,670,679,0,0,1610612746
47,1610612738,1628369,1629057,1629684,202954,203935,1610612746,101150,1626149,202695,203210,203585,0021900212,1,688,690,0,0,1610612738
48,1610612738,1628369,1629057,1629684,202954,203935,1610612746,101150,1626149,202695,203210,203585,0021900212,1,709,709,0,2,1610612746
49,1610612738,1628369,1629057,1629684,202954,203935,1610612746,101150,1626149,202695,203210,203585,0021900212,1,717,719,0,0,1610612746
50,1610612738,1628369,203935,202954,1629684,1629057,1610612746,202695,101150,203210,1626149,203585,0021900212,2,720,732,2,0,1610612738
51,1610612738,1628369,203935,202954,1629684,1629057,1610612746,202695,101150,203210,1626149,203585,0021900212,2,753,753,0,3,1610612746
52,1610612738,1628369,203935,202954,1629684,1629057,1610612746,202695,101150,203210,1626149,203585,0021900212,2,770,770,2,0,1610612738
53,1610612738,1628369,203935,202954,1629684,1629057,1610612746,202695,101150,203210,1626149,203585,0021900212,2,789,801,0,0,1610612746
54,1610612738,1628369,203935,202954,1629684,1629057,1610612746,202695,101150,203210,1626149,203585,0021900212,2,803,803,3,0,1610612738
55,1610612738,1628369,203935,202954,1629684,1629057,1610612746,202695,101150,203210,1626149,203585,0021900212,2,829,831,0,0,1610612746
56,1610612738,1628369,203935,202954,1629684,1629057,1610612746,202695,101150,203210,1626149,203585,0021900212,2,837,837,1,0,1610612738
57,1610612738,1628369,203935,202954,1629684,1629057,1610612746,101150,1626149,201976,202695,203210,0021900212,2,849,852,0,0,1610612746
58,1610612738,1628369,203935,202954,1629684,1629057,1610612746,101150,1626149,201976,202695,203210,0021900212,2,864,864,2,0,1610612738
59,1610612738,1628369,203935,202954,1629684,1629057,1610612746,101150,1626149,201976,202695,203210,0021900212,2,873,873,0,0,1610612746
60,1610612738,1628369,203935,202954,1629684,1629057,1610612746,101150,1626149,201976,202695,203210,0021900212,2,887,889,0,0,1610612738
61,1610612738,1628369,203935,202954,1629684,1629057,1610612746,101150,1626149,201976,202695,203210,0021900212,2,904,911,0,2,1610612746
62,1610612738,1628369,203935,202954,1629684,1629057,1610612746,101150,1626149,201976,202695,203210,0021900212,2,911,935,0,0,1610612738
63,1610612738,1628369,203935,202954,1629684,1629057,1610612746,101150,1626149,201976,202695,203210,0021900212,2,940,940,0,3,1610612746
64,1610612738,1628369,203935,202954,1629684,1629057,1610612746,101150,1626149,201976,202695,203210,0021900212,2,962,964,0,0,1610612738
65,1610612738,1628369,1628464,1629684,202954,203935,1610612746,101150,1626149,201976,202331,202695,0021900212,2,979,979,0,0,1610612746
66,1610612738,1628369,1628464,1629684,202954,203935,1610612746,101150,1626149,201976,202331,202695,0021900212,2,993,998,0,0,1610612738
67,1610612738,1628369,1628464,1629684,202954,203935,1610612746,101150,1626149,201976,202331,202695,0021900212,2,1005,1005,0,0,1610612746
68,1610612738,1628369,1628464,1629684,202954,203935,1610612746,101150,1626149,201976,202331,202695,0021900212,2,1021,1022,0,0,1610612738
69,1610612738,1628369,1628464,1629684,202954,203935,1610612746,101150,1626149,201976,202331,202695,0021900212,2,1028,1028,0,0,1610612746
70,1610612738,1628369,1628464,1629684,202954,203935,1610612746,101150,1626149,201976,202331,202695,0021900212,2,1028,1063,0,0,1610612738
71,1610612738,1627759,1628400,1628464,202689,203935,1610612746,101150,1626149,201976,202331,203090,0021900212,2,1067,1080,0,0,1610612746
72,1610612738,1627759,1628400,1628464,202689,203935,1610612746,101150,1626149,201976,202331,203090,0021900212,2,1088,1093,2,0,1610612738
73,1610612738,1627759,1628400,1628464,202689,203935,1610612746,101150,1626149,201976,202331,203090,0021900212,2,1112,1117,0,0,1610612746
74,1610612738,1627759,1628400,1628464,202689,203935,1610612746,101150,1626149,201976,202331,203090,0021900212,2,1121,1121,0,0,1610612738
75,1610612738,1627759,1628400,1628464,202689,203935,1610612746,101150,1627826,201976,202331,203090,0021900212,2,1132,1144,0,2,1610612746
76,1610612738,1627759,1628400,1628464,202689,203935,1610612746,101150,1627826,201976,202331,203090,0021900212,2,1154,1154,0,0,1610612738
77,1610612738,1627759,1628400,1628464,202689,203935,1610612746,101150,1627826,201976,202331,203090,0021900212,2,1158,1167,0,1,1610612746
78,1610612738,1627759,1628369,202683,202689,202954,1610612746,1627826,201976,202331,203090,203585,0021900212,2,1176,1178,0,0,1610612738
79,1610612738,1627759,1628369,202683,202689,202954,1610612746,1627826,201976,202331,203090,203585,0021900212,2,1181,1181,0,2,1610612746
80,1610612738,1627759,1628369,202683,202689,202954,1610612746,1627826,201976,202331,203090,203585,0021900212,2,1197,1200,0,0,1610612738
81,1610612738,1627759,1628369,202683,202689,202954,1610612746,1627826,201976,202331,203090,203585,0021900212,2,1214,1214,0,0,1610612746
82,1610612738,1627759,1628369,202683,202689,202954,1610612746,1627826,201976,202331,203090,203585,0021900212,2,1214,1233,3,0,1610612738
83,1610612738,1627759,1628369,202683,202689,202954,1610612746,1627826,201976,202331,203090,203585,0021900212,2,1250,1250,0,2,1610612746
84,1610612738,1627759,1628369,202683,202689,202954,1610612746,1627826,201976,202331,203090,203585,0021900212,2,1276,1277,0,0,1610612738
85,1610612738,1627759,1628369,202683,202689,202954,1610612746,1627826,201976,202331,203090,203585,0021900212,2,1283,1283,0,2,1610612746
86,1610612738,1627759,1628369,202683,202689,202954,1610612746,1627826,201976,202331,203090,203585,0021900212,2,1313,1313,0,0,1610612738
87,1610612738,1627759,1628369,202683,202689,202954,1610612746,1627826,201976,202331,202695,203090,0021900212,2,1332,1336,0,0,1610612746
88,1610612738,1627759,1628369,202683,202689,202954,1610612746,1627826,201976,202331,202695,203090,0021900212,2,1342,1342,0,0,1610612738
89,1610612738,1627759,1628369,202683,202689,202954,1610612746,1627826,201976,202331,202695,203090,0021900212,2,1345,1345,0,0,1610612746
90,1610612738,1627759,1628369,202683,202689,203935,1610612746,1627826,201976,202331,202695,203090,0021900212,2,1361,1361,0,0,1610612738
91,1610612738,1627759,1628369,202683,202689,203935,1610612746,1627826,201976,202331,202695,203090,0021900212,2,1363,1363,0,0,1610612746
92,1610612738,1627759,1628369,202683,202689,203935,1610612746,1627826,201976,202331,202695,203090,0021900212,2,1363,1381,2,1,1610612738
93,1610612738,1627759,1628369,202683,202689,203935,1610612746,101150,1627826,201976,202695,203090,0021900212,2,1386,1386,0,0,1610612746
94,1610612738,1627759,1628369,202683,202689,203935,1610612746,101150,1627826,201976,202695,203090,0021900212,2,1394,1394,2,0,1610612738
95,1610612738,1627759,1628369,202683,202689,203935,1610612746,101150,1627826,201976,202695,203090,0021900212,2,1406,1406,0,0,1610612746
96,1610612738,1627759,1628369,202683,202689,203935,1610612746,101150,1627826,201976,202695,203090,0021900212,2,1408,1408,0,0,1610612738
97,1610612738,1627759,1628369,1628464,202689,203935,1610612746,101150,1626149,201976,202695,203090,0021900212,2,1428,1429,0,0,1610612746
98,1610612738,1627759,1628369,1628464,202689,203935,1610612746,101150,1626149,201976,202695,203090,0021900212,2,1431,1431,2,0,1610612738
99,1610612738,1627759,1628369,1628464,202689,203935,1610612746,101150,1626149,201976,202695,203090,0021900212,2,1437,1437,0,0,1610612746
100,1610612738,1627759,1628369,1628464,202689,203935,1610612746,101150,1626149,201976,202695,203090,0021900212,2,1440,1440,0,0,1610612746
101,1610612738,1627759,1628369,1628464,203935,202689,1610612746,202695,203090,1627826,202331,201976,0021900212,3,1440,1465,0,0,1610612738
102,1610612738,1627759,1628369,1628464,203935,202689,1610612746,202695,203090,1627826,202331,201976,0021900212,3,1479,1479,0,3,1610612746
103,1610612738,1627759,1628369,1628464,203935,202689,1610612746,202695,203090,1627826,202331,201976,0021900212,3,1497,1503,0,0,1610612738
104,1610612738,1627759,1628369,1628464,203935,202689,1610612746,202695,203090,1627826,202331,201976,0021900212,3,1511,1511,0,2,1610612746
105,1610612738,1627759,1628369,1628464,203935,202689,1610612746,202695,203090,1627826,202331,201976,0021900212,3,1530,1530,3,0,1610612738
106,1610612738,1627759,1628369,1628464,203935,202689,1610612746,202695,203090,1627826,202331,201976,0021900212,3,1541,1551,0,0,1610612746
107,1610612738,1627759,1628369,1628464,203935,202689,1610612746,202695,203090,1627826,202331,201976,0021900212,3,1556,1559,0,0,1610612738
108,1610612738,1627759,1628369,1628464,203935,202689,1610612746,202695,203090,1627826,202331,201976,0021900212,3,1562,1566,0,3,1610612746
109,1610612738,1627759,1628369,1628464,203935,202689,1610612746,202695,203090,1627826,202331,201976,0021900212,3,1583,1593,0,0,1610612738
110,1610612738,1627759,1628369,1628464,203935,202689,1610612746,202695,203090,1627826,202331,201976,0021900212,3,1605,1605,0,3,1610612746
111,1610612738,1627759,1628369,1628464,203935,202689,1610612746,202695,203090,1627826,202331,201976,0021900212,3,1622,1622,2,0,1610612738
112,1610612738,1627759,1628369,1628464,203935,202689,1610612746,202695,203090,1627826,202331,201976,0021900212,3,1642,1642,0,3,1610612746
113,1610612738,1627759,1628369,1628464,203935,202689,1610612746,202695,203090,1627826,202331,201976,0021900212,3,1660,1660,2,0,1610612738
114,1610612738,1627759,1628369,1628464,203935,202689,1610612746,202695,203090,1627826,202331,201976,0021900212,3,1673,1676,0,0,1610612746
115,1610612738,1627759,1628369,1628464,203935,202689,1610612746,202695,203090,1627826,202331,201976,0021900212,3,1682,1682,3,0,1610612738
116,1610612738,1627759,1628369,1628464,203935,202689,1610612746,202695,203090,1627826,202331,201976,0021900212,3,1705,1705,0,0,1610612746
117,1610612738,1627759,1628369,1628464,203935,202689,1610612746,202695,203090,1627826,202331,201976,0021900212,3,1720,1720,3,0,1610612738
118,1610612738,1627759,1628369,1628464,203935,202689,1610612746,202695,203090,1627826,202331,201976,0021900212,3,1732,1735,0,0,1610612746
119,1610612738,1627759,1628369,1628464,203935,202689,1610612746,202695,203090,1627826,202331,201976,0021900212,3,1737,1737,0,0,1610612738
120,1610612738,1627759,1628369,1628464,203935,202689,1610612746,202695,203090,1627826,202331,201976,0021900212,3,1737,1751,0,0,1610612746
121,1610612738,1627759,1628369,1628464,203935,202689,1610612746,202695,203090,1627826,202331,201976,0021900212,3,1757,1761,0,0,1610612738
122,1610612738,1627759,1628369,1628464,203935,202689,1610612746,202695,203090,1627826,202331,201976,0021900212,3,1771,1771,0,2,1610612746
123,1610612738,1627759,1628369,1628464,203935,202689,1610612746,202695,203090,1627826,202331,201976,0021900212,3,1788,1788,3,0,1610612738
124,1610612738,1627759,1628369,1628464,203935,202689,1610612746,202695,203090,1627826,202331,201976,0021900212,3,1799,1815,0,2,1610612746
125,1610612738,1628369,1628464,1629684,202689,202954,1610612746,101150,1627826,201976,203210,203585,0021900212,3,1838,1849,0,0,1610612738
126,1610612738,1628369,1628464,1629684,202689,202954,1610612746,101150,1627826,201976,203210,203585,0021900212,3,1857,1857,0,0,1610612746
127,1610612738,1628369,1628464,1629684,202689,202954,1610612746,101150,1627826,201976,203210,203585,0021900212,3,1860,1860,0,0,1610612738
128,1610612738,1628369,1628464,1629684,202689,202954,1610612746,101150,1626149,201976,203210,203585,0021900212,3,1875,1880,0,0,1610612746
129,1610612738,1628369,1628464,1629684,202689,202954,1610612746,101150,1626149,201976,203210,203585,0021900212,3,1884,1892,2,0,1610612738
130,1610612738,1628369,1628464,1629684,202689,202954,1610612746,101150,1626149,201976,203210,203585,0021900212,3,1902,1902,0,3,1610612746
131,1610612738,1628369,1628464,1629684,202689,202954,1610612746,101150,1626149,201976,203210,203585,0021900212,3,1918,1918,3,0,1610612738
132,1610612738,1628369,1628464,1629684,202954,203935,1610612746,101150,1626149,201976,203210,203585,0021900212,3,1934,1934,0,0,1610612746
133,1610612738,1628369,1628464,1629684,202954,203935,1610612746,101150,1626149,201976,203210,203585,0021900212,3,1947,1950,0,0,1610612738
134,1610612738,1628369,1628464,1629684,202954,203935,1610612746,101150,1626149,201976,203210,203585,0021900212,3,1953,1963,0,2,1610612746
135,1610612738,1628369,1629684,202683,202954,203935,1610612746,101150,1626149,201976,203210,203585,0021900212,3,1978,1988,3,0,1610612738
136,1610612738,1628369,1629684,202683,202954,203935,1610612746,101150,1626149,1629010,203210,203585,0021900212,3,2004,2007,0,0,1610612746
137,1610612738,1628369,1629684,202683,202954,203935,1610612746,101150,1626149,1629010,203210,203585,0021900212,3,2014,2017,0,0,1610612738
138,1610612738,1628369,1629684,202683,202954,203935,1610612746,101150,1626149,1629010,203210,203585,0021900212,3,2031,2039,0,2,1610612746
139,1610612738,1628369,1629684,202683,202954,203935,1610612746,101150,1626149,1629010,203210,203585,0021900212,3,2048,2066,0,0,1610612738
140,1610612738,1628369,1629684,202683,202954,203935,1610612746,101150,1626149,202695,203210,203585,0021900212,3,2072,2076,0,0,1610612746
141,1610612738,1628369,1629684,202683,202954,203935,1610612746,101150,1626149,202695,203210,203585,0021900212,3,2081,2081,2,0,1610612738
142,1610612738,1628369,1629684,202683,202954,203935,1610612746,101150,1626149,202695,203210,203585,0021900212,3,2091,2091,0,2,1610612746
143,1610612738,1628369,1629684,202683,202954,203935,1610612746,101150,1626149,202695,203210,203585,0021900212,3,2110,2110,2,0,1610612738
144,1610612738,1628369,1629684,202683,202954,203935,1610612746,101150,1626149,202695,203210,203585,0021900212,3,2120,2120,0,2,1610612746
145,1610612738,1628369,1629684,202683,202954,203935,1610612746,101150,1626149,202695,203210,203585,0021900212,3,2128,2128,3,0,1610612738
146,1610612738,1628369,1629684,202683,202954,203935,1610612746,101150,1626149,202695,203210,203585,0021900212,3,2132,2134,0,0,1610612746
147,1610612738,1628369,1629684,202683,202954,203935,1610612746,101150,1626149,202695,203210,203585,0021900212,3,2156,2156,2,0,1610612738
148,1610612738,1627759,1628464,1629684,202954,203935,1610612746,101150,1626149,202695,203210,203585,0021900212,3,2160,2160,0,0,1610612738
149,1610612738,1627759,1628464,203935,202954,1629684,1610612746,202695,202331,101150,203210,1626149,0021900212,4,2160,2167,0,0,1610612746
150,1610612738,1627759,1628464,203935,202954,1629684,1610612746,202695,202331,101150,203210,1626149,0021900212,4,2179,2197,0,0,1610612738
151,1610612738,1627759,1628464,203935,202954,1629684,1610612746,202695,202331,101150,203210,1626149,0021900212,4,2197,2211,0,2,1610612746
152,1610612738,1627759,1628464,203935,202954,1629684,1610612746,202695,202331,101150,203210,1626149,0021900212,4,2228,2234,0,0,1610612738
153,1610612738,1627759,1628464,203935,202954,1629684,1610612746,202695,202331,101150,203210,1626149,0021900212,4,2238,2238,0,0,1610612746
154,1610612738,1627759,1628464,203935,202954,1629684,1610612746,202695,202331,101150,203210,1626149,0021900212,4,2249,2255,3,0,1610612738
155,1610612738,1627759,1628464,203935,202954,1629684,1610612746,202695,202331,101150,203210,1626149,0021900212,4,2270,2270,0,2,1610612746
156,1610612738,1627759,1628464,203935,202954,1629684,1610612746,202695,202331,101150,203210,1626149,0021900212,4,2292,2292,0,0,1610612738
157,1610612738,1627759,1628464,203935,202954,1629684,1610612746,202695,202331,101150,203210,1626149,0021900212,4,2295,2303,0,0,1610612746
158,1610612738,1627759,1629057,1629684,202954,203935,1610612746,202695,202331,101150,203210,1626149,0021900212,4,2318,2321,0,0,1610612738
159,1610612738,1627759,1629057,1629684,202954,203935,1610612746,202695,202331,101150,203210,1626149,0021900212,4,2330,2337,0,0,1610612746
160,1610612738,1627759,1629057,1629684,202954,203935,1610612746,202695,202331,101150,203210,1626149,0021900212,4,2357,2357,0,0,1610612738
161,1610612738,1627759,1629057,1629684,202954,203935,1610612746,101150,1626149,201976,202695,203210,0021900212,4,2371,2371,0,0,1610612746
162,1610612738,1627759,1629057,1629684,202689,202954,1610612746,101150,1627826,201976,202695,203210,0021900212,4,2386,2386,3,0,1610612738
163,1610612738,1627759,1629057,1629684,202689,202954,1610612746,101150,1627826,201976,202695,203210,0021900212,4,2388,2418,0,0,1610612746
164,1610612738,1627759,1629057,1629684,202689,202954,1610612746,101150,1627826,201976,202695,203090,0021900212,4,2430,2433,0,0,1610612738
165,1610612738,1627759,1629057,1629684,202689,202954,1610612746,101150,1627826,201976,202695,203090,0021900212,4,2440,2440,0,3,1610612746
166,1610612738,1627759,1629057,1629684,202689,202954,1610612746,101150,1627826,201976,202695,203090,0021900212,4,2459,2472,2,0,1610612738
167,1610612738,1627759,1629057,1629684,202689,202954,1610612746,101150,1627826,201976,202695,203090,0021900212,4,2481,2481,0,0,1610612746
168,1610612738,1627759,1629057,1629684,202689,202954,1610612746,101150,1627826,201976,202695,203090,0021900212,4,2481,2505,3,0,1610612738
169,1610612738,1627759,1629057,1629684,202689,202954,1610612746,101150,1626149,201976,202331,203090,0021900212,4,2507,2519,0,3,1610612746
170,1610612738,1627759,1629057,1629684,202689,202954,1610612746,101150,1626149,201976,202331,203090,0021900212,4,2532,2532,0,0,1610612738
171,1610612738,1627759,1629057,1629684,202689,202954,1610612746,101150,1626149,201976,202331,203090,0021900212,4,2535,2540,0,2,1610612746
172,1610612738,1628369,1629057,1629684,202689,203935,1610612746,101150,1626149,201976,202331,203090,0021900212,4,2558,2558,0,0,1610612738
173,1610612738,1628369,1628464,1629684,202689,203935,1610612746,101150,1626149,201976,202331,203090,0021900212,4,2566,2571,0,0,1610612746
174,1610612738,1628369,1628464,1629684,202689,203935,1610612746,101150,1626149,201976,202331,203090,0021900212,4,2573,2590,0,0,1610612738
175,1610612738,1628369,1628464,1629684,202689,203935,1610612746,101150,1626149,201976,202331,203090,0021900212,4,2599,2599,0,3,1610612746
176,1610612738,1628369,1628464,1629684,202689,203935,1610612746,101150,1626149,201976,202331,203090,0021900212,4,2601,2615,2,0,1610612738
177,1610612738,1627759,1628369,1628464,202689,203935,1610612746,101150,1626149,201976,202331,202695,0021900212,4,2637,2639,0,0,1610612746
178,1610612738,1627759,1628369,1628464,202689,203935,1610612746,101150,1626149,201976,202331,202695,0021900212,4,2644,2644,2,0,1610612738
179,1610612738,1627759,1628369,1628464,202689,203935,1610612746,101150,1626149,201976,202331,202695,0021900212,4,2663,2669,0,0,1610612746
180,1610612738,1627759,1628369,1628464,202689,203935,1610612746,101150,1626149,201976,202331,202695,0021900212,4,2674,2674,0,0,1610612738
181,1610612738,1627759,1628369,1628464,202689,203935,1610612746,101150,1626149,201976,202331,202695,0021900212,4,2684,2684,0,2,1610612746
182,1610612738,1627759,1628369,1628464,202689,203935,1610612746,101150,1626149,201976,202331,202695,0021900212,4,2707,2707,2,0,1610612738
183,1610612738,1627759,1628369,1628464,202689,203935,1610612746,101150,1626149,201976,202331,202695,0021900212,4,2721,2721,0,1,1610612746
184,1610612738,1627759,1628369,1628464,202689,203935,1610612746,101150,1626149,201976,202331,202695,0021900212,4,2739,2739,2,0,1610612738
185,1610612738,1627759,1628369,1628464,202689,203935,1610612746,101150,1626149,201976,202331,202695,0021900212,4,2751,2751,0,3,1610612746
186,1610612738,1627759,1628369,1628464,202689,203935,1610612746,101150,1626149,201976,202331,202695,0021900212,4,2776,2778,0,0,1610612738
187,1610612738,1627759,1628369,1628464,202689,203935,1610612746,101150,1626149,201976,202331,202695,0021900212,4,2783,2783,0,2,1610612746
188,1610612738,1627759,1628369,1628464,202689,203935,1610612746,101150,1626149,201976,202331,202695,0021900212,4,2802,2806,0,0,1610612738
189,1610612738,1627759,1628369,1628464,202689,203935,1610612746,101150,1626149,201976,202331,202695,0021900212,4,2816,2822,0,0,1610612746
190,1610612738,1627759,1628369,1628464,202689,203935,1610612746,101150,1626149,201976,202331,202695,0021900212,4,2842,2846,0,0,1610612738
191,1610612738,1627759,1628369,1628464,202689,203935,1610612746,101150,1626149,201976,202331,202695,0021900212,4,2849,2849,0,3,1610612746
192,1610612738,1627759,1628369,1628464,202689,203935,1610612746,101150,1626149,201976,202331,202695,0021900212,4,2859,2859,0,0,1610612738
193,1610612738,1627759,1628369,1628464,202689,203935,1610612746,101150,1626149,201976,202331,202695,0021900212,4,2860,2860,0,2,1610612746
194,1610612738,1627759,1628369,1628464,202683,203935,1610612746,101150,1626149,201976,202331,202695,0021900212,4,2860,2867,3,0,1610612738
195,1610612738,1627759,1628369,1629684,202689,203935,1610612746,1626149,201976,202331,202695,203090,0021900212,4,2867,2880,0,0,1610612738
196,1610612738,1627759,1628369,1628464,203935,202689,1610612746,202695,202331,201976,101150,1626149,0021900212,5,2880,2889,0,0,1610612746
197,1610612738,1627759,1628369,1628464,203935,202689,1610612746,202695,202331,201976,101150,1626149,0021900212,5,2909,2909,2,0,1610612738
198,1610612738,1627759,1628369,1628464,203935,202689,1610612746,202695,202331,201976,101150,1626149,0021900212,5,2929,2932,0,3,1610612746
199,1610612738,1627759,1628369,1628464,203935,202689,1610612746,202695,202331,201976,101150,1626149,0021900212,5,2957,2957,0,0,1610612738
200,1610612738,1627759,1628369,1628464,203935,202689,1610612746,202695,202331,201976,101150,1626149,0021900212,5,2961,2977,0,3,1610612746
201,1610612738,1627759,1628369,1628464,203935,202689,1610612746,202695,202331,201976,101150,1626149,0021900212,5,2992,2997,3,1,1610612738
202,1610612738,1627759,1628369,1628464,203935,202689,1610612746,202695,202331,201976,101150,1626149,0021900212,5,3013,3016,0,0,1610612746
203,1610612738,1627759,1628369,1628464,203935,202689,1610612746,202695,202331,201976,101150,1626149,0021900212,5,3018,3027,0,0,1610612738
204,1610612738,1627759,1628369,1628464,203935,202689,1610612746,202695,202331,201976,101150,1626149,0021900212,5,3030,3055,0,0,1610612746
205,1610612738,1627759,1628369,1628464,203935,202689,1610612746,202695,202331,201976,101150,1626149,0021900212,5,3062,3062,0,0,1610612738
206,1610612738,1627759,1628369,1628464,203935,202689,1610612746,202695,202331,201976,101150,1626149,0021900212,5,3063,3063,0,0,1610612746
207,1610612738,1627759,1628369,1628464,203935,202689,1610612746,202695,202331,201976,101150,1626149,0021900212,5,3063,3088,0,0,1610612738
208,1610612738,1627759,1628369,1628464,203935,202689,1610612746,202695,202331,201976,101150,1626149,0021900212,5,3104,3106,0,0,1610612746
209,1610612738,1627759,1628369,1628464,203935,202689,1610612746,202695,202331,201976,101150,1626149,0021900212,5,3117,3119,0,0,1610612738
210,1610612738,1627759,1628369,1628464,203935,202689,1610612746,202695,202331,201976,101150,1626149,0021900212,5,3137,3137,0,3,1610612746
211,1610612738,1627759,1628369,1628464,203935,202689,1610612746,202695,202331,201976,101150,1626149,0021900212,5,3137,3146,2,0,1610612738
212,1610612738,1627759,1628369,1629684,202689,203935,1610612746,1626149,201976,202331,202695,203090,0021900212,5,3146,3162,0,0,1610612746
213,1610612738,1627759,1628369,1628464,202689,203935,1610612746,1626149,201976,202331,202695,203090,0021900212,5,3170,3180,0,0,1610612746
