,t1_players,t1_id,t2_points_scored,t1_pm,t2_id,stint_end,t2_pm,t1_points_scored,stint_start,t2_players,margin_per_100,num_poss
0,"[1630256, 1629726, 1626174, 1629645, 201569]",1610612745,17,-7,1610612760,354,7,10,0,"[1629652, 1629647, 1630526, 1630544, 1628983]",-31.818181818181817,22.0
1,"[1630256, 1629726, 1626174, 1629645, 201569]",1610612745,24,-6,1610612760,514,6,18,355,"[1629652, 1629647, 1630526, 1630544, 1628983]",-17.647058823529413,34.0
2,"[1628464, 1629645, 1629726, 1630256, 201569]",1610612745,26,-5,1610612760,590,5,21,515,"[1629652, 1629647, 1630526, 1630544, 1628983]",-12.5,40.0
3,"[1628464, 1629645, 1629717, 1629726, 1630231]",1610612745,26,-2,1610612760,643,2,24,591,"[1628778, 1628983, 1630177, 1630526, 1630544]",-4.545454545454546,44.0
4,"[1628464, 1629645, 1629717, 1629726, 1630231]",1610612745,26,-2,1610612760,711,2,24,644,"[1628778, 1629660, 1629676, 1630177, 1630197]",-4.25531914893617,47.0
5,"[1627863, 1628464, 1629717, 1630231, 1630528]",1610612745,32,-6,1610612760,815,6,26,712,"[1628778, 1629660, 1629676, 1630177, 1630197]",-11.11111111111111,54.0
6,"[1629717, 1630231, 1627863, 1630528, 1630578]",1610612745,37,-11,1610612760,887,11,26,816,"[1629652, 1628778, 1630197, 1629676, 1629660]",-18.0327868852459,61.0
7,"[1627863, 1629717, 1630231, 1630578, 201569]",1610612745,37,-9,1610612760,896,9,28,888,"[1629652, 1628778, 1630197, 1629676, 1629660]",-14.516129032258066,62.0
8,"[1626174, 1627863, 1629717, 1630578, 201569]",1610612745,39,-9,1610612760,981,9,30,897,"[1629652, 1628778, 1630197, 1629676, 1629660]",-13.636363636363635,66.0
9,"[1626174, 1629717, 1630256, 1630578, 201569]",1610612745,42,-12,1610612760,991,12,30,982,"[1629652, 1628778, 1630197, 1629676, 1629660]",-17.91044776119403,67.0
10,"[1626174, 1629717, 1629726, 1630256, 201569]",1610612745,45,-15,1610612760,1054,15,30,992,"[1628983, 1629660, 1630197, 1630526, 1630598]",-21.12676056338028,71.0
11,"[1626174, 1629645, 1629726, 1630256, 201569]",1610612745,47,-15,1610612760,1090,15,32,1055,"[1628983, 1629660, 1630197, 1630526, 1630598]",-20.54794520547945,73.0
12,"[1626174, 1629645, 1629726, 1630256, 201569]",1610612745,47,-10,1610612760,1130,10,37,1091,"[1628983, 1629647, 1629660, 1630526, 1630598]",-13.157894736842104,76.0
13,"[1629645, 1629717, 1629726, 1630231, 1630256]",1610612745,48,-11,1610612760,1145,11,37,1131,"[1628983, 1629647, 1630526, 1630544, 1630598]",-14.285714285714285,77.0
14,"[1629717, 1629726, 1630231, 1630256, 1630528]",1610612745,51,-4,1610612760,1272,4,47,1146,"[1628983, 1629647, 1630526, 1630544, 1630598]",-4.761904761904762,84.0
15,"[1629717, 1629726, 1630231, 1630256, 1630528]",1610612745,58,-5,1610612760,1437,5,53,1273,"[1628983, 1629647, 1629652, 1630526, 1630544]",-5.319148936170213,94.0
16,"[1629726, 1630231, 1630256, 1630528, 201569]",1610612745,60,-7,1610612760,1439,7,53,1438,"[1628983, 1629652, 1630526, 1630544, 1630598]",-7.368421052631578,95.0
17,"[1627863, 1629726, 1630231, 1630256, 201569]",1610612745,68,-10,1610612760,1693,10,58,1440,"[1628983, 1629652, 1630526, 1630544, 1630598]",-8.928571428571429,112.0
18,"[1630256, 1629726, 201569, 1628464, 1629717]",1610612745,74,-10,1610612760,1898,10,64,1694,"[1629652, 1629647, 1630526, 1630544, 1628983]",-7.874015748031496,127.0
19,"[1627863, 1628464, 1629726, 1630256, 201569]",1610612745,76,-12,1610612760,1985,12,64,1899,"[1629652, 1629647, 1630526, 1630544, 1628983]",-9.16030534351145,131.0
20,"[1627863, 1629726, 1630256, 1630528, 1630578]",1610612745,79,-6,1610612760,2159,6,73,1986,"[1628778, 1628983, 1630177, 1630526, 1630544]",-4.225352112676056,142.0
21,"[1627863, 1629717, 1630231, 1630528, 1630578]",1610612745,84,-9,1610612760,2203,9,75,2160,"[1628778, 1628983, 1629660, 1629676, 1630177]",-6.122448979591836,147.0
22,"[1629717, 1630231, 1627863, 1630528, 1630578]",1610612745,95,-10,1610612760,2367,10,85,2204,"[1629652, 1628778, 1630197, 1629676, 1629660]",-6.289308176100629,159.0
23,"[1629717, 1630231, 1627863, 1630528, 1630578]",1610612745,96,-11,1610612760,2389,11,85,2368,"[1628778, 1629652, 1629660, 1629676, 1630598]",-6.875000000000001,160.0
24,"[1629717, 1629726, 1630256, 1630578, 201569]",1610612745,96,-10,1610612760,2439,10,86,2390,"[1628778, 1629652, 1629660, 1629676, 1630598]",-6.172839506172839,162.0
25,"[1629717, 1629726, 1630256, 1630578, 201569]",1610612745,96,-6,1610612760,2477,6,90,2440,"[1628778, 1628983, 1629660, 1629676, 1630598]",-3.6363636363636362,165.0
26,"[1628464, 1629717, 1629726, 1630256, 201569]",1610612745,96,-1,1610612760,2550,1,95,2478,"[1628778, 1628983, 1630526, 1630544, 1630598]",-0.591715976331361,169.0
27,"[1628464, 1629717, 1629726, 1630256, 201569]",1610612745,106,3,1610612760,2834,-3,109,2551,"[1628778, 1628983, 1629652, 1630526, 1630544]",1.6042780748663104,187.0
28,"[1628464, 1629717, 1629726, 1630256, 201569]",1610612745,106,3,1610612760,2846,-3,109,2835,"[1628983, 1629647, 1629652, 1630526, 1630544]",1.6042780748663104,187.0
29,"[1628464, 1629726, 1630231, 1630256, 201569]",1610612745,108,3,1610612760,2864,-3,111,2847,"[1628983, 1629647, 1629652, 1630526, 1630544]",1.5873015873015872,189.0
30,"[1628464, 1629717, 1629726, 1630256, 201569]",1610612745,108,4,1610612760,2875,-4,112,2865,"[1628983, 1629647, 1629652, 1630526, 1630544]",2.094240837696335,191.0
31,"[1628464, 1629726, 1630231, 1630256, 201569]",1610612745,110,2,1610612760,2877,-2,112,2876,"[1628983, 1629647, 1629652, 1630526, 1630544]",1.0416666666666665,192.0
32,"[1628464, 1629726, 1630231, 1630256, 201569]",1610612745,110,4,1610612760,9999999,-4,114,2878,"[1628983, 1629647, 1629652, 1629676, 1630526]",2.0618556701030926,194.0
