,TEAM_ID_1,TEAM_1_PLAYERS,TEAM_ID_2,TEAM_2_PLAYERS,PERIOD
0,1610612738,[1627759 1629684  202684  203935  202689],1610612755,[ 201980  202699  203954 1630178 1627732],1
1,1610612738,[ 202689 1628464 1628400  201952 1629750],1610612755,[1627732 1629680 1629003 1627788    2730],2
2,1610612738,[1627759 1629684  202684  203935  201952],1610612755,[ 201980  202699  203954 1630178 1627732],3
3,1610612738,[ 202689 1630202 1628464 1628400 1629750],1610612755,[ 202699 1629680 1629003 1627788    2730],4
