,team1_id,team1_player1,team1_player2,team1_player3,team1_player4,team1_player5,team2_id,team2_player1,team2_player2,team2_player3,team2_player4,team2_player5,game_id,period,possession_start,possession_end,team1_points,team2_points,possession_team
0,1610612765,203493,201933,203083,1628971,202704,1610612762,204060,202324,203497,1626220,1628378,0021800648,1,0,16,0,2,1610612762
1,1610612765,203493,201933,203083,1628971,202704,1610612762,204060,202324,203497,1626220,1628378,0021800648,1,28,28,3,0,1610612765
2,1610612765,203493,201933,203083,1628971,202704,1610612762,204060,202324,203497,1626220,1628378,0021800648,1,40,40,0,0,1610612762
3,1610612765,203493,201933,203083,1628971,202704,1610612762,204060,202324,203497,1626220,1628378,0021800648,1,50,50,2,0,1610612765
4,1610612765,203493,201933,203083,1628971,202704,1610612762,204060,202324,203497,1626220,1628378,0021800648,1,61,61,0,0,1610612762
5,1610612765,203493,201933,203083,1628971,202704,1610612762,204060,202324,203497,1626220,1628378,0021800648,1,69,69,2,0,1610612765
6,1610612765,203493,201933,203083,1628971,202704,1610612762,204060,202324,203497,1626220,1628378,0021800648,1,86,89,0,0,1610612762
7,1610612765,203493,201933,203083,1628971,202704,1610612762,204060,202324,203497,1626220,1628378,0021800648,1,95,95,2,0,1610612765
8,1610612765,203493,201933,203083,1628971,202704,1610612762,204060,202324,203497,1626220,1628378,0021800648,1,95,110,0,0,1610612762
9,1610612765,203493,201933,203083,1628971,202704,1610612762,204060,202324,203497,1626220,1628378,0021800648,1,115,117,0,0,1610612765
10,1610612765,203493,201933,203083,1628971,202704,1610612762,204060,202324,203497,1626220,1628378,0021800648,1,135,135,0,3,1610612762
11,1610612765,203493,201933,203083,1628971,202704,1610612762,204060,202324,203497,1626220,1628378,0021800648,1,156,159,0,0,1610612765
12,1610612765,203493,201933,203083,1628971,202704,1610612762,204060,202324,203497,1626220,1628378,0021800648,1,172,175,0,0,1610612762
13,1610612765,203493,201933,203083,1628971,202704,1610612762,204060,202324,203497,1626220,1628378,0021800648,1,189,189,3,0,1610612765
14,1610612765,203493,201933,203083,1628971,202704,1610612762,204060,202324,203497,1626220,1628378,0021800648,1,201,201,0,2,1610612762
15,1610612765,203493,201933,203083,1628971,202704,1610612762,204060,202324,203497,1626220,1628378,0021800648,1,214,216,0,0,1610612765
16,1610612765,203493,201933,203083,1628971,202704,1610612762,204060,202324,203497,1626220,1628378,0021800648,1,231,235,0,0,1610612762
17,1610612765,203493,201933,203083,1628971,202704,1610612762,204060,202324,203497,1626220,1628378,0021800648,1,238,243,0,0,1610612765
18,1610612765,203493,201933,203083,1628971,202704,1610612762,204060,202324,203497,1626220,1628378,0021800648,1,252,252,0,3,1610612762
19,1610612765,203493,201933,203083,1628971,202704,1610612762,204060,202324,203497,1626220,1628378,0021800648,1,262,290,0,0,1610612765
20,1610612765,203493,201933,203083,1628971,202704,1610612762,1626220,1628378,202324,203497,2594,0021800648,1,296,300,0,0,1610612762
21,1610612765,203493,201933,203083,1628971,202704,1610612762,1626220,1628378,202324,203497,2594,0021800648,1,303,307,0,0,1610612765
22,1610612765,203493,201933,203083,1628971,202704,1610612762,1626220,1628378,202324,203497,2594,0021800648,1,318,318,0,3,1610612762
23,1610612765,203493,201933,203083,1628971,202704,1610612762,1626220,1628378,202324,203497,2594,0021800648,1,344,344,2,0,1610612765
24,1610612765,203493,201933,203083,1628971,202704,1610612762,1626220,1628378,202324,203497,2594,0021800648,1,364,371,0,1,1610612762
25,1610612765,203493,201933,203083,1628971,202704,1610612762,1626220,1628378,203109,203497,2594,0021800648,1,371,382,3,0,1610612765
26,1610612765,201933,202704,203083,203493,204038,1610612762,1626220,1628378,203109,203497,2594,0021800648,1,401,404,0,0,1610612762
27,1610612765,201933,202704,203083,203493,204038,1610612762,1626220,1628378,203109,203497,2594,0021800648,1,409,410,0,0,1610612765
28,1610612765,201933,202704,203083,203493,204038,1610612762,1626220,1628378,203109,203497,2594,0021800648,1,420,420,0,3,1610612762
29,1610612765,201933,202704,203083,203493,204038,1610612762,1626220,1628378,203109,203497,2594,0021800648,1,438,438,2,0,1610612765
30,1610612765,201933,202704,203083,203493,204038,1610612762,1626220,1628378,203109,203497,2594,0021800648,1,452,454,0,0,1610612762
31,1610612765,201933,202704,203083,203493,204038,1610612762,1626220,1628378,203109,203497,2594,0021800648,1,461,463,0,0,1610612765
32,1610612765,201933,202704,203083,203493,204038,1610612762,1626220,1628378,203109,203497,2594,0021800648,1,469,469,0,1,1610612762
33,1610612765,201933,202397,203083,203493,204038,1610612762,1628378,1628960,203109,203497,2594,0021800648,1,490,492,0,0,1610612765
34,1610612765,201933,202397,203083,203493,204038,1610612762,1628378,1628960,203109,203497,2594,0021800648,1,498,498,0,0,1610612762
35,1610612765,201933,202397,203083,203493,204038,1610612762,1628378,1628960,203109,203497,2594,0021800648,1,508,508,2,0,1610612765
36,1610612765,201933,202397,203083,203493,204038,1610612762,1628378,1628960,203109,203497,2594,0021800648,1,521,522,0,1,1610612762
37,1610612765,1628379,201933,202397,203083,204038,1610612762,1628960,202324,203109,204060,2594,0021800648,1,534,534,2,0,1610612765
38,1610612765,1628379,201933,202397,203083,204038,1610612762,1628960,202324,203109,204060,2594,0021800648,1,534,544,0,0,1610612762
39,1610612765,1628379,201933,202397,203083,204038,1610612762,1628960,202324,203109,204060,2594,0021800648,1,548,548,2,0,1610612765
40,1610612765,1628379,201933,202397,203083,204038,1610612762,1628960,202324,203109,204060,2594,0021800648,1,561,566,0,2,1610612762
41,1610612765,1628379,201933,202397,203083,204038,1610612762,1628960,202324,203109,204060,2594,0021800648,1,574,582,3,0,1610612765
42,1610612765,1628379,201933,202397,203083,204038,1610612762,1628960,202324,203109,204060,2594,0021800648,1,596,596,0,2,1610612762
43,1610612765,1628379,201933,202397,203083,204038,1610612762,1628960,202324,203109,204060,2594,0021800648,1,620,624,0,0,1610612765
44,1610612765,1628379,201933,202397,203083,204038,1610612762,1628960,202324,203109,204060,2594,0021800648,1,636,636,0,3,1610612762
45,1610612765,1628379,201933,202397,203083,204038,1610612762,1628960,202324,203109,204060,2594,0021800648,1,659,661,0,0,1610612765
46,1610612765,1628379,201933,202397,203083,204038,1610612762,1628960,202324,203109,204060,2594,0021800648,1,664,664,0,0,1610612762
47,1610612765,1626169,1628379,202397,203083,204038,1610612762,1628960,202324,203109,204060,2594,0021800648,1,682,684,0,0,1610612765
48,1610612765,1626169,1628379,202397,203083,204038,1610612762,1628960,202324,203109,204060,2594,0021800648,1,691,694,0,0,1610612762
49,1610612765,1626169,1628379,202397,203083,204038,1610612762,1628960,202324,203109,204060,2594,0021800648,1,715,715,3,0,1610612765
50,1610612765,1626169,1628379,202397,203083,204038,1610612762,1628960,202324,203109,204060,2594,0021800648,1,717,720,0,1,1610612765
51,1610612765,204038,202397,1628379,1626169,202720,1610612762,204060,202324,2594,203109,1628960,0021800648,2,720,735,2,0,1610612765
52,1610612765,204038,202397,1628379,1626169,202720,1610612762,204060,202324,2594,203109,1628960,0021800648,2,758,758,0,0,1610612762
53,1610612765,204038,202397,1628379,1626169,202720,1610612762,204060,202324,2594,203109,1628960,0021800648,2,775,775,3,0,1610612765
54,1610612765,204038,202397,1628379,1626169,202720,1610612762,204060,202324,2594,203109,1628960,0021800648,2,790,790,0,1,1610612762
55,1610612765,204038,202397,1628379,1626169,202720,1610612762,204060,202324,2594,203109,1628960,0021800648,2,802,802,2,0,1610612765
56,1610612765,204038,202397,1628379,1626169,202720,1610612762,204060,202324,2594,203109,1628960,0021800648,2,823,831,0,0,1610612762
57,1610612765,204038,202397,1628379,1626169,202720,1610612762,204060,202324,2594,203109,1628960,0021800648,2,844,846,0,0,1610612765
58,1610612765,204038,202397,1628379,1626169,202720,1610612762,204060,202324,2594,203109,1628960,0021800648,2,857,859,0,0,1610612762
59,1610612765,204038,202397,1628379,1626169,202720,1610612762,204060,202324,2594,203109,1628960,0021800648,2,863,863,0,0,1610612765
60,1610612765,1626169,1628379,202704,202720,204038,1610612762,1627777,1628960,202324,204060,2594,0021800648,2,871,871,0,1,1610612762
61,1610612765,1626169,1628379,202704,202720,204038,1610612762,1627777,1628960,202324,204060,2594,0021800648,2,885,885,2,0,1610612765
62,1610612765,1626169,1628379,202704,202720,204038,1610612762,1627777,1628960,202324,204060,2594,0021800648,2,899,899,0,2,1610612762
63,1610612765,1626169,1628379,202704,202720,204038,1610612762,1627777,1628960,202324,204060,2594,0021800648,2,911,913,0,0,1610612765
64,1610612765,1626169,1628379,202704,202720,204038,1610612762,1627777,1628960,202324,204060,2594,0021800648,2,920,920,0,2,1610612762
65,1610612765,1626169,1628379,202704,202720,204038,1610612762,1627777,1628960,202324,204060,2594,0021800648,2,937,937,2,0,1610612765
66,1610612765,1626169,1628379,202704,202720,204038,1610612762,1627777,1628960,202324,204060,2594,0021800648,2,951,951,0,2,1610612762
67,1610612765,1626169,1628379,202704,202720,204038,1610612762,1627777,1628960,202324,204060,2594,0021800648,2,968,968,3,0,1610612765
68,1610612765,1626169,1628379,202704,202720,204038,1610612762,1627777,1628960,202324,204060,2594,0021800648,2,970,983,0,3,1610612762
69,1610612765,1626169,1628379,202704,202720,204038,1610612762,1627777,1628378,1628960,203497,2594,0021800648,2,1004,1007,0,0,1610612765
70,1610612765,1626169,1628379,202704,202720,204038,1610612762,1627777,1628378,1628960,203497,2594,0021800648,2,1013,1018,0,1,1610612762
71,1610612765,1626169,1628379,202704,202720,204038,1610612762,1626220,1627777,1628378,1628960,203497,0021800648,2,1024,1024,3,0,1610612765
72,1610612765,1626169,1628379,202704,202720,204038,1610612762,1626220,1627777,1628378,1628960,203497,0021800648,2,1038,1042,0,2,1610612762
73,1610612765,1626169,1628379,202704,202720,203493,1610612762,1626220,1627777,1628378,203497,2594,0021800648,2,1054,1057,0,0,1610612765
74,1610612765,1626169,1628379,202704,202720,203493,1610612762,1626220,1627777,1628378,203497,2594,0021800648,2,1074,1077,0,0,1610612762
75,1610612765,1626169,1628379,202704,202720,203493,1610612762,1626220,1627777,1628378,203497,2594,0021800648,2,1083,1088,0,0,1610612765
76,1610612765,1626169,1628379,202704,202720,203493,1610612762,1626220,1627777,1628378,203497,2594,0021800648,2,1090,1093,0,0,1610612762
77,1610612765,1626169,1628379,202704,202720,203493,1610612762,1626220,1627777,1628378,203497,2594,0021800648,2,1100,1111,3,0,1610612765
78,1610612765,1628379,201933,202704,203083,203493,1610612762,1626220,1628378,203109,203497,2594,0021800648,2,1122,1122,0,0,1610612762
79,1610612765,1628379,201933,202704,203083,203493,1610612762,1626220,1628378,203109,203497,2594,0021800648,2,1129,1130,0,0,1610612765
80,1610612765,1628379,201933,202704,203083,203493,1610612762,1626220,1628378,203109,203497,2594,0021800648,2,1137,1137,0,2,1610612762
81,1610612765,1628379,201933,202704,203083,203493,1610612762,1626220,1628378,203109,203497,2594,0021800648,2,1151,1153,0,0,1610612765
82,1610612765,1628379,201933,202704,203083,203493,1610612762,1626220,1628378,203109,203497,2594,0021800648,2,1159,1162,0,0,1610612762
83,1610612765,1628379,201933,202704,203083,203493,1610612762,1626220,1628378,203109,203497,2594,0021800648,2,1168,1168,2,0,1610612765
84,1610612765,1628379,201933,202704,203083,203493,1610612762,1626220,1628378,203109,203497,2594,0021800648,2,1194,1197,0,0,1610612762
85,1610612765,1628379,201933,202704,203083,203493,1610612762,1626220,1628378,203109,203497,2594,0021800648,2,1201,1218,0,0,1610612765
86,1610612765,1629017,201933,202704,203083,203493,1610612762,1626220,1628378,203109,203497,204060,0021800648,2,1223,1223,0,0,1610612762
87,1610612765,1629017,201933,202704,203083,203493,1610612762,1626220,1628378,203109,203497,204060,0021800648,2,1242,1242,2,0,1610612765
88,1610612765,1629017,201933,202704,203083,203493,1610612762,1626220,1628378,203109,203497,204060,0021800648,2,1260,1262,0,0,1610612762
89,1610612765,1629017,201933,202704,203083,203493,1610612762,1626220,1628378,203109,203497,204060,0021800648,2,1276,1279,0,0,1610612765
90,1610612765,1629017,201933,202704,203083,203493,1610612762,1626220,1628378,203109,203497,204060,0021800648,2,1279,1279,0,2,1610612762
91,1610612765,1629017,201933,202704,203083,203493,1610612762,1626220,1628378,203109,203497,204060,0021800648,2,1298,1298,2,0,1610612765
92,1610612765,1629017,201933,202704,203083,203493,1610612762,1626220,1628378,203109,203497,204060,0021800648,2,1306,1306,0,1,1610612762
93,1610612765,1628379,1629017,201933,202704,203083,1610612762,1626220,1628378,203109,203497,204060,0021800648,2,1317,1317,0,0,1610612765
94,1610612765,1628379,1629017,201933,202704,203083,1610612762,1626220,1628378,203109,203497,204060,0021800648,2,1318,1318,0,2,1610612762
95,1610612765,1628379,1629017,201933,202704,203083,1610612762,1626220,1628378,203109,203497,204060,0021800648,2,1336,1336,2,0,1610612765
96,1610612765,1628379,1629017,201933,202704,203083,1610612762,1626220,1628378,203109,203497,204060,0021800648,2,1346,1346,0,3,1610612762
97,1610612765,1628379,1629017,201933,202704,203083,1610612762,1626220,1628378,203109,203497,204060,0021800648,2,1354,1371,0,0,1610612765
98,1610612765,1628379,1629017,201933,202704,203083,1610612762,1626220,1628378,203109,203497,2594,0021800648,2,1381,1381,0,2,1610612762
99,1610612765,1628379,1629017,201933,202704,203083,1610612762,1626220,1628378,203109,203497,2594,0021800648,2,1393,1393,0,0,1610612765
100,1610612765,1628379,1629017,201933,202704,203083,1610612762,1626220,1628378,203109,203497,2594,0021800648,2,1400,1404,0,0,1610612762
101,1610612765,1628379,1629017,201933,202704,203083,1610612762,1626220,1628378,203109,203497,2594,0021800648,2,1411,1414,0,0,1610612765
102,1610612765,1628379,1629017,201933,202704,203083,1610612762,1626220,1628378,203109,203497,2594,0021800648,2,1437,1437,0,0,1610612762
103,1610612765,203493,201933,203083,1628971,202704,1610612762,204060,202324,203497,1626220,1628378,0021800648,3,1440,1461,3,0,1610612765
104,1610612765,203493,201933,203083,1628971,202704,1610612762,204060,202324,203497,1626220,1628378,0021800648,3,1478,1478,0,3,1610612762
105,1610612765,203493,201933,203083,1628971,202704,1610612762,204060,202324,203497,1626220,1628378,0021800648,3,1487,1491,0,0,1610612765
106,1610612765,203493,201933,203083,1628971,202704,1610612762,204060,202324,203497,1626220,1628378,0021800648,3,1508,1512,0,2,1610612762
107,1610612765,203493,201933,203083,1628971,202704,1610612762,204060,202324,203497,1626220,1628378,0021800648,3,1522,1525,0,0,1610612765
108,1610612765,203493,201933,203083,1628971,202704,1610612762,204060,202324,203497,1626220,1628378,0021800648,3,1534,1534,0,2,1610612762
109,1610612765,203493,201933,203083,1628971,202704,1610612762,204060,202324,203497,1626220,1628378,0021800648,3,1545,1548,0,0,1610612765
110,1610612765,203493,201933,203083,1628971,202704,1610612762,204060,202324,203497,1626220,1628378,0021800648,3,1568,1570,0,0,1610612762
111,1610612765,203493,201933,203083,1628971,202704,1610612762,204060,202324,203497,1626220,1628378,0021800648,3,1584,1584,0,0,1610612765
112,1610612765,203493,201933,203083,1628971,202704,1610612762,204060,202324,203497,1626220,1628378,0021800648,3,1602,1602,0,2,1610612762
113,1610612765,203493,201933,203083,1628971,202704,1610612762,204060,202324,203497,1626220,1628378,0021800648,3,1603,1624,0,0,1610612765
114,1610612765,203493,201933,203083,1628971,202704,1610612762,204060,202324,203497,1626220,1628378,0021800648,3,1641,1641,0,2,1610612762
115,1610612765,203493,201933,203083,1628971,202704,1610612762,204060,202324,203497,1626220,1628378,0021800648,3,1661,1661,0,0,1610612765
116,1610612765,203493,201933,203083,1628971,202704,1610612762,204060,202324,203497,1626220,1628378,0021800648,3,1665,1676,0,2,1610612762
117,1610612765,203493,201933,203083,1628971,202704,1610612762,204060,202324,203497,1626220,1628378,0021800648,3,1676,1689,2,0,1610612765
118,1610612765,203493,201933,203083,1628971,202704,1610612762,204060,202324,203497,1626220,1628378,0021800648,3,1703,1703,0,0,1610612762
119,1610612765,203493,201933,203083,1628971,202704,1610612762,204060,202324,203497,1626220,1628378,0021800648,3,1720,1722,0,0,1610612765
120,1610612765,203493,201933,203083,1628971,202704,1610612762,204060,202324,203497,1626220,1628378,0021800648,3,1727,1731,0,0,1610612762
121,1610612765,203493,201933,203083,1628971,202704,1610612762,204060,202324,203497,1626220,1628378,0021800648,3,1740,1740,2,0,1610612765
122,1610612765,203493,201933,203083,1628971,202704,1610612762,204060,202324,203497,1626220,1628378,0021800648,3,1758,1762,0,0,1610612762
123,1610612765,203493,201933,203083,1628971,202704,1610612762,204060,202324,203497,1626220,1628378,0021800648,3,1773,1773,0,0,1610612765
124,1610612765,203493,201933,203083,1628971,202704,1610612762,204060,202324,203497,1626220,1628378,0021800648,3,1778,1778,0,0,1610612762
125,1610612765,203493,201933,203083,1628971,202704,1610612762,204060,202324,203497,1626220,1628378,0021800648,3,1778,1793,0,0,1610612765
126,1610612765,1628971,201933,202397,203083,203493,1610612762,1626220,1628378,203109,203497,2594,0021800648,3,1798,1800,0,0,1610612762
127,1610612765,1628971,201933,202397,203083,203493,1610612762,1626220,1628378,203109,203497,2594,0021800648,3,1811,1818,0,0,1610612765
128,1610612765,1628971,201933,202397,203083,203493,1610612762,1626220,1628378,203109,203497,2594,0021800648,3,1823,1823,0,2,1610612762
129,1610612765,1628971,201933,202397,203083,203493,1610612762,1626220,1628378,203109,203497,2594,0021800648,3,1855,1855,0,0,1610612765
130,1610612765,1628971,201933,202397,203083,203493,1610612762,1626220,1628378,203109,203497,2594,0021800648,3,1875,1875,0,2,1610612762
131,1610612765,1628971,201933,202397,203083,203493,1610612762,1626220,1628378,203109,203497,2594,0021800648,3,1900,1900,3,0,1610612765
132,1610612765,1628971,201933,202397,203083,203493,1610612762,1626220,1628378,203109,203497,2594,0021800648,3,1927,1928,0,0,1610612762
133,1610612765,201933,202397,203083,203493,204038,1610612762,1626220,1628378,203109,203497,2594,0021800648,3,1949,1949,0,0,1610612765
134,1610612765,201933,202397,203083,203493,204038,1610612762,1626220,1628378,203109,203497,2594,0021800648,3,1952,1952,0,2,1610612762
135,1610612765,1628379,201933,202397,203083,204038,1610612762,1626220,1628378,203109,203497,2594,0021800648,3,1967,1967,2,0,1610612765
136,1610612765,1628379,201933,202397,203083,204038,1610612762,1626220,1628378,203109,203497,2594,0021800648,3,1976,1988,0,0,1610612762
137,1610612765,1628379,201933,202397,203083,204038,1610612762,1628960,202324,203109,204060,2594,0021800648,3,2004,2007,0,0,1610612765
138,1610612765,1628379,201933,202397,203083,204038,1610612762,1628960,202324,203109,204060,2594,0021800648,3,2027,2030,0,0,1610612762
139,1610612765,1628379,201933,202397,203083,204038,1610612762,1628960,202324,203109,204060,2594,0021800648,3,2049,2049,2,0,1610612765
140,1610612765,1628379,201933,202397,203083,204038,1610612762,1628960,202324,203109,204060,2594,0021800648,3,2068,2071,0,0,1610612762
141,1610612765,1628379,201933,202397,203083,204038,1610612762,1628960,202324,203109,204060,2594,0021800648,3,2078,2080,1,0,1610612765
142,1610612765,1626169,1628379,202397,203083,204038,1610612762,1628960,202324,203109,204060,2594,0021800648,3,2101,2101,0,0,1610612762
143,1610612765,1626169,1628379,202397,203083,204038,1610612762,1628960,202324,203109,204060,2594,0021800648,3,2105,2105,0,0,1610612765
144,1610612765,1626169,1628379,202397,203083,204038,1610612762,1628960,202324,203109,204060,2594,0021800648,3,2105,2120,0,0,1610612762
145,1610612765,1626169,1628379,202397,203083,204038,1610612762,1628960,202324,203109,204060,2594,0021800648,3,2131,2134,0,0,1610612765
146,1610612765,1626169,1628379,202397,203083,204038,1610612762,1628960,202324,203109,204060,2594,0021800648,3,2149,2153,0,3,1610612762
147,1610612765,1626169,1628379,202397,203083,204038,1610612762,1628960,202324,203109,204060,2594,0021800648,3,2159,2160,0,0,1610612765
148,1610612765,1626169,1628379,202397,203083,204038,1610612762,1628960,202324,203109,204060,2594,0021800648,3,2160,2160,0,0,1610612765
149,1610612765,202704,204038,1628379,1626169,202720,1610612762,204060,202324,2594,203109,1628960,0021800648,4,2160,2172,0,0,1610612762
150,1610612765,202704,204038,1628379,1626169,202720,1610612762,204060,202324,2594,203109,1628960,0021800648,4,2186,2186,2,0,1610612765
151,1610612765,202704,204038,1628379,1626169,202720,1610612762,204060,202324,2594,203109,1628960,0021800648,4,2198,2200,0,0,1610612762
152,1610612765,202704,204038,1628379,1626169,202720,1610612762,204060,202324,2594,203109,1628960,0021800648,4,2204,2210,1,0,1610612765
153,1610612765,202704,204038,1628379,1626169,202720,1610612762,204060,202324,2594,203109,1628960,0021800648,4,2220,2222,0,0,1610612762
154,1610612765,202704,204038,1628379,1626169,202720,1610612762,204060,202324,2594,203109,1628960,0021800648,4,2225,2225,3,0,1610612765
155,1610612765,202704,204038,1628379,1626169,202720,1610612762,204060,202324,2594,203109,1628960,0021800648,4,2238,2238,0,0,1610612762
156,1610612765,202704,204038,1628379,1626169,202720,1610612762,204060,202324,2594,203109,1628960,0021800648,4,2245,2245,0,0,1610612765
157,1610612765,202704,204038,1628379,1626169,202720,1610612762,1628378,1628960,203109,203497,2594,0021800648,4,2260,2260,0,0,1610612762
158,1610612765,202704,204038,1628379,1626169,202720,1610612762,1628378,1628960,203109,203497,2594,0021800648,4,2266,2271,0,0,1610612765
159,1610612765,202704,204038,1628379,1626169,202720,1610612762,1628378,1628960,203109,203497,2594,0021800648,4,2276,2290,0,0,1610612762
160,1610612765,202704,204038,1628379,1626169,202720,1610612762,1627777,1628378,1628960,203497,2594,0021800648,4,2299,2303,0,0,1610612765
161,1610612765,202704,204038,1628379,1626169,202720,1610612762,1627777,1628378,1628960,203497,2594,0021800648,4,2311,2311,0,3,1610612762
162,1610612765,202704,204038,1628379,1626169,202720,1610612762,1627777,1628378,1628960,203497,2594,0021800648,4,2326,2326,2,0,1610612765
163,1610612765,202704,204038,1628379,1626169,202720,1610612762,1627777,1628378,1628960,203497,2594,0021800648,4,2343,2343,0,2,1610612762
164,1610612765,202704,204038,1628379,1626169,202720,1610612762,1627777,1628378,1628960,203497,2594,0021800648,4,2357,2360,0,0,1610612765
165,1610612765,202704,204038,1628379,1626169,202720,1610612762,1627777,1628378,1628960,203497,2594,0021800648,4,2367,2367,0,3,1610612762
166,1610612765,202704,204038,1628379,1626169,202720,1610612762,1627777,1628378,1628960,203497,2594,0021800648,4,2368,2387,0,0,1610612765
167,1610612765,1628379,201933,202704,202720,204038,1610612762,1627777,1628378,1628960,203497,2594,0021800648,4,2395,2395,0,2,1610612762
168,1610612765,1628379,201933,202704,202720,204038,1610612762,1627777,1628378,1628960,203497,2594,0021800648,4,2413,2415,0,0,1610612765
169,1610612765,1628379,201933,202704,202720,204038,1610612762,1627777,1628378,1628960,203497,2594,0021800648,4,2421,2425,0,0,1610612762
170,1610612765,1628379,201933,202704,202720,204038,1610612762,1627777,1628378,1628960,203497,2594,0021800648,4,2434,2434,2,0,1610612765
171,1610612765,1628379,201933,202704,202720,204038,1610612762,1627777,1628378,1628960,203497,2594,0021800648,4,2448,2450,0,0,1610612762
172,1610612765,1628379,201933,202704,202720,204038,1610612762,1627777,1628378,1628960,203497,2594,0021800648,4,2464,2469,0,0,1610612765
173,1610612765,1628379,201933,202704,202720,204038,1610612762,1627777,1628378,1628960,203497,2594,0021800648,4,2479,2479,0,3,1610612762
174,1610612765,1628379,201933,202704,202720,204038,1610612762,1627777,1628378,1628960,203497,2594,0021800648,4,2504,2506,0,0,1610612765
175,1610612765,1628379,201933,202704,202720,204038,1610612762,1627777,1628378,1628960,203497,2594,0021800648,4,2511,2511,0,0,1610612762
176,1610612765,1628379,201933,202704,202720,204038,1610612762,1627777,1628378,1628960,203497,2594,0021800648,4,2518,2521,0,0,1610612765
177,1610612765,1628379,201933,202704,202720,204038,1610612762,1627777,1628378,1628960,203497,2594,0021800648,4,2533,2548,0,0,1610612762
178,1610612765,1629017,201933,202397,203083,203493,1610612762,1626220,1628378,1628960,203109,203497,0021800648,4,2548,2575,0,0,1610612765
179,1610612765,1629017,201933,202397,203083,203493,1610612762,1626220,1628378,1628960,203109,203497,0021800648,4,2582,2592,0,0,1610612762
180,1610612765,1629017,201933,202397,203083,203493,1610612762,1626220,1628378,203109,203497,204060,0021800648,4,2608,2626,0,0,1610612765
181,1610612765,1629017,201933,202397,203083,203493,1610612762,1626220,1628378,203109,203497,204060,0021800648,4,2632,2635,0,0,1610612762
182,1610612765,1629017,201933,202397,203083,203493,1610612762,1626220,1628378,203109,203497,204060,0021800648,4,2644,2644,1,0,1610612765
183,1610612765,1629017,201933,202397,203083,203493,1610612762,1626220,1628378,203109,203497,204060,0021800648,4,2658,2661,0,0,1610612762
184,1610612765,1629017,201933,202397,203083,203493,1610612762,1626220,1628378,203109,203497,204060,0021800648,4,2675,2677,0,0,1610612765
185,1610612765,1629017,201933,202397,203083,203493,1610612762,1626220,1628378,203109,203497,204060,0021800648,4,2689,2693,0,0,1610612762
186,1610612765,1629017,201933,202397,203083,203493,1610612762,1628378,203109,203497,204060,2594,0021800648,4,2716,2716,0,0,1610612765
187,1610612765,1629017,201933,202397,203083,203493,1610612762,1628378,203109,203497,204060,2594,0021800648,4,2729,2733,0,2,1610612762
188,1610612765,1629017,201933,202397,203083,203493,1610612762,1628378,203109,203497,204060,2594,0021800648,4,2750,2754,0,0,1610612765
189,1610612765,1629017,201933,202397,203083,203493,1610612762,1628378,203109,203497,204060,2594,0021800648,4,2770,2770,0,0,1610612762
190,1610612765,1629017,201933,202397,203083,203493,1610612762,1628378,203109,203497,204060,2594,0021800648,4,2792,2792,4,0,1610612765
191,1610612765,1629017,201933,202397,203083,203493,1610612762,1628378,203109,203497,204060,2594,0021800648,4,2809,2809,0,2,1610612762
192,1610612765,1629017,201933,202397,203083,203493,1610612762,1626220,1628378,203109,203497,204060,0021800648,4,2817,2817,0,0,1610612765
193,1610612765,1629017,201933,202397,203083,203493,1610612762,1628378,203109,203497,204060,2594,0021800648,4,2832,2832,0,3,1610612762
194,1610612765,1629017,201933,202397,203083,203493,1610612762,1628378,203109,203497,204060,2594,0021800648,4,2832,2838,2,0,1610612765
195,1610612765,1629017,201933,202397,203083,203493,1610612762,1626220,1628378,202324,203109,203497,0021800648,4,2838,2856,0,3,1610612762
196,1610612765,1629017,201933,202397,203083,203493,1610612762,1628378,203109,203497,204060,2594,0021800648,4,2875,2875,3,0,1610612765
197,1610612765,1629017,201933,202397,203083,203493,1610612762,1628378,203109,203497,204060,2594,0021800648,4,2879,2879,0,2,1610612762
198,1610612765,1629017,201933,202397,203083,203493,1610612762,1628378,203109,203497,204060,2594,0021800648,4,2879,2880,0,0,1610612762
