,team1_id,team1_player1,team1_player2,team1_player3,team1_player4,team1_player5,team2_id,team2_player1,team2_player2,team2_player3,team2_player4,team2_player5,game_id,period,possession_start,possession_end,team1_points,team2_points,possession_team
0,1610612766,1629667,1628970,1630176,1628984,1626179,1610612741,1630172,1628464,202696,202066,1629632,0022000896,1,0,21,0,0,1610612741
1,1610612766,1629667,1628970,1630176,1628984,1626179,1610612741,1630172,1628464,202696,202066,1629632,0022000896,1,28,33,0,0,1610612766
2,1610612766,1629667,1628970,1630176,1628984,1626179,1610612741,1630172,1628464,202696,202066,1629632,0022000896,1,41,48,0,3,1610612741
3,1610612766,1629667,1628970,1630176,1628984,1626179,1610612741,1630172,1628464,202696,202066,1629632,0022000896,1,73,76,0,0,1610612766
4,1610612766,1629667,1628970,1630176,1628984,1626179,1610612741,1630172,1628464,202696,202066,1629632,0022000896,1,84,84,0,2,1610612741
5,1610612766,1629667,1628970,1630176,1628984,1626179,1610612741,1630172,1628464,202696,202066,1629632,0022000896,1,85,98,0,0,1610612766
6,1610612766,1629667,1628970,1630176,1628984,1626179,1610612741,1630172,1628464,202696,202066,1629632,0022000896,1,103,103,0,3,1610612741
7,1610612766,1629667,1628970,1630176,1628984,1626179,1610612741,1630172,1628464,202696,202066,1629632,0022000896,1,115,117,0,0,1610612766
8,1610612766,1629667,1628970,1630176,1628984,1626179,1610612741,1630172,1628464,202696,202066,1629632,0022000896,1,122,122,0,0,1610612741
9,1610612766,1629667,1628970,1630176,1628984,1626179,1610612741,1630172,1628464,202696,202066,1629632,0022000896,1,137,139,0,0,1610612766
10,1610612766,1629667,1628970,1630176,1628984,1626179,1610612741,1630172,1628464,202696,202066,1629632,0022000896,1,144,147,0,2,1610612741
11,1610612766,1629667,1628970,1630176,1628984,1626179,1610612741,1630172,1628464,202696,202066,1629632,0022000896,1,158,160,0,0,1610612766
12,1610612766,1629667,1628970,1630176,1628984,1626179,1610612741,1630172,1628464,202696,202066,1629632,0022000896,1,160,160,0,0,1610612741
13,1610612766,1629667,1628970,1630176,1628984,1626179,1610612741,1630172,1628464,202696,202066,1629632,0022000896,1,179,179,2,0,1610612766
14,1610612766,1629667,1628970,1630176,1628984,1626179,1610612741,1630172,1628464,202696,202066,1629632,0022000896,1,189,189,0,2,1610612741
15,1610612766,1629667,1628970,1630176,1628984,1626179,1610612741,1630172,1628464,202696,202066,1629632,0022000896,1,189,207,3,0,1610612766
16,1610612766,1629667,1628970,1630176,1628984,1626179,1610612741,1630172,1628464,202696,202066,1629632,0022000896,1,231,231,0,2,1610612741
17,1610612766,1629667,1628970,1630176,1628984,1626179,1610612741,1630172,1628464,202696,202066,1629632,0022000896,1,251,251,3,0,1610612766
18,1610612766,1629667,1628970,1630176,1628984,1626179,1610612741,1630172,1628464,202696,202066,1629632,0022000896,1,258,261,0,0,1610612741
19,1610612766,1629667,1628970,1630176,1628984,1626179,1610612741,1630172,1628464,202696,202066,1629632,0022000896,1,268,268,2,0,1610612766
20,1610612766,1629667,1628970,1630176,1628984,1626179,1610612741,1630172,1628464,202696,202066,1629632,0022000896,1,290,293,0,0,1610612741
21,1610612766,1629667,1628970,1630176,1628984,1626179,1610612741,1630172,1628464,202696,202066,1629632,0022000896,1,302,302,3,0,1610612766
22,1610612766,1629667,1628970,1630176,1628984,1626179,1610612741,1630172,1628464,202696,202066,1629632,0022000896,1,323,323,0,2,1610612741
23,1610612766,1629667,1628970,1630176,1628984,1626179,1610612741,1630172,1628464,202696,202066,1629632,0022000896,1,332,353,0,0,1610612766
24,1610612766,1626179,1628970,1628984,1629023,1629667,1610612741,1630172,1628464,202696,202066,1629632,0022000896,1,370,381,0,2,1610612741
25,1610612766,1626179,1628970,1628984,1629023,1629667,1610612741,1630172,1628464,202696,202066,1629632,0022000896,1,394,396,0,0,1610612766
26,1610612766,1626179,1628970,1628984,1629023,1629667,1610612741,1630172,1628464,202696,202066,1629632,0022000896,1,417,420,0,0,1610612741
27,1610612766,1626179,1628970,1628984,1629023,1629667,1610612741,1630172,1628464,202696,202066,1629632,0022000896,1,425,425,0,0,1610612766
28,1610612766,1626179,1628970,1628984,1629023,1629667,1610612741,1630172,1628464,202696,202066,1629632,0022000896,1,430,430,0,2,1610612741
29,1610612766,1626179,1628970,1628984,1629023,1629667,1610612741,1630172,1628464,202696,202066,1629632,0022000896,1,448,448,0,0,1610612766
30,1610612766,1626179,1628970,1628984,1629023,1629667,1610612741,1630172,1628464,202696,202066,1629632,0022000896,1,454,456,0,0,1610612741
31,1610612766,1626179,1628970,1628984,1629023,1629667,1610612741,1630172,1628464,202696,202066,1629632,0022000896,1,466,469,0,0,1610612766
32,1610612766,1626179,1628970,1628984,1629023,1629667,1610612741,1630172,1628464,202696,202066,1629632,0022000896,1,471,482,0,3,1610612741
33,1610612766,1626179,1629023,1629667,202954,203469,1610612741,1627756,1629632,1630172,201152,202696,0022000896,1,501,501,2,0,1610612766
34,1610612766,1626179,1629023,1629667,202954,203469,1610612741,1627756,1629632,1630172,201152,202696,0022000896,1,515,517,0,0,1610612741
35,1610612766,1626179,1629023,1629667,202954,203469,1610612741,1627756,1629632,1630172,201152,202696,0022000896,1,526,526,0,0,1610612766
36,1610612766,1626179,1629023,1629667,202954,203469,1610612741,1627756,1629632,1630172,201152,202696,0022000896,1,527,529,0,1,1610612741
37,1610612766,1626179,1629023,1629667,202954,203469,1610612741,1627756,1628374,1630172,201152,203107,0022000896,1,545,545,2,0,1610612766
38,1610612766,1626179,1629023,1629667,202954,203469,1610612741,1627756,1628374,1630172,201152,203107,0022000896,1,558,558,0,0,1610612741
39,1610612766,1626179,1628998,1629023,202954,203469,1610612741,1627756,1627853,1628374,201152,203107,0022000896,1,572,572,0,0,1610612766
40,1610612766,1626179,1628998,1629023,202954,203469,1610612741,1627756,1627853,1628374,201152,203107,0022000896,1,584,584,0,3,1610612741
41,1610612766,1626179,1628998,1629023,202954,203469,1610612741,1627756,1627853,1628374,201152,203107,0022000896,1,600,600,3,0,1610612766
42,1610612766,1626179,1628998,1629023,202954,203469,1610612741,1627756,1627853,1628374,201152,203107,0022000896,1,619,619,0,2,1610612741
43,1610612766,1626179,1628998,1629023,202954,203469,1610612741,1627756,1627853,1628374,201152,203107,0022000896,1,630,630,0,0,1610612766
44,1610612766,1626179,1628998,1629023,202954,203469,1610612741,1627756,1627853,1628374,201152,203107,0022000896,1,633,633,0,0,1610612741
45,1610612766,1628984,1628998,1629023,202954,203469,1610612741,1627756,1627853,1628374,201152,203107,0022000896,1,647,658,0,0,1610612766
46,1610612766,1628984,1628998,1629023,202954,203469,1610612741,1627756,1627853,1628374,201152,203107,0022000896,1,665,665,0,3,1610612741
47,1610612766,1628984,1628998,1629023,202954,203469,1610612741,1627756,1627853,1628374,201152,203107,0022000896,1,680,681,1,0,1610612766
48,1610612766,1628984,1628998,1629023,202954,203469,1610612741,1627756,1627853,1628374,201152,203107,0022000896,1,693,693,0,2,1610612741
49,1610612766,1628984,1628998,1629023,202954,203469,1610612741,1627756,1627853,1628374,201152,203107,0022000896,1,712,712,2,0,1610612766
50,1610612766,1628970,1628997,1628998,1629023,202954,1610612741,1627756,1627853,1628374,201152,203107,0022000896,1,720,720,0,0,1610612741
51,1610612766,1628984,1629023,203469,1628998,1628997,1610612741,201152,1627756,203107,1628374,1627853,0022000896,2,720,741,2,0,1610612766
52,1610612766,1628984,1629023,203469,1628998,1628997,1610612741,201152,1627756,203107,1628374,1627853,0022000896,2,762,762,0,3,1610612741
53,1610612766,1628984,1629023,203469,1628998,1628997,1610612741,201152,1627756,203107,1628374,1627853,0022000896,2,769,771,0,0,1610612766
54,1610612766,1628984,1629023,203469,1628998,1628997,1610612741,201152,1627756,203107,1628374,1627853,0022000896,2,790,792,0,0,1610612741
55,1610612766,1628984,1629023,203469,1628998,1628997,1610612741,201152,1627756,203107,1628374,1627853,0022000896,2,809,809,0,0,1610612766
56,1610612766,1628984,1629023,203469,1628998,1628997,1610612741,201152,1627756,203107,1628374,1627853,0022000896,2,812,815,0,2,1610612741
57,1610612766,1628970,1628984,1628997,1628998,203469,1610612741,201152,1627756,203107,1628374,1627853,0022000896,2,816,837,2,0,1610612766
58,1610612766,1628970,1628984,1628997,1628998,203469,1610612741,1627756,1627853,1628374,1628464,203107,0022000896,2,861,869,0,0,1610612741
59,1610612766,1628970,1628984,1628997,1628998,203469,1610612741,1627756,1627853,1628374,1628464,203107,0022000896,2,881,881,3,0,1610612766
60,1610612766,1628970,1628984,1628997,1628998,203469,1610612741,1627756,1627853,1628374,1628464,1629632,0022000896,2,907,909,0,0,1610612741
61,1610612766,1628970,1628984,1628997,1628998,203469,1610612741,1627756,1627853,1628374,1628464,1629632,0022000896,2,916,920,2,0,1610612766
62,1610612766,1626179,1628970,1628984,1628997,202687,1610612741,1627756,1628464,1629632,202066,202696,0022000896,2,939,939,0,2,1610612741
63,1610612766,1626179,1628970,1628984,1628997,202687,1610612741,1627756,1628464,1629632,202066,202696,0022000896,2,948,952,0,0,1610612766
64,1610612766,1626179,1628970,1628984,1628997,202687,1610612741,1627756,1628464,1629632,202066,202696,0022000896,2,962,991,0,0,1610612741
65,1610612766,1626179,1628970,1628984,1628997,202687,1610612741,1627756,1628464,1629632,202066,202696,0022000896,2,999,999,2,0,1610612766
66,1610612766,1626179,1628970,1628984,1628997,202687,1610612741,1627756,1628464,1629632,202066,202696,0022000896,2,1013,1016,0,0,1610612741
67,1610612766,1626179,1628970,1628984,1628997,202687,1610612741,1627756,1628464,1629632,202066,202696,0022000896,2,1020,1030,0,0,1610612766
68,1610612766,1626179,1628970,1628984,1628997,202687,1610612741,1628464,1629632,1630172,202066,202696,0022000896,2,1034,1034,0,3,1610612741
69,1610612766,1626179,1628970,1628984,1628997,202687,1610612741,1628464,1629632,1630172,202066,202696,0022000896,2,1056,1058,0,0,1610612766
70,1610612766,1626179,1628970,1628984,1628997,202687,1610612741,1628464,1629632,1630172,202066,202696,0022000896,2,1068,1068,0,0,1610612741
71,1610612766,1626179,1628970,1628997,1629667,202687,1610612741,1628464,1629632,1630172,202066,202696,0022000896,2,1092,1092,2,0,1610612766
72,1610612766,1626179,1628970,1628997,1629667,202687,1610612741,1628464,1629632,1630172,202066,202696,0022000896,2,1105,1105,0,0,1610612741
73,1610612766,1626179,1628970,1628997,1629667,202687,1610612741,1628464,1629632,1630172,202066,202696,0022000896,2,1112,1114,0,0,1610612766
74,1610612766,1626179,1628970,1628997,1629667,202687,1610612741,1628464,1629632,1630172,202066,202696,0022000896,2,1115,1115,0,0,1610612741
75,1610612766,1626179,1628970,1628997,1629667,202687,1610612741,1628464,1629632,1630172,202066,202696,0022000896,2,1117,1117,0,0,1610612766
76,1610612766,1626179,1628970,1628997,1629667,202687,1610612741,1628464,1629632,1630172,202066,202696,0022000896,2,1117,1140,0,0,1610612741
77,1610612766,1626179,1628970,1628997,1629667,202687,1610612741,1628464,1629632,1630172,202066,202696,0022000896,2,1155,1155,0,0,1610612766
78,1610612766,1626179,1628970,1628997,1629667,202687,1610612741,1628374,1629632,201152,202066,202696,0022000896,2,1174,1174,0,2,1610612741
79,1610612766,1626179,1628970,1628997,1629667,202687,1610612741,1628374,1629632,201152,202066,202696,0022000896,2,1189,1202,0,0,1610612766
80,1610612766,1626179,1628970,1628997,1629667,202687,1610612741,1628374,1629632,201152,202066,202696,0022000896,2,1215,1218,0,3,1610612741
81,1610612766,1626179,1628970,1628997,1629667,202687,1610612741,1628374,1629632,201152,202066,202696,0022000896,2,1235,1235,3,0,1610612766
82,1610612766,1626179,1628970,1628997,1629667,202687,1610612741,1628374,1629632,201152,202066,202696,0022000896,2,1255,1255,0,0,1610612741
83,1610612766,1626179,1628970,1628984,1629667,202687,1610612741,1628374,1629632,201152,202066,202696,0022000896,2,1262,1265,0,0,1610612766
84,1610612766,1626179,1628970,1628984,1629667,202687,1610612741,1628374,1629632,201152,202066,202696,0022000896,2,1287,1287,0,0,1610612741
85,1610612766,1626179,1628970,1628984,1629667,202687,1610612741,1628374,1629632,201152,202066,202696,0022000896,2,1302,1302,2,0,1610612766
86,1610612766,1626179,1628970,1628984,1629667,202687,1610612741,1628374,1629632,201152,202066,202696,0022000896,2,1312,1320,0,3,1610612741
87,1610612766,1626179,1628970,1628984,1629667,202687,1610612741,1628374,1629632,201152,202066,202696,0022000896,2,1334,1349,3,0,1610612766
88,1610612766,1626179,1628970,1628984,1629667,202687,1610612741,1628374,1629632,201152,202066,202696,0022000896,2,1359,1374,0,2,1610612741
89,1610612766,1626179,1628970,1628984,1629667,202687,1610612741,1628374,1629632,201152,202066,202696,0022000896,2,1385,1387,0,0,1610612766
90,1610612766,1626179,1628970,1628984,1629667,202687,1610612741,1628374,1629632,201152,202066,202696,0022000896,2,1401,1401,0,2,1610612741
91,1610612766,1626179,1628970,1628984,1629667,202687,1610612741,1628374,1629632,201152,202066,202696,0022000896,2,1409,1412,0,0,1610612766
92,1610612766,1626179,1628970,1628984,1629667,202687,1610612741,1628374,1629632,201152,202066,202696,0022000896,2,1426,1426,0,2,1610612741
93,1610612766,1626179,1628970,1628984,1629667,202687,1610612741,1628374,1629632,201152,202066,202696,0022000896,2,1438,1438,0,0,1610612741
94,1610612766,1628970,1628984,1626179,1629023,1628998,1610612741,1630172,1628464,202696,202066,1629632,0022000896,3,1440,1462,0,0,1610612766
95,1610612766,1628970,1628984,1626179,1629023,1628998,1610612741,1630172,1628464,202696,202066,1629632,0022000896,3,1476,1479,0,0,1610612741
96,1610612766,1628970,1628984,1626179,1629023,1628998,1610612741,1630172,1628464,202696,202066,1629632,0022000896,3,1481,1481,2,0,1610612766
97,1610612766,1628970,1628984,1626179,1629023,1628998,1610612741,1630172,1628464,202696,202066,1629632,0022000896,3,1500,1500,0,3,1610612741
98,1610612766,1628970,1628984,1626179,1629023,1628998,1610612741,1630172,1628464,202696,202066,1629632,0022000896,3,1510,1510,2,0,1610612766
99,1610612766,1628970,1628984,1626179,1629023,1628998,1610612741,1630172,1628464,202696,202066,1629632,0022000896,3,1536,1536,0,2,1610612741
100,1610612766,1628970,1628984,1626179,1629023,1628998,1610612741,1630172,1628464,202696,202066,1629632,0022000896,3,1547,1547,2,0,1610612766
101,1610612766,1628970,1628984,1626179,1629023,1628998,1610612741,1630172,1628464,202696,202066,1629632,0022000896,3,1563,1565,0,0,1610612741
102,1610612766,1628970,1628984,1626179,1629023,1628998,1610612741,1630172,1628464,202696,202066,1629632,0022000896,3,1578,1578,3,0,1610612766
103,1610612766,1628970,1628984,1626179,1629023,1628998,1610612741,1630172,1628464,202696,202066,1629632,0022000896,3,1594,1596,0,0,1610612741
104,1610612766,1628970,1628984,1626179,1629023,1628998,1610612741,1630172,1628464,202696,202066,1629632,0022000896,3,1600,1604,0,0,1610612766
105,1610612766,1628970,1628984,1626179,1629023,1628998,1610612741,1630172,1628464,202696,202066,1629632,0022000896,3,1610,1610,0,2,1610612741
106,1610612766,1628970,1628984,1626179,1629023,1628998,1610612741,1630172,1628464,202696,202066,1629632,0022000896,3,1622,1622,3,0,1610612766
107,1610612766,1628970,1628984,1626179,1629023,1628998,1610612741,1630172,1628464,202696,202066,1629632,0022000896,3,1637,1641,0,0,1610612741
108,1610612766,1628970,1628984,1626179,1629023,1628998,1610612741,1630172,1628464,202696,202066,1629632,0022000896,3,1649,1651,0,0,1610612766
109,1610612766,1628970,1628984,1626179,1629023,1628998,1610612741,1630172,1628464,202696,202066,1629632,0022000896,3,1654,1654,0,0,1610612741
110,1610612766,1628970,1628984,1626179,1629023,1628998,1610612741,1630172,1628464,202696,202066,1629632,0022000896,3,1666,1668,0,0,1610612766
111,1610612766,1628970,1628984,1626179,1629023,1628998,1610612741,1630172,1628464,202696,202066,1629632,0022000896,3,1668,1683,0,3,1610612741
112,1610612766,1628970,1628984,1626179,1629023,1628998,1610612741,1630172,1628464,202696,202066,1629632,0022000896,3,1697,1699,0,0,1610612766
113,1610612766,1628970,1628984,1626179,1629023,1628998,1610612741,1630172,1628464,202696,202066,1629632,0022000896,3,1710,1710,0,3,1610612741
114,1610612766,1628970,1628984,1626179,1629023,1628998,1610612741,1630172,1628464,202696,202066,1629632,0022000896,3,1722,1725,0,0,1610612766
115,1610612766,1628970,1628984,1626179,1629023,1628998,1610612741,1630172,1628464,202696,202066,1629632,0022000896,3,1734,1738,0,0,1610612741
116,1610612766,1628970,1628984,1626179,1629023,1628998,1610612741,1630172,1628464,202696,202066,1629632,0022000896,3,1743,1745,0,0,1610612766
117,1610612766,1628970,1628984,1626179,1629023,1628998,1610612741,1630172,1628464,202696,202066,1629632,0022000896,3,1759,1759,0,3,1610612741
118,1610612766,1626179,1628970,1628984,1628998,203469,1610612741,1630172,1628464,202696,202066,1629632,0022000896,3,1780,1783,0,0,1610612766
119,1610612766,1626179,1628970,1628984,1628998,203469,1610612741,1630172,1628464,202696,202066,1629632,0022000896,3,1796,1796,0,2,1610612741
120,1610612766,1626179,1628970,1628984,1628998,203469,1610612741,1630172,1628464,202696,202066,1629632,0022000896,3,1800,1814,0,0,1610612766
121,1610612766,1626179,1628970,1628984,1628998,203469,1610612741,1628374,1628464,1629632,202066,202696,0022000896,3,1827,1831,0,0,1610612741
122,1610612766,1626179,1628970,1628984,1628998,203469,1610612741,1628374,1628464,1629632,202066,202696,0022000896,3,1834,1834,0,0,1610612766
123,1610612766,1628970,1628984,1628998,202954,203469,1610612741,1628374,1628464,1629632,202066,202696,0022000896,3,1854,1854,0,0,1610612741
124,1610612766,1628970,1628984,1628998,202954,203469,1610612741,1628374,1628464,1629632,202066,202696,0022000896,3,1863,1865,0,0,1610612766
125,1610612766,1628970,1628984,1628998,202954,203469,1610612741,1628374,1628464,1629632,202066,202696,0022000896,3,1874,1874,0,0,1610612741
126,1610612766,1628970,1628984,1628998,202954,203469,1610612741,1628374,1628464,1629632,202066,202696,0022000896,3,1889,1890,0,0,1610612766
127,1610612766,1628970,1628984,1628998,202954,203469,1610612741,1628374,1628464,1629632,202066,202696,0022000896,3,1904,1904,0,2,1610612741
128,1610612766,1626179,1628970,1628997,202954,203469,1610612741,1628374,1628464,1629632,202696,203107,0022000896,3,1931,1934,0,0,1610612766
129,1610612766,1626179,1628970,1628997,202954,203469,1610612741,1628374,1628464,1629632,202696,203107,0022000896,3,1940,1960,0,0,1610612741
130,1610612766,1626179,1628997,1629667,202954,203469,1610612741,1628374,1629632,201152,202696,203107,0022000896,3,1967,1967,2,0,1610612766
131,1610612766,1626179,1628997,1629667,202954,203469,1610612741,1628374,1629632,201152,202696,203107,0022000896,3,1986,1986,0,2,1610612741
132,1610612766,1626179,1628997,1629667,202954,203469,1610612741,1628374,1629632,201152,202696,203107,0022000896,3,2006,2008,0,0,1610612766
133,1610612766,1626179,1628997,1629667,202954,203469,1610612741,1628374,1629632,201152,202696,203107,0022000896,3,2018,2018,0,3,1610612741
134,1610612766,1626179,1628997,1629667,202954,203469,1610612741,1628374,1629632,201152,202696,203107,0022000896,3,2036,2036,0,0,1610612766
135,1610612766,1626179,1628997,1629667,202954,203469,1610612741,1627756,1628374,201152,202696,203107,0022000896,3,2052,2056,0,0,1610612741
136,1610612766,1626179,1628997,1629667,202954,203469,1610612741,1627756,1628374,201152,202696,203107,0022000896,3,2068,2068,2,0,1610612766
137,1610612766,1626179,1628997,1629667,202954,203469,1610612741,1627756,1628374,201152,202696,203107,0022000896,3,2077,2077,0,0,1610612741
138,1610612766,1626179,1628997,1629667,202954,203469,1610612741,1627756,1628374,201152,202696,203107,0022000896,3,2086,2086,2,0,1610612766
139,1610612766,1626179,1628997,1629667,202954,203469,1610612741,1627756,1628374,201152,202696,203107,0022000896,3,2110,2112,0,3,1610612741
140,1610612766,1626179,1628997,1629667,202954,203469,1610612741,1627756,1627853,1628374,201152,203107,0022000896,3,2124,2124,3,0,1610612766
141,1610612766,1626179,1628997,1629667,202954,203469,1610612741,1627756,1627853,1628374,201152,203107,0022000896,3,2145,2149,0,2,1610612741
142,1610612766,1626179,1628997,1629667,202954,203469,1610612741,1627756,1627853,1628374,201152,203107,0022000896,3,2159,2159,2,0,1610612766
143,1610612766,1629667,1628984,202954,1628997,202687,1610612741,201152,1627756,203107,1628374,1627853,0022000896,4,2160,2180,0,2,1610612741
144,1610612766,1629667,1628984,202954,1628997,202687,1610612741,201152,1627756,203107,1628374,1627853,0022000896,4,2202,2202,2,0,1610612766
145,1610612766,1629667,1628984,202954,1628997,202687,1610612741,201152,1627756,203107,1628374,1627853,0022000896,4,2209,2212,0,3,1610612741
146,1610612766,1629667,1628984,202954,1628997,202687,1610612741,201152,1627756,203107,1628374,1627853,0022000896,4,2225,2225,0,0,1610612766
147,1610612766,1629667,1628984,202954,1628997,202687,1610612741,201152,1627756,203107,1628374,1627853,0022000896,4,2241,2243,0,0,1610612741
148,1610612766,1629667,1628984,202954,1628997,202687,1610612741,201152,1627756,203107,1628374,1627853,0022000896,4,2259,2263,0,0,1610612766
149,1610612766,1629667,1628984,202954,1628997,202687,1610612741,201152,1627756,203107,1628374,1627853,0022000896,4,2268,2271,0,0,1610612741
150,1610612766,1629667,1628984,202954,1628997,202687,1610612741,201152,1627756,203107,1628374,1627853,0022000896,4,2273,2273,2,0,1610612766
151,1610612766,1629667,1628984,202954,1628997,202687,1610612741,201152,1627756,203107,1628374,1627853,0022000896,4,2278,2286,0,0,1610612741
152,1610612766,1629667,1628984,202954,1628997,202687,1610612741,201152,1627756,203107,1628374,1627853,0022000896,4,2293,2295,0,0,1610612766
153,1610612766,1629667,1628984,202954,1628997,202687,1610612741,201152,1627756,203107,1628374,1627853,0022000896,4,2301,2301,0,2,1610612741
154,1610612766,1629667,1628984,202954,1628997,202687,1610612741,201152,1627756,203107,1628374,1627853,0022000896,4,2312,2326,0,0,1610612766
155,1610612766,1628997,1629667,1630176,1630203,202954,1610612741,201152,1627756,203107,1628374,1627853,0022000896,4,2326,2326,0,1,1610612741
156,1610612766,1628997,1629667,1630176,1630203,202954,1610612741,201152,1627756,203107,1628374,1627853,0022000896,4,2338,2338,2,0,1610612766
157,1610612766,1628997,1629667,1630176,1630203,202954,1610612741,201152,1627756,203107,1628374,1627853,0022000896,4,2353,2365,0,0,1610612741
158,1610612766,1628997,1629667,1630176,1630203,202954,1610612741,201152,1627756,203107,1628374,1627853,0022000896,4,2378,2388,0,0,1610612766
159,1610612766,1628997,1629667,1630176,1630203,202954,1610612741,201152,1627756,203107,1628374,1627853,0022000896,4,2393,2393,0,3,1610612741
160,1610612766,1628997,1629667,1630176,1630203,202954,1610612741,201152,1627756,203107,1628374,1627853,0022000896,4,2400,2420,2,0,1610612766
161,1610612766,1628997,1628998,1629667,1630176,1630203,1610612741,201152,1627756,203107,1628374,1627853,0022000896,4,2445,2445,0,0,1610612741
162,1610612766,1628997,1628998,1629667,1630176,1630203,1610612741,201152,1627756,203107,1628374,1627853,0022000896,4,2457,2457,0,0,1610612766
163,1610612766,1628997,1628998,1629667,1630176,1630203,1610612741,1627853,1628374,1630172,201152,203107,0022000896,4,2468,2468,0,2,1610612741
164,1610612766,1628997,1628998,1629667,1630176,1630203,1610612741,1627853,1628374,1630172,201152,203107,0022000896,4,2479,2479,1,0,1610612766
165,1610612766,1628997,1628998,1629667,1630176,1630203,1610612741,1627853,1628374,1630172,201152,203107,0022000896,4,2501,2501,0,2,1610612741
166,1610612766,1628997,1628998,1629667,1630176,1630203,1610612741,1627853,1628374,1630172,201152,203107,0022000896,4,2514,2514,2,0,1610612766
167,1610612766,1628997,1628998,1629667,1630176,1630203,1610612741,1627853,1628374,1628464,1630172,203107,0022000896,4,2531,2531,0,0,1610612741
168,1610612766,1628997,1628998,1629667,1630176,1630203,1610612741,1627853,1628374,1628464,1630172,203107,0022000896,4,2543,2546,0,0,1610612766
169,1610612766,1628997,1628998,1629667,1630176,1630203,1610612741,1627853,1628374,1628464,1630172,203107,0022000896,4,2566,2571,0,0,1610612741
170,1610612766,1628997,1628998,1629667,1630176,1630203,1610612741,1627853,1628374,1628464,1630172,203107,0022000896,4,2576,2578,0,0,1610612766
171,1610612766,1628997,1628998,1629667,1630176,1630203,1610612741,1627853,1628374,1628464,1630172,203107,0022000896,4,2586,2607,0,0,1610612741
172,1610612766,1628997,1628998,1629667,1630176,1630203,1610612741,1627853,1628374,1628464,1630172,203107,0022000896,4,2624,2624,3,0,1610612766
173,1610612766,1628997,1628998,1629667,1630176,1630203,1610612741,1627853,1628374,1628464,1630172,203107,0022000896,4,2654,2654,0,0,1610612741
174,1610612766,1628997,1628998,1629667,1630176,1630203,1610612741,1627853,1628374,1628464,1630172,203107,0022000896,4,2660,2660,2,0,1610612766
175,1610612766,1628997,1628998,1629667,1630176,1630203,1610612741,1627853,1628374,1628464,1630172,203107,0022000896,4,2674,2674,0,0,1610612741
176,1610612766,1628997,1629667,1630176,1630203,1630208,1610612741,1627853,1628374,1628464,1630172,203107,0022000896,4,2687,2687,0,0,1610612766
177,1610612766,1628997,1629667,1630176,1630203,1630208,1610612741,1627853,1628374,1628464,1630172,203107,0022000896,4,2690,2690,0,2,1610612741
178,1610612766,1628997,1629667,1630176,1630203,1630208,1610612741,1627853,1628374,1628464,1630172,203107,0022000896,4,2709,2709,2,0,1610612766
179,1610612766,1628997,1629667,1630176,1630203,1630208,1610612741,1627853,1628374,1628464,1630172,203107,0022000896,4,2717,2719,0,1,1610612741
180,1610612766,1628997,1629667,1630176,1630203,1630208,1610612741,1626245,1627853,1629750,1630172,203107,0022000896,4,2729,2729,2,0,1610612766
181,1610612766,1628997,1629667,1630176,1630203,1630208,1610612741,1626245,1627853,1629750,1630172,203107,0022000896,4,2746,2758,0,0,1610612741
182,1610612766,1628997,1629667,1630176,1630203,1630208,1610612741,1626245,1627853,1629750,1630172,203107,0022000896,4,2771,2774,0,0,1610612766
183,1610612766,1628997,1629667,1630176,1630203,1630208,1610612741,1626245,1627853,1629750,1630172,203107,0022000896,4,2786,2790,0,0,1610612741
184,1610612766,1628997,1629667,1630176,1630203,1630208,1610612741,1626245,1627853,1629750,1630172,203107,0022000896,4,2796,2796,2,0,1610612766
185,1610612766,1628997,1629667,1630176,1630203,1630208,1610612741,1626245,1627853,1629750,1630172,203107,0022000896,4,2796,2818,0,0,1610612741
186,1610612766,1628997,1629667,1630176,1630203,1630208,1610612741,1626245,1627853,1629653,1629690,1629750,0022000896,4,2822,2825,0,0,1610612766
187,1610612766,1628997,1629667,1630176,1630203,1630208,1610612741,1626245,1627853,1629653,1629690,1629750,0022000896,4,2830,2830,0,0,1610612741
188,1610612766,1628997,1629667,1630176,1630203,1630208,1610612741,1626245,1627853,1629653,1629690,1629750,0022000896,4,2839,2840,0,0,1610612766
189,1610612766,1628997,1629667,1630176,1630203,1630208,1610612741,1626245,1627853,1629653,1629690,1629750,0022000896,4,2854,2854,0,2,1610612741
190,1610612766,1628997,1629667,1630176,1630203,1630208,1610612741,1626245,1627853,1629653,1629690,1629750,0022000896,4,2864,2864,2,0,1610612766
