,TEAM_ID_1,TEAM_1_PLAYERS,TEAM_ID_2,TEAM_2_PLAYERS,PERIOD
0,1610612742,[1627827 1628467  204001 1626196 1629029],1610612757,[1627884  203496  202683  203468  203081],1
1,1610612742,[1628467 1629029 1628973  203504 1626246],1610612757,[ 203496  202683  203468    2546 1629018],2
2,1610612742,[1627827 1628467  204001 1626196 1629029],1610612757,[1627884  203496  202683  203468  203081],3
3,1610612742,[1626196  203501 1628973  203939 1628411],1610612757,[1629018 1629642 1629604 1628385 1629014],4
