,t1_points_scored,stint_end,t2_pm,t1_players,t2_id,t1_id,t2_players,t2_points_scored,t1_pm,stint_start,margin_per_100,num_poss
0,15,300,-2,"[1629629, 1628381, 1627745, 1628989, 1629027]",1610612742,1610612737,"[1627827, 1628467, 1626161, 203501, 1628973]",13,2,0,9.523809523809524,21.0
1,17,414,2,"[1629629, 1628381, 1627745, 1628989, 1629027]",1610612742,1610612737,"[1627827, 1628467, 1626161, 203501, 1628973]",19,-2,301,-6.896551724137931,29.0
2,17,429,2,"[1629629, 1628381, 1627745, 1628989, 1629027]",1610612742,1610612737,"[1626161, 1627827, 1628467, 1628973, 203552]",19,-2,415,-6.666666666666667,30.0
3,17,521,6,"[1628381, 1628989, 1629027, 1629629, 1713]",1610612742,1610612737,"[1626153, 1626161, 1627827, 1629151, 203552]",23,-6,430,-16.216216216216218,37.0
4,21,609,4,"[1628381, 1628989, 1629027, 1713, 201952]",1610612742,1610612737,"[1626153, 1626161, 1627827, 1629151, 203552]",25,-4,522,-9.30232558139535,43.0
5,26,719,7,"[1628381, 1628989, 1629164, 1713, 201952]",1610612742,1610612737,"[1626153, 1628467, 1629151, 203501, 203552]",33,-7,610,-14.000000000000002,50.0
6,27,867,14,"[1626203, 1627745, 1629164, 1713, 201952]",1610612742,1610612737,"[1626153, 1628467, 1629151, 203501, 203552]",41,-14,720,-22.58064516129032,62.0
7,33,1024,11,"[1627745, 1628989, 1629027, 1629164, 1626203]",1610612742,1610612737,"[1626161, 203501, 203552, 1626153, 1628382]",44,-11,868,-15.492957746478872,71.0
8,39,1163,16,"[1627745, 1628989, 1629027, 1629164, 1626203]",1610612742,1610612737,"[1626153, 1628382, 1628467, 1628973, 203501]",55,-16,1025,-19.51219512195122,82.0
9,41,1223,14,"[1627745, 1628381, 1628989, 1629027, 1629164]",1610612742,1610612737,"[1626153, 1627827, 1628382, 1628467, 1628973]",55,-14,1164,-16.470588235294116,85.0
10,47,1369,10,"[1628381, 1628989, 1629027, 1713, 201952]",1610612742,1610612737,"[1626153, 1626161, 1627827, 1628382, 1628973]",57,-10,1224,-10.526315789473683,95.0
11,49,1433,10,"[1628381, 1628989, 1629027, 1713, 201952]",1610612742,1610612737,"[1626161, 1627827, 1628382, 1628973, 203501]",59,-10,1370,-10.1010101010101,99.0
12,49,1439,13,"[1628381, 1628989, 1629027, 1713, 201952]",1610612742,1610612737,"[1626153, 1627827, 1628382, 1628467, 203501]",62,-13,1434,-13.0,100.0
13,54,1631,16,"[1628381, 1628989, 1629027, 1713, 201952]",1610612742,1610612737,"[1627827, 1628382, 1628467, 203501, 203552]",70,-16,1440,-14.15929203539823,113.0
14,61,1775,20,"[1628381, 1627745, 1628989, 1629027, 201952]",1610612742,1610612737,"[1627827, 1628467, 1626161, 203501, 1628973]",81,-20,1632,-16.260162601626014,123.0
15,64,1838,23,"[1628381, 1628989, 1629027, 1713, 201952]",1610612742,1610612737,"[1627827, 1628467, 1628973, 1629151, 203501]",87,-23,1776,-18.11023622047244,127.0
16,66,1896,24,"[1628381, 1628989, 1629164, 1713, 201952]",1610612742,1610612737,"[1626153, 1627827, 1628467, 1629151, 203552]",90,-24,1839,-18.3206106870229,131.0
17,68,2082,29,"[1627745, 1628989, 1629164, 1713, 201952]",1610612742,1610612737,"[1626153, 1626161, 1627827, 1629151, 203552]",97,-29,1897,-20.56737588652482,141.0
18,72,2158,25,"[1626203, 1627745, 1628989, 1713, 201952]",1610612742,1610612737,"[1626153, 1626161, 1628382, 1629151, 203552]",97,-25,2083,-16.89189189189189,148.0
19,76,2229,21,"[1626203, 1627745, 1628381, 1629164, 1629718]",1610612742,1610612737,"[1626153, 1626161, 1628382, 1629151, 203552]",97,-21,2159,-13.725490196078432,153.0
20,80,2321,23,"[1628381, 1713, 201952, 1629164, 1626203]",1610612742,1610612737,"[1628467, 203552, 1629151, 1626153, 1628382]",103,-23,2230,-14.374999999999998,160.0
21,87,2440,19,"[1628381, 1713, 201952, 1629164, 1626203]",1610612742,1610612737,"[1628382, 1628467, 1628973, 1629151, 203552]",106,-19,2322,-11.242603550295858,169.0
22,87,2499,22,"[1626203, 1627745, 1628381, 1628989, 1629164]",1610612742,1610612737,"[1628382, 1628467, 1628973, 1629151, 203552]",109,-22,2441,-12.790697674418606,172.0
23,89,2557,20,"[1626203, 1627745, 1628989, 1713, 201952]",1610612742,1610612737,"[1626153, 1627827, 1628467, 1628973, 1629151]",109,-20,2500,-11.363636363636363,176.0
24,91,2573,18,"[1627745, 1628989, 1629164, 1713, 201952]",1610612742,1610612737,"[1626153, 1626161, 1627827, 1629151, 203501]",109,-18,2558,-10.16949152542373,177.0
25,96,2657,16,"[1628381, 1628989, 1629164, 1713, 201952]",1610612742,1610612737,"[1626153, 1626161, 1627827, 1628382, 203501]",112,-16,2574,-8.743169398907105,183.0
26,96,2758,22,"[1626203, 1628381, 1628989, 1629164, 201952]",1610612742,1610612737,"[1626153, 1626161, 1627827, 1628382, 203501]",118,-22,2658,-11.578947368421053,190.0
27,96,2791,22,"[1628381, 1628989, 1629164, 1713, 201952]",1610612742,1610612737,"[1626153, 1627827, 1628382, 1628467, 203501]",118,-22,2759,-11.398963730569948,193.0
28,98,2859,25,"[1626203, 1627745, 1629718, 1713, 201952]",1610612742,1610612737,"[1626153, 1628382, 1628499, 1628973, 1629151]",123,-25,2792,-12.626262626262626,198.0
29,100,9999999,23,"[1626203, 1627745, 1629164, 1629718, 201952]",1610612742,1610612737,"[1626153, 1628382, 1628499, 1628973, 1629151]",123,-23,2860,-11.557788944723619,199.0
