,t1_players,t2_players,t2_points_scored,stint_end,t2_pm,t1_points_scored,stint_start,t1_id,t2_id,t1_pm,margin_per_100,num_poss
0,"[1629611, 202694, 1627826, 1628379, 202704]","[202711, 1626220, 203497, 1628378, 201144]",11,252,0,11,0,1610612746,1610612762,0,0.0,16.0
1,"[1629611, 202694, 1627826, 1628379, 202704]","[202711, 1626220, 203497, 1628378, 201144]",16,315,3,13,253,1610612746,1610612762,-3,-15.0,20.0
2,"[1627826, 1628379, 1629611, 202339, 202694]","[1626220, 1628378, 202711, 203497, 204060]",20,439,0,20,316,1610612746,1610612762,0,0.0,28.0
3,"[1627826, 1628379, 1629611, 202339, 202694]","[1626220, 1628378, 202355, 202711, 204060]",22,456,2,20,440,1610612746,1610612762,-2,-6.896551724137931,29.0
4,"[1628379, 1628392, 1629611, 202339, 202694]","[1626220, 1628378, 202355, 202711, 204060]",22,489,-3,25,457,1610612746,1610612762,3,9.375,32.0
5,"[1628379, 1628392, 1629611, 202339, 202694]","[1628378, 200752, 202355, 203903, 204060]",24,521,-1,25,490,1610612746,1610612762,1,3.0303030303030303,33.0
6,"[1628379, 1628392, 1629611, 202339, 202694]","[200752, 201144, 202355, 203903, 204060]",24,542,-2,26,522,1610612746,1610612762,2,5.88235294117647,34.0
7,"[1626159, 1628379, 1628392, 1629611, 202339]","[200752, 201144, 202355, 203903, 204060]",31,666,0,31,543,1610612746,1610612762,0,0.0,42.0
8,"[1626159, 1628379, 1628392, 1630527, 202339]","[200752, 201144, 202355, 203903, 204060]",33,701,2,31,667,1610612746,1610612762,-2,-4.545454545454546,44.0
9,"[1626159, 1628392, 1630527, 202339, 202704]","[200752, 201144, 203497, 203903, 204060]",38,866,-1,39,702,1610612746,1610612762,1,1.8518518518518516,54.0
10,"[202704, 202339, 1628392, 1626159, 1630527]","[203497, 201144, 204060, 200752, 203903]",38,899,-1,39,867,1610612746,1610612762,1,1.7543859649122806,57.0
11,"[202704, 202339, 1628392, 1626159, 1630527]","[1630235, 200752, 203497, 203903, 204060]",38,925,-4,42,900,1610612746,1610612762,4,6.779661016949152,59.0
12,"[1628392, 1630527, 202339, 202694, 202704]","[1630235, 200752, 203497, 203903, 204060]",38,951,-7,45,926,1610612746,1610612762,7,11.29032258064516,62.0
13,"[1627826, 1630527, 202339, 202694, 202704]","[1628378, 200752, 203497, 203903, 204060]",40,978,-7,47,952,1610612746,1610612762,7,10.9375,64.0
14,"[1627826, 1629611, 202339, 202694, 202704]","[1628378, 200752, 203497, 203903, 204060]",42,1001,-5,47,979,1610612746,1610612762,5,7.6923076923076925,65.0
15,"[1627826, 1628379, 1629611, 202694, 202704]","[1628378, 200752, 203497, 203903, 204060]",43,1055,-4,47,1002,1610612746,1610612762,4,5.714285714285714,70.0
16,"[1628379, 1628392, 1629611, 202694, 202704]","[1628378, 200752, 203497, 203903, 204060]",50,1147,1,49,1056,1610612746,1610612762,-1,-1.2987012987012987,77.0
17,"[1628379, 1628392, 1629611, 202694, 202704]","[1626220, 1628378, 202355, 202711, 203903]",56,1249,5,51,1148,1610612746,1610612762,-5,-6.024096385542169,83.0
18,"[1628379, 1628392, 1629611, 202339, 202694]","[1626220, 1628378, 202355, 202711, 203903]",63,1393,5,58,1250,1610612746,1610612762,-5,-5.4945054945054945,91.0
19,"[1628379, 1628392, 1629611, 202339, 202694]","[1626220, 1628378, 201144, 202711, 203497]",65,1435,7,58,1394,1610612746,1610612762,-7,-7.368421052631578,95.0
20,"[1628379, 1629611, 202339, 202694, 202704]","[1626220, 1628378, 201144, 202711, 203497]",74,1713,9,65,1436,1610612746,1610612762,-9,-7.964601769911504,113.0
21,"[1629611, 202694, 1627826, 1628379, 202704]","[202711, 1626220, 203497, 1628378, 201144]",78,1854,8,70,1714,1610612746,1610612762,-8,-6.6115702479338845,121.0
22,"[1627826, 1628379, 1629611, 202339, 202694]","[1626220, 1628378, 202355, 202711, 204060]",82,1903,12,70,1855,1610612746,1610612762,-12,-9.67741935483871,124.0
23,"[1628379, 1628392, 1629611, 202339, 202694]","[1626220, 1628378, 202355, 202711, 204060]",84,1926,14,70,1904,1610612746,1610612762,-14,-11.11111111111111,126.0
24,"[1626159, 1628379, 1628392, 202339, 202694]","[1626220, 1628378, 202355, 202711, 204060]",89,2059,13,76,1927,1610612746,1610612762,-13,-9.701492537313433,134.0
25,"[1626159, 1628379, 1628392, 202339, 202694]","[1628378, 200752, 202355, 203903, 204060]",91,2083,12,79,2060,1610612746,1610612762,-12,-8.823529411764707,136.0
26,"[1626159, 1628392, 202339, 202694, 202704]","[200752, 201144, 203497, 203903, 204060]",93,2153,12,81,2084,1610612746,1610612762,-12,-8.391608391608392,143.0
27,"[1626159, 1628392, 1630527, 202339, 202704]","[200752, 201144, 203497, 203903, 204060]",93,2158,12,81,2154,1610612746,1610612762,-12,-8.333333333333332,144.0
28,"[1628379, 1630527, 202339, 202694, 202704]","[200752, 201144, 203497, 203903, 204060]",98,2333,10,88,2159,1610612746,1610612762,-10,-6.41025641025641,156.0
29,"[202704, 202339, 1628392, 1626159, 1630527]","[203497, 201144, 204060, 200752, 203903]",100,2383,7,93,2334,1610612746,1610612762,-7,-4.40251572327044,159.0
30,"[202704, 202339, 1628392, 1626159, 1630527]","[200752, 201144, 202355, 203903, 204060]",103,2456,8,95,2384,1610612746,1610612762,-8,-4.9079754601226995,163.0
31,"[1628392, 1629611, 202339, 202694, 202704]","[1628378, 200752, 202355, 203903, 204060]",106,2475,11,95,2457,1610612746,1610612762,-11,-6.707317073170732,164.0
32,"[1627826, 1629611, 202339, 202694, 202704]","[1628378, 200752, 203497, 203903, 204060]",111,2565,14,97,2476,1610612746,1610612762,-14,-8.13953488372093,172.0
33,"[1627826, 1628379, 1629611, 202339, 202694]","[1626220, 1628378, 202711, 203497, 203903]",114,2613,17,97,2566,1610612746,1610612762,-17,-9.714285714285714,175.0
34,"[1627826, 1628379, 1629611, 202694, 202704]","[1626220, 1628378, 202711, 203497, 203903]",117,2650,20,97,2614,1610612746,1610612762,-20,-11.1731843575419,179.0
35,"[1626159, 1629599, 1630206, 1630527, 1630553]","[1626220, 1628378, 202711, 203497, 203903]",119,2742,21,98,2651,1610612746,1610612762,-21,-11.29032258064516,186.0
36,"[1626159, 1629599, 1630206, 1630527, 1630553]","[1626220, 1629672, 1630235, 202355, 203903]",124,2873,21,103,2743,1610612746,1610612762,-21,-10.714285714285714,196.0
37,"[1626159, 1629599, 1630206, 1630527, 1630553]","[1629671, 1629672, 1630235, 202355, 203903]",124,9999999,21,103,2874,1610612746,1610612762,-21,-10.65989847715736,197.0
