,t1_points_scored,stint_end,t2_pm,t1_players,t2_id,t1_id,t2_players,t2_points_scored,t1_pm,stint_start,margin_per_100,num_poss
0,11,288,9,"[203114, 203507, 201572, 202083, 202339]",1610612742,1610612749,"[203501, 1627827, 204001, 203552, 1629029]",20,-9,0,-45.0,20.0
1,13,304,7,"[203114, 203507, 201572, 202083, 202339]",1610612742,1610612749,"[203501, 1627827, 204001, 203552, 1629029]",20,-7,289,-33.33333333333333,21.0
2,13,340,9,"[101107, 201588, 202083, 203114, 203507]",1610612742,1610612749,"[1627827, 203501, 203504, 203552, 204001]",22,-9,305,-39.130434782608695,23.0
3,17,495,9,"[101107, 1628978, 201572, 201588, 203114]",1610612742,1610612749,"[1627827, 203501, 203504, 203552, 204001]",26,-9,341,-26.47058823529412,34.0
4,23,622,10,"[101107, 1628978, 201572, 201588, 203114]",1610612742,1610612749,"[1626153, 1627827, 203501, 203504, 204001]",33,-10,496,-22.727272727272727,44.0
5,30,714,5,"[101107, 1626192, 1628978, 201588, 203507]",1610612742,1610612749,"[1626153, 1628382, 1628467, 1629029, 203504]",35,-5,623,-9.803921568627452,51.0
6,37,828,3,"[101107, 1626192, 201588, 202339, 203507]",1610612742,1610612749,"[1626153, 1628382, 1628467, 1629029, 203504]",40,-3,715,-5.084745762711865,59.0
7,37,866,6,"[203114, 201572, 202083, 202339, 1626192]",1610612742,1610612749,"[1629029, 203504, 1626153, 1628467, 1628382]",43,-6,829,-9.67741935483871,62.0
8,37,871,9,"[201572, 202083, 202339, 203114, 2594]",1610612742,1610612749,"[1629029, 203504, 1626153, 1628467, 1628382]",46,-9,867,-14.285714285714285,63.0
9,39,946,9,"[201572, 202083, 203114, 203507, 2594]",1610612742,1610612749,"[1629029, 203504, 1626153, 1628467, 1628382]",48,-9,872,-13.23529411764706,68.0
10,42,1008,8,"[201572, 202083, 203114, 203507, 2594]",1610612742,1610612749,"[1626153, 1627827, 1628382, 1629029, 203552]",50,-8,947,-10.95890410958904,73.0
11,45,1047,5,"[201572, 201588, 202083, 203114, 203507]",1610612742,1610612749,"[1626153, 1627827, 203501, 203552, 204001]",50,-5,1009,-6.666666666666667,75.0
12,47,1083,3,"[1628978, 201572, 201588, 203114, 203507]",1610612742,1610612749,"[1626153, 1627827, 203501, 203552, 204001]",50,-3,1048,-3.896103896103896,77.0
13,50,1139,2,"[101107, 1628978, 201588, 203114, 203507]",1610612742,1610612749,"[1627827, 203501, 203504, 203552, 204001]",52,-2,1084,-2.4691358024691357,81.0
14,50,1183,4,"[101107, 1626192, 1628978, 201588, 203507]",1610612742,1610612749,"[1627827, 1628467, 1629029, 203501, 204001]",54,-4,1140,-4.705882352941177,85.0
15,52,1220,2,"[101107, 1626192, 1628978, 201588, 203507]",1610612742,1610612749,"[1627827, 1629029, 203501, 203552, 204001]",54,-2,1184,-2.272727272727273,88.0
16,58,1264,-4,"[1626192, 1628978, 201572, 201588, 203507]",1610612742,1610612749,"[1627827, 1629029, 203501, 203552, 204001]",54,4,1221,4.3478260869565215,92.0
17,68,1438,-6,"[101107, 1626192, 1628978, 201572, 201588]",1610612742,1610612749,"[1627827, 1629029, 203501, 203552, 204001]",62,6,1265,5.825242718446602,103.0
18,76,1548,-9,"[101107, 201572, 202083, 202339, 203114]",1610612742,1610612749,"[1627827, 1629029, 203501, 203552, 204001]",67,9,1439,8.181818181818182,110.0
19,78,1650,-7,"[203114, 203507, 201572, 202083, 202339]",1610612742,1610612749,"[203501, 1627827, 204001, 203552, 1629029]",71,7,1549,6.086956521739131,115.0
20,78,1695,-4,"[101107, 202083, 202339, 203114, 203507]",1610612742,1610612749,"[203501, 1627827, 204001, 203552, 1629029]",74,4,1651,3.389830508474576,118.0
21,78,1717,-4,"[101107, 202083, 202339, 203114, 203507]",1610612742,1610612749,"[1627827, 1628382, 1629029, 203552, 204001]",74,4,1696,3.361344537815126,119.0
22,81,1767,-5,"[101107, 201572, 202083, 202339, 203114]",1610612742,1610612749,"[1627827, 1628382, 1629029, 203552, 204001]",76,5,1718,4.032258064516129,124.0
23,86,1851,-6,"[101107, 1626192, 201572, 201588, 202339]",1610612742,1610612749,"[1627827, 1628382, 1629029, 203552, 204001]",80,6,1768,4.580152671755725,131.0
24,87,1875,-5,"[101107, 1626192, 201572, 201588, 203114]",1610612742,1610612749,"[1627827, 1628382, 1629029, 203552, 204001]",82,5,1852,3.7593984962406015,133.0
25,90,2073,-3,"[101107, 101141, 1626192, 1628978, 201588]",1610612742,1610612749,"[1626153, 1628382, 1628467, 203504, 204001]",87,3,1876,2.0408163265306123,147.0
26,91,2130,-2,"[101141, 1626192, 1628978, 201572, 201588]",1610612742,1610612749,"[1626153, 1628382, 203077, 203504, 204001]",89,2,2074,1.3157894736842104,152.0
27,91,2148,0,"[1628978, 201572, 201588, 202339, 203507]",1610612742,1610612749,"[1627827, 1628382, 1629029, 203504, 204001]",91,0,2131,0.0,154.0
28,91,2159,2,"[1628978, 201588, 202083, 202339, 203507]",1610612742,1610612749,"[1627827, 1628382, 1629029, 203077, 203504]",93,-2,2149,-1.282051282051282,156.0
29,93,2324,8,"[201588, 202083, 202339, 203507, 2594]",1610612742,1610612749,"[1627827, 1628382, 1629029, 203077, 203504]",101,-8,2160,-4.733727810650888,169.0
30,96,2371,5,"[203114, 203507, 202083, 202339, 101107]",1610612742,1610612749,"[203501, 1627827, 1629029, 203504, 1628467]",101,-5,2325,-2.9069767441860463,172.0
31,100,2464,4,"[1626192, 201572, 202083, 202339, 203114]",1610612742,1610612749,"[203501, 1627827, 1629029, 203504, 1628467]",104,-4,2372,-2.2346368715083798,179.0
32,103,2491,4,"[1626192, 1628978, 201572, 202339, 203114]",1610612742,1610612749,"[1627827, 1628467, 203501, 203504, 204001]",107,-4,2465,-2.209944751381215,181.0
33,110,2558,-1,"[1626192, 1628978, 201572, 201588, 203114]",1610612742,1610612749,"[1626153, 1627827, 1628467, 203501, 204001]",109,1,2492,0.5376344086021506,186.0
34,110,2634,2,"[1626192, 1628978, 201572, 201588, 203114]",1610612742,1610612749,"[1626153, 1627827, 1629029, 203501, 204001]",112,-2,2559,-1.0471204188481675,191.0
35,115,2681,-3,"[1626192, 1628978, 201588, 202083, 203507]",1610612742,1610612749,"[1626153, 1627827, 1629029, 203501, 204001]",112,3,2635,1.5463917525773196,194.0
36,119,2799,-4,"[1626192, 201588, 202083, 202339, 203507]",1610612742,1610612749,"[1626153, 1627827, 1629029, 203501, 204001]",115,4,2682,1.9801980198019802,202.0
37,119,2820,-2,"[201572, 201588, 202083, 202339, 203507]",1610612742,1610612749,"[1627827, 1628467, 1629029, 203501, 204001]",117,2,2800,0.9803921568627451,204.0
38,119,2876,0,"[201572, 201588, 202339, 203114, 203507]",1610612742,1610612749,"[1627827, 1628467, 1629029, 203501, 204001]",119,0,2821,0.0,205.0
39,119,2969,3,"[201572, 201588, 202083, 203114, 203507]",1610612742,1610612749,"[1627827, 1628467, 1629029, 203501, 204001]",122,-3,2877,-1.4218009478672986,211.0
40,126,3096,4,"[203114, 203507, 201572, 202083, 201588]",1610612742,1610612749,"[203501, 1627827, 204001, 1629029, 1628467]",130,-4,2970,-1.8181818181818181,220.0
41,130,3168,3,"[1626192, 1628978, 202339, 203114, 203507]",1610612742,1610612749,"[203501, 1627827, 204001, 1629029, 1628467]",133,-3,3097,-1.3333333333333335,225.0
42,132,3175,3,"[1626192, 1628978, 202339, 203114, 203507]",1610612742,1610612749,"[1627827, 1628382, 1628467, 1629029, 203501]",135,-3,3169,-1.3215859030837005,227.0
43,132,3179,4,"[201572, 201588, 203114, 203507, 2594]",1610612742,1610612749,"[1627827, 1628382, 1628467, 1629029, 203501]",136,-4,3176,-1.7543859649122806,228.0
44,132,9999999,4,"[201572, 201588, 202339, 203114, 2594]",1610612742,1610612749,"[1627827, 1628382, 1628467, 1629029, 203501]",136,-4,3180,-1.7467248908296942,229.0
