,team1_id,team1_player1,team1_player2,team1_player3,team1_player4,team1_player5,team2_id,team2_player1,team2_player2,team2_player3,team2_player4,team2_player5,game_id,period,possession_start,possession_end,team1_points,team2_points,possession_team
0,1610612759,201942,1627751,1626168,1627854,1627749,1610612741,1627739,201152,1628436,203897,203107,0021900695,1,0,13,0,0,1610612741
1,1610612759,201942,1627751,1626168,1627854,1627749,1610612741,1627739,201152,1628436,203897,203107,0021900695,1,35,35,0,0,1610612759
2,1610612759,201942,1627751,1626168,1627854,1627749,1610612741,1627739,201152,1628436,203897,203107,0021900695,1,57,57,0,2,1610612741
3,1610612759,201942,1627751,1626168,1627854,1627749,1610612741,1627739,201152,1628436,203897,203107,0021900695,1,70,84,0,0,1610612759
4,1610612759,201942,1627751,1626168,1627854,1627749,1610612741,1627739,201152,1628436,203897,203107,0021900695,1,96,100,0,0,1610612741
5,1610612759,201942,1627751,1626168,1627854,1627749,1610612741,1627739,201152,1628436,203897,203107,0021900695,1,117,121,0,0,1610612759
6,1610612759,201942,1627751,1626168,1627854,1627749,1610612741,1627739,201152,1628436,203897,203107,0021900695,1,134,134,0,2,1610612741
7,1610612759,201942,1627751,1626168,1627854,1627749,1610612741,1627739,201152,1628436,203897,203107,0021900695,1,156,156,2,0,1610612759
8,1610612759,201942,1627751,1626168,1627854,1627749,1610612741,1627739,201152,1628436,203897,203107,0021900695,1,171,173,0,0,1610612741
9,1610612759,201942,1627751,1626168,1627854,1627749,1610612741,1627739,201152,1628436,203897,203107,0021900695,1,193,197,0,0,1610612759
10,1610612759,201942,1627751,1626168,1627854,1627749,1610612741,1627739,201152,1628436,203897,203107,0021900695,1,208,210,0,0,1610612741
11,1610612759,201942,1627751,1626168,1627854,1627749,1610612741,1627739,201152,1628436,203897,203107,0021900695,1,216,220,0,0,1610612759
12,1610612759,201942,1627751,1626168,1627854,1627749,1610612741,1627739,201152,1628436,203897,203107,0021900695,1,220,220,0,0,1610612741
13,1610612759,201942,1627751,1626168,1627854,1627749,1610612741,1627739,201152,1628436,203897,203107,0021900695,1,238,238,3,0,1610612759
14,1610612759,201942,1627751,1626168,1627854,1627749,1610612741,1627739,201152,1628436,203897,203107,0021900695,1,253,256,0,0,1610612741
15,1610612759,201942,1627751,1626168,1627854,1627749,1610612741,1627739,201152,1628436,203897,203107,0021900695,1,262,262,2,0,1610612759
16,1610612759,201942,1627751,1626168,1627854,1627749,1610612741,1627739,201152,1628436,203897,203107,0021900695,1,271,275,0,0,1610612741
17,1610612759,201942,1627751,1626168,1627854,1627749,1610612741,1627739,201152,1628436,203897,203107,0021900695,1,281,281,0,0,1610612759
18,1610612759,201942,1627751,1626168,1627854,1627749,1610612741,1627739,201152,1628436,203897,203107,0021900695,1,286,286,0,2,1610612741
19,1610612759,201942,1627751,1626168,1627854,1627749,1610612741,1627739,201152,1628436,203897,203107,0021900695,1,298,298,2,0,1610612759
20,1610612759,201942,1627751,1626168,1627854,1627749,1610612741,1627739,201152,1628436,203897,203107,0021900695,1,318,321,0,1,1610612741
21,1610612759,201942,1627751,1626168,1627854,1627749,1610612741,1627739,201152,1628436,203897,203107,0021900695,1,340,343,0,0,1610612759
22,1610612759,201942,1627751,1626168,1627854,1627749,1610612741,1627739,201152,1628436,203897,203107,0021900695,1,348,353,0,2,1610612741
23,1610612759,201942,1627751,1626168,1627854,1627749,1610612741,1627739,201152,1628436,203897,203107,0021900695,1,366,366,2,0,1610612759
24,1610612759,201942,1627751,1626168,1627854,1627749,1610612741,1627739,201152,1628436,203897,203107,0021900695,1,377,379,0,0,1610612741
25,1610612759,201942,1627751,1626168,1627854,1627749,1610612741,1627739,201152,1628436,203897,203107,0021900695,1,383,386,0,0,1610612759
26,1610612759,201942,1627751,1626168,1627854,1627749,1610612741,1627739,201152,1628436,203897,203107,0021900695,1,397,397,0,3,1610612741
27,1610612759,201942,1627751,1626168,1627854,1627749,1610612741,1627739,201152,1628436,203897,203107,0021900695,1,414,414,0,0,1610612759
28,1610612759,201942,1627751,1626168,1627854,1627749,1610612741,1627739,201152,1628436,203897,203107,0021900695,1,417,417,0,0,1610612741
29,1610612759,201942,1627751,1626168,1627854,1627749,1610612741,1627739,201152,1628436,203897,203107,0021900695,1,417,432,3,0,1610612759
30,1610612759,1627751,1628401,200752,201942,201988,1610612741,1626245,1627739,1629632,201152,203897,0021900695,1,447,450,0,0,1610612741
31,1610612759,1627751,1628401,200752,201942,201988,1610612741,1626245,1627739,1629632,201152,203897,0021900695,1,460,460,2,0,1610612759
32,1610612759,1627751,1628401,200752,201942,201988,1610612741,1626245,1627739,1629632,201152,203897,0021900695,1,481,484,0,0,1610612741
33,1610612759,1627751,1628401,200752,201942,201988,1610612741,1626245,1627739,1629632,201152,203897,0021900695,1,485,485,0,0,1610612759
34,1610612759,1627751,1628401,200752,201942,201988,1610612741,1626245,1627739,1629632,201152,203897,0021900695,1,500,503,0,0,1610612741
35,1610612759,1627751,1628401,200752,201942,201988,1610612741,1626245,1627739,1629632,201152,203897,0021900695,1,507,507,2,0,1610612759
36,1610612759,1627751,1628401,200752,201942,201988,1610612741,1626245,1627739,1629632,201152,203897,0021900695,1,517,528,0,0,1610612741
37,1610612759,1627751,1628401,1629022,200752,201988,1610612741,1626245,1627739,1629632,201152,203897,0021900695,1,538,543,2,0,1610612759
38,1610612759,1627751,1628401,1629022,200752,201988,1610612741,1626245,1627739,1629632,201152,203897,0021900695,1,563,568,0,3,1610612741
39,1610612759,1627751,1628401,1629022,200752,201988,1610612741,1626245,1627739,1629632,201152,203897,0021900695,1,583,583,3,0,1610612759
40,1610612759,1627751,1628401,1629022,200752,201988,1610612741,1626245,1627739,1629632,201152,203897,0021900695,1,590,590,0,2,1610612741
41,1610612759,1627751,1628401,1629022,200752,201988,1610612741,1626245,1627739,1629632,201152,203897,0021900695,1,607,607,2,0,1610612759
42,1610612759,1627751,1628401,1629022,200752,201988,1610612741,1626245,1627739,1629632,201152,203897,0021900695,1,629,633,0,0,1610612741
43,1610612759,1627751,1628401,1629022,200752,201988,1610612741,1626245,1627739,1629632,201152,203897,0021900695,1,635,641,3,0,1610612759
44,1610612759,1627751,1628401,1629022,200752,201988,1610612741,1626245,1627756,1627853,1628990,1629632,0021900695,1,656,656,0,2,1610612741
45,1610612759,1628401,1629002,1629022,200752,201988,1610612741,1626245,1627756,1627853,1628990,1629632,0021900695,1,675,675,0,0,1610612759
46,1610612759,1628401,1629002,1629022,200752,201988,1610612741,1626245,1627756,1627853,1628990,1629632,0021900695,1,698,698,0,2,1610612741
47,1610612759,1628401,1629002,1629022,200752,201988,1610612741,1626245,1627756,1627853,1628990,1629632,0021900695,1,710,719,0,0,1610612741
48,1610612759,200752,1628401,201988,1629022,1629002,1610612741,1628436,1629632,1627853,1627756,1628990,0021900695,2,720,739,0,0,1610612759
49,1610612759,200752,1628401,201988,1629022,1629002,1610612741,1628436,1629632,1627853,1627756,1628990,0021900695,2,756,756,0,0,1610612741
50,1610612759,200752,1628401,201988,1629022,1629002,1610612741,1628436,1629632,1627853,1627756,1628990,0021900695,2,771,771,0,0,1610612759
51,1610612759,200752,1628401,201988,1629022,1629002,1610612741,1628436,1629632,1627853,1627756,1628990,0021900695,2,775,775,0,2,1610612741
52,1610612759,200752,1628401,201988,1629022,1629002,1610612741,1628436,1629632,1627853,1627756,1628990,0021900695,2,801,803,0,0,1610612759
53,1610612759,200752,1628401,201988,1629022,1629002,1610612741,1628436,1629632,1627853,1627756,1628990,0021900695,2,806,808,0,0,1610612741
54,1610612759,200752,1628401,201988,1629022,1629002,1610612741,1628436,1629632,1627853,1627756,1628990,0021900695,2,819,826,0,0,1610612759
55,1610612759,200752,1628401,201988,1629022,1629002,1610612741,1628436,1629632,1627853,1627756,1628990,0021900695,2,832,838,0,0,1610612741
56,1610612759,200752,1628401,201988,1629022,1629002,1610612741,1628436,1629632,1627853,1627756,1628990,0021900695,2,844,845,0,0,1610612759
57,1610612759,200752,1628401,201988,1629022,1629002,1610612741,1628436,1629632,1627853,1627756,1628990,0021900695,2,849,864,0,0,1610612741
58,1610612759,1626168,1627749,1627854,1629002,1629022,1610612741,1628436,1629632,1627853,1627756,1628990,0021900695,2,874,874,2,0,1610612759
59,1610612759,1626168,1627749,1627854,1629002,1629022,1610612741,1628436,1629632,1627853,1627756,1628990,0021900695,2,890,890,0,3,1610612741
60,1610612759,1626168,1627749,1627854,1629002,1629022,1610612741,1628436,1629632,1627853,1627756,1628990,0021900695,2,903,906,0,0,1610612759
61,1610612759,1626168,1627749,1627854,1629002,1629022,1610612741,1628436,1629632,1627853,1627756,1628990,0021900695,2,912,915,0,0,1610612741
62,1610612759,1626168,1627749,1627854,1629002,1629022,1610612741,1628436,1629632,1627853,1627756,1628990,0021900695,2,919,919,2,0,1610612759
63,1610612759,1626168,1627749,1627854,1629002,1629022,1610612741,1628436,1629632,1627853,1627756,1628990,0021900695,2,932,936,0,2,1610612741
64,1610612759,1626168,1627749,1627854,1629002,201942,1610612741,1627739,1627756,1628436,1628990,1629632,0021900695,2,949,952,0,0,1610612759
65,1610612759,1626168,1627749,1627854,1629002,201942,1610612741,1627739,1627756,1628436,1628990,1629632,0021900695,2,968,979,0,3,1610612741
66,1610612759,1626168,1627749,1627854,1629002,201942,1610612741,1627739,1627756,1628436,1628990,1629632,0021900695,2,1009,1009,2,0,1610612759
67,1610612759,1626168,1627749,1627854,1629002,201942,1610612741,1627739,1627756,1628436,1628990,1629632,0021900695,2,1021,1021,0,2,1610612741
68,1610612759,1626168,1627749,1627854,1629002,201942,1610612741,1627739,1627756,1628436,1628990,1629632,0021900695,2,1041,1044,0,0,1610612759
69,1610612759,1626168,1627749,1627854,1629002,201942,1610612741,1627739,1627756,1628436,1628990,1629632,0021900695,2,1057,1057,0,3,1610612741
70,1610612759,1626168,1627749,1627854,1629002,201942,1610612741,1627739,1627756,1628436,1628990,1629632,0021900695,2,1072,1072,2,0,1610612759
71,1610612759,1626168,1627749,1627854,1629002,201942,1610612741,1627739,1627756,1628436,1628990,1629632,0021900695,2,1081,1088,0,2,1610612741
72,1610612759,1626168,1627749,1627854,1629002,201942,1610612741,1627739,1627756,1628436,1628990,1629632,0021900695,2,1099,1099,1,0,1610612759
73,1610612759,1626168,1627751,1628401,201942,201988,1610612741,1627739,1628436,201152,203107,203897,0021900695,2,1123,1123,0,0,1610612741
74,1610612759,1626168,1627751,1628401,201942,201988,1610612741,1627739,1628436,201152,203107,203897,0021900695,2,1133,1133,3,0,1610612759
75,1610612759,1626168,1627751,1628401,201942,201988,1610612741,1627739,1628436,201152,203107,203897,0021900695,2,1147,1151,0,0,1610612741
76,1610612759,1626168,1627751,1628401,201942,201988,1610612741,1627739,1628436,201152,203107,203897,0021900695,2,1152,1152,3,0,1610612759
77,1610612759,1626168,1627751,1628401,201942,201988,1610612741,1627739,1628436,201152,203107,203897,0021900695,2,1153,1176,0,2,1610612741
78,1610612759,1626168,1627751,1628401,201942,201988,1610612741,1627739,1628436,201152,203107,203897,0021900695,2,1193,1196,0,0,1610612759
79,1610612759,1626168,1627751,1628401,201942,201988,1610612741,1627739,1628436,201152,203107,203897,0021900695,2,1206,1209,0,0,1610612741
80,1610612759,1626168,1627751,1628401,201942,201988,1610612741,1627739,1628436,201152,203107,203897,0021900695,2,1217,1220,0,0,1610612759
81,1610612759,1626168,1627751,1628401,201942,201988,1610612741,1627739,1628436,201152,203107,203897,0021900695,2,1228,1228,0,2,1610612741
82,1610612759,1626168,1627751,1628401,201942,201988,1610612741,1627739,1628436,201152,203107,203897,0021900695,2,1239,1242,1,0,1610612759
83,1610612759,1626168,1627751,1628401,201942,201988,1610612741,1626245,1627739,201152,203107,203897,0021900695,2,1256,1265,0,0,1610612741
84,1610612759,1626168,1627751,1628401,201942,201988,1610612741,1626245,1627739,201152,203107,203897,0021900695,2,1274,1295,0,0,1610612759
85,1610612759,1626168,1627751,1628401,201942,201988,1610612741,1626245,1627739,201152,203107,203897,0021900695,2,1300,1302,0,0,1610612741
86,1610612759,1626168,1627751,1628401,201942,201988,1610612741,1626245,1627739,201152,203107,203897,0021900695,2,1307,1324,2,0,1610612759
87,1610612759,1627751,1628401,1629022,200752,201988,1610612741,1626245,1629632,201152,203107,203897,0021900695,2,1346,1347,0,0,1610612741
88,1610612759,1627751,1628401,1629022,200752,201988,1610612741,1626245,1629632,201152,203107,203897,0021900695,2,1353,1354,0,0,1610612759
89,1610612759,1627751,1628401,1629022,200752,201988,1610612741,1626245,1629632,201152,203107,203897,0021900695,2,1368,1368,0,2,1610612741
90,1610612759,1627751,1628401,1629022,200752,201988,1610612741,1626245,1629632,201152,203107,203897,0021900695,2,1391,1391,0,0,1610612759
91,1610612759,1627751,1628401,1629022,200752,201988,1610612741,1626245,1629632,201152,203107,203897,0021900695,2,1396,1399,0,2,1610612741
92,1610612759,1627751,1628401,1629022,200752,201988,1610612741,1626245,1629632,201152,203107,203897,0021900695,2,1407,1407,2,0,1610612759
93,1610612759,1627751,1628401,1629022,200752,201988,1610612741,1626245,1629632,201152,203107,203897,0021900695,2,1425,1435,0,2,1610612741
94,1610612759,1627751,1628401,1629022,200752,201988,1610612741,1627739,1629632,201152,203107,203897,0021900695,2,1438,1438,0,0,1610612759
95,1610612759,1627751,1628401,1629022,200752,201988,1610612741,1627739,1629632,201152,203107,203897,0021900695,2,1440,1440,0,2,1610612741
96,1610612759,1627751,1628401,1629022,200752,201988,1610612741,1627739,1629632,201152,203107,203897,0021900695,2,1440,1440,0,0,309
97,1610612759,201942,1627751,1626168,1627854,1627749,1610612741,1627739,201152,1628436,203897,203107,0021900695,3,1440,1460,0,0,1610612759
98,1610612759,201942,1627751,1626168,1627854,1627749,1610612741,1627739,201152,1628436,203897,203107,0021900695,3,1473,1475,0,0,1610612741
99,1610612759,201942,1627751,1626168,1627854,1627749,1610612741,1627739,201152,1628436,203897,203107,0021900695,3,1482,1482,2,0,1610612759
100,1610612759,201942,1627751,1626168,1627854,1627749,1610612741,1627739,201152,1628436,203897,203107,0021900695,3,1499,1500,0,0,1610612741
101,1610612759,201942,1627751,1626168,1627854,1627749,1610612741,1627739,201152,1628436,203897,203107,0021900695,3,1509,1509,2,0,1610612759
102,1610612759,201942,1627751,1626168,1627854,1627749,1610612741,1627739,201152,1628436,203897,203107,0021900695,3,1527,1527,0,2,1610612741
103,1610612759,201942,1627751,1626168,1627854,1627749,1610612741,1627739,201152,1628436,203897,203107,0021900695,3,1537,1537,2,0,1610612759
104,1610612759,201942,1627751,1626168,1627854,1627749,1610612741,1627739,201152,1628436,203897,203107,0021900695,3,1547,1550,0,0,1610612741
105,1610612759,201942,1627751,1626168,1627854,1627749,1610612741,1627739,201152,1628436,203897,203107,0021900695,3,1559,1559,0,0,1610612759
106,1610612759,201942,1627751,1626168,1627854,1627749,1610612741,1627739,201152,1628436,203897,203107,0021900695,3,1563,1563,0,2,1610612741
107,1610612759,201942,1627751,1626168,1627854,1627749,1610612741,1627739,201152,1628436,203897,203107,0021900695,3,1585,1587,0,0,1610612759
108,1610612759,201942,1627751,1626168,1627854,1627749,1610612741,1627739,201152,1628436,203897,203107,0021900695,3,1593,1593,0,2,1610612741
109,1610612759,201942,1627751,1626168,1627854,1627749,1610612741,1627739,201152,1628436,203897,203107,0021900695,3,1611,1616,1,0,1610612759
110,1610612759,1626168,1627751,1627854,1628401,201942,1610612741,1627739,201152,1628436,203897,203107,0021900695,3,1629,1629,0,0,1610612741
111,1610612759,1626168,1627749,1627751,1627854,201942,1610612741,1627739,201152,1628436,203897,203107,0021900695,3,1637,1637,0,0,1610612759
112,1610612759,1626168,1627749,1627751,1627854,201942,1610612741,1627739,201152,1628436,203897,203107,0021900695,3,1639,1639,0,0,1610612741
113,1610612759,1626168,1627749,1627751,1627854,201942,1610612741,1627739,201152,1628436,203897,203107,0021900695,3,1650,1655,0,0,1610612759
114,1610612759,1626168,1627749,1627751,1627854,201942,1610612741,1627739,201152,1628436,203897,203107,0021900695,3,1663,1666,0,0,1610612741
115,1610612759,1626168,1627749,1627751,1627854,201942,1610612741,1627739,201152,1628436,203897,203107,0021900695,3,1675,1676,0,0,1610612759
116,1610612759,1626168,1627749,1627751,1627854,201942,1610612741,1627739,201152,1628436,203897,203107,0021900695,3,1691,1700,0,2,1610612741
117,1610612759,1626168,1627749,1627751,1627854,201942,1610612741,1627739,201152,1628436,203897,203107,0021900695,3,1721,1721,3,0,1610612759
118,1610612759,1626168,1627749,1627751,1627854,201942,1610612741,1626245,1627739,201152,203107,203897,0021900695,3,1738,1738,0,3,1610612741
119,1610612759,1626168,1627749,1627751,1627854,201942,1610612741,1626245,1627739,201152,203107,203897,0021900695,3,1754,1754,2,0,1610612759
120,1610612759,1626168,1627749,1627751,1627854,201942,1610612741,1626245,1627739,201152,203107,203897,0021900695,3,1763,1766,0,0,1610612741
121,1610612759,1626168,1627749,1627751,1627854,201942,1610612741,1626245,1627739,201152,203107,203897,0021900695,3,1774,1776,0,0,1610612759
122,1610612759,1626168,1627749,1627751,1627854,201942,1610612741,1626245,1627739,201152,203107,203897,0021900695,3,1780,1784,0,0,1610612741
123,1610612759,1626168,1627749,1627751,1627854,201942,1610612741,1626245,1627739,201152,203107,203897,0021900695,3,1787,1787,2,0,1610612759
124,1610612759,1626168,1627749,1627751,1627854,201942,1610612741,1626245,1627739,201152,203107,203897,0021900695,3,1800,1806,0,2,1610612741
125,1610612759,1626168,1627749,1629002,201942,201988,1610612741,1626245,1627739,1628990,1629632,203897,0021900695,3,1819,1819,2,0,1610612759
126,1610612759,1626168,1627749,1629002,201942,201988,1610612741,1626245,1627739,1628990,1629632,203897,0021900695,3,1839,1846,0,0,1610612741
127,1610612759,1626168,1627749,1629002,201942,201988,1610612741,1626245,1627739,1628990,1629632,203897,0021900695,3,1859,1868,2,0,1610612759
128,1610612759,1626168,1627749,1629002,201942,201988,1610612741,1626245,1627739,1628990,1629632,203897,0021900695,3,1887,1889,0,0,1610612741
129,1610612759,1626168,1627749,1629002,201942,201988,1610612741,1626245,1627739,1628990,1629632,203897,0021900695,3,1898,1898,3,0,1610612759
130,1610612759,1627749,1629002,200752,201942,201988,1610612741,1626245,1627739,1628990,1629632,203897,0021900695,3,1914,1917,0,0,1610612741
131,1610612759,1627749,1629002,200752,201942,201988,1610612741,1626245,1627739,1628990,1629632,203897,0021900695,3,1937,1939,0,0,1610612759
132,1610612759,1627749,1629002,200752,201942,201988,1610612741,1626245,1627739,1628990,1629632,203897,0021900695,3,1947,1950,0,0,1610612741
133,1610612759,1627749,1629002,200752,201942,201988,1610612741,1626245,1627739,1628990,1629632,203897,0021900695,3,1967,1967,2,0,1610612759
134,1610612759,1629002,1629022,200752,201942,201988,1610612741,1626245,1627739,1627756,1628990,1629632,0021900695,3,1980,1980,0,2,1610612741
135,1610612759,1629002,1629022,200752,201942,201988,1610612741,1626245,1627739,1627756,1628990,1629632,0021900695,3,1980,2001,2,0,1610612759
136,1610612759,1629002,1629022,200752,201942,201988,1610612741,1626245,1627739,1627756,1628990,1629632,0021900695,3,2015,2015,0,2,1610612741
137,1610612759,1629002,1629022,200752,201942,201988,1610612741,1626245,1627739,1627756,1628990,1629632,0021900695,3,2027,2027,2,0,1610612759
138,1610612759,1629002,1629022,200752,201942,201988,1610612741,1626245,1627739,1627756,1628990,1629632,0021900695,3,2042,2042,0,2,1610612741
139,1610612759,1629002,1629022,200752,201942,201988,1610612741,1626245,1627739,1627756,1628990,1629632,0021900695,3,2043,2058,3,0,1610612759
140,1610612759,1627751,1629022,200752,201942,201988,1610612741,1626245,1627756,1628990,1629632,203107,0021900695,3,2074,2076,0,0,1610612741
141,1610612759,1627751,1629022,200752,201942,201988,1610612741,1626245,1627756,1628990,1629632,203107,0021900695,3,2085,2091,2,0,1610612759
142,1610612759,1627751,1629022,200752,201942,201988,1610612741,1626245,1627756,1628990,1629632,203107,0021900695,3,2100,2100,0,3,1610612741
143,1610612759,1627751,1629022,200752,201942,201988,1610612741,1626245,1627756,1628990,1629632,203107,0021900695,3,2109,2109,3,0,1610612759
144,1610612759,1627751,1629022,200752,201942,201988,1610612741,1626245,1627756,1628990,1629632,203107,0021900695,3,2134,2134,0,3,1610612741
145,1610612759,1627751,1629022,200752,201942,201988,1610612741,1626245,1627756,1628990,1629632,203107,0021900695,3,2155,2155,2,0,1610612759
146,1610612759,1627751,1629022,200752,201942,201988,1610612741,1626245,1627756,1628990,1629632,203107,0021900695,3,2160,2160,0,0,1610612759
147,1610612759,1627751,200752,1628401,201988,1629022,1610612741,1628436,203107,1629632,1627756,1628990,0021900695,4,2160,2174,0,3,1610612741
148,1610612759,1627751,200752,1628401,201988,1629022,1610612741,1628436,203107,1629632,1627756,1628990,0021900695,4,2190,2190,3,0,1610612759
149,1610612759,1627751,200752,1628401,201988,1629022,1610612741,1628436,203107,1629632,1627756,1628990,0021900695,4,2208,2209,0,0,1610612741
150,1610612759,1627751,200752,1628401,201988,1629022,1610612741,1628436,203107,1629632,1627756,1628990,0021900695,4,2220,2222,0,0,1610612759
151,1610612759,1627751,200752,1628401,201988,1629022,1610612741,1628436,203107,1629632,1627756,1628990,0021900695,4,2235,2235,0,1,1610612741
152,1610612759,1627751,1627854,1628401,200752,201988,1610612741,1628436,203107,1629632,1627756,1628990,0021900695,4,2251,2251,2,0,1610612759
153,1610612759,1627751,1627854,1628401,200752,201988,1610612741,1628436,203107,1629632,1627756,1628990,0021900695,4,2261,2261,0,3,1610612741
154,1610612759,1627751,1627854,1628401,200752,201988,1610612741,1628436,203107,1629632,1627756,1628990,0021900695,4,2274,2275,0,0,1610612759
155,1610612759,1627751,1627854,1628401,200752,201988,1610612741,1628436,203107,1629632,1627756,1628990,0021900695,4,2276,2276,0,0,1610612741
156,1610612759,1627751,1627854,1628401,200752,201988,1610612741,1628436,203107,1629632,1627756,1628990,0021900695,4,2277,2277,0,0,1610612759
157,1610612759,1627751,1627854,1628401,200752,201988,1610612741,1627756,1628436,1628990,203107,203897,0021900695,4,2288,2290,0,0,1610612741
158,1610612759,1627751,1627854,1628401,200752,201988,1610612741,1627756,1628436,1628990,203107,203897,0021900695,4,2298,2300,0,0,1610612759
159,1610612759,1627751,1627854,1628401,200752,201988,1610612741,1627756,1628436,1628990,203107,203897,0021900695,4,2311,2311,0,2,1610612741
160,1610612759,1627749,1627751,1627854,1629022,200752,1610612741,1627756,1628436,1628990,203107,203897,0021900695,4,2334,2337,0,0,1610612759
161,1610612759,1627749,1627751,1627854,1629022,200752,1610612741,1627756,1628436,1628990,203107,203897,0021900695,4,2341,2353,0,3,1610612741
162,1610612759,1627749,1627751,1627854,1629022,200752,1610612741,1627756,1628436,1628990,203107,203897,0021900695,4,2355,2376,1,0,1610612759
163,1610612759,1627749,1627751,1627854,200752,201942,1610612741,1627739,1627756,1628436,1628990,203897,0021900695,4,2391,2393,0,0,1610612741
164,1610612759,1627749,1627751,1627854,200752,201942,1610612741,1627739,1627756,1628436,1628990,203897,0021900695,4,2408,2408,2,0,1610612759
165,1610612759,1627749,1627751,1627854,200752,201942,1610612741,1627739,1627756,1628436,1628990,203897,0021900695,4,2419,2425,0,2,1610612741
166,1610612759,1627749,1627751,1627854,200752,201942,1610612741,1627739,1627756,1628436,1628990,203897,0021900695,4,2451,2451,2,0,1610612759
167,1610612759,1627749,1627751,200752,201942,201988,1610612741,1627739,1627756,1628436,1628990,203897,0021900695,4,2466,2466,0,2,1610612741
168,1610612759,1627749,1627751,200752,201942,201988,1610612741,1627739,1627756,1628436,1628990,203897,0021900695,4,2476,2476,0,0,1610612759
169,1610612759,1627751,1628401,200752,201942,201988,1610612741,1627739,1627756,1628436,201152,203897,0021900695,4,2492,2492,0,2,1610612741
170,1610612759,1627751,1628401,200752,201942,201988,1610612741,1627739,1627756,1628436,201152,203897,0021900695,4,2499,2500,0,0,1610612759
171,1610612759,1627751,1628401,200752,201942,201988,1610612741,1627739,1627756,1628436,201152,203897,0021900695,4,2511,2511,0,3,1610612741
172,1610612759,1627751,1628401,200752,201942,201988,1610612741,1627739,1627756,1628436,201152,203897,0021900695,4,2534,2539,0,0,1610612759
173,1610612759,1627751,1628401,200752,201942,201988,1610612741,1627739,1627756,1628436,201152,203897,0021900695,4,2550,2550,0,2,1610612741
174,1610612759,1627751,1628401,200752,201942,201988,1610612741,1627739,1627756,1628436,201152,203897,0021900695,4,2566,2568,1,0,1610612759
175,1610612759,1626168,1627751,1628401,201942,201988,1610612741,1627739,1627756,1628436,201152,203897,0021900695,4,2586,2586,0,3,1610612741
176,1610612759,1626168,1627751,1628401,201942,201988,1610612741,1627739,1627756,1628436,201152,203897,0021900695,4,2617,2620,2,0,1610612759
177,1610612759,1626168,1627751,1628401,201942,201988,1610612741,1627739,1627756,1628436,201152,203897,0021900695,4,2635,2637,0,0,1610612741
178,1610612759,1626168,1627751,1628401,201942,201988,1610612741,1627739,1627756,1628436,201152,203897,0021900695,4,2642,2642,3,0,1610612759
179,1610612759,1626168,1627751,1628401,201942,201988,1610612741,1627739,1627756,1628436,201152,203897,0021900695,4,2642,2656,0,0,1610612741
180,1610612759,1626168,1627751,1628401,201942,201988,1610612741,1627739,1628436,201152,203107,203897,0021900695,4,2669,2669,2,0,1610612759
181,1610612759,1626168,1627751,1628401,201942,201988,1610612741,1627739,1628436,201152,203107,203897,0021900695,4,2686,2686,0,2,1610612741
182,1610612759,1626168,1627751,1628401,201942,201988,1610612741,1627739,1628436,201152,203107,203897,0021900695,4,2687,2689,0,0,1610612759
183,1610612759,1626168,1627751,1628401,201942,201988,1610612741,1627739,1628436,201152,203107,203897,0021900695,4,2709,2709,0,2,1610612741
184,1610612759,1626168,1627751,1628401,201942,201988,1610612741,1627739,1628436,201152,203107,203897,0021900695,4,2714,2714,1,0,1610612759
185,1610612759,1626168,1627751,1628401,201942,201988,1610612741,1627739,1628436,201152,203107,203897,0021900695,4,2716,2731,0,3,1610612741
186,1610612759,1626168,1628401,200752,201942,201988,1610612741,1627739,1628436,201152,203107,203897,0021900695,4,2751,2755,0,0,1610612759
187,1610612759,1626168,1628401,200752,201942,201988,1610612741,1627739,1628436,201152,203107,203897,0021900695,4,2772,2772,0,0,1610612741
188,1610612759,1626168,1627751,1628401,201942,201988,1610612741,1627739,1628990,201152,203107,203897,0021900695,4,2784,2788,0,0,1610612759
189,1610612759,1626168,1627751,1628401,201942,201988,1610612741,1627739,1628990,201152,203107,203897,0021900695,4,2795,2795,0,0,1610612741
190,1610612759,1627751,1627854,1628401,201942,201988,1610612741,1627739,1628990,201152,203107,203897,0021900695,4,2806,2817,2,0,1610612759
191,1610612759,1627751,1627854,1628401,201942,201988,1610612741,1627739,1628990,201152,203107,203897,0021900695,4,2833,2858,0,0,1610612741
192,1610612759,1627751,1627854,1628401,201942,201988,1610612741,1627739,1628990,201152,203107,203897,0021900695,4,2872,2872,2,0,1610612759
193,1610612759,1627751,1627854,1628401,201942,201988,1610612741,1627739,1628990,201152,203107,203897,0021900695,4,2872,2878,0,2,1610612741
194,1610612759,1627749,1627751,1628401,201942,201988,1610612741,1627739,1627756,201152,203107,203897,0021900695,4,2878,2880,1,0,1610612741
