,team1_id,team1_player1,team1_player2,team1_player3,team1_player4,team1_player5,team2_id,team2_player1,team2_player2,team2_player3,team2_player4,team2_player5,game_id,period,possession_start,possession_end,team1_points,team2_points,possession_team
0,1610612743,1627823,200794,203999,203914,1627750,1610612757,203090,202329,203994,203468,203081,0021800329,1,0,17,3,0,1610612743
1,1610612743,1627823,200794,203999,203914,1627750,1610612757,203090,202329,203994,203468,203081,0021800329,1,38,42,0,0,1610612757
2,1610612743,1627823,200794,203999,203914,1627750,1610612757,203090,202329,203994,203468,203081,0021800329,1,57,65,0,0,1610612743
3,1610612743,1627823,200794,203999,203914,1627750,1610612757,203090,202329,203994,203468,203081,0021800329,1,67,67,0,2,1610612757
4,1610612743,1627823,200794,203999,203914,1627750,1610612757,203090,202329,203994,203468,203081,0021800329,1,93,93,0,0,1610612743
5,1610612743,1627823,200794,203999,203914,1627750,1610612757,203090,202329,203994,203468,203081,0021800329,1,117,117,0,2,1610612757
6,1610612743,1627823,200794,203999,203914,1627750,1610612757,203090,202329,203994,203468,203081,0021800329,1,130,135,3,0,1610612743
7,1610612743,1627823,200794,203999,203914,1627750,1610612757,203090,202329,203994,203468,203081,0021800329,1,152,152,0,2,1610612757
8,1610612743,1627823,200794,203999,203914,1627750,1610612757,203090,202329,203994,203468,203081,0021800329,1,172,172,3,0,1610612743
9,1610612743,1627823,200794,203999,203914,1627750,1610612757,203090,202329,203994,203468,203081,0021800329,1,189,189,0,2,1610612757
10,1610612743,1627823,200794,203999,203914,1627750,1610612757,203090,202329,203994,203468,203081,0021800329,1,203,203,2,0,1610612743
11,1610612743,1627823,200794,203999,203914,1627750,1610612757,203090,202329,203994,203468,203081,0021800329,1,216,216,0,0,1610612757
12,1610612743,1627823,200794,203999,203914,1627750,1610612757,203090,202329,203994,203468,203081,0021800329,1,218,221,0,0,1610612743
13,1610612743,1627823,200794,203999,203914,1627750,1610612757,203090,202329,203994,203468,203081,0021800329,1,230,230,0,2,1610612757
14,1610612743,1627823,200794,203999,203914,1627750,1610612757,203090,202329,203994,203468,203081,0021800329,1,249,249,2,0,1610612743
15,1610612743,1627823,200794,203999,203914,1627750,1610612757,203090,202329,203994,203468,203081,0021800329,1,262,262,0,2,1610612757
16,1610612743,1627823,200794,203999,203914,1627750,1610612757,203090,202329,203994,203468,203081,0021800329,1,278,280,1,0,1610612743
17,1610612743,1627823,200794,203999,203914,1627750,1610612757,203090,202329,203994,203468,203081,0021800329,1,290,290,0,3,1610612757
18,1610612743,1627823,200794,203999,203914,1627750,1610612757,203090,202329,203994,203468,203081,0021800329,1,306,306,2,0,1610612743
19,1610612743,1627823,200794,203999,203914,1627750,1610612757,203090,202329,203994,203468,203081,0021800329,1,319,321,0,0,1610612757
20,1610612743,1627823,200794,203999,203914,1627750,1610612757,203090,202329,203994,203468,203081,0021800329,1,332,332,3,0,1610612743
21,1610612743,1627823,200794,203999,203914,1627750,1610612757,203090,202329,203994,203468,203081,0021800329,1,345,348,0,0,1610612757
22,1610612743,1627823,200794,203999,203914,1627750,1610612757,203090,202329,203994,203468,203081,0021800329,1,352,360,2,0,1610612743
23,1610612743,1627823,200794,203999,203914,1627750,1610612757,203090,202329,203994,203468,203081,0021800329,1,376,376,0,2,1610612757
24,1610612743,1627823,200794,203999,203914,1627750,1610612757,203090,202329,203994,203468,203081,0021800329,1,398,398,2,0,1610612743
25,1610612743,1627823,200794,203999,203914,1627750,1610612757,203090,202329,203994,203468,203081,0021800329,1,415,415,0,0,1610612757
26,1610612743,1627823,200794,203999,203914,1627750,1610612757,203090,202329,203994,203468,203081,0021800329,1,416,416,2,0,1610612743
27,1610612743,1627823,1628420,200794,203914,203999,1610612757,202323,202329,203081,203468,203994,0021800329,1,435,436,0,0,1610612757
28,1610612743,1627823,1628420,200794,203914,203999,1610612757,202323,202329,203081,203468,203994,0021800329,1,455,455,3,0,1610612743
29,1610612743,1627823,1628420,200794,203914,203999,1610612757,202323,202329,203081,203468,203994,0021800329,1,476,477,0,0,1610612757
30,1610612743,1627823,1628420,200794,203914,203999,1610612757,202323,202329,203081,203468,203994,0021800329,1,486,488,0,0,1610612743
31,1610612743,1627823,1628420,200794,203914,203999,1610612757,202323,202329,203081,203468,203994,0021800329,1,498,498,0,2,1610612757
32,1610612743,1627823,1628420,200794,203914,203999,1610612757,202323,202329,203081,203086,203468,0021800329,1,516,524,0,0,1610612743
33,1610612743,1627823,1628420,200794,203486,203914,1610612757,1628380,202323,203081,203086,203468,0021800329,1,539,539,0,2,1610612757
34,1610612743,1627823,1628420,200794,203486,203914,1610612757,1628380,202323,203081,203086,203468,0021800329,1,556,556,3,0,1610612743
35,1610612743,1627823,1628420,200794,203486,203914,1610612757,1628380,202323,203081,203086,203468,0021800329,1,575,577,0,0,1610612757
36,1610612743,1627823,1628420,200794,203486,203914,1610612757,1628380,202323,203081,203086,203468,0021800329,1,589,589,2,0,1610612743
37,1610612743,1627823,1628420,200794,203486,203914,1610612757,1628380,202323,203081,203086,203468,0021800329,1,590,618,0,0,1610612757
38,1610612743,1626168,1627750,1627823,1628420,203486,1610612757,1628380,202323,203081,203086,203552,0021800329,1,620,620,2,0,1610612743
39,1610612743,1626168,1627750,1627823,1628420,203486,1610612757,1628380,202323,203081,203086,203552,0021800329,1,633,633,0,3,1610612757
40,1610612743,1626168,1627750,1627823,1628420,203486,1610612757,1628380,202323,203081,203086,203552,0021800329,1,651,651,2,0,1610612743
41,1610612743,1626168,1627750,1627823,1628420,203486,1610612757,1628380,202323,203081,203086,203552,0021800329,1,671,673,0,0,1610612757
42,1610612743,1626168,1627750,1627823,1628420,203486,1610612757,1628380,202323,203081,203086,203552,0021800329,1,678,687,1,0,1610612743
43,1610612743,1627750,1627823,1628420,1628470,203486,1610612757,202323,203081,203086,203468,203552,0021800329,1,698,698,0,2,1610612757
44,1610612743,1627750,1627823,1628420,1628470,203486,1610612757,202323,203081,203086,203468,203552,0021800329,1,718,720,0,0,1610612743
45,1610612743,1627750,1628420,203486,1626168,1627736,1610612757,202323,203086,1628380,203552,203917,0021800329,2,720,732,0,3,1610612757
46,1610612743,1627750,1628420,203486,1626168,1627736,1610612757,202323,203086,1628380,203552,203917,0021800329,2,748,751,0,0,1610612743
47,1610612743,1627750,1628420,203486,1626168,1627736,1610612757,202323,203086,1628380,203552,203917,0021800329,2,762,764,0,0,1610612757
48,1610612743,1627750,1628420,203486,1626168,1627736,1610612757,202323,203086,1628380,203552,203917,0021800329,2,774,774,2,0,1610612743
49,1610612743,1627750,1628420,203486,1626168,1627736,1610612757,202323,203086,1628380,203552,203917,0021800329,2,794,794,0,0,1610612757
50,1610612743,1627750,1628420,203486,1626168,1627736,1610612757,202323,203086,1628380,203552,203917,0021800329,2,800,800,3,0,1610612743
51,1610612743,1627750,1628420,203486,1626168,1627736,1610612757,202323,203086,1628380,203552,203917,0021800329,2,817,817,0,3,1610612757
52,1610612743,1627750,1628420,203486,1626168,1627736,1610612757,202323,203086,1628380,203552,203917,0021800329,2,831,831,0,0,1610612743
53,1610612743,1627750,1628420,203486,1626168,1627736,1610612757,202323,203086,1628380,203552,203917,0021800329,2,831,841,0,0,1610612757
54,1610612743,1627750,1628420,203486,1626168,1627736,1610612757,202323,203086,1628380,203552,203917,0021800329,2,845,847,0,0,1610612743
55,1610612743,1627750,1628420,203486,1626168,1627736,1610612757,202323,203086,1628380,203552,203917,0021800329,2,848,848,0,0,1610612757
56,1610612743,1627750,1628420,203486,1626168,1627736,1610612757,202323,203086,1628380,203552,203917,0021800329,2,859,859,3,0,1610612743
57,1610612743,1627750,1628420,203486,1626168,1627736,1610612757,202323,203086,1628380,203552,203917,0021800329,2,881,887,0,2,1610612757
58,1610612743,1627750,1628420,203486,1626168,1627736,1610612757,202323,203086,1628380,203552,203917,0021800329,2,902,903,0,0,1610612743
59,1610612743,1627750,1628420,203486,1626168,1627736,1610612757,202323,203086,1628380,203552,203917,0021800329,2,917,917,0,0,1610612757
60,1610612743,1627750,1628420,203486,1626168,1627736,1610612757,202323,203086,1628380,203552,203917,0021800329,2,926,927,0,0,1610612743
61,1610612743,1627750,1628420,203486,1626168,1627736,1610612757,202323,203086,1628380,203552,203917,0021800329,2,935,953,0,0,1610612757
62,1610612743,1626168,1627736,1627750,1628420,200794,1610612757,202323,203086,1628380,203552,203917,0021800329,2,960,961,2,0,1610612743
63,1610612743,1626168,1627736,1627750,1628420,200794,1610612757,202323,203086,1628380,203552,203917,0021800329,2,982,982,0,2,1610612757
64,1610612743,1626168,1627736,1627750,1628420,200794,1610612757,202323,203086,1628380,203552,203917,0021800329,2,1005,1005,3,0,1610612743
65,1610612743,1626168,1627736,1627750,1628420,200794,1610612757,202323,203086,1628380,203552,203917,0021800329,2,1015,1024,0,0,1610612757
66,1610612743,1626168,1627736,1628420,200794,203914,1610612757,203081,203086,203468,203917,203994,0021800329,2,1035,1035,2,0,1610612743
67,1610612743,1626168,1627736,1628420,200794,203914,1610612757,203081,203086,203468,203917,203994,0021800329,2,1048,1050,0,1,1610612757
68,1610612743,1627736,1628420,200794,203914,203999,1610612757,203081,203086,203468,203917,203994,0021800329,2,1065,1068,0,0,1610612743
69,1610612743,1627736,1628420,200794,203914,203999,1610612757,203081,203086,203468,203917,203994,0021800329,2,1077,1077,0,2,1610612757
70,1610612743,1627736,1628420,200794,203914,203999,1610612757,203081,203086,203468,203917,203994,0021800329,2,1096,1097,0,0,1610612743
71,1610612743,1627736,1628420,200794,203914,203999,1610612757,203081,203086,203468,203917,203994,0021800329,2,1097,1097,0,2,1610612757
72,1610612743,1627823,1628420,200794,203914,203999,1610612757,203081,203086,203468,203917,203994,0021800329,2,1122,1122,0,0,1610612743
73,1610612743,1627823,1628420,200794,203914,203999,1610612757,203081,203086,203468,203917,203994,0021800329,2,1142,1155,0,0,1610612757
74,1610612743,1627823,1628420,200794,203914,203999,1610612757,203081,203086,203468,203917,203994,0021800329,2,1166,1168,0,0,1610612743
75,1610612743,1627823,1628420,200794,203914,203999,1610612757,203081,203086,203468,203917,203994,0021800329,2,1181,1181,0,2,1610612757
76,1610612743,1627823,1628420,200794,203914,203999,1610612757,203081,203086,203468,203917,203994,0021800329,2,1203,1205,0,0,1610612743
77,1610612743,1627823,1628420,200794,203914,203999,1610612757,203081,203086,203468,203917,203994,0021800329,2,1208,1208,0,2,1610612757
78,1610612743,1627823,1628420,200794,203914,203999,1610612757,203081,203086,203468,203917,203994,0021800329,2,1208,1219,2,0,1610612743
79,1610612743,1627750,1627823,200794,203914,203999,1610612757,203081,203086,203468,203917,203994,0021800329,2,1236,1236,0,0,1610612757
80,1610612743,1627750,1627823,200794,203914,203999,1610612757,203081,203086,203468,203917,203994,0021800329,2,1238,1238,3,0,1610612743
81,1610612743,1627750,1627823,200794,203914,203999,1610612757,203081,203086,203468,203917,203994,0021800329,2,1255,1258,0,0,1610612757
82,1610612743,1627750,1627823,200794,203914,203999,1610612757,203081,203086,203468,203917,203994,0021800329,2,1268,1281,0,0,1610612743
83,1610612743,1627750,1627823,200794,203914,203999,1610612757,203081,203086,203468,203917,203994,0021800329,2,1290,1291,0,2,1610612757
84,1610612743,1627750,1627823,200794,203914,203999,1610612757,202323,203081,203086,203468,203994,0021800329,2,1310,1310,2,0,1610612743
85,1610612743,1627750,1627823,200794,203914,203999,1610612757,202323,203081,203086,203468,203994,0021800329,2,1321,1321,0,0,1610612757
86,1610612743,1627750,1627823,200794,203914,203999,1610612757,202323,203081,203086,203468,203994,0021800329,2,1332,1337,0,0,1610612743
87,1610612743,1627750,1627823,200794,203914,203999,1610612757,202323,203081,203086,203468,203994,0021800329,2,1338,1338,0,0,1610612757
88,1610612743,1627750,1627823,200794,203914,203999,1610612757,202323,203081,203086,203468,203994,0021800329,2,1340,1340,3,0,1610612743
89,1610612743,1627750,1627823,200794,203914,203999,1610612757,202323,203081,203086,203468,203994,0021800329,2,1358,1358,0,2,1610612757
90,1610612743,1627750,1627823,200794,203914,203999,1610612757,202323,203081,203086,203468,203994,0021800329,2,1367,1367,3,0,1610612743
91,1610612743,1627750,1627823,200794,203914,203999,1610612757,202323,203081,203086,203468,203994,0021800329,2,1385,1388,0,0,1610612757
92,1610612743,1627750,1627823,200794,203914,203999,1610612757,202323,203081,203086,203468,203994,0021800329,2,1398,1402,0,0,1610612743
93,1610612743,1627750,1627823,200794,203914,203999,1610612757,202323,203081,203086,203468,203994,0021800329,2,1406,1408,0,0,1610612757
94,1610612743,1627750,1627823,200794,203914,203999,1610612757,202323,203081,203086,203468,203994,0021800329,2,1412,1414,0,0,1610612743
95,1610612743,1627750,1627823,200794,203914,203999,1610612757,202323,203081,203086,203468,203994,0021800329,2,1419,1419,0,2,1610612757
96,1610612743,1627750,1627823,200794,203914,203999,1610612757,202323,203081,203086,203468,203994,0021800329,2,1434,1434,2,0,1610612743
97,1610612743,1627750,1627823,200794,203914,203999,1610612757,202323,203081,203086,203468,203994,0021800329,2,1440,1440,0,2,1610612757
98,1610612743,1627750,1627823,200794,203914,203999,1610612757,202323,203081,203086,203468,203994,0021800329,2,1440,1440,0,0,1610612757
99,1610612743,1627823,200794,203999,203914,1627750,1610612757,203090,202329,203994,203468,203081,0021800329,3,1440,1457,0,2,1610612757
100,1610612743,1627823,200794,203999,203914,1627750,1610612757,203090,202329,203994,203468,203081,0021800329,3,1469,1477,0,0,1610612743
101,1610612743,1627823,200794,203999,203914,1627750,1610612757,203090,202329,203994,203468,203081,0021800329,3,1487,1487,0,3,1610612757
102,1610612743,1627823,200794,203999,203914,1627750,1610612757,203090,202329,203994,203468,203081,0021800329,3,1505,1505,2,0,1610612743
103,1610612743,1627823,200794,203999,203914,1627750,1610612757,203090,202329,203994,203468,203081,0021800329,3,1522,1522,0,2,1610612757
104,1610612743,1627823,200794,203999,203914,1627750,1610612757,203090,202329,203994,203468,203081,0021800329,3,1538,1541,0,0,1610612743
105,1610612743,1627823,200794,203999,203914,1627750,1610612757,203090,202329,203994,203468,203081,0021800329,3,1557,1561,0,0,1610612757
106,1610612743,1627823,200794,203999,203914,1627750,1610612757,203090,202329,203994,203468,203081,0021800329,3,1563,1572,2,0,1610612743
107,1610612743,1627823,200794,203999,203914,1627750,1610612757,203090,202329,203994,203468,203081,0021800329,3,1597,1600,0,0,1610612757
108,1610612743,1627823,200794,203999,203914,1627750,1610612757,203090,202329,203994,203468,203081,0021800329,3,1606,1606,0,0,1610612743
109,1610612743,1627823,200794,203999,203914,1627750,1610612757,203090,202329,203994,203468,203081,0021800329,3,1623,1623,0,0,1610612757
110,1610612743,1627823,200794,203999,203914,1627750,1610612757,203090,202329,203994,203468,203081,0021800329,3,1629,1633,0,0,1610612743
111,1610612743,1627823,200794,203999,203914,1627750,1610612757,203090,202329,203994,203468,203081,0021800329,3,1639,1639,0,2,1610612757
112,1610612743,1627823,200794,203999,203914,1627750,1610612757,203090,202329,203994,203468,203081,0021800329,3,1654,1656,0,0,1610612743
113,1610612743,1627823,200794,203999,203914,1627750,1610612757,203090,202329,203994,203468,203081,0021800329,3,1665,1668,0,0,1610612757
114,1610612743,1627823,200794,203999,203914,1627750,1610612757,203090,202329,203994,203468,203081,0021800329,3,1672,1672,2,0,1610612743
115,1610612743,1627823,200794,203999,203914,1627750,1610612757,203090,202329,203994,203468,203081,0021800329,3,1690,1690,0,2,1610612757
116,1610612743,1627823,200794,203999,203914,1627750,1610612757,203090,202329,203994,203468,203081,0021800329,3,1708,1708,3,0,1610612743
117,1610612743,1627823,200794,203999,203914,1627750,1610612757,203090,202329,203994,203468,203081,0021800329,3,1718,1718,0,2,1610612757
118,1610612743,1627823,200794,203999,203914,1627750,1610612757,203090,202329,203994,203468,203081,0021800329,3,1736,1736,0,0,1610612743
119,1610612743,1627823,200794,203999,203914,1627750,1610612757,203090,202329,203994,203468,203081,0021800329,3,1742,1744,0,0,1610612757
120,1610612743,1627823,200794,203999,203914,1627750,1610612757,203090,202329,203994,203468,203081,0021800329,3,1752,1753,0,0,1610612743
121,1610612743,1627823,200794,203999,203914,1627750,1610612757,203090,202329,203994,203468,203081,0021800329,3,1758,1758,0,2,1610612757
122,1610612743,1627823,200794,203999,203914,1627750,1610612757,203090,202329,203994,203468,203081,0021800329,3,1758,1770,0,0,1610612743
123,1610612743,1627823,200794,203999,203914,1627750,1610612757,203090,202329,203994,203468,203081,0021800329,3,1774,1780,0,0,1610612757
124,1610612743,1627823,200794,203999,203914,1627750,1610612757,203090,202329,203994,203468,203081,0021800329,3,1791,1791,2,0,1610612743
125,1610612743,1627823,200794,203999,203914,1627750,1610612757,203090,202329,203994,203468,203081,0021800329,3,1802,1802,0,2,1610612757
126,1610612743,1627823,200794,203999,203914,1627750,1610612757,203090,202329,203994,203468,203081,0021800329,3,1816,1819,0,0,1610612743
127,1610612743,1627823,200794,203999,203914,1627750,1610612757,203090,202329,203994,203468,203081,0021800329,3,1839,1843,0,2,1610612757
128,1610612743,1627823,200794,203999,203914,1627750,1610612757,203090,202329,203994,203468,203081,0021800329,3,1866,1866,0,0,1610612743
129,1610612743,1627823,200794,203999,203914,1627750,1610612757,203090,202329,203994,203468,203081,0021800329,3,1866,1881,0,0,1610612757
130,1610612743,1627823,1628420,200794,203914,203999,1610612757,202323,202329,203081,203468,203994,0021800329,3,1896,1896,3,0,1610612743
131,1610612743,1627823,1628420,200794,203914,203999,1610612757,202323,202329,203081,203468,203994,0021800329,3,1919,1919,0,3,1610612757
132,1610612743,1627823,1628420,200794,203914,203999,1610612757,202323,202329,203081,203468,203994,0021800329,3,1943,1956,0,0,1610612743
133,1610612743,1627823,1628420,200794,203914,203999,1610612757,202323,202329,203081,203468,203994,0021800329,3,1966,1969,0,0,1610612757
134,1610612743,1627823,1628420,200794,203914,203999,1610612757,202323,202329,203081,203468,203994,0021800329,3,1977,1977,2,0,1610612743
135,1610612743,1627823,1628420,200794,203914,203999,1610612757,202323,202329,203081,203468,203994,0021800329,3,1977,1991,0,2,1610612757
136,1610612743,1627823,1628420,200794,203486,203914,1610612757,202323,202329,203081,203086,203468,0021800329,3,2008,2008,2,0,1610612743
137,1610612743,1627823,1628420,200794,203486,203914,1610612757,202323,202329,203081,203086,203468,0021800329,3,2029,2032,0,0,1610612757
138,1610612743,1627823,1628420,200794,203486,203914,1610612757,202323,202329,203081,203086,203468,0021800329,3,2049,2049,0,0,1610612743
139,1610612743,1627823,1628420,200794,203486,203914,1610612757,202323,202329,203081,203086,203468,0021800329,3,2049,2052,0,0,1610612757
140,1610612743,1626168,1627736,1627823,1628420,203486,1610612757,1628380,202323,203081,203086,203552,0021800329,3,2063,2065,1,0,1610612743
141,1610612743,1626168,1627736,1627823,1628420,203486,1610612757,1628380,202323,203081,203086,203552,0021800329,3,2075,2075,0,2,1610612757
142,1610612743,1626168,1627736,1627823,1628420,203486,1610612757,1628380,202323,203081,203086,203552,0021800329,3,2092,2094,1,0,1610612743
143,1610612743,1626168,1627736,1627750,1628420,203486,1610612757,1628380,202323,203081,203086,203552,0021800329,3,2103,2103,0,0,1610612757
144,1610612743,1626168,1627736,1627750,1628420,203486,1610612757,1628380,202323,203081,203086,203552,0021800329,3,2106,2107,0,0,1610612743
145,1610612743,1626168,1627736,1627750,1628420,203486,1610612757,1628380,202323,203081,203086,203552,0021800329,3,2128,2128,0,3,1610612757
146,1610612743,1626168,1627736,1627750,1628420,203486,1610612757,1628380,202323,203081,203086,203552,0021800329,3,2134,2136,0,0,1610612743
147,1610612743,1626168,1627736,1627750,1628420,203486,1610612757,1628380,202323,203081,203086,203552,0021800329,3,2157,2157,0,3,1610612757
148,1610612743,1626168,1627736,1627750,1628420,203486,1610612757,1628380,202323,203081,203086,203552,0021800329,3,2160,2160,3,0,1610612743
149,1610612743,1626168,1627736,1627750,1628420,203486,1610612757,1628380,202323,203081,203086,203552,0021800329,3,2160,2160,0,0,482
150,1610612743,1627750,1628420,203486,1626168,1627736,1610612757,203081,202323,203086,1628380,203552,0021800329,4,2160,2192,0,0,1610612743
151,1610612743,1627750,1628420,203486,1626168,1627736,1610612757,203081,202323,203086,1628380,203552,0021800329,4,2215,2217,0,2,1610612757
152,1610612743,1627750,1628420,203486,1626168,1627736,1610612757,203081,202323,203086,1628380,203552,0021800329,4,2242,2249,3,0,1610612743
153,1610612743,1627750,1628420,203486,1626168,1627736,1610612757,203081,202323,203086,1628380,203552,0021800329,4,2260,2263,0,0,1610612757
154,1610612743,1627750,1628420,203486,1626168,1627736,1610612757,203081,202323,203086,1628380,203552,0021800329,4,2266,2266,2,0,1610612743
155,1610612743,1627750,1628420,203486,1626168,1627736,1610612757,203081,202323,203086,1628380,203552,0021800329,4,2266,2286,0,2,1610612757
156,1610612743,1627750,1628420,203486,1626168,1627736,1610612757,202323,202329,203086,203468,203552,0021800329,4,2287,2302,0,0,1610612743
157,1610612743,1627750,1628420,203486,1626168,1627736,1610612757,202323,202329,203086,203468,203552,0021800329,4,2316,2316,0,0,1610612757
158,1610612743,1626168,1627736,1628420,203486,203914,1610612757,202323,202329,203086,203468,203552,0021800329,4,2332,2344,0,0,1610612743
159,1610612743,1626168,1627736,1628420,203486,203914,1610612757,202323,202329,203086,203468,203552,0021800329,4,2349,2349,0,2,1610612757
160,1610612743,1626168,1627736,1628420,203486,203914,1610612757,202323,202329,203086,203468,203552,0021800329,4,2361,2361,0,0,1610612743
161,1610612743,1626168,1627736,1628420,203486,203914,1610612757,202323,202329,203086,203468,203552,0021800329,4,2385,2390,0,2,1610612757
162,1610612743,1626168,1627736,1628420,203486,203914,1610612757,202323,202329,203086,203468,203552,0021800329,4,2390,2414,0,0,1610612743
163,1610612743,1627736,1628420,200794,203914,203999,1610612757,202323,202329,203086,203468,203552,0021800329,4,2437,2437,0,2,1610612757
164,1610612743,1627736,1628420,200794,203914,203999,1610612757,202323,202329,203086,203468,203552,0021800329,4,2448,2448,2,0,1610612743
165,1610612743,1627736,1628420,200794,203914,203999,1610612757,202323,202329,203086,203468,203552,0021800329,4,2467,2467,0,0,1610612757
166,1610612743,1627750,1628420,200794,203914,203999,1610612757,202329,203081,203086,203468,203552,0021800329,4,2484,2486,0,0,1610612743
167,1610612743,1627750,1628420,200794,203914,203999,1610612757,202329,203081,203086,203468,203552,0021800329,4,2496,2498,0,0,1610612757
168,1610612743,1627750,1628420,200794,203914,203999,1610612757,202329,203081,203086,203468,203552,0021800329,4,2503,2503,0,0,1610612743
169,1610612743,1627750,1628420,200794,203914,203999,1610612757,202329,203081,203086,203468,203552,0021800329,4,2503,2516,0,2,1610612757
170,1610612743,1627750,1628420,200794,203914,203999,1610612757,202329,203081,203086,203468,203552,0021800329,4,2531,2535,3,0,1610612743
171,1610612743,1627750,1628420,200794,203914,203999,1610612757,202329,203081,203086,203468,203552,0021800329,4,2561,2563,0,0,1610612757
172,1610612743,1627750,1628420,200794,203914,203999,1610612757,202329,203081,203086,203468,203552,0021800329,4,2579,2579,2,0,1610612743
173,1610612743,1627750,1628420,200794,203914,203999,1610612757,202329,203081,203086,203468,203552,0021800329,4,2598,2608,0,0,1610612757
174,1610612743,1627750,1628420,200794,203914,203999,1610612757,202323,202329,203081,203468,203994,0021800329,4,2624,2638,2,0,1610612743
175,1610612743,1627750,1628420,200794,203914,203999,1610612757,202323,202329,203081,203468,203994,0021800329,4,2654,2667,0,2,1610612757
176,1610612743,1627750,1628420,200794,203914,203999,1610612757,202323,202329,203081,203468,203994,0021800329,4,2689,2700,0,0,1610612743
177,1610612743,1627750,1628420,200794,203914,203999,1610612757,202323,202329,203081,203468,203994,0021800329,4,2711,2711,0,2,1610612757
178,1610612743,1627750,1628420,200794,203914,203999,1610612757,202323,202329,203081,203468,203994,0021800329,4,2733,2733,2,0,1610612743
179,1610612743,1627750,1628420,200794,203914,203999,1610612757,202323,202329,203081,203468,203994,0021800329,4,2755,2762,0,3,1610612757
180,1610612743,1627750,1628420,200794,203914,203999,1610612757,202323,202329,203081,203468,203994,0021800329,4,2780,2782,1,0,1610612743
181,1610612743,1627750,1628420,203486,203914,203999,1610612757,202323,202329,203081,203468,203994,0021800329,4,2790,2790,0,2,1610612757
182,1610612743,1627750,1628420,200794,203914,203999,1610612757,202323,202329,203081,203468,203994,0021800329,4,2810,2812,0,0,1610612743
183,1610612743,1627750,1628420,200794,203914,203999,1610612757,202323,202329,203081,203468,203994,0021800329,4,2824,2824,0,2,1610612757
184,1610612743,1627750,1628420,200794,203914,203999,1610612757,202323,202329,203081,203468,203994,0021800329,4,2825,2836,2,0,1610612743
185,1610612743,1627750,1628420,200794,203486,203914,1610612757,202329,203081,203468,203552,203994,0021800329,4,2843,2843,0,2,1610612757
186,1610612743,1627750,1628420,200794,203486,203914,1610612757,202329,203081,203468,203552,203994,0021800329,4,2843,2864,3,0,1610612743
187,1610612743,1627750,1628420,200794,203914,203999,1610612757,202323,202329,203081,203468,203994,0021800329,4,2864,2870,0,2,1610612757
188,1610612743,1627750,1628420,200794,203914,203999,1610612757,202329,203081,203086,203468,203552,0021800329,4,2874,2875,0,0,1610612743
189,1610612743,1627750,1628420,200794,203914,203999,1610612757,202329,203081,203086,203468,203552,0021800329,4,2875,2880,0,0,1610612743
