,stint_end,t2_points_scored,t1_id,t2_id,t2_pm,t1_players,t2_players,t1_points_scored,t1_pm,stint_start,margin_per_100,num_poss
0,286,8,1610612764,1610612743,2,"[203484, 1630166, 1629655, 203078, 203915]","[203932, 201145, 203999, 1628432, 1628420]",6,-2,0,-11.76470588235294,17.0
1,358,13,1610612764,1610612743,5,"[203484, 1630166, 1629655, 203078, 203915]","[203932, 201145, 203999, 1628432, 1628420]",8,-5,287,-20.833333333333336,24.0
2,394,13,1610612764,1610612743,5,"[1626149, 1630166, 203078, 203484, 203915]","[203932, 201145, 203999, 1628432, 1628420]",8,-5,359,-20.0,25.0
3,514,20,1610612764,1610612743,8,"[1626149, 202722, 203078, 203484, 203526]","[203932, 201145, 203999, 1628432, 1628420]",12,-8,395,-23.52941176470588,34.0
4,569,22,1610612764,1610612743,10,"[1626149, 202722, 203078, 203484, 203526]","[1628420, 1630192, 1630267, 203932, 203999]",12,-10,515,-27.027027027027028,37.0
5,571,24,1610612764,1610612743,12,"[1626149, 1630557, 202722, 203078, 203526]","[1630192, 1630267, 1630538, 203932, 203999]",12,-12,570,-31.57894736842105,38.0
6,712,29,1610612764,1610612743,7,"[1626149, 1630557, 202722, 203526, 203915]","[1630210, 1630267, 1630538, 203932, 203999]",22,-7,572,-15.217391304347828,46.0
7,719,29,1610612764,1610612743,7,"[1626149, 1630557, 202722, 203526, 203915]","[1630192, 1630210, 1630267, 1630538, 203932]",22,-7,713,-14.893617021276595,47.0
8,906,37,1610612764,1610612743,13,"[1626149, 1630557, 202722, 203526, 203915]","[1628427, 1628432, 1630192, 1630267, 1630538]",24,-13,720,-22.033898305084744,59.0
9,954,40,1610612764,1610612743,13,"[1630166, 203915, 1626149, 1630557, 1628988]","[1630267, 1630192, 1630538, 1630210, 1628427]",27,-13,907,-20.3125,64.0
10,1030,42,1610612764,1610612743,13,"[1626149, 1628988, 1630166, 1630557, 203078]","[1630267, 1630192, 1630538, 1630210, 1628427]",29,-13,955,-18.571428571428573,70.0
11,1103,44,1610612764,1610612743,12,"[1628988, 1629655, 1630166, 1630557, 203078]","[1630267, 1630192, 1630538, 1630210, 1628427]",32,-12,1031,-16.43835616438356,73.0
12,1225,49,1610612764,1610612743,12,"[1629655, 202722, 203078, 203484, 203526]","[1628420, 1630210, 1630538, 203932, 203999]",37,-12,1104,-14.814814814814813,81.0
13,1315,55,1610612764,1610612743,16,"[1629655, 202722, 203078, 203484, 203526]","[1628420, 1630538, 201145, 203932, 203999]",39,-16,1226,-17.97752808988764,89.0
14,1421,59,1610612764,1610612743,18,"[1626149, 202722, 203078, 203484, 203526]","[1628420, 1630267, 201145, 203932, 203999]",41,-18,1316,-18.947368421052634,95.0
15,1751,78,1610612764,1610612743,30,"[1626149, 202722, 203078, 203484, 203526]","[1628420, 1628432, 201145, 203932, 203999]",48,-30,1422,-25.423728813559322,118.0
16,1855,83,1610612764,1610612743,32,"[203484, 1630166, 1629655, 203078, 203915]","[203932, 201145, 203999, 1628432, 1628420]",51,-32,1752,-25.6,125.0
17,1958,85,1610612764,1610612743,28,"[1626149, 202722, 203078, 203484, 203915]","[203932, 201145, 203999, 1628432, 1628420]",57,-28,1856,-21.21212121212121,132.0
18,2146,89,1610612764,1610612743,20,"[1626149, 1630557, 202722, 203078, 203484]","[1628420, 1630192, 1630267, 203932, 203999]",69,-20,1959,-13.793103448275861,145.0
19,2158,89,1610612764,1610612743,19,"[1626149, 1630557, 202722, 203078, 203526]","[1628427, 1630192, 1630267, 1630538, 203999]",70,-19,2147,-13.013698630136986,146.0
20,2333,98,1610612764,1610612743,17,"[1626149, 1630166, 1630557, 203078, 203526]","[1628427, 1630192, 1630267, 1630538, 203999]",81,-17,2159,-10.759493670886076,158.0
21,2375,98,1610612764,1610612743,17,"[203915, 1626149, 202722, 1630557, 1628988]","[203932, 1630267, 1630192, 1630538, 1630210]",81,-17,2334,-10.559006211180124,161.0
22,2415,98,1610612764,1610612743,16,"[203915, 1626149, 202722, 1630557, 1628988]","[1628432, 1630192, 1630210, 1630267, 203932]",82,-16,2376,-9.815950920245399,163.0
23,2510,103,1610612764,1610612743,18,"[1626149, 1630557, 202722, 203078, 203915]","[1628432, 1630267, 201145, 203932, 203999]",85,-18,2416,-10.526315789473683,171.0
24,2782,105,1610612764,1610612743,8,"[1626149, 1630557, 202722, 203078, 203915]","[1628420, 1628432, 201145, 203932, 203999]",97,-8,2511,-4.27807486631016,187.0
25,2851,107,1610612764,1610612743,7,"[1628988, 1629655, 202722, 203078, 203484]","[1628420, 1628432, 1630267, 201145, 203932]",100,-7,2783,-3.6458333333333335,192.0
26,2857,109,1610612764,1610612743,7,"[1628988, 1629655, 202722, 203078, 203484]","[1628420, 1630267, 1630538, 201145, 203932]",102,-7,2852,-3.608247422680412,194.0
27,2877,113,1610612764,1610612743,8,"[1628988, 1629655, 202722, 203078, 203484]","[1628420, 1630192, 1630267, 201145, 203932]",105,-8,2858,-4.060913705583756,197.0
28,9999999,113,1610612764,1610612743,6,"[1628988, 1629655, 202722, 203078, 203484]","[1628420, 1628432, 1630267, 201145, 203932]",107,-6,2878,-3.0303030303030303,198.0
