,team1_id,team1_player1,team1_player2,team1_player3,team1_player4,team1_player5,team2_id,team2_player1,team2_player2,team2_player3,team2_player4,team2_player5,game_id,period,possession_start,possession_end,team1_points,team2_points,possession_team
0,1610612737,1629629,1629631,1628981,1628989,1629027,1610612751,203925,1627752,1628386,202066,203915,0021900431,1,0,11,0,0,1610612751
1,1610612737,1629629,1629631,1628981,1628989,1629027,1610612751,203925,1627752,1628386,202066,203915,0021900431,1,21,21,2,0,1610612737
2,1610612737,1629629,1629631,1628981,1628989,1629027,1610612751,203925,1627752,1628386,202066,203915,0021900431,1,43,43,0,2,1610612751
3,1610612737,1629629,1629631,1628981,1628989,1629027,1610612751,203925,1627752,1628386,202066,203915,0021900431,1,53,53,2,0,1610612737
4,1610612737,1629629,1629631,1628981,1628989,1629027,1610612751,203925,1627752,1628386,202066,203915,0021900431,1,72,75,0,0,1610612751
5,1610612737,1629629,1629631,1628981,1628989,1629027,1610612751,203925,1627752,1628386,202066,203915,0021900431,1,86,86,2,0,1610612737
6,1610612737,1629629,1629631,1628981,1628989,1629027,1610612751,203925,1627752,1628386,202066,203915,0021900431,1,98,108,0,3,1610612751
7,1610612737,1629629,1629631,1628981,1628989,1629027,1610612751,203925,1627752,1628386,202066,203915,0021900431,1,117,122,1,0,1610612737
8,1610612737,1629629,1629631,1628981,1628989,1629027,1610612751,203925,1627752,1628386,202066,203915,0021900431,1,133,142,0,0,1610612751
9,1610612737,1629629,1629631,1628981,1628989,1629027,1610612751,203925,1627752,1628386,202066,203915,0021900431,1,144,144,2,0,1610612737
10,1610612737,1629629,1629631,1628981,1628989,1629027,1610612751,203925,1627752,1628386,202066,203915,0021900431,1,162,164,0,0,1610612751
11,1610612737,1629629,1629631,1628981,1628989,1629027,1610612751,203925,1627752,1628386,202066,203915,0021900431,1,170,172,0,0,1610612737
12,1610612737,1629629,1629631,1628981,1628989,1629027,1610612751,203925,1627752,1628386,202066,203915,0021900431,1,184,194,0,0,1610612751
13,1610612737,1629629,1629631,1628981,1628989,1629027,1610612751,203925,1627752,1628386,202066,203915,0021900431,1,203,203,3,0,1610612737
14,1610612737,1629629,1629631,1628981,1628989,1629027,1610612751,203925,1627752,1628386,202066,203915,0021900431,1,215,219,0,0,1610612751
15,1610612737,1629629,1629631,1628981,1628989,1629027,1610612751,203925,1627752,1628386,202066,203915,0021900431,1,223,223,2,0,1610612737
16,1610612737,1629629,1629631,1628981,1628989,1629027,1610612751,203925,1627752,1628386,202066,203915,0021900431,1,223,239,0,2,1610612751
17,1610612737,1629629,1629631,1628981,1628989,1629027,1610612751,203925,1627752,1628386,202066,203915,0021900431,1,257,257,2,0,1610612737
18,1610612737,1629629,1629631,1628981,1628989,1629027,1610612751,203925,1627752,1628386,202066,203915,0021900431,1,268,274,0,0,1610612751
19,1610612737,1629629,1629631,1628981,1628989,1629027,1610612751,203925,1627752,1628386,202066,203915,0021900431,1,277,277,2,0,1610612737
20,1610612737,1629629,1629631,1628981,1628989,1629027,1610612751,203925,1627752,1628386,202066,203915,0021900431,1,296,299,0,0,1610612751
21,1610612737,1629629,1629631,1628981,1628989,1629027,1610612751,203925,1627752,1628386,202066,203915,0021900431,1,306,306,0,0,1610612737
22,1610612737,1629629,1629631,1628981,1628989,1629027,1610612751,203925,1627752,1628386,202066,203915,0021900431,1,316,316,0,2,1610612751
23,1610612737,1629629,1629631,1628981,1628989,1629027,1610612751,203925,1627752,1628386,202066,203915,0021900431,1,329,329,0,0,1610612737
24,1610612737,1629629,1629631,1628981,1628989,1629027,1610612751,203925,1627752,1628386,202066,203915,0021900431,1,336,336,0,3,1610612751
25,1610612737,1629629,1629631,1628981,1628989,1629027,1610612751,203925,1627752,1628386,202066,203915,0021900431,1,338,364,0,0,1610612737
26,1610612737,1627761,1629027,1629631,203458,203953,1610612751,1627752,1627789,1628386,203915,203925,0021900431,1,369,371,0,0,1610612751
27,1610612737,1627761,1629027,1629631,203458,203953,1610612751,1627752,1627789,1628386,203915,203925,0021900431,1,371,371,0,0,1610612737
28,1610612737,1627761,1628989,1629631,203458,203953,1610612751,1627752,1627789,1628386,203915,203925,0021900431,1,384,384,0,2,1610612751
29,1610612737,1627761,1628989,1629631,203458,203953,1610612751,1627752,1627789,1628386,203915,203925,0021900431,1,399,408,0,0,1610612737
30,1610612737,1627761,1628989,1629631,203458,203953,1610612751,1627752,1627789,1628386,203915,203925,0021900431,1,412,412,0,3,1610612751
31,1610612737,1627761,1628989,1629631,203458,203953,1610612751,1627752,1627789,1628386,203915,203925,0021900431,1,426,432,0,0,1610612737
32,1610612737,1627761,1628989,1629631,203458,203953,1610612751,1627752,1627789,1628386,203915,203925,0021900431,1,438,438,0,3,1610612751
33,1610612737,1627761,1628989,1629631,203458,203953,1610612751,1627752,1627789,1628386,203915,203925,0021900431,1,455,458,0,0,1610612737
34,1610612737,1627761,1628989,1629631,203458,203953,1610612751,1627752,1627789,1628386,203915,203925,0021900431,1,468,468,0,2,1610612751
35,1610612737,1627761,1628989,1629631,203458,203953,1610612751,1627752,1627789,1628386,203915,203925,0021900431,1,486,490,2,0,1610612737
36,1610612737,1627761,1628989,1629631,203458,203953,1610612751,1627752,1627789,1628386,203915,203925,0021900431,1,504,504,0,3,1610612751
37,1610612737,1627761,1628989,1629631,203458,203953,1610612751,1627752,1627789,1628386,203915,203925,0021900431,1,519,519,3,0,1610612737
38,1610612737,1627761,1628989,1629631,203458,203953,1610612751,1627752,1627789,1628386,203915,203925,0021900431,1,527,532,0,2,1610612751
39,1610612737,1627761,1628989,1629027,203459,203953,1610612751,1627789,201163,201599,203915,203925,0021900431,1,543,543,2,0,1610612737
40,1610612737,1627761,1628989,1629027,203459,203953,1610612751,1627789,201163,201599,203915,203925,0021900431,1,559,562,0,2,1610612751
41,1610612737,1627761,1628989,1629027,203459,203953,1610612751,1627789,201163,201599,203915,203925,0021900431,1,569,570,0,0,1610612737
42,1610612737,1627761,1628989,1629027,203459,203953,1610612751,1627789,201163,201599,203915,203925,0021900431,1,570,570,0,0,1610612751
43,1610612737,1627761,1628989,1629027,203459,203953,1610612751,1627789,1629066,201163,201599,202066,0021900431,1,577,577,2,0,1610612737
44,1610612737,1627761,1628989,1629027,203459,203953,1610612751,1627789,1629066,201163,201599,202066,0021900431,1,589,589,0,2,1610612751
45,1610612737,1627761,1628989,1629027,203459,203953,1610612751,1627789,1629066,201163,201599,202066,0021900431,1,604,607,0,0,1610612737
46,1610612737,1627761,1628989,1629027,203459,203953,1610612751,1627789,1629066,201163,201599,202066,0021900431,1,618,618,0,3,1610612751
47,1610612737,1627761,1628981,1628989,1629027,203459,1610612751,1627789,1629066,201163,201599,202066,0021900431,1,630,633,0,0,1610612737
48,1610612737,1627761,1628981,1628989,1629027,203459,1610612751,1627789,1629066,201163,201599,202066,0021900431,1,637,637,0,0,1610612751
49,1610612737,1627761,1628981,1628989,1629027,203459,1610612751,1627789,1629066,201163,201599,202066,0021900431,1,643,643,2,0,1610612737
50,1610612737,1627761,1628981,1628989,1629027,203459,1610612751,1627789,1629066,201163,201599,202066,0021900431,1,654,654,0,0,1610612751
51,1610612737,1627761,1628981,1628989,1629027,203459,1610612751,1627789,1629066,201163,201599,202066,0021900431,1,662,662,3,0,1610612737
52,1610612737,1627761,1628981,1628989,1629027,203459,1610612751,1627789,1629066,201163,201599,202066,0021900431,1,670,673,0,0,1610612751
53,1610612737,1627761,1628981,1628989,1629027,203459,1610612751,1627789,1629066,201163,201599,202066,0021900431,1,682,684,2,0,1610612737
54,1610612737,1627761,1628981,1628989,1629027,203459,1610612751,1627789,1629066,201163,201599,202066,0021900431,1,690,690,0,0,1610612751
55,1610612737,1627761,1628981,1628989,1629027,203459,1610612751,1627789,1629066,201163,201599,202066,0021900431,1,714,716,0,0,1610612737
56,1610612737,1627761,1628981,1628989,1629027,203459,1610612751,1627789,1629066,201163,201599,202066,0021900431,1,720,720,0,0,1610612737
57,1610612737,1629629,1629631,1629027,203458,1713,1610612751,202066,1627789,201599,201163,1629066,0021900431,2,720,735,0,0,1610612737
58,1610612737,1629629,1629631,1629027,203458,1713,1610612751,202066,1627789,201599,201163,1629066,0021900431,2,752,752,0,2,1610612751
59,1610612737,1629629,1629631,1629027,203458,1713,1610612751,202066,1627789,201599,201163,1629066,0021900431,2,769,774,2,0,1610612737
60,1610612737,1629629,1629631,1629027,203458,1713,1610612751,202066,1627789,201599,201163,1629066,0021900431,2,789,791,0,0,1610612751
61,1610612737,1629629,1629631,1629027,203458,1713,1610612751,202066,1627789,201599,201163,1629066,0021900431,2,802,805,0,0,1610612737
62,1610612737,1629629,1629631,1629027,203458,1713,1610612751,202066,1627789,201599,201163,1629066,0021900431,2,814,814,0,2,1610612751
63,1610612737,1629629,1629631,1629027,203458,1713,1610612751,202066,1627789,201599,201163,1629066,0021900431,2,833,833,3,0,1610612737
64,1610612737,1629629,1629631,1629027,203458,1713,1610612751,202066,1627789,201599,201163,1629066,0021900431,2,845,845,0,2,1610612751
65,1610612737,1629629,1629631,1629027,203458,1713,1610612751,202066,1627789,201599,201163,1629066,0021900431,2,861,861,3,0,1610612737
66,1610612737,1629629,1629631,1629027,203458,1713,1610612751,202066,1627789,201599,201163,1629066,0021900431,2,877,879,0,0,1610612751
67,1610612737,1629629,1629631,1629027,203458,1713,1610612751,202066,1627789,201599,201163,1629066,0021900431,2,884,884,2,0,1610612737
68,1610612737,1629629,1629631,1629027,203458,1713,1610612751,202066,1627789,201599,201163,1629066,0021900431,2,913,916,0,0,1610612751
69,1610612737,1629629,1629631,1629027,203458,1713,1610612751,202066,1627789,201599,201163,1629066,0021900431,2,922,922,0,0,1610612737
70,1610612737,1629629,1629631,1629027,203458,1713,1610612751,202066,1627789,201599,201163,1629066,0021900431,2,925,925,0,2,1610612751
71,1610612737,1629629,1629631,1629027,203458,1713,1610612751,202066,1627789,201599,201163,1629066,0021900431,2,942,945,0,0,1610612737
72,1610612737,1629629,1629631,1629027,203458,1713,1610612751,202066,1627789,201599,201163,1629066,0021900431,2,953,953,0,0,1610612751
73,1610612737,1629629,1629631,1629027,203458,1713,1610612751,1627752,201599,202066,203915,203925,0021900431,2,963,963,2,0,1610612737
74,1610612737,1629629,1629631,1629027,203458,1713,1610612751,1627752,201599,202066,203915,203925,0021900431,2,977,983,0,3,1610612751
75,1610612737,1627761,1628989,1629027,1629631,203458,1610612751,1627752,201599,202066,203915,203925,0021900431,2,1003,1009,3,0,1610612737
76,1610612737,1627761,1628989,1629027,1629631,203458,1610612751,1627752,201599,202066,203915,203925,0021900431,2,1023,1026,0,0,1610612751
77,1610612737,1627761,1628989,1629027,1629631,203458,1610612751,1627752,201599,202066,203915,203925,0021900431,2,1031,1031,3,0,1610612737
78,1610612737,1627761,1628989,1629027,1629631,203458,1610612751,1627752,201599,202066,203915,203925,0021900431,2,1061,1065,0,0,1610612751
79,1610612737,1627761,1628989,1629027,1629631,203458,1610612751,1627752,201599,202066,203915,203925,0021900431,2,1065,1073,1,0,1610612737
80,1610612737,1627761,1628989,1629027,203458,203459,1610612751,1627752,1628386,202066,203915,203925,0021900431,2,1079,1081,0,0,1610612751
81,1610612737,1627761,1628989,1629027,203458,203459,1610612751,1627752,1628386,202066,203915,203925,0021900431,2,1085,1091,2,0,1610612737
82,1610612737,1627761,1628989,1629027,203458,203459,1610612751,1627752,1628386,202066,203915,203925,0021900431,2,1091,1106,0,2,1610612751
83,1610612737,1627761,1628989,1629027,203458,203459,1610612751,1627752,1628386,202066,203915,203925,0021900431,2,1121,1121,2,0,1610612737
84,1610612737,1627761,1628989,1629027,203458,203459,1610612751,1627752,1628386,202066,203915,203925,0021900431,2,1138,1138,0,2,1610612751
85,1610612737,1627761,1628989,1629027,203458,203459,1610612751,1627752,1628386,202066,203915,203925,0021900431,2,1145,1145,0,0,1610612737
86,1610612737,1627761,1628989,1629027,203458,203459,1610612751,1627752,1628386,202066,203915,203925,0021900431,2,1161,1161,0,2,1610612751
87,1610612737,1627761,1628989,1629027,203458,203459,1610612751,1627752,1628386,202066,203915,203925,0021900431,2,1177,1179,0,0,1610612737
88,1610612737,1627761,1628989,1629631,203458,203459,1610612751,1627752,1628386,202066,203915,203925,0021900431,2,1194,1198,0,0,1610612751
89,1610612737,1627761,1628989,1629631,203458,203459,1610612751,1627752,1628386,202066,203915,203925,0021900431,2,1205,1228,3,0,1610612737
90,1610612737,1627761,1628989,1629631,203458,203459,1610612751,1627752,1628386,202066,203915,203925,0021900431,2,1249,1272,0,4,1610612751
91,1610612737,1628981,1629027,1629629,1629631,203953,1610612751,1627752,1628386,201163,203915,203925,0021900431,2,1284,1288,0,0,1610612737
92,1610612737,1628981,1629027,1629629,1629631,203953,1610612751,1627752,1628386,201163,203915,203925,0021900431,2,1297,1298,0,0,1610612751
93,1610612737,1628981,1629027,1629629,1629631,203953,1610612751,1627752,1628386,201163,203915,203925,0021900431,2,1303,1303,2,0,1610612737
94,1610612737,1628981,1629027,1629629,1629631,203953,1610612751,1627752,1628386,201163,203915,203925,0021900431,2,1318,1318,0,0,1610612751
95,1610612737,1628981,1629027,1629629,1629631,203953,1610612751,1627752,1628386,201163,203915,203925,0021900431,2,1321,1321,3,0,1610612737
96,1610612737,1628981,1629027,1629629,1629631,203953,1610612751,1627752,1628386,201163,203915,203925,0021900431,2,1330,1340,0,2,1610612751
97,1610612737,1627761,1628981,1629027,1629631,203953,1610612751,1627752,1628386,201163,203915,203925,0021900431,2,1352,1354,0,0,1610612737
98,1610612737,1627761,1628981,1629027,1629631,203953,1610612751,1627752,1628386,201163,203915,203925,0021900431,2,1358,1358,0,2,1610612751
99,1610612737,1627761,1629027,1629631,203458,203953,1610612751,1627752,1628386,201163,203915,203925,0021900431,2,1370,1370,2,0,1610612737
100,1610612737,1627761,1629027,1629631,203458,203953,1610612751,1627752,1628386,201163,203915,203925,0021900431,2,1383,1397,0,0,1610612751
101,1610612737,1627761,1629027,1629631,203458,203953,1610612751,1627752,1628386,201163,203915,203925,0021900431,2,1403,1403,3,0,1610612737
102,1610612737,1627761,1629027,1629631,203458,203953,1610612751,1627752,1628386,201163,203915,203925,0021900431,2,1409,1411,0,0,1610612751
103,1610612737,1627761,1629027,1629631,203458,203953,1610612751,1627752,1628386,201163,203915,203925,0021900431,2,1430,1430,3,0,1610612737
104,1610612737,1627761,1629027,1629631,203458,203953,1610612751,1627752,1628386,201163,203915,203925,0021900431,2,1435,1440,0,1,1610612751
105,1610612737,1627761,1629027,1629631,203458,203953,1610612751,1627752,1628386,201163,203915,203925,0021900431,2,1440,1440,0,0,1610612751
106,1610612737,1629629,1629631,1628981,1628989,1629027,1610612751,203925,1627752,1628386,202066,203915,0021900431,3,1440,1458,0,0,1610612737
107,1610612737,1629629,1629631,1628981,1628989,1629027,1610612751,203925,1627752,1628386,202066,203915,0021900431,3,1472,1474,0,0,1610612751
108,1610612737,1629629,1629631,1628981,1628989,1629027,1610612751,203925,1627752,1628386,202066,203915,0021900431,3,1480,1484,0,0,1610612737
109,1610612737,1629629,1629631,1628981,1628989,1629027,1610612751,203925,1627752,1628386,202066,203915,0021900431,3,1491,1493,0,0,1610612751
110,1610612737,1629629,1629631,1628981,1628989,1629027,1610612751,203925,1627752,1628386,202066,203915,0021900431,3,1503,1503,2,0,1610612737
111,1610612737,1629629,1629631,1628981,1628989,1629027,1610612751,203925,1627752,1628386,202066,203915,0021900431,3,1518,1531,0,2,1610612751
112,1610612737,1629629,1629631,1628981,1628989,1629027,1610612751,203925,1627752,1628386,202066,203915,0021900431,3,1546,1546,0,0,1610612737
113,1610612737,1629629,1629631,1628981,1628989,1629027,1610612751,203925,1627752,1628386,202066,203915,0021900431,3,1552,1552,0,3,1610612751
114,1610612737,1629629,1629631,1628981,1628989,1629027,1610612751,203925,1627752,1628386,202066,203915,0021900431,3,1568,1568,0,0,1610612737
115,1610612737,1629629,1629631,1628981,1628989,1629027,1610612751,203925,1627752,1628386,202066,203915,0021900431,3,1577,1577,0,2,1610612751
116,1610612737,1629629,1629631,1628981,1628989,1629027,1610612751,203925,1627752,1628386,202066,203915,0021900431,3,1577,1589,0,0,1610612737
117,1610612737,1628989,1629027,1629629,1629631,203458,1610612751,203925,1627752,1628386,202066,203915,0021900431,3,1607,1609,0,0,1610612751
118,1610612737,1628989,1629027,1629629,1629631,203458,1610612751,203925,1627752,1628386,202066,203915,0021900431,3,1613,1613,2,0,1610612737
119,1610612737,1628989,1629027,1629629,1629631,203458,1610612751,203925,1627752,1628386,202066,203915,0021900431,3,1623,1624,0,0,1610612751
120,1610612737,1628989,1629027,1629629,1629631,203458,1610612751,203925,1627752,1628386,202066,203915,0021900431,3,1631,1631,3,0,1610612737
121,1610612737,1628989,1629027,1629629,1629631,203458,1610612751,203925,1627752,1628386,202066,203915,0021900431,3,1644,1656,0,2,1610612751
122,1610612737,1628989,1629027,1629629,1629631,203458,1610612751,203925,1627752,1628386,202066,203915,0021900431,3,1666,1669,0,0,1610612737
123,1610612737,1628989,1629027,1629629,1629631,203458,1610612751,203925,1627752,1628386,202066,203915,0021900431,3,1671,1673,0,0,1610612751
124,1610612737,1628989,1629027,1629629,1629631,203458,1610612751,203925,1627752,1628386,202066,203915,0021900431,3,1685,1685,2,0,1610612737
125,1610612737,1628989,1629027,1629629,1629631,203458,1610612751,203925,1627752,1628386,202066,203915,0021900431,3,1685,1702,1,0,1610612751
126,1610612737,1628989,1629027,1629629,1629631,203458,1610612751,203925,1627752,1628386,202066,203915,0021900431,3,1703,1703,2,0,1610612737
127,1610612737,1627761,1628989,1629027,1629631,203458,1610612751,203925,1627752,1628386,202066,203915,0021900431,3,1715,1718,0,0,1610612751
128,1610612737,1627761,1628989,1629027,1629631,203458,1610612751,203925,1627752,1628386,202066,203915,0021900431,3,1724,1724,2,0,1610612737
129,1610612737,1627761,1628989,1629027,1629631,203458,1610612751,203925,1627752,1628386,202066,203915,0021900431,3,1734,1734,0,3,1610612751
130,1610612737,1627761,1628989,1629027,1629631,203458,1610612751,1627752,1627789,1628386,203915,203925,0021900431,3,1746,1758,0,0,1610612737
131,1610612737,1627761,1628989,1629027,1629631,203458,1610612751,1627752,1627789,1628386,203915,203925,0021900431,3,1769,1772,0,0,1610612751
132,1610612737,1627761,1628989,1629027,1629631,203458,1610612751,1627752,1627789,1628386,203915,203925,0021900431,3,1786,1790,0,0,1610612737
133,1610612737,1627761,1628989,1629027,1629631,203458,1610612751,1627752,1627789,1628386,203915,203925,0021900431,3,1790,1798,0,0,1610612751
134,1610612737,1627761,1628989,1629027,1629631,203458,1610612751,1627752,1627789,1628386,203915,203925,0021900431,3,1801,1812,1,0,1610612737
135,1610612737,1627761,1628981,1629027,203459,203953,1610612751,1627752,1627789,1628386,202066,203925,0021900431,3,1819,1819,0,0,1610612751
136,1610612737,1627761,1628981,1629027,203459,203953,1610612751,1627752,1627789,1628386,202066,203925,0021900431,3,1832,1837,0,0,1610612737
137,1610612737,1627761,1628981,1629027,203459,203953,1610612751,1627752,1627789,1628386,202066,203925,0021900431,3,1847,1860,0,2,1610612751
138,1610612737,1627761,1628981,1629027,203459,203953,1610612751,1627789,201163,201599,202066,203925,0021900431,3,1881,1883,0,0,1610612737
139,1610612737,1627761,1628981,1629027,203459,203953,1610612751,1627789,201163,201599,202066,203925,0021900431,3,1891,1891,0,0,1610612751
140,1610612737,1627761,1628981,1628989,203459,203953,1610612751,1627789,201163,201599,202066,203925,0021900431,3,1912,1916,0,0,1610612737
141,1610612737,1627761,1628981,1628989,203459,203953,1610612751,1627789,201163,201599,202066,203925,0021900431,3,1926,1926,0,0,1610612751
142,1610612737,1627761,1628981,1628989,203459,203953,1610612751,1627789,201163,201599,202066,203925,0021900431,3,1938,1946,0,0,1610612737
143,1610612737,1627761,1628981,1628989,203459,203953,1610612751,1627789,201163,201599,202066,203925,0021900431,3,1957,1957,0,2,1610612751
144,1610612737,1627761,1628981,1628989,203459,203953,1610612751,1627789,201163,201599,202066,203925,0021900431,3,1979,1979,0,0,1610612737
145,1610612737,1627761,1628981,1628989,203459,203953,1610612751,1627789,201163,201599,202066,203925,0021900431,3,1984,1984,0,3,1610612751
146,1610612737,1627761,1628981,1628989,203459,203953,1610612751,1627789,201163,201599,202066,203925,0021900431,3,1984,1995,2,0,1610612737
147,1610612737,1628989,1629631,203458,203459,203953,1610612751,1627789,1629066,201163,201599,202066,0021900431,3,2013,2017,0,1,1610612751
148,1610612737,1628989,1629631,203458,203459,203953,1610612751,1627789,1629066,201163,201599,202066,0021900431,3,2026,2029,0,0,1610612737
149,1610612737,1628989,1629631,203458,203459,203953,1610612751,1627789,1629066,201163,201599,202066,0021900431,3,2048,2048,0,3,1610612751
150,1610612737,1628989,1629631,203458,203459,203953,1610612751,1627789,1629066,201163,201599,202066,0021900431,3,2060,2063,0,0,1610612737
151,1610612737,1628989,1629631,203458,203459,203953,1610612751,1627789,1629066,201163,201599,202066,0021900431,3,2070,2070,0,2,1610612751
152,1610612737,1628989,1629631,203458,203459,203953,1610612751,1627789,1629066,201163,201599,202066,0021900431,3,2088,2088,3,0,1610612737
153,1610612737,1628989,1629631,203458,203459,203953,1610612751,1627789,1629066,201163,201599,202066,0021900431,3,2101,2103,0,0,1610612751
154,1610612737,1628989,1629027,1629631,203458,203953,1610612751,1627789,1629066,201163,201599,202066,0021900431,3,2120,2120,3,0,1610612737
155,1610612737,1627761,1629027,1629631,203458,203953,1610612751,1627789,1629066,201163,201599,202066,0021900431,3,2131,2137,0,0,1610612751
156,1610612737,1627761,1629027,1629631,203458,203953,1610612751,1627789,1629066,201163,201599,202066,0021900431,3,2157,2157,2,0,1610612737
157,1610612737,1627761,1629027,1629631,203458,203953,1610612751,1627789,1629066,201163,201599,202066,0021900431,3,2160,2160,0,0,1610612737
158,1610612737,1629629,1629027,1627761,203458,203953,1610612751,202066,1627789,201599,201163,1629066,0021900431,4,2160,2193,0,0,1610612751
159,1610612737,1629629,1629027,1627761,203458,203953,1610612751,202066,1627789,201599,201163,1629066,0021900431,4,2199,2207,0,0,1610612737
160,1610612737,1629629,1629027,1627761,203458,203953,1610612751,202066,1627789,201599,201163,1629066,0021900431,4,2219,2221,0,2,1610612751
161,1610612737,1629629,1629027,1627761,203458,203953,1610612751,202066,1627789,201599,201163,1629066,0021900431,4,2232,2236,0,0,1610612737
162,1610612737,1629629,1629027,1627761,203458,203953,1610612751,202066,1627789,201599,201163,1629066,0021900431,4,2250,2257,0,3,1610612751
163,1610612737,1627761,1628981,1629027,1629629,1629631,1610612751,201163,201599,202066,203915,203925,0021900431,4,2279,2282,0,0,1610612737
164,1610612737,1627761,1628981,1629027,1629629,1629631,1610612751,201163,201599,202066,203915,203925,0021900431,4,2288,2288,0,2,1610612751
165,1610612737,1627761,1628981,1629027,1629629,1629631,1610612751,201163,201599,202066,203915,203925,0021900431,4,2288,2304,0,0,1610612737
166,1610612737,1628981,1628989,1629027,1629629,1629631,1610612751,201163,201599,202066,203915,203925,0021900431,4,2312,2312,0,0,1610612751
167,1610612737,1628981,1628989,1629027,1629629,1629631,1610612751,201163,201599,202066,203915,203925,0021900431,4,2320,2322,0,0,1610612737
168,1610612737,1628981,1628989,1629027,1629629,1629631,1610612751,201163,201599,202066,203915,203925,0021900431,4,2332,2332,0,0,1610612751
169,1610612737,1628981,1628989,1629027,1629629,1629631,1610612751,201163,201599,202066,203915,203925,0021900431,4,2346,2346,0,0,1610612737
170,1610612737,1628981,1628989,1629027,1629629,1629631,1610612751,201163,201599,202066,203915,203925,0021900431,4,2353,2353,0,2,1610612751
171,1610612737,1628981,1628989,1629027,1629629,1629631,1610612751,201163,201599,202066,203915,203925,0021900431,4,2376,2376,0,0,1610612737
172,1610612737,1628981,1628989,1629027,1629629,1629631,1610612751,201163,201599,202066,203915,203925,0021900431,4,2388,2392,0,0,1610612751
173,1610612737,1628981,1628989,1629027,1629629,1629631,1610612751,201163,201599,202066,203915,203925,0021900431,4,2401,2404,0,0,1610612737
174,1610612737,1628981,1628989,1629027,1629629,1629631,1610612751,201163,201599,202066,203915,203925,0021900431,4,2415,2417,0,1,1610612751
175,1610612737,1628989,1629027,1629629,1629631,203458,1610612751,201163,201599,202066,203915,203925,0021900431,4,2430,2434,0,0,1610612737
176,1610612737,1628989,1629027,1629629,1629631,203458,1610612751,201163,201599,202066,203915,203925,0021900431,4,2442,2442,0,2,1610612751
177,1610612737,1628989,1629027,1629629,1629631,203458,1610612751,201163,201599,202066,203915,203925,0021900431,4,2453,2455,0,0,1610612737
178,1610612737,1628989,1629027,1629629,1629631,203458,1610612751,201163,201599,202066,203915,203925,0021900431,4,2465,2465,0,2,1610612751
179,1610612737,1628989,1629027,1629629,1629631,203458,1610612751,201163,201599,202066,203915,203925,0021900431,4,2478,2481,0,0,1610612737
180,1610612737,1628989,1629027,1629629,1629631,203458,1610612751,201163,201599,202066,203915,203925,0021900431,4,2482,2482,0,0,1610612751
181,1610612737,1628989,1629027,1629629,1629631,203458,1610612751,201163,201599,202066,203915,203925,0021900431,4,2484,2484,2,0,1610612737
182,1610612737,1628989,1629027,1629629,1629631,203458,1610612751,1627752,201599,202066,203915,203925,0021900431,4,2484,2496,0,2,1610612751
183,1610612737,1628989,1629027,1629629,1629631,203458,1610612751,1627752,201599,202066,203915,203925,0021900431,4,2506,2506,2,0,1610612737
184,1610612737,1628989,1629027,1629629,1629631,203458,1610612751,1627752,201599,202066,203915,203925,0021900431,4,2524,2524,0,2,1610612751
185,1610612737,1628989,1629027,1629629,1629631,203458,1610612751,1627752,201599,202066,203915,203925,0021900431,4,2545,2549,0,0,1610612737
186,1610612737,1628989,1629027,1629629,1629631,203458,1610612751,1627752,201599,202066,203915,203925,0021900431,4,2560,2560,0,2,1610612751
187,1610612737,1628989,1629027,1629629,1629631,203458,1610612751,1627752,201599,202066,203915,203925,0021900431,4,2574,2577,0,0,1610612737
188,1610612737,1628989,1629027,1629629,1629631,203458,1610612751,1627752,201599,202066,203915,203925,0021900431,4,2588,2597,0,0,1610612751
189,1610612737,1628989,1629027,1629629,1629631,203458,1610612751,1627752,201599,202066,203915,203925,0021900431,4,2606,2607,0,0,1610612737
190,1610612737,1628989,1629027,1629629,1629631,203458,1610612751,1627752,201599,202066,203915,203925,0021900431,4,2611,2611,0,3,1610612751
191,1610612737,1628989,1629027,1629629,1629631,203458,1610612751,1627752,201599,202066,203915,203925,0021900431,4,2631,2631,2,0,1610612737
192,1610612737,1628989,1629027,1629629,1629631,203458,1610612751,1627752,201599,202066,203915,203925,0021900431,4,2653,2653,0,2,1610612751
193,1610612737,1628989,1629027,1629629,1629631,203458,1610612751,1627752,201599,202066,203915,203925,0021900431,4,2655,2668,2,0,1610612737
194,1610612737,1628989,1629027,1629629,1629631,1713,1610612751,1627752,201599,202066,203915,203925,0021900431,4,2670,2685,0,0,1610612751
195,1610612737,1628989,1629027,1629629,1629631,1713,1610612751,1627752,201599,202066,203915,203925,0021900431,4,2690,2692,0,0,1610612737
196,1610612737,1628989,1629027,1629629,1629631,1713,1610612751,1627752,201599,202066,203915,203925,0021900431,4,2695,2695,0,0,1610612751
197,1610612737,1628989,1629027,1629629,1629631,1713,1610612751,1627752,201599,202066,203915,203925,0021900431,4,2702,2702,2,0,1610612737
198,1610612737,1628989,1629027,1629629,1629631,1713,1610612751,1627752,201599,202066,203915,203925,0021900431,4,2713,2713,0,3,1610612751
199,1610612737,1628989,1629027,1629629,1629631,1713,1610612751,1627752,201599,202066,203915,203925,0021900431,4,2728,2728,2,0,1610612737
200,1610612737,1628989,1629027,1629629,1629631,1713,1610612751,1627752,201599,202066,203915,203925,0021900431,4,2750,2754,0,0,1610612751
201,1610612737,1628989,1629027,1629629,1629631,1713,1610612751,1627752,201599,202066,203915,203925,0021900431,4,2760,2763,0,0,1610612737
202,1610612737,1628989,1629027,1629629,1629631,1713,1610612751,1627752,201599,202066,203915,203925,0021900431,4,2770,2770,0,0,1610612751
203,1610612737,1628989,1629027,1629629,1629631,1713,1610612751,1627752,201599,202066,203915,203925,0021900431,4,2774,2774,0,0,1610612737
204,1610612737,1628989,1629027,1629629,1629631,1713,1610612751,1627752,201599,202066,203915,203925,0021900431,4,2776,2776,0,3,1610612751
205,1610612737,1628989,1629027,1629629,1629631,1713,1610612751,1627752,201599,202066,203915,203925,0021900431,4,2782,2787,0,0,1610612737
206,1610612737,1628989,1629027,1629629,1629631,1713,1610612751,1627752,201599,202066,203915,203925,0021900431,4,2807,2807,0,2,1610612751
207,1610612737,1628989,1629027,1629629,1629631,1713,1610612751,1627752,201599,202066,203915,203925,0021900431,4,2813,2817,0,0,1610612737
208,1610612737,1628989,1629027,1629629,1629631,1713,1610612751,1627752,201599,202066,203915,203925,0021900431,4,2820,2820,0,0,1610612751
209,1610612737,1628989,1629027,1629629,1629631,1713,1610612751,1627752,201599,202066,203915,203925,0021900431,4,2824,2826,0,0,1610612737
210,1610612737,1628989,1629027,1629629,1629631,1713,1610612751,1627752,201599,202066,203915,203925,0021900431,4,2835,2835,0,0,1610612751
211,1610612737,1628989,1629027,1629629,1629631,1713,1610612751,1627752,201599,202066,203915,203925,0021900431,4,2841,2841,2,0,1610612737
212,1610612737,1628989,1629027,1629629,1629631,1713,1610612751,1627752,201599,202066,203915,203925,0021900431,4,2841,2843,0,1,1610612751
213,1610612737,1627761,1628989,1629027,1629631,1713,1610612751,1627752,201163,202066,203915,203925,0021900431,4,2847,2850,0,0,1610612737
214,1610612737,1627761,1628989,1629027,1629631,1713,1610612751,1627752,201163,202066,203915,203925,0021900431,4,2850,2850,0,2,1610612751
215,1610612737,1627761,1628989,1629027,1629631,1713,1610612751,1627752,201163,202066,203915,203925,0021900431,4,2858,2861,0,0,1610612737
216,1610612737,1627761,1628989,1629027,1629631,1713,1610612751,1627752,201163,202066,203915,203925,0021900431,4,2861,2861,0,1,1610612751
217,1610612737,1627761,1628989,1629027,1629631,1713,1610612751,1627752,1627789,1629066,201163,203925,0021900431,4,2867,2871,0,0,1610612737
