,TEAM_ID_1,TEAM_1_PLAYERS,TEAM_ID_2,TEAM_2_PLAYERS,PERIOD
0,1610612756,[1628969 1629661 1629028 1626164  201937],1610612764,[1629067 1629060 1628418 1628972  203894],1
1,1610612756,[1629661  201937  203967 1626163 1628975],1610612764,[1629010  202397 1629021 1629140 1626170],2
2,1610612756,[1628969 1629661 1629028 1626164  201937],1610612764,[1629067 1629060 1628418 1628972  203894],3
3,1610612756,[1628969 1629028  203967 1626166 1628975],1610612764,[1629010  202397 1629021 1629140 1626170],4
