,t1_points_scored,stint_end,t2_pm,t1_players,t2_id,t1_id,t2_players,t2_points_scored,t1_pm,stint_start,margin_per_100,num_poss
0,17,372,-3,"[1628970, 1629023, 203469, 1628407, 1626179]",1610612747,1610612766,"[2544, 203076, 201580, 201980, 202340]",14,3,0,10.344827586206897,29.0
1,21,486,-5,"[1628970, 1629023, 203469, 1628407, 1626179]",1610612747,1610612766,"[2544, 203076, 201580, 201980, 202340]",16,5,373,13.513513513513514,37.0
2,21,526,-2,"[101107, 1626179, 1628970, 1628984, 202687]",1610612747,1610612766,"[2544, 203076, 201580, 201980, 202340]",19,2,487,5.0,40.0
3,21,599,2,"[101107, 1626179, 1628970, 1628984, 202687]",1610612747,1610612766,"[201980, 203076, 203484, 2544, 2730]",23,-2,527,-4.545454545454546,44.0
4,25,718,5,"[101107, 1628370, 1628970, 1628984, 202687]",1610612747,1610612766,"[1626188, 201980, 203076, 203484, 2730]",30,-5,600,-9.803921568627452,51.0
5,30,792,2,"[101107, 1628370, 1628407, 1628984, 203469]",1610612747,1610612766,"[1626188, 203076, 203484, 203584, 2730]",32,-2,719,-3.508771929824561,57.0
6,32,903,7,"[1629023, 1628407, 1628984, 101107, 1628370]",1610612747,1610612766,"[2544, 2730, 203484, 203584, 201162]",39,-7,793,-10.9375,64.0
7,39,940,0,"[101107, 1626179, 1628370, 1628407, 1629023]",1610612747,1610612766,"[2544, 2730, 203484, 203584, 201162]",39,0,904,0.0,69.0
8,39,1028,4,"[101107, 1626179, 1628407, 1628970, 1629023]",1610612747,1610612766,"[2544, 2730, 203484, 203584, 201162]",43,-4,941,-5.405405405405405,74.0
9,41,1132,6,"[1626179, 1628407, 1628970, 1629023, 203469]",1610612747,1610612766,"[2544, 2730, 203484, 203584, 201162]",47,-6,1029,-7.5,80.0
10,47,1179,0,"[1628407, 1628970, 1628984, 1629023, 203469]",1610612747,1610612766,"[1626188, 201162, 201580, 202340, 203584]",47,0,1133,0.0,83.0
11,55,1306,-2,"[1628407, 1628970, 1628984, 1629023, 203469]",1610612747,1610612766,"[1626188, 201580, 201980, 202340, 203076]",53,2,1180,2.1505376344086025,93.0
12,57,1390,2,"[1628407, 1628970, 1628984, 1629023, 203469]",1610612747,1610612766,"[1626188, 201980, 202340, 203076, 2544]",59,-2,1307,-2.0202020202020203,99.0
13,62,1434,-1,"[101107, 1628407, 1628970, 1628984, 1629023]",1610612747,1610612766,"[1626188, 201980, 202340, 203076, 2544]",61,1,1391,0.9708737864077669,103.0
14,63,1536,5,"[101107, 1628370, 1628407, 1628970, 1628984]",1610612747,1610612766,"[201980, 202340, 203076, 203584, 2544]",68,-5,1435,-4.545454545454546,110.0
15,72,1781,4,"[1628970, 1629023, 1628407, 1626179, 202687]",1610612747,1610612766,"[2544, 203076, 201580, 201980, 202340]",76,-4,1537,-3.125,128.0
16,74,1864,5,"[1626179, 1628407, 1628970, 1629023, 203469]",1610612747,1610612766,"[2544, 203076, 201580, 201980, 202340]",79,-5,1782,-3.731343283582089,134.0
17,74,1906,5,"[1626179, 1628970, 1628984, 1629023, 203469]",1610612747,1610612766,"[1627936, 201980, 203076, 2544, 2730]",79,-5,1865,-3.6764705882352944,136.0
18,78,1968,3,"[1626179, 1628970, 1628984, 1629023, 203469]",1610612747,1610612766,"[1626188, 1627936, 201980, 203076, 2730]",81,-3,1907,-2.142857142857143,140.0
19,78,2013,3,"[101107, 1626179, 1628970, 1628984, 203469]",1610612747,1610612766,"[1626188, 1627936, 201980, 203076, 2730]",81,-3,1969,-2.083333333333333,144.0
20,80,2109,3,"[101107, 1626179, 1628407, 1628984, 203469]",1610612747,1610612766,"[1626188, 1627936, 203076, 203484, 2730]",83,-3,2014,-2.013422818791946,149.0
21,80,2159,7,"[101107, 1628370, 1628407, 1628984, 203469]",1610612747,1610612766,"[1626188, 1627936, 203076, 203484, 2730]",87,-7,2110,-4.57516339869281,153.0
22,80,2236,9,"[101107, 1628370, 1628407, 1628984, 1629023]",1610612747,1610612766,"[1626188, 1627936, 203076, 203484, 2730]",89,-9,2160,-5.69620253164557,158.0
23,82,2309,13,"[1629023, 1628407, 1628984, 101107, 1628370]",1610612747,1610612766,"[2544, 2730, 203484, 1626188, 1627936]",95,-13,2237,-7.926829268292683,164.0
24,82,2374,16,"[1626179, 1628370, 1628407, 1629023, 203469]",1610612747,1610612766,"[2544, 2730, 203484, 1626188, 1627936]",98,-16,2310,-9.523809523809524,168.0
25,89,2536,17,"[1626179, 1628407, 1628970, 1629023, 203469]",1610612747,1610612766,"[1626188, 202340, 203484, 2544, 2730]",106,-17,2375,-9.6045197740113,177.0
26,93,2610,16,"[1626179, 1628970, 1628984, 1629023, 203469]",1610612747,1610612766,"[1626188, 202340, 203484, 2544, 2730]",109,-16,2537,-8.83977900552486,181.0
27,96,2739,17,"[1626179, 1628407, 1628970, 1628984, 1629023]",1610612747,1610612766,"[1626188, 202340, 203076, 2544, 2730]",113,-17,2611,-8.994708994708994,189.0
28,98,2775,15,"[1626179, 1628407, 1628970, 1628984, 1629023]",1610612747,1610612766,"[1627936, 201980, 202340, 203076, 2544]",113,-15,2740,-7.894736842105263,190.0
29,98,2807,17,"[1626179, 1626195, 1628370, 1628407, 1628970]",1610612747,1610612766,"[1626188, 1627936, 1628961, 1629668, 203584]",115,-17,2776,-8.808290155440414,193.0
30,101,2878,19,"[1626179, 1626195, 1628370, 1628970, 1628998]",1610612747,1610612766,"[1626188, 1627936, 1628961, 1629668, 203584]",120,-19,2808,-9.547738693467336,199.0
31,101,9999999,19,"[1626195, 1628370, 1628970, 1628997, 1628998]",1610612747,1610612766,"[1626188, 1627936, 1628961, 1629668, 203584]",120,-19,2879,-9.5,200.0
