,TEAM_ID_1,TEAM_1_PLAYERS,TEAM_ID_2,TEAM_2_PLAYERS,PERIOD
0,1610612756,[1628969  203109 1629028 1626164  101108],1610612755,[1629680  202699  203954  203552 1630178],1
1,1610612756,[ 101108 1629661  201580  203901 1630188],1610612755,[ 202699 1627777 1627788  203083  201980],2
2,1610612756,[1628969  203109 1629028 1626164  101108],1610612755,[1629680  202699  203954  203552 1630178],3
3,1610612756,[1628969  101108 1629661  201580  203901],1610612755,[ 202699 1627777 1627788  203083  201980],4
