,stint_start,t1_points_scored,t2_pm,stint_end,t1_id,t2_points_scored,t1_players,t2_id,t1_pm,t2_players,margin_per_100,num_poss
0,0,2,11,241,1610612738,13,"[202330, 1628369, 1629057, 1627759, 202689]",1610612752,-11,"[202694, 203944, 1629011, 1629628, 203901]",-61.111111111111114,18.0
1,242,9,7,390,1610612738,16,"[202330, 1628369, 1629057, 1627759, 202689]",1610612752,-7,"[202694, 203944, 1629011, 1629628, 203901]",-24.137931034482758,29.0
2,391,11,7,499,1610612738,18,"[1627759, 1628369, 1629738, 202689, 203935]",1610612752,-7,"[202694, 203944, 1629011, 1629628, 203901]",-21.21212121212121,33.0
3,500,16,2,616,1610612738,18,"[1627759, 1628369, 1629738, 202689, 203935]",1610612752,-2,"[1626171, 1628995, 1629628, 203901, 203944]",-5.0,40.0
4,617,17,1,626,1610612738,18,"[1628369, 1628400, 1629684, 202689, 203935]",1610612752,-1,"[1626171, 1628372, 1628995, 1629019, 203944]",-2.4390243902439024,41.0
5,627,20,2,697,1610612738,22,"[1628400, 1629684, 202330, 202689, 203935]",1610612752,-2,"[1626171, 1628372, 1628995, 1629019, 201959]",-4.25531914893617,47.0
6,698,22,2,718,1610612738,24,"[1628400, 1629035, 1629684, 202330, 203935]",1610612752,-2,"[1626171, 1628372, 1628995, 1629019, 201959]",-4.081632653061225,49.0
7,719,29,-3,865,1610612738,26,"[1628369, 1629035, 1629684, 202330, 203935]",1610612752,3,"[1626171, 1628372, 1628995, 1629019, 201959]",5.0,60.0
8,866,29,-3,876,1610612738,26,"[202330, 1629057, 203935, 1629684, 1629035]",1610612752,3,"[1626171, 1628995, 1628372, 1629019, 201959]",4.918032786885246,61.0
9,877,31,-4,965,1610612738,27,"[1627759, 1629035, 1629057, 202330, 203935]",1610612752,4,"[1626171, 1628995, 1628372, 1629019, 201959]",6.0606060606060606,66.0
10,966,36,-4,1062,1610612738,32,"[1627759, 1629035, 1629057, 202330, 203935]",1610612752,4,"[1626171, 1628372, 1628995, 1629019, 202694]",5.555555555555555,72.0
11,1063,41,-6,1150,1610612738,35,"[1627759, 1629035, 1629057, 202330, 202689]",1610612752,6,"[1628995, 1629011, 1629628, 202694, 203901]",7.6923076923076925,78.0
12,1151,41,-2,1227,1610612738,39,"[1627759, 1629035, 1629684, 202330, 202689]",1610612752,2,"[1629011, 1629628, 202694, 203901, 203944]",2.4390243902439024,82.0
13,1228,43,-2,1252,1610612738,41,"[1628369, 1628400, 1629684, 202689, 203935]",1610612752,2,"[1629011, 1629628, 202694, 203901, 203944]",2.380952380952381,84.0
14,1253,46,3,1387,1610612738,49,"[1628369, 1629684, 202330, 202689, 203935]",1610612752,-3,"[1626171, 1629628, 202694, 203901, 203944]",-3.1914893617021276,94.0
15,1388,46,5,1421,1610612738,51,"[1628369, 1629057, 202330, 202689, 203935]",1610612752,-5,"[1626171, 1629628, 202694, 203901, 203944]",-5.1020408163265305,98.0
16,1422,46,5,1439,1610612738,51,"[1628369, 1629684, 202330, 202689, 203935]",1610612752,-5,"[1629628, 201959, 202694, 203901, 203944]",-5.05050505050505,99.0
17,1440,51,4,1541,1610612738,55,"[1628369, 1629684, 202330, 202689, 203935]",1610612752,-4,"[1628373, 1629628, 201959, 203901, 203944]",-3.7383177570093453,107.0
18,1542,52,3,1550,1610612738,55,"[202330, 1628369, 1629057, 1627759, 202689]",1610612752,-3,"[202694, 203944, 1629011, 1629628, 203901]",-2.7777777777777777,108.0
19,1551,63,0,1739,1610612738,63,"[202330, 1628369, 1629057, 1627759, 202689]",1610612752,0,"[1626171, 1629628, 202694, 203901, 203944]",0.0,120.0
20,1740,67,-4,1782,1610612738,63,"[1628369, 1628400, 1629057, 202330, 202689]",1610612752,4,"[1626171, 1629628, 202694, 203901, 203944]",3.225806451612903,124.0
21,1783,67,-2,1825,1610612738,65,"[1628400, 1629738, 202330, 202689, 203935]",1610612752,2,"[1626171, 1629628, 202694, 203901, 203944]",1.5873015873015872,126.0
22,1826,67,0,1836,1610612738,67,"[1628400, 1629035, 1629738, 202689, 203935]",1610612752,0,"[1626171, 1629628, 202694, 203901, 203944]",0.0,127.0
23,1837,72,-2,1876,1610612738,70,"[1628400, 1629035, 1629684, 202689, 203935]",1610612752,2,"[1626171, 1629628, 202694, 203901, 203944]",1.5384615384615385,130.0
24,1877,72,-2,1902,1610612738,70,"[1628400, 1629035, 1629684, 202689, 203935]",1610612752,2,"[1626171, 1628995, 1629628, 202694, 203901]",1.5267175572519083,131.0
25,1903,72,0,1948,1610612738,72,"[1628369, 1628400, 1629035, 1629684, 203935]",1610612752,0,"[1626171, 1628995, 1629628, 202694, 203901]",0.0,134.0
26,1949,75,-3,1977,1610612738,72,"[1627759, 1628369, 1629035, 1629684, 203935]",1610612752,3,"[1626171, 1628995, 1629628, 202694, 203901]",2.1739130434782608,138.0
27,1978,81,-5,2130,1610612738,76,"[1627759, 1628369, 1629035, 1629684, 203935]",1610612752,5,"[1626171, 1628995, 1629019, 1629628, 203901]",3.3333333333333335,150.0
28,2131,82,-6,2159,1610612738,76,"[1627759, 1628369, 1629035, 1629684, 203935]",1610612752,6,"[1626171, 1628372, 1628995, 1629019, 1629628]",3.9473684210526314,152.0
29,2160,84,-8,2192,1610612738,76,"[1628369, 1628400, 1629035, 1629684, 203935]",1610612752,8,"[1626171, 1628372, 1628995, 1629019, 1629628]",5.194805194805195,154.0
30,2193,89,-13,2258,1610612738,76,"[1628369, 1627759, 203935, 1629684, 1629035]",1610612752,13,"[202694, 1629011, 1628995, 1628372, 1629019]",8.227848101265822,158.0
31,2259,90,-9,2378,1610612738,81,"[1628369, 1627759, 203935, 1629684, 1629035]",1610612752,9,"[1628995, 1629011, 1629019, 202694, 203901]",5.454545454545454,165.0
32,2379,95,-14,2435,1610612738,81,"[1628369, 1627759, 203935, 1629684, 1629035]",1610612752,14,"[1629011, 1629019, 202694, 203901, 203944]",8.235294117647058,170.0
33,2436,100,-15,2524,1610612738,85,"[1627759, 1628369, 1629057, 202330, 202689]",1610612752,15,"[1629011, 1629628, 202694, 203901, 203944]",8.620689655172415,174.0
34,2525,105,-20,2585,1610612738,85,"[1627759, 1628369, 1629057, 202330, 202689]",1610612752,20,"[1628995, 1629011, 1629628, 203901, 203944]",11.1731843575419,179.0
35,2586,112,-25,2660,1610612738,87,"[1627759, 1628369, 1629057, 202330, 202689]",1610612752,25,"[1628995, 1629011, 1629019, 1629628, 203944]",13.586956521739129,184.0
36,2661,118,-23,2878,1610612738,95,"[1627759, 1628369, 1629057, 202330, 202689]",1610612752,23,"[1626171, 1628995, 1629019, 1629628, 203944]",11.557788944723619,199.0
37,2879,118,-23,9999999,1610612738,95,"[1628400, 1629035, 1629605, 1629750, 202954]",1610612752,23,"[1626171, 1628422, 1628995, 1629019, 1629628]",11.5,200.0
