,t1_pm,t2_pm,stint_start,t2_points_scored,t2_players,t2_id,t1_id,t1_players,stint_end,t1_points_scored,margin_per_100,num_poss
0,4,-4,0,4,"[1627759, 1629684, 202684, 203935, 202689]",1610612738,1610612752,"[203493, 203944, 1629011, 1629628, 203901]",275,8,23.52941176470588,17.0
1,4,-4,276,7,"[1627759, 1629684, 202684, 203935, 202689]",1610612738,1610612752,"[203493, 203944, 1629011, 1629628, 203901]",378,11,17.391304347826086,23.0
2,8,-8,379,7,"[1627759, 1629684, 201952, 202684, 203935]",1610612738,1610612752,"[203493, 203944, 1629011, 1629628, 203901]",436,15,30.76923076923077,26.0
3,4,-4,437,13,"[1627759, 1628400, 1628464, 201952, 203935]",1610612738,1610612752,"[203493, 203944, 1629011, 1629628, 203901]",507,17,12.903225806451612,31.0
4,5,-5,508,19,"[1627759, 1628400, 1628464, 201952, 203935]",1610612738,1610612752,"[1629628, 203085, 203457, 203901, 203944]",657,24,11.904761904761903,42.0
5,9,-9,658,19,"[1627759, 1628400, 1628464, 1630202, 201952]",1610612738,1610612752,"[1629628, 203085, 203457, 203901, 203944]",700,28,19.148936170212767,47.0
6,7,-7,701,26,"[1627759, 1628400, 1628464, 1630202, 201952]",1610612738,1610612752,"[1629628, 1630193, 203085, 203457, 203944]",938,33,11.29032258064516,62.0
7,7,-7,939,26,"[202689, 1628464, 1628400, 1630202, 1629750]",1610612738,1610612752,"[203085, 203457, 1630193, 1628995, 1630167]",976,33,10.76923076923077,65.0
8,6,-6,977,31,"[1628400, 1629750, 1630202, 202684, 202689]",1610612738,1610612752,"[203085, 203457, 1630193, 1628995, 1630167]",1120,37,8.108108108108109,74.0
9,6,-6,1121,31,"[1628400, 1629750, 1630202, 202684, 202689]",1610612738,1610612752,"[1628995, 1629011, 1630167, 1630193, 203085]",1137,37,8.0,75.0
10,8,-8,1138,31,"[1628400, 1629750, 1630202, 202684, 203935]",1610612738,1610612752,"[1628995, 1629011, 1630167, 1630193, 203085]",1194,39,10.0,80.0
11,13,-13,1195,31,"[1627759, 1628400, 1629750, 202684, 203935]",1610612738,1610612752,"[1629011, 1629628, 1630167, 1630193, 203493]",1283,44,14.942528735632186,87.0
12,13,-13,1284,33,"[1627759, 1629684, 1629750, 202684, 203935]",1610612738,1610612752,"[1629011, 1629628, 1630193, 203493, 203944]",1389,46,13.978494623655912,93.0
13,11,-11,1390,37,"[1627759, 1629684, 201952, 202684, 203935]",1610612738,1610612752,"[1629011, 1629628, 203493, 203901, 203944]",1439,48,11.34020618556701,97.0
14,16,-16,1440,37,"[1627759, 1629684, 201952, 202684, 203935]",1610612738,1610612752,"[1629628, 203457, 203493, 203901, 203944]",1493,53,15.841584158415841,101.0
15,20,-20,1494,42,"[1627759, 1629684, 202684, 203935, 202689]",1610612738,1610612752,"[203493, 203944, 1629011, 1629628, 203901]",1762,62,16.80672268907563,119.0
16,19,-19,1763,43,"[1627759, 1628464, 202684, 202689, 203935]",1610612738,1610612752,"[203493, 203944, 1629011, 1629628, 203901]",1805,62,15.573770491803279,122.0
17,19,-19,1806,48,"[1627759, 1628464, 202684, 202689, 203935]",1610612738,1610612752,"[1629628, 203457, 203493, 203901, 203944]",1929,67,14.615384615384617,130.0
18,19,-19,1930,48,"[1627759, 1628400, 1628464, 202689, 203935]",1610612738,1610612752,"[1629628, 203457, 203493, 203901, 203944]",2013,67,14.074074074074074,135.0
19,19,-19,2014,48,"[1627759, 1628400, 1628464, 1630202, 203935]",1610612738,1610612752,"[1628995, 203457, 203493, 203901, 203944]",2034,67,13.970588235294118,136.0
20,22,-22,2035,48,"[1627759, 1628400, 1628464, 1630202, 203935]",1610612738,1610612752,"[1628995, 1630193, 203457, 203493, 203944]",2046,70,16.05839416058394,137.0
21,24,-24,2047,48,"[1627759, 1628400, 1628464, 1630202, 203935]",1610612738,1610612752,"[1628995, 1630193, 203085, 203457, 203944]",2092,72,17.26618705035971,139.0
22,20,-20,2093,52,"[1628400, 1628464, 1629750, 1630174, 1630202]",1610612738,1610612752,"[1628995, 1630193, 203085, 203457, 203944]",2119,72,14.084507042253522,142.0
23,23,-23,2120,52,"[1628464, 1629684, 1629750, 1630174, 1630202]",1610612738,1610612752,"[1628995, 1630193, 203085, 203457, 203944]",2158,75,16.083916083916083,143.0
24,22,-22,2159,58,"[1629684, 1629750, 1630174, 1630202, 201952]",1610612738,1610612752,"[1628995, 1630167, 1630193, 203085, 203457]",2295,80,14.285714285714285,154.0
25,23,-23,2296,58,"[1627759, 1629684, 202684, 203935, 1630202]",1610612738,1610612752,"[203085, 203457, 1630193, 1628995, 1630167]",2341,81,14.743589743589745,156.0
26,24,-24,2342,60,"[1627759, 1629684, 202684, 203935, 1630202]",1610612738,1610612752,"[1628995, 1629011, 1630167, 1630193, 203493]",2368,84,15.18987341772152,158.0
27,26,-26,2369,61,"[1627759, 1629684, 201952, 202684, 203935]",1610612738,1610612752,"[1628995, 1629011, 1630167, 1630193, 203493]",2410,87,16.25,160.0
28,23,-23,2411,64,"[1627759, 1629684, 201952, 202684, 203935]",1610612738,1610612752,"[1628995, 1629011, 1630193, 203493, 203944]",2486,87,13.939393939393941,165.0
29,28,-28,2487,66,"[1627759, 1629684, 201952, 202684, 203935]",1610612738,1610612752,"[1629011, 1629628, 1630193, 203493, 203944]",2580,94,16.374269005847953,171.0
30,35,-35,2581,66,"[1629682, 1629684, 1629750, 1630174, 201952]",1610612738,1610612752,"[1629011, 1629628, 1630193, 203493, 203944]",2655,101,19.886363636363637,176.0
31,33,-33,2656,68,"[1628400, 1629682, 1629684, 1629750, 1630174]",1610612738,1610612752,"[1629628, 1630167, 1630193, 203457, 203493]",2668,101,18.64406779661017,177.0
32,34,-34,2669,68,"[1628400, 1629682, 1629684, 1629750, 1630174]",1610612738,1610612752,"[1628372, 1628995, 1630167, 203457, 203493]",2678,102,19.101123595505616,178.0
33,29,-29,2679,76,"[1628400, 1629682, 1629684, 1629750, 1630174]",1610612738,1610612752,"[1628372, 1628995, 1629033, 1630167, 203457]",2858,105,15.104166666666666,192.0
34,28,-28,2859,77,"[1628400, 1629682, 1629684, 1629750, 1630174]",1610612738,1610612752,"[1628372, 1629033, 1629649, 1630167, 203457]",9999999,105,14.507772020725387,193.0
