,team1_id,team1_player1,team1_player2,team1_player3,team1_player4,team1_player5,team2_id,team2_player1,team2_player2,team2_player3,team2_player4,team2_player5,game_id,period,possession_start,possession_end,team1_points,team2_points,possession_team
0,1610612762,202711,1626220,203497,204060,1628378,1610612766,201587,1628970,202687,1628984,1626179,0021900430,1,0,15,2,0,1610612762
1,1610612762,202711,1626220,203497,204060,1628378,1610612766,201587,1628970,202687,1628984,1626179,0021900430,1,32,32,0,2,1610612766
2,1610612762,202711,1626220,203497,204060,1628378,1610612766,201587,1628970,202687,1628984,1626179,0021900430,1,47,51,0,0,1610612762
3,1610612762,202711,1626220,203497,204060,1628378,1610612766,201587,1628970,202687,1628984,1626179,0021900430,1,56,60,0,0,1610612766
4,1610612762,202711,1626220,203497,204060,1628378,1610612766,201587,1628970,202687,1628984,1626179,0021900430,1,76,76,0,0,1610612762
5,1610612762,202711,1626220,203497,204060,1628378,1610612766,201587,1628970,202687,1628984,1626179,0021900430,1,97,97,0,2,1610612766
6,1610612762,202711,1626220,203497,204060,1628378,1610612766,201587,1628970,202687,1628984,1626179,0021900430,1,114,125,2,0,1610612762
7,1610612762,202711,1626220,203497,204060,1628378,1610612766,201587,1628970,202687,1628984,1626179,0021900430,1,146,149,0,0,1610612766
8,1610612762,202711,1626220,203497,204060,1628378,1610612766,201587,1628970,202687,1628984,1626179,0021900430,1,158,158,0,0,1610612762
9,1610612762,202711,1626220,203497,204060,1628378,1610612766,201587,1628970,202687,1628984,1626179,0021900430,1,166,166,0,2,1610612766
10,1610612762,202711,1626220,203497,204060,1628378,1610612766,201587,1628970,202687,1628984,1626179,0021900430,1,182,182,2,0,1610612762
11,1610612762,202711,1626220,203497,204060,1628378,1610612766,201587,1628970,202687,1628984,1626179,0021900430,1,199,199,0,2,1610612766
12,1610612762,202711,1626220,203497,204060,1628378,1610612766,201587,1628970,202687,1628984,1626179,0021900430,1,212,221,2,0,1610612762
13,1610612762,202711,1626220,203497,204060,1628378,1610612766,201587,1628970,202687,1628984,1626179,0021900430,1,230,230,0,3,1610612766
14,1610612762,202711,1626220,203497,204060,1628378,1610612766,201587,1628970,202687,1628984,1626179,0021900430,1,246,246,3,0,1610612762
15,1610612762,202711,1626220,203497,204060,1628378,1610612766,201587,1628970,202687,1628984,1626179,0021900430,1,273,276,0,0,1610612766
16,1610612762,202711,1626220,203497,204060,1628378,1610612766,201587,1628970,202687,1628984,1626179,0021900430,1,293,296,0,0,1610612762
17,1610612762,202711,1626220,203497,204060,1628378,1610612766,201587,1628970,202687,1628984,1626179,0021900430,1,309,318,0,3,1610612766
18,1610612762,202711,1626220,203497,204060,1628378,1610612766,201587,1628970,202687,1628984,1626179,0021900430,1,331,342,2,0,1610612762
19,1610612762,202711,1626220,203497,204060,1628378,1610612766,1626179,1628970,1628998,201587,202687,0021900430,1,360,360,0,3,1610612766
20,1610612762,202711,1626220,203497,204060,1628378,1610612766,1626179,1628970,1628998,201587,202687,0021900430,1,377,377,2,0,1610612762
21,1610612762,202711,1626220,203497,204060,1628378,1610612766,1626179,1628970,1628998,201587,202687,0021900430,1,388,400,0,0,1610612766
22,1610612762,1626144,1626220,202711,203497,204060,1610612766,1626179,1628970,1628998,201587,203469,0021900430,1,404,404,3,0,1610612762
23,1610612762,1626144,1626220,202711,203497,204060,1610612766,101107,1626179,1628998,201587,203469,0021900430,1,419,422,0,0,1610612766
24,1610612762,1626144,1626220,202711,203497,204060,1610612766,101107,1626179,1628998,201587,203469,0021900430,1,438,438,2,0,1610612762
25,1610612762,1626144,1626220,202711,203497,204060,1610612766,101107,1626179,1628998,201587,203469,0021900430,1,454,459,0,3,1610612766
26,1610612762,1626144,1626220,202711,203497,204060,1610612766,101107,1626179,1628998,201587,203469,0021900430,1,476,476,3,0,1610612762
27,1610612762,1626144,1626220,202711,203497,204060,1610612766,101107,1626179,1628998,201587,203469,0021900430,1,498,500,0,0,1610612766
28,1610612762,1626144,1626220,202711,203497,204060,1610612766,101107,1626179,1628998,201587,203469,0021900430,1,509,509,3,0,1610612762
29,1610612762,1626144,1626220,202711,203497,204060,1610612766,101107,1626179,1628998,201587,203469,0021900430,1,525,528,0,0,1610612766
30,1610612762,1626144,1626220,202711,203497,204060,1610612766,101107,1626179,1628998,201587,203469,0021900430,1,540,540,0,0,1610612762
31,1610612762,1626144,1626220,202711,203497,204060,1610612766,101107,1626179,1628998,201587,203469,0021900430,1,543,561,0,3,1610612766
32,1610612762,1626144,1627777,1628378,201145,202334,1610612766,101107,1628370,1628984,1628998,203469,0021900430,1,583,583,3,0,1610612762
33,1610612762,1626144,1627777,1628378,201145,202334,1610612766,101107,1628370,1628984,1628998,203469,0021900430,1,607,607,0,3,1610612766
34,1610612762,1626144,1627777,1628378,201145,202334,1610612766,101107,1628370,1628984,1628998,203469,0021900430,1,622,625,0,0,1610612762
35,1610612762,1626144,1627777,1628378,201145,202334,1610612766,101107,1628370,1628984,1628998,203469,0021900430,1,627,627,0,2,1610612766
36,1610612762,1626144,1627777,1628378,201145,202334,1610612766,101107,1628370,1628984,1628998,203469,0021900430,1,642,642,2,0,1610612762
37,1610612762,1626144,1627777,1628378,201145,202334,1610612766,101107,1628370,1628984,1628998,203469,0021900430,1,655,655,0,3,1610612766
38,1610612762,1626144,1627777,1628378,201145,202334,1610612766,101107,1628370,1628984,1628998,203469,0021900430,1,677,707,0,0,1610612762
39,1610612762,1626144,1627777,1628378,201145,202334,1610612766,101107,1628370,1628984,1628998,203469,0021900430,1,707,719,0,2,1610612766
40,1610612762,204060,1628378,202334,1627777,201145,1610612766,1628984,1628998,203469,101107,1628370,0021900430,2,720,732,0,2,1610612766
41,1610612762,1626144,1628378,201145,202334,204060,1610612766,1628984,1628998,203469,101107,1628370,0021900430,2,743,760,0,0,1610612762
42,1610612762,1626144,1628378,201145,202334,204060,1610612766,1628984,1628998,203469,101107,1628370,0021900430,2,764,767,0,0,1610612766
43,1610612762,1627777,1628378,201145,202334,204060,1610612766,1628984,1628998,203469,101107,1628370,0021900430,2,780,780,0,0,1610612762
44,1610612762,1627777,1628378,201145,202334,204060,1610612766,1628984,1628998,203469,101107,1628370,0021900430,2,783,783,0,2,1610612766
45,1610612762,1627777,1628378,201145,202334,204060,1610612766,1628984,1628998,203469,101107,1628370,0021900430,2,783,801,3,0,1610612762
46,1610612762,1627777,1628378,201145,202334,204060,1610612766,101107,1628370,1628970,1628984,202687,0021900430,2,815,830,0,0,1610612766
47,1610612762,1627777,1628378,201145,202334,204060,1610612766,101107,1628370,1628970,1628984,202687,0021900430,2,850,854,0,0,1610612762
48,1610612762,1627777,1628378,201145,202334,204060,1610612766,101107,1628370,1628970,1628984,202687,0021900430,2,860,863,0,0,1610612766
49,1610612762,1627777,1628378,201145,202334,204060,1610612766,101107,1628370,1628970,1628984,202687,0021900430,2,874,874,0,0,1610612762
50,1610612762,1627777,1628378,201145,202334,204060,1610612766,101107,1628370,1628970,1628984,202687,0021900430,2,888,888,0,3,1610612766
51,1610612762,1627777,1628378,201145,202334,204060,1610612766,101107,1628370,1628970,1628984,202687,0021900430,2,908,911,0,0,1610612762
52,1610612762,1627777,1628378,201145,202334,204060,1610612766,101107,1628370,1628970,1628984,202687,0021900430,2,918,918,0,3,1610612766
53,1610612762,1627777,1628378,201145,202334,204060,1610612766,101107,1628370,1628970,1628984,202687,0021900430,2,941,941,3,0,1610612762
54,1610612762,1627777,1628378,201145,202334,204060,1610612766,101107,1628370,1628970,1628984,202687,0021900430,2,960,960,0,0,1610612766
55,1610612762,1627777,1628378,201145,202334,204060,1610612766,101107,1628370,1628970,1628984,202687,0021900430,2,961,973,2,0,1610612762
56,1610612762,1626144,201145,202711,203497,204060,1610612766,1626179,1628370,1628970,201587,202687,0021900430,2,991,991,0,0,1610612766
57,1610612762,1626144,201145,202711,203497,204060,1610612766,1626179,1628370,1628970,201587,202687,0021900430,2,1000,1004,0,0,1610612762
58,1610612762,1626144,201145,202711,203497,204060,1610612766,1626179,1628370,1628970,201587,202687,0021900430,2,1007,1007,0,2,1610612766
59,1610612762,1626144,201145,202711,203497,204060,1610612766,1626179,1628370,1628970,201587,202687,0021900430,2,1016,1016,0,0,1610612762
60,1610612762,1626144,1626220,201145,202711,203497,1610612766,1626179,1628370,1628970,201587,202687,0021900430,2,1035,1038,0,0,1610612766
61,1610612762,1626144,1626220,201145,202711,203497,1610612766,1626179,1628370,1628970,201587,202687,0021900430,2,1045,1045,3,0,1610612762
62,1610612762,1626144,1626220,201145,202711,203497,1610612766,1626179,1628370,1628970,201587,202687,0021900430,2,1059,1059,0,2,1610612766
63,1610612762,1626144,1626220,201145,202711,203497,1610612766,1626179,1628370,1628970,201587,202687,0021900430,2,1078,1080,0,0,1610612762
64,1610612762,1626144,1626220,201145,202711,203497,1610612766,1626179,1628370,1628970,201587,202687,0021900430,2,1084,1084,0,3,1610612766
65,1610612762,1626144,1626220,201145,202711,203497,1610612766,1626179,1628370,1628970,201587,202687,0021900430,2,1099,1099,0,0,1610612762
66,1610612762,1626144,1626220,201145,202711,203497,1610612766,1626179,1628370,1628970,201587,202687,0021900430,2,1106,1115,0,0,1610612766
67,1610612762,1626144,1626220,201145,202711,203497,1610612766,1626179,1628370,1628970,201587,202687,0021900430,2,1122,1122,2,0,1610612762
68,1610612762,1626144,1626220,201145,202711,203497,1610612766,1626179,1628370,1628970,201587,202687,0021900430,2,1122,1136,0,2,1610612766
69,1610612762,1626144,1626220,1627777,202711,203497,1610612766,1626179,1628970,1628998,201587,202687,0021900430,2,1156,1156,0,0,1610612762
70,1610612762,1626144,1626220,1627777,202711,203497,1610612766,1626179,1628970,1628998,201587,202687,0021900430,2,1162,1162,0,2,1610612766
71,1610612762,1626144,1626220,1627777,202711,203497,1610612766,1626179,1628970,1628998,201587,202687,0021900430,2,1179,1179,2,0,1610612762
72,1610612762,1626220,1628378,202711,203497,204060,1610612766,1626179,1628984,1628998,201587,203469,0021900430,2,1196,1200,0,2,1610612766
73,1610612762,1626220,1628378,202711,203497,204060,1610612766,1626179,1628984,1628998,201587,203469,0021900430,2,1208,1210,0,0,1610612762
74,1610612762,1626220,1628378,202711,203497,204060,1610612766,1626179,1628984,1628998,201587,203469,0021900430,2,1217,1217,0,2,1610612766
75,1610612762,1626220,1628378,202711,203497,204060,1610612766,1626179,1628984,1628998,201587,203469,0021900430,2,1227,1231,2,0,1610612762
76,1610612762,1626220,1628378,202711,203497,204060,1610612766,101107,1626179,1628984,201587,203469,0021900430,2,1243,1246,0,0,1610612766
77,1610612762,1626220,1628378,202711,203497,204060,1610612766,101107,1626179,1628984,201587,203469,0021900430,2,1253,1256,0,0,1610612762
78,1610612762,1626220,1628378,202711,203497,204060,1610612766,101107,1626179,1628984,201587,203469,0021900430,2,1261,1265,0,0,1610612766
79,1610612762,1626220,1628378,202711,203497,204060,1610612766,101107,1626179,1628984,201587,203469,0021900430,2,1283,1283,2,0,1610612762
80,1610612762,1626220,1628378,202711,203497,204060,1610612766,101107,1626179,1628984,201587,203469,0021900430,2,1299,1299,0,0,1610612766
81,1610612762,1626220,1628378,202711,203497,204060,1610612766,101107,1626179,1628984,201587,203469,0021900430,2,1313,1313,0,0,1610612762
82,1610612762,1626220,1628378,202711,203497,204060,1610612766,101107,1626179,1628984,201587,203469,0021900430,2,1319,1319,0,2,1610612766
83,1610612762,1626220,1628378,202711,203497,204060,1610612766,101107,1626179,1628984,201587,203469,0021900430,2,1328,1328,2,0,1610612762
84,1610612762,1626220,1628378,202711,203497,204060,1610612766,101107,1626179,1628984,201587,203469,0021900430,2,1341,1341,0,0,1610612766
85,1610612762,1626220,1628378,202711,203497,204060,1610612766,101107,1626179,1628984,201587,203469,0021900430,2,1351,1351,2,0,1610612762
86,1610612762,1626220,1628378,202711,203497,204060,1610612766,101107,1626179,1628984,201587,203469,0021900430,2,1369,1375,0,2,1610612766
87,1610612762,1626220,1628378,202711,203497,204060,1610612766,101107,1626179,1628984,201587,203469,0021900430,2,1393,1395,0,0,1610612762
88,1610612762,1626220,1628378,202711,203497,204060,1610612766,101107,1626179,1628984,201587,203469,0021900430,2,1406,1406,0,2,1610612766
89,1610612762,1626220,1628378,202711,203497,204060,1610612766,101107,1626179,1628984,201587,203469,0021900430,2,1425,1425,2,0,1610612762
90,1610612762,1626220,1628378,202711,203497,204060,1610612766,101107,1626179,1628370,1628984,201587,0021900430,2,1438,1438,0,0,1610612766
91,1610612762,1626220,1628378,202711,203497,204060,1610612766,101107,1626179,1628370,1628984,201587,0021900430,2,1440,1440,0,0,1610612766
92,1610612762,202711,1626220,203497,204060,1628378,1610612766,201587,1628970,202687,1628984,1626179,0021900430,3,1440,1467,0,3,1610612766
93,1610612762,202711,1626220,203497,204060,1628378,1610612766,201587,1628970,202687,1628984,1626179,0021900430,3,1483,1483,2,0,1610612762
94,1610612762,202711,1626220,203497,204060,1628378,1610612766,201587,1628970,202687,1628984,1626179,0021900430,3,1495,1509,0,0,1610612766
95,1610612762,202711,1626220,203497,204060,1628378,1610612766,201587,1628970,202687,1628984,1626179,0021900430,3,1518,1518,0,0,1610612762
96,1610612762,202711,1626220,203497,204060,1628378,1610612766,201587,1628970,202687,1628984,1626179,0021900430,3,1539,1539,0,2,1610612766
97,1610612762,202711,1626220,203497,204060,1628378,1610612766,201587,1628970,202687,1628984,1626179,0021900430,3,1550,1564,0,1,1610612762
98,1610612762,202711,1626220,203497,204060,1628378,1610612766,201587,1628970,202687,1628984,1626179,0021900430,3,1578,1578,0,0,1610612766
99,1610612762,202711,1626220,203497,204060,1628378,1610612766,201587,1628970,202687,1628984,1626179,0021900430,3,1583,1585,3,0,1610612762
100,1610612762,202711,1626220,203497,204060,1628378,1610612766,201587,1628970,202687,1628984,1626179,0021900430,3,1587,1603,0,0,1610612766
101,1610612762,202711,1626220,203497,204060,1628378,1610612766,201587,1628970,202687,1628984,1626179,0021900430,3,1615,1618,0,0,1610612762
102,1610612762,202711,1626220,203497,204060,1628378,1610612766,201587,1628970,202687,1628984,1626179,0021900430,3,1634,1635,0,0,1610612766
103,1610612762,202711,1626220,203497,204060,1628378,1610612766,201587,1628970,202687,1628984,1626179,0021900430,3,1635,1646,3,0,1610612762
104,1610612762,202711,1626220,203497,204060,1628378,1610612766,201587,1628970,202687,1628984,1626179,0021900430,3,1673,1673,0,3,1610612766
105,1610612762,202711,1626220,203497,204060,1628378,1610612766,201587,1628970,202687,1628984,1626179,0021900430,3,1695,1697,0,0,1610612762
106,1610612762,202711,1626220,203497,204060,1628378,1610612766,201587,1628970,202687,1628984,1626179,0021900430,3,1707,1707,0,2,1610612766
107,1610612762,202711,1626220,203497,204060,1628378,1610612766,201587,1628970,202687,1628984,1626179,0021900430,3,1728,1728,3,0,1610612762
108,1610612762,202711,1626220,203497,204060,1628378,1610612766,201587,1628970,202687,1628984,1626179,0021900430,3,1756,1758,0,0,1610612766
109,1610612762,202711,1626220,203497,204060,1628378,1610612766,201587,1628970,202687,1628984,1626179,0021900430,3,1770,1770,3,0,1610612762
110,1610612762,202711,1626220,203497,204060,1628378,1610612766,201587,1628970,202687,1628984,1626179,0021900430,3,1771,1790,0,2,1610612766
111,1610612762,1626144,1626220,202711,203497,204060,1610612766,1626179,1628970,1628984,1628998,203469,0021900430,3,1807,1810,0,0,1610612762
112,1610612762,1626144,1626220,202711,203497,204060,1610612766,1626179,1628970,1628984,1628998,203469,0021900430,3,1814,1818,0,0,1610612766
113,1610612762,1626144,1626220,202711,203497,204060,1610612766,1626179,1628970,1628984,1628998,203469,0021900430,3,1821,1839,3,0,1610612762
114,1610612762,1626144,1626220,202711,203497,204060,1610612766,1626179,1628970,1628984,1628998,203469,0021900430,3,1859,1859,0,0,1610612766
115,1610612762,1626144,1626220,202711,203497,204060,1610612766,1626179,1628970,1628984,1628998,203469,0021900430,3,1864,1864,0,0,1610612762
116,1610612762,1626144,1626220,202711,203497,204060,1610612766,1626179,1628970,1628984,1628998,203469,0021900430,3,1870,1870,0,0,1610612766
117,1610612762,1626144,1626220,202711,203497,204060,1610612766,1626179,1628970,1628984,1628998,203469,0021900430,3,1871,1874,1,0,1610612762
118,1610612762,1626144,1626220,202711,203497,204060,1610612766,101107,1628370,1628984,1628998,203469,0021900430,3,1896,1899,0,0,1610612766
119,1610612762,1626144,1626220,202711,203497,204060,1610612766,101107,1628370,1628984,1628998,203469,0021900430,3,1905,1905,0,0,1610612762
120,1610612762,1626144,1626220,202711,203497,204060,1610612766,101107,1628370,1628984,1628998,203469,0021900430,3,1926,1928,0,0,1610612766
121,1610612762,1626144,1626220,202711,203497,204060,1610612766,101107,1628370,1628984,1628998,203469,0021900430,3,1945,1948,0,0,1610612762
122,1610612762,1626144,1626220,202711,203497,204060,1610612766,101107,1628370,1628984,1628998,203469,0021900430,3,1952,1952,0,2,1610612766
123,1610612762,1626144,1626220,1628378,202711,203497,1610612766,101107,1628370,1628984,1628998,203469,0021900430,3,1973,1976,0,0,1610612762
124,1610612762,1626144,1626220,1628378,202711,203497,1610612766,101107,1628370,1628984,1628998,203469,0021900430,3,1982,1986,0,0,1610612766
125,1610612762,1626144,1626220,1628378,202711,203497,1610612766,101107,1628370,1628984,1628998,203469,0021900430,3,1991,1991,3,0,1610612762
126,1610612762,1626144,1626220,1628378,202711,203497,1610612766,101107,1628370,1628984,1628998,203469,0021900430,3,2011,2011,0,3,1610612766
127,1610612762,1626144,1626220,1628378,202711,203497,1610612766,101107,1628370,1628984,1628998,203469,0021900430,3,2011,2023,0,0,1610612762
128,1610612762,1626144,1628378,1628396,201145,202711,1610612766,101107,1628370,1628984,1628998,203469,0021900430,3,2035,2035,0,0,1610612766
129,1610612762,1626144,1627777,1628378,1628396,201145,1610612766,101107,1628370,1628984,1628998,203469,0021900430,3,2046,2046,2,0,1610612762
130,1610612762,1626144,1627777,1628378,1628396,201145,1610612766,101107,1628370,1628984,1628998,203469,0021900430,3,2057,2061,0,0,1610612766
131,1610612762,1626144,1627777,1628378,1628396,201145,1610612766,101107,1628370,1628984,1628998,203469,0021900430,3,2067,2067,3,0,1610612762
132,1610612762,1626144,1627777,1628378,1628396,201145,1610612766,101107,1628370,1628984,1628998,203469,0021900430,3,2083,2083,0,2,1610612766
133,1610612762,1626144,1627777,1628378,1628396,201145,1610612766,101107,1628370,1628984,1628998,203469,0021900430,3,2088,2088,0,0,1610612762
134,1610612762,1626144,1627777,1628378,1628396,201145,1610612766,101107,1628370,1628984,1628998,203469,0021900430,3,2101,2112,0,2,1610612766
135,1610612762,1626144,1627777,1628378,1628396,201145,1610612766,101107,1628370,1628984,1628998,203469,0021900430,3,2126,2126,2,0,1610612762
136,1610612762,1626144,1627777,1628378,1628396,201145,1610612766,101107,1628370,1628984,1628998,203469,0021900430,3,2145,2145,0,0,1610612766
137,1610612762,1626144,1627777,1628378,1628396,201145,1610612766,101107,1628370,1628984,1628998,203469,0021900430,3,2158,2158,0,0,1610612762
138,1610612762,1626144,1627777,1628378,1628396,201145,1610612766,101107,1628370,1628984,1628998,203469,0021900430,3,2160,2160,0,0,1610612762
139,1610612762,204060,1628378,1626144,201145,1628396,1610612766,201587,1628970,1626179,101107,1628370,0021900430,4,2160,2172,3,0,1610612762
140,1610612762,204060,1628378,1626144,201145,1628396,1610612766,201587,1628970,1626179,101107,1628370,0021900430,4,2185,2185,0,2,1610612766
141,1610612762,1626144,1627777,1628378,201145,204060,1610612766,201587,1628970,1626179,101107,1628370,0021900430,4,2202,2202,0,0,1610612762
142,1610612762,1626144,1627777,1628378,201145,204060,1610612766,201587,1628970,1626179,101107,1628370,0021900430,4,2204,2204,0,0,1610612766
143,1610612762,1626144,1627777,1628378,201145,204060,1610612766,201587,1628970,1626179,101107,1628370,0021900430,4,2205,2205,0,0,1610612762
144,1610612762,1626144,1627777,1628378,201145,204060,1610612766,201587,1628970,1626179,101107,1628370,0021900430,4,2209,2209,0,2,1610612766
145,1610612762,1626144,1627777,1628378,201145,204060,1610612766,201587,1628970,1626179,101107,1628370,0021900430,4,2211,2237,3,0,1610612762
146,1610612762,1626144,1627777,1628378,201145,204060,1610612766,201587,1628970,1626179,101107,1628370,0021900430,4,2248,2255,0,2,1610612766
147,1610612762,1626144,1627777,1628378,201145,204060,1610612766,201587,1628970,1626179,101107,1628370,0021900430,4,2268,2279,2,0,1610612762
148,1610612762,1626144,1627777,201145,203497,204060,1610612766,201587,1628970,1626179,101107,1628370,0021900430,4,2294,2294,0,0,1610612766
149,1610612762,1626144,1627777,201145,203497,204060,1610612766,1626179,1628370,1628970,201587,202687,0021900430,4,2304,2307,0,0,1610612762
150,1610612762,1626144,1627777,201145,203497,204060,1610612766,1626179,1628370,1628970,201587,202687,0021900430,4,2311,2315,0,0,1610612766
151,1610612762,1626144,1626220,202711,203497,204060,1610612766,1626179,1628370,1628970,201587,202687,0021900430,4,2322,2322,3,0,1610612762
152,1610612762,1626144,1626220,202711,203497,204060,1610612766,1626179,1628370,1628970,201587,202687,0021900430,4,2325,2347,0,0,1610612766
153,1610612762,1626144,1626220,202711,203497,204060,1610612766,1626179,1628970,1628984,201587,202687,0021900430,4,2363,2363,2,0,1610612762
154,1610612762,1626144,1626220,202711,203497,204060,1610612766,1626179,1628970,1628984,201587,202687,0021900430,4,2373,2373,0,0,1610612766
155,1610612762,1626144,1626220,202711,203497,204060,1610612766,1626179,1628970,1628984,201587,202687,0021900430,4,2390,2390,2,0,1610612762
156,1610612762,1626144,1626220,202711,203497,204060,1610612766,1626179,1628970,1628984,201587,202687,0021900430,4,2415,2418,0,0,1610612766
157,1610612762,1626144,1626220,202711,203497,204060,1610612766,1626179,1628970,1628984,201587,202687,0021900430,4,2435,2439,0,0,1610612762
158,1610612762,1626144,1626220,202711,203497,204060,1610612766,1626179,1628970,1628984,201587,202687,0021900430,4,2446,2451,0,2,1610612766
159,1610612762,1626144,1626220,202711,203497,204060,1610612766,1626179,1628970,1628984,201587,202687,0021900430,4,2472,2472,0,0,1610612762
160,1610612762,1626144,1626220,202711,203497,204060,1610612766,1626179,1628970,1628984,201587,202687,0021900430,4,2476,2476,0,2,1610612766
161,1610612762,1626144,1626220,202711,203497,204060,1610612766,1626179,1628970,1628984,201587,202687,0021900430,4,2476,2481,0,1,1610612762
162,1610612762,1626220,1628378,202711,203497,204060,1610612766,1626179,1628970,1628984,201587,202687,0021900430,4,2495,2497,0,0,1610612766
163,1610612762,1626220,1628378,202711,203497,204060,1610612766,1626179,1628970,1628984,201587,202687,0021900430,4,2504,2504,3,0,1610612762
164,1610612762,1626220,1628378,202711,203497,204060,1610612766,1626179,1628970,1628984,201587,202687,0021900430,4,2519,2540,0,0,1610612766
165,1610612762,1626220,1628378,202711,203497,204060,1610612766,1626179,1628984,1628998,201587,203469,0021900430,4,2557,2557,3,0,1610612762
166,1610612762,1626220,1628378,202711,203497,204060,1610612766,1626179,1628984,1628998,201587,203469,0021900430,4,2573,2573,0,0,1610612766
167,1610612762,1626220,1628378,202711,203497,204060,1610612766,1626179,1628984,1628998,201587,203469,0021900430,4,2573,2585,0,0,1610612762
168,1610612762,1626220,1628378,202711,203497,204060,1610612766,101107,1626179,1628984,1628998,203469,0021900430,4,2590,2590,0,2,1610612766
169,1610612762,1626220,1628378,202711,203497,204060,1610612766,101107,1626179,1628984,1628998,203469,0021900430,4,2604,2618,0,0,1610612762
170,1610612762,1626220,1628378,202711,203497,204060,1610612766,101107,1626179,1628984,1628998,203469,0021900430,4,2638,2644,0,0,1610612766
171,1610612762,1626220,1628378,202711,203497,204060,1610612766,101107,1626179,1628984,1628998,203469,0021900430,4,2651,2666,0,0,1610612762
172,1610612762,1626220,1628378,202711,203497,204060,1610612766,101107,1626179,1628984,1628998,203469,0021900430,4,2681,2684,0,0,1610612766
173,1610612762,1626220,1628378,202711,203497,204060,1610612766,101107,1626179,1628984,1628998,203469,0021900430,4,2692,2696,0,0,1610612762
174,1610612762,1626220,1628378,202711,203497,204060,1610612766,101107,1626179,1628984,1628998,203469,0021900430,4,2696,2718,0,0,1610612766
175,1610612762,1626220,1628378,202711,203497,204060,1610612766,101107,1626179,1628984,1628998,203469,0021900430,4,2734,2734,3,0,1610612762
176,1610612762,1626220,1628378,202711,203497,204060,1610612766,101107,1626179,1628984,1628998,203469,0021900430,4,2747,2747,0,2,1610612766
177,1610612762,1626220,1628378,202711,203497,204060,1610612766,101107,1626179,1628984,1628998,203469,0021900430,4,2763,2763,0,0,1610612762
178,1610612762,1626220,1628378,202711,203497,204060,1610612766,101107,1626179,1628984,1628998,203469,0021900430,4,2781,2784,0,0,1610612766
179,1610612762,1626220,1628378,202711,203497,204060,1610612766,101107,1626179,1628984,1628998,203469,0021900430,4,2800,2803,0,0,1610612762
180,1610612762,1626220,1628378,202711,203497,204060,1610612766,101107,1626179,1628984,1628998,203469,0021900430,4,2808,2811,0,0,1610612766
181,1610612762,1626220,1628378,202711,203497,204060,1610612766,101107,1626179,1628984,1628998,203469,0021900430,4,2830,2833,0,0,1610612762
182,1610612762,1626220,1628378,202711,203497,204060,1610612766,101107,1626179,1628984,1628998,203469,0021900430,4,2843,2845,0,3,1610612766
183,1610612762,1626220,1628378,202711,203497,204060,1610612766,101107,1626179,1628984,1628998,203469,0021900430,4,2845,2853,2,0,1610612762
184,1610612762,1626220,1628378,202711,203497,204060,1610612766,101107,1626179,1628984,1628998,203469,0021900430,4,2853,2858,0,3,1610612766
185,1610612762,1626220,1628378,202711,203497,204060,1610612766,101107,1626179,1628370,1628984,203469,0021900430,4,2859,2862,2,0,1610612762
186,1610612762,1626220,1628378,202711,203497,204060,1610612766,101107,1626179,1628984,1628998,201587,0021900430,4,2866,2866,0,0,1610612766
187,1610612762,1626220,1628378,202711,203497,204060,1610612766,101107,1626179,1628984,1628998,201587,0021900430,4,2868,2868,2,0,1610612762
188,1610612762,1626220,1628378,202711,203497,204060,1610612766,101107,1626179,1628984,1628998,201587,0021900430,4,2868,2875,0,0,1610612766
