,TEAM_ID_1,TEAM_1_PLAYERS,TEAM_ID_2,TEAM_2_PLAYERS,PERIOD
0,1610612738,[ 203095 1628369  202684  203935  202689],1610612751,[201142 203925 201933 202681 201935],1
1,1610612738,[ 203095 1628369  202684  203953 1630202],1610612751,[ 203925  201935  201145 1629013 1629651],2
2,1610612738,[ 203095 1628369  202684  203935  202689],1610612751,[201142 203925 201933 202681 201935],3
3,1610612738,[1628369  202689 1630174 1629057  203953],1610612751,[ 203925  201935  201145 1629013 1629651],4
