,t1_points_scored,stint_end,t2_pm,t1_players,t2_id,t1_id,t2_players,t2_points_scored,t1_pm,stint_start,margin_per_100,num_poss
0,17,421,-5,"[203109, 1628991, 202685, 1628415, 1629630]",1610612759,1610612763,"[201942, 200746, 1626168, 1627854, 1627749]",12,5,0,17.24137931034483,29.0
1,17,439,-3,"[203109, 1628991, 202685, 1628415, 1629630]",1610612759,1610612763,"[201942, 200746, 1626168, 1627854, 1627749]",14,3,422,10.0,30.0
2,22,533,-6,"[1626145, 1628415, 1628991, 1629634, 203937]",1610612759,1610612763,"[1627749, 1627751, 200752, 201942, 201988]",16,6,440,16.216216216216218,37.0
3,24,594,-7,"[1626145, 1628991, 1629634, 1629741, 203937]",1610612759,1610612763,"[1627751, 1628401, 200752, 201942, 201988]",17,7,534,16.666666666666664,42.0
4,31,679,-12,"[1626145, 1628991, 1629634, 1629741, 203937]",1610612759,1610612763,"[1627751, 1628401, 200752, 201158, 201988]",19,12,595,24.0,50.0
5,35,718,-16,"[1626145, 1629634, 1629741, 202685, 203937]",1610612759,1610612763,"[1627751, 1628401, 200752, 201158, 201988]",19,16,680,30.18867924528302,53.0
6,37,814,-10,"[1626145, 1629741, 202685, 203524, 203937]",1610612759,1610612763,"[1627751, 1628401, 200752, 201158, 201988]",27,10,719,16.39344262295082,61.0
7,37,836,-8,"[202685, 1628415, 1629630, 203937, 203524]",1610612759,1610612763,"[201988, 1627751, 200752, 1628401, 201158]",29,8,815,12.698412698412698,63.0
8,39,915,-10,"[202685, 1628415, 1629630, 203937, 203524]",1610612759,1610612763,"[1627749, 200746, 200752, 201158, 201988]",29,10,837,14.705882352941178,68.0
9,39,947,-8,"[1628415, 1629630, 202685, 203109, 203524]",1610612759,1610612763,"[1627749, 1627854, 200746, 200752, 201158]",31,8,916,11.594202898550725,69.0
10,43,1042,-8,"[1628415, 1629630, 202685, 203109, 203524]",1610612759,1610612763,"[1627749, 1627854, 200746, 200752, 201942]",35,8,948,10.38961038961039,77.0
11,43,1093,-8,"[1628415, 1629630, 202685, 203109, 203524]",1610612759,1610612763,"[1626168, 1627749, 1627854, 200746, 201942]",35,8,1043,10.0,80.0
12,43,1132,-6,"[1626145, 1628415, 1628991, 203109, 203524]",1610612759,1610612763,"[1626168, 1627749, 1627854, 200746, 201942]",37,6,1094,7.228915662650602,83.0
13,47,1231,-5,"[1626145, 1628991, 1629634, 1629741, 203109]",1610612759,1610612763,"[1626168, 1627854, 1628401, 200746, 201942]",42,5,1133,5.555555555555555,90.0
14,49,1281,-5,"[1626145, 1628991, 1629634, 1629741, 203109]",1610612759,1610612763,"[1626168, 1628401, 200746, 201942, 201988]",44,5,1232,5.319148936170213,94.0
15,54,1410,0,"[1626145, 1628991, 1629634, 1629741, 203937]",1610612759,1610612763,"[1626168, 1628401, 200746, 201942, 201988]",54,0,1282,0.0,103.0
16,57,1439,-3,"[1626145, 1628415, 1628991, 1629634, 203937]",1610612759,1610612763,"[1628401, 200746, 200752, 201942, 201988]",54,3,1411,2.8301886792452833,106.0
17,61,1555,-4,"[1626145, 1628991, 1629634, 203109, 203937]",1610612759,1610612763,"[1628401, 200746, 200752, 201942, 201988]",57,4,1440,3.571428571428571,112.0
18,63,1634,-6,"[203109, 1628991, 202685, 1628415, 1629630]",1610612759,1610612763,"[201942, 200746, 1626168, 1627854, 1627749]",57,6,1556,5.172413793103448,116.0
19,70,1749,-8,"[203109, 1628991, 202685, 1628415, 1629630]",1610612759,1610612763,"[1626168, 1627854, 1628401, 200746, 201942]",62,8,1635,6.6115702479338845,121.0
20,77,1900,-11,"[203109, 1628991, 202685, 1628415, 1629630]",1610612759,1610612763,"[1626168, 1628401, 200746, 201942, 201988]",66,11,1750,8.333333333333332,132.0
21,91,2159,-11,"[1626145, 1628415, 1628991, 1629634, 203109]",1610612759,1610612763,"[1628401, 200746, 200752, 201942, 201988]",80,11,1901,7.333333333333333,150.0
22,91,2196,-9,"[1626145, 1628991, 1629634, 1629741, 203937]",1610612759,1610612763,"[1627749, 1627751, 200752, 201158, 201988]",82,9,2160,5.844155844155844,154.0
23,93,2219,-9,"[202685, 1628415, 1629630, 203937, 1629634]",1610612759,1610612763,"[1627854, 1627749, 1627751, 200752, 201158]",84,9,2197,5.769230769230769,156.0
24,94,2327,-2,"[1628415, 1629630, 202685, 203524, 203937]",1610612759,1610612763,"[1627854, 1627749, 1627751, 200752, 201158]",92,2,2220,1.2269938650306749,163.0
25,99,2417,-5,"[1628415, 1629630, 202685, 203524, 203937]",1610612759,1610612763,"[1627751, 1627854, 1628401, 200752, 201158]",94,5,2328,2.976190476190476,168.0
26,99,2493,0,"[1628415, 1628991, 1629630, 203109, 203524]",1610612759,1610612763,"[1627751, 1627854, 1628401, 201158, 201942]",99,0,2418,0.0,173.0
27,101,2586,3,"[1628415, 1628991, 1629630, 203109, 203524]",1610612759,1610612763,"[1627854, 1628401, 200746, 201158, 201942]",104,-3,2494,-1.6853932584269662,178.0
28,111,2865,-2,"[1628415, 1628991, 1629630, 203109, 203524]",1610612759,1610612763,"[1627854, 1628401, 200746, 200752, 201942]",109,2,2587,1.0256410256410255,195.0
29,111,2865,-2,"[1626145, 1628415, 1628991, 202685, 203109]",1610612759,1610612763,"[1627854, 1628401, 200746, 200752, 201942]",109,2,2866,1.0256410256410255,195.0
30,113,2879,-4,"[1626145, 1628415, 1628991, 203109, 203937]",1610612759,1610612763,"[1627854, 1628401, 200746, 200752, 201942]",109,4,2866,2.0202020202020203,198.0
31,113,9999999,-4,"[1628415, 1628991, 203109, 203524, 203937]",1610612759,1610612763,"[1627854, 1628401, 200746, 200752, 201942]",109,4,2880,2.0,200.0
