,stint_start,t1_points_scored,t2_pm,stint_end,t1_id,t2_points_scored,t1_players,t2_id,t1_pm,t2_players,margin_per_100,num_poss
0,0,10,4,336,1610612750,14,"[1629006, 203496, 203476, 1629633, 203952]",1610612744,-4,"[202692, 203110, 1626161, 1627814, 1626156]",-14.814814814814813,27.0
1,337,13,4,433,1610612750,17,"[1629006, 203496, 203476, 1629633, 203952]",1610612744,-4,"[202692, 203110, 1626161, 1627814, 1626156]",-12.121212121212121,33.0
2,434,15,5,569,1610612750,20,"[1629633, 201952, 203476, 203496, 203952]",1610612744,-5,"[202692, 203110, 1626161, 1627814, 1626156]",-11.363636363636363,44.0
3,570,20,2,716,1610612750,22,"[1629669, 201952, 203496, 203943, 203952]",1610612744,-2,"[1627814, 1628980, 1629672, 1629673, 203110]",-3.7735849056603774,53.0
4,717,28,1,866,1610612750,29,"[1626203, 1628966, 1629669, 201952, 203943]",1610612744,-1,"[1627737, 1628980, 1629065, 1629672, 1629673]",-1.5873015873015872,63.0
5,867,28,3,909,1610612750,31,"[201952, 203943, 1629669, 1626203, 1628966]",1610612744,-3,"[202692, 1626156, 1629672, 1627737, 1629065]",-4.615384615384616,65.0
6,910,28,5,934,1610612750,33,"[1626203, 1628966, 1629669, 203476, 203952]",1610612744,-5,"[1626156, 1626172, 1627737, 1629065, 202692]",-7.575757575757576,66.0
7,935,31,2,982,1610612750,33,"[1628966, 1629162, 1629669, 203476, 203952]",1610612744,-2,"[1626156, 1626172, 1627737, 1629065, 202692]",-2.857142857142857,70.0
8,983,31,2,1012,1610612750,33,"[1628966, 1629162, 1629669, 203476, 203952]",1610612744,-2,"[1626156, 1626161, 1626172, 1627814, 1629065]",-2.7777777777777777,72.0
9,1013,35,2,1074,1610612750,37,"[1628395, 1629162, 1629669, 203476, 203952]",1610612744,-2,"[1626156, 1626161, 1626172, 1627814, 1629065]",-2.631578947368421,76.0
10,1075,35,6,1136,1610612750,41,"[1628395, 1629006, 1629162, 203476, 203952]",1610612744,-6,"[1626156, 1626161, 1626172, 1627814, 1629065]",-7.5,80.0
11,1137,35,8,1172,1610612750,43,"[1628395, 1629006, 1629162, 203476, 203952]",1610612744,-8,"[1626161, 1626172, 1627814, 1629065, 202692]",-9.75609756097561,82.0
12,1173,37,9,1230,1610612750,46,"[1628395, 1629006, 1629162, 203496, 203952]",1610612744,-9,"[1626161, 1627814, 1629065, 202692, 203110]",-10.588235294117647,85.0
13,1231,37,12,1251,1610612750,49,"[1628395, 1629633, 201952, 203496, 203952]",1610612744,-12,"[1626161, 1629065, 1629672, 202692, 203110]",-13.953488372093023,86.0
14,1252,38,15,1301,1610612750,53,"[1629633, 201952, 203496, 203943, 203952]",1610612744,-15,"[1626161, 1629065, 1629672, 202692, 203110]",-16.483516483516482,91.0
15,1302,43,14,1423,1610612750,57,"[1629633, 201952, 203496, 203943, 203952]",1610612744,-14,"[1626156, 1626161, 1629672, 202692, 203110]",-13.861386138613863,101.0
16,1424,43,19,1563,1610612750,62,"[1628966, 1629633, 201952, 203943, 203952]",1610612744,-19,"[1626156, 1626161, 1629672, 202692, 203110]",-17.117117117117118,111.0
17,1564,43,21,1608,1610612750,64,"[203476, 1629633, 203952, 201952, 1628966]",1610612744,-21,"[202692, 203110, 1626161, 1627814, 1626156]",-18.421052631578945,114.0
18,1609,50,18,1762,1610612750,68,"[1628966, 1629006, 201952, 203476, 203952]",1610612744,-18,"[202692, 203110, 1626161, 1627814, 1626156]",-14.634146341463413,123.0
19,1763,52,18,1795,1610612750,70,"[1628966, 1629006, 201952, 203476, 203952]",1610612744,-18,"[1626156, 1626161, 1628980, 202692, 203110]",-14.399999999999999,125.0
20,1796,56,21,1892,1610612750,77,"[1629006, 1629669, 201952, 203476, 203952]",1610612744,-21,"[1626156, 1626161, 1628980, 202692, 203110]",-16.030534351145036,131.0
21,1893,56,24,1961,1610612750,80,"[1629006, 1629162, 1629669, 203943, 203952]",1610612744,-24,"[1626156, 1626161, 1628980, 1629672, 203110]",-17.391304347826086,138.0
22,1962,61,21,2040,1610612750,82,"[1629006, 1629103, 1629162, 1629669, 203943]",1610612744,-21,"[1628980, 1629016, 1629065, 1629672, 203110]",-14.482758620689657,145.0
23,2041,67,17,2157,1610612750,84,"[1626203, 1629103, 1629162, 1629669, 203943]",1610612744,-17,"[1627737, 1629016, 1629065, 1629672, 202692]",-11.03896103896104,154.0
24,2158,76,12,2299,1610612750,88,"[1626203, 1629103, 1629162, 1629669, 203943]",1610612744,-12,"[1627737, 1629016, 1629065, 1629673, 202692]",-7.317073170731707,164.0
25,2300,78,11,2399,1610612750,89,"[203476, 203952, 1626203, 1629162, 1629103]",1610612744,-11,"[202692, 1627814, 1626156, 1627737, 1626172]",-6.395348837209303,172.0
26,2400,86,6,2539,1610612750,92,"[203476, 203952, 1626203, 1629162, 1629103]",1610612744,-6,"[1626156, 1626172, 1627814, 1629065, 203110]",-3.314917127071823,181.0
27,2540,89,8,2687,1610612750,97,"[203476, 203952, 1626203, 1629162, 1629103]",1610612744,-8,"[1626156, 1626161, 1627814, 1629065, 203110]",-4.232804232804233,189.0
28,2688,99,8,2845,1610612750,107,"[203476, 203952, 1626203, 1629162, 1629103]",1610612744,-8,"[1626161, 1627814, 1629065, 202692, 203110]",-3.9603960396039604,202.0
29,2846,101,8,2857,1610612750,109,"[203476, 203952, 1626203, 1629162, 1629103]",1610612744,-8,"[1626156, 1626161, 1627814, 202692, 203110]",-3.9215686274509802,204.0
30,2858,101,8,2857,1610612750,109,"[203476, 203952, 1626203, 1629162, 1629103]",1610612744,-8,"[1626156, 1627814, 1629065, 202692, 203110]",-3.9215686274509802,204.0
31,2858,104,9,2875,1610612750,113,"[203476, 203952, 1626203, 1629162, 1629103]",1610612744,-9,"[1626156, 1626161, 1627814, 202692, 203110]",-4.326923076923077,208.0
32,2876,104,9,9999999,1610612750,113,"[203476, 203952, 1626203, 1629162, 1629103]",1610612744,-9,"[1626156, 1627814, 1629065, 202692, 203110]",-4.30622009569378,209.0
