,t1_points_scored,stint_end,t2_pm,t1_players,t2_id,t1_id,t2_players,t2_points_scored,t1_pm,stint_start,margin_per_100,num_poss
0,6,334,1,"[203109, 1628991, 202685, 1628415, 1629630]",1610612738,1610612763,"[202330, 1628369, 1628464, 203935, 202689]",7,-1,0,-4.761904761904762,21.0
1,15,488,-6,"[203109, 1628991, 202685, 1628415, 1629630]",1610612738,1610612763,"[202330, 1628369, 1628464, 203935, 202689]",9,6,335,20.0,30.0
2,17,538,-5,"[203109, 1628991, 202685, 1628415, 1629630]",1610612738,1610612763,"[1628400, 202330, 202683, 202689, 203935]",12,5,489,15.151515151515152,33.0
3,21,606,-3,"[1626145, 1628991, 1629001, 1629634, 203109]",1610612738,1610612763,"[1628400, 202330, 202683, 202954, 203935]",18,3,539,7.894736842105263,38.0
4,27,717,-2,"[1626145, 1628991, 1629001, 1629634, 203937]",1610612738,1610612763,"[1628400, 202330, 202683, 202954, 203935]",25,2,607,4.3478260869565215,46.0
5,29,836,0,"[1626145, 1628991, 1629001, 1629634, 203937]",1610612738,1610612763,"[1628369, 1628400, 202683, 202954, 203935]",29,0,718,0.0,54.0
6,33,928,2,"[202685, 1629630, 1629001, 1629634, 203937]",1610612738,1610612763,"[1628369, 202689, 202683, 1628400, 202954]",35,-2,837,-3.225806451612903,62.0
7,39,994,-4,"[1628415, 1628960, 1629630, 202685, 203524]",1610612738,1610612763,"[1628369, 202689, 202683, 1628400, 202954]",35,4,929,5.970149253731343,67.0
8,42,1069,-4,"[1628415, 1628960, 1629630, 202685, 203524]",1610612738,1610612763,"[1628369, 202330, 202683, 202689, 202954]",38,4,995,5.714285714285714,70.0
9,42,1167,2,"[1628415, 1628960, 1629630, 202685, 203524]",1610612738,1610612763,"[1628369, 1628464, 202330, 202689, 202954]",44,-2,1070,-2.631578947368421,76.0
10,42,1182,2,"[1626145, 1628415, 1628960, 1628991, 203524]",1610612738,1610612763,"[1628369, 1628464, 202330, 202689, 203935]",44,-2,1168,-2.5974025974025974,77.0
11,42,1204,4,"[1626145, 1628415, 1628960, 1628991, 203524]",1610612738,1610612763,"[1628464, 1629750, 202330, 202689, 203935]",46,-4,1183,-5.063291139240507,79.0
12,42,1249,7,"[1626145, 1628415, 1628991, 1629634, 203109]",1610612738,1610612763,"[1628464, 1629750, 202330, 202689, 203935]",49,-7,1205,-8.433734939759036,83.0
13,42,1367,11,"[1626145, 1628991, 1629001, 1629634, 203109]",1610612738,1610612763,"[1628369, 1628464, 1629750, 202330, 203935]",53,-11,1250,-11.827956989247312,93.0
14,42,1438,16,"[1628991, 1629001, 1629630, 1629634, 203109]",1610612738,1610612763,"[1628369, 1628464, 1629750, 202330, 203935]",58,-16,1368,-16.666666666666664,96.0
15,51,1719,23,"[1629001, 1629630, 1629634, 202685, 203109]",1610612738,1610612763,"[1628369, 1628464, 1629750, 202330, 202689]",74,-23,1439,-19.82758620689655,116.0
16,51,1743,25,"[203109, 1628991, 202685, 1628415, 1629630]",1610612738,1610612763,"[202330, 1628369, 1628464, 203935, 202689]",76,-25,1720,-21.1864406779661,118.0
17,54,1798,24,"[1628960, 1628991, 1629630, 202685, 203109]",1610612738,1610612763,"[202330, 1628369, 1628464, 203935, 202689]",78,-24,1744,-19.834710743801654,121.0
18,54,1848,26,"[1628960, 1628991, 1629001, 1629630, 1629634]",1610612738,1610612763,"[202330, 1628369, 1628464, 203935, 202689]",80,-26,1799,-20.967741935483872,124.0
19,54,1876,26,"[1628960, 1628991, 1629001, 1629630, 1629634]",1610612738,1610612763,"[1628369, 202330, 202683, 202689, 203935]",80,-26,1849,-20.47244094488189,127.0
20,54,1953,33,"[1626145, 1628960, 1628991, 1629001, 1629634]",1610612738,1610612763,"[1628369, 202330, 202683, 202689, 203935]",87,-33,1877,-25.0,132.0
21,56,2004,31,"[1626145, 1628960, 1628991, 1629001, 1629634]",1610612738,1610612763,"[1628400, 202330, 202683, 202689, 203935]",87,-31,1954,-22.62773722627737,137.0
22,63,2158,34,"[1626145, 1628960, 1629001, 1629634, 203524]",1610612738,1610612763,"[1628400, 202330, 202683, 202954, 203935]",97,-34,2005,-23.12925170068027,147.0
23,63,2210,36,"[1626145, 1628960, 1629001, 1629634, 203524]",1610612738,1610612763,"[1628400, 1629750, 202683, 202954, 203935]",99,-36,2159,-24.161073825503358,149.0
24,65,2274,38,"[202685, 1626145, 1629001, 203937, 203524]",1610612738,1610612763,"[202683, 202954, 1629750, 1629035, 1629684]",103,-38,2211,-24.675324675324674,154.0
25,77,2472,28,"[1626145, 1629741, 202685, 203524, 203937]",1610612738,1610612763,"[202683, 202954, 1629750, 1629035, 1629684]",105,-28,2275,-16.470588235294116,170.0
26,78,2495,27,"[1626145, 1629741, 202685, 203524, 203937]",1610612738,1610612763,"[1629035, 1629684, 1629738, 1629750, 202954]",105,-27,2473,-15.789473684210526,171.0
27,78,2581,31,"[1629001, 1629741, 202685, 203524, 203937]",1610612738,1610612763,"[1629035, 1629684, 1629738, 1629750, 202954]",109,-31,2496,-17.51412429378531,177.0
28,87,2741,28,"[1629001, 1629634, 1629741, 203524, 203937]",1610612738,1610612763,"[1629035, 1629684, 1629738, 1629750, 202954]",115,-28,2582,-14.973262032085561,187.0
29,95,2872,24,"[1628960, 1629001, 1629634, 1629741, 203524]",1610612738,1610612763,"[1629035, 1629684, 1629738, 1629750, 202954]",119,-24,2742,-12.18274111675127,197.0
30,95,9999999,24,"[1628960, 1629634, 1629741, 203524, 203937]",1610612738,1610612763,"[1629035, 1629684, 1629738, 1629750, 202954]",119,-24,2873,-12.121212121212121,198.0
