,TEAM_ID_1,TEAM_1_PLAYERS,TEAM_ID_2,TEAM_2_PLAYERS,PERIOD
0,1610612740,[1627742 1629026  202324  200755  201950],1610612766,[1628970 1629023  203469 1628407 1626179],1
1,1610612740,[1629637 1628402 1629638 1628404 1629740],1610612766,[1629023  203469 1628984 1628370 1628998],2
2,1610612740,[1627742 1629026  202324  200755  201950],1610612766,[1628970 1629023  203469 1628407 1626179],3
3,1610612740,[1627742 1629637 1628402 1628404  202734],1610612766,[1629023  203469 1628984 1628370 1628998],4
