,TEAM_ID_1,TEAM_1_PLAYERS,TEAM_ID_2,TEAM_2_PLAYERS,PERIOD
0,1610612744,[ 203952 1629308 1627737 1628539 1627814],1610612743,[ 203115  200794  203999  203914 1627750],1
1,1610612744,[ 203952 1629673 1629672 1627733 1626184],1610612743,[1627750 1628420  203924 1629008  203486],2
2,1610612744,[ 203952 1629308 1627737 1628539 1627814],1610612743,[ 203115  200794  203999  203914 1627750],3
3,1610612744,[ 203952 1629308 1629673 1627733 1626184],1610612743,[1627750 1628420  203924 1629008  203486],4
