,TEAM_ID_1,TEAM_1_PLAYERS,TEAM_ID_2,TEAM_2_PLAYERS,PERIOD
0,1610612763,[ 203109 1628991  202685 1628415 1629630],1610612752,[202694 203944 201959 203493 203901],1
1,1610612763,[1629630 1629634  203937 1629741  203524],1610612752,[1628995 1629011 1628422 1628372 1626171],2
2,1610612763,[ 203109 1628991  202685 1628415 1629630],1610612752,[202694 203944 201959 203493 203901],3
3,1610612763,[1628991 1629630  203937 1629741  203524],1610612752,[ 203944 1628995 1628372 1626171  201961],4
