,t1_points_scored,stint_end,t2_pm,t1_players,t2_id,t1_id,t2_players,t2_points_scored,t1_pm,stint_start,margin_per_100,num_poss
0,7,358,7,"[1626224, 1629645, 202684, 1629636, 1629012]",1610612752,1610612739,"[202694, 203944, 201959, 1629628, 1628373]",14,-7,0,-29.166666666666668,24.0
1,9,429,11,"[1626224, 1629645, 202684, 1629636, 1629012]",1610612752,1610612739,"[202694, 203944, 201959, 1629628, 1628373]",20,-11,359,-37.93103448275862,29.0
2,10,504,16,"[1626224, 1629012, 1629645, 202684, 203903]",1610612752,1610612739,"[202694, 203944, 201959, 1629628, 1628373]",26,-16,430,-45.714285714285715,35.0
3,15,579,13,"[1626224, 1628035, 1629012, 202684, 203903]",1610612752,1610612739,"[1628372, 1629011, 1629628, 202694, 203944]",28,-13,505,-32.5,40.0
4,15,589,14,"[1626224, 1627790, 1628035, 1629012, 203903]",1610612752,1610612739,"[1628372, 1628422, 1628995, 1629011, 203944]",29,-14,580,-34.146341463414636,41.0
5,20,716,12,"[1627790, 1628035, 1629645, 203521, 203903]",1610612752,1610612739,"[1628372, 1628422, 1628995, 1629011, 203944]",32,-12,590,-24.0,50.0
6,28,833,8,"[1627790, 1628035, 1629645, 203521, 203903]",1610612752,1610612739,"[1626171, 1628372, 1628422, 1628995, 1629011]",36,-8,717,-13.793103448275861,58.0
7,31,903,7,"[1629645, 203903, 1628035, 1627790, 203521]",1610612752,1610612739,"[1629011, 1628372, 1628422, 1628995, 1626171]",38,-7,834,-11.475409836065573,61.0
8,31,961,7,"[1629645, 203903, 1628035, 1627790, 203521]",1610612752,1610612739,"[1626171, 1628372, 1628422, 1629011, 201961]",38,-7,904,-10.9375,64.0
9,34,1050,9,"[1626224, 1629645, 202684, 203521, 203903]",1610612752,1610612739,"[1626171, 1628372, 201961, 202694, 203944]",43,-9,962,-13.043478260869565,69.0
10,34,1124,18,"[1626224, 1629636, 1629645, 202684, 203903]",1610612752,1610612739,"[1626171, 1628373, 201961, 202694, 203944]",52,-18,1051,-24.0,75.0
11,35,1179,17,"[1626224, 1629012, 1629636, 1629645, 202684]",1610612752,1610612739,"[1626171, 1628373, 201961, 202694, 203944]",52,-17,1125,-22.07792207792208,77.0
12,39,1262,15,"[1626224, 1628035, 1629012, 1629636, 202684]",1610612752,1610612739,"[1626171, 1628373, 201961, 202694, 203944]",54,-15,1180,-18.29268292682927,82.0
13,39,1303,21,"[1626224, 1628035, 1629012, 1629636, 202684]",1610612752,1610612739,"[1628373, 201959, 201961, 202694, 203944]",60,-21,1263,-24.705882352941178,85.0
14,48,1380,16,"[1626224, 1628035, 1629012, 1629636, 202684]",1610612752,1610612739,"[1628373, 1629628, 201959, 202694, 203944]",64,-16,1304,-17.77777777777778,90.0
15,51,1427,13,"[1628035, 1629012, 1629636, 202684, 203903]",1610612752,1610612739,"[1626171, 1628373, 1629628, 202694, 203944]",64,-13,1381,-14.130434782608695,92.0
16,60,1791,17,"[1628035, 1629012, 202684, 203521, 203903]",1610612752,1610612739,"[1626171, 1628373, 1629628, 202694, 203944]",77,-17,1428,-14.912280701754385,114.0
17,63,1827,17,"[1626224, 1629645, 202684, 1629636, 1629012]",1610612752,1610612739,"[202694, 203944, 201959, 1629628, 1628373]",80,-17,1792,-14.655172413793101,116.0
18,63,1848,19,"[1628035, 1629012, 1629636, 1629645, 202684]",1610612752,1610612739,"[202694, 203944, 201959, 1629628, 1628373]",82,-19,1828,-16.101694915254235,118.0
19,63,1871,21,"[1628035, 1629012, 1629636, 1629645, 202684]",1610612752,1610612739,"[1628373, 1629011, 1629628, 202694, 203944]",84,-21,1849,-17.647058823529413,119.0
20,65,1896,19,"[1628035, 1629012, 1629645, 202684, 203903]",1610612752,1610612739,"[1628373, 1629011, 1629628, 202694, 203944]",84,-19,1872,-15.702479338842975,121.0
21,65,2002,25,"[1628035, 1629012, 1629645, 202684, 203903]",1610612752,1610612739,"[1628373, 1628422, 1629011, 202694, 203944]",90,-25,1897,-19.379844961240313,129.0
22,66,2015,24,"[1627790, 1628035, 1629012, 203521, 203903]",1610612752,1610612739,"[1626171, 1628373, 1628422, 1629011, 202694]",90,-24,2003,-18.461538461538463,130.0
23,66,2033,24,"[1627790, 1628035, 1629012, 203521, 203903]",1610612752,1610612739,"[1626171, 1628372, 1628422, 1629011, 202694]",90,-24,2016,-18.3206106870229,131.0
24,71,2145,21,"[1627790, 1628035, 1629636, 203521, 203903]",1610612752,1610612739,"[1626171, 1628372, 1628422, 1629011, 202694]",92,-21,2034,-15.0,140.0
25,71,2159,23,"[1627790, 1628035, 1629636, 203521, 203903]",1610612752,1610612739,"[1626171, 1628372, 1628422, 1628995, 202694]",94,-23,2146,-16.312056737588655,141.0
26,73,2341,27,"[1627790, 1628035, 1629636, 203521, 203903]",1610612752,1610612739,"[1628372, 1628422, 1628995, 1629628, 202694]",100,-27,2160,-17.647058823529413,153.0
27,80,2433,22,"[1629636, 203903, 1628035, 1627790, 202688]",1610612752,1610612739,"[203944, 1628372, 1628422, 1628995, 1626171]",102,-22,2342,-13.750000000000002,160.0
28,80,2478,22,"[1627790, 1629636, 1629731, 202688, 203903]",1610612752,1610612739,"[203944, 1628372, 1628422, 1628995, 1626171]",102,-22,2434,-13.496932515337424,163.0
29,82,2591,25,"[1628035, 1629636, 1629645, 1629731, 202688]",1610612752,1610612739,"[1628372, 1628995, 1629011, 1629628, 203944]",107,-25,2479,-14.705882352941178,170.0
30,96,2759,20,"[1628035, 1629636, 1629645, 1629731, 202688]",1610612752,1610612739,"[1628373, 1628995, 1629011, 1629628, 202694]",116,-20,2592,-11.049723756906078,181.0
31,103,2859,20,"[1627790, 1628035, 1629645, 1629731, 202688]",1610612752,1610612739,"[1628373, 1628995, 1629011, 1629628, 202694]",123,-20,2760,-10.582010582010582,189.0
32,105,9999999,18,"[1627790, 1628035, 1629645, 1629731, 202688]",1610612752,1610612739,"[1626171, 1628372, 1628422, 1628995, 201961]",123,-18,2860,-9.473684210526317,190.0
