,TEAM_ID_1,TEAM_1_PLAYERS,TEAM_ID_2,TEAM_2_PLAYERS,PERIOD
0,1610612750,[1630162 1630183 1626157 1626156  201976],1610612763,[1630217 1628991  203500 1629001 1629630],1
1,1610612750,[1626156 1627736 1629020 1629675 1627752],1610612763,[1630217 1629634 1626145 1630214 1629723],2
2,1610612750,[1630162 1630183 1626157 1626156  201976],1610612763,[1630217 1628991  203500 1629001 1629630],3
3,1610612750,[1630162  201976 1627736 1629675 1629006],1610612763,[1630217 1628991 1626145 1630214 1629723],4
4,1610612750,[1630162 1630183 1626157 1626156 1627736],1610612763,[1630217 1628991 1629001 1629630  203937],5
