,team1_id,team1_player1,team1_player2,team1_player3,team1_player4,team1_player5,team2_id,team2_player1,team2_player2,team2_player3,team2_player4,team2_player5,game_id,period,possession_start,possession_end,team1_points,team2_points,possession_team
0,1610612748,202357,2772,1628389,1629130,1629134,1610612749,203114,203507,201572,1628978,201950,0022001062,1,0,21,0,0,1610612749
1,1610612748,202357,2772,1628389,1629130,1629134,1610612749,203114,203507,201572,1628978,201950,0022001062,1,28,31,0,0,1610612748
2,1610612748,202357,2772,1628389,1629130,1629134,1610612749,203114,203507,201572,1628978,201950,0022001062,1,32,32,0,2,1610612749
3,1610612748,202357,2772,1628389,1629130,1629134,1610612749,203114,203507,201572,1628978,201950,0022001062,1,53,53,3,0,1610612748
4,1610612748,202357,2772,1628389,1629130,1629134,1610612749,203114,203507,201572,1628978,201950,0022001062,1,64,64,0,3,1610612749
5,1610612748,202357,2772,1628389,1629130,1629134,1610612749,203114,203507,201572,1628978,201950,0022001062,1,81,85,0,0,1610612748
6,1610612748,202357,2772,1628389,1629130,1629134,1610612749,203114,203507,201572,1628978,201950,0022001062,1,94,94,0,0,1610612749
7,1610612748,202357,2772,1628389,1629130,1629134,1610612749,203114,203507,201572,1628978,201950,0022001062,1,98,104,3,0,1610612748
8,1610612748,202357,2772,1628389,1629130,1629134,1610612749,203114,203507,201572,1628978,201950,0022001062,1,119,120,0,2,1610612749
9,1610612748,202357,2772,1628389,1629130,1629134,1610612749,203114,203507,201572,1628978,201950,0022001062,1,129,132,0,0,1610612748
10,1610612748,202357,2772,1628389,1629130,1629134,1610612749,203114,203507,201572,1628978,201950,0022001062,1,137,137,0,3,1610612749
11,1610612748,202357,2772,1628389,1629130,1629134,1610612749,203114,203507,201572,1628978,201950,0022001062,1,152,156,0,0,1610612748
12,1610612748,202357,2772,1628389,1629130,1629134,1610612749,203114,203507,201572,1628978,201950,0022001062,1,161,164,0,0,1610612749
13,1610612748,202357,2772,1628389,1629130,1629134,1610612749,203114,203507,201572,1628978,201950,0022001062,1,171,172,0,0,1610612748
14,1610612748,202357,2772,1628389,1629130,1629134,1610612749,203114,203507,201572,1628978,201950,0022001062,1,187,187,0,2,1610612749
15,1610612748,202357,2772,1628389,1629130,1629134,1610612749,203114,203507,201572,1628978,201950,0022001062,1,199,203,0,0,1610612748
16,1610612748,202357,2772,1628389,1629130,1629134,1610612749,203114,203507,201572,1628978,201950,0022001062,1,211,220,0,2,1610612749
17,1610612748,202357,2772,1628389,1629130,1629134,1610612749,203114,203507,201572,1628978,201950,0022001062,1,238,245,3,0,1610612748
18,1610612748,202357,2772,1628389,1629130,1629134,1610612749,203114,203507,201572,1628978,201950,0022001062,1,257,259,0,1,1610612749
19,1610612748,202357,2772,1628389,1629130,1629134,1610612749,1627854,1628978,201572,203114,203507,0022001062,1,274,274,0,0,1610612748
20,1610612748,202357,2772,1628389,1629130,1629134,1610612749,1627854,1628978,201572,203114,203507,0022001062,1,290,290,0,3,1610612749
21,1610612748,202357,2772,1628389,1629130,1629134,1610612749,1627854,1628978,201572,203114,203507,0022001062,1,301,301,2,0,1610612748
22,1610612748,202357,2772,1628389,1629130,1629134,1610612749,1627854,1628978,201572,203114,203507,0022001062,1,312,312,0,2,1610612749
23,1610612748,202357,2772,1628389,1629130,1629134,1610612749,1627854,1628978,201572,203114,203507,0022001062,1,313,332,0,0,1610612748
24,1610612748,202357,2772,1628389,1629130,1629134,1610612749,1627854,1628978,201572,203114,203507,0022001062,1,348,348,0,0,1610612749
25,1610612748,202357,2772,1628389,1629130,1629134,1610612749,1627854,1628978,201572,203114,203507,0022001062,1,358,358,3,0,1610612748
26,1610612748,202357,2772,1628389,1629130,1629134,1610612749,1627854,1628978,201572,203114,203507,0022001062,1,373,373,0,2,1610612749
27,1610612748,1628389,1629130,201609,202357,2772,1610612749,1626171,1627854,200782,201950,203114,0022001062,1,391,391,2,0,1610612748
28,1610612748,1628389,1629130,201609,202357,2772,1610612749,1626171,1627854,200782,201950,203114,0022001062,1,414,414,0,2,1610612749
29,1610612748,1628389,1629130,201609,202357,2772,1610612749,1626171,1627854,200782,201950,203114,0022001062,1,419,419,2,0,1610612748
30,1610612748,1629130,201609,202357,203473,2772,1610612749,1626171,1627854,200782,201950,203114,0022001062,1,434,434,0,2,1610612749
31,1610612748,1629130,201609,202357,203473,2772,1610612749,1626171,1627854,200782,201950,203114,0022001062,1,447,463,0,0,1610612748
32,1610612748,1629130,201609,203473,2738,2772,1610612749,1626171,1627854,200782,201950,203114,0022001062,1,473,473,0,2,1610612749
33,1610612748,1629130,201609,203473,2738,2772,1610612749,1626171,1627854,200782,201950,203114,0022001062,1,473,497,0,0,1610612748
34,1610612748,1629639,201609,203473,2738,2772,1610612749,1626171,1626192,1627854,200782,201950,0022001062,1,504,504,0,2,1610612749
35,1610612748,1629639,201609,203473,2738,2772,1610612749,1626171,1626192,1627854,200782,201950,0022001062,1,527,531,2,0,1610612748
36,1610612748,1629639,201609,203473,2738,2772,1610612749,1626171,1626192,1627854,200782,201950,0022001062,1,539,539,0,3,1610612749
37,1610612748,1629639,201609,203473,2738,2772,1610612749,1626171,1626192,1627854,200782,201950,0022001062,1,539,554,3,0,1610612748
38,1610612748,1629134,1629639,201609,203473,2738,1610612749,1626171,1626192,1627854,200782,201950,0022001062,1,567,570,0,0,1610612749
39,1610612748,1629134,1629639,201609,203473,2738,1610612749,1626171,1626192,1627854,200782,201950,0022001062,1,577,577,0,0,1610612748
40,1610612748,1629134,1629639,201609,203473,2738,1610612749,1626171,1626192,1627854,200782,201950,0022001062,1,587,587,0,2,1610612749
41,1610612748,1629134,1629639,201609,203473,2738,1610612749,1626171,1626192,1627854,200782,201950,0022001062,1,607,607,0,0,1610612748
42,1610612748,1629134,1629639,201609,203473,2738,1610612749,1626171,1626192,1627854,200782,201950,0022001062,1,607,607,0,2,1610612749
43,1610612748,1628389,1629134,1629639,201609,2738,1610612749,1626171,1626192,200782,201950,203507,0022001062,1,614,614,0,0,1610612748
44,1610612748,1628389,1629134,1629639,201609,2738,1610612749,1626171,1626192,200782,201950,203507,0022001062,1,637,637,0,2,1610612749
45,1610612748,1628389,1629134,1629639,201609,2738,1610612749,1626171,1626192,200782,201950,203507,0022001062,1,648,648,2,0,1610612748
46,1610612748,1628389,1629134,1629639,201609,2738,1610612749,1626171,1626192,200782,201950,203507,0022001062,1,657,658,0,3,1610612749
47,1610612748,1628389,1629134,1629639,201609,2738,1610612749,1626171,1626192,200782,201950,203507,0022001062,1,667,673,3,0,1610612748
48,1610612748,1628389,1629134,1629639,201609,2738,1610612749,1626171,1626192,200782,201950,203507,0022001062,1,685,688,0,0,1610612749
49,1610612748,1628389,1629134,1629639,201609,2738,1610612749,1626171,1626192,200782,201950,203507,0022001062,1,696,699,0,0,1610612748
50,1610612748,1628389,1629134,1629639,201609,2738,1610612749,1626171,1626192,200782,201950,203507,0022001062,1,719,719,0,2,1610612749
51,1610612748,1628389,1629134,201609,2738,1629639,1610612749,203114,203507,1628978,200782,1626171,0022001062,2,720,759,0,0,1610612748
52,1610612748,1628389,1629134,201609,2738,1629639,1610612749,203114,203507,1628978,200782,1626171,0022001062,2,767,767,0,3,1610612749
53,1610612748,1628389,1629134,201609,2738,1629639,1610612749,203114,203507,1628978,200782,1626171,0022001062,2,784,784,0,0,1610612748
54,1610612748,1628389,1629134,201609,2738,1629639,1610612749,203114,203507,1628978,200782,1626171,0022001062,2,788,788,0,2,1610612749
55,1610612748,1628389,1629134,201609,2738,1629639,1610612749,203114,203507,1628978,200782,1626171,0022001062,2,808,811,0,0,1610612748
56,1610612748,1628389,1629134,201609,2738,1629639,1610612749,203114,203507,1628978,200782,1626171,0022001062,2,819,821,0,0,1610612749
57,1610612748,1628389,1629134,201609,2738,1629639,1610612749,203114,203507,1628978,200782,1626171,0022001062,2,824,824,3,0,1610612748
58,1610612748,1628389,1629134,201609,2738,1629639,1610612749,203114,203507,1628978,200782,1626171,0022001062,2,837,837,0,2,1610612749
59,1610612748,1628389,1629134,201609,2738,1629639,1610612749,203114,203507,1628978,200782,1626171,0022001062,2,846,846,0,0,1610612748
60,1610612748,1628389,1629134,201609,2738,1629639,1610612749,203114,203507,1628978,200782,1626171,0022001062,2,869,869,0,2,1610612749
61,1610612748,1628389,1629134,201609,2738,1629639,1610612749,203114,203507,1628978,200782,1626171,0022001062,2,885,885,0,0,1610612748
62,1610612748,1628389,1629130,1629134,1629639,2738,1610612749,203114,203507,1628978,200782,1626171,0022001062,2,898,899,0,0,1610612749
63,1610612748,1628389,1629130,1629134,1629639,2772,1610612749,203114,203507,1628978,200782,1626171,0022001062,2,917,919,0,0,1610612748
64,1610612748,1628389,1629130,1629134,1629639,2772,1610612749,203114,203507,1628978,200782,1626171,0022001062,2,926,926,0,0,1610612749
65,1610612748,1628389,1629130,1629134,1629639,2772,1610612749,1628978,200782,201572,203114,203507,0022001062,2,937,937,2,0,1610612748
66,1610612748,1628389,1629130,1629134,1629639,2772,1610612749,1628978,200782,201572,203114,203507,0022001062,2,950,950,0,2,1610612749
67,1610612748,1628389,1629130,1629134,1629639,2772,1610612749,1628978,200782,201572,203114,203507,0022001062,2,961,961,3,0,1610612748
68,1610612748,1628389,1629130,1629134,1629639,2772,1610612749,1628978,200782,201572,203114,203507,0022001062,2,976,976,0,2,1610612749
69,1610612748,1628389,1629130,1629134,1629639,2772,1610612749,1628978,200782,201572,203114,203507,0022001062,2,990,991,0,0,1610612748
70,1610612748,1628389,1629130,1629134,1629639,2772,1610612749,1628978,200782,201572,203114,203507,0022001062,2,996,1002,0,0,1610612749
71,1610612748,1629130,1629134,1629639,203473,2772,1610612749,1626192,1628978,201572,201950,203114,0022001062,2,1015,1017,0,0,1610612748
72,1610612748,1629130,1629134,1629639,203473,2772,1610612749,1626192,1628978,201572,201950,203114,0022001062,2,1024,1026,0,0,1610612749
73,1610612748,1629130,1629134,1629639,203473,2772,1610612749,1626192,1628978,201572,201950,203114,0022001062,2,1035,1035,0,0,1610612748
74,1610612748,1629130,1629134,1629639,203473,2772,1610612749,1626192,1628978,201572,201950,203114,0022001062,2,1037,1043,0,0,1610612749
75,1610612748,1629130,1629134,201609,203473,2772,1610612749,1626192,1628978,201572,201950,203114,0022001062,2,1049,1049,3,0,1610612748
76,1610612748,1629130,1629134,201609,203473,2772,1610612749,1626192,1628978,201572,201950,203114,0022001062,2,1058,1064,0,0,1610612749
77,1610612748,1629130,1629134,201609,203473,2772,1610612749,1626192,1628978,201572,201950,203114,0022001062,2,1080,1084,0,0,1610612748
78,1610612748,1629130,1629134,201609,203473,2772,1610612749,1626192,1628978,201572,201950,203114,0022001062,2,1091,1091,0,2,1610612749
79,1610612748,1629130,1629134,201609,203473,2772,1610612749,1626192,1628978,201572,201950,203114,0022001062,2,1108,1111,0,0,1610612748
80,1610612748,1629130,1629134,201609,203473,2772,1610612749,1626192,1628978,201572,201950,203114,0022001062,2,1123,1123,0,2,1610612749
81,1610612748,1629130,1629134,201609,203473,2772,1610612749,1626192,1628978,201572,201950,203114,0022001062,2,1137,1141,0,0,1610612748
82,1610612748,1629130,1629134,201609,203473,2772,1610612749,1626192,1628978,201572,201950,203114,0022001062,2,1146,1146,0,2,1610612749
83,1610612748,1629130,1629134,201609,203473,2772,1610612749,1626192,1628978,201572,201950,203114,0022001062,2,1163,1178,2,0,1610612748
84,1610612748,1628389,1629130,1629134,201609,2772,1610612749,1626192,1627854,201572,201950,203114,0022001062,2,1194,1199,0,0,1610612749
85,1610612748,1628389,1629130,1629134,201609,2772,1610612749,1626192,1627854,201572,201950,203114,0022001062,2,1203,1203,3,0,1610612748
86,1610612748,1628389,1629130,1629134,201609,2772,1610612749,1626192,1627854,201572,201950,203114,0022001062,2,1222,1222,0,0,1610612749
87,1610612748,1628389,1629130,1629134,201609,2772,1610612749,1626192,1627854,201572,201950,203114,0022001062,2,1224,1224,2,0,1610612748
88,1610612748,1628389,1629130,1629134,201609,2772,1610612749,1626192,1627854,201572,201950,203114,0022001062,2,1224,1235,0,2,1610612749
89,1610612748,1628389,1629130,1629134,201609,2772,1610612749,1626192,1627854,201572,201950,203507,0022001062,2,1252,1262,0,0,1610612748
90,1610612748,1628389,1629130,1629134,201609,2772,1610612749,1626192,1627854,201572,201950,203507,0022001062,2,1270,1270,0,2,1610612749
91,1610612748,1628389,1629130,1629134,201609,2772,1610612749,1626192,1627854,201572,201950,203507,0022001062,2,1283,1286,0,0,1610612748
92,1610612748,1628389,1629130,1629134,201609,2772,1610612749,1626192,1627854,201572,201950,203507,0022001062,2,1289,1300,0,0,1610612749
93,1610612748,1628389,1629130,1629134,201609,2772,1610612749,1627854,200782,201572,201950,203507,0022001062,2,1310,1310,3,0,1610612748
94,1610612748,1628389,1629130,1629134,201609,2772,1610612749,1627854,200782,201572,201950,203507,0022001062,2,1325,1325,0,0,1610612749
95,1610612748,1628389,1629130,1629134,201609,2772,1610612749,1627854,200782,201572,201950,203507,0022001062,2,1331,1335,0,0,1610612748
96,1610612748,1628389,1629130,1629134,201609,2772,1610612749,1627854,200782,201572,201950,203507,0022001062,2,1340,1343,0,2,1610612749
97,1610612748,1628389,1629130,1629134,201609,2772,1610612749,1627854,200782,201572,201950,203507,0022001062,2,1359,1368,0,0,1610612748
98,1610612748,1628389,1629130,1629134,201609,2772,1610612749,1627854,200782,201572,201950,203507,0022001062,2,1379,1379,0,1,1610612749
99,1610612748,1628389,1629130,1629134,201609,2738,1610612749,1626192,1627854,200782,201950,203507,0022001062,2,1395,1395,2,0,1610612748
100,1610612748,1628389,1629130,1629134,201609,2738,1610612749,1626192,1627854,200782,201950,203507,0022001062,2,1410,1413,0,0,1610612749
101,1610612748,1628389,1629130,1629134,201609,2738,1610612749,1626192,1627854,200782,201950,203507,0022001062,2,1422,1425,0,0,1610612748
102,1610612748,1628389,1629130,1629134,201609,2738,1610612749,1626192,1627854,200782,201950,203507,0022001062,2,1440,1440,0,0,1610612749
103,1610612748,202357,2772,1628389,1629130,1629134,1610612749,203114,203507,201572,1628978,201950,0022001062,3,1440,1454,3,0,1610612748
104,1610612748,202357,2772,1628389,1629130,1629134,1610612749,203114,203507,201572,1628978,201950,0022001062,3,1479,1481,0,0,1610612749
105,1610612748,202357,2772,1628389,1629130,1629134,1610612749,203114,203507,201572,1628978,201950,0022001062,3,1493,1496,0,0,1610612748
106,1610612748,202357,2772,1628389,1629130,1629134,1610612749,203114,203507,201572,1628978,201950,0022001062,3,1506,1506,0,0,1610612749
107,1610612748,202357,2772,1628389,1629130,1629134,1610612749,203114,203507,201572,1628978,201950,0022001062,3,1513,1513,3,0,1610612748
108,1610612748,202357,2772,1628389,1629130,1629134,1610612749,203114,203507,201572,1628978,201950,0022001062,3,1532,1532,0,3,1610612749
109,1610612748,202357,2772,1628389,1629130,1629134,1610612749,203114,203507,201572,1628978,201950,0022001062,3,1546,1546,2,0,1610612748
110,1610612748,202357,2772,1628389,1629130,1629134,1610612749,203114,203507,201572,1628978,201950,0022001062,3,1546,1570,1,0,1610612749
111,1610612748,202357,2772,1628389,1629130,1629134,1610612749,203114,203507,201572,1628978,201950,0022001062,3,1575,1575,3,0,1610612748
112,1610612748,202357,2772,1628389,1629130,1629134,1610612749,203114,203507,201572,1628978,201950,0022001062,3,1583,1583,0,3,1610612749
113,1610612748,202357,2772,1628389,1629130,1629134,1610612749,203114,203507,201572,1628978,201950,0022001062,3,1595,1595,0,0,1610612748
114,1610612748,202357,2772,1628389,1629130,1629134,1610612749,203114,203507,201572,1628978,201950,0022001062,3,1604,1604,0,2,1610612749
115,1610612748,202357,2772,1628389,1629130,1629134,1610612749,203114,203507,201572,1628978,201950,0022001062,3,1611,1611,0,0,1610612748
116,1610612748,202357,2772,1628389,1629130,1629134,1610612749,203114,203507,201572,1628978,201950,0022001062,3,1623,1623,0,2,1610612749
117,1610612748,202357,2772,1628389,1629130,1629134,1610612749,203114,203507,201572,1628978,201950,0022001062,3,1623,1636,0,0,1610612748
118,1610612748,202357,2772,1628389,1629130,1629134,1610612749,203114,203507,201572,1628978,201950,0022001062,3,1646,1650,0,0,1610612749
119,1610612748,202357,2772,1628389,1629130,1629134,1610612749,203114,203507,201572,1628978,201950,0022001062,3,1656,1683,0,0,1610612748
120,1610612748,202357,2772,1628389,1629130,1629134,1610612749,203114,203507,201572,1628978,201950,0022001062,3,1695,1695,0,0,1610612749
121,1610612748,202357,2772,1628389,1629130,1629134,1610612749,203114,203507,201572,1628978,201950,0022001062,3,1698,1698,2,0,1610612748
122,1610612748,202357,2772,1628389,1629130,1629134,1610612749,203114,203507,201572,1628978,201950,0022001062,3,1698,1716,0,0,1610612749
123,1610612748,202357,2772,1628389,1629130,1629134,1610612749,203114,203507,201572,1628978,201950,0022001062,3,1716,1727,2,0,1610612748
124,1610612748,202357,2772,1628389,1629130,1629134,1610612749,1627854,1628978,200782,201572,203114,0022001062,3,1744,1744,0,3,1610612749
125,1610612748,202357,2772,1628389,1629130,1629134,1610612749,1627854,1628978,200782,201572,203114,0022001062,3,1756,1760,0,0,1610612748
126,1610612748,202357,2772,1628389,1629130,1629134,1610612749,1627854,1628978,200782,201572,203114,0022001062,3,1766,1769,0,0,1610612749
127,1610612748,202357,2772,1628389,1629130,1629134,1610612749,1627854,1628978,200782,201572,203114,0022001062,3,1785,1788,0,0,1610612748
128,1610612748,202357,2772,1628389,1629130,1629134,1610612749,1627854,1628978,200782,201572,203114,0022001062,3,1793,1793,0,3,1610612749
129,1610612748,202357,2772,1628389,1629130,1629134,1610612749,1627854,1628978,200782,201572,203114,0022001062,3,1814,1814,3,0,1610612748
130,1610612748,202357,2772,1628389,1629130,1629134,1610612749,1627854,1628978,200782,201572,203114,0022001062,3,1825,1825,0,0,1610612749
131,1610612748,202357,2772,1628389,1629130,1629134,1610612749,1626171,1627854,200782,201950,203114,0022001062,3,1840,1843,2,0,1610612748
132,1610612748,202357,2772,1628389,1629130,1629134,1610612749,1626171,1627854,200782,201950,203114,0022001062,3,1859,1862,0,0,1610612749
133,1610612748,202357,2772,1628389,1629130,1629134,1610612749,1626171,1627854,200782,201950,203114,0022001062,3,1872,1872,2,0,1610612748
134,1610612748,202357,2772,1628389,1629130,1629134,1610612749,1626171,1627854,200782,201950,203114,0022001062,3,1878,1904,0,0,1610612749
135,1610612748,1628389,1629130,201609,202357,2738,1610612749,1626171,1627854,200782,201950,203507,0022001062,3,1910,1913,0,0,1610612748
136,1610612748,1628389,1629130,201609,202357,2738,1610612749,1626171,1627854,200782,201950,203507,0022001062,3,1919,1932,0,2,1610612749
137,1610612748,1628389,1629130,201609,202357,2738,1610612749,1626171,1627854,200782,201950,203507,0022001062,3,1951,1951,0,0,1610612748
138,1610612748,1628389,1629130,201609,202357,2738,1610612749,1626171,1627854,200782,201950,203507,0022001062,3,1952,1952,0,2,1610612749
139,1610612748,1628389,1629130,201609,202357,2738,1610612749,1626171,1627854,200782,201950,203507,0022001062,3,1964,1971,3,0,1610612748
140,1610612748,1628389,1629130,201609,202357,2738,1610612749,1626171,1627854,200782,201950,203507,0022001062,3,1993,1998,0,1,1610612749
141,1610612748,1629639,201609,202357,203473,2738,1610612749,1626171,1626192,200782,201950,203507,0022001062,3,2008,2014,0,0,1610612748
142,1610612748,1629639,201609,202357,203473,2738,1610612749,1626171,1626192,200782,201950,203507,0022001062,3,2027,2027,0,3,1610612749
143,1610612748,1629639,201609,202357,203473,2738,1610612749,1626171,1626192,200782,201950,203507,0022001062,3,2044,2044,3,0,1610612748
144,1610612748,1629639,201609,202357,203473,2738,1610612749,1626171,1626192,200782,201950,203507,0022001062,3,2061,2061,0,3,1610612749
145,1610612748,1629639,201609,202357,203473,2738,1610612749,1626171,1626192,200782,201950,203507,0022001062,3,2082,2085,0,0,1610612748
146,1610612748,1629639,201609,202357,203473,2738,1610612749,1626171,1626192,200782,201950,203507,0022001062,3,2089,2089,0,0,1610612749
147,1610612748,1629134,1629639,201609,203473,2738,1610612749,1626171,1626192,200782,201950,203507,0022001062,3,2106,2106,1,0,1610612748
148,1610612748,1629134,1629639,201609,203473,2738,1610612749,1626171,1626192,200782,201950,203507,0022001062,3,2118,2121,0,0,1610612749
149,1610612748,1629134,1629639,201609,203473,2738,1610612749,1626171,1626192,200782,201950,203507,0022001062,3,2125,2128,0,0,1610612748
150,1610612748,1629134,1629639,201609,203473,2738,1610612749,1626171,1626192,200782,201950,203507,0022001062,3,2143,2143,0,2,1610612749
151,1610612748,1629134,1629639,201609,203473,2738,1610612749,1626171,1626192,200782,201950,203507,0022001062,3,2160,2160,0,0,1610612749
152,1610612748,1629134,201609,203473,2738,1629639,1610612749,203114,1628978,200782,1626171,1626192,0022001062,4,2160,2179,0,2,1610612749
153,1610612748,1629134,201609,203473,2738,1629639,1610612749,203114,1628978,200782,1626171,1626192,0022001062,4,2192,2195,0,0,1610612748
154,1610612748,1629134,201609,203473,2738,1629639,1610612749,203114,1628978,200782,1626171,1626192,0022001062,4,2200,2204,0,0,1610612749
155,1610612748,1629134,201609,203473,2738,1629639,1610612749,203114,1628978,200782,1626171,1626192,0022001062,4,2211,2211,3,0,1610612748
156,1610612748,1629134,201609,203473,2738,1629639,1610612749,203114,1628978,200782,1626171,1626192,0022001062,4,2227,2227,0,3,1610612749
157,1610612748,1629134,201609,203473,2738,1629639,1610612749,203114,1628978,200782,1626171,1626192,0022001062,4,2238,2241,0,0,1610612748
158,1610612748,1629134,201609,203473,2738,1629639,1610612749,203114,1628978,200782,1626171,1626192,0022001062,4,2242,2242,0,0,1610612749
159,1610612748,1629134,201609,203473,2738,1629639,1610612749,203114,1628978,200782,1626171,1626192,0022001062,4,2254,2257,0,0,1610612748
160,1610612748,1629134,201609,203473,2738,1629639,1610612749,203114,1628978,200782,1626171,1626192,0022001062,4,2273,2275,0,0,1610612749
161,1610612748,1629134,201609,203473,2738,1629639,1610612749,203114,1628978,200782,1626171,1626192,0022001062,4,2280,2280,3,0,1610612748
162,1610612748,1629134,201609,203473,2738,1629639,1610612749,1626171,1626192,1628978,203114,203507,0022001062,4,2298,2299,0,1,1610612749
163,1610612748,1629134,201609,203473,2738,1629639,1610612749,1626171,1626192,1628978,203114,203507,0022001062,4,2314,2318,3,0,1610612748
164,1610612748,1629134,201609,203473,2738,1629639,1610612749,1626171,1626192,1628978,203114,203507,0022001062,4,2333,2333,0,0,1610612749
165,1610612748,1629134,201609,203473,2738,1629639,1610612749,1626171,1626192,1628978,203114,203507,0022001062,4,2338,2341,0,0,1610612748
166,1610612748,1629134,201609,203473,2738,1629639,1610612749,1626171,1626192,1628978,203114,203507,0022001062,4,2356,2359,0,0,1610612749
167,1610612748,1629134,201609,203473,2738,1629639,1610612749,1626171,1626192,1628978,203114,203507,0022001062,4,2363,2367,0,0,1610612748
168,1610612748,1629134,201609,203473,2738,1629639,1610612749,1626171,1626192,1628978,203114,203507,0022001062,4,2387,2390,0,0,1610612749
169,1610612748,1629134,201609,203473,2738,1629639,1610612749,1626171,1626192,1628978,203114,203507,0022001062,4,2395,2395,2,0,1610612748
170,1610612748,1629134,201609,203473,2738,1629639,1610612749,1626171,1626192,1628978,203114,203507,0022001062,4,2395,2412,0,0,1610612749
171,1610612748,1628389,1629639,201609,2738,2772,1610612749,1627854,201572,201950,203114,203507,0022001062,4,2434,2437,0,0,1610612748
172,1610612748,1628389,1629639,201609,2738,2772,1610612749,1627854,201572,201950,203114,203507,0022001062,4,2448,2448,0,2,1610612749
173,1610612748,1628389,1629639,201609,2738,2772,1610612749,1627854,201572,201950,203114,203507,0022001062,4,2467,2469,0,0,1610612748
174,1610612748,1628389,1629639,201609,2738,2772,1610612749,1627854,201572,201950,203114,203507,0022001062,4,2483,2483,0,0,1610612749
175,1610612748,1628389,1629639,201609,2738,2772,1610612749,1627854,201572,201950,203114,203507,0022001062,4,2484,2484,0,0,1610612748
176,1610612748,1628389,1629639,201609,2738,2772,1610612749,1627854,201572,201950,203114,203507,0022001062,4,2484,2487,0,0,1610612749
177,1610612748,1628389,1629130,201609,2738,2772,1610612749,1627854,201572,201950,203114,203507,0022001062,4,2500,2505,0,0,1610612748
178,1610612748,1628389,1629130,201609,2738,2772,1610612749,1627854,201572,201950,203114,203507,0022001062,4,2524,2524,0,2,1610612749
179,1610612748,1628389,1629130,201609,2738,2772,1610612749,1627854,201572,201950,203114,203507,0022001062,4,2539,2539,3,0,1610612748
180,1610612748,1628389,1629130,201609,2738,2772,1610612749,1627854,201572,201950,203114,203507,0022001062,4,2560,2563,0,0,1610612749
181,1610612748,1628389,1629130,201609,2738,2772,1610612749,1627854,201572,201950,203114,203507,0022001062,4,2567,2583,0,0,1610612748
182,1610612748,1628389,1629130,201609,2738,2772,1610612749,1628978,200782,201572,201950,203507,0022001062,4,2599,2602,0,0,1610612749
183,1610612748,1628389,1629130,201609,2738,2772,1610612749,1628978,200782,201572,201950,203507,0022001062,4,2605,2614,3,0,1610612748
184,1610612748,1628389,1629130,1629134,2738,2772,1610612749,1628978,200782,201572,201950,203507,0022001062,4,2632,2632,0,3,1610612749
185,1610612748,1628389,1629130,1629134,2738,2772,1610612749,1628978,200782,201572,201950,203507,0022001062,4,2648,2652,0,0,1610612748
186,1610612748,1628389,1629130,1629134,2738,2772,1610612749,1628978,200782,201572,201950,203507,0022001062,4,2661,2676,0,0,1610612749
187,1610612748,1628389,1629130,1629134,2738,2772,1610612749,1628978,201572,201950,203114,203507,0022001062,4,2691,2695,0,0,1610612748
188,1610612748,1628389,1629130,1629134,2738,2772,1610612749,1628978,201572,201950,203114,203507,0022001062,4,2716,2716,0,3,1610612749
189,1610612748,1628389,1629130,1629134,2738,2772,1610612749,1628978,201572,201950,203114,203507,0022001062,4,2729,2729,2,0,1610612748
190,1610612748,1628389,1629130,1629134,2738,2772,1610612749,1628978,201572,201950,203114,203507,0022001062,4,2748,2748,0,2,1610612749
191,1610612748,1628389,1629130,1629134,2738,2772,1610612749,1628978,201572,201950,203114,203507,0022001062,4,2750,2773,0,0,1610612748
192,1610612748,1629216,1629622,1629644,1630173,202357,1610612749,1626192,1628978,200782,201572,201950,0022001062,4,2774,2779,0,2,1610612749
193,1610612748,1629216,1629622,1629644,1630173,202357,1610612749,1626171,1626192,1627854,1629670,203648,0022001062,4,2794,2794,2,0,1610612748
194,1610612748,1629216,1629622,1629644,1630173,202357,1610612749,1626171,1626192,1627854,1629670,203648,0022001062,4,2808,2820,0,0,1610612749
195,1610612748,1629216,1629622,1629644,1630173,202357,1610612749,1626171,1626192,1627854,1629670,203648,0022001062,4,2820,2834,3,0,1610612748
196,1610612748,1629216,1629622,1629644,1630173,202357,1610612749,1627854,1629603,1629670,1630241,203648,0022001062,4,2847,2847,0,3,1610612749
197,1610612748,1629216,1629622,1629644,1630173,202357,1610612749,1627854,1629603,1629670,1630241,203648,0022001062,4,2857,2857,3,0,1610612748
