,TEAM_ID_1,TEAM_1_PLAYERS,TEAM_ID_2,TEAM_2_PLAYERS,PERIOD
0,1610612745,[1630256  203482 1626174 1629645  202340],1610612753,[1628407 1629643 1628976  203914 1630175],1
1,1610612745,[1630256  203482 1628391 1630231 1629717],1610612753,[1628407 1629643 1630181 1626184 1628964],2
2,1610612745,[1630256  203482 1626174 1629645  202340],1610612753,[1628407 1629643 1628976  203914 1630175],3
3,1610612745,[1626174 1629645 1628391 1630231 1629717],1610612753,[1628407 1629643 1630181 1626184 1628964],4
