,TEAM_ID_1,TEAM_1_PLAYERS,TEAM_ID_2,TEAM_2_PLAYERS,PERIOD
0,1610612747,[201961   2544 203076 202340 201566],1610612742,[1627827  204001  203939  203493 1628973],1
1,1610612747,[201961   2544 201566   2546 203145],1610612742,[ 204001 1628467  203504  203501 1630182],2
2,1610612747,[201961   2544 203076 202340 201566],1610612742,[1627827  204001  203939  203493 1628973],3
3,1610612747,[201961   2544 201566   2546 203145],1610612742,[1627827  204001 1628973  203504  203501],4
4,1610612747,[ 201961    2544  203076  201566 1630559],1610612742,[1627827  204001 1628973 1628467  203501],5
