,TEAM_ID_1,TEAM_1_PLAYERS,TEAM_ID_2,TEAM_2_PLAYERS,PERIOD
0,1610612758,[ 203084  202357  203473 1627741 1628368],1610612765,[ 203503  202693 1627748 1629004  201565],1
1,1610612758,[ 202709  203992  201229  203145 1628385],1610612765,[1629004  201565 1626174  204038 1629635],2
2,1610612758,[ 203084  202357  203473 1627741 1628368],1610612765,[ 203503  202693 1627748 1629004  201565],3
3,1610612758,[ 203084  202357  202709  203992 1627812],1610612765,[ 203503  201565 1626174  204038 1629635],4
