,team1_id,team1_player1,team1_player2,team1_player3,team1_player4,team1_player5,team2_id,team2_player1,team2_player2,team2_player3,team2_player4,team2_player5,game_id,period,possession_start,possession_end,team1_points,team2_points,possession_team
0,1610612762,202711,1626220,202355,1628378,201144,1610612754,203200,1626167,1627734,1630613,1626208,0022100594,1,0,18,3,0,1610612762
1,1610612762,202711,1626220,202355,1628378,201144,1610612754,203200,1626167,1627734,1630613,1626208,0022100594,1,33,33,0,3,1610612754
2,1610612762,202711,1626220,202355,1628378,201144,1610612754,203200,1626167,1627734,1630613,1626208,0022100594,1,58,58,2,0,1610612762
3,1610612762,202711,1626220,202355,1628378,201144,1610612754,203200,1626167,1627734,1630613,1626208,0022100594,1,81,81,0,2,1610612754
4,1610612762,202711,1626220,202355,1628378,201144,1610612754,203200,1626167,1627734,1630613,1626208,0022100594,1,98,100,0,0,1610612762
5,1610612762,202711,1626220,202355,1628378,201144,1610612754,203200,1626167,1627734,1630613,1626208,0022100594,1,114,117,0,0,1610612754
6,1610612762,202711,1626220,202355,1628378,201144,1610612754,203200,1626167,1627734,1630613,1626208,0022100594,1,120,120,3,0,1610612762
7,1610612762,202711,1626220,202355,1628378,201144,1610612754,203200,1626167,1627734,1630613,1626208,0022100594,1,131,132,0,1,1610612754
8,1610612762,202711,1626220,202355,1628378,201144,1610612754,203200,1626167,1627734,1630613,1626208,0022100594,1,151,151,3,0,1610612762
9,1610612762,202711,1626220,202355,1628378,201144,1610612754,203200,1626167,1627734,1630613,1626208,0022100594,1,165,165,0,0,1610612754
10,1610612762,202711,1626220,202355,1628378,201144,1610612754,203200,1626167,1627734,1630613,1626208,0022100594,1,175,196,0,0,1610612762
11,1610612762,202711,1626220,202355,1628378,201144,1610612754,203200,1626167,1627734,1630613,1626208,0022100594,1,198,209,0,2,1610612754
12,1610612762,202711,1626220,202355,1628378,201144,1610612754,203200,1626167,1627734,1630613,1626208,0022100594,1,221,221,3,0,1610612762
13,1610612762,202711,1626220,202355,1628378,201144,1610612754,203200,1626167,1627734,1630613,1626208,0022100594,1,235,235,0,3,1610612754
14,1610612762,202711,1626220,202355,1628378,201144,1610612754,203200,1626167,1627734,1630613,1626208,0022100594,1,249,249,2,0,1610612762
15,1610612762,202711,1626220,202355,1628378,201144,1610612754,203200,1626167,1627734,1630613,1626208,0022100594,1,260,269,0,1,1610612754
16,1610612762,1626220,1628378,201144,202711,203658,1610612754,203200,1626167,1627734,1630613,1626208,0022100594,1,286,288,0,0,1610612762
17,1610612762,1626220,1628378,201144,202711,203658,1610612754,203200,1626167,1627734,1630613,1626208,0022100594,1,296,296,0,3,1610612754
18,1610612762,1626220,1628378,201144,202711,203658,1610612754,203200,1626167,1627734,1630613,1626208,0022100594,1,312,312,2,0,1610612762
19,1610612762,1626220,1628378,201144,202711,203658,1610612754,203200,1626167,1627734,1630613,1626208,0022100594,1,327,329,0,0,1610612754
20,1610612762,1626220,1628378,201144,202711,203658,1610612754,203200,1626167,1627734,1630613,1626208,0022100594,1,338,343,2,0,1610612762
21,1610612762,1626220,1628378,201144,202711,203658,1610612754,203200,1626167,1627734,1630613,1626208,0022100594,1,343,362,0,2,1610612754
22,1610612762,1626220,1628378,202711,203658,203903,1610612754,1626167,1626208,1627734,1630537,202362,0022100594,1,382,387,0,0,1610612762
23,1610612762,1626220,1628378,202711,203658,203903,1610612754,1626167,1626208,1627734,1630537,202362,0022100594,1,388,388,0,2,1610612754
24,1610612762,1626220,1628378,202711,203658,203903,1610612754,1626167,1626208,1629052,1630537,202362,0022100594,1,399,399,0,0,1610612762
25,1610612762,1626220,1628378,202711,203658,203903,1610612754,1626167,1626208,1629052,1630537,202362,0022100594,1,414,417,0,0,1610612754
26,1610612762,1626220,1628378,202711,203658,203903,1610612754,1626167,1626208,1629052,1630537,202362,0022100594,1,431,445,0,0,1610612762
27,1610612762,1626220,1628378,200752,202711,203903,1610612754,1626208,1627734,1629052,1630537,202362,0022100594,1,454,457,0,0,1610612754
28,1610612762,1626220,1628378,200752,202711,203903,1610612754,1626208,1627734,1629052,1630537,202362,0022100594,1,465,465,0,0,1610612762
29,1610612762,1626220,1628378,200752,202711,203903,1610612754,1626208,1627734,1629052,1630537,202362,0022100594,1,482,482,0,2,1610612754
30,1610612762,1626220,1628378,200752,202711,203903,1610612754,1626208,1627734,1629052,1630537,202362,0022100594,1,502,504,0,0,1610612762
31,1610612762,1626220,1628378,200752,202711,203903,1610612754,1626208,1627734,1629052,1630537,202362,0022100594,1,507,511,0,0,1610612754
32,1610612762,1626220,1628378,200752,202711,203903,1610612754,1626208,1627734,1629052,1630537,202362,0022100594,1,521,521,3,0,1610612762
33,1610612762,1626220,1628378,200752,202711,203903,1610612754,1626208,1627734,1629052,1630537,202362,0022100594,1,537,537,0,3,1610612754
34,1610612762,1626220,1628378,200752,202711,203903,1610612754,1626208,1627734,1629052,1630537,202362,0022100594,1,538,556,0,0,1610612762
35,1610612762,1627863,1628378,200752,203658,203903,1610612754,1627734,1629052,1630537,202362,203087,0022100594,1,568,570,0,0,1610612754
36,1610612762,1627863,1628378,200752,203658,203903,1610612754,1627734,1629052,1630537,202362,203087,0022100594,1,578,590,0,0,1610612762
37,1610612762,1627863,200752,201144,203658,203903,1610612754,1627734,1629052,1630537,202362,203087,0022100594,1,597,597,0,1,1610612754
38,1610612762,1627863,200752,201144,203658,203903,1610612754,1627734,1629052,1630537,202362,203087,0022100594,1,611,611,2,0,1610612762
39,1610612762,1627863,200752,201144,203658,203903,1610612754,1627734,1629052,1630537,202362,203087,0022100594,1,627,627,0,3,1610612754
40,1610612762,1627863,200752,201144,203658,203903,1610612754,1627734,1629052,1630537,202362,203087,0022100594,1,649,659,2,0,1610612762
41,1610612762,1627863,200752,201144,203658,203903,1610612754,1627734,1629052,1630537,202362,203087,0022100594,1,670,670,0,2,1610612754
42,1610612762,1627863,200752,201144,203658,203903,1610612754,1627734,1629052,1630537,202362,203087,0022100594,1,690,693,0,0,1610612762
43,1610612762,1627863,200752,201144,203658,203903,1610612754,1627734,1629052,1630537,202362,203087,0022100594,1,707,707,0,3,1610612754
44,1610612762,1627863,200752,201144,203658,203903,1610612754,1627734,1629052,1630537,202362,203087,0022100594,1,716,719,0,0,1610612762
45,1610612762,201144,203658,203903,200752,1627863,1610612754,1627734,1630537,202362,1629052,203087,0022100594,2,720,737,0,2,1610612754
46,1610612762,201144,203658,203903,200752,1627863,1610612754,1627734,1630537,202362,1629052,203087,0022100594,2,745,755,0,0,1610612762
47,1610612762,1627863,1629672,200752,201144,203903,1610612754,1626167,1629052,1630537,202362,203087,0022100594,2,765,766,0,0,1610612754
48,1610612762,1627863,1629672,200752,201144,203903,1610612754,1626167,1629052,1630537,202362,203087,0022100594,2,766,776,2,0,1610612762
49,1610612762,1627863,1629672,200752,201144,203903,1610612754,1626167,1629052,1630537,202362,203087,0022100594,2,793,798,0,0,1610612754
50,1610612762,1627863,1629672,200752,201144,203903,1610612754,1626167,1629052,1630537,202362,203087,0022100594,2,802,802,0,0,1610612762
51,1610612762,1627863,1629672,200752,201144,203903,1610612754,1626167,1629052,1630537,202362,203087,0022100594,2,806,806,0,2,1610612754
52,1610612762,1627863,1629672,200752,201144,203903,1610612754,1626167,1629052,1630537,202362,203087,0022100594,2,819,822,0,0,1610612762
53,1610612762,1627863,1629672,200752,201144,203903,1610612754,1626167,1629052,1630537,202362,203087,0022100594,2,834,846,0,0,1610612754
54,1610612762,1627863,1629672,200752,201144,203903,1610612754,1626167,1629052,1630537,202362,203087,0022100594,2,865,868,0,0,1610612762
55,1610612762,1627863,1629672,200752,201144,203903,1610612754,1626167,1629052,1630537,202362,203087,0022100594,2,881,887,0,0,1610612754
56,1610612762,1627863,1629672,200752,201144,203903,1610612754,1626167,1626208,1629052,1630613,203087,0022100594,2,891,904,2,0,1610612762
57,1610612762,1627863,1628378,1629672,200752,203903,1610612754,1626167,1626208,1630613,203087,203200,0022100594,2,923,923,0,3,1610612754
58,1610612762,1627863,1628378,1629672,200752,203903,1610612754,1626167,1626208,1630613,203087,203200,0022100594,2,935,935,3,0,1610612762
59,1610612762,1627863,1628378,1629672,200752,203903,1610612754,1626167,1626208,1630613,203087,203200,0022100594,2,951,951,0,2,1610612754
60,1610612762,1627863,1628378,1629672,200752,203903,1610612754,1626167,1626208,1630613,203087,203200,0022100594,2,972,974,0,0,1610612762
61,1610612762,1627863,1628378,1629672,200752,203903,1610612754,1626167,1626208,1630613,203087,203200,0022100594,2,978,980,0,0,1610612754
62,1610612762,1627863,1628378,1629672,200752,203903,1610612754,1626167,1626208,1630613,203087,203200,0022100594,2,992,992,2,0,1610612762
63,1610612762,1627863,1628378,1629672,200752,203903,1610612754,1626167,1626208,1630613,203087,203200,0022100594,2,992,1009,0,3,1610612754
64,1610612762,1626220,1628378,202355,202711,203903,1610612754,1626167,1626208,1627734,1630613,203200,0022100594,2,1038,1040,0,0,1610612762
65,1610612762,1626220,1628378,202355,202711,203903,1610612754,1626167,1626208,1627734,1630613,203200,0022100594,2,1047,1047,0,0,1610612754
66,1610612762,1626220,1628378,202355,202711,203903,1610612754,1626167,1626208,1627734,1630613,203200,0022100594,2,1050,1050,3,0,1610612762
67,1610612762,1626220,1628378,202355,202711,203903,1610612754,1626167,1626208,1627734,1630613,203200,0022100594,2,1064,1064,0,2,1610612754
68,1610612762,1626220,1628378,202355,202711,203903,1610612754,1626167,1626208,1627734,1630613,203200,0022100594,2,1075,1075,0,0,1610612762
69,1610612762,1626220,1628378,202355,202711,203903,1610612754,1626167,1626208,1627734,1630613,203200,0022100594,2,1079,1079,0,3,1610612754
70,1610612762,1626220,1628378,202355,202711,203903,1610612754,1626167,1626208,1627734,1630613,203200,0022100594,2,1101,1104,0,0,1610612762
71,1610612762,1626220,1628378,202355,202711,203903,1610612754,1626167,1626208,1627734,1630613,203200,0022100594,2,1110,1110,0,3,1610612754
72,1610612762,1626220,1628378,202355,202711,203903,1610612754,1626167,1626208,1627734,1630613,203200,0022100594,2,1110,1121,0,0,1610612762
73,1610612762,1626220,1628378,202355,202711,203903,1610612754,1626167,1626208,1627734,1630613,203200,0022100594,2,1139,1143,0,0,1610612754
74,1610612762,1626220,1628378,202355,202711,203903,1610612754,1626167,1626208,1627734,1630613,203200,0022100594,2,1153,1156,0,0,1610612762
75,1610612762,1626220,1628378,202355,202711,203903,1610612754,1626167,1626208,1627734,1630613,203200,0022100594,2,1167,1167,0,2,1610612754
76,1610612762,1626220,1628378,202355,202711,203903,1610612754,1626167,1626208,1627734,1630613,203200,0022100594,2,1188,1188,0,0,1610612762
77,1610612762,1626220,1628378,201144,202355,202711,1610612754,1626167,1626208,1627734,1630613,203200,0022100594,2,1199,1201,0,0,1610612754
78,1610612762,1626220,1628378,201144,202355,202711,1610612754,1626167,1626208,1627734,1630613,203200,0022100594,2,1222,1222,3,0,1610612762
79,1610612762,1626220,1628378,201144,202355,202711,1610612754,1626167,1626208,1627734,1630613,203200,0022100594,2,1237,1240,0,0,1610612754
80,1610612762,1626220,1628378,201144,202355,202711,1610612754,1626167,1626208,1627734,1630613,203200,0022100594,2,1243,1243,2,0,1610612762
81,1610612762,1626220,1628378,201144,202355,202711,1610612754,1626167,1626208,1627734,1630537,202362,0022100594,2,1266,1271,0,0,1610612754
82,1610612762,1626220,1628378,201144,202355,202711,1610612754,1626167,1627734,1630537,1630613,202362,0022100594,2,1281,1290,2,0,1610612762
83,1610612762,1626220,1628378,201144,202355,202711,1610612754,1626167,1627734,1630537,1630613,202362,0022100594,2,1300,1300,0,0,1610612754
84,1610612762,1626220,1628378,201144,202355,202711,1610612754,1626167,1627734,1630537,1630613,202362,0022100594,2,1305,1305,2,0,1610612762
85,1610612762,1626220,1628378,201144,202355,202711,1610612754,1626167,1627734,1630537,1630613,202362,0022100594,2,1305,1325,0,2,1610612754
86,1610612762,1626220,1628378,201144,202355,202711,1610612754,1626167,1627734,1630537,1630613,202362,0022100594,2,1342,1346,0,0,1610612762
87,1610612762,1626220,1628378,201144,202355,202711,1610612754,1626167,1627734,1630537,1630613,202362,0022100594,2,1351,1353,0,0,1610612754
88,1610612762,1626220,1628378,201144,202355,202711,1610612754,1626167,1627734,1630537,1630613,202362,0022100594,2,1359,1361,0,0,1610612762
89,1610612762,1626220,1628378,201144,202355,202711,1610612754,1626167,1627734,1630537,1630613,202362,0022100594,2,1364,1364,0,2,1610612754
90,1610612762,1626220,1628378,201144,202355,202711,1610612754,1626167,1627734,1630537,1630613,202362,0022100594,2,1383,1383,2,0,1610612762
91,1610612762,1626220,1628378,201144,202355,202711,1610612754,1626167,1626208,1627734,1630613,202362,0022100594,2,1406,1406,0,2,1610612754
92,1610612762,1626220,1628378,201144,202355,202711,1610612754,1626167,1626208,1627734,1630613,202362,0022100594,2,1416,1416,2,0,1610612762
93,1610612762,1626220,1628378,201144,202355,202711,1610612754,1626167,1626208,1627734,1630613,202362,0022100594,2,1440,1440,0,0,1610612762
94,1610612762,202711,1626220,202355,1628378,201144,1610612754,203200,1626167,1627734,1630613,1626208,0022100594,3,1440,1459,0,3,1610612754
95,1610612762,202711,1626220,202355,1628378,201144,1610612754,203200,1626167,1627734,1630613,1626208,0022100594,3,1478,1483,3,0,1610612762
96,1610612762,202711,1626220,202355,1628378,201144,1610612754,203200,1626167,1627734,1630613,1626208,0022100594,3,1497,1499,0,0,1610612754
97,1610612762,202711,1626220,202355,1628378,201144,1610612754,203200,1626167,1627734,1630613,1626208,0022100594,3,1505,1505,0,0,1610612762
98,1610612762,202711,1626220,202355,1628378,201144,1610612754,203200,1626167,1627734,1630613,1626208,0022100594,3,1522,1525,0,0,1610612754
99,1610612762,202711,1626220,202355,1628378,201144,1610612754,203200,1626167,1627734,1630613,1626208,0022100594,3,1533,1533,0,0,1610612762
100,1610612762,202711,1626220,202355,1628378,201144,1610612754,203200,1626167,1627734,1630613,1626208,0022100594,3,1543,1543,0,3,1610612754
101,1610612762,202711,1626220,202355,1628378,201144,1610612754,203200,1626167,1627734,1630613,1626208,0022100594,3,1565,1565,2,0,1610612762
102,1610612762,202711,1626220,202355,1628378,201144,1610612754,203200,1626167,1627734,1630613,1626208,0022100594,3,1585,1588,0,2,1610612754
103,1610612762,202711,1626220,202355,1628378,201144,1610612754,203200,1626167,1627734,1630613,1626208,0022100594,3,1588,1602,0,0,1610612762
104,1610612762,202711,1626220,202355,1628378,201144,1610612754,203200,1626167,1627734,1630613,1626208,0022100594,3,1610,1612,0,1,1610612754
105,1610612762,202711,1626220,202355,1628378,201144,1610612754,203200,1626167,1627734,1630613,1626208,0022100594,3,1627,1627,2,0,1610612762
106,1610612762,202711,1626220,202355,1628378,201144,1610612754,203200,1626167,1627734,1630613,1626208,0022100594,3,1646,1646,0,0,1610612754
107,1610612762,202711,1626220,202355,1628378,201144,1610612754,203200,1626167,1627734,1630613,1626208,0022100594,3,1664,1664,0,0,1610612762
108,1610612762,202711,1626220,202355,1628378,201144,1610612754,203200,1626167,1627734,1630613,1626208,0022100594,3,1665,1665,0,0,1610612754
109,1610612762,202711,1626220,202355,1628378,201144,1610612754,203200,1626167,1627734,1630613,1626208,0022100594,3,1674,1674,2,0,1610612762
110,1610612762,202711,1626220,202355,1628378,201144,1610612754,203200,1626167,1627734,1630613,1626208,0022100594,3,1693,1695,0,0,1610612754
111,1610612762,202711,1626220,202355,1628378,201144,1610612754,203200,1626167,1627734,1630613,1626208,0022100594,3,1704,1704,2,0,1610612762
112,1610612762,202711,1626220,202355,1628378,201144,1610612754,203200,1626167,1627734,1630613,1626208,0022100594,3,1704,1724,0,0,1610612754
113,1610612762,202711,1626220,202355,1628378,201144,1610612754,1626167,1629052,1630537,202362,203200,0022100594,3,1726,1736,3,0,1610612762
114,1610612762,202711,1626220,202355,1628378,201144,1610612754,1626167,1629052,1630537,202362,203200,0022100594,3,1752,1754,0,0,1610612754
115,1610612762,202711,1626220,202355,1628378,201144,1610612754,1626167,1629052,1630537,202362,203200,0022100594,3,1761,1761,3,0,1610612762
116,1610612762,202711,1626220,202355,1628378,201144,1610612754,1626167,1629052,1630537,202362,203200,0022100594,3,1779,1779,0,2,1610612754
117,1610612762,202711,1626220,202355,1628378,201144,1610612754,1626167,1629052,1630537,202362,203200,0022100594,3,1787,1787,2,0,1610612762
118,1610612762,1626220,1628378,202355,202711,203903,1610612754,1626167,1629052,1630537,202362,203200,0022100594,3,1797,1797,0,2,1610612754
119,1610612762,1626220,1628378,202355,202711,203903,1610612754,1626167,1629052,1630537,202362,203200,0022100594,3,1808,1812,0,0,1610612762
120,1610612762,1626220,1628378,202355,202711,203903,1610612754,1626167,1629052,1630537,202362,203200,0022100594,3,1831,1833,0,0,1610612754
121,1610612762,1626220,1628378,200752,202711,203903,1610612754,1627734,1629052,1630537,202362,203200,0022100594,3,1849,1849,2,0,1610612762
122,1610612762,1626220,1628378,200752,202711,203903,1610612754,1627734,1629052,1630537,202362,203200,0022100594,3,1866,1866,0,3,1610612754
123,1610612762,1626220,1628378,200752,202711,203903,1610612754,1627734,1629052,1630537,202362,203200,0022100594,3,1882,1882,2,0,1610612762
124,1610612762,1626220,1628378,200752,202711,203903,1610612754,1627734,1629052,1630537,202362,203200,0022100594,3,1895,1895,0,2,1610612754
125,1610612762,1626220,1628378,200752,202711,203903,1610612754,1627734,1629052,1630537,1630613,202362,0022100594,3,1901,1901,3,0,1610612762
126,1610612762,1626220,1628378,200752,202711,203903,1610612754,1627734,1629052,1630537,1630613,202362,0022100594,3,1917,1917,0,2,1610612754
127,1610612762,1626220,1628378,200752,202711,203903,1610612754,1627734,1629052,1630537,1630613,202362,0022100594,3,1937,1937,2,0,1610612762
128,1610612762,1626220,1628378,200752,202711,203903,1610612754,1627734,1629052,1630537,1630613,202362,0022100594,3,1952,1954,0,0,1610612754
129,1610612762,1626220,1628378,200752,202711,203903,1610612754,1627734,1629052,1630537,1630613,202362,0022100594,3,1962,1965,0,0,1610612762
130,1610612762,1626220,1628378,200752,202711,203903,1610612754,1627734,1629052,1630537,1630613,202362,0022100594,3,1968,1975,0,2,1610612754
131,1610612762,1626220,1628378,200752,202711,203903,1610612754,1627734,1629052,1630537,1630613,202362,0022100594,3,1988,1988,2,0,1610612762
132,1610612762,1626220,1628378,200752,202711,203903,1610612754,1627734,1629052,1630537,202362,203087,0022100594,3,2011,2011,0,2,1610612754
133,1610612762,1626220,1628378,200752,202711,203903,1610612754,1627734,1629052,1630537,202362,203087,0022100594,3,2026,2026,2,0,1610612762
134,1610612762,1627863,1628378,200752,202711,203903,1610612754,1627734,1629052,1630537,202362,203087,0022100594,3,2033,2033,0,1,1610612754
135,1610612762,1627863,201144,202711,203658,203903,1610612754,1627734,1629052,1630537,202362,203087,0022100594,3,2044,2047,0,0,1610612762
136,1610612762,1627863,201144,202711,203658,203903,1610612754,1627734,1629052,1630537,202362,203087,0022100594,3,2052,2055,0,0,1610612754
137,1610612762,1627863,201144,202711,203658,203903,1610612754,1627734,1629052,1630537,202362,203087,0022100594,3,2058,2058,0,0,1610612762
138,1610612762,1627863,201144,202711,203658,203903,1610612754,1627734,1629052,1630537,202362,203087,0022100594,3,2062,2065,0,0,1610612754
139,1610612762,1627863,201144,202711,203658,203903,1610612754,1627734,1629052,1630537,202362,203087,0022100594,3,2069,2069,0,0,1610612762
140,1610612762,1627863,201144,202711,203658,203903,1610612754,1627734,1629052,1630537,202362,203087,0022100594,3,2073,2073,0,2,1610612754
141,1610612762,1627863,201144,202711,203658,203903,1610612754,1627734,1629052,1630537,202362,203087,0022100594,3,2092,2092,2,0,1610612762
142,1610612762,1627863,201144,202711,203658,203903,1610612754,1627734,1629052,1630537,202362,203087,0022100594,3,2117,2117,0,2,1610612754
143,1610612762,1627863,201144,202711,203658,203903,1610612754,1627734,1629052,1630537,202362,203087,0022100594,3,2130,2144,0,0,1610612762
144,1610612762,1627863,201144,202711,203658,203903,1610612754,1627734,1629052,1630537,202362,203087,0022100594,3,2159,2159,0,0,1610612754
145,1610612762,1626220,201144,203658,203903,1627863,1610612754,1627734,1630613,202362,1629052,203087,0022100594,4,2160,2184,0,0,1610612762
146,1610612762,1626220,201144,203658,203903,1627863,1610612754,1627734,1630613,202362,1629052,203087,0022100594,4,2189,2192,0,0,1610612754
147,1610612762,1626220,201144,203658,203903,1627863,1610612754,1627734,1630613,202362,1629052,203087,0022100594,4,2202,2204,0,0,1610612762
148,1610612762,1626220,201144,203658,203903,1627863,1610612754,1627734,1630613,202362,1629052,203087,0022100594,4,2205,2219,0,3,1610612754
149,1610612762,1626220,1627863,200752,201144,203903,1610612754,1627734,1630613,202362,1629052,203087,0022100594,4,2232,2232,2,0,1610612762
150,1610612762,1626220,1627863,200752,201144,203903,1610612754,1627734,1630613,202362,1629052,203087,0022100594,4,2251,2252,0,0,1610612754
151,1610612762,1626220,1627863,200752,201144,203903,1610612754,1627734,1630613,202362,1629052,203087,0022100594,4,2256,2256,3,0,1610612762
152,1610612762,1626220,1627863,200752,201144,203903,1610612754,1627734,1630613,202362,1629052,203087,0022100594,4,2258,2282,0,2,1610612754
153,1610612762,1626220,1627863,200752,201144,203903,1610612754,1626167,1626208,1630613,203087,203200,0022100594,4,2303,2303,2,0,1610612762
154,1610612762,1626220,1627863,200752,201144,203903,1610612754,1626167,1626208,1630613,203087,203200,0022100594,4,2316,2316,0,0,1610612754
155,1610612762,1626220,1627863,200752,201144,203903,1610612754,1626167,1626208,1630613,203087,203200,0022100594,4,2327,2328,0,0,1610612762
156,1610612762,1626220,1627863,200752,201144,203903,1610612754,1626167,1626208,1630613,203087,203200,0022100594,4,2337,2341,0,0,1610612754
157,1610612762,1626220,200752,201144,202711,203903,1610612754,1626167,1626208,1630613,203087,203200,0022100594,4,2363,2364,0,0,1610612762
158,1610612762,1626220,200752,201144,202711,203903,1610612754,1626167,1626208,1630613,203087,203200,0022100594,4,2373,2373,0,2,1610612754
159,1610612762,1626220,1628378,200752,202711,203903,1610612754,1626167,1626208,1630613,203087,203200,0022100594,4,2397,2397,2,0,1610612762
160,1610612762,1626220,1628378,200752,202711,203903,1610612754,1626167,1626208,1630613,203087,203200,0022100594,4,2408,2408,0,2,1610612754
161,1610612762,1626220,1628378,200752,202711,203903,1610612754,1626167,1626208,1630613,203087,203200,0022100594,4,2411,2411,0,0,1610612762
162,1610612762,1626220,1628378,200752,202711,203903,1610612754,1626167,1626208,1630613,203087,203200,0022100594,4,2423,2423,0,0,1610612754
163,1610612762,1626220,1628378,202355,202711,203903,1610612754,1626208,1627734,1630613,202362,203087,0022100594,4,2437,2441,0,0,1610612762
164,1610612762,1626220,1628378,202355,202711,203903,1610612754,1626208,1627734,1630613,202362,203087,0022100594,4,2446,2449,0,0,1610612754
165,1610612762,1626220,1628378,202355,202711,203903,1610612754,1626208,1627734,1630613,202362,203087,0022100594,4,2457,2461,0,0,1610612762
166,1610612762,1626220,1628378,202355,202711,203903,1610612754,1626208,1627734,1630613,202362,203087,0022100594,4,2470,2470,0,2,1610612754
167,1610612762,1626220,1628378,202355,202711,203903,1610612754,1626208,1627734,1630613,202362,203087,0022100594,4,2470,2481,2,0,1610612762
168,1610612762,1626220,1628378,202355,202711,203903,1610612754,1626208,1627734,1630613,202362,203200,0022100594,4,2503,2503,0,3,1610612754
169,1610612762,1626220,1628378,202355,202711,203903,1610612754,1626208,1627734,1630613,202362,203200,0022100594,4,2521,2525,0,0,1610612762
170,1610612762,1626220,1628378,202355,202711,203903,1610612754,1626208,1627734,1630613,202362,203200,0022100594,4,2534,2534,0,3,1610612754
171,1610612762,1626220,1628378,202355,202711,203903,1610612754,1626208,1627734,1630613,202362,203200,0022100594,4,2550,2552,0,0,1610612762
172,1610612762,1626220,1628378,202355,202711,203903,1610612754,1626208,1627734,1630613,202362,203200,0022100594,4,2562,2563,0,2,1610612754
173,1610612762,1626220,1628378,202355,202711,203903,1610612754,1626208,1627734,1630613,202362,203200,0022100594,4,2563,2577,2,0,1610612762
174,1610612762,1626220,1628378,202355,202711,203903,1610612754,1626208,1627734,1630613,202362,203200,0022100594,4,2591,2591,0,2,1610612754
175,1610612762,1626220,1628378,202355,202711,203903,1610612754,1626208,1627734,1630613,202362,203200,0022100594,4,2606,2606,2,0,1610612762
176,1610612762,1626220,1628378,202355,202711,203903,1610612754,1626208,1627734,1630613,202362,203200,0022100594,4,2616,2616,0,0,1610612754
177,1610612762,1626220,1628378,201144,202355,202711,1610612754,1626208,1627734,1630613,202362,203200,0022100594,4,2628,2628,3,0,1610612762
178,1610612762,1626220,1628378,201144,202355,202711,1610612754,1626208,1627734,1630613,202362,203200,0022100594,4,2649,2649,0,2,1610612754
179,1610612762,1626220,1628378,201144,202355,202711,1610612754,1626208,1627734,1630613,202362,203200,0022100594,4,2657,2672,3,0,1610612762
180,1610612762,1626220,1628378,201144,202355,202711,1610612754,1626208,1627734,1630613,202362,203200,0022100594,4,2689,2692,0,0,1610612754
181,1610612762,1626220,1628378,201144,202355,202711,1610612754,1626208,1627734,1630613,202362,203200,0022100594,4,2706,2714,0,0,1610612762
182,1610612762,1626220,1628378,201144,202355,202711,1610612754,1626208,1627734,1630613,202362,203200,0022100594,4,2731,2731,0,2,1610612754
183,1610612762,1626220,1628378,201144,202355,202711,1610612754,1626208,1627734,1630613,202362,203200,0022100594,4,2756,2756,0,0,1610612762
184,1610612762,1626220,1628378,201144,202355,202711,1610612754,1626208,1627734,1630613,202362,203200,0022100594,4,2756,2756,0,2,1610612754
185,1610612762,1626220,1628378,201144,202355,202711,1610612754,1626208,1627734,1630613,202362,203200,0022100594,4,2764,2764,2,0,1610612762
186,1610612762,1626220,1628378,201144,202355,202711,1610612754,1626208,1627734,1630613,202362,203200,0022100594,4,2779,2779,0,0,1610612754
187,1610612762,1626220,1628378,201144,202355,202711,1610612754,1626208,1627734,1630613,202362,203200,0022100594,4,2787,2788,2,0,1610612762
188,1610612762,1626220,1628378,201144,202355,202711,1610612754,1626208,1627734,1630613,202362,203200,0022100594,4,2801,2801,0,2,1610612754
189,1610612762,1626220,1628378,201144,202355,202711,1610612754,1626208,1627734,1630613,202362,203200,0022100594,4,2809,2809,2,0,1610612762
190,1610612762,1626220,1628378,201144,202355,202711,1610612754,1626208,1627734,1630613,202362,203200,0022100594,4,2827,2827,0,1,1610612754
191,1610612762,1626220,1628378,201144,202355,202711,1610612754,1626208,1627734,1630613,202362,203200,0022100594,4,2834,2837,0,0,1610612762
192,1610612762,1626220,1628378,201144,202355,202711,1610612754,1626208,1627734,1630613,202362,203200,0022100594,4,2843,2843,0,2,1610612754
193,1610612762,1626220,1628378,201144,202355,202711,1610612754,1626208,1627734,1630613,202362,203200,0022100594,4,2843,2847,0,0,1610612762
194,1610612762,1626220,1628378,200752,201144,202711,1610612754,1626208,1629052,1630613,202362,203200,0022100594,4,2847,2851,0,3,1610612754
195,1610612762,1626220,1628378,200752,201144,202711,1610612754,1626208,1629052,1630613,202362,203200,0022100594,4,2861,2864,0,0,1610612762
