,t1_pm,t2_pm,stint_start,t2_points_scored,t2_players,t2_id,t1_id,t1_players,stint_end,t1_points_scored,margin_per_100,num_poss
0,-3,3,0,20,"[1627742, 1629627, 1626195, 202339, 1628366]",1610612740,1610612756,"[1628969, 1626163, 1629028, 1626164, 101108]",405,17,-9.375,32.0
1,-3,3,406,22,"[1627742, 1629627, 1626195, 202339, 1628366]",1610612740,1610612756,"[1628969, 1626163, 1629028, 1626164, 101108]",440,19,-8.823529411764707,34.0
2,-3,3,441,27,"[1626195, 1627742, 1628366, 1628404, 202339]",1610612740,1610612756,"[1626163, 1626164, 1626166, 1629028, 1629661]",484,24,-7.894736842105263,38.0
3,-5,5,485,29,"[1626195, 1627742, 1628366, 1628404, 202339]",1610612740,1610612756,"[1626164, 1626166, 1629661, 203109, 203967]",589,24,-10.869565217391305,46.0
4,-5,5,590,32,"[1627742, 1628366, 1628404, 1629637, 1630184]",1610612740,1610612756,"[1626164, 1626166, 1629661, 203109, 203967]",625,27,-10.204081632653061,49.0
5,-1,1,626,34,"[1628366, 1628404, 1629627, 1629637, 1630184]",1610612740,1610612756,"[1626164, 1626166, 1629028, 1629661, 203109]",715,33,-1.8518518518518516,54.0
6,6,-6,716,38,"[1628404, 1629627, 1629637, 1630184, 200755]",1610612740,1610612756,"[1626166, 1629028, 1629661, 202734, 203109]",880,44,8.955223880597014,67.0
7,3,-3,881,44,"[1629627, 1628404, 1630184, 1629637, 200755]",1610612740,1610612756,"[1628969, 1629028, 101108, 203109, 202734]",972,47,4.054054054054054,74.0
8,0,0,973,47,"[1629627, 1628404, 1630184, 1629637, 200755]",1610612740,1610612756,"[101108, 1626163, 1628969, 1629028, 202734]",1012,47,0.0,77.0
9,-5,5,1013,54,"[1627742, 1628366, 1628404, 1629637, 200755]",1610612740,1610612756,"[101108, 1626163, 1628969, 1629028, 202734]",1110,49,-6.024096385542169,83.0
10,0,0,1111,54,"[1627742, 1628366, 1628404, 1629637, 202339]",1610612740,1610612756,"[1626164, 1626166, 1628969, 1629661, 203967]",1205,54,0.0,89.0
11,-1,1,1206,57,"[1626195, 1627742, 1628366, 1628404, 202339]",1610612740,1610612756,"[1626164, 1626166, 1628969, 203109, 203967]",1288,56,-1.0638297872340425,94.0
12,-7,7,1289,66,"[1626195, 1627742, 1628366, 1629627, 202339]",1610612740,1610612756,"[1626164, 1626166, 1628969, 1629028, 203109]",1439,59,-6.730769230769231,104.0
13,-5,5,1440,80,"[1626195, 1627742, 1628366, 1629627, 202339]",1610612740,1610612756,"[101108, 1626164, 1628969, 1629028, 203109]",1799,75,-3.875968992248062,129.0
14,-5,5,1800,85,"[1627742, 1629627, 1626195, 202339, 1628366]",1610612740,1610612756,"[1628969, 1626163, 1629028, 1626164, 101108]",1851,80,-3.7593984962406015,133.0
15,-5,5,1852,85,"[1626195, 1627742, 1628366, 1628404, 202339]",1610612740,1610612756,"[101108, 1626164, 1628969, 1629028, 203109]",1861,80,-3.7037037037037033,135.0
16,-7,7,1862,87,"[1626195, 1627742, 1628366, 1628404, 202339]",1610612740,1610612756,"[101108, 1626164, 1629028, 1629661, 203109]",1877,80,-5.147058823529411,136.0
17,-7,7,1878,93,"[1626195, 1627742, 1628366, 1628404, 1630184]",1610612740,1610612756,"[1626164, 1626166, 1629661, 203109, 203967]",1995,86,-4.861111111111112,144.0
18,-5,5,1996,93,"[1627742, 1628366, 1628404, 1629637, 1630184]",1610612740,1610612756,"[1626164, 1626166, 1629661, 203109, 203967]",2009,88,-3.4482758620689653,145.0
19,-11,11,2010,102,"[1628366, 1628404, 1629627, 1629637, 1630184]",1610612740,1610612756,"[1626164, 1626166, 1629661, 203109, 203967]",2129,91,-7.142857142857142,154.0
20,-11,11,2130,102,"[1628366, 1628404, 1629627, 1629637, 1630184]",1610612740,1610612756,"[1626166, 1629661, 202734, 203109, 203967]",2159,91,-7.096774193548387,155.0
21,-4,4,2160,104,"[1628404, 1629627, 1629637, 1630184, 200755]",1610612740,1610612756,"[1626166, 1629661, 202734, 203109, 203967]",2354,100,-2.366863905325444,169.0
22,4,-4,2355,104,"[1629627, 1628404, 1630184, 1629637, 200755]",1610612740,1610612756,"[1629028, 101108, 1629661, 203109, 202734]",2448,108,2.2857142857142856,175.0
23,3,-3,2449,107,"[1627742, 1628366, 1628404, 1629637, 200755]",1610612740,1610612756,"[1629028, 101108, 1629661, 203109, 202734]",2509,110,1.675977653631285,179.0
24,11,-11,2510,107,"[1626195, 1627742, 1628366, 1628404, 200755]",1610612740,1610612756,"[1629028, 101108, 1629661, 203109, 202734]",2600,118,5.9459459459459465,185.0
25,17,-17,2601,109,"[1626195, 1627742, 1628366, 1628404, 202339]",1610612740,1610612756,"[101108, 1626164, 1629028, 1629661, 203109]",2728,126,8.854166666666668,192.0
26,19,-19,2729,109,"[1627742, 1628366, 1628404, 1629627, 202339]",1610612740,1610612756,"[101108, 1626164, 1629028, 1629661, 203109]",2761,128,9.844559585492227,193.0
27,16,-16,2762,114,"[1628414, 1629117, 1629638, 1629740, 1630184]",1610612740,1610612756,"[1626166, 1627745, 1627846, 1628975, 203109]",2862,130,8.0,200.0
28,18,-18,2863,114,"[1628414, 1629117, 1629638, 1629740, 1630184]",1610612740,1610612756,"[1626166, 1627745, 1627846, 1628975, 204038]",9999999,132,8.955223880597014,201.0
