,t1_pm,t2_pm,stint_start,t2_points_scored,t2_players,t2_id,t1_id,t1_players,stint_end,t1_points_scored,margin_per_100,num_poss
0,-5,5,0,14,"[203200, 1627734, 1626167, 203087, 1627763]",1610612754,1610612762,"[202711, 1626220, 203497, 204060, 1628378]",310,9,-27.77777777777778,18.0
1,3,-3,311,17,"[203200, 1627734, 1626167, 203087, 1627763]",1610612754,1610612762,"[202711, 1626220, 203497, 204060, 1628378]",446,20,10.714285714285714,28.0
2,3,-3,447,19,"[203200, 1627734, 1626167, 203087, 1627763]",1610612754,1610612762,"[1626220, 1628378, 202324, 202711, 203903]",511,22,9.375,32.0
3,6,-6,512,19,"[1627734, 1627763, 203087, 203926, 204456]",1610612754,1610612762,"[1626220, 1628378, 202324, 202711, 203903]",590,25,15.789473684210526,38.0
4,5,-5,591,20,"[1627734, 1627763, 203087, 203926, 204456]",1610612754,1610612762,"[1626220, 1627777, 1628378, 202324, 203903]",698,25,10.638297872340425,47.0
5,6,-6,699,24,"[1627734, 1628988, 1629048, 203926, 204456]",1610612754,1610612762,"[1627777, 1629671, 203497, 203903, 204060]",891,30,10.16949152542373,59.0
6,3,-3,892,27,"[203200, 204456, 203926, 1629048, 1628988]",1610612754,1610612762,"[203497, 204060, 203903, 1627777, 1629671]",923,30,4.838709677419355,62.0
7,1,-1,924,29,"[203200, 204456, 203926, 1629048, 1628988]",1610612754,1610612762,"[1627777, 1628378, 202711, 203497, 203903]",954,30,1.5625,64.0
8,2,-2,955,31,"[203200, 204456, 203926, 1629048, 1628988]",1610612754,1610612762,"[1627777, 1628378, 202324, 202711, 203903]",1020,33,2.941176470588235,68.0
9,-4,4,1021,41,"[203200, 204456, 203926, 1629048, 1628988]",1610612754,1610612762,"[1626220, 1628378, 202324, 202711, 203903]",1167,37,-5.128205128205128,78.0
10,-6,6,1168,43,"[1626167, 1627763, 1628988, 203200, 203926]",1610612754,1610612762,"[1626220, 1628378, 202324, 202711, 203903]",1248,37,-7.228915662650602,83.0
11,0,0,1249,47,"[1626167, 1627734, 1627763, 203087, 203926]",1610612754,1610612762,"[1626220, 1628378, 202324, 202711, 203903]",1428,47,0.0,94.0
12,0,0,1429,58,"[1626167, 1627734, 1627763, 203087, 203926]",1610612754,1610612762,"[1626220, 1628378, 202711, 203497, 204060]",1767,58,0.0,115.0
13,3,-3,1768,60,"[203200, 1627734, 1626167, 203087, 1627763]",1610612754,1610612762,"[202711, 1626220, 203497, 204060, 1628378]",1839,63,2.5,120.0
14,2,-2,1840,66,"[203200, 1627734, 1626167, 203087, 1627763]",1610612754,1610612762,"[1626220, 1628378, 202324, 202711, 203903]",1970,68,1.5384615384615385,130.0
15,6,-6,1971,66,"[1627734, 1627763, 203087, 203926, 204456]",1610612754,1610612762,"[1626220, 1628378, 202324, 202711, 203903]",2090,72,4.37956204379562,137.0
16,7,-7,2091,68,"[1627734, 1627763, 1629048, 203926, 204456]",1610612754,1610612762,"[1627777, 1629671, 203497, 203903, 204060]",2156,75,4.929577464788732,142.0
17,4,-4,2157,77,"[1627763, 1628988, 1629048, 203926, 204456]",1610612754,1610612762,"[1627777, 1629671, 203497, 203903, 204060]",2399,81,2.564102564102564,156.0
18,4,-4,2400,77,"[203200, 204456, 203926, 1629048, 1628988]",1610612754,1610612762,"[203497, 204060, 1628378, 203903, 1627777]",2438,81,2.515723270440252,159.0
19,2,-2,2439,79,"[203200, 204456, 203926, 1629048, 1628988]",1610612754,1610612762,"[1627777, 202324, 202711, 203903, 204060]",2446,81,1.25,160.0
20,4,-4,2447,79,"[1626167, 1627734, 1627763, 203200, 203926]",1610612754,1610612762,"[1627777, 202324, 202711, 203903, 204060]",2481,83,2.4539877300613497,163.0
21,1,-1,2482,85,"[1626167, 1627734, 1627763, 203200, 203926]",1610612754,1610612762,"[1626220, 202324, 202711, 203903, 204060]",2562,86,0.5952380952380952,168.0
22,6,-6,2563,85,"[1626167, 1627734, 1627763, 203200, 203926]",1610612754,1610612762,"[1626220, 1628378, 202324, 202711, 203903]",2630,91,3.4682080924855487,173.0
23,8,-8,2631,86,"[1626167, 1627734, 1627763, 203087, 203200]",1610612754,1610612762,"[1626220, 1628378, 202324, 202711, 203903]",2650,94,4.571428571428571,175.0
24,7,-7,2651,93,"[1626167, 1627734, 1627763, 203087, 203200]",1610612754,1610612762,"[1626220, 1628378, 202711, 203497, 204060]",2850,100,3.723404255319149,188.0
25,7,-7,2851,93,"[1626167, 1627734, 1627763, 203200, 203926]",1610612754,1610612762,"[1626220, 1628378, 202711, 203497, 204060]",2854,100,3.723404255319149,188.0
26,6,-6,2855,95,"[1626167, 1627763, 1629048, 203200, 203926]",1610612754,1610612762,"[1626220, 1628378, 202711, 203497, 204060]",2862,101,3.1578947368421053,190.0
27,8,-8,2863,95,"[1626167, 1627763, 1628988, 203200, 203926]",1610612754,1610612762,"[1626220, 1628378, 202711, 203497, 204060]",2879,103,4.145077720207254,193.0
28,8,-8,2880,95,"[1626167, 1627763, 1629048, 203200, 203926]",1610612754,1610612762,"[1626220, 1628378, 202711, 203497, 204060]",9999999,103,4.123711340206185,194.0
