,TEAM_ID_1,TEAM_1_PLAYERS,TEAM_ID_2,TEAM_2_PLAYERS,PERIOD
0,1610612753,[1628411  203920  202696  203095 1628365],1610612756,[1626162  203967  203382 1626164  201937],1
1,1610612753,[ 203920  203095  203082  203705 1628964],1610612756,[1626162  201937 1628969 1629028  204020],2
2,1610612753,[1628411  203920  202696  203095 1628365],1610612756,[1626162  203967  203382 1626164  201937],3
3,1610612753,[ 203920  203095  203082  203705 1628964],1610612756,[ 201937 1628969 1629028 1629661  204020],4
