,team1_id,team1_player1,team1_player2,team1_player3,team1_player4,team1_player5,team2_id,team2_player1,team2_player2,team2_player3,team2_player4,team2_player5,game_id,period,possession_start,possession_end,team1_points,team2_points,possession_team
0,1610612755,202699,201143,203954,1626196,1627732,1610612765,203503,201933,1627748,1629004,204025,0021900445,1,0,12,2,0,1610612755
1,1610612755,202699,201143,203954,1626196,1627732,1610612765,203503,201933,1627748,1629004,204025,0021900445,1,33,34,0,2,1610612765
2,1610612755,202699,201143,203954,1626196,1627732,1610612765,203503,201933,1627748,1629004,204025,0021900445,1,58,70,0,0,1610612755
3,1610612755,202699,201143,203954,1626196,1627732,1610612765,203503,201933,1627748,1629004,204025,0021900445,1,74,78,0,0,1610612765
4,1610612755,202699,201143,203954,1626196,1627732,1610612765,203503,201933,1627748,1629004,204025,0021900445,1,84,84,0,0,1610612755
5,1610612755,202699,201143,203954,1626196,1627732,1610612765,203503,201933,1627748,1629004,204025,0021900445,1,87,87,0,0,1610612765
6,1610612755,202699,201143,203954,1626196,1627732,1610612765,203503,201933,1627748,1629004,204025,0021900445,1,96,107,0,0,1610612755
7,1610612755,202699,201143,203954,1626196,1627732,1610612765,203503,201933,1627748,1629004,204025,0021900445,1,124,124,0,2,1610612765
8,1610612755,202699,201143,203954,1626196,1627732,1610612765,203503,201933,1627748,1629004,204025,0021900445,1,147,147,2,0,1610612755
9,1610612755,202699,201143,203954,1626196,1627732,1610612765,203503,201933,1627748,1629004,204025,0021900445,1,169,170,0,0,1610612765
10,1610612755,202699,201143,203954,1626196,1627732,1610612765,203503,201933,1627748,1629004,204025,0021900445,1,182,191,2,0,1610612755
11,1610612755,202699,201143,203954,1626196,1627732,1610612765,203503,201933,1627748,1629004,204025,0021900445,1,205,207,0,0,1610612765
12,1610612755,202699,201143,203954,1626196,1627732,1610612765,203503,201933,1627748,1629004,204025,0021900445,1,216,218,0,0,1610612755
13,1610612755,202699,201143,203954,1626196,1627732,1610612765,203503,201933,1627748,1629004,204025,0021900445,1,238,238,0,2,1610612765
14,1610612755,202699,201143,203954,1626196,1627732,1610612765,203503,201933,1627748,1629004,204025,0021900445,1,251,251,0,0,1610612755
15,1610612755,202699,201143,203954,1626196,1627732,1610612765,203503,201933,1627748,1629004,204025,0021900445,1,263,265,0,0,1610612765
16,1610612755,202699,201143,203954,1626196,1627732,1610612765,203503,201933,1627748,1629004,204025,0021900445,1,271,271,2,0,1610612755
17,1610612755,202699,201143,203954,1626196,1627732,1610612765,203503,201933,1627748,1629004,204025,0021900445,1,289,291,0,0,1610612765
18,1610612755,202699,201143,203954,1626196,1627732,1610612765,203503,201933,1627748,1629004,204025,0021900445,1,292,292,0,0,1610612755
19,1610612755,202699,201143,203954,1626196,1627732,1610612765,203503,201933,1627748,1629004,204025,0021900445,1,310,310,0,3,1610612765
20,1610612755,202699,201143,203954,1626196,1627732,1610612765,203503,201933,1627748,1629004,204025,0021900445,1,323,340,2,0,1610612755
21,1610612755,202699,201143,203954,1626196,1627732,1610612765,203503,201933,1627748,1629004,204025,0021900445,1,352,354,0,0,1610612765
22,1610612755,202699,201143,203954,1626196,1627732,1610612765,203503,201933,1627748,1629004,204025,0021900445,1,361,365,0,0,1610612755
23,1610612755,202699,201143,203954,1626196,1627732,1610612765,203503,201933,1627748,1629004,204025,0021900445,1,375,377,0,0,1610612765
24,1610612755,202699,201143,203954,1626196,1627732,1610612765,203503,201933,1627748,1629004,204025,0021900445,1,377,394,0,0,1610612755
25,1610612755,1627732,1627788,201143,202699,203516,1610612765,1627748,1629004,201565,201933,204038,0021900445,1,418,418,0,2,1610612765
26,1610612755,1627732,1627788,201143,202699,203516,1610612765,1627748,1629004,201565,201933,204038,0021900445,1,427,427,3,0,1610612755
27,1610612755,1627732,1627788,201143,202699,203516,1610612765,1627748,1629004,201565,201933,204038,0021900445,1,442,442,0,3,1610612765
28,1610612755,1627732,1627788,201143,202699,203516,1610612765,1627748,1629004,201565,201933,204038,0021900445,1,457,457,3,0,1610612755
29,1610612755,1627732,1627788,201143,202699,203516,1610612765,1627748,1629004,201565,201933,204038,0021900445,1,479,479,0,0,1610612765
30,1610612755,1627732,1627788,201143,202699,203516,1610612765,1627748,1629004,201565,201933,204038,0021900445,1,491,491,3,0,1610612755
31,1610612755,1627732,1627788,201143,202699,203516,1610612765,1627748,1629004,201565,201933,204038,0021900445,1,504,516,0,0,1610612765
32,1610612755,1627732,1627788,201143,202699,203516,1610612765,1627748,1629004,201565,201933,204038,0021900445,1,521,521,2,0,1610612755
33,1610612755,1627732,1627788,201143,202699,203516,1610612765,1627748,1629004,201565,201933,204038,0021900445,1,522,535,0,0,1610612765
34,1610612755,1627732,1627788,203118,203516,203954,1610612765,201565,202693,203083,203503,204038,0021900445,1,538,549,2,0,1610612755
35,1610612755,1627732,1627788,203118,203516,203954,1610612765,201565,202693,203083,203503,204038,0021900445,1,569,569,0,3,1610612765
36,1610612755,1627732,1627788,203118,203516,203954,1610612765,201565,202693,203083,203503,204038,0021900445,1,577,585,1,0,1610612755
37,1610612755,1626196,203118,203504,203516,203954,1610612765,201565,202693,203083,203503,204038,0021900445,1,600,600,0,0,1610612765
38,1610612755,1626196,203118,203504,203516,203954,1610612765,201565,202693,203083,203503,204038,0021900445,1,615,615,2,0,1610612755
39,1610612755,1626196,203118,203504,203516,203954,1610612765,201565,202693,203083,203503,204038,0021900445,1,629,632,0,2,1610612765
40,1610612755,1626196,203118,203504,203516,203954,1610612765,201565,202693,203083,203503,204038,0021900445,1,650,650,2,0,1610612755
41,1610612755,1626196,203118,203504,203516,203954,1610612765,201565,202693,203083,203503,204038,0021900445,1,657,667,0,2,1610612765
42,1610612755,1626196,203118,203504,203516,203954,1610612765,201565,202693,203083,203503,204038,0021900445,1,685,686,2,0,1610612755
43,1610612755,1626196,203118,203504,203516,203954,1610612765,201565,202693,203083,203503,204038,0021900445,1,691,691,0,0,1610612765
44,1610612755,1626196,203118,203504,203516,203954,1610612765,201565,202693,203083,203503,204038,0021900445,1,700,701,0,0,1610612755
45,1610612755,1626196,203118,203504,203516,203954,1610612765,201565,202693,203083,203503,204038,0021900445,1,715,720,0,2,1610612765
46,1610612755,202699,203954,1626196,203118,203504,1610612765,1629004,201565,204038,203083,202693,0021900445,2,720,739,0,2,1610612765
47,1610612755,202699,203954,1626196,203118,203504,1610612765,1629004,201565,204038,203083,202693,0021900445,2,753,753,0,0,1610612755
48,1610612755,202699,203954,1626196,203118,203504,1610612765,1629004,201565,204038,203083,202693,0021900445,2,767,780,0,2,1610612765
49,1610612755,202699,203954,1626196,203118,203504,1610612765,1629004,201565,204038,203083,202693,0021900445,2,797,797,2,0,1610612755
50,1610612755,202699,203954,1626196,203118,203504,1610612765,1629004,201565,204038,203083,202693,0021900445,2,806,817,0,0,1610612765
51,1610612755,202699,203954,1626196,203118,203504,1610612765,1629004,201565,204038,203083,202693,0021900445,2,829,829,2,0,1610612755
52,1610612755,202699,203954,1626196,203118,203504,1610612765,1629004,201565,204038,203083,202693,0021900445,2,843,843,0,4,1610612765
53,1610612755,202699,203954,1626196,203118,203504,1610612765,1629004,201565,204038,203083,202693,0021900445,2,851,864,2,0,1610612755
54,1610612755,202699,203954,1626196,203118,203504,1610612765,1629004,201565,204038,203083,202693,0021900445,2,877,877,0,3,1610612765
55,1610612755,202699,203954,1626196,203118,203504,1610612765,1629004,201565,204038,203083,202693,0021900445,2,901,901,2,0,1610612755
56,1610612755,202699,203954,1626196,203118,203504,1610612765,1629004,201565,204038,203083,202693,0021900445,2,915,919,0,0,1610612765
57,1610612755,202699,203954,1626196,203118,203504,1610612765,1629004,201565,204038,203083,202693,0021900445,2,923,925,0,0,1610612755
58,1610612755,202699,203954,1626196,203118,203504,1610612765,1629004,201565,204038,203083,202693,0021900445,2,931,931,0,3,1610612765
59,1610612755,202699,203954,1626196,203118,203504,1610612765,1629004,201565,204038,203083,202693,0021900445,2,934,954,0,0,1610612755
60,1610612755,1626196,1627732,201143,202699,203516,1610612765,1629004,202693,203083,204025,204038,0021900445,2,970,987,0,2,1610612765
61,1610612755,1627732,1627788,201143,202699,203516,1610612765,1629004,202693,203083,204025,204038,0021900445,2,1007,1007,2,0,1610612755
62,1610612755,1627732,1627788,201143,202699,203516,1610612765,1629004,202693,203083,204025,204038,0021900445,2,1023,1026,0,0,1610612765
63,1610612755,1627732,1627788,201143,202699,203516,1610612765,1629004,202693,203083,204025,204038,0021900445,2,1034,1042,0,0,1610612755
64,1610612755,1627732,1627788,201143,202699,203516,1610612765,1629004,202693,203083,204025,204038,0021900445,2,1047,1047,0,2,1610612765
65,1610612755,1627732,1627788,201143,202699,203516,1610612765,1629004,202693,203083,204025,204038,0021900445,2,1064,1064,3,0,1610612755
66,1610612755,1627732,1627788,201143,202699,203516,1610612765,1629004,201933,202693,203503,204025,0021900445,2,1079,1086,0,0,1610612765
67,1610612755,1627732,1627788,201143,202699,203516,1610612765,1629004,201933,202693,203503,204025,0021900445,2,1102,1102,2,0,1610612755
68,1610612755,1627732,1627788,201143,202699,203516,1610612765,1629004,201933,202693,203503,204025,0021900445,2,1122,1125,0,0,1610612765
69,1610612755,1627732,1627788,201143,202699,203516,1610612765,1629004,201933,202693,203503,204025,0021900445,2,1132,1143,0,0,1610612755
70,1610612755,1627732,1627788,201143,202699,203516,1610612765,201933,202693,203503,204025,204038,0021900445,2,1151,1154,0,0,1610612765
71,1610612755,1627732,1627788,201143,202699,203516,1610612765,201933,202693,203503,204025,204038,0021900445,2,1164,1172,2,0,1610612755
72,1610612755,1627732,1627788,201143,202699,203516,1610612765,201933,202693,203503,204025,204038,0021900445,2,1172,1183,0,3,1610612765
73,1610612755,1627732,1627788,201143,202699,203516,1610612765,201933,202693,203503,204025,204038,0021900445,2,1205,1205,2,0,1610612755
74,1610612755,1627732,1627788,201143,202699,203516,1610612765,201933,202693,203503,204025,204038,0021900445,2,1212,1214,0,0,1610612765
75,1610612755,1627732,1627788,201143,202699,203516,1610612765,201933,202693,203503,204025,204038,0021900445,2,1218,1218,3,0,1610612755
76,1610612755,1627732,1627788,201143,202699,203516,1610612765,201933,202693,203503,204025,204038,0021900445,2,1219,1237,0,0,1610612765
77,1610612755,1627732,1627788,201143,202699,203516,1610612765,201565,201933,203083,203503,204038,0021900445,2,1245,1252,0,0,1610612755
78,1610612755,1627732,1627788,201143,202699,203516,1610612765,201565,201933,203083,203503,204038,0021900445,2,1257,1259,0,0,1610612765
79,1610612755,1627732,1627788,201143,202699,203516,1610612765,201565,201933,203083,203503,204038,0021900445,2,1265,1265,2,0,1610612755
80,1610612755,1627732,1627788,201143,202699,203516,1610612765,201565,201933,203083,203503,204038,0021900445,2,1282,1282,0,0,1610612765
81,1610612755,1627732,1627788,201143,202699,203516,1610612765,201565,201933,203083,203503,204038,0021900445,2,1289,1289,2,0,1610612755
82,1610612755,1627732,1627788,201143,202699,203516,1610612765,201565,201933,203083,203503,204038,0021900445,2,1303,1303,0,2,1610612765
83,1610612755,1627732,1627788,201143,202699,203516,1610612765,201565,201933,203083,203503,204038,0021900445,2,1319,1319,2,0,1610612755
84,1610612755,1627732,1627788,201143,202699,203516,1610612765,201565,201933,203083,203503,204038,0021900445,2,1327,1337,0,2,1610612765
85,1610612755,1626196,1627732,203118,203516,203954,1610612765,201565,201933,203083,203503,204038,0021900445,2,1363,1363,2,0,1610612755
86,1610612755,1626196,1627732,203118,203516,203954,1610612765,201565,201933,203083,203503,204038,0021900445,2,1376,1378,0,0,1610612765
87,1610612755,1626196,1627732,203118,203516,203954,1610612765,201565,201933,203083,203503,204038,0021900445,2,1383,1385,0,0,1610612755
88,1610612755,1626196,1627732,203118,203516,203954,1610612765,201565,201933,203083,203503,204038,0021900445,2,1390,1390,0,2,1610612765
89,1610612755,1626196,1627732,203118,203516,203954,1610612765,201565,201933,203083,203503,204038,0021900445,2,1410,1412,0,0,1610612755
90,1610612755,1626196,1627732,203118,203516,203954,1610612765,201565,201933,203083,203503,204038,0021900445,2,1433,1433,0,2,1610612765
91,1610612755,202699,201143,203954,1626196,1627732,1610612765,203503,201933,1629004,204025,203083,0021900445,3,1440,1458,0,0,1610612765
92,1610612755,202699,201143,203954,1626196,1627732,1610612765,203503,201933,1629004,204025,203083,0021900445,3,1467,1473,0,0,1610612755
93,1610612755,202699,201143,203954,1626196,1627732,1610612765,203503,201933,1629004,204025,203083,0021900445,3,1487,1487,0,2,1610612765
94,1610612755,202699,201143,203954,1626196,1627732,1610612765,203503,201933,1629004,204025,203083,0021900445,3,1505,1507,0,0,1610612755
95,1610612755,202699,201143,203954,1626196,1627732,1610612765,203503,201933,1629004,204025,203083,0021900445,3,1510,1516,0,2,1610612765
96,1610612755,202699,201143,203954,1626196,1627732,1610612765,203503,201933,1629004,204025,203083,0021900445,3,1522,1524,0,0,1610612755
97,1610612755,202699,201143,203954,1626196,1627732,1610612765,203503,201933,1629004,204025,203083,0021900445,3,1532,1540,0,2,1610612765
98,1610612755,202699,201143,203954,1626196,1627732,1610612765,203503,201933,1629004,204025,203083,0021900445,3,1560,1560,2,0,1610612755
99,1610612755,202699,201143,203954,1626196,1627732,1610612765,203503,201933,1629004,204025,203083,0021900445,3,1570,1570,0,3,1610612765
100,1610612755,202699,201143,203954,1626196,1627732,1610612765,203503,201933,1629004,204025,203083,0021900445,3,1584,1584,3,0,1610612755
101,1610612755,202699,201143,203954,1626196,1627732,1610612765,203503,201933,1629004,204025,203083,0021900445,3,1607,1607,0,2,1610612765
102,1610612755,202699,201143,203954,1626196,1627732,1610612765,203503,201933,1629004,204025,203083,0021900445,3,1624,1628,0,0,1610612755
103,1610612755,202699,201143,203954,1626196,1627732,1610612765,203503,201933,1629004,204025,203083,0021900445,3,1630,1641,0,2,1610612765
104,1610612755,202699,201143,203954,1626196,1627732,1610612765,203503,201933,1629004,204025,203083,0021900445,3,1662,1662,2,0,1610612755
105,1610612755,202699,201143,203954,1626196,1627732,1610612765,203503,201933,1629004,204025,203083,0021900445,3,1674,1674,0,1,1610612765
106,1610612755,202699,201143,203954,1626196,1627732,1610612765,203503,201933,1629004,204025,203083,0021900445,3,1689,1689,3,0,1610612755
107,1610612755,202699,201143,203954,1626196,1627732,1610612765,203503,201933,1629004,204025,203083,0021900445,3,1703,1706,0,0,1610612765
108,1610612755,202699,201143,203954,1626196,1627732,1610612765,203503,201933,1629004,204025,203083,0021900445,3,1711,1711,2,0,1610612755
109,1610612755,202699,201143,203954,1626196,1627732,1610612765,203503,201933,1629004,204025,203083,0021900445,3,1732,1732,0,3,1610612765
110,1610612755,202699,201143,203954,1626196,1627732,1610612765,203503,201933,1629004,204025,203083,0021900445,3,1750,1750,2,0,1610612755
111,1610612755,202699,201143,203954,1626196,1627732,1610612765,203503,201933,1629004,204025,203083,0021900445,3,1761,1763,0,0,1610612765
112,1610612755,202699,201143,203954,1626196,1627732,1610612765,203503,201933,1629004,204025,203083,0021900445,3,1768,1768,1,0,1610612755
113,1610612755,1626196,1627732,201143,202699,203516,1610612765,1629004,201933,203083,204025,204038,0021900445,3,1780,1783,0,1,1610612765
114,1610612755,1627732,1627788,201143,202699,203516,1610612765,1629004,201933,203083,204025,204038,0021900445,3,1796,1796,0,0,1610612755
115,1610612755,1627732,1627788,201143,202699,203516,1610612765,1629004,201933,203083,204025,204038,0021900445,3,1796,1812,0,2,1610612765
116,1610612755,1627732,1627788,201143,202699,203516,1610612765,1626174,1629004,201933,204025,204038,0021900445,3,1822,1825,0,0,1610612755
117,1610612755,1627732,1627788,201143,202699,203516,1610612765,1626174,1629004,201933,204025,204038,0021900445,3,1832,1834,0,0,1610612765
118,1610612755,1627732,1627788,201143,202699,203516,1610612765,1626174,1629004,201933,204025,204038,0021900445,3,1835,1835,0,0,1610612755
119,1610612755,1627732,1627788,201143,202699,203516,1610612765,1626174,1629004,201933,204025,204038,0021900445,3,1847,1849,0,0,1610612765
120,1610612755,1627732,1627788,201143,202699,203516,1610612765,1626174,1629004,201933,204025,204038,0021900445,3,1859,1859,3,0,1610612755
121,1610612755,1627732,1627788,201143,202699,203516,1610612765,1626174,1629004,201933,204025,204038,0021900445,3,1876,1876,0,0,1610612765
122,1610612755,1627732,1627788,201143,202699,203516,1610612765,1626174,1629004,201933,204025,204038,0021900445,3,1880,1880,2,0,1610612755
123,1610612755,1627732,1627788,201143,202699,203516,1610612765,1626174,1629004,201933,204025,204038,0021900445,3,1893,1895,0,0,1610612765
124,1610612755,1627732,1627788,201143,202699,203516,1610612765,1626174,1629004,201933,204025,204038,0021900445,3,1902,1915,2,0,1610612755
125,1610612755,1627732,1627788,201143,202699,203516,1610612765,1626174,1629004,201933,204025,204038,0021900445,3,1920,1930,0,1,1610612765
126,1610612755,1627732,1627788,201143,203118,203516,1610612765,1626174,1629004,201565,202693,204038,0021900445,3,1949,1949,0,0,1610612755
127,1610612755,1627732,1627788,201143,203118,203516,1610612765,1626174,1629004,201565,202693,204038,0021900445,3,1952,1952,0,2,1610612765
128,1610612755,1627732,1627788,201143,203118,203516,1610612765,1626174,1629004,201565,202693,204038,0021900445,3,1954,1966,2,0,1610612755
129,1610612755,1626196,1627732,1627788,203118,203954,1610612765,1626174,201565,202693,203503,204038,0021900445,3,1979,1979,0,2,1610612765
130,1610612755,1626196,1627732,1627788,203118,203954,1610612765,1626174,201565,202693,203503,204038,0021900445,3,1993,2004,0,0,1610612755
131,1610612755,1626196,1627732,1627788,203118,203954,1610612765,201565,202693,203083,203503,204038,0021900445,3,2008,2008,0,2,1610612765
132,1610612755,1626196,1627732,1627788,203118,203954,1610612765,201565,202693,203083,203503,204038,0021900445,3,2026,2026,3,0,1610612755
133,1610612755,1626196,1627732,1627788,203118,203954,1610612765,201565,202693,203083,203503,204038,0021900445,3,2041,2044,0,0,1610612765
134,1610612755,1626196,1627732,1627788,203118,203954,1610612765,201565,202693,203083,203503,204038,0021900445,3,2054,2054,0,0,1610612755
135,1610612755,1626196,1627732,1627788,203118,203954,1610612765,201565,202693,203083,203503,204038,0021900445,3,2067,2067,0,0,1610612765
136,1610612755,1626196,1627732,1627788,203118,203954,1610612765,201565,202693,203083,203503,204038,0021900445,3,2071,2071,2,0,1610612755
137,1610612755,1626196,1627732,1627788,203118,203954,1610612765,201565,202693,203083,203503,204038,0021900445,3,2078,2078,0,0,1610612765
138,1610612755,1626196,1627732,1627788,203118,203954,1610612765,201565,202693,203083,203503,204038,0021900445,3,2085,2085,3,0,1610612755
139,1610612755,1626196,1627732,1627788,203118,203954,1610612765,201565,202693,203083,203503,204038,0021900445,3,2100,2100,0,3,1610612765
140,1610612755,1626196,1627732,1627788,203118,203954,1610612765,201565,202693,203083,203503,204038,0021900445,3,2100,2113,2,0,1610612755
141,1610612755,1626196,1627732,1627788,203118,203954,1610612765,201565,202693,203083,203503,204038,0021900445,3,2123,2123,0,2,1610612765
142,1610612755,1626196,1627732,1627788,203118,203954,1610612765,201565,202693,203083,203503,204038,0021900445,3,2142,2143,0,0,1610612755
143,1610612755,1626196,1627732,1627788,203118,203954,1610612765,201565,202693,203083,203503,204038,0021900445,3,2160,2160,0,2,1610612765
144,1610612755,1626196,1627732,1627788,203118,203954,1610612765,201565,202693,203083,203503,204038,0021900445,3,2160,2160,0,0,489
145,1610612755,203954,1626196,203516,203118,203504,1610612765,203503,201565,204038,203083,202693,0021900445,4,2160,2180,2,0,1610612755
146,1610612755,203954,1626196,203516,203118,203504,1610612765,203503,201565,204038,203083,202693,0021900445,4,2194,2207,0,0,1610612765
147,1610612755,203954,1626196,203516,203118,203504,1610612765,203503,201565,204038,203083,202693,0021900445,4,2214,2217,0,0,1610612755
148,1610612755,203954,1626196,203516,203118,203504,1610612765,203503,201565,204038,203083,202693,0021900445,4,2221,2221,0,2,1610612765
149,1610612755,203954,1626196,203516,203118,203504,1610612765,203503,201565,204038,203083,202693,0021900445,4,2236,2241,0,0,1610612755
150,1610612755,203954,1626196,203516,203118,203504,1610612765,203503,201565,204038,203083,202693,0021900445,4,2242,2242,0,0,1610612765
151,1610612755,203954,1626196,203516,203118,203504,1610612765,203503,201565,204038,203083,202693,0021900445,4,2257,2259,0,0,1610612755
152,1610612755,203954,1626196,203516,203118,203504,1610612765,203503,201565,204038,203083,202693,0021900445,4,2265,2265,0,2,1610612765
153,1610612755,203954,1626196,203516,203118,203504,1610612765,203503,201565,204038,203083,202693,0021900445,4,2280,2291,0,0,1610612755
154,1610612755,203954,1626196,203516,203118,203504,1610612765,203503,201565,204038,203083,202693,0021900445,4,2299,2299,0,0,1610612765
155,1610612755,203954,1626196,203516,203118,203504,1610612765,203503,201565,204038,203083,202693,0021900445,4,2321,2321,2,0,1610612755
156,1610612755,203954,1626196,203516,203118,203504,1610612765,203503,201565,204038,203083,202693,0021900445,4,2340,2340,0,2,1610612765
157,1610612755,203954,1626196,203516,203118,203504,1610612765,203503,201565,204038,203083,202693,0021900445,4,2363,2363,3,0,1610612755
158,1610612755,203954,1626196,203516,203118,203504,1610612765,203503,201565,204038,203083,202693,0021900445,4,2375,2375,0,0,1610612765
159,1610612755,1626196,202699,203504,203516,203954,1610612765,203503,201565,204038,203083,202693,0021900445,4,2389,2389,2,0,1610612755
160,1610612755,1626196,202699,203504,203516,203954,1610612765,203503,201565,204038,203083,202693,0021900445,4,2397,2414,0,2,1610612765
161,1610612755,1626196,1627732,201143,202699,203516,1610612765,1629004,202693,203083,204025,204038,0021900445,4,2437,2439,0,0,1610612755
162,1610612755,1626196,1627732,201143,202699,203516,1610612765,1629004,202693,203083,204025,204038,0021900445,4,2457,2459,0,0,1610612765
163,1610612755,1626196,1627732,201143,202699,203516,1610612765,1629004,202693,203083,204025,204038,0021900445,4,2464,2464,2,0,1610612755
164,1610612755,1627732,1627788,201143,202699,203516,1610612765,1629004,202693,203083,204025,204038,0021900445,4,2480,2484,0,0,1610612765
165,1610612755,1627732,1627788,201143,202699,203516,1610612765,1629004,202693,203083,204025,204038,0021900445,4,2485,2485,2,0,1610612755
166,1610612755,1627732,1627788,201143,202699,203516,1610612765,1629004,202693,203083,204025,204038,0021900445,4,2505,2508,0,2,1610612765
167,1610612755,1627732,1627788,201143,202699,203516,1610612765,1629004,202693,203083,204025,204038,0021900445,4,2521,2531,2,0,1610612755
168,1610612755,1627732,1627788,201143,202699,203516,1610612765,1629004,201933,203083,204025,204038,0021900445,4,2554,2554,0,0,1610612765
169,1610612755,1627732,1627788,201143,202699,203516,1610612765,1629004,201933,203083,204025,204038,0021900445,4,2558,2558,2,0,1610612755
170,1610612755,1627732,1627788,201143,202699,203516,1610612765,1629004,201933,203083,204025,204038,0021900445,4,2559,2566,0,1,1610612765
171,1610612755,1626196,1627732,1627788,201143,202699,1610612765,1629004,201565,201933,203083,204038,0021900445,4,2586,2586,3,0,1610612755
172,1610612755,1626196,1627732,1627788,201143,202699,1610612765,1629004,201565,201933,203083,204038,0021900445,4,2599,2599,0,2,1610612765
173,1610612755,1626196,1627732,1627788,201143,202699,1610612765,1629004,201565,201933,203083,204038,0021900445,4,2621,2621,2,0,1610612755
174,1610612755,1626196,1627732,1627788,201143,202699,1610612765,1629004,201565,201933,203083,204038,0021900445,4,2625,2637,0,0,1610612765
175,1610612755,1626196,1627732,1627788,201143,202699,1610612765,1629004,201565,201933,203083,204038,0021900445,4,2647,2655,2,0,1610612755
176,1610612755,1626196,1627732,1627788,201143,202699,1610612765,1629004,201565,201933,203083,203503,0021900445,4,2672,2676,0,0,1610612765
177,1610612755,1626196,1627732,1627788,201143,202699,1610612765,1629004,201565,201933,203083,203503,0021900445,4,2686,2692,3,0,1610612755
178,1610612755,1626196,1627732,1627788,201143,202699,1610612765,1629004,201565,201933,203083,203503,0021900445,4,2702,2702,0,0,1610612765
179,1610612755,1626196,1627732,1627788,201143,202699,1610612765,1629004,201565,201933,203083,203503,0021900445,4,2722,2724,0,0,1610612755
180,1610612755,1626196,1627732,1627788,201143,202699,1610612765,1629004,201565,201933,203083,203503,0021900445,4,2732,2732,0,2,1610612765
181,1610612755,1626196,1627732,1627788,201143,202699,1610612765,1629004,201565,201933,203083,203503,0021900445,4,2750,2750,0,0,1610612755
182,1610612755,1626196,1627732,1627788,201143,202699,1610612765,1629004,201565,201933,203083,203503,0021900445,4,2764,2764,0,2,1610612765
183,1610612755,1626196,1627732,1627788,201143,202699,1610612765,1629004,201565,201933,203083,203503,0021900445,4,2784,2784,2,0,1610612755
184,1610612755,1626196,1627732,1627788,201143,202699,1610612765,1629004,201565,201933,203083,203503,0021900445,4,2794,2794,0,3,1610612765
185,1610612755,1626196,1627732,1627788,201143,202699,1610612765,1629004,201565,201933,203083,203503,0021900445,4,2806,2809,0,0,1610612755
186,1610612755,1626196,1627732,1627788,201143,202699,1610612765,1629004,201565,201933,203083,203503,0021900445,4,2821,2822,0,0,1610612765
187,1610612755,1626196,1627732,1627788,201143,202699,1610612765,1629004,201565,201933,203083,203503,0021900445,4,2822,2831,0,0,1610612755
188,1610612755,1629003,203118,203504,203526,203658,1610612765,1626174,1627748,1629004,1629635,204025,0021900445,4,2834,2834,0,2,1610612765
189,1610612755,1629003,203118,203504,203526,203658,1610612765,1626174,1627748,1629004,1629635,204025,0021900445,4,2844,2848,0,0,1610612755
190,1610612755,1629003,203118,203504,203526,203658,1610612765,1626174,1627748,1629004,1629635,204025,0021900445,4,2851,2851,0,1,1610612765
191,1610612755,1629003,203118,203504,203526,203658,1610612765,1626174,1627748,1629004,1629635,204025,0021900445,4,2874,2874,2,0,1610612755
