,t1_points_scored,stint_end,t2_pm,t1_players,t2_id,t1_id,t2_players,t2_points_scored,t1_pm,stint_start,margin_per_100,num_poss
0,16,324,2,"[1629006, 203496, 1626157, 1629633, 203952]",1610612756,1610612750,"[1626162, 203967, 1626163, 1626164, 201937]",18,-2,0,-8.333333333333332,24.0
1,18,335,0,"[1629006, 203496, 1626157, 1629633, 203952]",1610612756,1610612750,"[1626162, 203967, 1626163, 1626164, 201937]",18,0,325,0.0,25.0
2,22,424,0,"[1626157, 1629006, 1629633, 201952, 203496]",1610612756,1610612750,"[1626164, 1628969, 1629661, 201937, 203967]",22,0,336,0.0,31.0
3,22,458,0,"[1626157, 1628395, 1629006, 1629633, 201952]",1610612756,1610612750,"[1626164, 1628969, 1629661, 201937, 203967]",22,0,425,0.0,32.0
4,29,642,2,"[1626157, 1628395, 1628966, 201952, 203894]",1610612756,1610612750,"[1626164, 1628969, 1629660, 1629661, 203967]",31,-2,459,-4.545454545454546,44.0
5,31,715,2,"[1626157, 1628395, 1628966, 201952, 203894]",1610612756,1610612750,"[1626164, 1628969, 1629660, 1629661, 203382]",33,-2,643,-4.081632653061225,49.0
6,37,882,0,"[1626203, 1628966, 201952, 203476, 203894]",1610612756,1610612750,"[1626164, 1628969, 1629660, 1629661, 203382]",37,0,716,0.0,61.0
7,39,912,0,"[203952, 201952, 1628966, 203476, 1626203]",1610612756,1610612750,"[1626162, 201937, 1628969, 1629661, 1627767]",39,0,883,0.0,63.0
8,40,975,1,"[1626203, 1628966, 1629633, 203476, 203952]",1610612756,1610612750,"[1626162, 201937, 1628969, 1629661, 1627767]",41,-1,913,-1.4492753623188406,69.0
9,45,1063,2,"[1626203, 1628966, 1629633, 203476, 203952]",1610612756,1610612750,"[1626162, 1628969, 1629661, 201937, 203967]",47,-2,976,-2.5974025974025974,77.0
10,52,1206,0,"[1626157, 1626203, 1628966, 1629006, 203952]",1610612756,1610612750,"[1626162, 1628969, 1629661, 201937, 203967]",52,0,1064,0.0,86.0
11,63,1393,-2,"[1626157, 1629006, 201952, 203496, 203952]",1610612756,1610612750,"[1626162, 1626164, 1628969, 1629660, 203967]",61,2,1207,2.0202020202020203,99.0
12,64,1438,-3,"[1626157, 1629006, 201952, 203496, 203952]",1610612756,1610612750,"[1626164, 1629661, 201937, 203382, 203967]",61,3,1394,2.912621359223301,103.0
13,66,1524,-1,"[1626157, 1629006, 201952, 203496, 203952]",1610612756,1610612750,"[1626162, 1626164, 201937, 203382, 203967]",65,1,1439,0.9174311926605505,109.0
14,66,1536,-1,"[1629006, 203496, 1626157, 1629633, 203952]",1610612756,1610612750,"[1626162, 203967, 1626163, 1626164, 201937]",65,1,1525,0.9090909090909091,110.0
15,74,1780,3,"[1629006, 203496, 1626157, 1629633, 203952]",1610612756,1610612750,"[1626162, 1626164, 1628969, 201937, 203967]",77,-3,1537,-2.272727272727273,132.0
16,74,1805,8,"[1626157, 1629006, 203496, 203894, 203952]",1610612756,1610612750,"[1626162, 1626164, 1628969, 201937, 203967]",82,-8,1781,-5.9259259259259265,135.0
17,78,1914,6,"[1626157, 1629006, 201952, 203496, 203894]",1610612756,1610612750,"[1626162, 1626164, 1628969, 201937, 203967]",84,-6,1806,-4.25531914893617,141.0
18,78,1940,8,"[1626157, 1628966, 201952, 203496, 203894]",1610612756,1610612750,"[1626162, 1626164, 1628969, 201937, 203967]",86,-8,1915,-5.594405594405594,143.0
19,85,2148,9,"[1626157, 1628966, 201952, 203496, 203894]",1610612756,1610612750,"[1626164, 1628969, 1629660, 1629661, 203382]",94,-9,1941,-5.7324840764331215,157.0
20,90,2335,10,"[1626203, 1628966, 201952, 203476, 203952]",1610612756,1610612750,"[1626164, 1628969, 1629660, 1629661, 203382]",100,-10,2149,-5.9171597633136095,169.0
21,90,2354,12,"[1629633, 203952, 1628966, 203894, 203476]",1610612756,1610612750,"[1626162, 1626163, 201937, 1628969, 1629661]",102,-12,2336,-7.017543859649122,171.0
22,90,2387,12,"[1626157, 1628966, 1629633, 203894, 203952]",1610612756,1610612750,"[1626162, 1628969, 1629661, 201937, 203967]",102,-12,2355,-6.976744186046512,172.0
23,92,2451,10,"[1626157, 1628966, 1629006, 203894, 203952]",1610612756,1610612750,"[1626162, 1628969, 1629661, 201937, 203967]",102,-10,2388,-5.714285714285714,175.0
24,96,2572,11,"[1626157, 1629006, 203496, 203894, 203952]",1610612756,1610612750,"[1626162, 1628969, 1629661, 201937, 203967]",107,-11,2452,-6.077348066298343,181.0
25,96,2588,12,"[1626157, 1629006, 201952, 203496, 203952]",1610612756,1610612750,"[1626162, 1626164, 1628969, 1629660, 203967]",108,-12,2573,-6.593406593406594,182.0
26,98,2632,13,"[1626157, 1628966, 1629006, 201952, 203496]",1610612756,1610612750,"[1626162, 1626164, 1628969, 201937, 203967]",111,-13,2589,-7.065217391304348,184.0
27,102,2763,16,"[1626157, 1629006, 201952, 203496, 203952]",1610612756,1610612750,"[1626162, 1626164, 1629661, 201937, 203967]",118,-16,2633,-8.37696335078534,191.0
28,107,2810,18,"[1626157, 1629006, 201952, 203496, 203952]",1610612756,1610612750,"[1626162, 1626164, 201937, 203382, 203967]",125,-18,2764,-9.183673469387756,196.0
29,109,2865,16,"[1626157, 1628966, 1629006, 201952, 203952]",1610612756,1610612750,"[1626162, 1626164, 201937, 203382, 203967]",125,-16,2811,-8.080808080808081,198.0
30,109,9999999,16,"[1626203, 1628966, 1629633, 1629675, 203943]",1610612756,1610612750,"[1627767, 1628975, 1629059, 1629660, 1629661]",125,-16,2866,-8.040201005025125,199.0
