,team1_id,team1_player1,team1_player2,team1_player3,team1_player4,team1_player5,team2_id,team2_player1,team2_player2,team2_player3,team2_player4,team2_player5,game_id,period,possession_start,possession_end,team1_points,team2_points,possession_team
0,1610612745,1630256,1626174,1628464,201569,1630224,1610612752,1629628,203944,1629011,203095,202689,0022100239,1,0,19,0,0,1610612752
1,1610612745,1630256,1626174,1628464,201569,1630224,1610612752,1629628,203944,1629011,203095,202689,0022100239,1,36,44,0,0,1610612745
2,1610612745,1630256,1626174,1628464,201569,1630224,1610612752,1629628,203944,1629011,203095,202689,0022100239,1,51,53,0,0,1610612752
3,1610612745,1630256,1626174,1628464,201569,1630224,1610612752,1629628,203944,1629011,203095,202689,0022100239,1,61,61,0,0,1610612745
4,1610612745,1630256,1626174,1628464,201569,1630224,1610612752,1629628,203944,1629011,203095,202689,0022100239,1,74,76,0,0,1610612752
5,1610612745,1630256,1626174,1628464,201569,1630224,1610612752,1629628,203944,1629011,203095,202689,0022100239,1,79,88,0,0,1610612745
6,1610612745,1630256,1626174,1628464,201569,1630224,1610612752,1629628,203944,1629011,203095,202689,0022100239,1,98,98,0,2,1610612752
7,1610612745,1630256,1626174,1628464,201569,1630224,1610612752,1629628,203944,1629011,203095,202689,0022100239,1,123,123,2,0,1610612745
8,1610612745,1630256,1626174,1628464,201569,1630224,1610612752,1629628,203944,1629011,203095,202689,0022100239,1,143,143,0,3,1610612752
9,1610612745,1630256,1626174,1628464,201569,1630224,1610612752,1629628,203944,1629011,203095,202689,0022100239,1,160,169,0,0,1610612745
10,1610612745,1630256,1626174,1628464,201569,1630224,1610612752,1629628,203944,1629011,203095,202689,0022100239,1,176,178,0,0,1610612752
11,1610612745,1630256,1626174,1628464,201569,1630224,1610612752,1629628,203944,1629011,203095,202689,0022100239,1,183,185,0,0,1610612745
12,1610612745,1630256,1626174,1628464,201569,1630224,1610612752,1629628,203944,1629011,203095,202689,0022100239,1,189,189,0,0,1610612752
13,1610612745,1630256,1626174,1628464,201569,1630224,1610612752,1629628,203944,1629011,203095,202689,0022100239,1,204,204,0,0,1610612745
14,1610612745,1630256,1626174,1628464,201569,1630224,1610612752,1629628,203944,1629011,203095,202689,0022100239,1,209,211,0,0,1610612752
15,1610612745,1630256,1626174,1628464,201569,1630224,1610612752,1629628,203944,1629011,203095,202689,0022100239,1,217,217,0,0,1610612745
16,1610612745,1630256,1626174,1628464,201569,1630224,1610612752,1629628,203944,1629011,203095,202689,0022100239,1,235,237,0,0,1610612752
17,1610612745,1630256,1626174,1628464,201569,1630224,1610612752,1629628,203944,1629011,203095,202689,0022100239,1,241,241,0,0,1610612745
18,1610612745,1630256,1626174,1628464,201569,1630224,1610612752,1629628,203944,1629011,203095,202689,0022100239,1,252,254,0,0,1610612752
19,1610612745,1630256,1626174,1628464,201569,1630224,1610612752,1629628,203944,1629011,203095,202689,0022100239,1,263,263,2,0,1610612745
20,1610612745,1630256,1626174,1628464,201569,1630224,1610612752,1629628,203944,1629011,203095,202689,0022100239,1,282,289,0,0,1610612752
21,1610612745,1630256,1626174,1628464,201569,1630224,1610612752,1629628,203944,1629011,203095,202689,0022100239,1,297,298,0,0,1610612745
22,1610612745,1630256,1626174,1628464,201569,1630224,1610612752,1629628,203944,1629011,203095,202689,0022100239,1,310,311,0,0,1610612752
23,1610612745,1630256,1626174,1628464,201569,1630224,1610612752,1629628,203944,1629011,203095,202689,0022100239,1,312,325,0,0,1610612745
24,1610612745,1630256,1626174,1628464,201569,1630224,1610612752,1629628,203944,1629011,203095,202689,0022100239,1,339,339,0,3,1610612752
25,1610612745,1630256,1626174,1628464,201569,1630224,1610612752,1629628,203944,1629011,203095,202689,0022100239,1,356,358,0,0,1610612745
26,1610612745,1630256,1626174,1628464,201569,1630224,1610612752,1629628,203944,1629011,203095,202689,0022100239,1,370,372,0,0,1610612752
27,1610612745,1630256,1626174,1628464,201569,1630224,1610612752,1629628,203944,1629011,203095,202689,0022100239,1,383,383,2,0,1610612745
28,1610612745,1630256,1626174,1628464,201569,1630224,1610612752,1629628,203944,1629011,203095,202689,0022100239,1,397,398,0,0,1610612752
29,1610612745,1630256,1626174,1628464,201569,1630224,1610612752,1629628,203944,1629011,203095,202689,0022100239,1,398,425,0,0,1610612745
30,1610612745,1626174,1630224,1630231,1630578,201569,1610612752,1629628,203944,1629011,203095,202689,0022100239,1,435,437,0,0,1610612752
31,1610612745,1626174,1630224,1630231,1630578,201569,1610612752,1629628,203944,1629011,203095,202689,0022100239,1,445,445,3,0,1610612745
32,1610612745,1626174,1630224,1630231,1630578,201569,1610612752,1629628,203944,1629011,203095,202689,0022100239,1,451,467,0,3,1610612752
33,1610612745,1626174,1630224,1630231,1630578,201569,1610612752,1629628,202689,203095,203457,203944,0022100239,1,481,483,0,0,1610612745
34,1610612745,1626174,1630224,1630231,1630578,201569,1610612752,1629628,202689,203095,203457,203944,0022100239,1,483,483,0,0,1610612752
35,1610612745,1626174,1630224,1630231,1630578,201569,1610612752,1629628,202689,203095,203457,203944,0022100239,1,483,490,2,0,1610612745
36,1610612745,1626174,1630224,1630231,1630578,201569,1610612752,1629628,201565,203095,203457,203944,0022100239,1,505,507,0,0,1610612752
37,1610612745,1626174,1630224,1630231,1630578,201569,1610612752,1629628,201565,203095,203457,203944,0022100239,1,513,515,0,0,1610612745
38,1610612745,1626174,1630224,1630231,1630578,201569,1610612752,1629628,201565,203095,203457,203944,0022100239,1,528,531,0,0,1610612752
39,1610612745,1626174,1630224,1630231,1630578,201569,1610612752,1629628,201565,203095,203457,203944,0022100239,1,531,531,0,0,1610612745
40,1610612745,1626174,1630224,1630231,1630578,201569,1610612752,1629628,201565,203095,203457,203944,0022100239,1,555,557,0,0,1610612752
41,1610612745,1626174,1630224,1630231,1630578,201569,1610612752,1629628,201565,203095,203457,203944,0022100239,1,563,563,2,0,1610612745
42,1610612745,1626174,1630224,1630231,1630578,201569,1610612752,1629628,201565,203095,203457,203944,0022100239,1,577,591,0,0,1610612752
43,1610612745,1626174,1629726,1630231,1630578,201571,1610612752,1629628,201565,202692,203457,203944,0022100239,1,610,621,2,0,1610612745
44,1610612745,1626174,1629726,1630231,1630578,201571,1610612752,1629628,201565,202692,203457,203944,0022100239,1,625,628,0,0,1610612752
45,1610612745,1626174,1629726,1630231,1630578,201571,1610612752,1629628,201565,202692,203457,203944,0022100239,1,634,634,3,0,1610612745
46,1610612745,1626174,1629726,1630231,1630578,201571,1610612752,1629628,201565,202692,203457,203944,0022100239,1,654,654,0,2,1610612752
47,1610612745,1626174,1629726,1630231,1630578,201571,1610612752,1629628,201565,202692,203457,203944,0022100239,1,662,662,2,0,1610612745
48,1610612745,1626174,1629726,1630231,1630578,201571,1610612752,1630167,1630193,201565,202692,203457,0022100239,1,683,683,0,0,1610612752
49,1610612745,1626174,1629726,1630231,1630578,201571,1610612752,1630167,1630193,201565,202692,203457,0022100239,1,686,686,1,0,1610612745
50,1610612745,1626174,1629726,1630231,1630578,201571,1610612752,1630167,1630193,201565,202692,203457,0022100239,1,695,698,0,0,1610612752
51,1610612745,1626174,1629726,1630231,1630578,201571,1610612752,1630167,1630193,201565,202692,203457,0022100239,1,718,720,0,0,1610612752
52,1610612745,1630256,1630231,1630578,1629726,201571,1610612752,203457,201565,202692,1630167,1630193,0022100239,2,720,747,0,0,1610612745
53,1610612745,1630256,1630231,1630578,1629726,201571,1610612752,203457,201565,202692,1630167,1630193,0022100239,2,764,766,0,0,1610612752
54,1610612745,1630256,1630231,1630578,1629726,201571,1610612752,203457,201565,202692,1630167,1630193,0022100239,2,775,775,2,0,1610612745
55,1610612745,1630256,1630231,1630578,1629726,201571,1610612752,203457,201565,202692,1630167,1630193,0022100239,2,793,795,0,0,1610612752
56,1610612745,1630256,1630231,1630578,1629726,201571,1610612752,203457,201565,202692,1630167,1630193,0022100239,2,801,803,0,0,1610612745
57,1610612745,1630256,1630231,1630578,1629726,201571,1610612752,203457,201565,202692,1630167,1630193,0022100239,2,826,826,0,3,1610612752
58,1610612745,1630256,1630231,1630578,1629726,201571,1610612752,203457,201565,202692,1630167,1630193,0022100239,2,850,850,3,0,1610612745
59,1610612745,1630256,1630231,1630578,1629726,201571,1610612752,203457,201565,202692,1630167,1630193,0022100239,2,865,865,0,2,1610612752
60,1610612745,1627863,1629726,1630256,1630578,201571,1610612752,203457,201565,202692,1630167,1630193,0022100239,2,881,883,0,0,1610612745
61,1610612745,1627863,1629726,1630256,1630578,201571,1610612752,1629011,1630167,1630193,201565,202692,0022100239,2,885,885,1,2,1610612752
62,1610612745,1627863,1629726,1630256,1630578,201571,1610612752,1629011,1630167,1630193,201565,202692,0022100239,2,901,903,0,0,1610612745
63,1610612745,1627863,1629726,1630256,1630578,201571,1610612752,1629011,1630167,1630193,201565,202692,0022100239,2,911,911,0,2,1610612752
64,1610612745,1627863,1629726,1630256,1630578,201571,1610612752,1629011,1630167,1630193,201565,202692,0022100239,2,921,921,0,0,1610612745
65,1610612745,1627863,1629726,1630256,1630578,201571,1610612752,1629011,1630167,1630193,201565,202692,0022100239,2,927,929,0,0,1610612752
66,1610612745,1627863,1629726,1630256,1630578,201571,1610612752,1629011,1630167,1630193,201565,202692,0022100239,2,937,953,0,0,1610612745
67,1610612745,1627863,1630224,1630256,1630578,201569,1610612752,1629011,1630167,1630193,201565,202692,0022100239,2,972,972,0,2,1610612752
68,1610612745,1627863,1630224,1630256,1630578,201569,1610612752,1629011,1630167,1630193,201565,202692,0022100239,2,992,994,0,0,1610612745
69,1610612745,1627863,1630224,1630256,1630578,201569,1610612752,1629011,1630167,1630193,201565,202692,0022100239,2,995,995,0,0,1610612752
70,1610612745,1627863,1630224,1630256,1630578,201569,1610612752,1629011,1630167,1630193,201565,202692,0022100239,2,995,1010,0,0,1610612745
71,1610612745,1628464,1629717,1630224,1630256,201569,1610612752,1629011,1630167,1630193,201565,202692,0022100239,2,1027,1027,0,0,1610612752
72,1610612745,1628464,1629717,1630224,1630256,201569,1610612752,1629011,1630167,1630193,201565,202692,0022100239,2,1027,1036,0,0,1610612745
73,1610612745,1628464,1629717,1630224,1630256,201569,1610612752,1629011,1630167,1630193,201565,202692,0022100239,2,1037,1049,0,2,1610612752
74,1610612745,1628464,1629717,1630224,1630256,201569,1610612752,1629011,1630167,1630193,201565,202692,0022100239,2,1058,1072,3,0,1610612745
75,1610612745,1626174,1628464,1629717,1630224,201569,1610612752,1629011,1629628,201565,202692,203944,0022100239,2,1086,1086,0,2,1610612752
76,1610612745,1626174,1628464,1629717,1630224,201569,1610612752,1629011,1629628,201565,202692,203944,0022100239,2,1099,1099,1,0,1610612745
77,1610612745,1626174,1628464,1629717,1630224,201569,1610612752,1629011,1629628,201565,203095,203944,0022100239,2,1112,1114,0,0,1610612752
78,1610612745,1626174,1628464,1629717,1630224,201569,1610612752,1629011,1629628,201565,203095,203944,0022100239,2,1132,1132,3,0,1610612745
79,1610612745,1626174,1628464,1629717,1630224,201569,1610612752,1629011,1629628,201565,203095,203944,0022100239,2,1142,1142,0,2,1610612752
80,1610612745,1626174,1628464,1629717,1630224,201569,1610612752,1629011,1629628,201565,203095,203944,0022100239,2,1142,1158,0,0,1610612745
81,1610612745,1626174,1628464,1630224,1630231,201569,1610612752,1629011,1629628,202689,203095,203944,0022100239,2,1180,1180,0,2,1610612752
82,1610612745,1626174,1628464,1630224,1630231,201569,1610612752,1629011,1629628,202689,203095,203944,0022100239,2,1195,1195,2,0,1610612745
83,1610612745,1626174,1628464,1630224,1630231,201569,1610612752,1629011,1629628,202689,203095,203944,0022100239,2,1201,1207,0,1,1610612752
84,1610612745,1626174,1628464,1630224,1630231,201569,1610612752,1629011,1629628,202689,203095,203944,0022100239,2,1207,1207,2,0,1610612745
85,1610612745,1626174,1628464,1630224,1630231,201569,1610612752,1629011,1629628,202689,203095,203944,0022100239,2,1222,1222,0,3,1610612752
86,1610612745,1626174,1628464,1630224,1630231,201569,1610612752,1629011,1629628,202689,203095,203944,0022100239,2,1242,1242,0,0,1610612745
87,1610612745,1626174,1628464,1630224,1630231,201569,1610612752,1629011,1629628,202689,203095,203944,0022100239,2,1247,1247,0,2,1610612752
88,1610612745,1626174,1628464,1630224,1630231,201569,1610612752,1629011,1629628,202689,203095,203944,0022100239,2,1272,1272,2,0,1610612745
89,1610612745,1626174,1628464,1630224,1630231,201569,1610612752,1629011,1629628,202689,203095,203944,0022100239,2,1283,1283,0,3,1610612752
90,1610612745,1626174,1628464,1630224,1630231,201569,1610612752,1629011,1629628,202689,203095,203944,0022100239,2,1300,1300,2,0,1610612745
91,1610612745,1626174,1628464,1630224,1630231,201569,1610612752,1629011,1629628,202689,203095,203944,0022100239,2,1312,1312,0,2,1610612752
92,1610612745,1626174,1628464,1630224,1630256,201569,1610612752,1629011,1629628,202689,203095,203944,0022100239,2,1334,1336,0,0,1610612745
93,1610612745,1626174,1628464,1630224,1630256,201569,1610612752,1629011,1629628,202689,203095,203944,0022100239,2,1336,1341,0,1,1610612752
94,1610612745,1626174,1628464,1630224,1630256,201569,1610612752,1629011,1629628,202689,203095,203944,0022100239,2,1354,1356,0,0,1610612745
95,1610612745,1626174,1628464,1630224,1630256,201569,1610612752,1629011,1629628,202689,203095,203944,0022100239,2,1363,1363,0,3,1610612752
96,1610612745,1626174,1628464,1630224,1630256,201569,1610612752,1629011,1629628,202689,203095,203944,0022100239,2,1385,1385,1,0,1610612745
97,1610612745,1626174,1630224,1630231,1630256,201569,1610612752,1629628,202689,202692,203095,203944,0022100239,2,1398,1401,0,0,1610612752
98,1610612745,1626174,1630224,1630231,1630256,201569,1610612752,1629628,202689,202692,203095,203944,0022100239,2,1406,1406,2,0,1610612745
99,1610612745,1626174,1630224,1630231,1630256,201569,1610612752,1629628,202689,202692,203095,203944,0022100239,2,1427,1430,0,0,1610612752
100,1610612745,1626174,1629717,1629726,1630224,201569,1610612752,1629628,202689,202692,203095,203944,0022100239,2,1439,1439,2,0,1610612745
101,1610612745,1630256,1626174,1628464,201569,1630224,1610612752,1629628,203944,1629011,203095,202689,0022100239,3,1440,1452,3,0,1610612745
102,1610612745,1630256,1626174,1628464,201569,1630224,1610612752,1629628,203944,1629011,203095,202689,0022100239,3,1481,1481,0,2,1610612752
103,1610612745,1630256,1626174,1628464,201569,1630224,1610612752,1629628,203944,1629011,203095,202689,0022100239,3,1499,1501,0,0,1610612745
104,1610612745,1630256,1626174,1628464,201569,1630224,1610612752,1629628,203944,1629011,203095,202689,0022100239,3,1514,1516,0,0,1610612752
105,1610612745,1630256,1626174,1628464,201569,1630224,1610612752,1629628,203944,1629011,203095,202689,0022100239,3,1524,1524,3,0,1610612745
106,1610612745,1630256,1626174,1628464,201569,1630224,1610612752,1629628,203944,1629011,203095,202689,0022100239,3,1552,1554,0,0,1610612752
107,1610612745,1630256,1626174,1628464,201569,1630224,1610612752,1629628,203944,1629011,203095,202689,0022100239,3,1563,1563,2,0,1610612745
108,1610612745,1630256,1626174,1628464,201569,1630224,1610612752,1629628,203944,1629011,203095,202689,0022100239,3,1565,1587,0,2,1610612752
109,1610612745,1630256,1626174,1628464,201569,1630224,1610612752,1629628,202689,203095,203457,203944,0022100239,3,1596,1598,0,0,1610612745
110,1610612745,1630256,1626174,1628464,201569,1630224,1610612752,1629628,202689,203095,203457,203944,0022100239,3,1606,1616,0,0,1610612752
111,1610612745,1630256,1626174,1628464,201569,1630224,1610612752,1629628,202689,203095,203457,203944,0022100239,3,1626,1628,0,0,1610612745
112,1610612745,1630256,1626174,1628464,201569,1630224,1610612752,1629628,202689,203095,203457,203944,0022100239,3,1633,1635,0,0,1610612752
113,1610612745,1630256,1626174,1628464,201569,1630224,1610612752,1629628,202689,203095,203457,203944,0022100239,3,1639,1639,0,0,1610612745
114,1610612745,1630256,1626174,1628464,201569,1630224,1610612752,1629628,202689,203095,203457,203944,0022100239,3,1650,1650,0,2,1610612752
115,1610612745,1630256,1626174,1628464,201569,1630224,1610612752,1629628,202689,203095,203457,203944,0022100239,3,1666,1666,0,0,1610612745
116,1610612745,1630256,1626174,1628464,201569,1630224,1610612752,1629628,202689,203095,203457,203944,0022100239,3,1685,1685,0,0,1610612752
117,1610612745,1630256,1626174,1628464,201569,1630224,1610612752,1629628,202689,203095,203457,203944,0022100239,3,1686,1700,0,0,1610612745
118,1610612745,1630256,1626174,1628464,201569,1630224,1610612752,1629628,202689,203095,203457,203944,0022100239,3,1703,1704,0,0,1610612752
119,1610612745,1630256,1626174,1628464,201569,1630224,1610612752,1629628,202689,203095,203457,203944,0022100239,3,1716,1716,2,0,1610612745
120,1610612745,1630256,1626174,1628464,201569,1630224,1610612752,1629628,202689,203095,203457,203944,0022100239,3,1734,1734,0,3,1610612752
121,1610612745,1630256,1626174,1628464,201569,1630224,1610612752,1629628,202689,203095,203457,203944,0022100239,3,1744,1754,0,0,1610612745
122,1610612745,1630256,1626174,1628464,201569,1630224,1610612752,1629628,202689,203095,203457,203944,0022100239,3,1763,1763,0,3,1610612752
123,1610612745,1630256,1626174,1628464,201569,1630224,1610612752,1629628,202689,203095,203457,203944,0022100239,3,1764,1777,2,0,1610612745
124,1610612745,1626174,1630224,1630231,1630578,201569,1610612752,1629628,202689,203095,203457,203944,0022100239,3,1794,1794,0,3,1610612752
125,1610612745,1626174,1630224,1630231,1630578,201569,1610612752,1629628,202689,203095,203457,203944,0022100239,3,1820,1822,0,0,1610612745
126,1610612745,1626174,1630224,1630231,1630578,201569,1610612752,1629628,202689,203095,203457,203944,0022100239,3,1844,1844,0,2,1610612752
127,1610612745,1626174,1630224,1630231,1630578,201569,1610612752,1629628,202689,203095,203457,203944,0022100239,3,1856,1856,3,0,1610612745
128,1610612745,1626174,1630224,1630231,1630578,201569,1610612752,1629628,202689,203095,203457,203944,0022100239,3,1869,1876,0,3,1610612752
129,1610612745,1626174,1630224,1630231,1630578,201569,1610612752,1629628,202689,203095,203457,203944,0022100239,3,1894,1894,2,0,1610612745
130,1610612745,1626174,1630224,1630231,1630578,201569,1610612752,1629628,202689,203095,203457,203944,0022100239,3,1906,1907,0,0,1610612752
131,1610612745,1626174,1630224,1630231,1630578,201569,1610612752,1629628,202689,203095,203457,203944,0022100239,3,1907,1920,0,0,1610612745
132,1610612745,1626174,1630224,1630231,1630578,201569,1610612752,1629628,202689,203095,203457,203944,0022100239,3,1933,1933,0,0,1610612752
133,1610612745,1626174,1630224,1630231,1630578,201569,1610612752,1629628,202689,203095,203457,203944,0022100239,3,1935,1937,2,0,1610612745
134,1610612745,1626174,1630224,1630231,1630578,201569,1610612752,202689,202692,203095,203457,203944,0022100239,3,1955,1966,0,0,1610612752
135,1610612745,1626174,1630224,1630231,1630578,201569,1610612752,201565,202692,203095,203457,203944,0022100239,3,1981,1981,2,0,1610612745
136,1610612745,1626174,1630224,1630231,1630578,201569,1610612752,201565,202692,203095,203457,203944,0022100239,3,2008,2008,0,0,1610612752
137,1610612745,1626174,1630224,1630231,1630578,201569,1610612752,1630167,1630193,201565,202692,203457,0022100239,3,2023,2023,0,0,1610612745
138,1610612745,1626174,1629726,1630231,1630578,201571,1610612752,1630167,1630193,201565,202692,203457,0022100239,3,2037,2039,0,0,1610612752
139,1610612745,1626174,1629726,1630231,1630578,201571,1610612752,1630167,1630193,201565,202692,203457,0022100239,3,2061,2061,2,0,1610612745
140,1610612745,1626174,1629726,1630231,1630578,201571,1610612752,1630167,1630193,201565,202692,203457,0022100239,3,2075,2075,0,2,1610612752
141,1610612745,1626174,1629726,1630231,1630578,201571,1610612752,1630167,1630193,201565,202692,203457,0022100239,3,2088,2092,0,0,1610612745
142,1610612745,1626174,1629726,1630231,1630578,201571,1610612752,1630167,1630193,201565,202692,203457,0022100239,3,2096,2098,0,0,1610612752
143,1610612745,1626174,1629726,1630231,1630578,201571,1610612752,1630167,1630193,201565,202692,203457,0022100239,3,2108,2108,3,0,1610612745
144,1610612745,1626174,1629726,1630231,1630578,201571,1610612752,1630167,1630193,201565,202692,203457,0022100239,3,2120,2120,0,3,1610612752
145,1610612745,1626174,1629726,1630231,1630578,201571,1610612752,1630167,1630193,201565,202692,203457,0022100239,3,2133,2143,0,0,1610612745
146,1610612745,1628464,1629726,1630231,1630256,201569,1610612752,1630167,1630193,201565,202692,203457,0022100239,3,2143,2160,0,0,1610612752
147,1610612745,1630256,1630231,1630578,1629726,201571,1610612752,203457,201565,202692,1630167,1630193,0022100239,4,2160,2179,0,0,1610612752
148,1610612745,1630256,1630231,1630578,1629726,201571,1610612752,203457,201565,202692,1630167,1630193,0022100239,4,2183,2183,3,0,1610612745
149,1610612745,1630256,1630231,1630578,1629726,201571,1610612752,203457,201565,202692,1630167,1630193,0022100239,4,2198,2198,0,0,1610612752
150,1610612745,1630256,1630231,1630578,1629726,201571,1610612752,203457,201565,202692,1630167,1630193,0022100239,4,2203,2203,2,0,1610612745
151,1610612745,1630256,1630231,1630578,1629726,201571,1610612752,203457,201565,202692,1630167,1630193,0022100239,4,2204,2214,0,3,1610612752
152,1610612745,1630256,1630231,1630578,1629726,201571,1610612752,203457,201565,202692,1630167,1630193,0022100239,4,2236,2251,0,0,1610612745
153,1610612745,1630256,1630231,1630578,1629726,201571,1610612752,203457,201565,202692,1630167,1630193,0022100239,4,2257,2257,0,2,1610612752
154,1610612745,1630256,1630231,1630578,1629726,201571,1610612752,203457,201565,202692,1630167,1630193,0022100239,4,2270,2270,2,0,1610612745
155,1610612745,1630256,1630231,1630578,1629726,201571,1610612752,203457,201565,202692,1630167,1630193,0022100239,4,2294,2294,0,0,1610612752
156,1610612745,1630256,1630231,1630578,1629726,201571,1610612752,203457,201565,202692,1630167,1630193,0022100239,4,2300,2300,2,0,1610612745
157,1610612745,1630256,1630231,1630578,1629726,201571,1610612752,203457,201565,202692,1630167,1630193,0022100239,4,2311,2311,0,0,1610612752
158,1610612745,1630256,1630231,1630578,1629726,201571,1610612752,203457,201565,202692,1630167,1630193,0022100239,4,2329,2329,0,0,1610612745
159,1610612745,1630256,1630231,1630578,1629726,201571,1610612752,203457,201565,202692,1630167,1630193,0022100239,4,2331,2331,0,2,1610612752
160,1610612745,1630256,1630231,1630578,1629726,201571,1610612752,203457,201565,202692,1630167,1630193,0022100239,4,2343,2343,0,0,1610612745
161,1610612745,1630256,1630231,1630578,1629726,201571,1610612752,203457,201565,202692,1630167,1630193,0022100239,4,2348,2348,0,2,1610612752
162,1610612745,1630256,1630231,1630578,1629726,201571,1610612752,203457,201565,202692,1630167,1630193,0022100239,4,2358,2358,0,0,1610612745
163,1610612745,1630256,1630231,1630578,1629726,201571,1610612752,203457,201565,202692,1630167,1630193,0022100239,4,2360,2371,0,3,1610612752
164,1610612745,1629726,1630224,1630256,1630578,201569,1610612752,203457,201565,202692,1630167,1630193,0022100239,4,2387,2389,0,0,1610612745
165,1610612745,1629726,1630224,1630256,1630578,201569,1610612752,203457,201565,202692,1630167,1630193,0022100239,4,2390,2390,0,0,1610612752
166,1610612745,1629726,1630224,1630256,1630578,201569,1610612752,203457,201565,202692,1630167,1630193,0022100239,4,2406,2408,2,0,1610612745
167,1610612745,1629726,1630224,1630256,1630578,201569,1610612752,203457,201565,202692,1630167,1630193,0022100239,4,2428,2430,0,0,1610612752
168,1610612745,1629726,1630224,1630256,1630578,201569,1610612752,203457,201565,202692,1630167,1630193,0022100239,4,2432,2438,0,0,1610612745
169,1610612745,1629726,1630224,1630256,1630578,201569,1610612752,203457,201565,202692,1630167,1630193,0022100239,4,2451,2453,0,0,1610612752
170,1610612745,1629726,1630224,1630256,1630578,201569,1610612752,203457,201565,202692,1630167,1630193,0022100239,4,2473,2473,2,0,1610612745
171,1610612745,1629726,1630224,1630256,1630578,201569,1610612752,203457,201565,202692,1630167,1630193,0022100239,4,2487,2499,0,0,1610612752
172,1610612745,1626174,1629726,1630224,1630578,201569,1610612752,1630193,201565,202692,203457,203944,0022100239,4,2508,2508,3,0,1610612745
173,1610612745,1626174,1629726,1630224,1630578,201569,1610612752,1630193,201565,202692,203457,203944,0022100239,4,2527,2527,0,2,1610612752
174,1610612745,1626174,1629726,1630224,1630578,201569,1610612752,1630193,201565,202692,203457,203944,0022100239,4,2539,2541,0,0,1610612745
175,1610612745,1626174,1629726,1630224,1630578,201569,1610612752,1630193,201565,202692,203457,203944,0022100239,4,2545,2545,0,3,1610612752
176,1610612745,1626174,1629726,1630224,1630578,201569,1610612752,1630193,201565,202692,203457,203944,0022100239,4,2545,2557,2,0,1610612745
177,1610612745,1626174,1630224,1630256,1630578,201569,1610612752,1630193,202692,203095,203457,203944,0022100239,4,2584,2584,0,2,1610612752
178,1610612745,1626174,1630224,1630256,1630578,201569,1610612752,1630193,202692,203095,203457,203944,0022100239,4,2585,2585,0,0,1610612745
179,1610612745,1626174,1630224,1630256,1630578,201569,1610612752,1630193,202692,203095,203457,203944,0022100239,4,2597,2598,0,0,1610612752
180,1610612745,1626174,1628464,1630224,1630256,201569,1610612752,1630193,202692,203095,203457,203944,0022100239,4,2610,2612,0,0,1610612745
181,1610612745,1626174,1628464,1630224,1630256,201569,1610612752,1630193,202692,203095,203457,203944,0022100239,4,2625,2625,0,1,1610612752
182,1610612745,1626174,1628464,1630224,1630256,201569,1610612752,1630193,202692,203095,203457,203944,0022100239,4,2637,2637,0,0,1610612745
183,1610612745,1626174,1628464,1630224,1630256,201569,1610612752,1630193,202692,203095,203457,203944,0022100239,4,2642,2642,0,3,1610612752
184,1610612745,1626174,1628464,1630224,1630256,201569,1610612752,1630193,202692,203095,203457,203944,0022100239,4,2653,2671,2,0,1610612745
185,1610612745,1626174,1628464,1630224,1630256,201569,1610612752,1630193,202692,203095,203457,203944,0022100239,4,2691,2691,0,3,1610612752
186,1610612745,1626174,1628464,1630224,1630256,201569,1610612752,1630193,202692,203095,203457,203944,0022100239,4,2705,2707,0,0,1610612745
187,1610612745,1626174,1628464,1630224,1630256,201569,1610612752,1630193,202692,203095,203457,203944,0022100239,4,2730,2730,0,3,1610612752
188,1610612745,1626174,1628464,1630224,1630256,201569,1610612752,1630193,202692,203095,203457,203944,0022100239,4,2740,2742,1,0,1610612745
189,1610612745,1626174,1628464,1630224,1630256,201569,1610612752,1630193,202692,203095,203457,203944,0022100239,4,2766,2768,0,0,1610612752
190,1610612745,1626174,1628464,1630224,1630256,201569,1610612752,1630193,202692,203095,203457,203944,0022100239,4,2770,2782,2,0,1610612745
191,1610612745,1626174,1628464,1630224,1630256,201569,1610612752,1630193,202692,203095,203457,203944,0022100239,4,2802,2806,0,0,1610612752
192,1610612745,1626174,1628464,1630224,1630256,201569,1610612752,1630193,202692,203095,203457,203944,0022100239,4,2823,2825,0,0,1610612745
193,1610612745,1626174,1628464,1630224,1630256,201569,1610612752,1630193,202692,203095,203457,203944,0022100239,4,2829,2829,0,2,1610612752
194,1610612745,1626174,1628464,1630224,1630256,201569,1610612752,1630193,202692,203095,203457,203944,0022100239,4,2829,2836,1,0,1610612745
195,1610612745,1626174,1628464,1630224,1630256,201569,1610612752,1630193,202692,203095,203457,203944,0022100239,4,2837,2837,0,1,1610612752
196,1610612745,1626174,1628464,1630224,1630256,201569,1610612752,1630193,202692,203095,203457,203944,0022100239,4,2851,2853,0,0,1610612745
197,1610612745,1626174,1628464,1630224,1630256,201569,1610612752,1630193,202692,203095,203457,203944,0022100239,4,2855,2855,0,2,1610612752
198,1610612745,1626174,1628464,1630224,1630256,201569,1610612752,1630193,202692,203095,203457,203944,0022100239,4,2861,2864,2,0,1610612745
