,team1_id,team1_player1,team1_player2,team1_player3,team1_player4,team1_player5,team2_id,team2_player1,team2_player2,team2_player3,team2_player4,team2_player5,game_id,period,possession_start,possession_end,team1_points,team2_points,possession_team
0,1610612756,1628969,203109,1629028,1626164,101108,1610612762,202711,1626220,203497,1628378,201144,0022000068,1,0,17,0,0,1610612756
1,1610612756,1628969,203109,1629028,1626164,101108,1610612762,202711,1626220,203497,1628378,201144,0022000068,1,23,23,0,2,1610612762
2,1610612756,1628969,203109,1629028,1626164,101108,1610612762,202711,1626220,203497,1628378,201144,0022000068,1,45,50,2,0,1610612756
3,1610612756,1628969,203109,1629028,1626164,101108,1610612762,202711,1626220,203497,1628378,201144,0022000068,1,50,65,0,2,1610612762
4,1610612756,1628969,203109,1629028,1626164,101108,1610612762,202711,1626220,203497,1628378,201144,0022000068,1,76,78,0,0,1610612756
5,1610612756,1628969,203109,1629028,1626164,101108,1610612762,202711,1626220,203497,1628378,201144,0022000068,1,84,84,0,2,1610612762
6,1610612756,1628969,203109,1629028,1626164,101108,1610612762,202711,1626220,203497,1628378,201144,0022000068,1,101,117,0,0,1610612756
7,1610612756,1628969,203109,1629028,1626164,101108,1610612762,202711,1626220,203497,1628378,201144,0022000068,1,128,128,0,2,1610612762
8,1610612756,1628969,203109,1629028,1626164,101108,1610612762,202711,1626220,203497,1628378,201144,0022000068,1,153,153,3,0,1610612756
9,1610612756,1628969,203109,1629028,1626164,101108,1610612762,202711,1626220,203497,1628378,201144,0022000068,1,169,171,0,0,1610612762
10,1610612756,1628969,203109,1629028,1626164,101108,1610612762,202711,1626220,203497,1628378,201144,0022000068,1,186,186,3,0,1610612756
11,1610612756,1628969,203109,1629028,1626164,101108,1610612762,202711,1626220,203497,1628378,201144,0022000068,1,205,205,0,1,1610612762
12,1610612756,101108,1626164,1628969,203109,203967,1610612762,202711,1626220,203497,1628378,201144,0022000068,1,213,216,0,0,1610612756
13,1610612756,101108,1626164,1628969,203109,203967,1610612762,202711,1626220,203497,1628378,201144,0022000068,1,223,223,0,0,1610612762
14,1610612756,101108,1626164,1628969,203109,203967,1610612762,202711,1626220,203497,1628378,201144,0022000068,1,226,230,0,0,1610612756
15,1610612756,101108,1626164,1628969,203109,203967,1610612762,202711,1626220,203497,1628378,201144,0022000068,1,242,244,0,0,1610612762
16,1610612756,101108,1626164,1628969,203109,203967,1610612762,202711,1626220,203497,1628378,201144,0022000068,1,253,253,0,0,1610612756
17,1610612756,101108,1626164,1628969,203109,203967,1610612762,202711,1626220,203497,1628378,201144,0022000068,1,254,263,0,0,1610612762
18,1610612756,101108,1626164,1628969,203109,203967,1610612762,202711,1626220,203497,1628378,201144,0022000068,1,275,275,2,0,1610612756
19,1610612756,101108,1626164,1628969,203109,203967,1610612762,202711,1626220,203497,1628378,201144,0022000068,1,278,298,0,2,1610612762
20,1610612756,101108,1626164,1628969,203109,203967,1610612762,1626220,1628378,202324,202711,204060,0022000068,1,312,315,0,0,1610612756
21,1610612756,101108,1626164,1628969,203109,203967,1610612762,1626220,1628378,202324,202711,204060,0022000068,1,329,347,0,0,1610612762
22,1610612756,101108,1626164,1628969,203109,203967,1610612762,1626220,1628378,202324,202711,204060,0022000068,1,359,362,0,0,1610612756
23,1610612756,101108,1626164,1628969,203109,203967,1610612762,1626220,1628378,202324,202711,204060,0022000068,1,368,371,0,0,1610612762
24,1610612756,101108,1626164,1628969,203109,203967,1610612762,1626220,1628378,202324,202711,204060,0022000068,1,376,376,3,0,1610612756
25,1610612756,101108,1626164,1628969,203109,203967,1610612762,1626220,1628378,202324,202711,204060,0022000068,1,405,405,0,0,1610612762
26,1610612756,101108,1626164,1628969,203109,203967,1610612762,1626220,1628378,202324,202711,204060,0022000068,1,408,408,0,0,1610612756
27,1610612756,101108,1626164,1628969,203109,203967,1610612762,1626220,1628378,202324,202711,204060,0022000068,1,423,426,0,0,1610612762
28,1610612756,101108,1626164,1628969,203109,203967,1610612762,1626220,1628378,202324,202711,204060,0022000068,1,435,435,0,0,1610612756
29,1610612756,1626164,1626166,1628969,203109,203967,1610612762,1626220,1628378,202324,202711,204060,0022000068,1,444,447,0,0,1610612762
30,1610612756,1626164,1626166,1628969,203109,203967,1610612762,1626220,1628378,202324,202711,204060,0022000068,1,456,456,2,0,1610612756
31,1610612756,1626164,1626166,1628969,203109,203967,1610612762,1626220,1628378,202324,202711,204060,0022000068,1,475,475,0,2,1610612762
32,1610612756,1626164,1626166,1628969,203109,203967,1610612762,1626220,1628378,202324,202711,204060,0022000068,1,475,475,0,1,1610612762
33,1610612756,1626164,1626166,1628969,1629661,203967,1610612762,1626220,1628378,202324,203903,204060,0022000068,1,495,497,0,0,1610612756
34,1610612756,1626164,1626166,1628969,1629661,203967,1610612762,1626220,1628378,202324,203903,204060,0022000068,1,516,518,0,0,1610612762
35,1610612756,1626164,1626166,1628969,1629661,203967,1610612762,1626220,1628378,202324,203903,204060,0022000068,1,529,533,0,0,1610612756
36,1610612756,1626164,1626166,1628969,1629661,203967,1610612762,1626220,1628378,202324,203903,204060,0022000068,1,547,547,0,2,1610612762
37,1610612756,1626164,1626166,1628969,1629661,203967,1610612762,1626220,1628378,202324,203903,204060,0022000068,1,548,556,0,0,1610612756
38,1610612756,1626164,1626166,1629661,203967,204038,1610612762,1627777,201144,203497,203903,204060,0022000068,1,561,561,0,3,1610612762
39,1610612756,1626164,1626166,1629661,203967,204038,1610612762,1627777,201144,203497,203903,204060,0022000068,1,582,582,2,0,1610612756
40,1610612756,1626164,1626166,1629661,203967,204038,1610612762,1627777,201144,203497,203903,204060,0022000068,1,601,603,0,0,1610612762
41,1610612756,1626164,1626166,1629661,203967,204038,1610612762,1627777,201144,203497,203903,204060,0022000068,1,611,614,0,0,1610612756
42,1610612756,1626164,1626166,1629661,203967,204038,1610612762,1627777,201144,203497,203903,204060,0022000068,1,630,632,0,0,1610612762
43,1610612756,1626163,1626164,1626166,1629661,204038,1610612762,1627777,201144,203497,203903,204060,0022000068,1,637,637,2,0,1610612756
44,1610612756,1626163,1626164,1626166,1629661,204038,1610612762,1627777,201144,203497,203903,204060,0022000068,1,654,654,0,1,1610612762
45,1610612756,1626163,1626164,1626166,1629661,204038,1610612762,1627777,201144,203497,203903,204060,0022000068,1,662,662,0,0,1610612756
46,1610612756,1626163,1626164,1626166,1629661,204038,1610612762,1627777,201144,203497,203903,204060,0022000068,1,673,676,0,0,1610612762
47,1610612756,1626163,1626164,1626166,1629661,204038,1610612762,1627777,201144,203497,203903,204060,0022000068,1,681,681,2,0,1610612756
48,1610612756,1626163,1626164,1626166,1629661,204038,1610612762,1627777,201144,203497,203903,204060,0022000068,1,700,700,0,2,1610612762
49,1610612756,1626163,1626164,1626166,1629661,204038,1610612762,1627777,201144,203497,203903,204060,0022000068,1,717,720,0,0,1610612762
50,1610612756,1629028,101108,1629661,204038,1628975,1610612762,202711,203497,201144,204060,203903,0022000068,2,720,743,0,0,1610612762
51,1610612756,1629028,101108,1629661,204038,1628975,1610612762,202711,203497,201144,204060,203903,0022000068,2,763,763,2,0,1610612756
52,1610612756,1629028,101108,1629661,204038,1628975,1610612762,202711,203497,201144,204060,203903,0022000068,2,778,778,0,2,1610612762
53,1610612756,1629028,101108,1629661,204038,1628975,1610612762,202711,203497,201144,204060,203903,0022000068,2,781,781,0,0,1610612756
54,1610612756,1629028,101108,1629661,204038,1628975,1610612762,202711,203497,201144,204060,203903,0022000068,2,782,782,0,0,1610612762
55,1610612756,1629028,101108,1629661,204038,1628975,1610612762,202711,203497,201144,204060,203903,0022000068,2,782,794,3,0,1610612756
56,1610612756,1629028,101108,1629661,204038,1628975,1610612762,202711,203497,201144,204060,203903,0022000068,2,806,808,0,0,1610612762
57,1610612756,1629028,101108,1629661,204038,1628975,1610612762,202711,203497,201144,204060,203903,0022000068,2,829,832,0,0,1610612756
58,1610612756,1629028,101108,1629661,204038,1628975,1610612762,202711,203497,201144,204060,203903,0022000068,2,843,846,0,0,1610612762
59,1610612756,1629028,101108,1629661,204038,1628975,1610612762,202711,203497,201144,204060,203903,0022000068,2,852,861,2,0,1610612756
60,1610612756,1629028,101108,1629661,204038,1628975,1610612762,202711,203497,201144,204060,203903,0022000068,2,884,892,0,0,1610612762
61,1610612756,101108,1628975,1629028,203109,204038,1610612762,202711,203497,201144,204060,203903,0022000068,2,901,901,2,0,1610612756
62,1610612756,101108,1628975,1629028,203109,204038,1610612762,202711,203497,201144,204060,203903,0022000068,2,914,914,0,3,1610612762
63,1610612756,101108,1628975,1629028,203109,204038,1610612762,202711,203497,201144,204060,203903,0022000068,2,931,931,2,0,1610612756
64,1610612756,101108,1628975,1629028,203109,204038,1610612762,202711,203497,201144,204060,203903,0022000068,2,932,950,0,0,1610612762
65,1610612756,101108,1628969,1628975,1629028,203109,1610612762,1626220,1628378,202324,202711,203903,0022000068,2,955,958,0,0,1610612756
66,1610612756,101108,1628969,1628975,1629028,203109,1610612762,1626220,1628378,202324,202711,203903,0022000068,2,966,984,0,2,1610612762
67,1610612756,101108,1628969,1628975,1629028,203109,1610612762,1626220,1628378,202324,202711,203903,0022000068,2,1003,1008,0,0,1610612756
68,1610612756,101108,1628969,1628975,1629028,203109,1610612762,1626220,1628378,202324,202711,203903,0022000068,2,1019,1025,0,0,1610612762
69,1610612756,101108,1628969,1628975,1629028,203109,1610612762,1626220,1628378,202324,202711,203903,0022000068,2,1028,1031,0,0,1610612756
70,1610612756,101108,1628969,1628975,1629028,203109,1610612762,1626220,1628378,202324,202711,203903,0022000068,2,1051,1054,0,0,1610612762
71,1610612756,101108,1628969,1628975,1629028,203109,1610612762,1626220,1628378,202324,202711,203903,0022000068,2,1061,1061,2,0,1610612756
72,1610612756,101108,1628969,1628975,1629028,203109,1610612762,1626220,1628378,202324,202711,203903,0022000068,2,1082,1082,0,0,1610612762
73,1610612756,1626164,1626166,1628969,1629028,203109,1610612762,1626220,1628378,202324,202711,203903,0022000068,2,1096,1099,0,0,1610612756
74,1610612756,1626164,1626166,1628969,1629028,203109,1610612762,1626220,1628378,202324,202711,203903,0022000068,2,1108,1108,0,0,1610612762
75,1610612756,1626164,1626166,1628969,1629028,203109,1610612762,1626220,1628378,202324,202711,203903,0022000068,2,1108,1126,1,0,1610612756
76,1610612756,1626164,1626166,1628969,203109,203967,1610612762,1626220,1628378,201144,202324,204060,0022000068,2,1149,1149,0,2,1610612762
77,1610612756,1626164,1626166,1628969,203109,203967,1610612762,1626220,1628378,201144,202324,204060,0022000068,2,1165,1165,3,0,1610612756
78,1610612756,1626164,1626166,1628969,203109,203967,1610612762,1626220,1628378,201144,202324,204060,0022000068,2,1179,1182,0,0,1610612762
79,1610612756,1626164,1626166,1628969,203109,203967,1610612762,1626220,1628378,201144,202324,204060,0022000068,2,1191,1191,3,0,1610612756
80,1610612756,1626164,1626166,1628969,203109,203967,1610612762,1626220,1628378,201144,202324,204060,0022000068,2,1210,1210,0,0,1610612762
81,1610612756,1626164,1626166,1628969,203109,203967,1610612762,1626220,1628378,201144,202324,204060,0022000068,2,1213,1222,2,0,1610612756
82,1610612756,1626164,1626166,1628969,203109,203967,1610612762,1626220,1628378,201144,203497,204060,0022000068,2,1234,1234,0,0,1610612762
83,1610612756,1626164,1626166,1628969,1629028,203109,1610612762,1626220,1628378,201144,203497,204060,0022000068,2,1246,1246,0,0,1610612756
84,1610612756,1626164,1626166,1628969,1629028,203109,1610612762,1626220,1628378,201144,203497,204060,0022000068,2,1255,1255,0,2,1610612762
85,1610612756,1626164,1626166,1628969,1629028,203109,1610612762,1626220,1628378,201144,203497,204060,0022000068,2,1270,1270,2,0,1610612756
86,1610612756,1626164,1626166,1628969,1629028,203109,1610612762,1626220,1628378,201144,203497,204060,0022000068,2,1284,1287,0,0,1610612762
87,1610612756,1626164,1626166,1628969,1629028,203109,1610612762,1626220,1628378,201144,203497,204060,0022000068,2,1294,1294,3,0,1610612756
88,1610612756,1626164,1626166,1628969,1629028,203109,1610612762,1626220,1628378,201144,203497,204060,0022000068,2,1310,1310,0,2,1610612762
89,1610612756,1626164,1626166,1628969,1629028,203109,1610612762,1626220,1628378,201144,203497,204060,0022000068,2,1321,1326,0,0,1610612756
90,1610612756,1626164,1626166,1628969,1629028,203109,1610612762,1626220,1628378,201144,203497,204060,0022000068,2,1328,1328,0,3,1610612762
91,1610612756,1626164,1626166,1628969,1629028,203109,1610612762,1626220,1628378,201144,203497,204060,0022000068,2,1347,1347,2,0,1610612756
92,1610612756,1626164,1626166,1628969,1629028,203109,1610612762,1626220,1628378,201144,203497,204060,0022000068,2,1365,1365,0,2,1610612762
93,1610612756,101108,1626164,1628969,1629028,203109,1610612762,1626220,1628378,201144,203497,204060,0022000068,2,1384,1387,0,0,1610612756
94,1610612756,101108,1626164,1628969,1629028,203109,1610612762,1626220,1628378,201144,203497,204060,0022000068,2,1394,1394,0,0,1610612762
95,1610612756,101108,1626164,1628969,1629028,203109,1610612762,1626220,1628378,201144,203497,204060,0022000068,2,1407,1410,0,0,1610612756
96,1610612756,101108,1626164,1628969,1629028,203109,1610612762,1626220,1628378,201144,203497,204060,0022000068,2,1434,1434,0,0,1610612762
97,1610612756,101108,1626164,1628969,1629028,203109,1610612762,1626220,1628378,201144,203497,204060,0022000068,2,1439,1439,3,0,1610612756
98,1610612756,1628969,203109,1629028,1626164,101108,1610612762,202711,1626220,203497,1628378,201144,0022000068,3,1440,1450,0,3,1610612762
99,1610612756,1628969,203109,1629028,1626164,101108,1610612762,202711,1626220,203497,1628378,201144,0022000068,3,1466,1481,0,0,1610612756
100,1610612756,1628969,203109,1629028,1626164,101108,1610612762,202711,1626220,203497,1628378,201144,0022000068,3,1486,1486,0,3,1610612762
101,1610612756,1628969,203109,1629028,1626164,101108,1610612762,202711,1626220,203497,1628378,201144,0022000068,3,1505,1514,2,0,1610612756
102,1610612756,1628969,203109,1629028,1626164,101108,1610612762,202711,1626220,203497,1628378,201144,0022000068,3,1524,1524,0,0,1610612762
103,1610612756,1628969,203109,1629028,1626164,101108,1610612762,202711,1626220,203497,1628378,201144,0022000068,3,1530,1533,0,0,1610612756
104,1610612756,1628969,203109,1629028,1626164,101108,1610612762,202711,1626220,203497,1628378,201144,0022000068,3,1536,1536,0,3,1610612762
105,1610612756,1628969,203109,1629028,1626164,101108,1610612762,202711,1626220,203497,1628378,201144,0022000068,3,1539,1556,0,0,1610612756
106,1610612756,1628969,203109,1629028,1626164,101108,1610612762,202711,1626220,203497,1628378,201144,0022000068,3,1567,1567,0,2,1610612762
107,1610612756,1628969,203109,1629028,1626164,101108,1610612762,202711,1626220,203497,1628378,201144,0022000068,3,1581,1581,2,0,1610612756
108,1610612756,1628969,203109,1629028,1626164,101108,1610612762,202711,1626220,203497,1628378,201144,0022000068,3,1596,1597,0,1,1610612762
109,1610612756,1628969,203109,1629028,1626164,101108,1610612762,202711,1626220,203497,1628378,201144,0022000068,3,1611,1623,0,0,1610612756
110,1610612756,1628969,203109,1629028,1626164,101108,1610612762,202711,1626220,203497,1628378,201144,0022000068,3,1631,1632,0,2,1610612762
111,1610612756,1628969,203109,1629028,1626164,101108,1610612762,202711,1626220,203497,1628378,201144,0022000068,3,1639,1639,2,0,1610612756
112,1610612756,1628969,203109,1629028,1626164,101108,1610612762,202711,1626220,203497,1628378,201144,0022000068,3,1654,1654,0,2,1610612762
113,1610612756,1628969,203109,1629028,1626164,101108,1610612762,202711,1626220,203497,1628378,201144,0022000068,3,1668,1668,3,0,1610612756
114,1610612756,1628969,203109,1629028,1626164,101108,1610612762,202711,1626220,203497,1628378,201144,0022000068,3,1691,1694,0,0,1610612762
115,1610612756,1628969,203109,1629028,1626164,101108,1610612762,202711,1626220,203497,1628378,201144,0022000068,3,1703,1707,3,0,1610612756
116,1610612756,1628969,203109,1629028,1626164,101108,1610612762,202711,1626220,203497,1628378,201144,0022000068,3,1725,1725,0,0,1610612762
117,1610612756,1628969,203109,1629028,1626164,101108,1610612762,202711,1626220,203497,1628378,201144,0022000068,3,1731,1735,0,0,1610612756
118,1610612756,1628969,203109,1629028,1626164,101108,1610612762,202711,1626220,203497,1628378,201144,0022000068,3,1749,1749,0,2,1610612762
119,1610612756,1628969,203109,1629028,1626164,101108,1610612762,202711,1626220,203497,1628378,201144,0022000068,3,1765,1765,2,0,1610612756
120,1610612756,1626164,1626166,1628969,1629028,1629661,1610612762,1626220,1628378,202324,202711,204060,0022000068,3,1792,1792,0,2,1610612762
121,1610612756,1626164,1626166,1628969,1629028,1629661,1610612762,1626220,1628378,202324,202711,204060,0022000068,3,1803,1803,0,0,1610612756
122,1610612756,1626164,1626166,1628969,1629028,1629661,1610612762,1626220,1628378,202324,202711,204060,0022000068,3,1803,1818,0,2,1610612762
123,1610612756,1626164,1626166,1628969,1629028,1629661,1610612762,1626220,1628378,202324,202711,204060,0022000068,3,1835,1835,0,0,1610612756
124,1610612756,1626164,1626166,1628969,1629661,203967,1610612762,1626220,1628378,202324,202711,204060,0022000068,3,1853,1859,0,0,1610612762
125,1610612756,1626164,1626166,1628969,1629661,203967,1610612762,1626220,1628378,202324,202711,204060,0022000068,3,1870,1873,0,0,1610612756
126,1610612756,1626164,1626166,1628969,1629661,203967,1610612762,1626220,1628378,202324,202711,204060,0022000068,3,1878,1890,0,0,1610612762
127,1610612756,1626164,1626166,1628969,1629661,203967,1610612762,1626220,1628378,202324,202711,204060,0022000068,3,1895,1895,3,0,1610612756
128,1610612756,1626164,1626166,1628969,1629661,203967,1610612762,1626220,1628378,202324,202711,204060,0022000068,3,1913,1913,0,1,1610612762
129,1610612756,1626164,1626166,1628969,1629661,203967,1610612762,1626220,1628378,202324,203903,204060,0022000068,3,1924,1924,2,0,1610612756
130,1610612756,1626164,1626166,1628969,1629661,203967,1610612762,1626220,1628378,202324,203903,204060,0022000068,3,1939,1943,0,0,1610612762
131,1610612756,1626164,1626166,1628969,1629661,203967,1610612762,1626220,1628378,202324,203903,204060,0022000068,3,1951,1953,0,0,1610612756
132,1610612756,1626164,1626166,1628969,1629661,203967,1610612762,1626220,1628378,202324,203903,204060,0022000068,3,1962,1969,0,0,1610612762
133,1610612756,1626164,1626166,1628969,1629661,203967,1610612762,1626220,1628378,202324,203903,204060,0022000068,3,1972,1972,2,0,1610612756
134,1610612756,1626164,1626166,1628969,1629661,203967,1610612762,1626220,1628378,202324,203903,204060,0022000068,3,1972,1989,0,0,1610612762
135,1610612756,1626164,1626166,1628969,1629661,203967,1610612762,1627777,201144,203497,203903,204060,0022000068,3,1990,1990,1,0,1610612756
136,1610612756,1626164,1626166,1628975,1629661,203967,1610612762,1627777,201144,203497,203903,204060,0022000068,3,2002,2002,0,2,1610612762
137,1610612756,1626164,1626166,1628975,1629661,203967,1610612762,1627777,201144,203497,203903,204060,0022000068,3,2021,2021,0,0,1610612756
138,1610612756,1626164,1626166,1628975,1629661,203967,1610612762,1627777,201144,203497,203903,204060,0022000068,3,2032,2032,0,3,1610612762
139,1610612756,1626164,1626166,1628975,1629661,203967,1610612762,1627777,201144,203497,203903,204060,0022000068,3,2052,2067,0,0,1610612756
140,1610612756,1626166,1628975,1629661,203109,203967,1610612762,1627777,201144,203497,203903,204060,0022000068,3,2072,2073,0,0,1610612762
141,1610612756,1626166,1628975,1629661,203109,203967,1610612762,1627777,201144,203497,203903,204060,0022000068,3,2073,2073,2,0,1610612756
142,1610612756,101108,1628975,1629661,203109,203967,1610612762,1627777,201144,203497,203903,204060,0022000068,3,2088,2088,0,0,1610612762
143,1610612756,101108,1628975,1629661,203109,203967,1610612762,1627777,201144,203497,203903,204060,0022000068,3,2095,2095,3,0,1610612756
144,1610612756,101108,1628975,1629661,203109,203967,1610612762,1627777,201144,203497,203903,204060,0022000068,3,2119,2122,0,0,1610612762
145,1610612756,101108,1628975,1629661,203109,203967,1610612762,1627777,201144,203497,203903,204060,0022000068,3,2130,2138,3,0,1610612756
146,1610612756,101108,1628975,1629661,203109,203967,1610612762,1627777,201144,203497,203903,204060,0022000068,3,2159,2159,0,2,1610612762
147,1610612756,203109,1629028,101108,1629661,1628975,1610612762,202711,203497,201144,204060,203903,0022000068,4,2160,2178,0,0,1610612756
148,1610612756,203109,1629028,101108,1629661,1628975,1610612762,202711,203497,201144,204060,203903,0022000068,4,2197,2201,0,0,1610612762
149,1610612756,203109,1629028,101108,1629661,1628975,1610612762,202711,203497,201144,204060,203903,0022000068,4,2211,2213,0,0,1610612756
150,1610612756,203109,1629028,101108,1629661,1628975,1610612762,202711,203497,201144,204060,203903,0022000068,4,2221,2223,0,0,1610612762
151,1610612756,203109,1629028,101108,1629661,1628975,1610612762,202711,203497,201144,204060,203903,0022000068,4,2232,2232,3,0,1610612756
152,1610612756,203109,1629028,101108,1629661,1628975,1610612762,202711,203497,201144,204060,203903,0022000068,4,2241,2257,0,0,1610612762
153,1610612756,203109,1629028,101108,1629661,1628975,1610612762,202711,203497,201144,204060,203903,0022000068,4,2271,2271,3,0,1610612756
154,1610612756,203109,1629028,101108,1629661,1628975,1610612762,202711,203497,201144,204060,203903,0022000068,4,2293,2294,0,0,1610612762
155,1610612756,203109,1629028,101108,1629661,1628975,1610612762,202711,203497,201144,204060,203903,0022000068,4,2294,2307,0,0,1610612756
156,1610612756,101108,1628969,1629028,1629661,203109,1610612762,1628378,201144,202711,203497,204060,0022000068,4,2312,2314,0,0,1610612762
157,1610612756,101108,1628969,1629028,1629661,203109,1610612762,1628378,201144,202711,203497,204060,0022000068,4,2323,2323,2,0,1610612756
158,1610612756,101108,1628969,1629028,1629661,203109,1610612762,1628378,201144,202711,203497,204060,0022000068,4,2338,2342,0,0,1610612762
159,1610612756,101108,1628969,1629028,1629661,203109,1610612762,1628378,201144,202711,203497,204060,0022000068,4,2352,2354,0,0,1610612756
160,1610612756,101108,1628969,1629028,1629661,203109,1610612762,1628378,201144,202711,203497,204060,0022000068,4,2359,2362,0,2,1610612762
161,1610612756,101108,1628969,1629028,1629661,203109,1610612762,1628378,201144,202711,203497,204060,0022000068,4,2382,2385,0,0,1610612756
162,1610612756,1626166,1628969,1629661,203109,203967,1610612762,1626220,1628378,202324,202711,203903,0022000068,4,2405,2409,0,3,1610612762
163,1610612756,1626166,1628969,1629661,203109,203967,1610612762,1626220,1628378,202324,202711,203903,0022000068,4,2428,2432,0,0,1610612756
164,1610612756,1626166,1628969,1629661,203109,203967,1610612762,1626220,1628378,202324,202711,203903,0022000068,4,2442,2445,0,2,1610612762
165,1610612756,1626166,1628969,1629661,203109,203967,1610612762,1626220,1628378,202324,202711,203903,0022000068,4,2452,2468,0,0,1610612756
166,1610612756,1626164,1626166,1628969,203109,203967,1610612762,1626220,1628378,202324,202711,203903,0022000068,4,2480,2485,0,0,1610612762
167,1610612756,1626164,1626166,1628969,203109,203967,1610612762,1626220,1628378,202711,203497,203903,0022000068,4,2496,2496,3,0,1610612756
168,1610612756,1626164,1626166,1628969,203109,203967,1610612762,1626220,1628378,202711,203497,203903,0022000068,4,2512,2512,0,3,1610612762
169,1610612756,1626164,1626166,1628969,203109,203967,1610612762,1626220,1628378,202711,203497,203903,0022000068,4,2530,2530,2,0,1610612756
170,1610612756,1626164,1626166,1628969,203109,203967,1610612762,1626220,1628378,202711,203497,203903,0022000068,4,2532,2552,0,0,1610612762
171,1610612756,1626164,1626166,1628969,203109,203967,1610612762,1626220,1628378,201144,203497,204060,0022000068,4,2563,2566,0,0,1610612756
172,1610612756,1626164,1626166,1628969,203109,203967,1610612762,1626220,1628378,201144,203497,204060,0022000068,4,2587,2591,0,0,1610612762
173,1610612756,1626164,1626166,1628969,203109,203967,1610612762,1626220,1628378,201144,203497,204060,0022000068,4,2611,2611,0,0,1610612756
174,1610612756,1626164,1626166,1628969,203109,203967,1610612762,1626220,1628378,201144,203497,204060,0022000068,4,2611,2619,0,2,1610612762
175,1610612756,101108,1626164,1628969,1629028,203109,1610612762,1626220,1628378,201144,203497,204060,0022000068,4,2634,2637,0,0,1610612756
176,1610612756,101108,1626164,1628969,1629028,203109,1610612762,1626220,1628378,201144,203497,204060,0022000068,4,2657,2657,0,2,1610612762
177,1610612756,101108,1626164,1628969,1629028,203109,1610612762,1626220,1628378,201144,203497,204060,0022000068,4,2670,2670,0,0,1610612756
178,1610612756,101108,1626164,1628969,1629028,203109,1610612762,1626220,1628378,201144,203497,204060,0022000068,4,2675,2675,0,3,1610612762
179,1610612756,101108,1626164,1628969,1629028,203109,1610612762,1626220,1628378,201144,203497,204060,0022000068,4,2697,2699,2,0,1610612756
180,1610612756,101108,1626164,1628969,1629028,203109,1610612762,1626220,1628378,201144,203497,204060,0022000068,4,2711,2711,0,3,1610612762
181,1610612756,101108,1626164,1628969,1629028,203109,1610612762,1626220,1628378,201144,203497,204060,0022000068,4,2727,2738,0,0,1610612756
182,1610612756,101108,1626164,1628969,1629028,203109,1610612762,1626220,1628378,201144,203497,204060,0022000068,4,2753,2753,0,3,1610612762
183,1610612756,101108,1626164,1628969,1629028,203109,1610612762,1626220,1628378,201144,203497,204060,0022000068,4,2776,2778,2,0,1610612756
184,1610612756,101108,1626164,1628969,1629028,203109,1610612762,1626220,1628378,201144,203497,204060,0022000068,4,2786,2789,0,0,1610612762
185,1610612756,101108,1626164,1628969,1629028,203109,1610612762,1626220,1628378,201144,203497,204060,0022000068,4,2789,2809,3,0,1610612756
186,1610612756,101108,1626164,1628969,1629028,203109,1610612762,1626220,1628378,201144,203497,204060,0022000068,4,2815,2815,0,2,1610612762
187,1610612756,101108,1626164,1628969,1629028,203109,1610612762,1626220,1628378,201144,203497,204060,0022000068,4,2833,2833,0,0,1610612756
188,1610612756,101108,1626164,1628969,1629028,203109,1610612762,1626220,1628378,201144,203497,204060,0022000068,4,2841,2843,0,0,1610612762
189,1610612756,101108,1626164,1628969,1629028,203109,1610612762,1626220,1628378,201144,203497,204060,0022000068,4,2861,2861,3,0,1610612756
190,1610612756,101108,1626164,1628969,1629028,203109,1610612762,1626220,1628378,201144,203497,204060,0022000068,4,2864,2867,0,0,1610612762
