,team1_id,team1_player1,team1_player2,team1_player3,team1_player4,team1_player5,team2_id,team2_player1,team2_player2,team2_player3,team2_player4,team2_player5,game_id,period,possession_start,possession_end,team1_points,team2_points,possession_team
0,1610612757,1626181,203496,203994,203468,1628372,1610612744,203952,203110,1626172,1629673,201939,0012100066,1,0,21,0,2,1610612744
1,1610612757,1626181,203496,203994,203468,1628372,1610612744,203952,203110,1626172,1629673,201939,0012100066,1,40,40,2,0,1610612757
2,1610612757,1626181,203496,203994,203468,1628372,1610612744,203952,203110,1626172,1629673,201939,0012100066,1,56,56,0,2,1610612744
3,1610612757,1626181,203496,203994,203468,1628372,1610612744,203952,203110,1626172,1629673,201939,0012100066,1,70,85,0,0,1610612757
4,1610612757,1626181,203496,203994,203468,1628372,1610612744,203952,203110,1626172,1629673,201939,0012100066,1,91,93,0,0,1610612744
5,1610612757,1626181,203496,203994,203468,1628372,1610612744,203952,203110,1626172,1629673,201939,0012100066,1,108,110,0,0,1610612757
6,1610612757,1626181,203496,203994,203468,1628372,1610612744,203952,203110,1626172,1629673,201939,0012100066,1,116,118,0,0,1610612744
7,1610612757,1626181,203496,203994,203468,1628372,1610612744,203952,203110,1626172,1629673,201939,0012100066,1,129,129,2,0,1610612757
8,1610612757,1626181,203496,203994,203468,1628372,1610612744,203952,203110,1626172,1629673,201939,0012100066,1,145,158,0,0,1610612744
9,1610612757,1626181,203496,203994,203468,1628372,1610612744,203952,203110,1626172,1629673,201939,0012100066,1,170,172,0,0,1610612757
10,1610612757,1626181,203496,203994,203468,1628372,1610612744,203952,203110,1626172,1629673,201939,0012100066,1,183,184,0,0,1610612744
11,1610612757,1626181,203496,203994,203468,1628372,1610612744,203952,203110,1626172,1629673,201939,0012100066,1,193,195,0,0,1610612757
12,1610612757,1626181,203496,203994,203468,1628372,1610612744,203952,203110,1626172,1629673,201939,0012100066,1,204,206,0,0,1610612744
13,1610612757,1626181,203496,203994,203468,1628372,1610612744,203952,203110,1626172,1629673,201939,0012100066,1,224,230,0,0,1610612757
14,1610612757,1626181,203496,203994,203468,1628372,1610612744,203952,203110,1626172,1629673,201939,0012100066,1,231,231,0,0,1610612744
15,1610612757,1626181,203496,203994,203468,1628372,1610612744,203952,203110,1626172,1629673,201939,0012100066,1,236,236,3,0,1610612757
16,1610612757,1626181,203496,203994,203468,1628372,1610612744,203952,203110,1626172,1629673,201939,0012100066,1,244,244,0,2,1610612744
17,1610612757,1626181,203496,203994,203468,1628372,1610612744,203952,203110,1626172,1629673,201939,0012100066,1,258,261,0,0,1610612757
18,1610612757,1626181,203496,203994,203468,1628372,1610612744,203952,203110,1626172,1629673,201939,0012100066,1,263,265,0,0,1610612744
19,1610612757,1626181,203496,203994,203468,1628372,1610612744,203952,203110,1626172,1629673,201939,0012100066,1,270,270,2,0,1610612757
20,1610612757,1626181,203496,203994,203468,1628372,1610612744,203952,203110,1626172,1629673,201939,0012100066,1,287,290,0,0,1610612744
21,1610612757,1626181,203496,203994,203468,1628372,1610612744,203952,203110,1626172,1629673,201939,0012100066,1,297,297,3,0,1610612757
22,1610612757,1626181,203496,203994,203468,1628372,1610612744,203952,203110,1626172,1629673,201939,0012100066,1,314,317,0,0,1610612744
23,1610612757,1626181,203496,203994,203468,1628372,1610612744,203952,203110,1626172,1629673,201939,0012100066,1,324,326,0,0,1610612757
24,1610612757,1626181,203496,203994,203468,1628372,1610612744,1629673,201939,202357,203110,203952,0012100066,1,335,335,0,2,1610612744
25,1610612757,1626181,203496,203994,203468,1628372,1610612744,1629673,201939,202357,203110,203952,0012100066,1,354,356,0,0,1610612757
26,1610612757,1626181,203496,203994,203468,1628372,1610612744,1629673,201939,202357,203110,203952,0012100066,1,371,371,0,0,1610612744
27,1610612757,1626181,1627737,203463,203468,203496,1610612744,1627814,201939,202357,203110,203952,0012100066,1,391,394,0,0,1610612757
28,1610612757,1626181,1627737,203463,203468,203496,1610612744,1627814,201939,202357,203110,203952,0012100066,1,412,419,0,0,1610612744
29,1610612757,1626181,1627737,203463,203468,203496,1610612744,1627814,201939,202357,203110,203952,0012100066,1,419,419,2,0,1610612757
30,1610612757,1626181,1627737,203463,203468,203496,1610612744,1627814,201939,202357,203110,203952,0012100066,1,432,432,0,3,1610612744
31,1610612757,1626181,1627737,203463,203468,203496,1610612744,1627814,201939,202357,203110,203952,0012100066,1,451,454,0,0,1610612757
32,1610612757,1626181,1627737,203463,203468,203496,1610612744,1627814,201939,202357,203110,203952,0012100066,1,457,457,0,2,1610612744
33,1610612757,1626181,1627737,203463,203468,203496,1610612744,1627814,201939,202357,203110,203952,0012100066,1,471,471,2,0,1610612757
34,1610612757,1626181,1627737,203463,203468,203496,1610612744,1627814,201939,202357,203110,203952,0012100066,1,482,482,0,2,1610612744
35,1610612757,1626181,1627737,203463,203468,203496,1610612744,1627814,201939,202357,203110,203952,0012100066,1,489,489,2,0,1610612757
36,1610612757,1626181,1627737,203463,203468,203496,1610612744,1627814,201939,202357,203110,203952,0012100066,1,489,510,0,0,1610612744
37,1610612757,1626181,1627737,1630535,203463,203468,1610612744,1627814,201939,202357,203490,2738,0012100066,1,521,521,2,0,1610612757
38,1610612757,1626181,1627737,1630535,203463,203468,1610612744,1627814,201939,202357,203490,2738,0012100066,1,528,528,0,0,1610612744
39,1610612757,1626181,1627737,1630535,203463,203468,1610612744,1627814,201939,202357,203490,2738,0012100066,1,537,537,0,0,1610612757
40,1610612757,1626181,1627737,1630535,203463,203468,1610612744,1627814,201939,202357,203490,2738,0012100066,1,545,545,0,0,1610612744
41,1610612757,1626181,1627737,1630535,203463,203468,1610612744,1627814,201939,202357,203490,2738,0012100066,1,551,551,3,0,1610612757
42,1610612757,1626181,1627737,1630535,203463,203468,1610612744,1627814,201939,202357,203490,2738,0012100066,1,567,569,0,0,1610612744
43,1610612757,1626181,1627737,1630535,203463,203468,1610612744,1627814,201939,202357,203490,2738,0012100066,1,579,579,2,0,1610612757
44,1610612757,1626181,1627737,1630535,203463,203468,1610612744,1627814,201939,202357,203490,2738,0012100066,1,596,596,0,2,1610612744
45,1610612757,1626181,1627737,1630535,203463,203468,1610612744,1627814,201939,202357,203490,2738,0012100066,1,613,613,0,0,1610612757
46,1610612757,1627737,1628372,1629604,1630535,203463,1610612744,1627814,201939,202357,203490,2738,0012100066,1,617,632,0,0,1610612744
47,1610612757,1627737,1628372,1629604,1630535,203463,1610612744,1627814,201939,202357,203490,2738,0012100066,1,640,640,2,0,1610612757
48,1610612757,1627737,1628372,1629604,1630535,203463,1610612744,1627814,201939,202357,203490,2738,0012100066,1,655,655,0,0,1610612744
49,1610612757,1627737,1628372,1629604,1630535,203463,1610612744,1627814,201939,202357,203490,2738,0012100066,1,667,669,0,0,1610612757
50,1610612757,1627737,1628372,1629604,1630535,203463,1610612744,1627814,201939,202357,203490,2738,0012100066,1,683,686,0,0,1610612744
51,1610612757,1627737,1628372,1629604,1630535,203463,1610612744,1627814,201939,202357,203490,2738,0012100066,1,693,695,0,0,1610612757
52,1610612757,1627737,1628372,1629604,1630535,203463,1610612744,1627814,201939,202357,203490,2738,0012100066,1,712,712,0,0,1610612744
53,1610612757,1627737,1628372,1629604,1630535,203463,1610612744,1627814,201939,202357,203490,2738,0012100066,1,715,720,0,0,1610612744
54,1610612757,1626181,203496,203994,1628372,1629604,1610612744,1629673,202357,1627814,203490,2738,0012100066,2,720,738,2,0,1610612757
55,1610612757,1626181,203496,203994,1628372,1629604,1610612744,1629673,202357,1627814,203490,2738,0012100066,2,754,754,0,3,1610612744
56,1610612757,1626181,203496,203994,1628372,1629604,1610612744,1629673,202357,1627814,203490,2738,0012100066,2,768,770,0,0,1610612757
57,1610612757,1626181,203496,203994,1628372,1629604,1610612744,1629673,202357,1627814,203490,2738,0012100066,2,776,778,0,0,1610612744
58,1610612757,1626181,203496,203994,1628372,1629604,1610612744,1629673,202357,1627814,203490,2738,0012100066,2,787,787,2,0,1610612757
59,1610612757,1626181,203496,203994,1628372,1629604,1610612744,1629673,202357,1627814,203490,2738,0012100066,2,787,799,0,3,1610612744
60,1610612757,1626181,203496,203994,1628372,1629604,1610612744,1629673,202357,1627814,203490,2738,0012100066,2,823,823,3,0,1610612757
61,1610612757,1626181,203496,203994,1628372,1629604,1610612744,1629673,202357,1627814,203490,2738,0012100066,2,847,849,0,0,1610612744
62,1610612757,1626181,203496,203994,1628372,1629604,1610612744,1629673,202357,1627814,203490,2738,0012100066,2,859,859,0,0,1610612757
63,1610612757,1626181,203496,203994,1628372,1629604,1610612744,1629673,202357,1627814,203490,2738,0012100066,2,862,867,0,2,1610612744
64,1610612757,1626181,203496,203994,1628372,1629604,1610612744,1629673,1630541,202357,203490,2738,0012100066,2,878,878,3,0,1610612757
65,1610612757,1626181,203496,203994,1628372,1629604,1610612744,1629673,1630541,202357,203490,2738,0012100066,2,888,897,0,0,1610612744
66,1610612757,1626181,203496,203994,1628372,1629604,1610612744,1629673,1630541,202357,203490,2738,0012100066,2,910,912,0,0,1610612757
67,1610612757,1626181,203496,203994,1628372,1629604,1610612744,1629673,1630541,202357,203490,2738,0012100066,2,912,918,0,3,1610612744
68,1610612757,1629604,203463,203468,203496,203994,1610612744,1629673,1630541,202357,203490,2738,0012100066,2,933,938,2,0,1610612757
69,1610612757,1629604,203463,203468,203496,203994,1610612744,1629673,1630541,202357,203490,2738,0012100066,2,952,973,0,0,1610612744
70,1610612757,1627737,1629604,203463,203468,203496,1610612744,1626172,1629673,1630541,203110,2738,0012100066,2,975,975,0,0,1610612757
71,1610612757,1627737,1629604,203463,203468,203496,1610612744,1626172,1629673,1630541,203110,2738,0012100066,2,991,993,0,0,1610612744
72,1610612757,1627737,1629604,203463,203468,203496,1610612744,1626172,1629673,1630541,203110,2738,0012100066,2,1001,1004,0,0,1610612757
73,1610612757,1627737,1629604,203463,203468,203496,1610612744,1626172,1629673,1630541,203110,2738,0012100066,2,1011,1011,0,0,1610612744
74,1610612757,1627737,1629604,203463,203468,203496,1610612744,1626172,1629673,1630541,203110,2738,0012100066,2,1011,1011,0,0,1610612757
75,1610612757,1627737,1629604,203463,203468,203496,1610612744,1626172,1629673,1630541,203110,2738,0012100066,2,1019,1019,0,2,1610612744
76,1610612757,1627737,1629604,203463,203468,203496,1610612744,1626172,1629673,1630541,203110,2738,0012100066,2,1031,1033,0,0,1610612757
77,1610612757,1627737,1629604,203463,203468,203496,1610612744,1626172,1629673,1630541,203110,2738,0012100066,2,1037,1037,0,0,1610612744
78,1610612757,1627737,1629604,203463,203468,203496,1610612744,1626172,1629673,1630541,203110,2738,0012100066,2,1041,1041,2,0,1610612757
79,1610612757,1627737,1629604,203463,203468,203496,1610612744,1626172,1629673,1630541,203110,2738,0012100066,2,1068,1069,0,0,1610612744
80,1610612757,1627737,1629604,203463,203468,203496,1610612744,1626172,1629673,1630541,203110,2738,0012100066,2,1069,1069,0,0,1610612757
81,1610612757,1627737,1629604,203463,203468,203496,1610612744,1626172,1630541,201939,203110,203952,0012100066,2,1075,1075,0,3,1610612744
82,1610612757,1627737,1629604,203463,203468,203496,1610612744,1626172,1630541,201939,203110,203952,0012100066,2,1099,1099,2,0,1610612757
83,1610612757,1627737,1629604,203463,203468,203496,1610612744,1626172,1630541,201939,203110,203952,0012100066,2,1111,1118,0,3,1610612744
84,1610612757,1627737,1629604,203463,203468,203496,1610612744,1626172,1630541,201939,203110,203952,0012100066,2,1131,1136,2,0,1610612757
85,1610612757,1627737,1629604,203463,203468,203496,1610612744,1626172,1630541,201939,203110,203952,0012100066,2,1152,1153,0,2,1610612744
86,1610612757,1627737,1629604,203463,203468,203496,1610612744,1626172,1630541,201939,203110,203952,0012100066,2,1153,1170,0,0,1610612757
87,1610612757,1626181,1628372,203468,203496,203994,1610612744,1626172,1630541,201939,203110,203952,0012100066,2,1183,1208,0,0,1610612744
88,1610612757,1626181,1628372,203468,203496,203994,1610612744,1626172,1627814,201939,203110,203952,0012100066,2,1211,1213,0,0,1610612757
89,1610612757,1626181,1628372,203468,203496,203994,1610612744,1626172,1627814,201939,203110,203952,0012100066,2,1222,1233,0,0,1610612744
90,1610612757,1626181,1628372,203468,203496,203994,1610612744,1626172,1627814,201939,203110,203952,0012100066,2,1240,1247,0,0,1610612757
91,1610612757,1626181,1628372,203468,203496,203994,1610612744,1626172,1627814,201939,203110,203952,0012100066,2,1262,1262,0,3,1610612744
92,1610612757,1626181,1628372,203468,203496,203994,1610612744,1626172,1627814,201939,203110,203952,0012100066,2,1277,1277,3,0,1610612757
93,1610612757,1626181,1628372,203468,203496,203994,1610612744,1626172,1627814,201939,203110,203952,0012100066,2,1292,1301,0,2,1610612744
94,1610612757,1626181,1628372,203468,203496,203994,1610612744,1626172,1627814,201939,203110,203952,0012100066,2,1319,1322,0,0,1610612757
95,1610612757,1626181,1628372,203468,203496,203994,1610612744,1626172,1627814,201939,203110,203952,0012100066,2,1324,1324,0,0,1610612744
96,1610612757,1626181,1628372,203468,203496,203994,1610612744,1626172,1627814,201939,203110,203952,0012100066,2,1339,1347,0,0,1610612757
97,1610612757,1626181,1628372,203468,203496,203994,1610612744,1626172,1627814,201939,203110,203952,0012100066,2,1353,1353,0,3,1610612744
98,1610612757,1626181,1628372,203468,203496,203994,1610612744,1626172,1627814,201939,203110,203952,0012100066,2,1367,1370,0,0,1610612757
99,1610612757,1626181,1628372,203468,203496,203994,1610612744,1626172,1627814,201939,203110,203952,0012100066,2,1371,1371,0,1,1610612744
100,1610612757,1626181,1628372,203468,203496,203994,1610612744,1626172,1627814,201939,203110,203952,0012100066,2,1380,1380,3,0,1610612757
101,1610612757,1626181,1628372,203468,203496,203994,1610612744,1626172,1627814,201939,203110,203952,0012100066,2,1395,1395,0,3,1610612744
102,1610612757,1626181,1628372,203468,203496,203994,1610612744,1626172,1627814,201939,203110,203952,0012100066,2,1401,1401,0,0,1610612757
103,1610612757,1626181,1628372,203468,203496,203994,1610612744,1627814,1629673,201939,203110,203952,0012100066,2,1409,1409,0,3,1610612744
104,1610612757,1626181,1628372,203468,203496,203994,1610612744,1627814,1629673,201939,203110,203952,0012100066,2,1428,1430,0,0,1610612757
105,1610612757,1626181,1628372,203468,203496,203994,1610612744,1627814,1629673,201939,203110,203952,0012100066,2,1438,1440,0,2,1610612744
106,1610612757,1626181,1628372,203468,203496,203994,1610612744,1627814,1629673,201939,203110,203952,0012100066,2,1440,1440,0,0,342
107,1610612757,1626181,203496,203994,203468,1628372,1610612744,203952,203110,1626172,1629673,201939,0012100066,3,1440,1457,0,0,1610612757
108,1610612757,1626181,203496,203994,203468,1628372,1610612744,203952,203110,1626172,1629673,201939,0012100066,3,1472,1472,0,2,1610612744
109,1610612757,1626181,203496,203994,203468,1628372,1610612744,203952,203110,1626172,1629673,201939,0012100066,3,1484,1484,2,0,1610612757
110,1610612757,1626181,203496,203994,203468,1628372,1610612744,203952,203110,1626172,1629673,201939,0012100066,3,1496,1496,0,2,1610612744
111,1610612757,1626181,203463,203468,203496,203994,1610612744,203952,203110,1626172,1629673,201939,0012100066,3,1504,1512,2,0,1610612757
112,1610612757,1626181,203463,203468,203496,203994,1610612744,203952,203110,1626172,1629673,201939,0012100066,3,1519,1521,0,0,1610612744
113,1610612757,1626181,203463,203468,203496,203994,1610612744,203952,203110,1626172,1629673,201939,0012100066,3,1529,1529,2,0,1610612757
114,1610612757,1626181,203463,203468,203496,203994,1610612744,203952,203110,1626172,1629673,201939,0012100066,3,1541,1543,0,0,1610612744
115,1610612757,1626181,203463,203468,203496,203994,1610612744,203952,203110,1626172,1629673,201939,0012100066,3,1549,1549,0,0,1610612757
116,1610612757,1626181,203463,203468,203496,203994,1610612744,203952,203110,1626172,1629673,201939,0012100066,3,1552,1560,0,0,1610612744
117,1610612757,1626181,203463,203468,203496,203994,1610612744,203952,203110,1626172,1629673,201939,0012100066,3,1576,1576,0,0,1610612757
118,1610612757,1626181,203463,203468,203496,203994,1610612744,203952,203110,1626172,1629673,201939,0012100066,3,1588,1588,0,2,1610612744
119,1610612757,1626181,203463,203468,203496,203994,1610612744,203952,203110,1626172,1629673,201939,0012100066,3,1602,1604,0,0,1610612757
120,1610612757,1626181,203463,203468,203496,203994,1610612744,203952,203110,1626172,1629673,201939,0012100066,3,1610,1610,0,3,1610612744
121,1610612757,1626181,203463,203468,203496,203994,1610612744,203952,203110,1626172,1629673,201939,0012100066,3,1632,1637,0,0,1610612757
122,1610612757,1626181,203463,203468,203496,203994,1610612744,203952,203110,1626172,1629673,201939,0012100066,3,1647,1647,0,4,1610612744
123,1610612757,1626181,203463,203468,203496,203994,1610612744,203952,203110,1626172,1629673,201939,0012100066,3,1657,1665,0,0,1610612757
124,1610612757,1626181,203463,203468,203496,203994,1610612744,203952,203110,1626172,1629673,201939,0012100066,3,1669,1669,0,2,1610612744
125,1610612757,1626181,203463,203468,203496,203994,1610612744,203952,203110,1626172,1629673,201939,0012100066,3,1685,1685,2,0,1610612757
126,1610612757,1626181,203463,203468,203496,203994,1610612744,203952,203110,1626172,1629673,201939,0012100066,3,1695,1695,0,0,1610612744
127,1610612757,1626181,203463,203468,203496,203994,1610612744,203952,203110,1626172,1629673,201939,0012100066,3,1705,1705,3,0,1610612757
128,1610612757,1626181,203463,203468,203496,203994,1610612744,203952,203110,1626172,1629673,201939,0012100066,3,1721,1721,0,3,1610612744
129,1610612757,1626181,203463,203468,203496,203994,1610612744,203952,203110,1626172,1629673,201939,0012100066,3,1734,1737,0,0,1610612757
130,1610612757,1626181,203463,203468,203496,203994,1610612744,203952,203110,1626172,1629673,201939,0012100066,3,1744,1744,0,2,1610612744
131,1610612757,1626181,203463,203468,203496,203994,1610612744,203952,203110,1626172,1629673,201939,0012100066,3,1755,1758,0,0,1610612757
132,1610612757,1626181,203463,203468,203496,203994,1610612744,203952,203110,1626172,1629673,201939,0012100066,3,1767,1769,0,0,1610612744
133,1610612757,1626181,203463,203468,203496,203994,1610612744,203952,203110,1626172,1629673,201939,0012100066,3,1772,1783,0,0,1610612757
134,1610612757,1626181,203463,203468,203496,203994,1610612744,203952,203110,1626172,1629673,201939,0012100066,3,1783,1786,0,0,1610612744
135,1610612757,1626181,1627737,203463,203468,203496,1610612744,1626172,1630541,201939,203110,203952,0012100066,3,1799,1799,3,0,1610612757
136,1610612757,1626181,1627737,203463,203468,203496,1610612744,1626172,1630541,201939,203110,203952,0012100066,3,1815,1815,0,2,1610612744
137,1610612757,1626181,1627737,203463,203468,203496,1610612744,1626172,1630541,201939,203110,203952,0012100066,3,1827,1829,0,0,1610612757
138,1610612757,1626181,1627737,203463,203468,203496,1610612744,1626172,1630541,201939,203110,203952,0012100066,3,1837,1837,0,0,1610612744
139,1610612757,1626181,1627737,203463,203468,203496,1610612744,1626172,1630541,201939,203110,203952,0012100066,3,1840,1844,0,0,1610612757
140,1610612757,1626181,1627737,203463,203468,203496,1610612744,1626172,1630541,201939,203110,203952,0012100066,3,1855,1863,0,2,1610612744
141,1610612757,1626181,1627737,203463,203468,203496,1610612744,1626172,1630541,201939,203110,203952,0012100066,3,1887,1889,0,0,1610612757
142,1610612757,1626181,1627737,203463,203468,203496,1610612744,1626172,1630541,201939,203110,203952,0012100066,3,1899,1899,0,2,1610612744
143,1610612757,1626181,1627737,203463,203468,203496,1610612744,1626172,1630541,201939,203110,203952,0012100066,3,1902,1907,2,0,1610612757
144,1610612757,1626181,1627737,1630535,203463,203468,1610612744,1630541,201939,202357,203490,2738,0012100066,3,1919,1919,0,2,1610612744
145,1610612757,1626181,1627737,1630535,203463,203468,1610612744,1630541,201939,202357,203490,2738,0012100066,3,1940,1942,0,0,1610612757
146,1610612757,1626181,1627737,1630535,203463,203468,1610612744,1630541,201939,202357,203490,2738,0012100066,3,1945,1954,0,3,1610612744
147,1610612757,1626181,1627737,1630535,203463,203468,1610612744,1630541,201939,202357,203490,2738,0012100066,3,1976,1976,3,0,1610612757
148,1610612757,1626181,1627737,1630535,203463,203468,1610612744,1630541,201939,202357,203490,2738,0012100066,3,1993,1993,0,2,1610612744
149,1610612757,1626181,1627737,1630535,203463,203468,1610612744,1630541,201939,202357,203490,2738,0012100066,3,1995,2003,3,1,1610612757
150,1610612757,1626181,1627737,1628372,1630535,203463,1610612744,1630541,201939,202357,203490,2738,0012100066,3,2016,2034,0,0,1610612744
151,1610612757,1627737,1628372,1629604,1630535,203463,1610612744,1630541,201939,202357,203490,2738,0012100066,3,2040,2042,0,0,1610612757
152,1610612757,1627737,1628372,1629604,1630535,203463,1610612744,1630541,201939,202357,203490,2738,0012100066,3,2049,2058,0,0,1610612744
153,1610612757,1627737,1628372,1629604,1630535,203463,1610612744,1630541,201939,202357,203490,2738,0012100066,3,2060,2062,0,0,1610612757
154,1610612757,1627737,1628372,1629604,1630535,203463,1610612744,1630541,201939,202357,203490,2738,0012100066,3,2068,2068,0,3,1610612744
155,1610612757,1627737,1628372,1629604,1630535,203463,1610612744,1630541,201939,202357,203490,2738,0012100066,3,2086,2086,2,0,1610612757
156,1610612757,1627737,1628372,1629604,1630535,203463,1610612744,1630541,201939,202357,203490,2738,0012100066,3,2095,2095,0,4,1610612744
157,1610612757,1627737,1628372,1629604,1630535,203463,1610612744,1630541,201939,202357,203490,2738,0012100066,3,2108,2108,0,0,1610612757
158,1610612757,1627737,1628372,1629604,1630535,203463,1610612744,1630541,201939,202357,203490,2738,0012100066,3,2118,2118,0,0,1610612744
159,1610612757,1627737,1628372,1629604,1630535,203463,1610612744,1630541,201939,202357,203490,2738,0012100066,3,2122,2122,2,0,1610612757
160,1610612757,1627737,1628372,1629604,1630535,203463,1610612744,1630541,201939,202357,203490,2738,0012100066,3,2128,2134,0,2,1610612744
161,1610612757,1627737,1628372,1629604,1630535,203463,1610612744,1630541,201939,202357,203490,2738,0012100066,3,2157,2159,0,0,1610612757
162,1610612757,1628372,203463,1627737,1630535,1629604,1610612744,1629673,202357,1627814,203490,2738,0012100066,4,2160,2180,0,0,1610612744
163,1610612757,1628372,203463,1627737,1630535,1629604,1610612744,1629673,202357,1627814,203490,2738,0012100066,4,2194,2196,0,0,1610612757
164,1610612757,1628372,203463,1627737,1630535,1629604,1610612744,1629673,202357,1627814,203490,2738,0012100066,4,2206,2206,0,0,1610612744
165,1610612757,1628372,203463,1627737,1630535,1629604,1610612744,1629673,202357,1627814,203490,2738,0012100066,4,2216,2219,0,0,1610612757
166,1610612757,1628372,203463,1627737,1630535,1629604,1610612744,1629673,202357,1627814,203490,2738,0012100066,4,2230,2230,0,3,1610612744
167,1610612757,1628372,203463,1627737,1630535,1629604,1610612744,1629673,202357,1627814,203490,2738,0012100066,4,2236,2243,2,0,1610612757
168,1610612757,1628372,203463,1627737,1630535,1629604,1610612744,1629673,202357,1627814,203490,2738,0012100066,4,2256,2256,0,0,1610612744
169,1610612757,1628372,203463,1627737,1630535,1629604,1610612744,1629673,202357,1627814,203490,2738,0012100066,4,2263,2263,0,0,1610612757
170,1610612757,1628372,203463,1627737,1630535,1629604,1610612744,1629673,202357,1627814,203490,2738,0012100066,4,2279,2279,0,2,1610612744
171,1610612757,1628372,203463,1627737,1630535,1629604,1610612744,1629673,202357,1627814,203490,2738,0012100066,4,2298,2301,0,0,1610612757
172,1610612757,1628372,203463,1627737,1630535,1629604,1610612744,1629673,202357,1627814,203490,2738,0012100066,4,2307,2309,0,0,1610612744
173,1610612757,1628372,203463,1627737,1630535,1629604,1610612744,1629673,202357,1627814,203490,2738,0012100066,4,2315,2315,0,0,1610612757
174,1610612757,1628372,203463,1627737,1630535,1629604,1610612744,1629673,202357,1627814,203490,2738,0012100066,4,2325,2325,0,0,1610612744
175,1610612757,1628372,1629604,1630535,1630570,203463,1610612744,1629673,202357,1627814,203490,2738,0012100066,4,2343,2344,0,0,1610612757
176,1610612757,1628372,1629604,1630535,1630570,203463,1610612744,1629673,202357,1627814,203490,2738,0012100066,4,2353,2353,0,2,1610612744
177,1610612757,1628372,1629604,1630535,1630570,203463,1610612744,1629673,202357,1627814,203490,2738,0012100066,4,2353,2371,3,0,1610612757
178,1610612757,1628372,1629604,1630535,1630570,203463,1610612744,1629673,202357,1627814,203490,2738,0012100066,4,2383,2383,0,3,1610612744
179,1610612757,1628372,1629604,1630535,1630570,203463,1610612744,1629673,202357,1627814,203490,2738,0012100066,4,2385,2391,0,0,1610612757
180,1610612757,1628372,1629604,1630535,1630570,203463,1610612744,1629673,202357,1627814,203490,2738,0012100066,4,2402,2404,0,0,1610612744
181,1610612757,1628372,1629604,1630535,1630570,203463,1610612744,1629673,202357,1627814,203490,2738,0012100066,4,2417,2419,0,0,1610612757
182,1610612757,1628372,1629604,1630535,1630570,203463,1610612744,1629673,202357,1627814,203490,2738,0012100066,4,2441,2443,0,0,1610612744
183,1610612757,1628372,1629604,1630535,1630570,203463,1610612744,1629673,202357,1627814,203490,2738,0012100066,4,2455,2457,0,0,1610612757
184,1610612757,1628372,1629604,1630535,1630570,203463,1610612744,1629673,202357,1627814,203490,2738,0012100066,4,2468,2470,0,0,1610612744
185,1610612757,1628372,1629604,1630535,1630570,203463,1610612744,1629673,202357,1627814,203490,2738,0012100066,4,2475,2477,0,0,1610612757
186,1610612757,1628372,1629604,1630535,1630570,203463,1610612744,1629673,202357,1627814,203490,2738,0012100066,4,2480,2480,0,2,1610612744
187,1610612757,1628372,1629604,1630535,1630570,203463,1610612744,1629673,202357,1627814,203490,2738,0012100066,4,2492,2506,0,0,1610612757
188,1610612757,1628372,1629604,1630535,1630570,203463,1610612744,1627814,1628395,1629185,1629308,1630541,0012100066,4,2516,2516,0,0,1610612744
189,1610612757,1628372,1629604,1630535,1630570,203463,1610612744,1627814,1628395,1629185,1629308,1630541,0012100066,4,2521,2521,2,0,1610612757
190,1610612757,1628372,1629604,1630535,1630570,203463,1610612744,1627814,1628395,1629185,1629308,1630541,0012100066,4,2532,2535,0,0,1610612744
191,1610612757,1628372,1629604,1630535,1630570,203463,1610612744,1627814,1628395,1629185,1629308,1630541,0012100066,4,2542,2542,1,0,1610612757
192,1610612757,1628372,1629604,1630535,1630570,203463,1610612744,1627814,1628395,1629185,1629308,1630541,0012100066,4,2565,2570,0,0,1610612744
193,1610612757,1628372,1629604,1630535,1630570,203463,1610612744,1627814,1628395,1629185,1629308,1630541,0012100066,4,2583,2586,0,0,1610612757
194,1610612757,1628372,1629604,1630535,1630570,203463,1610612744,1627814,1628395,1629185,1629308,1630541,0012100066,4,2599,2599,0,2,1610612744
195,1610612757,1628372,1629604,1630535,1630570,203463,1610612744,1627814,1628395,1629185,1629308,1630541,0012100066,4,2613,2618,2,0,1610612757
196,1610612757,1628372,1629604,1630535,1630570,203463,1610612744,1627814,1628395,1629185,1629308,1630541,0012100066,4,2629,2630,0,0,1610612744
197,1610612757,1628372,1629604,1630535,1630570,203463,1610612744,1627814,1628395,1629185,1629308,1630541,0012100066,4,2643,2643,0,0,1610612757
198,1610612757,1628372,1629604,1630535,1630570,203463,1610612744,1627814,1628395,1629185,1629308,1630541,0012100066,4,2648,2651,0,2,1610612744
199,1610612757,1628372,1629604,1630535,1630570,203463,1610612744,1627814,1628395,1629185,1629308,1630541,0012100066,4,2667,2667,0,0,1610612757
200,1610612757,1628372,1629604,1630535,1630570,203463,1610612744,1627814,1628395,1629185,1629308,1630541,0012100066,4,2671,2674,0,2,1610612744
201,1610612757,1628372,1629604,1630535,1630570,203463,1610612744,1627814,1628395,1629185,1629308,1630541,0012100066,4,2695,2695,1,0,1610612757
202,1610612757,1628372,1629604,1630535,1630570,203463,1610612744,1628395,1629185,1629308,1630541,1630835,0012100066,4,2706,2718,0,0,1610612744
203,1610612757,1628372,1629604,1630535,1630570,203463,1610612744,1628395,1629185,1629308,1630541,1630835,0012100066,4,2724,2724,2,0,1610612757
204,1610612757,1628372,1629604,1630535,1630570,203463,1610612744,1628395,1629185,1629308,1630541,1630835,0012100066,4,2733,2733,0,0,1610612744
205,1610612757,1628372,1629604,1630535,1630570,203463,1610612744,1628395,1629185,1629308,1630541,1630835,0012100066,4,2738,2738,0,0,1610612757
206,1610612757,1628372,1629604,1630535,1630570,203463,1610612744,1628395,1629185,1629308,1630541,1630835,0012100066,4,2740,2740,0,0,1610612744
207,1610612757,1628372,1629604,1630535,1630570,203463,1610612744,1628395,1629185,1629308,1630541,1630835,0012100066,4,2753,2753,2,0,1610612757
208,1610612757,1628372,1629604,1630535,1630570,203463,1610612744,1628395,1629185,1629308,1630541,1630835,0012100066,4,2767,2770,0,0,1610612744
209,1610612757,1628372,1629604,1630535,1630570,203463,1610612744,1628395,1629185,1629308,1630541,1630835,0012100066,4,2774,2774,0,0,1610612757
210,1610612757,1628372,1629604,1630535,1630570,203463,1610612744,1628395,1629185,1629308,1630541,1630835,0012100066,4,2784,2784,0,0,1610612744
211,1610612757,1628372,1629604,1630535,1630570,203463,1610612744,1628395,1629185,1629308,1630541,1630835,0012100066,4,2788,2788,2,0,1610612757
212,1610612757,1628372,1629604,1630535,1630570,203463,1610612744,1628395,1629185,1629308,1630541,1630835,0012100066,4,2797,2797,0,0,1610612744
213,1610612757,1628372,1629604,1630535,1630570,203463,1610612744,1628395,1629185,1629308,1630541,1630835,0012100066,4,2819,2819,3,0,1610612757
214,1610612757,1628372,1629604,1630535,1630570,203463,1610612744,1628395,1629185,1629308,1630541,1630835,0012100066,4,2840,2840,0,3,1610612744
215,1610612757,1628372,1629604,1630535,1630570,203463,1610612744,1628395,1629185,1629308,1630541,1630835,0012100066,4,2853,2861,0,0,1610612757
