,TEAM_ID_1,TEAM_1_PLAYERS,TEAM_ID_2,TEAM_2_PLAYERS,PERIOD
0,1610612755,[ 202699  201143  203954 1629003 1627732],1610612738,[ 202330 1628369 1628464 1627759  203935],1
1,1610612755,[ 202699  203954 1627788 1629680  203526],1610612738,[ 202330 1628464 1627759 1628400  202954],2
2,1610612755,[ 202699  201143  203954 1629003 1627732],1610612738,[ 202330 1628369 1628464 1627759  203935],3
3,1610612755,[ 203954 1629003 1629680  203118  203526],1610612738,[ 202330 1628369 1628464 1628400  202954],4
