,t1_points_scored,t2_pm,stint_start,t1_id,t2_id,t1_pm,t1_players,t2_players,t2_points_scored,stint_end,margin_per_100,num_poss
0,12,1,0,1610612750,1610612746,-1,"[1630162, 1629020, 1629675, 1627736, 201976]","[1629611, 202694, 201586, 202339, 202704]",13,365,-4.3478260869565215,23.0
1,15,-2,366,1610612750,1610612746,2,"[1630162, 1629020, 1629675, 1627736, 201976]","[1629611, 202694, 201586, 202339, 202704]",13,427,7.142857142857142,28.0
2,19,-4,428,1610612750,1610612746,4,"[1627736, 1629020, 1629669, 1629675, 201976]","[1629611, 202694, 201586, 202339, 202704]",15,492,12.5,32.0
3,24,-9,493,1610612750,1610612746,9,"[1627736, 1629020, 1629669, 1629675, 1630183]","[1629611, 202694, 201586, 202339, 202704]",15,568,22.5,40.0
4,24,-7,569,1610612750,1610612746,7,"[1627736, 1629006, 1629669, 1629675, 1630183]","[1629117, 1629611, 1629875, 202694, 202704]",17,630,15.909090909090908,44.0
5,24,-5,631,1610612750,1610612746,5,"[1627752, 1629006, 1629669, 1629675, 1630183]","[1629117, 1629599, 1629875, 1630553, 202694]",19,650,10.869565217391305,46.0
6,24,-3,651,1610612750,1610612746,3,"[1627752, 1629006, 1629669, 1630183, 1630233]","[1629117, 1629599, 1629875, 1630553, 202694]",21,716,6.122448979591836,49.0
7,31,-5,717,1610612750,1610612746,5,"[1627752, 1629006, 1629669, 1630183, 1630233]","[1626159, 1629117, 1629599, 1629875, 1630553]",26,846,8.47457627118644,59.0
8,36,-8,847,1610612750,1610612746,8,"[1629669, 1630183, 1629006, 1627752, 1630233]","[1629117, 1629875, 1630553, 1629599, 1626159]",28,938,12.307692307692308,65.0
9,36,-8,939,1610612750,1610612746,8,"[1627752, 1629006, 1629669, 1630162, 1630233]","[1626159, 1629117, 1629599, 1630553, 202339]",28,954,12.121212121212121,66.0
10,36,-6,955,1610612750,1610612746,6,"[1627752, 1629669, 1630162, 1630183, 1630233]","[1626159, 1629117, 1629599, 1630553, 202339]",30,982,8.823529411764707,68.0
11,43,-13,983,1610612750,1610612746,13,"[1627752, 1629669, 1630162, 1630183, 1630233]","[1626159, 1629599, 1629611, 1630553, 202339]",30,1040,17.80821917808219,73.0
12,53,-19,1041,1610612750,1610612746,19,"[1627752, 1629020, 1629669, 1630162, 1630183]","[1629599, 1629611, 201586, 202339, 202704]",34,1210,22.89156626506024,83.0
13,64,-20,1211,1610612750,1610612746,20,"[1627752, 1629020, 1629669, 1630162, 1630183]","[1629611, 201586, 202339, 202694, 202704]",44,1437,20.618556701030926,97.0
14,69,-15,1438,1610612750,1610612746,15,"[1629020, 1629675, 1630162, 1630183, 201976]","[1629599, 1629611, 201586, 202694, 202704]",54,1683,13.392857142857142,112.0
15,75,-21,1684,1610612750,1610612746,21,"[1630162, 1629020, 1629675, 1627736, 201976]","[1629611, 202694, 201586, 202339, 202704]",54,1803,17.796610169491526,118.0
16,75,-21,1804,1610612750,1610612746,21,"[1630162, 1629020, 1629675, 1627736, 201976]","[1626159, 1629611, 1629875, 202339, 202694]",54,1843,17.355371900826448,121.0
17,78,-24,1844,1610612750,1610612746,24,"[1627736, 1629020, 1629669, 1629675, 1630162]","[1626159, 1629611, 1629875, 202339, 202694]",54,1861,19.51219512195122,123.0
18,78,-23,1862,1610612750,1610612746,23,"[1627736, 1629669, 1629675, 1630162, 1630183]","[1626159, 1629599, 1629611, 1629875, 202339]",55,1902,18.253968253968253,126.0
19,82,-19,1903,1610612750,1610612746,19,"[1627736, 1629669, 1629675, 1630162, 1630183]","[1626159, 1629599, 1629875, 1630553, 202339]",63,2092,13.571428571428571,140.0
20,85,-20,2093,1610612750,1610612746,20,"[1627736, 1627752, 1629669, 1629675, 1630183]","[1626159, 1629117, 1629599, 1629875, 1630553]",65,2158,13.698630136986301,146.0
21,90,-15,2159,1610612750,1610612746,15,"[1627752, 1629669, 1630162, 1630183, 1630233]","[1626159, 1629117, 1629599, 1629875, 1630553]",75,2320,9.615384615384617,156.0
22,93,-13,2321,1610612750,1610612746,13,"[1630162, 1629669, 1630183, 1627752, 1630233]","[1629875, 1630553, 1629599, 1626159, 203516]",80,2379,8.125,160.0
23,98,-16,2380,1610612750,1610612746,16,"[1627752, 1629020, 1629669, 1630162, 1630183]","[1629875, 1630553, 1629599, 1626159, 203516]",82,2432,9.75609756097561,164.0
24,114,-27,2433,1610612750,1610612746,27,"[1627752, 1629020, 1630162, 1630183, 201976]","[1629875, 1630553, 1629599, 1626159, 203516]",87,2644,15.254237288135593,177.0
25,122,-21,2645,1610612750,1610612746,21,"[1627752, 1629020, 1630162, 1630183, 201976]","[1626159, 1629599, 1629875, 1630206, 203516]",101,2859,10.824742268041238,194.0
26,122,-18,2860,1610612750,1610612746,18,"[1629006, 1629162, 1629669, 1630195, 1630233]","[1629117, 1629599, 1629875, 1630206, 203516]",104,9999999,9.183673469387756,196.0
