,TEAM_ID_1,TEAM_1_PLAYERS,TEAM_ID_2,TEAM_2_PLAYERS,PERIOD
0,1610612766,[ 202330 1628970 1630208 1626162  202397],1610612737,[1627789 1628381  203991 1628989 1629027],1
1,1610612766,[ 202330 1628970 1629023 1628998 1630547],1610612737,[1627789  203991 1626153  201568  101150],2
2,1610612766,[ 202330 1628970 1630208 1626162  202397],1610612737,[1627789 1628381  203991 1628989 1629027],3
3,1610612766,[ 202330 1626162 1629023 1628998 1630550],1610612737,[1627789  203991 1626153  201568  101150],4
