,t1_players,t1_id,t2_points_scored,t1_pm,t2_id,stint_end,t2_pm,t1_points_scored,stint_start,t2_players,margin_per_100,num_poss
0,"[1628370, 1626169, 2544, 202340, 201566]",1610612747,14,-2,1610612745,309,2,12,0,"[201569, 1628021, 1626174, 1629645, 1630224]",-9.523809523809524,21.0
1,"[1628370, 1626169, 2544, 202340, 201566]",1610612747,18,-1,1610612745,413,1,17,310,"[201569, 1628021, 1626174, 1629645, 1630224]",-3.7037037037037033,27.0
2,"[1626169, 1628370, 1629659, 202340, 2544]",1610612747,27,1,1610612745,593,-1,28,414,"[201569, 1628021, 1626174, 1629645, 1630224]",2.380952380952381,42.0
3,"[1628370, 1629659, 201954, 2544, 2546]",1610612747,27,3,1610612745,626,-3,30,594,"[1626174, 1628021, 1629645, 1629717, 1630528]",6.976744186046512,43.0
4,"[1626169, 1629659, 201566, 201954, 2546]",1610612747,35,-1,1610612745,718,1,34,627,"[1626174, 1629717, 1630224, 1630528, 201569]",-1.9230769230769231,52.0
5,"[1626169, 1629659, 201566, 201954, 2546]",1610612747,40,-3,1610612745,828,3,37,719,"[1629717, 1630224, 1630528, 1630578, 201569]",-4.838709677419355,62.0
6,"[1626169, 201566, 1629659, 201954, 2546]",1610612747,44,-2,1610612745,885,2,42,829,"[201569, 1630224, 1629717, 1630528, 1630578]",-3.0303030303030303,66.0
7,"[1626169, 1629659, 201566, 2544, 2546]",1610612747,44,0,1610612745,902,0,44,886,"[201569, 1630224, 1629717, 1630528, 1630578]",0.0,67.0
8,"[1626169, 1628370, 201566, 2544, 2546]",1610612747,47,3,1610612745,986,-3,50,903,"[1626174, 1629645, 1629717, 1630224, 201569]",4.054054054054054,74.0
9,"[1628370, 201566, 202340, 2544, 2546]",1610612747,50,3,1610612745,1055,-3,53,987,"[1626174, 1629645, 1629717, 1630224, 201569]",3.896103896103896,77.0
10,"[1626169, 1628370, 1629659, 202340, 2544]",1610612747,52,3,1610612745,1186,-3,55,1056,"[1626174, 1628021, 1629645, 1629717, 201569]",3.5294117647058822,85.0
11,"[1626169, 1628370, 1629659, 202340, 2544]",1610612747,56,4,1610612745,1303,-4,60,1187,"[1626174, 1628021, 1629645, 1629717, 1630528]",4.3478260869565215,92.0
12,"[1628370, 201566, 202340, 2544, 2546]",1610612747,58,9,1610612745,1383,-9,67,1304,"[1626174, 1628021, 1629645, 1630224, 1630528]",9.090909090909092,99.0
13,"[1628370, 201566, 202340, 2544, 2546]",1610612747,59,8,1610612745,1433,-8,67,1384,"[1626174, 1628021, 1629645, 1630224, 201569]",7.8431372549019605,102.0
14,"[1628370, 1629659, 201566, 2544, 2546]",1610612747,75,5,1610612745,1780,-5,80,1434,"[1626174, 1628021, 1629645, 1630224, 201569]",4.0,125.0
15,"[1628370, 1626169, 2544, 202340, 201566]",1610612747,81,3,1610612745,1881,-3,84,1781,"[201569, 1628021, 1626174, 1629645, 1630224]",2.2900763358778624,131.0
16,"[1626169, 1628370, 1629659, 202340, 2544]",1610612747,85,-1,1610612745,1956,1,84,1882,"[1626174, 1628021, 1629645, 1629717, 1630528]",-0.7352941176470588,136.0
17,"[1626169, 1629659, 201954, 202340, 2546]",1610612747,85,1,1610612745,1990,-1,86,1957,"[1626174, 1628021, 1629645, 1629717, 1630528]",0.7194244604316548,139.0
18,"[1626169, 1629659, 201566, 201954, 2546]",1610612747,89,1,1610612745,2082,-1,90,1991,"[1628021, 1629645, 1629717, 1630528, 1630578]",0.684931506849315,146.0
19,"[1626169, 1629659, 201566, 201954, 2546]",1610612747,92,2,1610612745,2159,-2,94,2083,"[1629717, 1630224, 1630528, 1630578, 201569]",1.3157894736842104,152.0
20,"[1626169, 1628370, 201566, 201954, 2546]",1610612747,102,3,1610612745,2334,-3,105,2160,"[1629717, 1630224, 1630528, 1630578, 201569]",1.8181818181818181,165.0
21,"[1628370, 2544, 201566, 201954, 2546]",1610612747,104,7,1610612745,2435,-7,111,2335,"[201569, 1630224, 1629717, 1630528, 1630578]",4.117647058823529,170.0
22,"[1626169, 1628370, 1629659, 2544, 2546]",1610612747,107,4,1610612745,2483,-4,111,2436,"[201569, 1630224, 1629717, 1630528, 1630578]",2.2988505747126435,174.0
23,"[1626169, 1628370, 1629659, 202340, 2544]",1610612747,111,2,1610612745,2545,-2,113,2484,"[1628021, 1629717, 1630224, 1630528, 1630578]",1.1299435028248588,177.0
24,"[1626169, 1628370, 201566, 202340, 2544]",1610612747,113,2,1610612745,2615,-2,115,2546,"[1628021, 1629645, 1630224, 1630528, 1630578]",1.1049723756906076,181.0
25,"[1628370, 201566, 202340, 2544, 2546]",1610612747,116,1,1610612745,2688,-1,117,2616,"[1628021, 1629645, 1630224, 1630528, 1630578]",0.5405405405405406,185.0
26,"[1628370, 201566, 202340, 2544, 2546]",1610612747,116,4,1610612745,2777,-4,120,2689,"[1626174, 1628021, 1629645, 1630224, 1630528]",2.127659574468085,188.0
27,"[1628370, 201566, 202340, 2544, 2546]",1610612747,116,6,1610612745,2787,-6,122,2778,"[1626174, 1628021, 1629645, 1630224, 201569]",3.1746031746031744,189.0
28,"[1626169, 1628370, 201566, 202340, 2544]",1610612747,119,5,1610612745,2827,-5,124,2788,"[1626174, 1628021, 1629645, 1630224, 201569]",2.604166666666667,192.0
29,"[1628370, 201566, 202340, 2544, 2546]",1610612747,123,9,1610612745,2860,-9,132,2828,"[1626174, 1628021, 1629645, 1630224, 201569]",4.522613065326634,199.0
30,"[1626169, 1628370, 201566, 202340, 2544]",1610612747,123,9,1610612745,9999999,-9,132,2861,"[1626174, 1629645, 1629717, 1630224, 201569]",4.5,200.0
