,team1_id,team1_player1,team1_player2,team1_player3,team1_player4,team1_player5,team2_id,team2_player1,team2_player2,team2_player3,team2_player4,team2_player5,game_id,period,possession_start,possession_end,team1_points,team2_points,possession_team
0,1610612756,1628969,1628470,1629028,1626164,101108,1610612747,202083,203076,203083,203484,1627936,0022001024,1,0,22,0,3,1610612747
1,1610612756,1628969,1628470,1629028,1626164,101108,1610612747,202083,203076,203083,203484,1627936,0022001024,1,41,41,0,0,1610612756
2,1610612756,1628969,1628470,1629028,1626164,101108,1610612747,202083,203076,203083,203484,1627936,0022001024,1,49,49,0,2,1610612747
3,1610612756,1628969,1628470,1629028,1626164,101108,1610612747,202083,203076,203083,203484,1627936,0022001024,1,64,66,0,0,1610612756
4,1610612756,1628969,1628470,1629028,1626164,101108,1610612747,202083,203076,203083,203484,1627936,0022001024,1,77,77,0,0,1610612747
5,1610612756,1628969,1628470,1629028,1626164,101108,1610612747,202083,203076,203083,203484,1627936,0022001024,1,91,93,0,0,1610612756
6,1610612756,1628969,1628470,1629028,1626164,101108,1610612747,202083,203076,203083,203484,1627936,0022001024,1,107,118,0,2,1610612747
7,1610612756,1628969,1628470,1629028,1626164,101108,1610612747,202083,203076,203083,203484,1627936,0022001024,1,130,130,1,0,1610612756
8,1610612756,1628969,1628470,1629028,1626164,101108,1610612747,202083,203076,203083,203484,1627936,0022001024,1,151,153,0,0,1610612747
9,1610612756,1628969,1628470,1629028,1626164,101108,1610612747,202083,203076,203083,203484,1627936,0022001024,1,158,164,3,0,1610612756
10,1610612756,1628969,1628470,1629028,1626164,101108,1610612747,202083,203076,203083,203484,1627936,0022001024,1,175,175,0,2,1610612747
11,1610612756,1628969,1628470,1629028,1626164,101108,1610612747,202083,203076,203083,203484,1627936,0022001024,1,199,199,0,0,1610612756
12,1610612756,1628969,1628470,1629028,1626164,101108,1610612747,202083,203076,203083,203484,1627936,0022001024,1,211,218,0,2,1610612747
13,1610612756,1628969,1628470,1629028,1626164,101108,1610612747,202083,203076,203083,203484,1627936,0022001024,1,229,229,0,0,1610612756
14,1610612756,1628969,1628470,1629028,1626164,101108,1610612747,202083,203076,203083,203484,1627936,0022001024,1,234,239,0,0,1610612747
15,1610612756,1628969,1628470,1629028,1626164,101108,1610612747,202083,203076,203083,203484,1627936,0022001024,1,258,259,0,0,1610612756
16,1610612756,1628969,1628470,1629028,1626164,101108,1610612747,202083,203076,203083,203484,1627936,0022001024,1,259,275,0,2,1610612747
17,1610612756,101108,1626163,1626164,1628470,1628969,1610612747,202083,203076,203083,203484,1627936,0022001024,1,276,290,0,0,1610612756
18,1610612756,101108,1626163,1626164,1628470,1628969,1610612747,1627936,201188,202083,203076,203484,0022001024,1,301,301,0,2,1610612747
19,1610612756,101108,1626163,1626164,1628470,1628969,1610612747,1627936,201188,202083,203076,203484,0022001024,1,314,314,2,0,1610612756
20,1610612756,101108,1626163,1626164,1628470,1628969,1610612747,1627936,201188,202083,203076,203484,0022001024,1,334,334,0,3,1610612747
21,1610612756,101108,1626163,1626164,1628470,1628969,1610612747,1627936,201188,202083,203076,203484,0022001024,1,349,351,0,0,1610612756
22,1610612756,101108,1626163,1626164,1628470,1628969,1610612747,1627936,201188,202083,203076,203484,0022001024,1,355,357,0,0,1610612747
23,1610612756,101108,1626163,1626164,1628470,1628969,1610612747,1627936,201188,202083,203076,203484,0022001024,1,363,367,0,0,1610612756
24,1610612756,101108,1626163,1626164,1628470,1628969,1610612747,1627936,201188,202083,203076,203484,0022001024,1,379,379,0,2,1610612747
25,1610612756,101108,1626163,1626164,1628470,1628969,1610612747,1627936,201188,202083,203076,203484,0022001024,1,391,402,0,0,1610612756
26,1610612756,1626163,1626164,1626166,1628969,203109,1610612747,1626149,1627936,201188,202083,203484,0022001024,1,410,415,0,2,1610612747
27,1610612756,1626163,1626164,1626166,1628969,203109,1610612747,1626149,1629659,201188,202083,203484,0022001024,1,428,428,3,0,1610612756
28,1610612756,1626163,1626164,1626166,1628969,203109,1610612747,1626149,1629659,201188,202083,203484,0022001024,1,440,442,0,0,1610612747
29,1610612756,1626163,1626164,1626166,1628969,203109,1610612747,1626149,1629659,201188,202083,203484,0022001024,1,458,460,0,0,1610612756
30,1610612756,1626163,1626164,1626166,1628969,203109,1610612747,1626149,1629659,201188,202083,203484,0022001024,1,464,466,0,0,1610612747
31,1610612756,1626163,1626164,1626166,1628969,203109,1610612747,1626149,1629659,201188,202083,203484,0022001024,1,470,473,0,0,1610612756
32,1610612756,1626163,1626164,1626166,1628969,203109,1610612747,1626149,1629659,201188,202083,203484,0022001024,1,484,484,0,0,1610612747
33,1610612756,1626163,1626164,1626166,1628969,203109,1610612747,1626149,1629659,201188,203463,203484,0022001024,1,507,507,2,0,1610612756
34,1610612756,1626163,1626164,1626166,1628969,203109,1610612747,1626149,1629659,201188,203463,203484,0022001024,1,524,524,0,3,1610612747
35,1610612756,1626163,1626164,1626166,1628969,203109,1610612747,1626149,1629659,201188,203463,203484,0022001024,1,539,539,2,0,1610612756
36,1610612756,1626163,1626164,1626166,1628969,203109,1610612747,1626149,1629659,201188,203463,203484,0022001024,1,549,551,0,1,1610612747
37,1610612756,1626163,1626164,1626166,1628470,203109,1610612747,1626149,1629659,203076,203463,203484,0022001024,1,562,562,0,0,1610612756
38,1610612756,1626163,1626164,1626166,1628470,203109,1610612747,1626149,1629659,203076,203463,203484,0022001024,1,563,563,0,0,1610612747
39,1610612756,1626163,1626164,1626166,1628470,203109,1610612747,1626149,1629659,203076,203463,203484,0022001024,1,577,577,2,0,1610612756
40,1610612756,1626163,1626164,1626166,1628470,203109,1610612747,1626149,1629659,203076,203463,203484,0022001024,1,593,593,0,2,1610612747
41,1610612756,1626163,1626164,1626166,1628470,203109,1610612747,1626149,1629659,203076,203463,203484,0022001024,1,607,610,0,0,1610612756
42,1610612756,1626163,1626164,1626166,1628470,203109,1610612747,1626149,1629659,203076,203463,203484,0022001024,1,614,618,0,0,1610612747
43,1610612756,1626163,1626164,1626166,1628470,203109,1610612747,1626149,1629659,203076,203463,203484,0022001024,1,624,627,0,0,1610612756
44,1610612756,101108,1626163,1626164,1628470,203109,1610612747,1626149,1627936,203076,203463,203484,0022001024,1,631,631,0,0,1610612747
45,1610612756,101108,1626163,1626164,1628470,203109,1610612747,1626149,1627936,203076,203463,203484,0022001024,1,643,643,0,0,1610612756
46,1610612756,101108,1626163,1626164,1628470,203109,1610612747,1626149,1627936,203076,203463,203484,0022001024,1,658,658,0,2,1610612747
47,1610612756,101108,1626163,1626164,1628470,203109,1610612747,1626149,1627936,203076,203463,203484,0022001024,1,675,679,2,0,1610612756
48,1610612756,101108,1626163,1626164,1628470,203109,1610612747,1626149,1627936,203076,203463,203484,0022001024,1,694,696,0,0,1610612747
49,1610612756,101108,1626163,1626164,1628470,203109,1610612747,1626149,1627936,203076,203463,203484,0022001024,1,699,720,2,0,1610612756
50,1610612756,101108,1626163,1626164,1628969,203109,1610612747,1626149,1627936,203076,203463,203484,0022001024,1,720,720,0,0,179
51,1610612756,1628969,1629028,101108,1626163,203109,1610612747,203076,203083,1627936,1629659,203463,0022001024,2,720,736,2,0,1610612756
52,1610612756,1628969,1629028,101108,1626163,203109,1610612747,203076,203083,1627936,1629659,203463,0022001024,2,747,768,0,0,1610612747
53,1610612756,1628969,1629028,101108,1626163,203109,1610612747,203076,203083,1627936,1629659,203463,0022001024,2,776,778,0,0,1610612756
54,1610612756,1628969,1629028,101108,1626163,203109,1610612747,203076,203083,1627936,1629659,203463,0022001024,2,782,785,0,0,1610612747
55,1610612756,1628969,1629028,101108,1626163,203109,1610612747,203076,203083,1627936,1629659,203463,0022001024,2,791,791,0,0,1610612756
56,1610612756,1628969,1629028,101108,1626163,203109,1610612747,203076,203083,1627936,1629659,203463,0022001024,2,809,815,0,1,1610612747
57,1610612756,1628969,1629028,101108,1626163,203109,1610612747,203076,203083,1627936,1629659,203463,0022001024,2,819,822,0,0,1610612756
58,1610612756,1628969,1629028,101108,1626163,203109,1610612747,203076,203083,1627936,1629659,203463,0022001024,2,830,830,0,2,1610612747
59,1610612756,1628969,1629028,101108,1626163,203109,1610612747,203076,203083,1627936,1629659,203463,0022001024,2,843,859,3,0,1610612756
60,1610612756,101108,1628969,1628975,1629028,203967,1610612747,203076,203083,1627936,1629659,203463,0022001024,2,865,865,0,3,1610612747
61,1610612756,101108,1628969,1628975,1629028,203967,1610612747,203076,203083,1627936,1629659,203463,0022001024,2,874,874,0,0,1610612756
62,1610612756,101108,1628969,1628975,1629028,203967,1610612747,203076,203083,1627936,1629659,203463,0022001024,2,886,886,0,0,1610612747
63,1610612756,101108,1628969,1628975,1629028,203967,1610612747,203076,203083,1627936,1629659,203463,0022001024,2,890,890,2,0,1610612756
64,1610612756,101108,1628969,1628975,1629028,203967,1610612747,203076,203083,1627936,1629659,203463,0022001024,2,911,931,0,3,1610612747
65,1610612756,101108,1628969,1628975,1629028,203967,1610612747,203076,203083,1627936,1629659,203463,0022001024,2,943,945,0,0,1610612756
66,1610612756,101108,1628969,1628975,1629028,203967,1610612747,203076,203083,1627936,1629659,203463,0022001024,2,946,968,0,2,1610612747
67,1610612756,101108,1628969,1628975,1629028,203967,1610612747,1627936,202083,203076,203083,203463,0022001024,2,968,991,2,0,1610612756
68,1610612756,101108,1628969,1628975,1629028,203967,1610612747,1627936,202083,203076,203083,203463,0022001024,2,1004,1006,0,1,1610612747
69,1610612756,101108,1628969,1628975,1629028,203967,1610612747,1627936,202083,203076,203083,203463,0022001024,2,1017,1017,3,0,1610612756
70,1610612756,101108,1628969,1628975,1629028,203967,1610612747,1627936,201188,202083,203076,203463,0022001024,2,1030,1032,0,0,1610612747
71,1610612756,101108,1628969,1628975,1629028,203967,1610612747,1627936,201188,202083,203076,203463,0022001024,2,1049,1049,2,0,1610612756
72,1610612756,101108,1628969,1628975,1629028,203967,1610612747,1627936,201188,202083,203076,203463,0022001024,2,1070,1070,0,2,1610612747
73,1610612756,101108,1628969,1628975,1629028,203967,1610612747,1627936,201188,202083,203076,203463,0022001024,2,1081,1084,0,0,1610612756
74,1610612756,101108,1628969,1628975,1629028,203967,1610612747,1627936,201188,202083,203076,203463,0022001024,2,1100,1104,0,0,1610612747
75,1610612756,101108,1628969,1628975,1629028,203967,1610612747,1627936,201188,202083,203076,203463,0022001024,2,1119,1119,2,1,1610612756
76,1610612756,1626164,1626166,1628969,1629028,203967,1610612747,1629659,201188,202083,203076,203484,0022001024,2,1128,1128,0,1,1610612747
77,1610612756,1626164,1626166,1628969,1629028,203967,1610612747,1629659,201188,202083,203076,203484,0022001024,2,1145,1151,0,0,1610612756
78,1610612756,1626164,1626166,1628969,1629028,203967,1610612747,1629659,201188,202083,203076,203484,0022001024,2,1158,1161,0,0,1610612747
79,1610612756,1626164,1626166,1628969,1629028,203967,1610612747,1629659,201188,202083,203076,203484,0022001024,2,1180,1181,0,0,1610612756
80,1610612756,1626164,1626166,1628969,1629028,203967,1610612747,1629659,201188,202083,203076,203484,0022001024,2,1189,1189,0,2,1610612747
81,1610612756,1626163,1626164,1626166,1629028,203109,1610612747,1629659,201188,202083,203076,203484,0022001024,2,1197,1200,0,0,1610612756
82,1610612756,1626163,1626164,1626166,1629028,203109,1610612747,1629659,201188,202083,203076,203484,0022001024,2,1214,1214,0,2,1610612747
83,1610612756,1626163,1626164,1626166,1629028,203109,1610612747,1629659,201188,202083,203076,203484,0022001024,2,1234,1234,2,0,1610612756
84,1610612756,1626163,1626164,1626166,1629028,203109,1610612747,1629659,201188,202083,203076,203484,0022001024,2,1256,1256,0,3,1610612747
85,1610612756,1626163,1626164,1626166,1629028,203109,1610612747,1629659,201188,202083,203076,203484,0022001024,2,1272,1278,2,0,1610612756
86,1610612756,1626163,1626164,1626166,1629028,203109,1610612747,1629659,201188,202083,203076,203484,0022001024,2,1302,1302,0,2,1610612747
87,1610612756,1626163,1626164,1626166,1629028,203109,1610612747,1629659,201188,202083,203076,203484,0022001024,2,1315,1327,0,0,1610612756
88,1610612756,1626163,1626164,1626166,1629028,203109,1610612747,1629659,201188,202083,203076,203484,0022001024,2,1339,1343,0,0,1610612747
89,1610612756,1626163,1626164,1626166,1629028,203109,1610612747,1629659,201188,202083,203076,203484,0022001024,2,1349,1349,0,0,1610612756
90,1610612756,1626163,1626164,1626166,1629028,203109,1610612747,1629659,201188,202083,203076,203484,0022001024,2,1349,1349,0,2,1610612747
91,1610612756,101108,1626163,1626164,1629028,203109,1610612747,1626149,1627936,1629659,201188,203484,0022001024,2,1361,1361,2,0,1610612756
92,1610612756,101108,1626163,1626164,1629028,203109,1610612747,1626149,1627936,1629659,201188,203484,0022001024,2,1381,1382,0,0,1610612747
93,1610612756,101108,1626163,1626164,1629028,203109,1610612747,1626149,1627936,1629659,201188,203484,0022001024,2,1382,1382,2,0,1610612756
94,1610612756,101108,1626163,1626164,1629028,203109,1610612747,1626149,1627936,1629659,203076,203484,0022001024,2,1396,1396,0,2,1610612747
95,1610612756,101108,1626164,1628969,1629028,203109,1610612747,1626149,1627936,1629659,203076,203484,0022001024,2,1407,1407,2,0,1610612756
96,1610612756,101108,1626164,1628969,1629028,203109,1610612747,1626149,1627936,1629659,203076,203484,0022001024,2,1429,1434,0,0,1610612747
97,1610612756,101108,1626164,1628969,1629028,203109,1610612747,1626149,1627936,1629659,203076,203484,0022001024,2,1437,1437,2,0,1610612756
98,1610612756,101108,1626164,1628969,1629028,203109,1610612747,1626149,1627936,1629659,203076,203484,0022001024,2,1437,1440,0,0,1610612756
99,1610612756,1628969,1629028,1626164,101108,203967,1610612747,202083,203076,203083,203484,1627936,0022001024,3,1440,1461,0,0,1610612756
100,1610612756,1628969,1629028,1626164,101108,203967,1610612747,202083,203076,203083,203484,1627936,0022001024,3,1477,1479,0,0,1610612747
101,1610612756,1628969,1629028,1626164,101108,203967,1610612747,202083,203076,203083,203484,1627936,0022001024,3,1489,1489,0,0,1610612756
102,1610612756,1628969,1629028,1626164,101108,203967,1610612747,202083,203076,203083,203484,1627936,0022001024,3,1508,1508,0,3,1610612747
103,1610612756,1628969,1629028,1626164,101108,203967,1610612747,202083,203076,203083,203484,1627936,0022001024,3,1521,1521,3,0,1610612756
104,1610612756,1628969,1629028,1626164,101108,203967,1610612747,202083,203076,203083,203484,1627936,0022001024,3,1536,1540,0,2,1610612747
105,1610612756,1628969,1629028,1626164,101108,203967,1610612747,202083,203076,203083,203484,1627936,0022001024,3,1551,1554,0,0,1610612756
106,1610612756,1628969,1629028,1626164,101108,203967,1610612747,202083,203076,203083,203484,1627936,0022001024,3,1562,1562,0,3,1610612747
107,1610612756,1628969,1629028,1626164,101108,203967,1610612747,202083,203076,203083,203484,1627936,0022001024,3,1581,1581,2,0,1610612756
108,1610612756,1628969,1629028,1626164,101108,203967,1610612747,202083,203076,203083,203484,1627936,0022001024,3,1584,1593,0,0,1610612747
109,1610612756,1628969,1629028,1626164,101108,203967,1610612747,202083,203076,203083,203484,1627936,0022001024,3,1602,1602,2,0,1610612756
110,1610612756,1628969,1629028,1626164,101108,203967,1610612747,202083,203076,203083,203484,1627936,0022001024,3,1611,1611,0,2,1610612747
111,1610612756,1628969,1629028,1626164,101108,203967,1610612747,202083,203076,203083,203484,1627936,0022001024,3,1625,1625,0,0,1610612756
112,1610612756,1628969,1629028,1626164,101108,203967,1610612747,202083,203076,203083,203484,1627936,0022001024,3,1630,1633,0,0,1610612747
113,1610612756,1628969,1629028,1626164,101108,203967,1610612747,202083,203076,203083,203484,1627936,0022001024,3,1644,1645,0,0,1610612756
114,1610612756,1628969,1629028,1626164,101108,203967,1610612747,202083,203076,203083,203484,1627936,0022001024,3,1668,1668,0,3,1610612747
115,1610612756,1628969,1629028,1626164,101108,203967,1610612747,202083,203076,203083,203484,1627936,0022001024,3,1691,1706,3,0,1610612756
116,1610612756,1628969,1629028,1626164,101108,203967,1610612747,1629659,202083,203076,203083,203484,0022001024,3,1715,1726,0,3,1610612747
117,1610612756,1628969,1629028,1626164,101108,203967,1610612747,1629659,202083,203076,203083,203484,0022001024,3,1748,1748,2,0,1610612756
118,1610612756,1628969,1629028,1626164,101108,203967,1610612747,1629659,202083,203076,203083,203484,0022001024,3,1772,1772,0,0,1610612747
119,1610612756,1628969,1629028,1626164,101108,203967,1610612747,1629659,202083,203076,203083,203484,0022001024,3,1778,1781,0,0,1610612756
120,1610612756,1628969,1629028,1626164,101108,203967,1610612747,1629659,202083,203076,203083,203484,0022001024,3,1786,1786,0,0,1610612747
121,1610612756,1628969,1629028,1626164,101108,203967,1610612747,1629659,202083,203076,203083,203484,0022001024,3,1790,1790,0,0,1610612756
122,1610612756,1628969,1629028,1626164,101108,203967,1610612747,1629659,202083,203076,203083,203484,0022001024,3,1790,1808,0,0,1610612747
123,1610612756,1626163,1626164,1626166,1628969,1629028,1610612747,1629659,202083,203076,203083,203484,0022001024,3,1816,1816,1,0,1610612756
124,1610612756,1626163,1626164,1626166,1628969,1629028,1610612747,1629659,202083,203076,203083,203484,0022001024,3,1835,1837,0,0,1610612747
125,1610612756,1626163,1626164,1626166,1628969,1629028,1610612747,1629659,203076,203083,203463,203484,0022001024,3,1849,1854,2,0,1610612756
126,1610612756,1626163,1626164,1626166,1628969,1629028,1610612747,1629659,203076,203083,203463,203484,0022001024,3,1866,1866,0,3,1610612747
127,1610612756,1626163,1626164,1626166,1628969,1629028,1610612747,1629659,203076,203083,203463,203484,0022001024,3,1880,1880,3,0,1610612756
128,1610612756,1626163,1626164,1626166,1628969,1629028,1610612747,1629659,203076,203083,203463,203484,0022001024,3,1898,1900,0,0,1610612747
129,1610612756,1626163,1626164,1626166,1628969,1629028,1610612747,1629659,203076,203083,203463,203484,0022001024,3,1906,1906,2,0,1610612756
130,1610612756,1626163,1626164,1626166,1628969,1629028,1610612747,1629659,203076,203083,203463,203484,0022001024,3,1926,1939,0,3,1610612747
131,1610612756,1626163,1626164,1626166,1629028,203109,1610612747,1629659,201188,203076,203463,203484,0022001024,3,1954,1954,0,0,1610612756
132,1610612756,1626163,1626164,1626166,1629028,203109,1610612747,1629659,201188,203076,203463,203484,0022001024,3,1957,1957,0,2,1610612747
133,1610612756,1626163,1626164,1626166,1629028,203109,1610612747,1629659,201188,203076,203463,203484,0022001024,3,1967,1967,1,0,1610612756
134,1610612756,1626163,1626164,1626166,1629028,203109,1610612747,1629659,201188,203076,203463,203484,0022001024,3,1976,1976,0,2,1610612747
135,1610612756,1626163,1626164,1626166,1629028,203109,1610612747,1629659,201188,203076,203463,203484,0022001024,3,1991,1991,2,0,1610612756
136,1610612756,1626163,1626164,1626166,1629028,203109,1610612747,1629659,201188,203076,203463,203484,0022001024,3,2006,2006,0,2,1610612747
137,1610612756,1626163,1626164,1626166,1629028,203109,1610612747,1629659,201188,203076,203463,203484,0022001024,3,2026,2026,2,0,1610612756
138,1610612756,1626163,1626164,1626166,1629028,203109,1610612747,1629659,201188,203076,203463,203484,0022001024,3,2044,2044,0,2,1610612747
139,1610612756,1626163,1626164,1626166,1629028,203109,1610612747,1629659,201188,203076,203463,203484,0022001024,3,2060,2060,3,0,1610612756
140,1610612756,1626163,1626164,1626166,1629028,203109,1610612747,1629659,201188,203076,203463,203484,0022001024,3,2070,2070,0,1,1610612747
141,1610612756,1626163,1626164,1626166,203109,203967,1610612747,1629659,201188,203076,203463,203484,0022001024,3,2077,2077,2,0,1610612756
142,1610612756,1626163,1626164,1626166,203109,203967,1610612747,1626149,1629659,203076,203463,203484,0022001024,3,2091,2091,0,3,1610612747
143,1610612756,1626163,1626164,1626166,203109,203967,1610612747,1626149,1629659,203076,203463,203484,0022001024,3,2105,2107,0,0,1610612756
144,1610612756,1626163,1626164,1626166,203109,203967,1610612747,1626149,1629659,203076,203463,203484,0022001024,3,2117,2117,0,2,1610612747
145,1610612756,1626163,1626164,1626166,203109,203967,1610612747,1626149,1629659,203076,203463,203484,0022001024,3,2138,2141,0,0,1610612756
146,1610612756,1626163,1626164,1626166,203109,203967,1610612747,1626149,1629659,203076,203463,203484,0022001024,3,2158,2158,0,3,1610612747
147,1610612756,1628969,101108,1626163,1626166,203109,1610612747,202083,201188,1626149,1629659,203463,0022001024,4,2160,2174,0,2,1610612747
148,1610612756,1628969,101108,1626163,1626166,203109,1610612747,202083,201188,1626149,1629659,203463,0022001024,4,2185,2185,3,0,1610612756
149,1610612756,1628969,101108,1626163,1626166,203109,1610612747,202083,201188,1626149,1629659,203463,0022001024,4,2211,2214,0,0,1610612747
150,1610612756,1628969,101108,1626163,1626166,203109,1610612747,202083,201188,1626149,1629659,203463,0022001024,4,2218,2218,3,0,1610612756
151,1610612756,1628969,101108,1626163,1626166,203109,1610612747,202083,201188,1626149,1629659,203463,0022001024,4,2218,2229,0,2,1610612747
152,1610612756,1628969,101108,1626163,1626166,203109,1610612747,1626149,1627936,1628035,202083,203463,0022001024,4,2247,2249,0,0,1610612756
153,1610612756,1628969,101108,1626163,1626166,203109,1610612747,1626149,1627936,1628035,202083,203463,0022001024,4,2264,2277,0,2,1610612747
154,1610612756,1628969,101108,1626163,1626166,203109,1610612747,1626149,1627936,1628035,202083,203463,0022001024,4,2290,2290,2,0,1610612756
155,1610612756,1628969,101108,1626163,1626166,203109,1610612747,1626149,1627936,1628035,202083,203463,0022001024,4,2300,2300,0,2,1610612747
156,1610612756,1628969,101108,1626163,1626166,203109,1610612747,1626149,1627936,1628035,202083,203463,0022001024,4,2327,2327,3,0,1610612756
157,1610612756,1628969,101108,1626163,1626166,203109,1610612747,1626149,1627936,1628035,202083,203463,0022001024,4,2339,2339,0,2,1610612747
158,1610612756,1628969,101108,1626163,1626166,203109,1610612747,1626149,1627936,1628035,202083,203463,0022001024,4,2352,2352,2,0,1610612756
159,1610612756,1628969,101108,1626163,1626166,203109,1610612747,1626149,1627936,1628035,202083,203463,0022001024,4,2371,2374,0,0,1610612747
160,1610612756,1628969,101108,1626163,1626166,203109,1610612747,1626149,1627936,1628035,202083,203463,0022001024,4,2380,2380,2,0,1610612756
161,1610612756,1628969,101108,1626163,1626166,203109,1610612747,1626149,1627936,1628035,202083,203463,0022001024,4,2395,2397,0,0,1610612747
162,1610612756,1628969,101108,1626163,1626166,203109,1610612747,1626149,1627936,1628035,202083,203463,0022001024,4,2401,2401,3,0,1610612756
163,1610612756,1628969,101108,1626163,1626166,203109,1610612747,1626149,1627936,1628035,202083,203463,0022001024,4,2403,2429,0,2,1610612747
164,1610612756,1628969,101108,1626163,1626166,203109,1610612747,1626149,1627936,202083,203076,203463,0022001024,4,2455,2455,2,0,1610612756
165,1610612756,1628969,101108,1626163,1626166,203109,1610612747,1626149,1627936,202083,203076,203463,0022001024,4,2470,2475,0,0,1610612747
166,1610612756,1628969,101108,1626163,1626166,203109,1610612747,1626149,1627936,202083,203076,203463,0022001024,4,2481,2481,0,0,1610612756
167,1610612756,1628969,101108,1626163,1626166,203109,1610612747,1626149,1627936,202083,203076,203463,0022001024,4,2501,2504,0,0,1610612747
168,1610612756,1628969,101108,1626163,1626166,203109,1610612747,1626149,1627936,202083,203076,203463,0022001024,4,2513,2513,3,0,1610612756
169,1610612756,1628969,101108,1626163,1626166,203109,1610612747,1626149,1627936,202083,203076,203463,0022001024,4,2534,2534,0,3,1610612747
170,1610612756,101108,1626164,1628969,1629028,203109,1610612747,1627936,202083,203076,203083,203484,0022001024,4,2556,2556,2,0,1610612756
171,1610612756,101108,1626164,1628969,1629028,203109,1610612747,1627936,202083,203076,203083,203484,0022001024,4,2569,2569,0,2,1610612747
172,1610612756,101108,1626164,1628969,1629028,203109,1610612747,1627936,202083,203076,203083,203484,0022001024,4,2581,2581,2,0,1610612756
173,1610612756,101108,1626164,1628969,1629028,203109,1610612747,1627936,202083,203076,203083,203484,0022001024,4,2595,2607,0,0,1610612747
174,1610612756,101108,1626164,1628969,1629028,203109,1610612747,1627936,202083,203076,203083,203484,0022001024,4,2608,2608,2,0,1610612756
175,1610612756,101108,1626164,1628969,1629028,203109,1610612747,1627936,202083,203076,203083,203484,0022001024,4,2629,2632,0,0,1610612747
176,1610612756,101108,1626164,1628969,1629028,203109,1610612747,1627936,202083,203076,203083,203484,0022001024,4,2643,2643,2,0,1610612756
177,1610612756,101108,1626164,1628969,1629028,203109,1610612747,1627936,202083,203076,203083,203484,0022001024,4,2654,2665,0,1,1610612747
178,1610612756,101108,1626164,1628969,1629028,203109,1610612747,1627936,201188,202083,203076,203484,0022001024,4,2670,2672,0,0,1610612756
179,1610612756,101108,1626164,1628969,1629028,203109,1610612747,1627936,201188,202083,203076,203484,0022001024,4,2695,2698,0,0,1610612747
180,1610612756,101108,1626164,1628969,1629028,203109,1610612747,1627936,201188,202083,203076,203484,0022001024,4,2698,2722,0,0,1610612756
181,1610612756,101108,1626164,1628969,1629028,203109,1610612747,1627936,201188,202083,203076,203484,0022001024,4,2738,2740,0,0,1610612747
182,1610612756,101108,1626164,1628969,1629028,203109,1610612747,1627936,201188,202083,203076,203484,0022001024,4,2746,2746,0,0,1610612756
183,1610612756,101108,1626164,1628969,1629028,203109,1610612747,1627936,201188,202083,203076,203484,0022001024,4,2747,2747,0,2,1610612747
184,1610612756,101108,1626164,1628969,1629028,203109,1610612747,1627936,201188,202083,203076,203484,0022001024,4,2759,2759,2,0,1610612756
185,1610612756,101108,1626164,1628969,1629028,203109,1610612747,1627936,201188,202083,203076,203484,0022001024,4,2772,2772,0,0,1610612747
186,1610612756,101108,1626164,1628969,1629028,203109,1610612747,1627936,201188,202083,203076,203484,0022001024,4,2779,2781,0,0,1610612756
187,1610612756,101108,1626164,1628969,1629028,203109,1610612747,1627936,201188,202083,203076,203484,0022001024,4,2792,2804,0,0,1610612747
188,1610612756,101108,1626164,1628969,1629028,203109,1610612747,1627936,201188,202083,203076,203484,0022001024,4,2813,2819,0,0,1610612756
189,1610612756,101108,1626164,1628969,1629028,203109,1610612747,1627936,201188,202083,203076,203484,0022001024,4,2820,2820,0,2,1610612747
190,1610612756,101108,1626164,1628969,1629028,203109,1610612747,1627936,201188,202083,203076,203484,0022001024,4,2830,2834,0,0,1610612756
191,1610612756,101108,1626164,1628969,1629028,203109,1610612747,1627936,201188,202083,203076,203484,0022001024,4,2846,2846,0,3,1610612747
192,1610612756,101108,1626164,1628969,1629028,203109,1610612747,1627936,201188,202083,203076,203484,0022001024,4,2854,2857,0,0,1610612756
193,1610612756,101108,1626164,1628969,1629028,203109,1610612747,1627936,201188,202083,203076,203484,0022001024,4,2880,2880,0,0,1610612747
