,stint_end,t1_players,t2_pm,t2_points_scored,stint_start,t1_pm,t1_points_scored,t2_id,t1_id,t2_players,margin_per_100,num_poss
0,258,"[1628969, 1628470, 1629028, 1626164, 101108]",7,11,0,-7,4,1610612747,1610612756,"[202083, 203076, 203083, 203484, 1627936]",-46.666666666666664,15.0
1,275,"[1628969, 1628470, 1629028, 1626164, 101108]",9,13,259,-9,4,1610612747,1610612756,"[202083, 203076, 203083, 203484, 1627936]",-52.94117647058824,17.0
2,390,"[101108, 1626163, 1626164, 1628470, 1628969]",14,20,276,-14,6,1610612747,1610612756,"[202083, 203076, 203083, 203484, 1627936]",-56.00000000000001,25.0
3,409,"[101108, 1626163, 1626164, 1628470, 1628969]",14,20,391,-14,6,1610612747,1610612756,"[1627936, 201188, 202083, 203076, 203484]",-53.84615384615385,26.0
4,483,"[1626163, 1626164, 1626166, 1628969, 203109]",13,22,410,-13,9,1610612747,1610612756,"[1626149, 1627936, 201188, 202083, 203484]",-40.625,32.0
5,548,"[1626163, 1626164, 1626166, 1628969, 203109]",12,25,484,-12,13,1610612747,1610612756,"[1626149, 1629659, 201188, 202083, 203484]",-33.33333333333333,36.0
6,623,"[1626163, 1626164, 1626166, 1628969, 203109]",13,28,549,-13,15,1610612747,1610612756,"[1626149, 1629659, 201188, 203463, 203484]",-30.23255813953488,43.0
7,698,"[1626163, 1626164, 1626166, 1628470, 203109]",13,30,624,-13,17,1610612747,1610612756,"[1626149, 1629659, 203076, 203463, 203484]",-26.53061224489796,49.0
8,719,"[101108, 1626163, 1626164, 1628470, 203109]",13,30,699,-13,17,1610612747,1610612756,"[1626149, 1627936, 203076, 203463, 203484]",-26.53061224489796,49.0
9,842,"[101108, 1626163, 1626164, 1628969, 203109]",12,33,720,-12,21,1610612747,1610612756,"[1626149, 1627936, 203076, 203463, 203484]",-20.33898305084746,59.0
10,945,"[1628969, 1629028, 101108, 1626163, 203109]",13,39,843,-13,26,1610612747,1610612756,"[203076, 203083, 1627936, 1629659, 203463]",-19.696969696969695,66.0
11,1016,"[101108, 1628969, 1628975, 1629028, 203967]",14,42,946,-14,28,1610612747,1610612756,"[203076, 203083, 1627936, 1629659, 203463]",-20.28985507246377,69.0
12,1118,"[101108, 1628969, 1628975, 1629028, 203967]",11,44,1017,-11,33,1610612747,1610612756,"[1627936, 202083, 203076, 203083, 203463]",-14.666666666666666,75.0
13,1188,"[101108, 1628969, 1628975, 1629028, 203967]",11,46,1119,-11,35,1610612747,1610612756,"[1627936, 201188, 202083, 203076, 203463]",-13.750000000000002,80.0
14,1348,"[1626164, 1626166, 1628969, 1629028, 203967]",16,55,1189,-16,39,1610612747,1610612756,"[1629659, 201188, 202083, 203076, 203484]",-17.97752808988764,89.0
15,1381,"[1626163, 1626164, 1626166, 1629028, 203109]",16,57,1349,-16,41,1610612747,1610612756,"[1629659, 201188, 202083, 203076, 203484]",-17.391304347826086,92.0
16,1395,"[101108, 1626163, 1626164, 1629028, 203109]",14,57,1382,-14,43,1610612747,1610612756,"[1626149, 1627936, 1629659, 201188, 203484]",-14.893617021276595,94.0
17,1436,"[101108, 1626163, 1626164, 1629028, 203109]",14,59,1396,-14,45,1610612747,1610612756,"[1626149, 1627936, 1629659, 203076, 203484]",-14.432989690721648,97.0
18,1690,"[101108, 1626164, 1628969, 1629028, 203109]",18,72,1437,-18,54,1610612747,1610612756,"[1626149, 1627936, 1629659, 203076, 203484]",-15.65217391304348,115.0
19,1789,"[1628969, 1629028, 1626164, 101108, 203967]",16,75,1691,-16,59,1610612747,1610612756,"[202083, 203076, 203083, 203484, 1627936]",-13.223140495867769,121.0
20,1834,"[1628969, 1629028, 1626164, 101108, 203967]",15,75,1790,-15,60,1610612747,1610612756,"[1629659, 202083, 203076, 203083, 203484]",-12.096774193548388,124.0
21,1925,"[1626163, 1626164, 1626166, 1628969, 1629028]",11,78,1835,-11,67,1610612747,1610612756,"[1629659, 202083, 203076, 203083, 203484]",-8.461538461538462,130.0
22,2069,"[1626163, 1626164, 1626166, 1628969, 1629028]",14,89,1926,-14,75,1610612747,1610612756,"[1629659, 203076, 203083, 203463, 203484]",-10.0,140.0
23,2076,"[1626163, 1626164, 1626166, 1629028, 203109]",15,90,2070,-15,75,1610612747,1610612756,"[1629659, 201188, 203076, 203463, 203484]",-10.638297872340425,141.0
24,2157,"[1626163, 1626164, 1626166, 203109, 203967]",18,95,2077,-18,77,1610612747,1610612756,"[1629659, 201188, 203076, 203463, 203484]",-12.32876712328767,146.0
25,2217,"[1626163, 1626164, 1626166, 203109, 203967]",20,100,2158,-20,80,1610612747,1610612756,"[1626149, 1629659, 203076, 203463, 203484]",-13.333333333333334,150.0
26,2402,"[1628969, 101108, 1626163, 1626166, 203109]",13,108,2218,-13,95,1610612747,1610612756,"[202083, 201188, 1626149, 1629659, 203463]",-7.975460122699387,163.0
27,2533,"[1628969, 101108, 1626163, 1626166, 203109]",10,110,2403,-10,100,1610612747,1610612756,"[1626149, 1627936, 1628035, 202083, 203463]",-5.9171597633136095,169.0
28,2653,"[1628969, 101108, 1626163, 1626166, 203109]",7,115,2534,-7,108,1610612747,1610612756,"[1626149, 1627936, 202083, 203076, 203463]",-3.954802259887006,177.0
29,2879,"[101108, 1626164, 1628969, 1629028, 203109]",13,123,2654,-13,110,1610612747,1610612756,"[1627936, 202083, 203076, 203083, 203484]",-6.7357512953367875,193.0
30,9999999,"[101108, 1626164, 1628969, 1629028, 203109]",13,123,2880,-13,110,1610612747,1610612756,"[1627936, 201188, 202083, 203076, 203484]",-6.701030927835052,194.0
