,team1_id,team1_player1,team1_player2,team1_player3,team1_player4,team1_player5,team2_id,team2_player1,team2_player2,team2_player3,team2_player4,team2_player5,game_id,period,possession_start,possession_end,team1_points,team2_points,possession_team
0,1610612747,1628370,2772,2544,202340,201566,1610612758,203084,1628963,1629002,1630169,1628368,0022100626,1,0,38,2,0,1610612747
1,1610612747,1628370,2772,2544,202340,201566,1610612758,203084,1628963,1629002,1630169,1628368,0022100626,1,55,55,0,2,1610612758
2,1610612747,1628370,2772,2544,202340,201566,1610612758,203084,1628963,1629002,1630169,1628368,0022100626,1,64,67,0,0,1610612747
3,1610612747,1628370,2772,2544,202340,201566,1610612758,203084,1628963,1629002,1630169,1628368,0022100626,1,85,90,0,2,1610612758
4,1610612747,1626169,1628370,201566,202340,2544,1610612758,203084,1628963,1629002,1630169,1628368,0022100626,1,105,105,2,0,1610612747
5,1610612747,1626169,1628370,201566,202340,2544,1610612758,203084,1628963,1629002,1630169,1628368,0022100626,1,106,120,0,0,1610612758
6,1610612747,1626169,1628370,201566,202340,2544,1610612758,203084,1628963,1629002,1630169,1628368,0022100626,1,126,133,3,0,1610612747
7,1610612747,1626169,1628370,201566,202340,2544,1610612758,203084,1628963,1629002,1630169,1628368,0022100626,1,143,144,0,3,1610612758
8,1610612747,1626169,1628370,201566,202340,2544,1610612758,203084,1628963,1629002,1630169,1628368,0022100626,1,159,159,3,0,1610612747
9,1610612747,1626169,1628370,201566,202340,2544,1610612758,203084,1628963,1629002,1630169,1628368,0022100626,1,173,173,0,2,1610612758
10,1610612747,1626169,1628370,201566,202340,2544,1610612758,203084,1628963,1629002,1630169,1628368,0022100626,1,184,184,2,0,1610612747
11,1610612747,1626169,1628370,201566,202340,2544,1610612758,203084,1628963,1629002,1630169,1628368,0022100626,1,197,197,0,2,1610612758
12,1610612747,1626169,1628370,201566,202340,2544,1610612758,203084,1628963,1629002,1630169,1628368,0022100626,1,209,211,0,0,1610612747
13,1610612747,1626169,1628370,201566,202340,2544,1610612758,203084,1628963,1629002,1630169,1628368,0022100626,1,220,220,0,2,1610612758
14,1610612747,1626169,1628370,201566,202340,2544,1610612758,203084,1628963,1629002,1630169,1628368,0022100626,1,230,235,2,0,1610612747
15,1610612747,1626169,1628370,201566,202340,2544,1610612758,203084,1628963,1629002,1630169,1628368,0022100626,1,250,250,0,2,1610612758
16,1610612747,1626169,1628370,201566,202340,2544,1610612758,203084,1628963,1629002,1630169,1628368,0022100626,1,270,270,2,0,1610612747
17,1610612747,1626169,1628370,201566,202340,2544,1610612758,203084,1628963,1629002,1630169,1628368,0022100626,1,284,286,0,0,1610612758
18,1610612747,1626169,1628370,201566,202340,2544,1610612758,203084,1628963,1629002,1630169,1628368,0022100626,1,301,301,2,0,1610612747
19,1610612747,1626169,1628370,201566,202340,2544,1610612758,203084,1628963,1629002,1630169,1628368,0022100626,1,311,324,0,0,1610612758
20,1610612747,1626169,1628370,1629659,202340,2544,1610612758,1627741,1628368,203084,203090,203458,0022100626,1,336,336,2,0,1610612747
21,1610612747,1626169,1628370,1629659,202340,2544,1610612758,1627741,1628368,203084,203090,203458,0022100626,1,349,352,0,0,1610612758
22,1610612747,1626169,1628370,1629659,202340,2544,1610612758,1627741,1628368,203084,203090,203458,0022100626,1,364,364,3,0,1610612747
23,1610612747,1626169,1628370,1629659,202340,2544,1610612758,1627741,1628368,203084,203090,203458,0022100626,1,375,375,0,2,1610612758
24,1610612747,1626169,1628370,1629659,202340,2544,1610612758,1627741,1628368,203084,203090,203458,0022100626,1,393,393,3,0,1610612747
25,1610612747,1626169,1628370,1629659,202340,2544,1610612758,1627741,1628368,203084,203090,203458,0022100626,1,410,424,0,0,1610612758
26,1610612747,1626169,1628370,1629659,202340,2544,1610612758,1627741,1628368,203084,203090,203458,0022100626,1,441,444,0,0,1610612747
27,1610612747,1626169,1628370,1629659,202340,2544,1610612758,1627741,1628368,203084,203090,203458,0022100626,1,454,454,0,2,1610612758
28,1610612747,1626169,1628370,1629659,202340,2544,1610612758,1627741,1628368,203084,203090,203458,0022100626,1,461,461,0,0,1610612747
29,1610612747,1626169,1629659,1630559,202340,2544,1610612758,1627741,1628368,203084,203090,203458,0022100626,1,474,475,0,2,1610612758
30,1610612747,1626169,1629659,1630559,202340,2544,1610612758,1627741,1628368,1630558,203090,203458,0022100626,1,491,499,2,0,1610612747
31,1610612747,1626169,1629659,1630559,202340,2544,1610612758,1627741,1628368,1630558,203090,203458,0022100626,1,506,508,0,0,1610612758
32,1610612747,1626169,1629659,1630559,202340,2544,1610612758,1627741,1628368,1630558,203090,203458,0022100626,1,513,516,0,0,1610612747
33,1610612747,1629659,1630559,201566,2544,2730,1610612758,1627741,1630169,1630558,203090,203458,0022100626,1,527,530,0,0,1610612758
34,1610612747,1629659,1630559,201566,2544,2730,1610612758,1627741,1630169,1630558,203090,203458,0022100626,1,536,539,0,0,1610612747
35,1610612747,1629659,1630559,201566,2544,2730,1610612758,1627741,1630169,1630558,203090,203458,0022100626,1,542,542,0,0,1610612758
36,1610612747,1629659,1630559,201566,2544,2730,1610612758,1627741,1630169,1630558,203090,203458,0022100626,1,542,563,2,0,1610612747
37,1610612747,1629659,1630559,201566,2730,2772,1610612758,1627741,1630169,1630558,203090,203458,0022100626,1,580,580,0,2,1610612758
38,1610612747,1629659,1630559,201566,2730,2772,1610612758,1627741,1630169,1630558,203090,203458,0022100626,1,580,597,2,0,1610612747
39,1610612747,1629659,1630559,201566,2730,2772,1610612758,1627741,1630169,1630558,203090,203458,0022100626,1,609,609,0,0,1610612758
40,1610612747,1629659,1630559,201566,2730,2772,1610612758,1627741,1630169,1630558,203090,203458,0022100626,1,625,628,0,0,1610612747
41,1610612747,1629659,1630559,201566,2730,2772,1610612758,1627741,1630169,1630558,203090,203458,0022100626,1,637,637,0,2,1610612758
42,1610612747,1629659,1630559,201566,2730,2772,1610612758,1627741,1630169,1630558,203090,203458,0022100626,1,662,669,2,0,1610612747
43,1610612747,1629659,1630559,201566,2730,2772,1610612758,1627741,1629056,1630169,1630558,203458,0022100626,1,680,680,0,2,1610612758
44,1610612747,1629659,1630559,201566,2730,2772,1610612758,1627741,1629056,1630169,1630558,203458,0022100626,1,689,689,0,0,1610612747
45,1610612747,1629659,1630559,201566,2730,2772,1610612758,1627741,1629056,1630169,1630558,203458,0022100626,1,698,701,0,2,1610612758
46,1610612747,1629659,1630559,201566,2730,2772,1610612758,1627741,1629056,1630169,1630558,203458,0022100626,1,718,718,0,0,1610612747
47,1610612747,2772,2544,201566,1629659,1630559,1610612758,1629002,1630169,1627741,1630558,1629056,0022100626,2,720,733,0,3,1610612758
48,1610612747,2772,2544,201566,1629659,1630559,1610612758,1629002,1630169,1627741,1630558,1629056,0022100626,2,751,754,0,0,1610612747
49,1610612747,2772,2544,201566,1629659,1630559,1610612758,1629002,1630169,1627741,1630558,1629056,0022100626,2,764,767,0,0,1610612758
50,1610612747,2772,2544,201566,1629659,1630559,1610612758,1629002,1630169,1627741,1630558,1629056,0022100626,2,784,788,0,0,1610612747
51,1610612747,2772,2544,201566,1629659,1630559,1610612758,1629002,1630169,1627741,1630558,1629056,0022100626,2,801,801,0,2,1610612758
52,1610612747,2772,2544,201566,1629659,1630559,1610612758,1629002,1630169,1627741,1630558,1629056,0022100626,2,815,815,1,0,1610612747
53,1610612747,1630559,201566,201961,2544,2772,1610612758,1629002,1630169,1627741,1630558,1629056,0022100626,2,827,827,0,0,1610612758
54,1610612747,1630559,201566,201961,2544,2772,1610612758,1629002,1630169,1627741,1630558,1629056,0022100626,2,839,851,2,0,1610612747
55,1610612747,1630559,201566,201961,2544,2772,1610612758,1629002,1630169,1627741,1630558,1629056,0022100626,2,860,860,0,3,1610612758
56,1610612747,1630559,201566,201961,2544,2772,1610612758,1629002,1630169,1627741,1630558,1629056,0022100626,2,880,880,2,0,1610612747
57,1610612747,1630559,201566,201961,2544,2772,1610612758,1629002,1630169,1627741,1630558,1629056,0022100626,2,892,892,0,0,1610612758
58,1610612747,1630559,201566,201961,2544,2772,1610612758,1629002,1630169,1627741,1630558,1629056,0022100626,2,893,901,3,0,1610612747
59,1610612747,1630559,201566,201961,2544,2772,1610612758,1627741,1628368,1629002,1629056,1630169,0022100626,2,920,927,0,0,1610612758
60,1610612747,1630559,201566,201961,2544,2772,1610612758,1627741,1628368,1629002,1629056,1630169,0022100626,2,929,933,3,0,1610612747
61,1610612747,1630559,201566,201961,2544,2772,1610612758,1628368,1629002,1629056,1630169,203084,0022100626,2,948,948,0,2,1610612758
62,1610612747,1630559,201566,201961,2544,2772,1610612758,1628368,1629002,1629056,1630169,203084,0022100626,2,956,956,3,0,1610612747
63,1610612747,1630559,201566,201961,2544,2772,1610612758,1628368,1628963,1629002,1630169,203084,0022100626,2,967,967,0,0,1610612758
64,1610612747,1630559,201566,201961,2544,2772,1610612758,1628368,1628963,1629002,1630169,203084,0022100626,2,977,977,3,0,1610612747
65,1610612747,1630559,201566,201961,2544,2772,1610612758,1628368,1628963,1629002,1630169,203084,0022100626,2,982,999,0,3,1610612758
66,1610612747,1630559,201566,201961,2544,2772,1610612758,1628368,1628963,1629002,1630169,203084,0022100626,2,1023,1042,0,0,1610612747
67,1610612747,1630559,201566,201961,2544,2772,1610612758,1628368,1628963,1629002,1630169,203084,0022100626,2,1048,1048,0,2,1610612758
68,1610612747,1630559,201566,201961,2544,2772,1610612758,1628368,1628963,1629002,1630169,203084,0022100626,2,1055,1055,1,0,1610612747
69,1610612747,1630559,201566,201961,2544,2730,1610612758,1628368,1628963,1630169,203084,203458,0022100626,2,1066,1079,0,0,1610612758
70,1610612747,1628370,1630559,201961,2544,2730,1610612758,1628368,1628963,1630169,203084,203458,0022100626,2,1083,1083,3,0,1610612747
71,1610612747,1628370,1630559,201961,2544,2730,1610612758,1628368,1628963,1630169,203084,203458,0022100626,2,1095,1095,0,2,1610612758
72,1610612747,1628370,1630559,201961,2544,2730,1610612758,1628368,1628963,1630169,203084,203458,0022100626,2,1103,1103,2,0,1610612747
73,1610612747,1628370,1630559,201961,2544,2730,1610612758,1628368,1628963,1630169,203084,203458,0022100626,2,1110,1110,0,3,1610612758
74,1610612747,1628370,1630559,201961,2544,2730,1610612758,1628368,1628963,1630169,203084,203458,0022100626,2,1112,1128,0,0,1610612747
75,1610612747,1628370,201566,202340,2730,2772,1610612758,1628368,1628963,1630169,203084,203458,0022100626,2,1137,1140,0,0,1610612758
76,1610612747,1628370,201566,202340,2730,2772,1610612758,1628368,1628963,1630169,203084,203458,0022100626,2,1156,1175,2,0,1610612747
77,1610612747,1628370,201566,202340,2730,2772,1610612758,1628368,1628963,1630169,203084,203458,0022100626,2,1197,1197,0,2,1610612758
78,1610612747,1628370,201566,202340,2730,2772,1610612758,1628368,1628963,1630169,203084,203458,0022100626,2,1211,1211,2,0,1610612747
79,1610612747,1628370,201566,202340,2730,2772,1610612758,1628368,1628963,1630169,203084,203458,0022100626,2,1228,1228,0,0,1610612758
80,1610612747,1628370,201566,202340,2730,2772,1610612758,1628368,1628963,1629674,1630169,203084,0022100626,2,1244,1246,2,0,1610612747
81,1610612747,1628370,201566,202340,2730,2772,1610612758,1628368,1628963,1629674,1630169,203084,0022100626,2,1249,1264,0,0,1610612758
82,1610612747,1628370,201566,202340,2730,2772,1610612758,1628368,1628963,1629674,1630558,203084,0022100626,2,1267,1270,1,0,1610612747
83,1610612747,1628370,201566,202340,2544,2730,1610612758,1628368,1628963,1629674,1630558,203084,0022100626,2,1276,1287,0,2,1610612758
84,1610612747,1628370,201566,202340,2544,2772,1610612758,1627741,1628368,1628963,1630558,203084,0022100626,2,1301,1301,3,0,1610612747
85,1610612747,1628370,201566,202340,2544,2772,1610612758,1627741,1628368,1628963,1630558,203084,0022100626,2,1317,1321,0,0,1610612758
86,1610612747,1628370,201566,202340,2544,2772,1610612758,1627741,1628368,1628963,1630558,203084,0022100626,2,1329,1331,0,0,1610612747
87,1610612747,1628370,201566,202340,2544,2772,1610612758,1627741,1628368,1628963,1630558,203084,0022100626,2,1338,1338,0,2,1610612758
88,1610612747,1628370,201566,202340,2544,2772,1610612758,1627741,1628368,1628963,1630558,203084,0022100626,2,1351,1355,0,0,1610612747
89,1610612747,1628370,201566,202340,2544,2772,1610612758,1627741,1628368,1628963,1630558,203084,0022100626,2,1360,1360,0,2,1610612758
90,1610612747,1628370,201566,202340,2544,2772,1610612758,1627741,1628368,1628963,1630558,203084,0022100626,2,1385,1389,0,0,1610612747
91,1610612747,1628370,201566,202340,2544,2772,1610612758,1627741,1628368,1628963,1630558,203084,0022100626,2,1393,1393,0,2,1610612758
92,1610612747,1628370,201566,202340,2544,2772,1610612758,1627741,1628368,1628963,1630558,203084,0022100626,2,1405,1409,0,0,1610612747
93,1610612747,1628370,201566,202340,2544,2772,1610612758,1627741,1628368,1628963,1630558,203084,0022100626,2,1426,1426,0,2,1610612758
94,1610612747,1628370,201566,202340,2544,2772,1610612758,1627741,1628368,1628963,1630558,203084,0022100626,2,1440,1440,0,0,1610612758
95,1610612747,1628370,2544,202340,201566,1626169,1610612758,203084,1628963,1629002,1630169,1628368,0022100626,3,1440,1452,0,3,1610612758
96,1610612747,1628370,2544,202340,201566,1626169,1610612758,203084,1628963,1629002,1630169,1628368,0022100626,3,1475,1480,0,0,1610612747
97,1610612747,1628370,2544,202340,201566,1626169,1610612758,203084,1628963,1629002,1630169,1628368,0022100626,3,1488,1488,0,2,1610612758
98,1610612747,1628370,2544,202340,201566,1626169,1610612758,203084,1628963,1629002,1630169,1628368,0022100626,3,1506,1506,3,0,1610612747
99,1610612747,1628370,2544,202340,201566,1626169,1610612758,203084,1628963,1629002,1630169,1628368,0022100626,3,1518,1518,0,2,1610612758
100,1610612747,1628370,2544,202340,201566,1626169,1610612758,203084,1628963,1629002,1630169,1628368,0022100626,3,1542,1542,3,0,1610612747
101,1610612747,1628370,2544,202340,201566,1626169,1610612758,203084,1628963,1629002,1630169,1628368,0022100626,3,1558,1558,0,0,1610612758
102,1610612747,1628370,2544,202340,201566,1626169,1610612758,203084,1628963,1629002,1630169,1628368,0022100626,3,1558,1567,3,0,1610612747
103,1610612747,1628370,2544,202340,201566,1626169,1610612758,203084,1628963,1629002,1630169,1628368,0022100626,3,1585,1585,0,3,1610612758
104,1610612747,1628370,2544,202340,201566,1626169,1610612758,203084,1628963,1629002,1630169,1628368,0022100626,3,1606,1609,0,0,1610612747
105,1610612747,1628370,2544,202340,201566,1626169,1610612758,203084,1628963,1629002,1630169,1628368,0022100626,3,1619,1619,0,2,1610612758
106,1610612747,1628370,2544,202340,201566,1626169,1610612758,203084,1628963,1629002,1630169,1628368,0022100626,3,1628,1633,1,0,1610612747
107,1610612747,1628370,2544,202340,201566,1626169,1610612758,203084,1628963,1629002,1630169,1628368,0022100626,3,1633,1641,0,2,1610612758
108,1610612747,1628370,2544,202340,201566,1626169,1610612758,203084,1628963,1629002,1630169,1628368,0022100626,3,1641,1656,0,0,1610612747
109,1610612747,1628370,2544,202340,201566,1626169,1610612758,203084,1628963,1629002,1630169,1628368,0022100626,3,1671,1671,0,2,1610612758
110,1610612747,1628370,2544,202340,201566,1626169,1610612758,203084,1628963,1629002,1630169,1628368,0022100626,3,1691,1694,0,0,1610612747
111,1610612747,1628370,2544,202340,201566,1626169,1610612758,203084,1628963,1629002,1630169,1628368,0022100626,3,1701,1706,0,0,1610612758
112,1610612747,1628370,2544,202340,201566,1626169,1610612758,203084,1628963,1629002,1630169,1628368,0022100626,3,1713,1725,0,0,1610612747
113,1610612747,1628370,201566,202340,2544,2772,1610612758,203084,1628963,1629002,1630169,1628368,0022100626,3,1732,1735,0,0,1610612758
114,1610612747,1628370,201566,202340,2544,2772,1610612758,203084,1628963,1629002,1630169,1628368,0022100626,3,1739,1742,0,0,1610612747
115,1610612747,1628370,201566,202340,2544,2772,1610612758,203084,1628963,1629002,1630169,1628368,0022100626,3,1749,1752,0,0,1610612758
116,1610612747,1628370,201566,202340,2544,2772,1610612758,203084,1628963,1629002,1630169,1628368,0022100626,3,1754,1754,2,0,1610612747
117,1610612747,1628370,201566,202340,2544,2772,1610612758,203084,1628963,1629002,1630169,1628368,0022100626,3,1776,1776,0,2,1610612758
118,1610612747,1628370,201566,202340,2544,2772,1610612758,203084,1628963,1629002,1630169,1628368,0022100626,3,1793,1796,0,0,1610612747
119,1610612747,1628370,201566,202340,2544,2772,1610612758,203084,1628963,1629002,1630169,1628368,0022100626,3,1800,1808,0,3,1610612758
120,1610612747,1628370,1629659,202340,2544,2772,1610612758,203084,1628963,1629002,1630169,1628368,0022100626,3,1820,1823,0,0,1610612747
121,1610612747,1628370,1629659,202340,2544,2772,1610612758,203084,1628963,1629002,1630169,1628368,0022100626,3,1826,1826,0,3,1610612758
122,1610612747,1628370,1629659,202340,2544,2772,1610612758,203084,1628963,1629002,1630169,1628368,0022100626,3,1843,1846,0,0,1610612747
123,1610612747,1628370,1629659,202340,2544,2772,1610612758,203084,1628963,1629002,1630169,1628368,0022100626,3,1854,1854,0,0,1610612758
124,1610612747,1628370,1629659,202340,2544,2772,1610612758,203084,1628963,1629002,1630169,1628368,0022100626,3,1861,1861,0,0,1610612747
125,1610612747,1628370,1629659,202340,2544,2772,1610612758,203084,1628963,1629002,1630169,1628368,0022100626,3,1866,1866,0,2,1610612758
126,1610612747,1628370,1629659,202340,2544,2772,1610612758,203084,1628963,1629002,1630169,1628368,0022100626,3,1866,1877,0,0,1610612747
127,1610612747,1628370,1629659,1630559,2544,2772,1610612758,203084,1628963,1629002,1630169,1628368,0022100626,3,1883,1883,0,2,1610612758
128,1610612747,1628370,1629659,1630559,2544,2772,1610612758,203084,1628963,1629002,1630169,1628368,0022100626,3,1902,1905,0,0,1610612747
129,1610612747,1628370,1629659,1630559,2544,2772,1610612758,203084,1628963,1629002,1630169,1628368,0022100626,3,1915,1915,0,3,1610612758
130,1610612747,1628370,1629659,1630559,2544,2772,1610612758,203084,1628963,1629002,1630169,1628368,0022100626,3,1928,1928,2,0,1610612747
131,1610612747,1628370,1629659,1630559,2544,2772,1610612758,203084,1628963,1629002,1630169,1628368,0022100626,3,1935,1935,0,1,1610612758
132,1610612747,1629659,1630559,2544,2730,2772,1610612758,1627741,1628368,1629002,203084,203458,0022100626,3,1948,1952,1,0,1610612747
133,1610612747,1629659,1630559,201566,2730,2772,1610612758,1627741,1628368,1629002,203084,203458,0022100626,3,1964,1967,0,0,1610612758
134,1610612747,1629659,1630559,201566,2730,2772,1610612758,1627741,1628368,1629002,203084,203458,0022100626,3,1970,1973,0,0,1610612747
135,1610612747,1629659,1630559,201566,2730,2772,1610612758,1627741,1628368,1629002,203084,203458,0022100626,3,1979,1984,0,0,1610612758
136,1610612747,1629659,1630559,201566,2730,2772,1610612758,1627741,1628368,1629002,203084,203458,0022100626,3,1988,1988,0,0,1610612747
137,1610612747,1629659,1630559,201566,2730,2772,1610612758,1627741,1628368,1629002,1630558,203458,0022100626,3,1988,2010,0,1,1610612758
138,1610612747,1629659,1630559,201566,2730,2772,1610612758,1627741,1628368,1628963,1630558,203458,0022100626,3,2023,2023,3,0,1610612747
139,1610612747,1629659,1630559,201566,2730,2772,1610612758,1627741,1628368,1628963,1630558,203458,0022100626,3,2041,2046,0,2,1610612758
140,1610612747,1629659,1630559,201566,2730,2772,1610612758,1627741,1628368,1628963,1630558,203458,0022100626,3,2054,2054,2,0,1610612747
141,1610612747,1629659,1630559,201566,2730,2772,1610612758,1627741,1628368,1628963,1630558,203458,0022100626,3,2071,2071,0,0,1610612758
142,1610612747,1629659,1630559,201566,2730,2772,1610612758,1627741,1628368,1628963,1630558,203458,0022100626,3,2078,2082,0,0,1610612747
143,1610612747,1629659,1630559,201566,2730,2772,1610612758,1627741,1628368,1628963,1630558,203458,0022100626,3,2087,2090,0,0,1610612758
144,1610612747,1629659,1630559,201566,2730,2772,1610612758,1627741,1628368,1628963,1630558,203458,0022100626,3,2094,2094,3,0,1610612747
145,1610612747,1629659,1630559,201566,2730,2772,1610612758,1627741,1628368,1628963,1630558,203458,0022100626,3,2119,2122,0,0,1610612758
146,1610612747,1629659,1630559,201566,2730,2772,1610612758,1627741,1628368,1628963,1630558,203458,0022100626,3,2128,2131,0,0,1610612747
147,1610612747,1629659,1630559,201566,2730,2772,1610612758,1627741,1628368,1628963,1630558,203458,0022100626,3,2132,2132,0,2,1610612758
148,1610612747,1629659,1630559,201566,2730,2772,1610612758,1627741,1628368,1628963,1630558,203458,0022100626,3,2153,2153,0,0,1610612747
149,1610612747,1629659,1630559,201566,2730,2772,1610612758,1627741,1628368,1628963,1630558,203458,0022100626,3,2157,2157,0,3,1610612758
150,1610612747,1629659,1630559,201566,2730,2772,1610612758,1627741,1628368,1628963,1630558,203458,0022100626,3,2160,2160,0,0,1610612758
151,1610612747,2772,2544,201566,1629659,1630559,1610612758,203084,1628963,1630169,1627741,1630558,0022100626,4,2160,2189,0,0,1610612747
152,1610612747,2772,2544,201566,1629659,1630559,1610612758,203084,1628963,1630169,1627741,1630558,0022100626,4,2195,2195,0,2,1610612758
153,1610612747,2772,2544,201566,1629659,1630559,1610612758,203084,1628963,1630169,1627741,1630558,0022100626,4,2213,2213,2,0,1610612747
154,1610612747,2772,2544,201566,1629659,1630559,1610612758,203084,1628963,1630169,1627741,1630558,0022100626,4,2233,2233,0,0,1610612758
155,1610612747,2772,2544,201566,1629659,1630559,1610612758,203084,1628963,1630169,1627741,1630558,0022100626,4,2240,2240,0,0,1610612747
156,1610612747,2772,2544,201566,1629659,1630559,1610612758,203084,1628963,1630169,1627741,1630558,0022100626,4,2245,2255,0,0,1610612758
157,1610612747,2772,2544,201566,1629659,1630559,1610612758,203084,1628963,1630169,1627741,1630558,0022100626,4,2262,2262,3,0,1610612747
158,1610612747,2772,2544,201566,1629659,1630559,1610612758,203084,1628963,1630169,1627741,1630558,0022100626,4,2291,2291,0,0,1610612758
159,1610612747,2772,2544,201566,1629659,1630559,1610612758,203084,1628963,1630169,1627741,1630558,0022100626,4,2298,2301,0,0,1610612747
160,1610612747,2772,2544,201566,1629659,1630559,1610612758,203084,1628963,1630169,1627741,1630558,0022100626,4,2308,2308,0,3,1610612758
161,1610612747,2772,2544,201566,1629659,1630559,1610612758,203084,1628963,1630169,1627741,1630558,0022100626,4,2308,2325,2,0,1610612747
162,1610612747,1629659,1630559,201961,2544,2730,1610612758,1627741,1630169,1630558,203084,203458,0022100626,4,2345,2349,0,0,1610612758
163,1610612747,1629659,1630559,201961,2544,2730,1610612758,1627741,1630169,1630558,203084,203458,0022100626,4,2357,2357,3,0,1610612747
164,1610612747,1629659,1630559,201961,2544,2730,1610612758,1627741,1630169,1630558,203084,203458,0022100626,4,2384,2384,0,2,1610612758
165,1610612747,1629659,1630559,201961,2544,2730,1610612758,1627741,1630169,1630558,203084,203458,0022100626,4,2409,2409,0,0,1610612747
166,1610612747,1629659,1630559,201961,2544,2730,1610612758,1627741,1630169,1630558,203084,203458,0022100626,4,2413,2413,0,3,1610612758
167,1610612747,1629659,1630559,201961,2544,2730,1610612758,1627741,1630169,1630558,203084,203458,0022100626,4,2427,2427,3,0,1610612747
168,1610612747,1629659,1630559,201961,2544,2730,1610612758,1627741,1630169,1630558,203084,203458,0022100626,4,2449,2456,0,0,1610612758
169,1610612747,1628370,1630559,201961,2544,2730,1610612758,1627741,1628368,1630169,203084,203458,0022100626,4,2479,2479,2,0,1610612747
170,1610612747,1628370,1630559,201961,2544,2730,1610612758,1627741,1628368,1630169,203084,203458,0022100626,4,2498,2501,0,0,1610612758
171,1610612747,1628370,1630559,201961,2544,2730,1610612758,1627741,1628368,1630169,203084,203458,0022100626,4,2504,2507,0,0,1610612747
172,1610612747,1628370,1630559,201961,2544,2730,1610612758,1627741,1628368,1630169,203084,203458,0022100626,4,2518,2519,0,2,1610612758
173,1610612747,1628370,1630559,201961,2544,2730,1610612758,1627741,1628368,1630169,203084,203458,0022100626,4,2519,2534,0,0,1610612747
174,1610612747,1628370,1630559,201961,2544,2730,1610612758,1627741,1628368,1630169,203084,203458,0022100626,4,2547,2550,0,0,1610612758
175,1610612747,1628370,1630559,201961,2544,2730,1610612758,1627741,1628368,1630169,203084,203458,0022100626,4,2553,2553,2,0,1610612747
176,1610612747,1628370,1630559,201566,202340,2544,1610612758,1627741,1628368,1630169,203084,203458,0022100626,4,2553,2564,0,2,1610612758
177,1610612747,1628370,1630559,201566,202340,2544,1610612758,1627741,1628368,1628963,1630169,203084,0022100626,4,2580,2583,0,0,1610612747
178,1610612747,1628370,1630559,201566,202340,2544,1610612758,1627741,1628368,1628963,1630169,203084,0022100626,4,2593,2593,0,0,1610612758
179,1610612747,1628370,1630559,201566,202340,2544,1610612758,1627741,1628368,1628963,1630169,203084,0022100626,4,2604,2604,1,0,1610612747
180,1610612747,1628370,1630559,201566,202340,2544,1610612758,1627741,1628368,1628963,1630169,203084,0022100626,4,2631,2631,0,2,1610612758
181,1610612747,1628370,1630559,201566,202340,2544,1610612758,1627741,1628368,1628963,1630169,203084,0022100626,4,2652,2655,0,0,1610612747
182,1610612747,1628370,1630559,201566,202340,2544,1610612758,1627741,1628368,1628963,1630169,203084,0022100626,4,2660,2662,0,1,1610612758
183,1610612747,1628370,1630559,201566,202340,2544,1610612758,1627741,1628368,1628963,1630169,203084,0022100626,4,2680,2680,2,0,1610612747
184,1610612747,1628370,1630559,201566,202340,2544,1610612758,1627741,1628368,1628963,1630169,203084,0022100626,4,2688,2692,0,0,1610612758
185,1610612747,1628370,1630559,201566,202340,2544,1610612758,1627741,1628368,1628963,1630169,203084,0022100626,4,2704,2718,0,0,1610612747
186,1610612747,1628370,1630559,201566,202340,2544,1610612758,1627741,1628368,1628963,1630169,203084,0022100626,4,2729,2733,0,0,1610612758
187,1610612747,1628370,1630559,201566,202340,2544,1610612758,1627741,1628368,1628963,1630169,203084,0022100626,4,2742,2742,2,0,1610612747
188,1610612747,1628370,1630559,201566,202340,2544,1610612758,1627741,1628368,1628963,1630169,203084,0022100626,4,2762,2763,0,0,1610612758
189,1610612747,1628370,1630559,201566,202340,2544,1610612758,1627741,1628368,1628963,1630169,203084,0022100626,4,2764,2764,2,0,1610612747
190,1610612747,1628370,1630559,201566,202340,2544,1610612758,1627741,1628368,1628963,1630169,203084,0022100626,4,2764,2780,0,0,1610612758
191,1610612747,1628370,1630559,201566,202340,2544,1610612758,1627741,1628368,1629002,1630169,203084,0022100626,4,2784,2784,2,0,1610612747
192,1610612747,1628370,1630559,201566,202340,2544,1610612758,1627741,1628368,1629002,1630169,203084,0022100626,4,2793,2793,0,2,1610612758
193,1610612747,1628370,1630559,201566,202340,2544,1610612758,1627741,1628368,1629002,1630169,203084,0022100626,4,2813,2816,0,0,1610612747
194,1610612747,1628370,1630559,201566,202340,2544,1610612758,1627741,1628368,1629002,1630169,203084,0022100626,4,2834,2834,0,3,1610612758
195,1610612747,1628370,1630559,201566,202340,2544,1610612758,1627741,1628368,1629002,1630169,203084,0022100626,4,2834,2855,0,0,1610612747
196,1610612747,1628370,1630559,201566,202340,2544,1610612758,1627741,1628368,1629002,1630169,203084,0022100626,4,2856,2862,0,2,1610612758
197,1610612747,1628370,1630559,201566,202340,2544,1610612758,1627741,1628368,1629002,1630169,203084,0022100626,4,2868,2871,0,0,1610612747
