,team1_id,team1_player1,team1_player2,team1_player3,team1_player4,team1_player5,team2_id,team2_player1,team2_player2,team2_player3,team2_player4,team2_player5,game_id,period,possession_start,possession_end,team1_points,team2_points,possession_team
0,1610612737,1629631,1628381,203991,203992,1629027,1610612744,203952,203110,1626172,1629673,201939,0022100152,1,0,14,0,3,1610612744
1,1610612737,1629631,1628381,203991,203992,1629027,1610612744,203952,203110,1626172,1629673,201939,0022100152,1,30,31,0,0,1610612737
2,1610612737,1629631,1628381,203991,203992,1629027,1610612744,203952,203110,1626172,1629673,201939,0022100152,1,40,44,0,3,1610612744
3,1610612737,1629631,1628381,203991,203992,1629027,1610612744,203952,203110,1626172,1629673,201939,0022100152,1,66,68,0,0,1610612737
4,1610612737,1629631,1628381,203991,203992,1629027,1610612744,203952,203110,1626172,1629673,201939,0022100152,1,77,80,0,2,1610612744
5,1610612737,1629631,1628381,203991,203992,1629027,1610612744,203952,203110,1626172,1629673,201939,0022100152,1,92,99,3,0,1610612737
6,1610612737,1629631,1628381,203991,203992,1629027,1610612744,203952,203110,1626172,1629673,201939,0022100152,1,112,114,0,0,1610612744
7,1610612737,1629631,1628381,203991,203992,1629027,1610612744,203952,203110,1626172,1629673,201939,0022100152,1,121,121,0,0,1610612737
8,1610612737,1629631,1628381,203991,203992,1629027,1610612744,203952,203110,1626172,1629673,201939,0022100152,1,126,130,0,2,1610612744
9,1610612737,1629631,1628381,203991,203992,1629027,1610612744,203952,203110,1626172,1629673,201939,0022100152,1,138,148,3,0,1610612737
10,1610612737,1629631,1628381,203991,203992,1629027,1610612744,203952,203110,1626172,1629673,201939,0022100152,1,169,174,0,0,1610612744
11,1610612737,1629631,1628381,203991,203992,1629027,1610612744,203952,203110,1626172,1629673,201939,0022100152,1,185,185,2,0,1610612737
12,1610612737,1629631,1628381,203991,203992,1629027,1610612744,203952,203110,1626172,1629673,201939,0022100152,1,192,202,0,0,1610612744
13,1610612737,1629631,1628381,203991,203992,1629027,1610612744,203952,203110,1626172,1629673,201939,0022100152,1,217,217,2,0,1610612737
14,1610612737,1629631,1628381,203991,203992,1629027,1610612744,203952,203110,1626172,1629673,201939,0022100152,1,229,231,0,0,1610612744
15,1610612737,1629631,1628381,203991,203992,1629027,1610612744,203952,203110,1626172,1629673,201939,0022100152,1,242,242,2,0,1610612737
16,1610612737,1629631,1628381,203991,203992,1629027,1610612744,203952,203110,1626172,1629673,201939,0022100152,1,255,257,0,0,1610612744
17,1610612737,1629631,1628381,203991,203992,1629027,1610612744,203952,203110,1626172,1629673,201939,0022100152,1,267,269,0,0,1610612737
18,1610612737,1629631,1628381,203991,203992,1629027,1610612744,203952,203110,1626172,1629673,201939,0022100152,1,281,281,0,3,1610612744
19,1610612737,1629631,1628381,203991,203992,1629027,1610612744,203952,203110,1626172,1629673,201939,0022100152,1,298,298,2,0,1610612737
20,1610612737,1629631,1628381,203991,203992,1629027,1610612744,203952,203110,1626172,1629673,201939,0022100152,1,310,310,0,2,1610612744
21,1610612737,1629631,1628381,203991,203992,1629027,1610612744,203952,203110,1626172,1629673,201939,0022100152,1,315,322,2,0,1610612737
22,1610612737,1629631,1628381,203991,203992,1629027,1610612744,1627780,1629673,202357,203110,203952,0022100152,1,334,334,0,3,1610612744
23,1610612737,1629631,1628381,203991,203992,1629027,1610612744,1627780,1629673,202357,203110,203952,0022100152,1,350,350,3,0,1610612737
24,1610612737,1629631,1628381,203991,203992,1629027,1610612744,1627780,1629673,202357,203110,203952,0022100152,1,362,371,0,0,1610612744
25,1610612737,1628381,1628989,1629027,201568,203992,1610612744,1627780,1629673,202357,203110,203952,0022100152,1,382,382,2,0,1610612737
26,1610612737,1628381,1628989,1629027,201568,203992,1610612744,1627780,1629673,202357,203110,203952,0022100152,1,400,400,0,2,1610612744
27,1610612737,1628381,1628989,1629027,201568,203992,1610612744,1627780,1629673,202357,203110,203952,0022100152,1,410,410,3,0,1610612737
28,1610612737,1628381,1628989,1629027,201568,203992,1610612744,1627780,1629673,202357,203110,203952,0022100152,1,429,434,0,2,1610612744
29,1610612737,1628381,1628989,1629027,201568,203992,1610612744,1627780,1629673,202357,203110,203952,0022100152,1,440,451,0,0,1610612737
30,1610612737,1628381,1628989,1629027,201568,203992,1610612744,1627780,1629673,202357,203110,203952,0022100152,1,471,473,0,0,1610612744
31,1610612737,1628381,1628989,1629027,201568,203992,1610612744,1627780,1629673,202357,203110,203952,0022100152,1,473,486,0,0,1610612737
32,1610612737,1628381,1628989,1629027,1629629,201568,1610612744,1627780,1629673,202357,203110,203952,0022100152,1,495,498,0,0,1610612744
33,1610612737,1628381,1628989,1629027,1629629,201568,1610612744,1627780,1629673,202357,203110,203952,0022100152,1,504,504,3,0,1610612737
34,1610612737,1628381,1628989,1629027,1629629,201568,1610612744,1627780,1629673,202357,203110,203952,0022100152,1,523,523,0,0,1610612744
35,1610612737,1628381,1628989,1629027,1629629,201568,1610612744,1627780,1629673,202357,203110,203952,0022100152,1,526,526,2,0,1610612737
36,1610612737,1628381,1628989,1629027,1629629,201568,1610612744,1627780,1630228,201939,202357,2738,0022100152,1,545,545,0,0,1610612744
37,1610612737,1628381,1628989,1629027,1629629,201568,1610612744,1627780,1630228,201939,202357,2738,0022100152,1,556,561,0,0,1610612737
38,1610612737,1628381,1628989,1629027,1629629,201568,1610612744,1627780,1630228,201939,202357,2738,0022100152,1,565,567,0,0,1610612744
39,1610612737,1628381,1628989,1629027,1629629,201568,1610612744,1627780,1630228,201939,202357,2738,0022100152,1,578,580,0,0,1610612737
40,1610612737,1628381,1628989,1629027,1629629,201568,1610612744,1627780,1630228,201939,202357,2738,0022100152,1,585,585,0,2,1610612744
41,1610612737,1628381,1628989,1629027,1629629,201568,1610612744,1627780,1630228,201939,202357,2738,0022100152,1,603,603,3,0,1610612737
42,1610612737,1628381,1628989,1629027,1629629,201568,1610612744,1627780,1630228,201939,202357,2738,0022100152,1,614,614,0,2,1610612744
43,1610612737,1628381,1628989,1629027,1629629,201568,1610612744,1627780,1630228,201939,202357,2738,0022100152,1,632,635,0,0,1610612737
44,1610612737,1628381,1628989,1629027,1629629,201568,1610612744,1627780,1630228,201939,202357,2738,0022100152,1,640,644,0,1,1610612744
45,1610612737,1626153,1628989,1629629,201568,203524,1610612744,1627780,1630228,201939,202357,2738,0022100152,1,660,660,0,0,1610612737
46,1610612737,1626153,1628989,1629629,201568,203524,1610612744,1627780,1630228,201939,202357,2738,0022100152,1,664,666,0,0,1610612744
47,1610612737,1626153,1628989,1629629,201568,203524,1610612744,1627780,1630228,201939,202357,2738,0022100152,1,666,666,0,0,1610612737
48,1610612737,1626153,1628989,1629629,201568,203524,1610612744,1627780,1630228,201939,202357,2738,0022100152,1,669,669,0,3,1610612744
49,1610612737,1626153,1628989,1629629,201568,203524,1610612744,1627780,1630228,201939,202357,2738,0022100152,1,685,688,0,0,1610612737
50,1610612737,1626153,1628989,1629629,201568,203524,1610612744,1627780,1630228,201939,202357,2738,0022100152,1,705,705,0,0,1610612744
51,1610612737,1626153,1628989,1629629,201568,203524,1610612744,1627780,1630228,201939,202357,2738,0022100152,1,705,705,2,0,1610612737
52,1610612737,1626153,1628989,1629629,201568,203524,1610612744,1627814,1629673,201939,202357,2738,0022100152,1,720,720,0,2,1610612744
53,1610612737,1628989,201568,1629629,1626153,203524,1610612744,1629673,201939,2738,1627814,1629308,0022100152,2,720,738,2,0,1610612737
54,1610612737,1628989,201568,1629629,1626153,203524,1610612744,1629673,201939,2738,1627814,1629308,0022100152,2,765,767,0,0,1610612744
55,1610612737,1628989,201568,1629629,1626153,203524,1610612744,1629673,201939,2738,1627814,1629308,0022100152,2,776,782,3,0,1610612737
56,1610612737,1628989,201568,1629629,1626153,203524,1610612744,1629673,201939,2738,1627814,1629308,0022100152,2,797,799,0,0,1610612744
57,1610612737,1628989,201568,1629629,1626153,203524,1610612744,1629673,201939,2738,1627814,1629308,0022100152,2,812,825,2,0,1610612737
58,1610612737,1628989,201568,1629629,1626153,203524,1610612744,1629673,201939,2738,1627814,1629308,0022100152,2,846,848,0,0,1610612744
59,1610612737,1628989,201568,1629629,1626153,203524,1610612744,1629673,201939,2738,1627814,1629308,0022100152,2,857,857,2,0,1610612737
60,1610612737,1628989,201568,1629629,1626153,203524,1610612744,1629673,201939,2738,1627814,1629308,0022100152,2,877,877,0,3,1610612744
61,1610612737,1628989,201568,1629629,1626153,203524,1610612744,1629673,201939,2738,1627814,1629308,0022100152,2,895,895,2,0,1610612737
62,1610612737,1628989,201568,1629629,1626153,203524,1610612744,1629673,201939,2738,1627814,1629308,0022100152,2,907,909,0,0,1610612744
63,1610612737,1628989,201568,1629629,1626153,203524,1610612744,1629673,201939,2738,1627814,1629308,0022100152,2,929,929,0,0,1610612737
64,1610612737,1628989,201568,1629629,1626153,203524,1610612744,1629673,201939,2738,1627814,1629308,0022100152,2,930,946,0,2,1610612744
65,1610612737,1628989,201568,1629629,1626153,203524,1610612744,1629673,201939,2738,1627814,1629308,0022100152,2,958,961,0,0,1610612737
66,1610612737,1628989,201568,1629629,1626153,203524,1610612744,1629673,201939,2738,1627814,1629308,0022100152,2,969,969,0,2,1610612744
67,1610612737,1628989,201568,1629629,1626153,203524,1610612744,1629673,201939,2738,1627814,1629308,0022100152,2,975,985,2,0,1610612737
68,1610612737,1626153,1628381,1628989,1629631,201568,1610612744,1627814,1629673,203110,203952,2738,0022100152,2,988,1000,0,1,1610612744
69,1610612737,1628381,1629027,1629631,201568,203992,1610612744,1627814,1629673,203110,203952,2738,0022100152,2,1012,1012,2,0,1610612737
70,1610612737,1628381,1629027,1629631,201568,203992,1610612744,1627814,1629673,203110,203952,2738,0022100152,2,1027,1028,0,0,1610612744
71,1610612737,1628381,1629027,1629631,203991,203992,1610612744,1627814,1629673,203110,203952,2738,0022100152,2,1045,1045,3,0,1610612737
72,1610612737,1628381,1629027,1629631,203991,203992,1610612744,1627814,1629673,203110,203952,2738,0022100152,2,1073,1074,0,0,1610612744
73,1610612737,1628381,1629027,1629631,203991,203992,1610612744,1626172,1627814,1629673,203110,203952,0022100152,2,1087,1094,3,0,1610612737
74,1610612737,1628381,1629027,1629631,203991,203992,1610612744,1626172,1627814,1629673,203110,203952,0022100152,2,1096,1110,0,2,1610612744
75,1610612737,1628381,1629027,1629631,203991,203992,1610612744,1626172,1627814,1629673,203110,203952,0022100152,2,1134,1134,2,0,1610612737
76,1610612737,1628381,1629027,1629631,203991,203992,1610612744,1626172,1627814,1629673,203110,203952,0022100152,2,1147,1152,0,0,1610612744
77,1610612737,1628381,1629027,1629631,203991,203992,1610612744,1626172,1627814,1629673,203110,203952,0022100152,2,1163,1166,0,0,1610612737
78,1610612737,1628381,1629027,1629631,203991,203992,1610612744,1626172,1627814,1629673,203110,203952,0022100152,2,1166,1183,0,2,1610612744
79,1610612737,1629027,1629631,201568,203991,203992,1610612744,1626172,1627814,1629673,203110,203952,0022100152,2,1201,1201,2,0,1610612737
80,1610612737,1629027,1629631,201568,203991,203992,1610612744,1626172,1627814,1629673,203110,203952,0022100152,2,1212,1212,0,2,1610612744
81,1610612737,1629027,1629631,201568,203991,203992,1610612744,1626172,1627814,1629673,203110,203952,0022100152,2,1227,1237,0,0,1610612737
82,1610612737,1628989,1629027,201568,203991,203992,1610612744,1626172,1627780,201939,203110,203952,0022100152,2,1251,1251,0,3,1610612744
83,1610612737,1628989,1629027,201568,203991,203992,1610612744,1626172,1627780,201939,203110,203952,0022100152,2,1276,1279,0,0,1610612737
84,1610612737,1628989,1629027,201568,203991,203992,1610612744,1626172,1627780,201939,203110,203952,0022100152,2,1281,1281,0,0,1610612744
85,1610612737,1628989,1629027,201568,203991,203992,1610612744,1626172,1627780,201939,203110,203952,0022100152,2,1292,1292,2,0,1610612737
86,1610612737,1628381,1628989,1629027,201568,203992,1610612744,1627780,201939,202357,203110,203952,0022100152,2,1305,1305,0,2,1610612744
87,1610612737,1628381,1628989,1629027,201568,203992,1610612744,1627780,201939,202357,203110,203952,0022100152,2,1326,1329,0,0,1610612737
88,1610612737,1628381,1628989,1629027,201568,203992,1610612744,1627780,201939,202357,203110,203952,0022100152,2,1340,1340,0,3,1610612744
89,1610612737,1628381,1628989,1629027,201568,203992,1610612744,1627780,201939,202357,203110,203952,0022100152,2,1364,1364,0,0,1610612737
90,1610612737,1628381,1628989,1629027,201568,203992,1610612744,1627780,201939,202357,203110,203952,0022100152,2,1373,1375,0,0,1610612744
91,1610612737,1628381,1628989,1629027,201568,203992,1610612744,1627780,201939,202357,203110,203952,0022100152,2,1382,1382,2,0,1610612737
92,1610612737,1628381,1628989,1629027,201568,203992,1610612744,1627780,201939,202357,203110,203952,0022100152,2,1389,1389,0,2,1610612744
93,1610612737,1628381,1628989,1629027,201568,203992,1610612744,1627780,201939,202357,203110,203952,0022100152,2,1402,1406,0,0,1610612737
94,1610612737,1628381,1628989,1629027,201568,203992,1610612744,1627780,201939,202357,203110,203952,0022100152,2,1409,1409,0,2,1610612744
95,1610612737,1628381,1628989,1629027,201568,203992,1610612744,1627780,1629308,201939,203110,203952,0022100152,2,1427,1427,2,0,1610612737
96,1610612737,1628381,1628989,1629027,201568,203992,1610612744,1627780,1629308,201939,203110,203952,0022100152,2,1437,1437,0,3,1610612744
97,1610612737,1628381,1628989,1629027,201568,203992,1610612744,1627780,1629308,201939,203110,203952,0022100152,2,1440,1440,0,0,1610612744
98,1610612737,1629631,1628381,203991,203992,1629027,1610612744,203952,203110,1626172,1629673,201939,0022100152,3,1440,1456,0,0,1610612737
99,1610612737,1629631,1628381,203991,203992,1629027,1610612744,203952,203110,1626172,1629673,201939,0022100152,3,1471,1474,0,0,1610612744
100,1610612737,1629631,1628381,203991,203992,1629027,1610612744,203952,203110,1626172,1629673,201939,0022100152,3,1481,1481,2,0,1610612737
101,1610612737,1629631,1628381,203991,203992,1629027,1610612744,203952,203110,1626172,1629673,201939,0022100152,3,1494,1496,0,0,1610612744
102,1610612737,1629631,1628381,203991,203992,1629027,1610612744,203952,203110,1626172,1629673,201939,0022100152,3,1511,1511,0,0,1610612737
103,1610612737,1629631,1628381,203991,203992,1629027,1610612744,203952,203110,1626172,1629673,201939,0022100152,3,1517,1517,0,3,1610612744
104,1610612737,1629631,1628381,203991,203992,1629027,1610612744,203952,203110,1626172,1629673,201939,0022100152,3,1537,1539,0,0,1610612737
105,1610612737,1629631,1628381,203991,203992,1629027,1610612744,203952,203110,1626172,1629673,201939,0022100152,3,1543,1543,0,0,1610612744
106,1610612737,1629631,1628381,203991,203992,1629027,1610612744,203952,203110,1626172,1629673,201939,0022100152,3,1553,1553,2,0,1610612737
107,1610612737,1629631,1628381,203991,203992,1629027,1610612744,203952,203110,1626172,1629673,201939,0022100152,3,1571,1571,0,3,1610612744
108,1610612737,1629631,1628381,203991,203992,1629027,1610612744,203952,203110,1626172,1629673,201939,0022100152,3,1578,1580,0,0,1610612737
109,1610612737,1629631,1628381,203991,203992,1629027,1610612744,203952,203110,1626172,1629673,201939,0022100152,3,1586,1586,0,0,1610612744
110,1610612737,1629631,1628381,203991,203992,1629027,1610612744,203952,203110,1626172,1629673,201939,0022100152,3,1588,1595,2,0,1610612737
111,1610612737,1629631,1628381,203991,203992,1629027,1610612744,203952,203110,1626172,1629673,201939,0022100152,3,1612,1623,0,3,1610612744
112,1610612737,1629631,1628381,203991,203992,1629027,1610612744,203952,203110,1626172,1629673,201939,0022100152,3,1635,1635,2,0,1610612737
113,1610612737,1629631,1628381,203991,203992,1629027,1610612744,203952,203110,1626172,1629673,201939,0022100152,3,1648,1648,0,3,1610612744
114,1610612737,1629631,1628381,203991,203992,1629027,1610612744,203952,203110,1626172,1629673,201939,0022100152,3,1662,1662,2,0,1610612737
115,1610612737,1629631,1628381,203991,203992,1629027,1610612744,203952,203110,1626172,1629673,201939,0022100152,3,1668,1668,0,0,1610612744
116,1610612737,1629631,1628381,203991,203992,1629027,1610612744,203952,203110,1626172,1629673,201939,0022100152,3,1689,1690,0,0,1610612737
117,1610612737,1629631,1628381,203991,203992,1629027,1610612744,203952,203110,1626172,1629673,201939,0022100152,3,1694,1694,0,2,1610612744
118,1610612737,1629631,1628381,203991,203992,1629027,1610612744,203952,203110,1626172,1629673,201939,0022100152,3,1694,1710,2,0,1610612737
119,1610612737,1629631,1628381,203991,203992,1629027,1610612744,203952,203110,1626172,1629673,201939,0022100152,3,1729,1731,0,0,1610612744
120,1610612737,1629631,1628381,203991,203992,1629027,1610612744,203952,203110,1626172,1629673,201939,0022100152,3,1744,1747,0,0,1610612737
121,1610612737,1629631,1628381,203991,203992,1629027,1610612744,203952,203110,1626172,1629673,201939,0022100152,3,1756,1756,0,2,1610612744
122,1610612737,1629631,1628381,203991,203992,1629027,1610612744,203952,203110,1626172,1629673,201939,0022100152,3,1770,1770,0,0,1610612737
123,1610612737,1629631,1628381,203991,203992,1629027,1610612744,203952,203110,1626172,1629673,201939,0022100152,3,1781,1781,0,2,1610612744
124,1610612737,1629631,1628381,203991,203992,1629027,1610612744,203952,203110,1626172,1629673,201939,0022100152,3,1802,1802,2,0,1610612737
125,1610612737,1629631,1628381,203991,203992,1629027,1610612744,203952,203110,1626172,1629673,201939,0022100152,3,1812,1812,0,2,1610612744
126,1610612737,1629631,1628381,203991,203992,1629027,1610612744,203952,203110,1626172,1629673,201939,0022100152,3,1824,1826,0,0,1610612737
127,1610612737,1629631,1628381,203991,203992,1629027,1610612744,203952,203110,1626172,1629673,201939,0022100152,3,1834,1834,0,2,1610612744
128,1610612737,1629631,1628381,203991,203992,1629027,1610612744,203952,203110,1626172,1629673,201939,0022100152,3,1846,1846,3,0,1610612737
129,1610612737,1629631,1628381,203991,203992,1629027,1610612744,203952,203110,1626172,1629673,201939,0022100152,3,1852,1852,0,2,1610612744
130,1610612737,1628381,1628989,1629027,201568,203992,1610612744,1626172,1627780,1629673,202357,203952,0022100152,3,1866,1868,0,0,1610612737
131,1610612737,1628381,1628989,1629027,201568,203992,1610612744,1626172,1627780,1629673,202357,203952,0022100152,3,1882,1882,0,2,1610612744
132,1610612737,1628381,1628989,1629027,201568,203992,1610612744,1626172,1627780,1629673,202357,203952,0022100152,3,1903,1905,0,0,1610612737
133,1610612737,1628381,1628989,1629027,201568,203992,1610612744,1626172,1627780,1629673,202357,203952,0022100152,3,1910,1926,0,0,1610612744
134,1610612737,1628381,1628989,1629027,201568,203992,1610612744,1626172,1627780,1629673,202357,203952,0022100152,3,1935,1937,0,0,1610612737
135,1610612737,1628381,1628989,1629027,201568,203992,1610612744,1626172,1627780,1629673,202357,203952,0022100152,3,1942,1949,0,0,1610612744
136,1610612737,1626153,1628989,1629629,201568,203991,1610612744,1627780,201939,202357,203110,2738,0022100152,3,1957,1957,0,0,1610612737
137,1610612737,1626153,1628989,1629629,201568,203991,1610612744,1627780,201939,202357,203110,2738,0022100152,3,1970,1970,0,0,1610612744
138,1610612737,1626153,1628989,1629629,201568,203991,1610612744,1627780,201939,202357,203110,2738,0022100152,3,1989,1991,0,0,1610612737
139,1610612737,1626153,1628989,1629629,201568,203991,1610612744,1627780,201939,202357,203110,2738,0022100152,3,2001,2001,0,0,1610612744
140,1610612737,1626153,1628989,1629629,201568,203991,1610612744,1627780,201939,202357,203110,2738,0022100152,3,2018,2018,0,0,1610612737
141,1610612737,1626153,1628989,1629629,201568,203991,1610612744,1627780,201939,202357,203110,2738,0022100152,3,2023,2023,0,2,1610612744
142,1610612737,1626153,1628989,1629629,201568,203991,1610612744,1627780,201939,202357,203110,2738,0022100152,3,2042,2042,3,0,1610612737
143,1610612737,1626153,1628989,1629629,201568,203991,1610612744,1627780,201939,202357,203110,2738,0022100152,3,2053,2053,0,3,1610612744
144,1610612737,1626153,1628989,1629629,201568,203991,1610612744,1627780,1629308,201939,202357,2738,0022100152,3,2066,2081,0,0,1610612737
145,1610612737,1626153,1628989,1629629,201568,203524,1610612744,1627780,1629308,201939,202357,2738,0022100152,3,2087,2087,0,3,1610612744
146,1610612737,1626153,1628989,1629629,201568,203524,1610612744,1627780,1629308,201939,202357,2738,0022100152,3,2101,2101,0,0,1610612737
147,1610612737,1626153,1628989,1629629,201568,203524,1610612744,1627780,1629308,201939,202357,2738,0022100152,3,2102,2102,0,2,1610612744
148,1610612737,1626153,1628989,1629629,201568,203524,1610612744,1627780,1629308,201939,202357,2738,0022100152,3,2115,2117,0,0,1610612737
149,1610612737,1626153,1628989,1629629,201568,203524,1610612744,1627780,1629308,201939,202357,2738,0022100152,3,2123,2123,0,2,1610612744
150,1610612737,1626153,1629629,201568,203524,203992,1610612744,1627780,1629308,201939,203110,2738,0022100152,3,2136,2138,0,0,1610612737
151,1610612737,1626153,1629629,201568,203524,203992,1610612744,1627780,1629308,201939,203110,2738,0022100152,3,2157,2157,0,3,1610612744
152,1610612737,1626153,1629629,201568,203524,203992,1610612744,1627780,1629308,201939,203110,2738,0022100152,3,2159,2160,0,0,1610612744
153,1610612737,203992,201568,1629629,1626153,203524,1610612744,201939,1627780,2738,1627814,1629308,0022100152,4,2160,2172,0,2,1610612744
154,1610612737,203992,201568,1629629,1626153,203524,1610612744,201939,1627780,2738,1627814,1629308,0022100152,4,2186,2186,3,0,1610612737
155,1610612737,203992,201568,1629629,1626153,203524,1610612744,201939,1627780,2738,1627814,1629308,0022100152,4,2202,2204,0,0,1610612744
156,1610612737,203992,201568,1629629,1626153,203524,1610612744,201939,1627780,2738,1627814,1629308,0022100152,4,2213,2213,0,0,1610612737
157,1610612737,1626153,1628381,1629629,201568,203992,1610612744,201939,1627780,2738,1627814,1629308,0022100152,4,2229,2229,0,3,1610612744
158,1610612737,1626153,1628381,1629629,201568,203992,1610612744,201939,1627780,2738,1627814,1629308,0022100152,4,2248,2248,0,0,1610612737
159,1610612737,1628381,1629027,1629631,203991,203992,1610612744,201939,1627780,2738,1627814,1629308,0022100152,4,2264,2266,0,0,1610612744
160,1610612737,1628381,1629027,1629631,203991,203992,1610612744,201939,1627780,2738,1627814,1629308,0022100152,4,2273,2281,0,0,1610612737
161,1610612737,1628381,1629027,1629631,203991,203992,1610612744,201939,1627780,2738,1627814,1629308,0022100152,4,2285,2285,0,2,1610612744
162,1610612737,1628381,1629027,1629631,203991,203992,1610612744,201939,1627780,2738,1627814,1629308,0022100152,4,2285,2289,0,0,1610612737
163,1610612737,1628381,1629027,1629631,203991,203992,1610612744,201939,1627780,2738,1627814,1629308,0022100152,4,2293,2294,0,0,1610612744
164,1610612737,1628381,1629027,1629631,203991,203992,1610612744,201939,1627780,2738,1627814,1629308,0022100152,4,2305,2305,3,0,1610612737
165,1610612737,1628381,1629027,1629631,203991,203992,1610612744,201939,1627780,2738,1627814,1629308,0022100152,4,2333,2335,0,0,1610612744
166,1610612737,1628381,1629027,1629631,203991,203992,1610612744,201939,1627780,2738,1627814,1629308,0022100152,4,2344,2344,1,0,1610612737
167,1610612737,1628381,1629027,1629631,203991,203992,1610612744,201939,1627780,2738,1627814,1629308,0022100152,4,2364,2367,0,0,1610612744
168,1610612737,1628381,1629027,1629631,203991,203992,1610612744,201939,1627780,2738,1627814,1629308,0022100152,4,2381,2383,0,0,1610612737
169,1610612737,1628381,1629027,1629631,203991,203992,1610612744,201939,1627780,2738,1627814,1629308,0022100152,4,2388,2390,0,0,1610612744
170,1610612737,1628381,1629027,1629631,203991,203992,1610612744,201939,1627780,2738,1627814,1629308,0022100152,4,2397,2397,3,0,1610612737
171,1610612737,1628381,1629027,1629631,203991,203992,1610612744,201939,1627780,2738,1627814,1629308,0022100152,4,2408,2415,0,3,1610612744
172,1610612737,1628381,1629027,1629631,203991,203992,1610612744,1627780,1627814,201939,203110,2738,0022100152,4,2432,2443,0,0,1610612737
173,1610612737,1628381,1629027,1629631,203991,203992,1610612744,1627780,1627814,201939,203110,2738,0022100152,4,2447,2447,0,0,1610612744
174,1610612737,1628381,1629027,1629631,203991,203992,1610612744,1627780,1627814,201939,203110,2738,0022100152,4,2456,2456,1,0,1610612737
175,1610612737,1628381,1629027,1629631,203991,203992,1610612744,1627780,1627814,201939,203110,2738,0022100152,4,2469,2469,0,3,1610612744
176,1610612737,1628381,1629027,1629631,203991,203992,1610612744,1627780,1627814,201939,203110,2738,0022100152,4,2481,2488,0,0,1610612737
177,1610612737,1628381,1628989,1629027,1629631,203992,1610612744,1627780,1627814,201939,203110,2738,0022100152,4,2490,2493,0,0,1610612744
178,1610612737,1628381,1628989,1629027,1629631,203992,1610612744,1627780,1627814,201939,203110,2738,0022100152,4,2505,2507,0,0,1610612737
179,1610612737,1628381,1628989,1629027,1629631,203992,1610612744,1627780,1627814,201939,203110,2738,0022100152,4,2525,2532,0,0,1610612744
180,1610612737,1628381,1628989,1629027,1629631,203992,1610612744,1627780,1627814,201939,203110,2738,0022100152,4,2532,2542,0,0,1610612737
181,1610612737,1628381,1628989,1629027,1629631,203992,1610612744,1627814,1629673,201939,203110,2738,0022100152,4,2558,2565,0,0,1610612744
182,1610612737,1628381,1628989,1629027,1629631,203992,1610612744,1627814,1629673,201939,203110,2738,0022100152,4,2570,2572,0,0,1610612737
183,1610612737,1628381,1628989,1629027,1629631,203992,1610612744,1627814,1629673,201939,203110,2738,0022100152,4,2580,2580,0,2,1610612744
184,1610612737,1628381,1628989,1629027,1629631,203992,1610612744,1627814,1629673,201939,203110,2738,0022100152,4,2580,2599,0,0,1610612737
185,1610612737,1626153,1627789,1628989,203476,203524,1610612744,1627814,1629673,201939,203110,203952,0022100152,4,2617,2617,0,2,1610612744
186,1610612737,1626153,1627789,1628989,203476,203524,1610612744,1627814,1629673,201939,203110,203952,0022100152,4,2629,2629,3,0,1610612737
187,1610612737,1626153,1627789,1628989,203476,203524,1610612744,1627814,1629673,201939,203110,203952,0022100152,4,2641,2641,0,2,1610612744
188,1610612737,1626153,1627789,1628989,203476,203524,1610612744,1627814,1629673,201939,203110,203952,0022100152,4,2648,2648,2,0,1610612737
189,1610612737,1626153,1627789,1628989,203476,203524,1610612744,1627814,1629308,1629673,1630228,1630288,0022100152,4,2663,2665,0,0,1610612744
190,1610612737,1626153,1627789,1628989,203476,203524,1610612744,1627814,1629308,1629673,1630228,1630288,0022100152,4,2673,2673,3,0,1610612737
191,1610612737,1626153,1627789,1628989,203476,203524,1610612744,1627814,1629308,1629673,1630228,1630288,0022100152,4,2690,2690,0,3,1610612744
192,1610612737,1626153,1627789,1628989,203476,203524,1610612744,1627814,1629308,1629673,1630228,1630288,0022100152,4,2703,2703,1,0,1610612737
193,1610612737,1626153,1627789,1628989,203476,203524,1610612744,1629308,1629673,1630228,1630288,1630541,0022100152,4,2723,2723,0,0,1610612744
194,1610612737,1626153,1627789,1628989,203476,203524,1610612744,1629308,1629673,1630228,1630288,1630541,0022100152,4,2743,2757,3,0,1610612737
195,1610612737,1626153,1627789,1628989,203476,203524,1610612744,1629308,1629673,1630228,1630288,1630541,0022100152,4,2767,2767,0,0,1610612744
196,1610612737,1626153,1627789,1628989,203476,203524,1610612744,1629308,1629673,1630228,1630288,1630541,0022100152,4,2771,2773,0,0,1610612737
197,1610612737,1626153,1627789,1628989,203476,203524,1610612744,1629308,1629673,1630228,1630288,1630541,0022100152,4,2788,2788,0,3,1610612744
198,1610612737,1626153,1627789,1628989,203476,203524,1610612744,1629308,1629673,1630228,1630288,1630541,0022100152,4,2796,2798,0,0,1610612737
199,1610612737,1626153,1627789,1628989,203476,203524,1610612744,1629308,1629673,1630228,1630288,1630541,0022100152,4,2805,2807,0,0,1610612744
200,1610612737,1626153,1627789,1628989,203476,203524,1610612744,1629308,1629673,1630228,1630288,1630541,0022100152,4,2815,2815,3,0,1610612737
201,1610612737,1626153,1627789,1628989,203476,203524,1610612744,1629308,1629673,1630228,1630288,1630541,0022100152,4,2827,2829,0,0,1610612744
202,1610612737,1626153,1627789,1628989,203476,203524,1610612744,1629308,1629673,1630228,1630288,1630541,0022100152,4,2835,2835,2,0,1610612737
203,1610612737,1626153,1627789,1628989,203476,203524,1610612744,1629308,1629673,1630228,1630288,1630541,0022100152,4,2856,2858,0,0,1610612744
