,stint_end,t1_players,t2_pm,t2_points_scored,stint_start,t1_pm,t1_points_scored,t2_id,t1_id,t2_players,margin_per_100,num_poss
0,405,"[1627736, 1629633, 1629675, 1626156, 201937]",-6,14,0,6,20,1610612746,1610612750,"[202331, 201587, 201586, 1628379, 201976]",20.689655172413794,29.0
1,422,"[1627736, 1629633, 1629675, 1626156, 201937]",-6,14,406,6,20,1610612746,1610612750,"[202331, 201587, 201586, 1628379, 201976]",20.0,30.0
2,447,"[1626156, 1629633, 1629675, 1630162, 201937]",-6,16,423,6,22,1610612746,1610612750,"[101150, 201586, 201587, 201976, 202331]",18.75,32.0
3,550,"[1626156, 1629162, 1629633, 1629675, 1630162]",-2,23,448,2,25,1610612746,1610612750,"[101150, 1627826, 201587, 201976, 202331]",5.263157894736842,38.0
4,636,"[1626156, 1629162, 1629633, 1629675, 1630162]",-1,27,551,1,28,1610612746,1610612750,"[101150, 1627826, 201587, 202331, 202704]",2.272727272727273,44.0
5,719,"[1627736, 1629162, 1629633, 1630162, 202334]",4,33,637,-4,29,1610612746,1610612750,"[101150, 1627826, 1629611, 202331, 202704]",-8.16326530612245,49.0
6,940,"[1627736, 1627774, 1629162, 1630162, 202334]",7,46,720,-7,39,1610612746,1610612750,"[101150, 1627826, 1628379, 1629611, 202704]",-10.606060606060606,66.0
7,979,"[1626156, 1630162, 202334, 1627774, 1627823]",10,49,941,-10,39,1610612746,1610612750,"[1628379, 101150, 1627826, 202704, 1629611]",-14.492753623188406,69.0
8,1087,"[1626156, 1627823, 1629633, 1630162, 202334]",14,55,980,-14,41,1610612746,1610612750,"[1628379, 101150, 1627826, 202704, 1629611]",-18.421052631578945,76.0
9,1107,"[1627736, 1627823, 1629633, 1629675, 201937]",11,55,1088,-11,44,1610612746,1610612750,"[1627826, 1628379, 1629611, 202331, 202704]",-14.285714285714285,77.0
10,1402,"[1627736, 1627823, 1629633, 1629675, 201937]",20,70,1108,-20,50,1610612746,1610612750,"[1627826, 1628379, 1629611, 201976, 202331]",-20.618556701030926,97.0
11,1431,"[1626156, 1627736, 1629633, 1629675, 201937]",20,70,1403,-20,50,1610612746,1610612750,"[101150, 201586, 201587, 201976, 202331]",-20.2020202020202,99.0
12,1622,"[1626156, 1627736, 1629633, 1629675, 201937]",22,80,1432,-22,58,1610612746,1610612750,"[1628379, 1629611, 201586, 201587, 202704]",-19.469026548672566,113.0
13,1722,"[1627736, 1629633, 1629675, 1626156, 201937]",21,82,1623,-21,61,1610612746,1610612750,"[202331, 201587, 201586, 1628379, 201976]",-17.796610169491526,118.0
14,1840,"[1626156, 1627736, 1629020, 1629633, 201937]",27,91,1723,-27,64,1610612746,1610612750,"[202331, 201587, 201586, 1628379, 201976]",-21.6,125.0
15,1983,"[1626156, 1627736, 1629020, 1630162, 201937]",28,96,1841,-28,68,1610612746,1610612750,"[202331, 201587, 201586, 1628379, 201976]",-20.74074074074074,135.0
16,2089,"[1626156, 1627774, 1629020, 1629162, 1630162]",29,103,1984,-29,74,1610612746,1610612750,"[101150, 201586, 201587, 201976, 202331]",-20.27972027972028,143.0
17,2156,"[1626156, 1627774, 1629020, 1629162, 1630162]",29,105,2090,-29,76,1610612746,1610612750,"[101150, 1627826, 1629611, 202331, 202704]",-19.727891156462583,147.0
18,2202,"[1626156, 1627774, 1629162, 1630162, 202334]",31,107,2157,-31,76,1610612746,1610612750,"[101150, 1627826, 1628379, 1629611, 202704]",-20.52980132450331,151.0
19,2320,"[1627736, 201937, 202334, 1627774, 1627823]",29,111,2203,-29,82,1610612746,1610612750,"[1628379, 101150, 1627826, 202704, 1629611]",-18.354430379746837,158.0
20,2408,"[1627736, 201937, 202334, 1627774, 1627823]",28,114,2321,-28,86,1610612746,1610612750,"[1627826, 1628379, 1629599, 1629611, 202704]",-17.177914110429448,163.0
21,2430,"[1627736, 1627823, 1629633, 201937, 202334]",28,114,2409,-28,86,1610612746,1610612750,"[1627826, 1628379, 1629599, 1629611, 202704]",-16.969696969696972,165.0
22,2463,"[1627823, 1629020, 1629162, 1629633, 1630162]",28,114,2431,-28,86,1610612746,1610612750,"[1628379, 1629599, 1629611, 1629662, 202704]",-16.766467065868262,167.0
23,2870,"[1627823, 1629020, 1629162, 1630162, 1630183]",23,124,2464,-23,101,1610612746,1610612750,"[1628379, 1629599, 1629611, 1629662, 202704]",-11.855670103092782,194.0
24,9999999,"[1627823, 1629020, 1629162, 1630162, 1630183]",23,124,2871,-23,101,1610612746,1610612750,"[1629599, 1629611, 1629662, 1630187, 202704]",-11.794871794871794,195.0
