,stint_start,t1_points_scored,t2_pm,stint_end,t1_id,t2_points_scored,t1_players,t2_id,t1_pm,t2_players,margin_per_100,num_poss
0,0,9,4,347,1610612762,13,"[204060, 1626220, 203497, 1628378, 201144]",1610612743,-4,"[203924, 200794, 203999, 1628420, 1627750]",-19.047619047619047,21.0
1,348,13,4,472,1610612762,17,"[204060, 1626220, 203497, 1628378, 201144]",1610612743,-4,"[203924, 200794, 203999, 1628420, 1627750]",-14.814814814814813,27.0
2,473,13,4,492,1610612762,17,"[1626220, 1628378, 203497, 203903, 204060]",1610612743,-4,"[203924, 200794, 203999, 1628420, 1627750]",-14.285714285714285,28.0
3,493,13,8,551,1610612762,21,"[1626220, 1627777, 1628378, 203497, 203903]",1610612743,-8,"[1628420, 1628470, 1629008, 203924, 203999]",-25.0,32.0
4,552,21,5,716,1610612762,26,"[1627777, 1628378, 201144, 203497, 203903]",1610612743,-5,"[1628420, 1628470, 1629008, 203924, 203999]",-11.627906976744185,43.0
5,717,23,9,872,1610612762,32,"[1627777, 1628378, 201144, 203497, 203903]",1610612743,-9,"[1627750, 1628470, 1629008, 203914, 203999]",-16.666666666666664,54.0
6,873,23,14,988,1610612762,37,"[204060, 201144, 203903, 1627777, 1629752]",1610612743,-14,"[1627750, 1629008, 1628470, 203914, 203486]",-22.950819672131146,61.0
7,989,26,11,1025,1610612762,37,"[1626220, 1628378, 203497, 203903, 204060]",1610612743,-11,"[1627750, 1629008, 1628470, 203914, 203486]",-17.1875,64.0
8,1026,27,15,1124,1610612762,42,"[1626220, 1628378, 201144, 203497, 203903]",1610612743,-15,"[1628420, 1628470, 1629008, 203914, 203999]",-21.428571428571427,70.0
9,1125,30,16,1209,1610612762,46,"[1626220, 1628378, 1629752, 201144, 203903]",1610612743,-16,"[1628420, 1628470, 1629008, 203924, 203999]",-21.052631578947366,76.0
10,1210,30,16,1279,1610612762,46,"[1626220, 1629752, 201144, 203903, 204060]",1610612743,-16,"[1628420, 1628470, 1629008, 203924, 203999]",-20.0,80.0
11,1280,33,17,1384,1610612762,50,"[1626220, 1629752, 201144, 203903, 204060]",1610612743,-17,"[1627750, 1628420, 1628470, 203924, 203999]",-19.318181818181817,88.0
12,1385,36,14,1439,1610612762,50,"[1626220, 1628378, 201144, 203903, 204060]",1610612743,-14,"[1627750, 1628420, 1628470, 203924, 203999]",-15.384615384615385,91.0
13,1440,48,10,1828,1610612762,58,"[1626220, 1628378, 201144, 203903, 204060]",1610612743,-10,"[1627750, 1628420, 1628470, 203914, 203924]",-8.547008547008547,117.0
14,1829,55,5,2000,1610612762,60,"[204060, 1626220, 203497, 1628378, 201144]",1610612743,-5,"[203924, 200794, 203999, 1628420, 1627750]",-3.937007874015748,127.0
15,2001,55,7,2037,1610612762,62,"[1626220, 1628378, 203497, 203903, 204060]",1610612743,-7,"[1627750, 1628470, 203914, 203924, 203999]",-5.426356589147287,129.0
16,2038,57,8,2097,1610612762,65,"[1626220, 1628378, 203497, 203903, 204060]",1610612743,-8,"[1628420, 1628470, 1629008, 203914, 203999]",-6.015037593984962,133.0
17,2098,60,5,2159,1610612762,65,"[1626220, 1628378, 201144, 203497, 203903]",1610612743,-5,"[1628420, 1628470, 1629008, 203914, 203999]",-3.64963503649635,137.0
18,2160,60,5,2223,1610612762,65,"[1626220, 1628378, 201144, 203497, 203903]",1610612743,-5,"[1627750, 1628470, 1629008, 203486, 203914]",-3.546099290780142,141.0
19,2224,62,3,2286,1610612762,65,"[1626220, 203497, 1628378, 201144, 203903]",1610612743,-3,"[1627750, 1629008, 1628470, 203914, 203486]",-2.083333333333333,144.0
20,2287,76,2,2811,1610612762,78,"[1626220, 1628378, 201144, 203497, 204060]",1610612743,-2,"[1627750, 1629008, 1628470, 203914, 203486]",-1.1695906432748537,171.0
21,2812,76,2,2832,1610612762,78,"[1626220, 1628378, 201144, 203497, 204060]",1610612743,-2,"[1627750, 1628470, 203914, 203924, 203999]",-1.1627906976744187,172.0
22,2833,78,2,2857,1610612762,80,"[1626220, 1628378, 201144, 203497, 204060]",1610612743,-2,"[1627750, 1628470, 203486, 203914, 203924]",-1.1494252873563218,174.0
23,2858,78,2,2879,1610612762,80,"[1626220, 1628378, 201144, 203497, 204060]",1610612743,-2,"[1627750, 1628470, 203914, 203924, 203999]",-1.1363636363636365,176.0
24,2880,78,2,9999999,1610612762,80,"[1626220, 1628378, 201144, 203497, 204060]",1610612743,-2,"[1627750, 1628470, 203486, 203914, 203924]",-1.1299435028248588,177.0
