,TEAM_ID_1,TEAM_1_PLAYERS,TEAM_ID_2,TEAM_2_PLAYERS,PERIOD
0,1610612752,[ 203944  202694 1629011 1629628 1628373],1610612738,[1628369  202330 1628464  203935  202689],1
1,1610612752,[ 203944 1628373 1626171 1628995  201961],1610612738,[1628369 1628464 1629684 1629035  202954],2
2,1610612752,[ 203944  202694 1629011 1629628 1628373],1610612738,[1628369  202330 1628464  203935  202689],3
3,1610612752,[ 203944  202694 1628373 1628995  201961],1610612738,[1628369 1629684 1628400 1629035  202954],4
