,t1_points_scored,t2_players,t1_pm,t2_id,stint_end,t1_id,t1_players,stint_start,t2_points_scored,t2_pm,margin_per_100,num_poss
0,8,"[203200, 1627734, 1626167, 1630537, 1627763]",-1,1610612754,247,1610612748,"[202710, 200782, 1628389, 1629130, 1629216]",0,9,1,-5.88235294117647,17.0
1,15,"[203200, 1627734, 1626167, 1630537, 1627763]",4,1610612754,425,1610612748,"[202710, 200782, 1628389, 1629130, 1629216]",248,11,-4,14.285714285714285,28.0
2,15,"[1626167, 1627763, 1628470, 1630537, 203200]",2,1610612754,459,1610612748,"[202710, 200782, 1628389, 1629130, 1629216]",426,13,-2,6.25,32.0
3,15,"[1627734, 1627763, 1628470, 1630537, 203200]",2,1610612754,496,1610612748,"[1628389, 1629130, 1629216, 1629639, 200782]",460,13,-2,6.0606060606060606,33.0
4,15,"[1627734, 1627763, 1628470, 203087, 204456]",2,1610612754,524,1610612748,"[1628389, 1629130, 1629216, 1629639, 200782]",497,13,-2,5.714285714285714,35.0
5,24,"[1627734, 1627763, 1628470, 203087, 204456]",-4,1610612754,719,1610612748,"[1629130, 1629216, 1629639, 200782, 203473]",525,28,4,-8.333333333333332,48.0
6,32,"[1627734, 1627763, 1628470, 203087, 204456]",-5,1610612754,870,1610612748,"[1629216, 1629622, 1629639, 202693, 203473]",720,37,5,-8.47457627118644,59.0
7,32,"[1627734, 1630537, 204456, 203087, 1629052]",-9,1610612754,949,1610612748,"[202710, 1629639, 203473, 202693, 1629622]",871,41,9,-14.0625,64.0
8,35,"[1626167, 1629052, 1630537, 203087, 204456]",-9,1610612754,1013,1610612748,"[1628389, 1629622, 1629639, 202693, 202710]",950,44,9,-13.043478260869565,69.0
9,35,"[1626167, 1629052, 1630537, 203200, 204456]",-12,1610612754,1088,1610612748,"[1628389, 1629130, 1629639, 202693, 202710]",1014,47,12,-16.666666666666664,72.0
10,37,"[1626167, 1629052, 1630537, 203200, 204456]",-10,1610612754,1110,1610612748,"[1628389, 1629130, 1629639, 200782, 202710]",1089,47,10,-13.513513513513514,74.0
11,39,"[1626167, 1627763, 1629052, 203200, 204456]",-10,1610612754,1179,1610612748,"[1628389, 1629130, 1629639, 200782, 202710]",1111,49,10,-12.82051282051282,78.0
12,41,"[1627734, 1627763, 1629052, 203087, 203200]",-8,1610612754,1216,1610612748,"[1628389, 1629130, 1629639, 200782, 202710]",1180,49,8,-9.876543209876543,81.0
13,43,"[1627734, 1627763, 1629052, 203087, 203200]",-10,1610612754,1334,1610612748,"[1628389, 1629130, 1629216, 1629639, 200782]",1217,53,10,-11.363636363636363,88.0
14,43,"[1626167, 1627734, 1627763, 1630537, 203200]",-10,1610612754,1354,1610612748,"[1628389, 1629130, 1629216, 1629639, 200782]",1335,53,10,-10.989010989010989,91.0
15,46,"[1626167, 1627734, 1627763, 1630537, 203200]",-7,1610612754,1404,1610612748,"[1628389, 1629130, 1629639, 200782, 202710]",1355,53,7,-7.526881720430108,93.0
16,46,"[1627734, 1627763, 1629052, 1630537, 203200]",-9,1610612754,1439,1610612748,"[1628389, 1629130, 1629639, 200782, 202710]",1405,55,9,-9.473684210526317,95.0
17,46,"[1627763, 1629052, 1630537, 1630543, 203200]",-10,1610612754,1476,1610612748,"[1629130, 1629622, 1629639, 202710, 203473]",1440,56,10,-10.204081632653061,98.0
18,52,"[203200, 1627734, 1626167, 1630537, 1627763]",-10,1610612754,1723,1610612748,"[202710, 200782, 1628389, 1629130, 1629216]",1477,62,10,-8.849557522123893,113.0
19,56,"[1627734, 1627763, 1629052, 1630537, 203200]",-6,1610612754,1854,1610612748,"[202710, 200782, 1628389, 1629130, 1629216]",1724,62,6,-4.958677685950414,121.0
20,58,"[1627734, 1627763, 1629052, 1630537, 203200]",-4,1610612754,1984,1610612748,"[1628389, 1629130, 1629639, 200782, 202710]",1855,62,4,-3.10077519379845,129.0
21,58,"[1627734, 1627763, 1629052, 203087, 204456]",-4,1610612754,2029,1610612748,"[1629130, 1629639, 200782, 202710, 203473]",1985,62,4,-3.007518796992481,133.0
22,63,"[1627734, 1629052, 1630537, 203087, 204456]",-1,1610612754,2122,1610612748,"[1629130, 1629639, 200782, 202710, 203473]",2030,64,1,-0.7142857142857143,140.0
23,63,"[1627734, 1629052, 1630537, 203087, 204456]",-1,1610612754,2158,1610612748,"[1629622, 1629639, 202693, 202710, 203473]",2123,64,1,-0.6993006993006993,143.0
24,69,"[1628470, 1630537, 1630543, 203087, 204456]",3,1610612754,2277,1610612748,"[1628389, 1629216, 1629622, 1629639, 202693]",2159,66,-3,1.9867549668874174,151.0
25,71,"[1626167, 1627763, 1628470, 204456, 203087]",5,1610612754,2322,1610612748,"[1628389, 1629216, 1629639, 202693, 1629622]",2278,66,-5,3.225806451612903,155.0
26,74,"[1627734, 1627763, 1628470, 203087, 204456]",4,1610612754,2443,1610612748,"[1628389, 1629216, 1629639, 202693, 1629622]",2323,70,-4,2.4539877300613497,163.0
27,76,"[1627734, 1627763, 1630537, 203200, 204456]",3,1610612754,2497,1610612748,"[1628389, 1629216, 1629639, 202693, 1629622]",2444,73,-3,1.7964071856287425,167.0
28,78,"[1627734, 1627763, 1630537, 203200, 204456]",2,1610612754,2567,1610612748,"[1629622, 1629639, 202693, 202710, 203473]",2498,76,-2,1.1627906976744187,172.0
29,80,"[1627734, 1629052, 1630537, 203200, 204456]",1,1610612754,2639,1610612748,"[1629622, 1629639, 202693, 202710, 203473]",2568,79,-1,0.5649717514124294,177.0
30,86,"[1627734, 1629052, 1630537, 203200, 204456]",0,1610612754,2843,1610612748,"[1628389, 1629130, 1629639, 200782, 202710]",2640,86,0,0.0,190.0
31,86,"[1627734, 1627763, 1629052, 1630537, 203200]",0,1610612754,2876,1610612748,"[1628389, 1629130, 1629639, 200782, 202710]",2844,86,0,0.0,191.0
32,91,"[1626167, 1627734, 1627763, 1630537, 203200]",-7,1610612754,3127,1610612748,"[1628389, 1629130, 1629639, 200782, 202710]",2877,98,7,-3.3980582524271843,206.0
33,91,"[203200, 1627734, 1630537, 1627763, 1629052]",-9,1610612754,3138,1610612748,"[202710, 200782, 1628389, 1629130, 1629639]",3128,100,9,-4.3478260869565215,207.0
34,91,"[1627734, 1627763, 1628470, 1629052, 203200]",-9,1610612754,3161,1610612748,"[202710, 200782, 1628389, 1629130, 1629639]",3139,100,9,-4.326923076923077,208.0
35,91,"[1627734, 1627763, 1629052, 1630537, 203200]",-11,1610612754,3166,1610612748,"[202710, 200782, 1628389, 1629130, 1629639]",3162,102,11,-5.263157894736842,209.0
36,91,"[1629052, 1630537, 1630543, 203200, 204456]",-11,1610612754,9999999,1610612748,"[202710, 200782, 1628389, 1629130, 1629639]",3167,102,11,-5.238095238095238,210.0
