,stint_end,t1_players,t2_pm,t2_points_scored,stint_start,t1_pm,t1_points_scored,t2_id,t1_id,t2_players,margin_per_100,num_poss
0,396,"[202710, 203482, 1628389, 1629130, 1629134]",-5,12,0,5,17,1610612758,1610612748,"[203922, 202357, 1628963, 1627741, 1628368]",18.51851851851852,27.0
1,409,"[202710, 203482, 1628389, 1629130, 1629134]",-3,14,397,3,17,1610612758,1610612748,"[203922, 202357, 1628963, 1627741, 1628368]",10.714285714285714,28.0
2,447,"[1629134, 1629639, 1630173, 202710, 203482]",-8,14,410,8,22,1610612758,1610612748,"[1628368, 1628963, 1630169, 202357, 203922]",25.806451612903224,31.0
3,554,"[1629134, 1629639, 1630173, 202710, 203482]",-11,14,448,11,25,1610612758,1610612748,"[1628368, 1630169, 202355, 202357, 203922]",26.82926829268293,41.0
4,613,"[1629134, 1629639, 1630173, 202710, 203482]",-12,15,555,12,27,1610612758,1610612748,"[1628368, 1630169, 202355, 202709, 203922]",26.08695652173913,46.0
5,646,"[1629130, 1629134, 1629639, 1630173, 2738]",-12,15,614,12,27,1610612758,1610612748,"[1627741, 1628368, 1630169, 202355, 202709]",25.0,48.0
6,667,"[1628389, 1629130, 1629134, 1629639, 2738]",-9,18,647,9,27,1610612758,1610612748,"[1627741, 1629657, 1630169, 202355, 202709]",18.0,50.0
7,696,"[1628389, 1629130, 1629216, 1629639, 2738]",-8,21,668,8,29,1610612758,1610612748,"[1627741, 1629657, 1630169, 202355, 202709]",15.384615384615385,52.0
8,719,"[1628389, 1629130, 1629134, 1629216, 2738]",-10,21,697,10,31,1610612758,1610612748,"[1627741, 1629657, 1630169, 202355, 202709]",18.867924528301888,53.0
9,804,"[1628389, 1629130, 1629134, 1629216, 2738]",-13,21,720,13,34,1610612758,1610612748,"[1627741, 1628368, 1629657, 1630169, 202355]",22.413793103448278,58.0
10,916,"[1628389, 1629130, 1629134, 2738, 1629216]",-11,25,805,11,36,1610612758,1610612748,"[202357, 1630169, 202355, 202709, 1629657]",16.417910447761194,67.0
11,968,"[1628389, 1629130, 1629216, 1629639, 2738]",-13,25,917,13,38,1610612758,1610612748,"[202357, 1630169, 202355, 202709, 1629657]",18.571428571428573,70.0
12,1022,"[1628389, 1629130, 1629216, 1629639, 2738]",-13,27,969,13,40,1610612758,1610612748,"[1627741, 1628368, 1628963, 1630169, 202357]",17.80821917808219,73.0
13,1056,"[1628389, 1629130, 1629639, 202710, 2738]",-11,29,1023,11,40,1610612758,1610612748,"[1627741, 1628368, 1628963, 1630169, 202357]",14.666666666666666,75.0
14,1133,"[1628389, 1629130, 1629639, 202710, 2738]",-11,31,1057,11,42,1610612758,1610612748,"[1627741, 1628368, 1628963, 202357, 203922]",14.102564102564102,78.0
15,1190,"[1629130, 1629639, 1630173, 202710, 203482]",-7,35,1134,7,42,1610612758,1610612748,"[1627741, 1628368, 1628963, 202357, 203922]",8.536585365853659,82.0
16,1251,"[1629134, 1629639, 1630173, 202710, 203482]",-8,38,1191,8,46,1610612758,1610612748,"[1627741, 1628368, 1628963, 202357, 203922]",9.195402298850574,87.0
17,1439,"[1628389, 1629134, 1629639, 202710, 2738]",-14,43,1252,14,57,1610612758,1610612748,"[1627741, 1628368, 1628963, 202357, 203922]",13.861386138613863,101.0
18,1839,"[1628389, 1629134, 1629639, 202710, 2738]",-20,58,1440,20,78,1610612758,1610612748,"[1627741, 1630169, 202355, 202357, 203922]",15.151515151515152,132.0
19,2154,"[202710, 203482, 1628389, 1629130, 1629134]",-10,79,1840,10,89,1610612758,1610612748,"[203922, 202357, 1628963, 1627741, 1628368]",6.535947712418301,153.0
20,2355,"[1629134, 1629639, 1630173, 202710, 203482]",-18,84,2155,18,102,1610612758,1610612748,"[1628368, 1628963, 1629610, 1630169, 202709]",10.843373493975903,166.0
21,2458,"[1628389, 1629130, 1629639, 2738, 1629216]",-16,89,2356,16,105,1610612758,1610612748,"[1630169, 202355, 202709, 1629657, 1629610]",9.195402298850574,174.0
22,2589,"[1628389, 1629130, 1629639, 2738, 1629216]",-18,91,2459,18,109,1610612758,1610612748,"[1628368, 1629610, 1630169, 202357, 202709]",9.89010989010989,182.0
23,2802,"[1628389, 1629130, 1629639, 202710, 2738]",-16,102,2590,16,118,1610612758,1610612748,"[1628368, 1629610, 1630169, 202357, 202709]",8.290155440414509,193.0
24,2825,"[1628389, 1629130, 1629639, 202710, 2738]",-13,105,2803,13,118,1610612758,1610612748,"[1629610, 1629713, 1630169, 202357, 202709]",6.666666666666667,195.0
25,2877,"[1629134, 1629216, 1629639, 1629644, 1630173]",-8,110,2826,8,118,1610612758,1610612748,"[1629610, 1629713, 1630169, 202357, 202709]",4.040404040404041,198.0
26,9999999,"[1629134, 1629216, 1629639, 1629644, 1630173]",-8,110,2878,8,118,1610612758,1610612748,"[1629610, 1629657, 1629713, 202357, 202709]",4.0201005025125625,199.0
