,team1_id,team1_player1,team1_player2,team1_player3,team1_player4,team1_player5,team2_id,team2_player1,team2_player2,team2_player3,team2_player4,team2_player5,game_id,period,possession_start,possession_end,team1_points,team2_points,possession_team
0,1610612742,1627827,1628467,203939,203501,1629029,1610612744,203922,203110,1629016,202692,1626156,0021900602,1,0,15,0,0,1610612744
1,1610612742,1627827,1628467,203939,203501,1629029,1610612744,203922,203110,1629016,202692,1626156,0021900602,1,36,38,2,0,1610612742
2,1610612742,1627827,1628467,203939,203501,1629029,1610612744,203922,203110,1629016,202692,1626156,0021900602,1,45,52,0,3,1610612744
3,1610612742,1627827,1628467,203939,203501,1629029,1610612744,203922,203110,1629016,202692,1626156,0021900602,1,69,69,3,0,1610612742
4,1610612742,1627827,1628467,203939,203501,1629029,1610612744,203922,203110,1629016,202692,1626156,0021900602,1,82,83,0,0,1610612744
5,1610612742,1627827,1628467,203939,203501,1629029,1610612744,203922,203110,1629016,202692,1626156,0021900602,1,96,98,0,0,1610612742
6,1610612742,1627827,1628467,203939,203501,1629029,1610612744,203922,203110,1629016,202692,1626156,0021900602,1,106,108,0,0,1610612744
7,1610612742,1627827,1628467,203939,203501,1629029,1610612744,203922,203110,1629016,202692,1626156,0021900602,1,115,118,2,0,1610612742
8,1610612742,1627827,1628467,203939,203501,1629029,1610612744,203922,203110,1629016,202692,1626156,0021900602,1,132,132,0,2,1610612744
9,1610612742,1627827,1628467,203939,203501,1629029,1610612744,203922,203110,1629016,202692,1626156,0021900602,1,150,150,3,0,1610612742
10,1610612742,1627827,1628467,203939,203501,1629029,1610612744,203922,203110,1629016,202692,1626156,0021900602,1,166,166,0,2,1610612744
11,1610612742,1627827,1628467,203939,203501,1629029,1610612744,203922,203110,1629016,202692,1626156,0021900602,1,179,181,0,0,1610612742
12,1610612742,1627827,1628467,203939,203501,1629029,1610612744,203922,203110,1629016,202692,1626156,0021900602,1,196,198,0,0,1610612744
13,1610612742,1627827,1628467,203939,203501,1629029,1610612744,203922,203110,1629016,202692,1626156,0021900602,1,220,220,2,0,1610612742
14,1610612742,1627827,1628467,203939,203501,1629029,1610612744,203922,203110,1629016,202692,1626156,0021900602,1,237,237,0,2,1610612744
15,1610612742,1627827,1628467,203939,203501,1629029,1610612744,203922,203110,1629016,202692,1626156,0021900602,1,252,252,2,0,1610612742
16,1610612742,1627827,1628467,203939,203501,1629029,1610612744,203922,203110,1629016,202692,1626156,0021900602,1,261,261,0,0,1610612744
17,1610612742,1627827,1628467,203939,203501,1629029,1610612744,203922,203110,1629016,202692,1626156,0021900602,1,266,266,2,0,1610612742
18,1610612742,1627827,1628467,203939,203501,1629029,1610612744,203922,203110,1629016,202692,1626156,0021900602,1,266,282,0,2,1610612744
19,1610612742,1627827,1628467,203939,203501,1629029,1610612744,203922,203110,1629016,202692,1626156,0021900602,1,300,300,0,0,1610612742
20,1610612742,1627827,1628467,203939,203501,1629029,1610612744,203922,203110,1629016,202692,1626156,0021900602,1,306,306,0,2,1610612744
21,1610612742,1627827,1628467,203939,203501,1629029,1610612744,203922,203110,1629016,202692,1626156,0021900602,1,313,313,3,0,1610612742
22,1610612742,1627827,1628467,203939,203501,1629029,1610612744,203922,203110,1629016,202692,1626156,0021900602,1,340,341,0,0,1610612744
23,1610612742,1627827,1628467,203939,203501,1629029,1610612744,203922,203110,1629016,202692,1626156,0021900602,1,348,348,3,0,1610612742
24,1610612742,1626153,1627827,1628467,203501,203939,1610612744,1626156,1628980,1629016,203110,203922,0021900602,1,372,373,0,0,1610612744
25,1610612742,1626153,1627827,1628467,203501,203939,1610612744,1626156,1628980,1629016,203110,203922,0021900602,1,386,386,3,0,1610612742
26,1610612742,1626153,1627827,1628467,203501,203939,1610612744,1626156,1628980,1629016,203110,203922,0021900602,1,402,410,0,0,1610612744
27,1610612742,1626153,1627827,1628467,203501,203939,1610612744,1626156,1628980,1629016,203110,203922,0021900602,1,416,418,0,0,1610612742
28,1610612742,1626153,1627827,1628467,203501,203939,1610612744,1626156,1628980,1629016,203110,203922,0021900602,1,431,431,0,2,1610612744
29,1610612742,1626153,1627827,1628467,203501,203939,1610612744,1626156,1628980,1629016,203110,203922,0021900602,1,443,443,3,0,1610612742
30,1610612742,1626153,1627827,1628467,203501,203939,1610612744,1626156,1628980,1629016,203110,203922,0021900602,1,455,455,0,2,1610612744
31,1610612742,1626153,1627827,1628467,203501,203939,1610612744,1626156,1628980,1629016,203110,203922,0021900602,1,468,470,0,0,1610612742
32,1610612742,1626153,1627827,1628467,203501,203939,1610612744,1626156,1628980,1629016,203110,203922,0021900602,1,476,476,0,1,1610612744
33,1610612742,1626153,1627827,1628382,203552,203939,1610612744,1626156,1626161,1628980,203110,203922,0021900602,1,497,499,0,0,1610612742
34,1610612742,1626153,1627827,1628382,203552,203939,1610612744,1626156,1626161,1628980,203110,203922,0021900602,1,510,511,0,0,1610612744
35,1610612742,1626153,1627827,1628382,203552,203939,1610612744,1626156,1626161,1628980,203110,203922,0021900602,1,517,529,0,0,1610612742
36,1610612742,1626153,1626246,1627827,1628382,203552,1610612744,1626161,1628980,1629672,1629673,202692,0021900602,1,540,541,0,0,1610612744
37,1610612742,1626153,1626246,1627827,1628382,203552,1610612744,1626161,1628980,1629672,1629673,202692,0021900602,1,554,556,0,0,1610612742
38,1610612742,1626153,1626246,1627827,1628382,203552,1610612744,1626161,1628980,1629672,1629673,202692,0021900602,1,571,577,0,3,1610612744
39,1610612742,1626153,1626246,1627827,1628382,203552,1610612744,1626161,1628980,1629672,1629673,202692,0021900602,1,592,592,2,0,1610612742
40,1610612742,1626153,1626246,1627827,1628382,203552,1610612744,1626161,1628980,1629672,1629673,202692,0021900602,1,608,609,0,0,1610612744
41,1610612742,1626153,1626246,1627827,1628382,203552,1610612744,1626161,1628980,1629672,1629673,202692,0021900602,1,615,627,2,0,1610612742
42,1610612742,1626153,1626246,1628382,1628973,203552,1610612744,1626161,1628980,1629672,1629673,202692,0021900602,1,638,640,0,0,1610612744
43,1610612742,1626153,1626246,1628382,1628973,203552,1610612744,1626161,1628980,1629672,1629673,202692,0021900602,1,647,647,2,0,1610612742
44,1610612742,1626153,1626246,1628382,1628973,203552,1610612744,1626161,1628980,1629672,1629673,202692,0021900602,1,656,656,0,2,1610612744
45,1610612742,1626153,1626246,1628382,1628973,203552,1610612744,1626161,1628980,1629672,1629673,202692,0021900602,1,664,676,2,0,1610612742
46,1610612742,1626153,1626246,1628382,1628973,203552,1610612744,1626161,1628980,1629672,1629673,202692,0021900602,1,684,684,0,3,1610612744
47,1610612742,1626153,1626246,1628382,1628973,203552,1610612744,1626161,1628980,1629672,1629673,202692,0021900602,1,704,706,0,0,1610612742
48,1610612742,1626153,1626246,1628382,1628973,203552,1610612744,1626161,1628980,1629672,1629673,202692,0021900602,1,715,719,0,0,1610612744
49,1610612742,1629029,203552,1628382,1626246,1628973,1610612744,203922,1626156,1626161,1629673,1629672,0021900602,2,720,736,0,0,1610612742
50,1610612742,1629029,203552,1628382,1626246,1628973,1610612744,203922,1626156,1626161,1629673,1629672,0021900602,2,759,759,0,2,1610612744
51,1610612742,1629029,203552,1628382,1626246,1628973,1610612744,203922,1626156,1626161,1629673,1629672,0021900602,2,770,770,2,0,1610612742
52,1610612742,1629029,203552,1628382,1626246,1628973,1610612744,203922,1626156,1626161,1629673,1629672,0021900602,2,782,782,0,0,1610612744
53,1610612742,1629029,203552,1628382,1626246,1628973,1610612744,203922,1626156,1626161,1629673,1629672,0021900602,2,791,791,2,0,1610612742
54,1610612742,1629029,203552,1628382,1626246,1628973,1610612744,203922,1626156,1626161,1629673,1629672,0021900602,2,803,803,0,3,1610612744
55,1610612742,1629029,203552,1628382,1626246,1628973,1610612744,203922,1626156,1626161,1629673,1629672,0021900602,2,817,819,0,0,1610612742
56,1610612742,1629029,203552,1628382,1626246,1628973,1610612744,203922,1626156,1626161,1629673,1629672,0021900602,2,819,835,0,0,1610612744
57,1610612742,1629029,203552,1628382,1626246,1628973,1610612744,203922,1626156,1626161,1629673,1629672,0021900602,2,841,841,2,0,1610612742
58,1610612742,1629029,203552,1628382,1626246,1628973,1610612744,203922,1626156,1626161,1629673,1629672,0021900602,2,854,862,0,0,1610612744
59,1610612742,1629029,203552,1628382,1626246,1628973,1610612744,203922,1626156,1626161,1629673,1629672,0021900602,2,874,874,0,0,1610612742
60,1610612742,1629029,203552,1628382,1626246,1628973,1610612744,203922,1626156,1626161,1629673,1629672,0021900602,2,891,891,0,2,1610612744
61,1610612742,1629029,203552,1628382,1626246,1628973,1610612744,203922,1626156,1626161,1629673,1629672,0021900602,2,902,902,2,0,1610612742
62,1610612742,1629029,203552,1628382,1626246,1628973,1610612744,203922,1626156,1626161,1629673,1629672,0021900602,2,912,914,0,0,1610612744
63,1610612742,1629029,203552,1628382,1626246,1628973,1610612744,203922,1626156,1626161,1629673,1629672,0021900602,2,922,922,3,0,1610612742
64,1610612742,1629029,203552,1628382,1626246,1628973,1610612744,203922,1626156,1626161,1629673,1629672,0021900602,2,927,937,0,0,1610612744
65,1610612742,1629029,203552,1628382,1626246,1628973,1610612744,203922,1626156,1626161,1629673,1629672,0021900602,2,958,958,1,0,1610612742
66,1610612742,1629029,203552,1628382,1626246,1628973,1610612744,203922,1626156,1626161,1629673,1629672,0021900602,2,974,974,0,2,1610612744
67,1610612742,1629029,203552,1628382,1626246,1628973,1610612744,203922,1626156,1626161,1629673,1629672,0021900602,2,986,1000,0,0,1610612742
68,1610612742,1629029,203552,1628382,1626246,1628973,1610612744,1626156,1626161,1629016,1629673,202692,0021900602,2,1009,1009,0,2,1610612744
69,1610612742,1629029,203552,1628382,1626246,1628973,1610612744,1626156,1626161,1629016,1629673,202692,0021900602,2,1018,1030,1,0,1610612742
70,1610612742,1628382,1628467,1628973,1629029,203501,1610612744,1626156,1626161,1629016,1629673,202692,0021900602,2,1040,1052,0,0,1610612744
71,1610612742,1628382,1628467,1628973,1629029,203501,1610612744,1626156,1629016,1629673,202692,203110,0021900602,2,1064,1064,2,0,1610612742
72,1610612742,1628382,1628467,1628973,1629029,203501,1610612744,1626156,1629016,1629673,202692,203110,0021900602,2,1077,1091,0,3,1610612744
73,1610612742,1626153,1628467,1629029,203501,203939,1610612744,1628980,1629016,1629673,202692,203110,0021900602,2,1098,1098,2,0,1610612742
74,1610612742,1626153,1628467,1629029,203501,203939,1610612744,1628980,1629016,1629673,202692,203110,0021900602,2,1113,1114,0,0,1610612744
75,1610612742,1626153,1628467,1629029,203501,203939,1610612744,1628980,1629016,1629673,202692,203110,0021900602,2,1122,1125,2,0,1610612742
76,1610612742,1626153,1628467,1629029,203501,203939,1610612744,1628980,1629016,1629673,202692,203110,0021900602,2,1143,1145,0,0,1610612744
77,1610612742,1626153,1628467,1629029,203501,203939,1610612744,1628980,1629016,1629673,202692,203110,0021900602,2,1160,1160,2,0,1610612742
78,1610612742,1626153,1628467,1629029,203501,203939,1610612744,1628980,1629016,1629673,202692,203110,0021900602,2,1162,1176,0,0,1610612744
79,1610612742,1626153,1627827,1628467,203501,203939,1610612744,1626156,1629016,202692,203110,203922,0021900602,2,1185,1185,2,0,1610612742
80,1610612742,1626153,1627827,1628467,203501,203939,1610612744,1626156,1629016,202692,203110,203922,0021900602,2,1201,1201,0,3,1610612744
81,1610612742,1626153,1627827,1628467,203501,203939,1610612744,1626156,1629016,202692,203110,203922,0021900602,2,1218,1218,2,0,1610612742
82,1610612742,1626153,1627827,1628467,203501,203939,1610612744,1626156,1629016,202692,203110,203922,0021900602,2,1226,1226,0,0,1610612744
83,1610612742,1627827,1628467,1629029,203501,203939,1610612744,1626156,1629016,202692,203110,203922,0021900602,2,1240,1243,0,0,1610612742
84,1610612742,1627827,1628467,1629029,203501,203939,1610612744,1626156,1629016,202692,203110,203922,0021900602,2,1256,1256,0,2,1610612744
85,1610612742,1627827,1628467,1629029,203501,203939,1610612744,1626156,1629016,202692,203110,203922,0021900602,2,1277,1277,0,0,1610612742
86,1610612742,1627827,1628467,1629029,203501,203939,1610612744,1626156,1629016,202692,203110,203922,0021900602,2,1285,1285,0,0,1610612744
87,1610612742,1627827,1628467,1629029,203501,203939,1610612744,1626156,1629016,202692,203110,203922,0021900602,2,1303,1303,0,0,1610612742
88,1610612742,1627827,1628467,1629029,203501,203939,1610612744,1626156,1629016,202692,203110,203922,0021900602,2,1314,1318,0,2,1610612744
89,1610612742,1627827,1628467,1629029,203501,203939,1610612744,1626156,1629016,202692,203110,203922,0021900602,2,1336,1336,2,0,1610612742
90,1610612742,1627827,1628467,1629029,203501,203939,1610612744,1626156,1629016,202692,203110,203922,0021900602,2,1357,1359,0,0,1610612744
91,1610612742,1627827,1628467,1629029,203501,203939,1610612744,1626156,1629016,202692,203110,203922,0021900602,2,1375,1375,2,0,1610612742
92,1610612742,1627827,1628467,1629029,203501,203939,1610612744,1626156,1629016,202692,203110,203922,0021900602,2,1385,1387,0,0,1610612744
93,1610612742,1627827,1628467,1629029,203501,203939,1610612744,1626156,1629016,202692,203110,203922,0021900602,2,1405,1419,0,0,1610612742
94,1610612742,1627827,1628467,1629029,203501,203939,1610612744,1626156,1629016,202692,203110,203922,0021900602,2,1439,1440,0,0,1610612742
95,1610612742,1627827,1628467,203939,203501,1629029,1610612744,203922,203110,1629016,202692,1626156,0021900602,3,1440,1453,0,0,1610612742
96,1610612742,1627827,1628467,203939,203501,1629029,1610612744,203922,203110,1629016,202692,1626156,0021900602,3,1468,1468,0,0,1610612744
97,1610612742,1627827,1628467,203939,203501,1629029,1610612744,203922,203110,1629016,202692,1626156,0021900602,3,1486,1486,2,0,1610612742
98,1610612742,1627827,1628467,203939,203501,1629029,1610612744,203922,203110,1629016,202692,1626156,0021900602,3,1502,1503,0,0,1610612744
99,1610612742,1627827,1628467,203939,203501,1629029,1610612744,203922,203110,1629016,202692,1626156,0021900602,3,1511,1513,0,0,1610612742
100,1610612742,1627827,1628467,203939,203501,1629029,1610612744,203922,203110,1629016,202692,1626156,0021900602,3,1518,1518,0,0,1610612744
101,1610612742,1627827,1628467,203939,203501,1629029,1610612744,203922,203110,1629016,202692,1626156,0021900602,3,1531,1533,0,0,1610612742
102,1610612742,1627827,1628467,203939,203501,1629029,1610612744,203922,203110,1629016,202692,1626156,0021900602,3,1543,1551,0,2,1610612744
103,1610612742,1627827,1628467,203939,203501,1629029,1610612744,203922,203110,1629016,202692,1626156,0021900602,3,1563,1565,2,0,1610612742
104,1610612742,1627827,1628467,203939,203501,1629029,1610612744,203922,203110,1629016,202692,1626156,0021900602,3,1582,1584,0,0,1610612744
105,1610612742,1627827,1628467,203939,203501,1629029,1610612744,203922,203110,1629016,202692,1626156,0021900602,3,1592,1592,2,0,1610612742
106,1610612742,1627827,1628467,203939,203501,1629029,1610612744,203922,203110,1629016,202692,1626156,0021900602,3,1605,1606,0,0,1610612744
107,1610612742,1627827,1628467,203939,203501,1629029,1610612744,203922,203110,1629016,202692,1626156,0021900602,3,1616,1616,1,0,1610612742
108,1610612742,1627827,1628467,203939,203501,1629029,1610612744,203922,203110,1629016,202692,1626156,0021900602,3,1629,1630,0,0,1610612744
109,1610612742,1627827,1628467,203939,203501,1629029,1610612744,203922,203110,1629016,202692,1626156,0021900602,3,1636,1638,0,0,1610612742
110,1610612742,1627827,1628467,203939,203501,1629029,1610612744,203922,203110,1629016,202692,1626156,0021900602,3,1646,1648,0,0,1610612744
111,1610612742,1627827,1628467,203939,203501,1629029,1610612744,203922,203110,1629016,202692,1626156,0021900602,3,1668,1668,2,0,1610612742
112,1610612742,1627827,1628467,203939,203501,1629029,1610612744,203922,203110,1629016,202692,1626156,0021900602,3,1668,1687,0,0,1610612744
113,1610612742,1627827,1628467,203939,203501,1629029,1610612744,1626156,1629346,1629672,203110,203922,0021900602,3,1708,1710,0,0,1610612742
114,1610612742,1627827,1628467,203939,203501,1629029,1610612744,1626156,1629346,1629672,203110,203922,0021900602,3,1732,1732,0,0,1610612744
115,1610612742,1627827,1628467,203939,203501,1629029,1610612744,1626156,1629346,1629672,203110,203922,0021900602,3,1738,1740,0,0,1610612742
116,1610612742,1627827,1628467,203939,203501,1629029,1610612744,1626156,1629346,1629672,203110,203922,0021900602,3,1745,1745,0,2,1610612744
117,1610612742,1627827,1628467,203939,203501,1629029,1610612744,1626156,1629346,1629672,203110,203922,0021900602,3,1758,1758,2,0,1610612742
118,1610612742,1627827,1628467,203939,203501,1629029,1610612744,1626156,1629346,1629672,203110,203922,0021900602,3,1770,1772,0,0,1610612744
119,1610612742,1627827,1628467,203939,203501,1629029,1610612744,1626156,1629346,1629672,203110,203922,0021900602,3,1781,1782,0,0,1610612742
120,1610612742,1627827,1628467,203939,203501,1629029,1610612744,1626156,1629346,1629672,203110,203922,0021900602,3,1793,1793,0,0,1610612744
121,1610612742,1627827,1628467,203939,203501,1629029,1610612744,1626156,1629346,1629672,203110,203922,0021900602,3,1803,1803,3,0,1610612742
122,1610612742,1627827,1628467,203939,203501,1629029,1610612744,1626156,1629346,1629672,203110,203922,0021900602,3,1828,1832,0,3,1610612744
123,1610612742,1627827,1628467,203939,203501,1629029,1610612744,1626156,1629346,1629672,203110,203922,0021900602,3,1844,1852,3,0,1610612742
124,1610612742,1627827,1628382,1629029,203501,203939,1610612744,1629346,1629672,1629673,203110,203922,0021900602,3,1863,1863,0,2,1610612744
125,1610612742,1627827,1628382,1629029,203501,203939,1610612744,1629346,1629672,1629673,203110,203922,0021900602,3,1876,1876,0,0,1610612742
126,1610612742,1627827,1628382,1629029,203501,203939,1610612744,1629346,1629672,1629673,202692,203110,0021900602,3,1890,1892,0,0,1610612744
127,1610612742,1627827,1628382,1629029,203501,203939,1610612744,1629346,1629672,1629673,202692,203110,0021900602,3,1901,1901,2,0,1610612742
128,1610612742,1627827,1628382,1629029,203501,203939,1610612744,1629346,1629672,1629673,202692,203110,0021900602,3,1923,1923,0,2,1610612744
129,1610612742,1627827,1628382,1629029,203501,203939,1610612744,1629346,1629672,1629673,202692,203110,0021900602,3,1930,1932,0,0,1610612742
130,1610612742,1627827,1628382,1629029,203501,203939,1610612744,1629346,1629672,1629673,202692,203110,0021900602,3,1937,1937,0,2,1610612744
131,1610612742,1627827,1628382,1629029,203501,203939,1610612744,1629346,1629672,1629673,202692,203110,0021900602,3,1937,1957,0,0,1610612742
132,1610612742,1627827,1628382,1629029,203501,203939,1610612744,1629346,1629672,1629673,202692,203110,0021900602,3,1970,1970,0,3,1610612744
133,1610612742,1627827,1628382,1629029,203552,203939,1610612744,1629346,1629672,1629673,202692,203110,0021900602,3,1993,1994,0,0,1610612742
134,1610612742,1627827,1628382,1629029,203552,203939,1610612744,1629346,1629672,1629673,202692,203110,0021900602,3,2003,2005,0,3,1610612744
135,1610612742,1627827,1628382,1628467,1629029,203552,1610612744,1629346,1629672,1629673,202692,203110,0021900602,3,2026,2028,0,0,1610612742
136,1610612742,1627827,1628382,1628467,1629029,203552,1610612744,1629346,1629672,1629673,202692,203110,0021900602,3,2037,2037,0,3,1610612744
137,1610612742,1627827,1628382,1628467,1629029,203552,1610612744,1629346,1629672,1629673,202692,203110,0021900602,3,2040,2055,3,0,1610612742
138,1610612742,1627827,1628382,1628467,1628973,203552,1610612744,1629346,1629672,1629673,202692,203110,0021900602,3,2074,2074,0,2,1610612744
139,1610612742,1627827,1628382,1628467,1628973,203552,1610612744,1629346,1629672,1629673,202692,203110,0021900602,3,2087,2087,2,0,1610612742
140,1610612742,1627827,1628382,1628467,1628973,203552,1610612744,1629346,1629672,1629673,202692,203110,0021900602,3,2099,2099,0,0,1610612744
141,1610612742,1627827,1628382,1628467,1628973,203552,1610612744,1629346,1629672,1629673,202692,203110,0021900602,3,2108,2111,0,0,1610612742
142,1610612742,1627827,1628382,1628467,1628973,203552,1610612744,1629346,1629672,1629673,202692,203110,0021900602,3,2121,2124,0,0,1610612744
143,1610612742,1627827,1628382,1628467,1628973,203552,1610612744,1629346,1629672,1629673,202692,203110,0021900602,3,2131,2131,2,0,1610612742
144,1610612742,1627827,1628382,1628467,1628973,203552,1610612744,1629346,1629673,202692,203110,203922,0021900602,3,2147,2147,0,0,1610612744
145,1610612742,1627827,1628382,1628467,1628973,203552,1610612744,1629346,1629673,202692,203110,203922,0021900602,3,2147,2153,3,0,1610612742
146,1610612742,1627827,1628382,1628467,1628973,203552,1610612744,1629346,1629673,202692,203110,203922,0021900602,3,2157,2160,0,0,1610612742
147,1610612742,1626153,203552,1628382,1626246,1628973,1610612744,203922,1626156,1626161,1629673,1629672,0021900602,4,2160,2176,0,0,1610612744
148,1610612742,1626153,203552,1628382,1626246,1628973,1610612744,203922,1626156,1626161,1629673,1629672,0021900602,4,2194,2194,2,0,1610612742
149,1610612742,1626153,203552,1628382,1626246,1628973,1610612744,203922,1626156,1626161,1629673,1629672,0021900602,4,2216,2220,0,2,1610612744
150,1610612742,1626153,203552,1628382,1626246,1628973,1610612744,203922,1626156,1626161,1629673,1629672,0021900602,4,2234,2234,2,0,1610612742
151,1610612742,1626153,203552,1628382,1626246,1628973,1610612744,203922,1626156,1626161,1629673,1629672,0021900602,4,2251,2251,0,2,1610612744
152,1610612742,1626153,203552,1628382,1626246,1628973,1610612744,203922,1626156,1626161,1629673,1629672,0021900602,4,2262,2264,0,0,1610612742
153,1610612742,1626153,203552,1628382,1626246,1628973,1610612744,203922,1626156,1626161,1629673,1629672,0021900602,4,2269,2269,0,2,1610612744
154,1610612742,1626153,203552,1628382,1626246,1628973,1610612744,203922,1626156,1626161,1629673,1629672,0021900602,4,2293,2304,2,0,1610612742
155,1610612742,1626153,203552,1628382,1626246,1628973,1610612744,203922,1626156,1626161,1629673,1629672,0021900602,4,2316,2317,0,0,1610612744
156,1610612742,1626153,203552,1628382,1626246,1628973,1610612744,203922,1626156,1626161,1629673,1629672,0021900602,4,2332,2337,2,0,1610612742
157,1610612742,1626153,203552,1628382,1626246,1628973,1610612744,203922,1626156,1626161,1629673,1629672,0021900602,4,2353,2355,0,0,1610612744
158,1610612742,1626153,203552,1628382,1626246,1628973,1610612744,203922,1626156,1626161,1629673,1629672,0021900602,4,2371,2373,2,0,1610612742
159,1610612742,1626153,203552,1628382,1626246,1628973,1610612744,203922,1626156,1626161,1629673,1629672,0021900602,4,2384,2384,0,0,1610612744
160,1610612742,1626153,203552,1628382,1626246,1628973,1610612744,203922,1626156,1626161,1629673,1629672,0021900602,4,2388,2388,2,0,1610612742
161,1610612742,1626153,203552,1628382,1626246,1628973,1610612744,203922,1626156,1626161,1629673,1629672,0021900602,4,2388,2406,0,2,1610612744
162,1610612742,1626153,1626246,1628499,200826,201584,1610612744,1626156,1626161,1629016,1629673,203922,0021900602,4,2422,2422,0,0,1610612742
163,1610612742,1626153,1626246,1628499,200826,201584,1610612744,1626156,1626161,1629016,1629673,203922,0021900602,4,2428,2428,0,2,1610612744
164,1610612742,1626153,1626246,1628499,200826,201584,1610612744,1626156,1626161,1629016,1629673,203922,0021900602,4,2429,2454,0,0,1610612742
165,1610612742,1626153,1626246,1628499,200826,201584,1610612744,1626156,1626161,1629016,1629673,203922,0021900602,4,2466,2466,0,0,1610612744
166,1610612742,1626153,1626246,1628499,200826,201584,1610612744,1626156,1626161,1629016,1629673,203922,0021900602,4,2475,2476,0,0,1610612742
167,1610612742,1626153,1626246,1628499,200826,201584,1610612744,1626156,1626161,1629016,1629673,203922,0021900602,4,2490,2490,0,2,1610612744
168,1610612742,1626153,1626246,1628499,200826,201584,1610612744,1626156,1626161,1629016,1629673,203922,0021900602,4,2510,2510,2,0,1610612742
169,1610612742,1626153,1626246,1628499,200826,201584,1610612744,1626156,1626161,1629016,1629673,203922,0021900602,4,2526,2526,0,0,1610612744
170,1610612742,1626153,1626246,1628499,200826,201584,1610612744,1626156,1626161,1629016,1629672,1629673,0021900602,4,2548,2548,2,0,1610612742
171,1610612742,1626153,1626246,1628499,200826,201584,1610612744,1626156,1626161,1629016,1629672,1629673,0021900602,4,2558,2558,0,2,1610612744
172,1610612742,1626153,1626246,1628499,200826,201584,1610612744,1626156,1626161,1629016,1629672,1629673,0021900602,4,2568,2568,3,0,1610612742
173,1610612742,1626153,1626246,1628499,200826,201584,1610612744,1626156,1626161,1629016,1629672,1629673,0021900602,4,2583,2585,0,0,1610612744
174,1610612742,1626153,1626246,1628499,200826,201584,1610612744,1626156,1626161,1629016,1629672,1629673,0021900602,4,2603,2606,0,0,1610612742
175,1610612742,1626153,1626246,1628499,200826,201584,1610612744,1626156,1626161,1629016,1629672,1629673,0021900602,4,2615,2615,0,2,1610612744
176,1610612742,1626153,1626246,1628499,200826,201584,1610612744,1626156,1626161,1629016,1629672,1629673,0021900602,4,2630,2633,0,0,1610612742
177,1610612742,1626153,1626246,1628499,200826,201584,1610612744,1626156,1626161,1629016,1629672,1629673,0021900602,4,2641,2641,0,2,1610612744
178,1610612742,1626153,1626246,1628499,200826,201584,1610612744,1626156,1626161,1629016,1629672,1629673,0021900602,4,2654,2675,0,0,1610612742
179,1610612742,1626153,1626246,1628499,200826,201584,1610612744,1629016,1629346,1629672,1629673,202692,0021900602,4,2687,2689,0,0,1610612744
180,1610612742,1626153,1626246,1628499,200826,201584,1610612744,1629016,1629346,1629672,1629673,202692,0021900602,4,2699,2701,0,0,1610612742
181,1610612742,1626153,1626246,1628499,200826,201584,1610612744,1629016,1629346,1629672,1629673,202692,0021900602,4,2712,2712,0,3,1610612744
182,1610612742,1626153,1626246,1628499,200826,201584,1610612744,1629016,1629346,1629672,1629673,202692,0021900602,4,2724,2724,3,0,1610612742
183,1610612742,1626153,1626246,1628499,200826,201584,1610612744,1629016,1629346,1629672,1629673,202692,0021900602,4,2742,2746,0,0,1610612744
184,1610612742,1626153,1626246,1628499,200826,201584,1610612744,1629016,1629346,1629672,1629673,202692,0021900602,4,2750,2759,2,0,1610612742
185,1610612742,1626153,1626246,1628499,200826,201584,1610612744,1629016,1629346,1629672,1629673,202692,0021900602,4,2780,2782,0,0,1610612744
186,1610612742,1626153,1626246,1628499,200826,201584,1610612744,1629016,1629346,1629672,1629673,202692,0021900602,4,2792,2794,0,0,1610612742
187,1610612742,1626153,1626246,1628499,200826,201584,1610612744,1629016,1629346,1629672,1629673,202692,0021900602,4,2799,2804,0,0,1610612744
188,1610612742,1626153,1626246,1628499,200826,201584,1610612744,1629016,1629346,1629672,1629673,202692,0021900602,4,2817,2817,3,0,1610612742
189,1610612742,1626153,1626246,1628499,200826,201584,1610612744,1629016,1629346,1629672,1629673,202692,0021900602,4,2828,2828,0,2,1610612744
190,1610612742,1626153,1626246,1628499,200826,201584,1610612744,1629016,1629346,1629672,1629673,202692,0021900602,4,2838,2838,3,0,1610612742
191,1610612742,1626153,1626246,1628499,200826,201584,1610612744,1629016,1629346,1629672,1629673,202692,0021900602,4,2857,2857,0,3,1610612744
