,TEAM_ID_1,TEAM_1_PLAYERS,TEAM_ID_2,TEAM_2_PLAYERS,PERIOD
0,1610612738,[1628369  202684 1628464 1627759  203935],1610612765,[1630180  203924  203486 1628367 1630165],1
1,1610612738,[1628464  203935 1629684  201952 1629035],1610612765,[ 201565 1630191 1626153 1629004 1629635],2
2,1610612738,[1628369  202684 1628464 1627759  203935],1610612765,[1630180  203924  203486 1628367 1630165],3
3,1610612738,[1628369 1627759 1630202 1629057  201952],1610612765,[ 201565 1630191 1626153 1629004 1629635],4
