,TEAM_ID_1,TEAM_1_PLAYERS,TEAM_ID_2,TEAM_2_PLAYERS,PERIOD
0,1610612745,[1630256  200782  202326  201569  202322],1610612742,[ 203501 1630182 1626161 1628973 1629029],1
1,1610612745,[ 200782 1628425  203463 1628021 1630222],1610612742,[ 203501 1628973 1626246  203504  201949],2
2,1610612745,[1630256  200782  202326  201569  202322],1610612742,[ 203501 1628973 1629029 1626246 1628411],3
3,1610612745,[1630256  203463 1628021 1630222 1630231],1610612742,[ 203501 1630182 1628973 1626246 1630179],4
