,team1_id,team1_player1,team1_player2,team1_player3,team1_player4,team1_player5,team2_id,team2_player1,team2_player2,team2_player3,team2_player4,team2_player5,game_id,period,possession_start,possession_end,team1_points,team2_points,possession_team
0,1610612747,201961,1626169,201599,202340,201566,1610612766,1628998,1628970,203486,1626179,1630163,0022100735,1,0,25,0,0,1610612747
1,1610612747,201961,1626169,201599,202340,201566,1610612766,1628998,1628970,203486,1626179,1630163,0022100735,1,32,32,0,2,1610612766
2,1610612747,201961,1626169,201599,202340,201566,1610612766,1628998,1628970,203486,1626179,1630163,0022100735,1,51,54,0,0,1610612747
3,1610612747,201961,1626169,201599,202340,201566,1610612766,1628998,1628970,203486,1626179,1630163,0022100735,1,65,65,0,3,1610612766
4,1610612747,201961,1626169,201599,202340,201566,1610612766,1628998,1628970,203486,1626179,1630163,0022100735,1,76,78,0,0,1610612747
5,1610612747,201961,1626169,201599,202340,201566,1610612766,1628998,1628970,203486,1626179,1630163,0022100735,1,84,84,0,2,1610612766
6,1610612747,201961,1626169,201599,202340,201566,1610612766,1628998,1628970,203486,1626179,1630163,0022100735,1,108,108,0,0,1610612747
7,1610612747,201961,1626169,201599,202340,201566,1610612766,1628998,1628970,203486,1626179,1630163,0022100735,1,124,127,0,0,1610612766
8,1610612747,201961,1626169,201599,202340,201566,1610612766,1628998,1628970,203486,1626179,1630163,0022100735,1,136,143,0,0,1610612747
9,1610612747,201961,1626169,201599,202340,201566,1610612766,1628998,1628970,203486,1626179,1630163,0022100735,1,147,150,0,0,1610612766
10,1610612747,201961,1626169,201599,202340,201566,1610612766,1628998,1628970,203486,1626179,1630163,0022100735,1,161,161,0,0,1610612747
11,1610612747,201961,1626169,201599,202340,201566,1610612766,1628998,1628970,203486,1626179,1630163,0022100735,1,164,164,0,2,1610612766
12,1610612747,201961,1626169,201599,202340,201566,1610612766,1628998,1628970,203486,1626179,1630163,0022100735,1,164,183,3,0,1610612747
13,1610612747,201961,1626169,201599,202340,201566,1610612766,1628998,1628970,203486,1626179,1630163,0022100735,1,204,215,0,0,1610612766
14,1610612747,201961,1626169,201599,202340,201566,1610612766,1628998,1628970,203486,1626179,1630163,0022100735,1,233,237,0,0,1610612747
15,1610612747,201961,1626169,201599,202340,201566,1610612766,1628998,1628970,203486,1626179,1630163,0022100735,1,250,250,0,3,1610612766
16,1610612747,201961,1626169,201599,202340,201566,1610612766,1628998,1628970,203486,1626179,1630163,0022100735,1,265,268,0,0,1610612747
17,1610612747,201961,1626169,201599,202340,201566,1610612766,1628998,1628970,203486,1626179,1630163,0022100735,1,272,272,0,0,1610612766
18,1610612747,201961,1626169,201599,202340,201566,1610612766,1628998,1628970,203486,1626179,1630163,0022100735,1,273,307,0,0,1610612747
19,1610612747,201961,1626169,201599,202340,201566,1610612766,1628998,1628970,203486,1626179,1630163,0022100735,1,317,324,0,2,1610612766
20,1610612747,201961,1626169,201599,202340,201566,1610612766,1628998,1628970,203486,1626179,1630163,0022100735,1,334,337,0,0,1610612747
21,1610612747,201566,201599,201961,202340,2546,1610612766,1628998,1628970,203486,1626179,1630163,0022100735,1,351,360,0,2,1610612766
22,1610612747,201566,201599,201961,202340,2546,1610612766,1628998,1628970,203486,1626179,1630163,0022100735,1,369,369,2,0,1610612747
23,1610612747,1629659,1630559,201566,201599,2546,1610612766,1628998,1628970,203486,1626179,1630163,0022100735,1,383,383,0,2,1610612766
24,1610612747,1629659,1630559,201566,201599,2546,1610612766,1628998,1628970,203486,1626179,1630163,0022100735,1,393,397,0,0,1610612747
25,1610612747,1629659,1630559,201566,201599,2546,1610612766,1626179,1628970,1629023,1630163,203486,0022100735,1,404,407,0,0,1610612766
26,1610612747,1629659,1630559,201566,201599,2546,1610612766,1626179,1628970,1629023,1630163,203486,0022100735,1,418,418,0,0,1610612747
27,1610612747,1629659,1630559,201566,201599,2546,1610612766,1626179,1628970,1629023,1630163,203486,0022100735,1,429,429,0,0,1610612766
28,1610612747,1629659,1630559,201566,201599,2546,1610612766,1626179,1628970,1629023,1630163,203486,0022100735,1,447,447,2,0,1610612747
29,1610612747,1629659,1630559,201566,201599,2546,1610612766,1626179,1628970,1629023,1630163,203486,0022100735,1,457,459,0,0,1610612766
30,1610612747,1629659,1630559,201566,201599,2546,1610612766,1626179,1628970,1629023,1630163,203486,0022100735,1,474,474,1,0,1610612747
31,1610612747,1629659,1630559,201566,201599,2546,1610612766,1626179,1628970,1629023,1630163,203486,0022100735,1,485,485,0,2,1610612766
32,1610612747,1629659,1630559,201566,201599,2546,1610612766,1626179,1628970,1629023,1630163,203486,0022100735,1,495,502,0,0,1610612747
33,1610612747,1629659,1630559,201566,201599,2546,1610612766,1626179,1628970,1629023,1630163,203486,0022100735,1,509,509,0,3,1610612766
34,1610612747,1629659,1630559,201566,201599,2546,1610612766,1626179,1628970,1629023,1630163,203486,0022100735,1,512,536,2,0,1610612747
35,1610612747,1629659,1630559,203145,2546,2772,1610612766,1628970,1629023,1630163,1630547,203486,0022100735,1,547,547,0,2,1610612766
36,1610612747,1629659,1630559,203145,2546,2772,1610612766,1626179,1628970,1629023,1630163,1630547,0022100735,1,568,576,2,0,1610612747
37,1610612747,1629659,1630559,203145,2546,2772,1610612766,1626179,1628970,1629023,1630163,1630547,0022100735,1,585,591,0,0,1610612766
38,1610612747,1629659,1630559,203145,2546,2772,1610612766,1626179,1628970,1629023,1630163,1630547,0022100735,1,598,598,3,0,1610612747
39,1610612747,1629659,1630559,203145,2546,2772,1610612766,1626179,1628970,1629023,1630163,1630547,0022100735,1,615,618,0,1,1610612766
40,1610612747,1629659,1630559,203145,2546,2772,1610612766,1626179,1628970,1629023,1630163,1630547,0022100735,1,634,634,2,0,1610612747
41,1610612747,1629659,1630559,203145,2546,2772,1610612766,1626179,1628970,1629023,1630163,1630547,0022100735,1,642,642,0,2,1610612766
42,1610612747,1629659,1630559,203145,2546,2772,1610612766,1626179,1628970,1629023,1630163,1630547,0022100735,1,660,662,0,0,1610612747
43,1610612747,1629659,1630559,203145,2546,2772,1610612766,1626179,1628970,1629023,1630163,1630547,0022100735,1,668,670,0,0,1610612766
44,1610612747,1629659,1630559,203145,2546,2772,1610612766,1626179,1628970,1629023,1630163,1630547,0022100735,1,676,676,2,0,1610612747
45,1610612747,1629659,1630559,203145,2546,2772,1610612766,1626179,1628970,1629023,1630163,1630547,0022100735,1,688,688,0,0,1610612766
46,1610612747,1629659,1630559,203145,2546,2772,1610612766,1626179,1628970,1629023,1630163,1630547,0022100735,1,694,694,2,0,1610612747
47,1610612747,1629659,1630559,203145,2546,2772,1610612766,1626179,1628970,1629023,1630163,1630547,0022100735,1,719,719,0,3,1610612766
48,1610612747,2546,1630559,1629659,2772,203145,1610612766,1628998,1626179,1629023,1630547,202397,0022100735,2,720,748,0,2,1610612766
49,1610612747,2546,1630559,1629659,2772,203145,1610612766,1628998,1626179,1629023,1630547,202397,0022100735,2,759,759,3,0,1610612747
50,1610612747,2546,1630559,1629659,2772,203145,1610612766,1628998,1626179,1629023,1630547,202397,0022100735,2,770,772,0,0,1610612766
51,1610612747,2546,1630559,1629659,2772,203145,1610612766,1628998,1626179,1629023,1630547,202397,0022100735,2,782,782,2,0,1610612747
52,1610612747,2546,1630559,1629659,2772,203145,1610612766,1628998,1626179,1629023,1630547,202397,0022100735,2,795,795,0,0,1610612766
53,1610612747,2546,1630559,1629659,2772,203145,1610612766,1628998,1626179,1629023,1630547,202397,0022100735,2,800,801,2,0,1610612747
54,1610612747,2546,1630559,1629659,2772,203145,1610612766,1628998,1626179,1629023,1630547,202397,0022100735,2,801,820,0,2,1610612766
55,1610612747,2546,1630559,1629659,2772,203145,1610612766,1626179,1628998,1630547,202397,203486,0022100735,2,850,853,0,0,1610612747
56,1610612747,2546,1630559,1629659,2772,203145,1610612766,1626179,1628998,1630547,202397,203486,0022100735,2,861,864,0,2,1610612766
57,1610612747,2546,1630559,1629659,2772,203145,1610612766,1626179,1628998,1630547,202397,203486,0022100735,2,883,883,2,0,1610612747
58,1610612747,2546,1630559,1629659,2772,203145,1610612766,1626179,1628998,1630547,202397,203486,0022100735,2,895,895,0,2,1610612766
59,1610612747,2546,1630559,1629659,2772,203145,1610612766,1626179,1628998,1630547,202397,203486,0022100735,2,909,909,2,0,1610612747
60,1610612747,2546,1630559,1629659,2772,203145,1610612766,1626179,1628998,1630547,202397,203486,0022100735,2,916,918,0,0,1610612766
61,1610612747,2546,1630559,1629659,2772,203145,1610612766,1626179,1628998,1630547,202397,203486,0022100735,2,924,924,3,0,1610612747
62,1610612747,2546,1630559,1629659,2772,203145,1610612766,1626179,1628970,1628998,202397,203486,0022100735,2,949,949,0,2,1610612766
63,1610612747,2546,1630559,1629659,2772,203145,1610612766,1626179,1628970,1628998,202397,203486,0022100735,2,960,960,2,0,1610612747
64,1610612747,1629659,1630559,201566,2546,2772,1610612766,1626179,1628970,1628998,202397,203486,0022100735,2,971,974,0,0,1610612766
65,1610612747,1629659,1630559,201566,2546,2772,1610612766,1626179,1628970,1628998,202397,203486,0022100735,2,977,987,2,0,1610612747
66,1610612747,1629659,1630559,201566,2546,2772,1610612766,1626179,1628970,1628998,202397,203486,0022100735,2,1000,1000,0,2,1610612766
67,1610612747,1629659,1630559,201566,2546,2772,1610612766,1626179,1628970,1628998,202397,203486,0022100735,2,1014,1017,0,0,1610612747
68,1610612747,1629659,1630559,201566,2546,2772,1610612766,1626179,1628970,1628998,202397,203486,0022100735,2,1022,1022,0,2,1610612766
69,1610612747,1629659,1630559,201566,2546,2772,1610612766,1626179,1628970,1628998,202397,203486,0022100735,2,1043,1045,0,0,1610612747
70,1610612747,1629659,1630559,201566,2546,2772,1610612766,1626179,1628970,1628998,202397,203486,0022100735,2,1053,1064,0,3,1610612766
71,1610612747,1626169,1630559,201566,201961,2772,1610612766,1628970,1628998,1630163,202397,203486,0022100735,2,1088,1088,0,0,1610612747
72,1610612747,1626169,1630559,201566,201961,2772,1610612766,1628970,1628998,1630163,202397,203486,0022100735,2,1100,1103,0,1,1610612766
73,1610612747,1626169,201566,201599,201961,202340,1610612766,1628970,1628998,1630163,202397,203486,0022100735,2,1110,1114,0,0,1610612747
74,1610612747,1626169,201566,201599,201961,202340,1610612766,1628970,1628998,1630163,202397,203486,0022100735,2,1127,1130,0,0,1610612766
75,1610612747,1626169,201566,201599,201961,202340,1610612766,1628970,1628998,1630163,202397,203486,0022100735,2,1135,1138,0,0,1610612747
76,1610612747,1626169,201566,201599,201961,202340,1610612766,1628970,1628998,1630163,202397,203486,0022100735,2,1147,1147,0,2,1610612766
77,1610612747,1626169,201566,201599,201961,202340,1610612766,1628970,1628998,1630163,202397,203486,0022100735,2,1165,1165,3,0,1610612747
78,1610612747,1626169,201566,201599,201961,202340,1610612766,1628970,1628998,1630163,202397,203486,0022100735,2,1181,1181,0,2,1610612766
79,1610612747,1626169,201566,201599,201961,202340,1610612766,1628970,1628998,1630163,202397,203486,0022100735,2,1197,1197,0,0,1610612747
80,1610612747,1626169,201566,201599,201961,202340,1610612766,1628970,1628998,1630163,202397,203486,0022100735,2,1197,1197,0,0,1610612766
81,1610612747,1626169,201566,201599,201961,202340,1610612766,1628970,1628998,1630163,202397,203486,0022100735,2,1197,1216,2,0,1610612747
82,1610612747,1626169,201566,201599,201961,202340,1610612766,1628970,1629023,1630163,202397,203486,0022100735,2,1232,1232,0,3,1610612766
83,1610612747,1626169,201566,201599,201961,202340,1610612766,1628970,1629023,1630163,202397,203486,0022100735,2,1254,1259,0,0,1610612747
84,1610612747,1626169,201566,201599,201961,202340,1610612766,1628970,1629023,1630163,202397,203486,0022100735,2,1262,1266,0,2,1610612766
85,1610612747,1626169,201566,202340,203145,2546,1610612766,1628970,1629023,1630163,202397,203486,0022100735,2,1278,1280,0,0,1610612747
86,1610612747,1626169,201566,202340,203145,2546,1610612766,1628970,1629023,1630163,202397,203486,0022100735,2,1286,1287,0,2,1610612766
87,1610612747,1626169,201566,202340,203145,2546,1610612766,1626179,1628970,1629023,1630163,203486,0022100735,2,1300,1300,3,0,1610612747
88,1610612747,1626169,201566,202340,203145,2546,1610612766,1626179,1628970,1629023,1630163,203486,0022100735,2,1319,1322,0,0,1610612766
89,1610612747,1626169,201566,202340,203145,2546,1610612766,1626179,1628970,1629023,1630163,203486,0022100735,2,1330,1330,0,0,1610612747
90,1610612747,1626169,201566,202340,203145,2546,1610612766,1626179,1628970,1629023,1630163,203486,0022100735,2,1336,1346,0,2,1610612766
91,1610612747,1626169,201566,202340,203145,2546,1610612766,1626179,1628970,1629023,1630163,203486,0022100735,2,1348,1350,0,0,1610612747
92,1610612747,1626169,201566,202340,203145,2546,1610612766,1626179,1628970,1629023,1630163,203486,0022100735,2,1351,1351,0,0,1610612766
93,1610612747,1626169,201566,202340,203145,2546,1610612766,1626179,1628970,1629023,1630163,203486,0022100735,2,1353,1353,2,0,1610612747
94,1610612747,1626169,201566,202340,203145,2546,1610612766,1626179,1628970,1629023,1630163,203486,0022100735,2,1372,1372,0,3,1610612766
95,1610612747,1626169,201566,202340,203145,2546,1610612766,1626179,1628970,1629023,1630163,203486,0022100735,2,1385,1387,0,0,1610612747
96,1610612747,1626169,201566,202340,203145,2546,1610612766,1626179,1628970,1629023,1630163,203486,0022100735,2,1394,1399,0,0,1610612766
97,1610612747,1626169,201566,202340,203145,2546,1610612766,1626179,1628970,1629023,1630163,203486,0022100735,2,1412,1414,0,0,1610612747
98,1610612747,1626169,201566,202340,203145,2546,1610612766,1626179,1628970,1629023,1630163,203486,0022100735,2,1428,1431,0,0,1610612766
99,1610612747,1626169,201566,202340,203145,2546,1610612766,1626179,1628970,1629023,1630163,203486,0022100735,2,1438,1438,0,0,1610612747
100,1610612747,201961,201599,202340,201566,2546,1610612766,1628998,1628970,203486,1626179,1630163,0022100735,3,1440,1456,0,3,1610612766
101,1610612747,201961,201599,202340,201566,2546,1610612766,1628998,1628970,203486,1626179,1630163,0022100735,3,1471,1492,2,0,1610612747
102,1610612747,201961,201599,202340,201566,2546,1610612766,1628998,1628970,203486,1626179,1630163,0022100735,3,1496,1496,0,3,1610612766
103,1610612747,201961,201599,202340,201566,2546,1610612766,1628998,1628970,203486,1626179,1630163,0022100735,3,1514,1516,0,0,1610612747
104,1610612747,201961,201599,202340,201566,2546,1610612766,1628998,1628970,203486,1626179,1630163,0022100735,3,1516,1540,0,0,1610612766
105,1610612747,201961,201599,202340,201566,2546,1610612766,1628998,1628970,203486,1626179,1630163,0022100735,3,1556,1559,0,0,1610612747
106,1610612747,201961,201599,202340,201566,2546,1610612766,1628998,1628970,203486,1626179,1630163,0022100735,3,1566,1569,0,0,1610612766
107,1610612747,201961,201599,202340,201566,2546,1610612766,1628998,1628970,203486,1626179,1630163,0022100735,3,1573,1573,2,0,1610612747
108,1610612747,201961,201599,202340,201566,2546,1610612766,1628998,1628970,203486,1626179,1630163,0022100735,3,1585,1586,0,0,1610612766
109,1610612747,201961,201599,202340,201566,2546,1610612766,1628998,1628970,203486,1626179,1630163,0022100735,3,1598,1602,0,0,1610612747
110,1610612747,201961,201599,202340,201566,2546,1610612766,1628998,1628970,203486,1626179,1630163,0022100735,3,1602,1602,0,2,1610612766
111,1610612747,201961,201599,202340,201566,2546,1610612766,1628998,1628970,203486,1626179,1630163,0022100735,3,1602,1618,3,0,1610612747
112,1610612747,201961,201599,202340,201566,2546,1610612766,1628998,1628970,203486,1626179,1630163,0022100735,3,1636,1639,0,0,1610612766
113,1610612747,201961,201599,202340,201566,2546,1610612766,1628998,1628970,203486,1626179,1630163,0022100735,3,1647,1647,2,0,1610612747
114,1610612747,201961,201599,202340,201566,2546,1610612766,1626179,1628970,1629023,1630163,203486,0022100735,3,1670,1672,0,0,1610612766
115,1610612747,201961,201599,202340,201566,2546,1610612766,1626179,1628970,1629023,1630163,203486,0022100735,3,1682,1682,3,0,1610612747
116,1610612747,201961,201599,202340,201566,2546,1610612766,1626179,1628970,1629023,1630163,203486,0022100735,3,1699,1699,0,2,1610612766
117,1610612747,201961,201599,202340,201566,2546,1610612766,1626179,1628970,1629023,1630163,203486,0022100735,3,1717,1717,3,0,1610612747
118,1610612747,201961,201599,202340,201566,2546,1610612766,1626179,1628970,1629023,1630163,203486,0022100735,3,1730,1730,0,2,1610612766
119,1610612747,201961,201599,202340,201566,2546,1610612766,1626179,1628970,1629023,1630163,203486,0022100735,3,1746,1746,0,0,1610612747
120,1610612747,201961,201599,202340,201566,2546,1610612766,1626179,1628970,1629023,1630163,203486,0022100735,3,1751,1751,0,2,1610612766
121,1610612747,201961,201599,202340,201566,2546,1610612766,1626179,1628970,1629023,1630163,203486,0022100735,3,1771,1771,3,0,1610612747
122,1610612747,201961,201599,202340,201566,2546,1610612766,1626179,1628970,1629023,1630163,203486,0022100735,3,1785,1787,0,0,1610612766
123,1610612747,201961,201599,202340,201566,2546,1610612766,1626179,1628970,1629023,1630163,203486,0022100735,3,1790,1798,0,0,1610612747
124,1610612747,201961,201599,202340,201566,2546,1610612766,1626179,1628970,1629023,1630163,203486,0022100735,3,1807,1810,0,0,1610612766
125,1610612747,201961,201599,202340,201566,2546,1610612766,1626179,1628970,1629023,1630163,203486,0022100735,3,1815,1815,2,0,1610612747
126,1610612747,201961,201599,202340,201566,2546,1610612766,1626179,1628970,1629023,1630163,203486,0022100735,3,1815,1832,0,0,1610612766
127,1610612747,201961,201599,202340,201566,2546,1610612766,1626179,1628970,1629023,202397,203486,0022100735,3,1840,1848,0,0,1610612747
128,1610612747,201961,201599,202340,201566,2546,1610612766,1626179,1628970,1629023,202397,203486,0022100735,3,1848,1865,0,1,1610612766
129,1610612747,201961,201599,202340,201566,2546,1610612766,1626179,1628970,1629023,202397,203486,0022100735,3,1878,1878,0,0,1610612747
130,1610612747,201961,201599,202340,201566,2546,1610612766,1626179,1628970,1629023,202397,203486,0022100735,3,1892,1892,0,0,1610612766
131,1610612747,201961,201599,202340,201566,2546,1610612766,1626179,1628970,1629023,202397,203486,0022100735,3,1899,1899,2,0,1610612747
132,1610612747,201961,201599,202340,201566,2546,1610612766,1626179,1628970,1629023,202397,203486,0022100735,3,1918,1918,0,2,1610612766
133,1610612747,1626169,1630559,201566,201961,2546,1610612766,1626179,1628970,1629023,202397,203486,0022100735,3,1938,1938,2,0,1610612747
134,1610612747,1626169,1629659,1630559,201566,2546,1610612766,1626179,1628970,1629023,202397,203486,0022100735,3,1953,1956,0,0,1610612766
135,1610612747,1626169,1629659,1630559,201566,2546,1610612766,1626179,1628970,1629023,202397,203486,0022100735,3,1964,1964,2,0,1610612747
136,1610612747,1626169,1629659,1630559,201566,2546,1610612766,1626179,1628970,1629023,202397,203486,0022100735,3,1985,1987,0,0,1610612766
137,1610612747,1626169,1629659,1630559,201566,2546,1610612766,1626179,1628970,1629023,202397,203486,0022100735,3,2003,2003,3,0,1610612747
138,1610612747,1626169,1629659,1630559,201566,2546,1610612766,1626179,1628970,1629023,202397,203486,0022100735,3,2003,2016,0,0,1610612766
139,1610612747,1626169,1629659,1630559,201566,2546,1610612766,1628970,1628998,1629023,1630163,202397,0022100735,3,2029,2029,3,0,1610612747
140,1610612747,1626169,1629659,1630559,201566,2546,1610612766,1628970,1628998,1629023,1630163,202397,0022100735,3,2042,2042,0,2,1610612766
141,1610612747,1626169,1629659,1630559,201566,2546,1610612766,1628970,1628998,1629023,1630163,202397,0022100735,3,2060,2060,3,0,1610612747
142,1610612747,1626169,1629659,1630559,201566,2546,1610612766,1628970,1628998,1629023,1630163,202397,0022100735,3,2088,2088,0,2,1610612766
143,1610612747,1626169,1629659,1630559,201566,2546,1610612766,1628970,1628998,1629023,1630163,202397,0022100735,3,2098,2103,1,0,1610612747
144,1610612747,1626169,1629659,1630559,201566,2772,1610612766,1628970,1628998,1629023,1630163,202397,0022100735,3,2114,2117,0,0,1610612766
145,1610612747,1626169,1629659,1630559,201566,2772,1610612766,1628970,1628998,1629023,1630163,202397,0022100735,3,2134,2137,0,0,1610612747
146,1610612747,1626169,1629659,1630559,201566,2772,1610612766,1628970,1628998,1629023,1630163,202397,0022100735,3,2156,2156,0,1,1610612766
147,1610612747,1626169,1629659,1630559,201566,2772,1610612766,1628970,1628998,1629023,1630163,202397,0022100735,3,2160,2160,0,0,1610612766
148,1610612747,1626169,1630559,1629659,2772,203145,1610612766,1628998,203486,1630163,1629023,202397,0022100735,4,2160,2181,0,0,1610612747
149,1610612747,1626169,1630559,1629659,2772,203145,1610612766,1628998,203486,1630163,1629023,202397,0022100735,4,2190,2190,0,3,1610612766
150,1610612747,1626169,1630559,1629659,2772,203145,1610612766,1628998,203486,1630163,1629023,202397,0022100735,4,2205,2208,0,0,1610612747
151,1610612747,1626169,1630559,1629659,2772,203145,1610612766,1628998,203486,1630163,1629023,202397,0022100735,4,2221,2251,0,0,1610612766
152,1610612747,1626169,1630559,1629659,2772,203145,1610612766,1628998,203486,1630163,1629023,202397,0022100735,4,2252,2268,2,0,1610612747
153,1610612747,1626169,1630559,1629659,2772,203145,1610612766,1628998,203486,1630163,1629023,202397,0022100735,4,2279,2279,0,2,1610612766
154,1610612747,1626169,1630559,1629659,2772,203145,1610612766,1628998,203486,1630163,1629023,202397,0022100735,4,2286,2308,0,0,1610612747
155,1610612747,1626169,1630559,1629659,2772,203145,1610612766,1628998,203486,1630163,1629023,202397,0022100735,4,2327,2330,0,0,1610612766
156,1610612747,1626169,1630559,1629659,2772,203145,1610612766,1628998,203486,1630163,1629023,202397,0022100735,4,2340,2342,0,0,1610612747
157,1610612747,1626169,1630559,1629659,2772,203145,1610612766,1628998,203486,1630163,1629023,202397,0022100735,4,2345,2345,0,0,1610612766
158,1610612747,1626169,1629659,1630559,201566,2546,1610612766,1628970,1628998,1630163,202397,203486,0022100735,4,2353,2353,2,0,1610612747
159,1610612747,1626169,1629659,1630559,201566,2546,1610612766,1628970,1628998,1630163,202397,203486,0022100735,4,2372,2372,0,3,1610612766
160,1610612747,1626169,1629659,1630559,201566,2546,1610612766,1628970,1628998,1630163,202397,203486,0022100735,4,2389,2389,2,0,1610612747
161,1610612747,1626169,1629659,1630559,201566,2546,1610612766,1628970,1628998,1630163,202397,203486,0022100735,4,2404,2408,0,2,1610612766
162,1610612747,1626169,1629659,1630559,201566,2546,1610612766,1626179,1628970,1628998,202397,203486,0022100735,4,2428,2432,0,0,1610612747
163,1610612747,1626169,1629659,1630559,201566,2546,1610612766,1626179,1628970,1628998,202397,203486,0022100735,4,2439,2459,0,0,1610612766
164,1610612747,1626169,1629659,1630559,201566,2546,1610612766,1626179,1628970,1628998,202397,203486,0022100735,4,2473,2476,0,0,1610612747
165,1610612747,1626169,1629659,1630559,201566,2546,1610612766,1626179,1628970,1628998,202397,203486,0022100735,4,2480,2480,0,2,1610612766
166,1610612747,1626169,1629659,1630559,201566,2546,1610612766,1626179,1628970,1628998,1629023,202397,0022100735,4,2504,2509,0,0,1610612747
167,1610612747,1626169,1629659,1630559,201566,2546,1610612766,1626179,1628970,1628998,1629023,202397,0022100735,4,2509,2509,0,2,1610612766
168,1610612747,1626169,1629659,1630559,201566,2546,1610612766,1626179,1628970,1628998,1629023,202397,0022100735,4,2509,2525,3,0,1610612747
169,1610612747,1626169,1629659,1630559,201566,2546,1610612766,1626179,1628970,1628998,1629023,202397,0022100735,4,2540,2540,0,2,1610612766
170,1610612747,1626169,1629659,1630559,201566,2546,1610612766,1626179,1628970,1628998,1629023,202397,0022100735,4,2561,2573,3,0,1610612747
171,1610612747,1626169,1629659,1630559,201566,2546,1610612766,1626179,1628970,1628998,1629023,202397,0022100735,4,2594,2594,0,2,1610612766
172,1610612747,1626169,1629659,1630559,201566,2546,1610612766,1626179,1628970,1628998,1629023,202397,0022100735,4,2607,2607,3,0,1610612747
173,1610612747,1626169,1629659,1630559,201566,2546,1610612766,1626179,1628970,1628998,1629023,202397,0022100735,4,2618,2635,1,0,1610612766
174,1610612747,1626169,1629659,1630559,201566,2546,1610612766,1626179,1628970,1628998,1630163,203486,0022100735,4,2651,2664,0,0,1610612747
175,1610612747,1626169,1629659,1630559,201566,2546,1610612766,1626179,1628970,1628998,1629023,1630163,0022100735,4,2669,2683,0,3,1610612766
176,1610612747,1626169,1629659,1630559,201566,2546,1610612766,1626179,1628970,1628998,1630163,203486,0022100735,4,2705,2708,1,0,1610612747
177,1610612747,1626169,1629659,1630559,201566,2546,1610612766,1626179,1628970,1630163,202397,203486,0022100735,4,2723,2723,0,3,1610612766
178,1610612747,1626169,1629659,1630559,201566,2546,1610612766,1626179,1628970,1629023,202397,203486,0022100735,4,2736,2736,2,0,1610612747
179,1610612747,1626169,1629659,1630559,201566,2546,1610612766,1626179,1628970,1629023,202397,203486,0022100735,4,2751,2754,0,0,1610612766
180,1610612747,1626169,1629659,1630559,201566,2546,1610612766,1626179,1628970,1629023,202397,203486,0022100735,4,2760,2760,2,0,1610612747
181,1610612747,1626169,1629659,1630559,201566,2546,1610612766,1626179,1628970,1629023,202397,203486,0022100735,4,2783,2783,0,2,1610612766
182,1610612747,1626169,1629659,1630559,201566,2546,1610612766,1626179,1628970,1629023,202397,203486,0022100735,4,2798,2798,3,0,1610612747
183,1610612747,1626169,1629659,1630559,201566,2546,1610612766,1626179,1628970,1629023,202397,203486,0022100735,4,2819,2819,0,2,1610612766
184,1610612747,1626169,1629659,1630559,201566,2546,1610612766,1626179,1628970,1629023,202397,203486,0022100735,4,2828,2828,3,0,1610612747
185,1610612747,1626169,1629659,1630559,201566,2546,1610612766,1626179,1628970,1629023,202397,203486,0022100735,4,2828,2842,0,0,1610612766
186,1610612747,1626169,1629659,1630559,201566,2546,1610612766,1626179,1628970,1630163,202397,203486,0022100735,4,2853,2856,2,0,1610612747
187,1610612747,1626169,1629659,1630559,201566,2546,1610612766,1626179,1628970,1630163,202397,203486,0022100735,4,2864,2871,0,1,1610612766
188,1610612747,1626169,1629659,1630559,201566,2546,1610612766,1626179,1628970,1630163,202397,203486,0022100735,4,2871,2880,0,0,1610612747
189,1610612747,1626169,1629659,1630559,201566,2546,1610612766,1626179,1628970,1629023,1630163,202397,0022100735,4,2880,2880,0,1,1610612766
