,team1_id,team1_player1,team1_player2,team1_player3,team1_player4,team1_player5,team2_id,team2_player1,team2_player2,team2_player3,team2_player4,team2_player5,game_id,period,possession_start,possession_end,team1_points,team2_points,possession_team
0,1610612758,203084,202357,1626158,203992,1628368,1610612753,203516,203932,202696,203095,201571,0021901247,1,0,6,0,0,1610612758
1,1610612758,203084,202357,1626158,203992,1628368,1610612753,203516,203932,202696,203095,201571,0021901247,1,10,10,0,3,1610612753
2,1610612758,203084,202357,1626158,203992,1628368,1610612753,203516,203932,202696,203095,201571,0021901247,1,24,28,0,0,1610612758
3,1610612758,203084,202357,1626158,203992,1628368,1610612753,203516,203932,202696,203095,201571,0021901247,1,46,46,0,2,1610612753
4,1610612758,203084,202357,1626158,203992,1628368,1610612753,203516,203932,202696,203095,201571,0021901247,1,62,65,0,0,1610612758
5,1610612758,203084,202357,1626158,203992,1628368,1610612753,203516,203932,202696,203095,201571,0021901247,1,75,75,0,2,1610612753
6,1610612758,203084,202357,1626158,203992,1628368,1610612753,203516,203932,202696,203095,201571,0021901247,1,84,84,0,0,1610612758
7,1610612758,203084,202357,1626158,203992,1628368,1610612753,203516,203932,202696,203095,201571,0021901247,1,94,98,0,0,1610612753
8,1610612758,203084,202357,1626158,203992,1628368,1610612753,203516,203932,202696,203095,201571,0021901247,1,111,116,3,0,1610612758
9,1610612758,203084,202357,1626158,203992,1628368,1610612753,203516,203932,202696,203095,201571,0021901247,1,132,132,0,2,1610612753
10,1610612758,203084,202357,1626158,203992,1628368,1610612753,203516,203932,202696,203095,201571,0021901247,1,139,149,2,0,1610612758
11,1610612758,203084,202357,1626158,203992,1628368,1610612753,203516,203932,202696,203095,201571,0021901247,1,166,166,0,2,1610612753
12,1610612758,203084,202357,1626158,203992,1628368,1610612753,203516,203932,202696,203095,201571,0021901247,1,174,181,3,0,1610612758
13,1610612758,203084,202357,1626158,203992,1628368,1610612753,203516,203932,202696,203095,201571,0021901247,1,190,203,0,0,1610612753
14,1610612758,203084,202357,1626158,203992,1628368,1610612753,203516,203932,202696,203095,201571,0021901247,1,206,210,0,0,1610612758
15,1610612758,203084,202357,1626158,203992,1628368,1610612753,203516,203932,202696,203095,201571,0021901247,1,221,221,0,2,1610612753
16,1610612758,203084,202357,1626158,203992,1628368,1610612753,203516,203932,202696,203095,201571,0021901247,1,231,237,2,0,1610612758
17,1610612758,203084,202357,1626158,203992,1628368,1610612753,203516,203932,202696,203095,201571,0021901247,1,251,251,0,2,1610612753
18,1610612758,203084,202357,1626158,203992,1628368,1610612753,203516,203932,202696,203095,201571,0021901247,1,269,269,2,0,1610612758
19,1610612758,203084,202357,1626158,203992,1628368,1610612753,203516,203932,202696,203095,201571,0021901247,1,269,282,0,3,1610612753
20,1610612758,203084,202357,1626158,203992,1628368,1610612753,203516,203932,202696,203095,201571,0021901247,1,298,301,0,0,1610612758
21,1610612758,203084,202357,1626158,203992,1628368,1610612753,203516,203932,202696,203095,201571,0021901247,1,315,315,0,3,1610612753
22,1610612758,203084,202357,1626158,203992,1628368,1610612753,203516,203932,202696,203095,201571,0021901247,1,316,337,0,0,1610612758
23,1610612758,1627741,1628368,202357,203084,203992,1610612753,203516,203932,202696,203095,201571,0021901247,1,337,357,0,0,1610612753
24,1610612758,1627741,1628368,202357,203084,203992,1610612753,203516,203932,202696,203095,201571,0021901247,1,372,372,2,0,1610612758
25,1610612758,1627741,1628368,202357,203084,203992,1610612753,203516,203932,202696,203095,201571,0021901247,1,384,400,0,0,1610612753
26,1610612758,1627741,1628368,202357,203084,203992,1610612753,203516,203932,202696,203095,201571,0021901247,1,416,416,3,0,1610612758
27,1610612758,1627741,1628368,202357,203084,203992,1610612753,202696,203082,203095,203487,203932,0021901247,1,438,443,0,0,1610612753
28,1610612758,1627741,1628368,202357,203084,203992,1610612753,202696,203082,203095,203487,203932,0021901247,1,448,450,0,0,1610612758
29,1610612758,1627741,1628368,202357,203084,203992,1610612753,202696,203082,203095,203487,203932,0021901247,1,462,462,0,3,1610612753
30,1610612758,1627741,1628368,202357,203084,203992,1610612753,202696,203082,203095,203487,203932,0021901247,1,482,484,0,0,1610612758
31,1610612758,1627741,1628368,202357,203084,203992,1610612753,202696,203082,203095,203487,203932,0021901247,1,488,491,0,0,1610612753
32,1610612758,1627741,1628368,202357,203084,203992,1610612753,202696,203082,203095,203487,203932,0021901247,1,499,501,0,0,1610612758
33,1610612758,1627741,1628368,202357,203084,203992,1610612753,202696,203082,203095,203487,203932,0021901247,1,509,509,0,2,1610612753
34,1610612758,1626158,1627741,202709,203084,203992,1610612753,1628365,203082,203487,203920,203932,0021901247,1,527,530,0,0,1610612758
35,1610612758,1626158,1627741,202709,203084,203992,1610612753,1628365,1628371,203082,203487,203920,0021901247,1,545,545,0,3,1610612753
36,1610612758,1626158,1627741,202709,203084,203992,1610612753,1628365,1628371,203082,203487,203920,0021901247,1,563,571,0,0,1610612758
37,1610612758,1626158,1627741,202709,203084,203145,1610612753,1628365,1628371,203082,203487,203920,0021901247,1,583,583,0,2,1610612753
38,1610612758,1626158,1627741,202709,203084,203145,1610612753,1628365,1628371,203082,203487,203920,0021901247,1,596,596,2,0,1610612758
39,1610612758,1626158,1627741,202709,203084,203145,1610612753,1628365,1628371,203082,203487,203920,0021901247,1,607,607,0,2,1610612753
40,1610612758,1626158,1627741,202709,203084,203145,1610612753,1628365,1628371,203082,203487,203920,0021901247,1,616,616,3,0,1610612758
41,1610612758,1626158,1627741,202709,203084,203145,1610612753,1628365,1628371,203082,203487,203920,0021901247,1,628,628,0,2,1610612753
42,1610612758,1626158,1627741,202709,203084,203145,1610612753,1628365,1628371,203082,203487,203920,0021901247,1,641,641,2,0,1610612758
43,1610612758,1626158,1627741,202709,203084,203145,1610612753,1628365,1628371,203082,203487,203920,0021901247,1,653,653,0,2,1610612753
44,1610612758,1626158,1627741,202709,203084,203145,1610612753,1628365,1628371,203082,203487,203920,0021901247,1,661,663,0,0,1610612758
45,1610612758,1626158,1627741,202709,203084,203145,1610612753,1628365,1628371,203082,203487,203920,0021901247,1,683,683,0,2,1610612753
46,1610612758,1626158,1627741,202709,203084,203145,1610612753,1628365,1628371,203082,203487,203920,0021901247,1,700,700,0,0,1610612758
47,1610612758,1626158,1627741,202709,203084,203145,1610612753,1628365,1628371,203082,203487,203920,0021901247,1,704,704,0,2,1610612753
48,1610612758,1626158,1627741,203084,203145,203992,1610612753,1628365,1628371,203082,203487,203920,0021901247,1,717,717,2,0,1610612758
49,1610612758,1626158,1627741,203084,203145,203992,1610612753,1628365,1628371,203082,203487,203920,0021901247,1,720,720,0,3,1610612753
50,1610612758,1626158,1627741,203084,203145,203992,1610612753,1628365,1628371,203082,203487,203920,0021901247,1,720,720,0,0,174
51,1610612758,1626158,1627741,202709,203145,201147,1610612753,203082,203487,203920,1628365,1628371,0021901247,2,720,740,0,3,1610612753
52,1610612758,1626158,1627741,202709,203145,201147,1610612753,203082,203487,203920,1628365,1628371,0021901247,2,755,757,0,0,1610612758
53,1610612758,1626158,1627741,202709,203145,201147,1610612753,203082,203487,203920,1628365,1628371,0021901247,2,761,761,0,0,1610612753
54,1610612758,1626158,1627741,202709,203145,201147,1610612753,203082,203487,203920,1628365,1628371,0021901247,2,778,778,2,0,1610612758
55,1610612758,1626158,1627741,202709,203145,201147,1610612753,203082,203487,203920,1628365,1628371,0021901247,2,791,791,0,0,1610612753
56,1610612758,1626158,1627741,202709,203145,201147,1610612753,203082,203487,203920,1628365,1628371,0021901247,2,803,808,2,0,1610612758
57,1610612758,1626158,1627741,202709,203145,201147,1610612753,203082,203487,203920,1628365,1628371,0021901247,2,825,825,0,0,1610612753
58,1610612758,1626158,1627741,202709,203145,201147,1610612753,203082,203487,203920,1628365,1628371,0021901247,2,840,840,3,0,1610612758
59,1610612758,1626158,1627741,202709,203145,201147,1610612753,203082,203487,203920,1628365,1628371,0021901247,2,858,858,0,2,1610612753
60,1610612758,1626158,1627741,202709,203145,201147,1610612753,203082,203487,203920,1628365,1628371,0021901247,2,872,874,0,0,1610612758
61,1610612758,1626158,1627741,202709,203145,201147,1610612753,203082,203487,203920,1628365,1628371,0021901247,2,879,879,0,2,1610612753
62,1610612758,1626158,1627741,202709,203145,201147,1610612753,203082,203487,203920,1628365,1628371,0021901247,2,888,888,0,0,1610612758
63,1610612758,1626158,1627741,202709,203145,201147,1610612753,203082,203487,203920,1628365,1628371,0021901247,2,891,898,0,3,1610612753
64,1610612758,1626158,201147,202709,203145,203992,1610612753,203082,203487,203920,1628365,1628371,0021901247,2,916,920,0,0,1610612758
65,1610612758,1626158,201147,202709,203145,203992,1610612753,203082,203487,203920,1628365,1628371,0021901247,2,922,933,0,3,1610612753
66,1610612758,1628368,1628385,201147,203145,203992,1610612753,203082,203487,203920,1628365,1628371,0021901247,2,954,954,2,0,1610612758
67,1610612758,1628368,1628385,201147,203145,203992,1610612753,203082,203487,203920,1628365,1628371,0021901247,2,967,970,0,0,1610612753
68,1610612758,1628368,1628385,201147,203145,203992,1610612753,203082,203487,203920,1628365,1628371,0021901247,2,976,976,3,0,1610612758
69,1610612758,1628368,1628385,201147,203145,203992,1610612753,203082,203487,203920,1628365,1628371,0021901247,2,987,987,0,2,1610612753
70,1610612758,1628368,1628385,201147,203145,203992,1610612753,203082,203487,203920,1628365,1628371,0021901247,2,997,1002,0,0,1610612758
71,1610612758,1628368,1628385,201147,203145,203992,1610612753,203082,203487,203920,1628365,1628371,0021901247,2,1012,1019,0,0,1610612753
72,1610612758,1628368,1628385,201147,203145,203992,1610612753,1628365,202696,203095,203487,203932,0021901247,2,1034,1034,2,0,1610612758
73,1610612758,1628368,1628385,201147,203145,203992,1610612753,1628365,202696,203095,203487,203932,0021901247,2,1043,1043,0,0,1610612753
74,1610612758,1628368,1628385,203084,203145,203992,1610612753,1628365,202696,203095,203487,203932,0021901247,2,1054,1054,0,0,1610612758
75,1610612758,1628368,1628385,203084,203145,203992,1610612753,201571,202696,203095,203516,203932,0021901247,2,1063,1067,0,0,1610612753
76,1610612758,1628368,1628385,203084,203145,203992,1610612753,201571,202696,203095,203516,203932,0021901247,2,1075,1077,0,0,1610612758
77,1610612758,1628368,1628385,203084,203145,203992,1610612753,201571,202696,203095,203516,203932,0021901247,2,1091,1094,0,0,1610612753
78,1610612758,1628368,1628385,203084,203145,203992,1610612753,201571,202696,203095,203516,203932,0021901247,2,1099,1103,2,0,1610612758
79,1610612758,1628368,1628385,203084,203145,203992,1610612753,201571,202696,203095,203516,203932,0021901247,2,1103,1122,0,0,1610612753
80,1610612758,1628368,1628385,203084,203145,203992,1610612753,201571,202696,203095,203516,203932,0021901247,2,1142,1145,0,0,1610612758
81,1610612758,1628368,1628385,203084,203145,203992,1610612753,201571,202696,203095,203516,203932,0021901247,2,1154,1154,0,2,1610612753
82,1610612758,1628368,1628385,203084,203145,203992,1610612753,201571,202696,203095,203516,203932,0021901247,2,1162,1162,2,0,1610612758
83,1610612758,1628368,1628385,203084,203145,203992,1610612753,201571,202696,203095,203516,203932,0021901247,2,1178,1178,0,3,1610612753
84,1610612758,1628368,1628385,203084,203145,203992,1610612753,201571,202696,203095,203516,203932,0021901247,2,1193,1193,0,0,1610612758
85,1610612758,1628368,1628385,203084,203145,203992,1610612753,201571,202696,203095,203516,203932,0021901247,2,1197,1197,0,3,1610612753
86,1610612758,1628368,1628385,203084,203145,203992,1610612753,201571,202696,203095,203516,203932,0021901247,2,1200,1208,2,0,1610612758
87,1610612758,1628368,1628385,202357,203145,203992,1610612753,201571,202696,203095,203516,203932,0021901247,2,1217,1217,0,0,1610612753
88,1610612758,1628368,1628385,202357,203145,203992,1610612753,201571,202696,203095,203487,203932,0021901247,2,1229,1229,2,0,1610612758
89,1610612758,1628368,1628385,202357,203145,203992,1610612753,201571,202696,203095,203487,203932,0021901247,2,1249,1249,0,2,1610612753
90,1610612758,1628368,1628385,202357,203145,203992,1610612753,201571,202696,203095,203487,203932,0021901247,2,1258,1258,0,0,1610612758
91,1610612758,1628368,1628385,202357,203145,203992,1610612753,201571,202696,203095,203487,203932,0021901247,2,1266,1274,0,0,1610612753
92,1610612758,1627741,1628368,1628385,202357,203992,1610612753,201571,202696,203095,203487,203932,0021901247,2,1284,1284,0,0,1610612758
93,1610612758,1627741,1628368,1628385,202357,203992,1610612753,201571,202696,203095,203487,203932,0021901247,2,1288,1288,0,3,1610612753
94,1610612758,1627741,1628368,1628385,202357,203992,1610612753,201571,202696,203095,203487,203932,0021901247,2,1302,1302,2,0,1610612758
95,1610612758,1627741,1628368,1628385,202357,203992,1610612753,201571,202696,203095,203487,203932,0021901247,2,1323,1327,0,0,1610612753
96,1610612758,1627741,1628368,1628385,202357,203992,1610612753,201571,202696,203095,203487,203932,0021901247,2,1333,1333,2,0,1610612758
97,1610612758,1627741,1628368,1628385,202357,203992,1610612753,1628411,201571,202696,203487,203932,0021901247,2,1339,1353,0,3,1610612753
98,1610612758,1627741,1628368,202357,203084,203992,1610612753,1628411,201571,202696,203487,203932,0021901247,2,1355,1369,0,0,1610612758
99,1610612758,1627741,1628368,202357,203084,203992,1610612753,1628411,201571,202696,203487,203932,0021901247,2,1379,1381,0,0,1610612753
100,1610612758,1627741,1628368,202357,203084,203992,1610612753,1628411,201571,202696,203487,203932,0021901247,2,1389,1389,2,0,1610612758
101,1610612758,1627741,1628368,202357,203084,203992,1610612753,1628411,201571,202696,203487,203932,0021901247,2,1401,1404,0,1,1610612753
102,1610612758,1627741,1628368,203084,203145,203992,1610612753,1628411,201571,202696,203487,203932,0021901247,2,1413,1414,0,0,1610612758
103,1610612758,1626158,1627741,1628368,203084,203145,1610612753,201571,202696,203082,203487,203932,0021901247,2,1436,1436,0,2,1610612753
104,1610612758,203084,202357,1626158,203992,1628368,1610612753,203516,203932,202696,203095,201571,0021901247,3,1440,1460,0,0,1610612753
105,1610612758,203084,202357,1626158,203992,1628368,1610612753,203516,203932,202696,203095,201571,0021901247,3,1473,1475,0,0,1610612758
106,1610612758,203084,202357,1626158,203992,1628368,1610612753,203516,203932,202696,203095,201571,0021901247,3,1481,1484,0,0,1610612753
107,1610612758,203084,202357,1626158,203992,1628368,1610612753,203516,203932,202696,203095,201571,0021901247,3,1492,1492,2,0,1610612758
108,1610612758,203084,202357,1626158,203992,1628368,1610612753,203516,203932,202696,203095,201571,0021901247,3,1510,1510,0,2,1610612753
109,1610612758,203084,202357,1626158,203992,1628368,1610612753,203516,203932,202696,203095,201571,0021901247,3,1522,1532,0,0,1610612758
110,1610612758,203084,202357,1626158,203992,1628368,1610612753,203516,203932,202696,203095,201571,0021901247,3,1552,1555,0,0,1610612753
111,1610612758,203084,202357,1626158,203992,1628368,1610612753,203516,203932,202696,203095,201571,0021901247,3,1562,1562,2,0,1610612758
112,1610612758,203084,202357,1626158,203992,1628368,1610612753,203516,203932,202696,203095,201571,0021901247,3,1580,1582,0,0,1610612753
113,1610612758,203084,202357,1626158,203992,1628368,1610612753,203516,203932,202696,203095,201571,0021901247,3,1589,1591,0,0,1610612758
114,1610612758,203084,202357,1626158,203992,1628368,1610612753,203516,203932,202696,203095,201571,0021901247,3,1601,1601,0,0,1610612753
115,1610612758,203084,202357,1626158,203992,1628368,1610612753,203516,203932,202696,203095,201571,0021901247,3,1607,1609,2,0,1610612758
116,1610612758,203084,202357,1626158,203992,1628368,1610612753,203516,203932,202696,203095,201571,0021901247,3,1621,1621,0,3,1610612753
117,1610612758,203084,202357,1626158,203992,1628368,1610612753,203516,203932,202696,203095,201571,0021901247,3,1634,1637,0,0,1610612758
118,1610612758,203084,202357,1626158,203992,1628368,1610612753,203516,203932,202696,203095,201571,0021901247,3,1643,1643,0,3,1610612753
119,1610612758,203084,202357,1626158,203992,1628368,1610612753,203516,203932,202696,203095,201571,0021901247,3,1653,1658,0,0,1610612758
120,1610612758,203084,202357,1626158,203992,1628368,1610612753,203516,203932,202696,203095,201571,0021901247,3,1666,1669,0,0,1610612753
121,1610612758,203084,202357,1626158,203992,1628368,1610612753,203516,203932,202696,203095,201571,0021901247,3,1673,1675,0,0,1610612758
122,1610612758,203084,202357,1626158,203992,1628368,1610612753,203516,203932,202696,203095,201571,0021901247,3,1678,1678,0,0,1610612753
123,1610612758,203084,202357,1626158,203992,1628368,1610612753,203516,203932,202696,203095,201571,0021901247,3,1683,1683,0,0,1610612758
124,1610612758,203084,202357,1626158,203992,1628368,1610612753,203516,203932,202696,203095,201571,0021901247,3,1683,1700,0,2,1610612753
125,1610612758,1626158,1627741,1628368,203084,203992,1610612753,203516,203932,202696,203095,201571,0021901247,3,1716,1716,2,0,1610612758
126,1610612758,1626158,1627741,1628368,203084,203992,1610612753,203516,203932,202696,203095,201571,0021901247,3,1731,1731,0,3,1610612753
127,1610612758,1626158,1627741,1628368,203084,203992,1610612753,203516,203932,202696,203095,201571,0021901247,3,1749,1749,2,0,1610612758
128,1610612758,1626158,1627741,1628368,203084,203992,1610612753,203516,203932,202696,203095,201571,0021901247,3,1765,1765,0,3,1610612753
129,1610612758,1626158,1627741,1628368,203084,203992,1610612753,203516,203932,202696,203095,201571,0021901247,3,1777,1777,2,0,1610612758
130,1610612758,1626158,1627741,1628368,203084,203992,1610612753,203516,203932,202696,203095,201571,0021901247,3,1791,1791,0,0,1610612753
131,1610612758,1627741,1628368,1628385,203084,203992,1610612753,203516,203932,202696,203095,201571,0021901247,3,1806,1809,0,0,1610612758
132,1610612758,1627741,1628368,1628385,203084,203992,1610612753,203516,203932,202696,203095,201571,0021901247,3,1828,1828,0,3,1610612753
133,1610612758,1627741,1628368,1628385,203084,203992,1610612753,203516,203932,202696,203095,201571,0021901247,3,1846,1846,2,0,1610612758
134,1610612758,1627741,1628368,1628385,203084,203992,1610612753,203516,203932,202696,203095,201571,0021901247,3,1859,1859,0,2,1610612753
135,1610612758,1627741,1628368,1628385,203084,203145,1610612753,202696,203082,203095,203487,203932,0021901247,3,1869,1869,0,0,1610612758
136,1610612758,1627741,1628368,1628385,203084,203145,1610612753,202696,203082,203095,203487,203932,0021901247,3,1879,1881,0,0,1610612753
137,1610612758,1627741,1628368,1628385,203084,203145,1610612753,202696,203082,203095,203487,203932,0021901247,3,1885,1889,0,0,1610612758
138,1610612758,1627741,1628368,1628385,203084,203145,1610612753,202696,203082,203095,203487,203932,0021901247,3,1898,1900,0,2,1610612753
139,1610612758,1627741,1628368,1628385,203084,203145,1610612753,202696,203082,203095,203487,203932,0021901247,3,1911,1915,0,0,1610612758
140,1610612758,1627741,1628368,1628385,203084,203145,1610612753,202696,203082,203095,203487,203932,0021901247,3,1922,1922,0,2,1610612753
141,1610612758,1627741,1628368,1628385,203084,203145,1610612753,202696,203082,203095,203487,203932,0021901247,3,1925,1943,2,0,1610612758
142,1610612758,1627741,1628385,202357,202709,203145,1610612753,1628365,1628371,203082,203487,203920,0021901247,3,1958,1960,0,0,1610612753
143,1610612758,1627741,1628385,202357,202709,203145,1610612753,1628365,1628371,203082,203487,203920,0021901247,3,1969,1969,1,0,1610612758
144,1610612758,1627741,1628385,202357,202709,203145,1610612753,1628365,1628371,203082,203487,203920,0021901247,3,1983,1983,0,2,1610612753
145,1610612758,1627741,1628385,202357,202709,203145,1610612753,1628365,1628371,203082,203487,203920,0021901247,3,1995,1999,0,0,1610612758
146,1610612758,1627741,1628385,202357,202709,203145,1610612753,1628365,1628371,203082,203487,203920,0021901247,3,1999,2017,0,2,1610612753
147,1610612758,1627741,1628385,202357,202709,203145,1610612753,1628365,1628371,203082,203487,203920,0021901247,3,2030,2030,2,0,1610612758
148,1610612758,1627741,1628385,202357,202709,203145,1610612753,1628365,1628371,203082,203487,203920,0021901247,3,2042,2043,0,0,1610612753
149,1610612758,1627741,1628385,202357,202709,203145,1610612753,1628365,1628371,203082,203487,203920,0021901247,3,2054,2057,0,0,1610612758
150,1610612758,1627741,1628385,202357,202709,203145,1610612753,1628365,1628371,203082,203487,203920,0021901247,3,2068,2068,0,0,1610612753
151,1610612758,1627741,1628385,202357,202709,203145,1610612753,1628365,1628371,203082,203487,203920,0021901247,3,2068,2077,0,0,1610612758
152,1610612758,1627741,1628385,202357,202709,203145,1610612753,1628365,1628371,203082,203487,203920,0021901247,3,2077,2077,0,2,1610612753
153,1610612758,1627741,1628385,202357,202709,203145,1610612753,1628365,1628371,203082,203487,203920,0021901247,3,2090,2090,3,0,1610612758
154,1610612758,1627741,1628385,202357,202709,203145,1610612753,1628365,1628371,203082,203487,203920,0021901247,3,2104,2110,0,1,1610612753
155,1610612758,1627741,1628385,202357,202709,203145,1610612753,1628365,1628371,203082,203487,203920,0021901247,3,2127,2127,2,0,1610612758
156,1610612758,1627741,1628385,202357,202709,203145,1610612753,1628365,1628371,203082,203487,203920,0021901247,3,2144,2144,0,3,1610612753
157,1610612758,1627741,1628385,202357,202709,203145,1610612753,1628365,1628371,203082,203487,203920,0021901247,3,2160,2160,0,0,1610612758
158,1610612758,1626158,203992,202709,203145,1629610,1610612753,203082,203487,203920,1628365,1628371,0021901247,4,2160,2184,0,0,1610612758
159,1610612758,1626158,203992,202709,203145,1629610,1610612753,203082,203487,203920,1628365,1628371,0021901247,4,2202,2210,0,1,1610612753
160,1610612758,1626158,1629610,201147,202709,203992,1610612753,203082,203487,203920,1628365,1628371,0021901247,4,2223,2223,3,0,1610612758
161,1610612758,1626158,1629610,201147,202709,203992,1610612753,203082,203487,203920,1628365,1628371,0021901247,4,2233,2244,0,0,1610612753
162,1610612758,1626158,1629610,201147,202709,203992,1610612753,203082,203487,203920,1628365,1628371,0021901247,4,2250,2250,3,0,1610612758
163,1610612758,1626158,1629610,201147,202709,203992,1610612753,203082,203487,203920,1628365,1628371,0021901247,4,2261,2261,0,0,1610612753
164,1610612758,1626158,1629610,201147,202709,203992,1610612753,203082,203487,203920,1628365,1628371,0021901247,4,2261,2268,0,0,1610612758
165,1610612758,1626158,1629610,201147,202709,203992,1610612753,203082,203487,203920,1628365,1628371,0021901247,4,2291,2295,0,0,1610612753
166,1610612758,1626158,1629610,201147,202709,203992,1610612753,203082,203487,203920,1628365,1628371,0021901247,4,2299,2299,2,0,1610612758
167,1610612758,1626158,1629610,201147,202709,203992,1610612753,203082,203487,203920,1628365,1628371,0021901247,4,2321,2321,0,0,1610612753
168,1610612758,1626158,1629610,201147,202709,203992,1610612753,203082,203487,203920,1628365,1628371,0021901247,4,2321,2329,3,0,1610612758
169,1610612758,1626158,1629610,201147,202709,203992,1610612753,1628365,1629109,203082,203487,203920,0021901247,4,2353,2371,0,0,1610612753
170,1610612758,1626158,1629610,201147,202709,203992,1610612753,1628365,1629109,203082,203487,203920,0021901247,4,2380,2380,0,0,1610612758
171,1610612758,1626158,1629610,201147,202709,203992,1610612753,1628365,1629109,203082,203487,203920,0021901247,4,2387,2394,0,3,1610612753
172,1610612758,1626158,1629610,201147,202709,203992,1610612753,1628365,1629109,203082,203487,203920,0021901247,4,2408,2408,2,0,1610612758
173,1610612758,1626158,1629610,201147,202709,203992,1610612753,1628365,1629109,203082,203487,203920,0021901247,4,2421,2421,0,1,1610612753
174,1610612758,1626158,1629610,201147,202709,203992,1610612753,1628365,1629109,203082,203487,203920,0021901247,4,2436,2439,0,0,1610612758
175,1610612758,1626158,1629610,201147,202709,203992,1610612753,1628365,1629109,203082,203487,203920,0021901247,4,2448,2451,0,3,1610612753
176,1610612758,1626158,1629610,201147,202709,203992,1610612753,1628365,1629109,203082,203487,203920,0021901247,4,2466,2466,0,0,1610612758
177,1610612758,1626158,1629610,201147,202709,203992,1610612753,1628365,1629109,203082,203487,203920,0021901247,4,2478,2480,0,0,1610612753
178,1610612758,1626158,1629610,201147,202709,203992,1610612753,1628365,1629109,203082,203487,203920,0021901247,4,2484,2484,3,0,1610612758
179,1610612758,1626158,1629610,201147,202709,203992,1610612753,1628365,1629109,203082,203487,203920,0021901247,4,2493,2503,0,2,1610612753
180,1610612758,1627812,1628385,1629610,201147,203953,1610612753,1628365,1628411,1628964,1629109,203082,0021901247,4,2516,2516,2,0,1610612758
181,1610612758,1627812,1628385,1629610,201147,203953,1610612753,1628365,1628411,1628964,1629109,203082,0021901247,4,2529,2529,0,0,1610612753
182,1610612758,1627812,1628385,1629610,201147,203953,1610612753,1628365,1628411,1628964,1629109,203082,0021901247,4,2543,2548,0,0,1610612758
183,1610612758,1627812,1628385,1629610,201147,203953,1610612753,1628365,1628411,1628964,1629109,203082,0021901247,4,2553,2557,0,3,1610612753
184,1610612758,1627812,1628385,1629610,201147,203953,1610612753,1628365,1628411,1628964,1629109,203082,0021901247,4,2578,2587,0,0,1610612758
185,1610612758,1627812,1628385,1629610,201147,203953,1610612753,1628411,1628964,1629109,203487,203516,0021901247,4,2592,2592,0,0,1610612753
186,1610612758,1627812,1628385,1629610,201147,203953,1610612753,1628411,1628964,1629109,203487,203516,0021901247,4,2598,2598,2,0,1610612758
187,1610612758,1627812,1628385,1629610,201147,203953,1610612753,1628411,1628964,1629109,203487,203516,0021901247,4,2609,2609,0,2,1610612753
188,1610612758,1627812,1628385,1629610,201147,203953,1610612753,1628411,1628964,1629109,203487,203516,0021901247,4,2620,2620,2,0,1610612758
189,1610612758,1627812,1628385,1629610,201147,203953,1610612753,1628411,1628964,1629109,203487,203516,0021901247,4,2639,2643,0,2,1610612753
190,1610612758,1627812,1628385,1629610,201147,203953,1610612753,1628411,1628964,1629109,203487,203516,0021901247,4,2654,2657,2,0,1610612758
191,1610612758,1627812,1628385,1629610,201147,203953,1610612753,1628411,1628964,1629109,203487,203516,0021901247,4,2670,2673,0,0,1610612753
192,1610612758,1627812,1628385,1629610,201147,203953,1610612753,1628411,1628964,1629109,203487,203516,0021901247,4,2678,2678,2,0,1610612758
193,1610612758,1627812,1628385,1629610,201147,203953,1610612753,1628411,1628964,1629109,203487,203516,0021901247,4,2692,2692,0,0,1610612753
194,1610612758,1627812,1628385,1629610,201147,203953,1610612753,1628411,1628964,1629109,203487,203516,0021901247,4,2696,2702,2,0,1610612758
195,1610612758,1627812,1628385,1629610,201147,203953,1610612753,1628411,1628964,1629109,203487,203516,0021901247,4,2717,2717,0,2,1610612753
196,1610612758,1627812,1628385,1629610,201147,203953,1610612753,1628411,1628964,1629109,203487,203516,0021901247,4,2732,2736,0,0,1610612758
197,1610612758,1627812,1628385,1629610,201147,203953,1610612753,1628411,1628964,1629109,203487,203516,0021901247,4,2751,2751,0,0,1610612753
198,1610612758,1627812,1628385,1629610,201147,203953,1610612753,1628411,1628964,1629109,203487,203516,0021901247,4,2752,2758,4,0,1610612758
199,1610612758,1627812,1628385,1629610,201147,203953,1610612753,1628411,1628964,1629109,203487,203516,0021901247,4,2768,2768,0,0,1610612753
200,1610612758,1627812,1628385,1629610,201147,203953,1610612753,1628411,1628964,1629109,203487,203516,0021901247,4,2787,2790,0,0,1610612758
201,1610612758,1627812,1628385,1629610,201147,203953,1610612753,1628411,1628964,1629109,203487,203516,0021901247,4,2798,2802,0,0,1610612753
202,1610612758,1627812,1628385,1629610,201147,203953,1610612753,1628411,1628964,1629109,203487,203516,0021901247,4,2807,2807,2,0,1610612758
203,1610612758,1627812,1628385,1629610,201147,203953,1610612753,1628411,1628964,1629109,203487,203516,0021901247,4,2819,2821,0,0,1610612753
204,1610612758,1627812,1628385,1629610,201147,203953,1610612753,1628411,1628964,1629109,203487,203516,0021901247,4,2823,2824,2,0,1610612758
205,1610612758,1627812,1628385,1629610,201147,203953,1610612753,1628411,1628964,1629109,203487,203516,0021901247,4,2834,2840,0,0,1610612753
206,1610612758,1627812,1628385,1629610,201147,203953,1610612753,1628411,1628964,1629109,203487,203516,0021901247,4,2851,2858,2,0,1610612758
