,t1_points_scored,stint_end,t2_pm,t1_players,t2_id,t1_id,t2_players,t2_points_scored,t1_pm,stint_start,margin_per_100,num_poss
0,6,357,10,"[203925, 1629066, 1628386, 202066, 1627747]",1610612761,1610612751,"[1628384, 1627783, 201188, 1627832, 200768]",16,-10,0,-38.46153846153847,26.0
1,6,379,12,"[203925, 1629066, 1628386, 202066, 1627747]",1610612761,1610612751,"[1628384, 1627783, 201188, 1627832, 200768]",18,-12,358,-44.44444444444444,27.0
2,12,476,11,"[1627747, 1627789, 1628386, 202066, 203925]",1610612761,1610612751,"[1628384, 1627783, 201188, 1627832, 200768]",23,-11,380,-33.33333333333333,33.0
3,14,537,9,"[1627747, 1627789, 1628386, 202066, 203925]",1610612761,1610612751,"[1626181, 1628384, 200768, 201188, 201586]",23,-9,477,-24.324324324324326,37.0
4,17,637,14,"[1627747, 1627789, 1628386, 1629185, 202066]",1610612761,1610612751,"[1626181, 1627783, 1627832, 1628384, 201586]",31,-14,538,-31.11111111111111,45.0
5,18,673,15,"[1627789, 1628386, 1629185, 202066, 204020]",1610612761,1610612751,"[1626181, 1627783, 1627832, 1628384, 201586]",33,-15,638,-31.25,48.0
6,20,707,17,"[1627789, 1629185, 1629743, 203925, 204020]",1610612761,1610612751,"[1626178, 1626181, 1627783, 200768, 201586]",37,-17,674,-33.33333333333333,51.0
7,20,719,17,"[1627747, 1627789, 1629185, 203925, 204020]",1610612761,1610612751,"[1626178, 1626181, 1627783, 200768, 201586]",37,-17,708,-32.075471698113205,53.0
8,24,856,20,"[1627747, 1627789, 1628386, 1629185, 204020]",1610612761,1610612751,"[1626181, 1627783, 1629744, 200768, 201586]",44,-20,720,-32.25806451612903,62.0
9,28,923,21,"[203925, 1627789, 1629185, 204020, 1629743]",1610612761,1610612751,"[200768, 201586, 1626181, 1626178, 1629744]",49,-21,857,-30.88235294117647,68.0
10,28,969,26,"[203925, 1627789, 1629185, 204020, 1629743]",1610612761,1610612751,"[1626178, 1627832, 1629744, 200768, 201586]",54,-26,924,-36.11111111111111,72.0
11,31,1016,23,"[1627747, 1628386, 1629066, 202066, 204020]",1610612761,1610612751,"[1626178, 1627832, 1629744, 200768, 201586]",54,-23,970,-30.666666666666664,75.0
12,38,1205,30,"[1627747, 1628386, 1629066, 202066, 204020]",1610612761,1610612751,"[1626178, 1627832, 1628384, 200768, 201586]",68,-30,1017,-34.090909090909086,88.0
13,38,1215,30,"[1627747, 1628386, 1629066, 202066, 204020]",1610612761,1610612751,"[1627783, 1627832, 1628384, 200768, 201188]",68,-30,1206,-33.70786516853933,89.0
14,51,1412,22,"[1627747, 1627789, 1628386, 202066, 203925]",1610612761,1610612751,"[1627783, 1627832, 1628384, 200768, 201188]",73,-22,1216,-21.153846153846153,104.0
15,51,1439,22,"[1627747, 1627789, 1629066, 202066, 203925]",1610612761,1610612751,"[1627783, 1627832, 1628384, 200768, 201188]",73,-22,1413,-20.754716981132077,106.0
16,65,1771,19,"[1627747, 1627789, 1628386, 202066, 203925]",1610612761,1610612751,"[1627783, 1627832, 1628384, 200768, 201188]",84,-19,1440,-14.84375,128.0
17,70,1829,14,"[203925, 1628386, 202066, 1627747, 1627789]",1610612761,1610612751,"[1628384, 1627783, 201188, 1627832, 200768]",84,-14,1772,-10.44776119402985,134.0
18,79,1970,9,"[203925, 1628386, 202066, 1627747, 1627789]",1610612761,1610612751,"[1626181, 1627783, 1627832, 200768, 201586]",88,-9,1830,-6.338028169014084,142.0
19,82,2072,10,"[203925, 1628386, 202066, 1627747, 1627789]",1610612761,1610612751,"[1626178, 1626181, 1627783, 1627832, 201586]",92,-10,1971,-6.7114093959731544,149.0
20,84,2159,11,"[203925, 1628386, 202066, 1627747, 1627789]",1610612761,1610612751,"[1626181, 1627783, 1627832, 1629056, 201586]",95,-11,2073,-7.18954248366013,153.0
21,90,2298,12,"[1627789, 1628386, 202066, 203925, 204020]",1610612761,1610612751,"[1626181, 1628384, 1629056, 200768, 201586]",102,-12,2160,-7.2727272727272725,165.0
22,93,2361,15,"[1629066, 1627747, 1627789, 204020, 1629725]",1610612761,1610612751,"[1628384, 1627832, 200768, 201586, 1629056]",108,-15,2299,-8.928571428571429,168.0
23,96,2446,15,"[1627747, 1627789, 1628386, 1629725, 204020]",1610612761,1610612751,"[1628384, 1627832, 200768, 201586, 1629056]",111,-15,2362,-8.670520231213873,173.0
24,100,2516,14,"[1627789, 1628386, 1629725, 203925, 204020]",1610612761,1610612751,"[1628384, 1627832, 200768, 201586, 1629056]",114,-14,2447,-7.909604519774012,177.0
25,102,2645,17,"[1627747, 1627789, 1628386, 202066, 203925]",1610612761,1610612751,"[1628384, 1627832, 200768, 201586, 1629056]",119,-17,2517,-9.18918918918919,185.0
26,102,2697,22,"[1627747, 1627789, 1628386, 202066, 203925]",1610612761,1610612751,"[1627783, 1627832, 1628384, 200768, 201586]",124,-22,2646,-11.64021164021164,189.0
27,110,2878,24,"[1626147, 1629058, 1629725, 1629743, 202498]",1610612761,1610612751,"[1627783, 1627832, 1628384, 200768, 201586]",134,-24,2698,-11.881188118811881,202.0
28,110,9999999,24,"[1626147, 1629058, 1629725, 1629743, 202498]",1610612761,1610612751,"[1626178, 1626181, 1628449, 1629056, 1629744]",134,-24,2879,-11.822660098522167,203.0
