,TEAM_ID_1,TEAM_1_PLAYERS,TEAM_ID_2,TEAM_2_PLAYERS,PERIOD
0,1610612737,[1629631 1628381  203991  203992 1629027],1610612755,[ 201980  202699  203954  203552 1630178],1
1,1610612737,[1629629 1628989  201568  203476  101150],1610612755,[1627777 1629003 1629680 1627788  203083],2
2,1610612737,[1629631 1628381  203991  203992 1629027],1610612755,[ 201980  202699  203954  203552 1630178],3
3,1610612737,[1629629 1628989  201568  203476  101150],1610612755,[1627777 1629003 1629680 1627788  203083],4
