,team1_id,team1_player1,team1_player2,team1_player3,team1_player4,team1_player5,team2_id,team2_player1,team2_player2,team2_player3,team2_player4,team2_player5,game_id,period,possession_start,possession_end,team1_points,team2_points,possession_team
0,1610612745,1627863,203496,200782,201935,201566,1610612762,204060,202711,203497,1628378,201144,0021900841,1,0,15,0,2,1610612762
1,1610612745,1627863,203496,200782,201935,201566,1610612762,204060,202711,203497,1628378,201144,0021900841,1,36,38,0,0,1610612745
2,1610612745,1627863,203496,200782,201935,201566,1610612762,204060,202711,203497,1628378,201144,0021900841,1,56,56,0,2,1610612762
3,1610612745,1627863,203496,200782,201935,201566,1610612762,204060,202711,203497,1628378,201144,0021900841,1,75,78,0,0,1610612745
4,1610612745,1627863,203496,200782,201935,201566,1610612762,204060,202711,203497,1628378,201144,0021900841,1,89,93,0,0,1610612762
5,1610612745,1627863,203496,200782,201935,201566,1610612762,204060,202711,203497,1628378,201144,0021900841,1,97,97,3,0,1610612745
6,1610612745,1627863,203496,200782,201935,201566,1610612762,204060,202711,203497,1628378,201144,0021900841,1,120,120,0,3,1610612762
7,1610612745,1627863,203496,200782,201935,201566,1610612762,204060,202711,203497,1628378,201144,0021900841,1,139,142,2,0,1610612745
8,1610612745,1627863,203496,200782,201935,201566,1610612762,204060,202711,203497,1628378,201144,0021900841,1,171,177,0,0,1610612762
9,1610612745,1627863,203496,200782,201935,201566,1610612762,204060,202711,203497,1628378,201144,0021900841,1,192,194,0,0,1610612745
10,1610612745,1627863,203496,200782,201935,201566,1610612762,204060,202711,203497,1628378,201144,0021900841,1,204,204,0,3,1610612762
11,1610612745,1627863,203496,200782,201935,201566,1610612762,204060,202711,203497,1628378,201144,0021900841,1,216,216,3,0,1610612745
12,1610612745,1627863,203496,200782,201935,201566,1610612762,204060,202711,203497,1628378,201144,0021900841,1,228,228,0,2,1610612762
13,1610612745,1627863,203496,200782,201935,201566,1610612762,204060,202711,203497,1628378,201144,0021900841,1,244,247,2,0,1610612745
14,1610612745,1627863,203496,200782,201935,201566,1610612762,204060,202711,203497,1628378,201144,0021900841,1,247,267,0,0,1610612762
15,1610612745,1627863,203496,200782,201935,201566,1610612762,204060,202711,203497,1628378,201144,0021900841,1,271,271,0,0,1610612745
16,1610612745,1627863,203496,200782,201935,201566,1610612762,204060,202711,203497,1628378,201144,0021900841,1,280,283,0,0,1610612762
17,1610612745,1627863,203496,200782,201935,201566,1610612762,204060,202711,203497,1628378,201144,0021900841,1,289,289,3,0,1610612745
18,1610612745,1627863,203496,200782,201935,201566,1610612762,204060,202711,203497,1628378,201144,0021900841,1,292,302,0,0,1610612762
19,1610612745,200782,201566,201569,201935,203496,1610612762,1626220,1628378,202711,203497,203903,0021900841,1,308,311,0,0,1610612745
20,1610612745,200782,201566,201569,201935,203496,1610612762,1626220,1628378,202711,203497,203903,0021900841,1,315,318,0,2,1610612762
21,1610612745,200782,201566,201569,201935,203496,1610612762,1626220,1628378,202711,203497,203903,0021900841,1,328,328,2,0,1610612745
22,1610612745,200782,201566,201569,201935,203496,1610612762,1626220,1628378,202711,203497,203903,0021900841,1,337,342,0,0,1610612762
23,1610612745,200782,201566,201569,201935,203496,1610612762,1626220,1628378,202711,203497,203903,0021900841,1,345,345,2,0,1610612745
24,1610612745,200782,201566,201569,201935,203496,1610612762,1626220,1628378,202711,203497,203903,0021900841,1,364,366,0,2,1610612762
25,1610612745,200782,201566,201569,201935,203496,1610612762,1626220,1628378,202711,203497,203903,0021900841,1,375,377,0,0,1610612745
26,1610612745,200782,201566,201569,201935,203496,1610612762,1626220,1628378,202711,203497,203903,0021900841,1,390,403,0,2,1610612762
27,1610612745,200782,201569,201935,203085,203463,1610612762,1626220,1628378,202711,203497,203903,0021900841,1,416,416,3,0,1610612745
28,1610612745,200782,201569,201935,203085,203463,1610612762,1626220,1628378,202711,203497,203903,0021900841,1,435,435,0,2,1610612762
29,1610612745,200782,201569,201935,203085,203463,1610612762,1626220,1628378,202711,203497,203903,0021900841,1,449,449,3,0,1610612745
30,1610612745,200782,201569,201935,203085,203463,1610612762,1626220,1628378,202711,203497,203903,0021900841,1,464,464,0,2,1610612762
31,1610612745,200782,201569,201935,203085,203463,1610612762,1626220,1628378,202711,203497,203903,0021900841,1,474,474,3,0,1610612745
32,1610612745,200782,201569,201935,203085,203463,1610612762,1626220,1628378,202711,203497,203903,0021900841,1,488,488,0,2,1610612762
33,1610612745,201145,201569,201935,203085,203463,1610612762,1626220,1628378,202711,203497,203903,0021900841,1,499,499,3,0,1610612745
34,1610612745,201145,201569,201935,203085,203463,1610612762,1626220,1628378,202711,203497,203903,0021900841,1,509,513,0,0,1610612762
35,1610612745,201145,201569,201935,203085,203463,1610612762,1626220,1628378,202711,203497,203903,0021900841,1,521,521,2,0,1610612745
36,1610612745,201145,201569,201935,203085,203463,1610612762,1626220,1628378,202711,203497,203903,0021900841,1,535,535,0,2,1610612762
37,1610612745,201145,201569,201935,203085,203463,1610612762,1626220,1629752,201144,202711,203903,0021900841,1,547,547,3,0,1610612745
38,1610612745,201145,201569,201935,203085,203463,1610612762,1626220,1629752,201144,202711,203903,0021900841,1,555,566,0,2,1610612762
39,1610612745,201145,201566,201569,203085,203463,1610612762,1626220,1627777,1629752,201144,203903,0021900841,1,577,577,2,0,1610612745
40,1610612745,201145,201566,201569,203085,203463,1610612762,1626220,1627777,1629752,201144,203903,0021900841,1,591,591,0,2,1610612762
41,1610612745,201145,201566,201569,203085,203463,1610612762,1626220,1627777,1629752,201144,203903,0021900841,1,603,607,0,0,1610612745
42,1610612745,201145,201566,201569,203085,203463,1610612762,1626220,1627777,1629752,201144,203903,0021900841,1,615,615,0,2,1610612762
43,1610612745,201145,201566,201569,203085,203463,1610612762,1626220,1627777,1629752,201144,203903,0021900841,1,638,641,0,0,1610612745
44,1610612745,201145,201566,201569,203085,203463,1610612762,1626220,1627777,1629752,201144,203903,0021900841,1,649,649,0,2,1610612762
45,1610612745,201145,201566,201569,203085,203463,1610612762,1626220,1627777,1629752,201144,203903,0021900841,1,666,666,0,0,1610612745
46,1610612745,201145,201566,201569,203085,203463,1610612762,1626220,1627777,1629752,201144,203903,0021900841,1,666,679,0,0,1610612762
47,1610612745,201145,201566,201569,203085,203463,1610612762,1626220,1627777,201144,203903,204060,0021900841,1,683,683,0,0,1610612745
48,1610612745,201145,201566,201569,203085,203463,1610612762,1626220,1627777,201144,203903,204060,0021900841,1,694,696,0,0,1610612762
49,1610612745,201145,201566,201569,203085,203463,1610612762,1626220,1627777,201144,203903,204060,0021900841,1,715,715,2,0,1610612745
50,1610612745,201145,201566,201569,203085,203463,1610612762,1626220,1627777,201144,203903,204060,0021900841,1,720,720,0,2,1610612762
51,1610612745,201145,201566,201569,203085,203463,1610612762,1626220,1627777,201144,203903,204060,0021900841,1,720,720,0,0,146
52,1610612745,1627863,203496,201566,203085,201145,1610612762,204060,201144,203903,1626220,1629752,0021900841,2,720,742,0,0,1610612745
53,1610612745,1627863,203496,201566,203085,201145,1610612762,204060,201144,203903,1626220,1629752,0021900841,2,751,751,0,3,1610612762
54,1610612745,1627863,203496,201566,203085,201145,1610612762,204060,201144,203903,1626220,1629752,0021900841,2,761,773,0,0,1610612745
55,1610612745,1627863,203496,201566,203085,201145,1610612762,204060,201144,203903,1626220,1629752,0021900841,2,782,784,0,0,1610612762
56,1610612745,1627863,203496,201566,203085,201145,1610612762,204060,201144,203903,1626220,1629752,0021900841,2,792,794,0,0,1610612745
57,1610612745,1627863,203496,201566,203085,201145,1610612762,204060,201144,203903,1626220,1629752,0021900841,2,800,804,0,0,1610612762
58,1610612745,1627863,203496,201566,203085,201145,1610612762,204060,201144,203903,1626220,1629752,0021900841,2,804,804,2,0,1610612745
59,1610612745,1627863,203496,201566,203085,201145,1610612762,1627777,1629752,201144,203903,204060,0021900841,2,817,817,0,2,1610612762
60,1610612745,1627863,203496,201566,203085,201145,1610612762,1627777,1629752,201144,203903,204060,0021900841,2,831,831,2,0,1610612745
61,1610612745,1627863,203496,201566,203085,201145,1610612762,1627777,1629752,201144,203903,204060,0021900841,2,842,842,0,3,1610612762
62,1610612745,1627863,203496,201566,203085,201145,1610612762,1627777,1629752,201144,203903,204060,0021900841,2,855,858,0,0,1610612745
63,1610612745,1627863,203496,201566,203085,201145,1610612762,1627777,1629752,201144,203903,204060,0021900841,2,864,864,0,2,1610612762
64,1610612745,1627863,203496,201566,203085,201145,1610612762,1627777,1629752,201144,203903,204060,0021900841,2,882,885,0,0,1610612745
65,1610612745,1627863,203496,201566,203085,201145,1610612762,1627777,1629752,201144,203903,204060,0021900841,2,894,894,0,2,1610612762
66,1610612745,1627863,203496,201566,203085,201145,1610612762,1627777,1629752,201144,203903,204060,0021900841,2,895,918,0,0,1610612745
67,1610612745,1627863,200782,201566,201935,203496,1610612762,1627777,1629752,201144,203903,204060,0021900841,2,921,940,0,0,1610612762
68,1610612745,1627863,200782,201566,201935,203496,1610612762,1627777,1629752,201144,203903,204060,0021900841,2,954,954,3,0,1610612745
69,1610612745,1627863,200782,201566,201935,203496,1610612762,1627777,1629752,201144,203903,204060,0021900841,2,973,977,0,0,1610612762
70,1610612745,1627863,200782,201566,201935,203496,1610612762,1627777,1629752,201144,203903,204060,0021900841,2,985,985,0,0,1610612745
71,1610612745,1627863,200782,201566,201935,203496,1610612762,1627777,1629752,201144,203903,204060,0021900841,2,988,988,0,2,1610612762
72,1610612745,1627863,200782,201566,201935,203496,1610612762,1627777,1629752,201144,203903,204060,0021900841,2,1007,1007,0,0,1610612745
73,1610612745,1627863,200782,201566,201935,203496,1610612762,1626220,1628378,201144,203497,203903,0021900841,2,1026,1026,0,3,1610612762
74,1610612745,1627863,200782,201566,201935,203496,1610612762,1626220,1628378,201144,203497,203903,0021900841,2,1048,1048,2,0,1610612745
75,1610612745,1627863,200782,201566,201935,203496,1610612762,1626220,1628378,202711,203497,203903,0021900841,2,1061,1064,0,0,1610612762
76,1610612745,1627863,200782,201566,201935,203496,1610612762,1626220,1628378,202711,203497,203903,0021900841,2,1067,1067,2,0,1610612745
77,1610612745,1627863,200782,201566,201935,203496,1610612762,1626220,1628378,202711,203497,203903,0021900841,2,1067,1091,0,0,1610612762
78,1610612745,200782,201566,201569,201935,203496,1610612762,1626220,1628378,202711,203497,203903,0021900841,2,1102,1102,3,0,1610612745
79,1610612745,200782,201566,201569,201935,203496,1610612762,1626220,1628378,202711,203497,203903,0021900841,2,1127,1127,0,2,1610612762
80,1610612745,200782,201566,201569,201935,203496,1610612762,1626220,1628378,202711,203497,203903,0021900841,2,1135,1135,0,0,1610612745
81,1610612745,200782,201566,201569,201935,203496,1610612762,1626220,1628378,202711,203497,203903,0021900841,2,1143,1143,0,2,1610612762
82,1610612745,200782,201566,201569,201935,203496,1610612762,1626220,1628378,202711,203497,203903,0021900841,2,1163,1164,0,0,1610612745
83,1610612745,200782,201566,201569,201935,203496,1610612762,1626220,1628378,202711,203497,203903,0021900841,2,1170,1172,0,0,1610612762
84,1610612745,200782,201566,201569,201935,203496,1610612762,1626220,1628378,202711,203497,203903,0021900841,2,1177,1186,0,0,1610612745
85,1610612745,200782,201566,201569,201935,203496,1610612762,1626220,1628378,202711,203497,203903,0021900841,2,1190,1190,0,2,1610612762
86,1610612745,200782,201566,201569,201935,203496,1610612762,1626220,1628378,202711,203497,203903,0021900841,2,1209,1214,2,0,1610612745
87,1610612745,200782,201566,201569,201935,203496,1610612762,1626220,1628378,202711,203497,203903,0021900841,2,1229,1230,0,0,1610612762
88,1610612745,200782,201566,201569,201935,203496,1610612762,1628378,201144,202711,203497,204060,0021900841,2,1251,1255,0,0,1610612745
89,1610612745,200782,201566,201569,201935,203496,1610612762,1628378,201144,202711,203497,204060,0021900841,2,1259,1260,0,0,1610612762
90,1610612745,200782,201566,201569,201935,203496,1610612762,1628378,201144,202711,203497,204060,0021900841,2,1281,1281,2,0,1610612745
91,1610612745,200782,201566,201569,201935,203496,1610612762,1628378,201144,202711,203497,204060,0021900841,2,1298,1303,0,0,1610612762
92,1610612745,200782,201566,201569,201935,203496,1610612762,1628378,201144,202711,203497,204060,0021900841,2,1308,1308,2,0,1610612745
93,1610612745,200782,201566,201569,201935,203496,1610612762,1628378,201144,202711,203497,204060,0021900841,2,1338,1338,0,0,1610612762
94,1610612745,200782,201566,201569,201935,203496,1610612762,1628378,201144,202711,203497,204060,0021900841,2,1341,1342,1,0,1610612745
95,1610612745,200782,201566,201569,201935,203496,1610612762,1628378,201144,202711,203497,204060,0021900841,2,1351,1354,0,0,1610612762
96,1610612745,200782,201566,201569,201935,203496,1610612762,1628378,201144,202711,203497,204060,0021900841,2,1359,1362,0,0,1610612745
97,1610612745,200782,201566,201569,201935,203496,1610612762,1628378,201144,202711,203497,204060,0021900841,2,1366,1368,0,0,1610612762
98,1610612745,200782,201566,201569,201935,203496,1610612762,1628378,201144,202711,203497,204060,0021900841,2,1372,1375,0,0,1610612745
99,1610612745,200782,201566,201569,201935,203496,1610612762,1628378,201144,202711,203497,204060,0021900841,2,1381,1381,0,2,1610612762
100,1610612745,200782,201566,201569,201935,203496,1610612762,1628378,201144,202711,203497,204060,0021900841,2,1386,1388,2,0,1610612745
101,1610612745,200782,201566,201569,201935,203496,1610612762,1628378,201144,202711,203497,204060,0021900841,2,1401,1401,0,2,1610612762
102,1610612745,200782,201566,201569,201935,203496,1610612762,1628378,201144,202711,203497,204060,0021900841,2,1411,1413,1,0,1610612745
103,1610612745,200782,201566,201569,201935,203496,1610612762,1628378,201144,202711,203497,204060,0021900841,2,1429,1429,0,3,1610612762
104,1610612745,200782,201566,201569,201935,203496,1610612762,1628378,201144,202711,203497,204060,0021900841,2,1440,1440,0,0,1610612762
105,1610612745,1627863,203496,200782,201935,201566,1610612762,204060,202711,203497,1628378,201144,0021900841,3,1440,1462,0,0,1610612745
106,1610612745,1627863,203496,200782,201935,201566,1610612762,204060,202711,203497,1628378,201144,0021900841,3,1464,1472,0,0,1610612762
107,1610612745,1627863,203496,200782,201935,201566,1610612762,204060,202711,203497,1628378,201144,0021900841,3,1475,1475,2,0,1610612745
108,1610612745,1627863,203496,200782,201935,201566,1610612762,204060,202711,203497,1628378,201144,0021900841,3,1494,1498,0,0,1610612762
109,1610612745,1627863,203496,200782,201935,201566,1610612762,204060,202711,203497,1628378,201144,0021900841,3,1515,1518,0,0,1610612745
110,1610612745,1627863,203496,200782,201935,201566,1610612762,204060,202711,203497,1628378,201144,0021900841,3,1525,1525,0,0,1610612762
111,1610612745,1627863,203496,200782,201935,201566,1610612762,204060,202711,203497,1628378,201144,0021900841,3,1532,1535,0,0,1610612745
112,1610612745,1627863,203496,200782,201935,201566,1610612762,204060,202711,203497,1628378,201144,0021900841,3,1551,1555,0,0,1610612762
113,1610612745,1627863,203496,200782,201935,201566,1610612762,204060,202711,203497,1628378,201144,0021900841,3,1566,1566,3,0,1610612745
114,1610612745,1627863,203496,200782,201935,201566,1610612762,204060,202711,203497,1628378,201144,0021900841,3,1588,1588,0,2,1610612762
115,1610612745,1627863,203496,200782,201935,201566,1610612762,204060,202711,203497,1628378,201144,0021900841,3,1595,1595,2,0,1610612745
116,1610612745,1627863,203496,200782,201935,201566,1610612762,204060,202711,203497,1628378,201144,0021900841,3,1603,1603,0,1,1610612762
117,1610612745,1627863,203496,200782,201935,201566,1610612762,204060,202711,203497,1628378,201144,0021900841,3,1619,1619,2,0,1610612745
118,1610612745,1627863,203496,200782,201935,201566,1610612762,204060,202711,203497,1628378,201144,0021900841,3,1638,1653,0,0,1610612762
119,1610612745,1627863,203496,200782,201935,201566,1610612762,204060,202711,203497,1628378,201144,0021900841,3,1664,1664,3,0,1610612745
120,1610612745,1627863,203496,200782,201935,201566,1610612762,204060,202711,203497,1628378,201144,0021900841,3,1677,1677,0,0,1610612762
121,1610612745,1627863,203496,200782,201935,201566,1610612762,204060,202711,203497,1628378,201144,0021900841,3,1684,1684,2,0,1610612745
122,1610612745,1627863,203496,200782,201935,201566,1610612762,204060,202711,203497,1628378,201144,0021900841,3,1684,1694,0,2,1610612762
123,1610612745,1627863,203496,200782,201935,201566,1610612762,204060,202711,203497,1628378,201144,0021900841,3,1705,1705,2,0,1610612745
124,1610612745,1627863,203496,200782,201935,201566,1610612762,204060,202711,203497,1628378,201144,0021900841,3,1716,1717,0,0,1610612762
125,1610612745,1627863,203496,200782,201935,201566,1610612762,204060,202711,203497,1628378,201144,0021900841,3,1723,1725,0,0,1610612745
126,1610612745,1627863,203496,200782,201935,201566,1610612762,204060,202711,203497,1628378,201144,0021900841,3,1731,1731,0,3,1610612762
127,1610612745,1627863,203496,200782,201935,201566,1610612762,204060,202711,203497,1628378,201144,0021900841,3,1752,1752,2,0,1610612745
128,1610612745,1627863,203496,200782,201935,201566,1610612762,204060,202711,203497,1628378,201144,0021900841,3,1752,1770,0,0,1610612762
129,1610612745,1627863,203496,200782,201935,201566,1610612762,1626220,1628378,202711,203497,203903,0021900841,3,1784,1788,0,0,1610612745
130,1610612745,1627863,203496,200782,201935,201566,1610612762,1626220,1628378,202711,203497,203903,0021900841,3,1798,1803,0,2,1610612762
131,1610612745,1627863,203496,200782,201935,201566,1610612762,1626220,1628378,202711,203497,203903,0021900841,3,1806,1810,0,0,1610612745
132,1610612745,1627863,203496,200782,201935,201566,1610612762,1626220,1628378,202711,203497,203903,0021900841,3,1825,1831,0,0,1610612762
133,1610612745,1627863,203496,200782,201935,201566,1610612762,1626220,1628378,202711,203497,203903,0021900841,3,1842,1842,3,0,1610612745
134,1610612745,1627863,203496,200782,201935,201566,1610612762,1626220,1628378,202711,203497,203903,0021900841,3,1860,1862,0,0,1610612762
135,1610612745,1627863,203496,200782,201935,201566,1610612762,1626220,1628378,202711,203497,203903,0021900841,3,1882,1897,0,0,1610612745
136,1610612745,200782,201569,201935,203085,203463,1610612762,1626220,201144,202711,203497,203903,0021900841,3,1906,1906,0,1,1610612762
137,1610612745,200782,201569,201935,203085,203463,1610612762,1626220,201144,202711,203497,203903,0021900841,3,1920,1923,0,0,1610612745
138,1610612745,200782,201569,201935,203085,203463,1610612762,1626220,201144,202711,203497,203903,0021900841,3,1936,1936,0,3,1610612762
139,1610612745,201145,201569,201935,203085,203463,1610612762,1626220,1627777,1629752,201144,203903,0021900841,3,1953,1953,3,0,1610612745
140,1610612745,201145,201569,201935,203085,203463,1610612762,1626220,1627777,1629752,201144,203903,0021900841,3,1968,1968,0,0,1610612762
141,1610612745,201145,201569,201935,203085,203463,1610612762,1626220,1627777,1629752,201144,203903,0021900841,3,1985,1985,3,0,1610612745
142,1610612745,201145,201569,201935,203085,203463,1610612762,1626220,1627777,1629752,201144,203903,0021900841,3,1998,2000,0,0,1610612762
143,1610612745,201145,201569,201935,203085,203463,1610612762,1626220,1627777,1629752,201144,203903,0021900841,3,2009,2009,2,0,1610612745
144,1610612745,201145,201569,201935,203085,203463,1610612762,1626220,1627777,1629752,201144,203903,0021900841,3,2010,2021,0,0,1610612762
145,1610612745,201145,201566,201569,203085,203463,1610612762,1626220,1627777,1629752,201144,203903,0021900841,3,2027,2027,2,0,1610612745
146,1610612745,201145,201566,201569,203085,203463,1610612762,1626220,1627777,1629752,201144,203903,0021900841,3,2045,2045,0,2,1610612762
147,1610612745,201145,201566,201569,203085,203463,1610612762,1626220,1627777,1629752,201144,203903,0021900841,3,2063,2065,2,0,1610612745
148,1610612745,201145,201566,201569,203085,203463,1610612762,1627777,1629752,201144,203903,204060,0021900841,3,2083,2086,0,0,1610612762
149,1610612745,201145,201566,201569,203085,203463,1610612762,1627777,1629752,201144,203903,204060,0021900841,3,2094,2094,2,0,1610612745
150,1610612745,201145,201566,201569,203085,203463,1610612762,1627777,1629752,201144,203903,204060,0021900841,3,2107,2118,0,3,1610612762
151,1610612745,201145,201566,201569,203085,203463,1610612762,1627777,1629752,201144,203903,204060,0021900841,3,2126,2126,3,0,1610612745
152,1610612745,201145,201566,201569,203085,203463,1610612762,1627777,1629752,201144,203903,204060,0021900841,3,2135,2137,0,0,1610612762
153,1610612745,201145,201566,201569,203085,203463,1610612762,1627777,1629752,201144,203903,204060,0021900841,3,2158,2158,0,0,1610612745
154,1610612745,201566,201569,203463,203085,201145,1610612762,204060,202711,1628378,203903,1629752,0021900841,4,2160,2172,0,0,1610612762
155,1610612745,201566,201569,203463,203085,201145,1610612762,204060,202711,1628378,203903,1629752,0021900841,4,2183,2186,0,0,1610612745
156,1610612745,201566,201569,203463,203085,201145,1610612762,204060,202711,1628378,203903,1629752,0021900841,4,2192,2192,0,2,1610612762
157,1610612745,201566,201569,203463,203085,201145,1610612762,204060,202711,1628378,203903,1629752,0021900841,4,2208,2210,0,0,1610612745
158,1610612745,201566,201569,203463,203085,201145,1610612762,204060,202711,1628378,203903,1629752,0021900841,4,2213,2220,0,0,1610612762
159,1610612745,201566,201569,203463,203085,201145,1610612762,204060,202711,1628378,203903,1629752,0021900841,4,2222,2233,0,0,1610612745
160,1610612745,201145,201566,203085,203463,203496,1610612762,204060,202711,1628378,203903,1629752,0021900841,4,2237,2237,0,2,1610612762
161,1610612745,201145,201566,203085,203463,203496,1610612762,204060,202711,1628378,203903,1629752,0021900841,4,2239,2257,2,0,1610612745
162,1610612745,201145,201566,203085,203463,203496,1610612762,204060,202711,1628378,203903,1629752,0021900841,4,2272,2274,0,0,1610612762
163,1610612745,201145,201566,203085,203463,203496,1610612762,204060,202711,1628378,203903,1629752,0021900841,4,2285,2285,3,0,1610612745
164,1610612745,201145,201566,203085,203463,203496,1610612762,204060,202711,1628378,203903,1629752,0021900841,4,2307,2307,0,2,1610612762
165,1610612745,201145,201566,203085,203463,203496,1610612762,204060,202711,1628378,203903,1629752,0021900841,4,2314,2318,0,0,1610612745
166,1610612745,201145,201566,203085,203463,203496,1610612762,204060,202711,1628378,203903,1629752,0021900841,4,2322,2322,0,3,1610612762
167,1610612745,200782,201566,201935,203085,203496,1610612762,1628378,202711,203497,203903,204060,0021900841,4,2330,2330,0,0,1610612745
168,1610612745,1627863,200782,201935,203085,203496,1610612762,1628378,202711,203497,203903,204060,0021900841,4,2343,2354,0,0,1610612762
169,1610612745,1627863,200782,201935,203085,203496,1610612762,1628378,202711,203497,203903,204060,0021900841,4,2364,2374,0,0,1610612745
170,1610612745,1627863,200782,201935,203085,203496,1610612762,1628378,202711,203497,203903,204060,0021900841,4,2384,2384,0,2,1610612762
171,1610612745,1627863,200782,201935,203085,203496,1610612762,1628378,202711,203497,203903,204060,0021900841,4,2386,2409,3,0,1610612745
172,1610612745,1627863,200782,201569,201935,203496,1610612762,1628378,202711,203497,203903,204060,0021900841,4,2424,2428,0,0,1610612762
173,1610612745,1627863,200782,201569,201935,203496,1610612762,1628378,202711,203497,203903,204060,0021900841,4,2437,2440,0,0,1610612745
174,1610612745,1627863,200782,201569,201935,203496,1610612762,1628378,202711,203497,203903,204060,0021900841,4,2450,2451,0,0,1610612762
175,1610612745,1627863,200782,201569,201935,203496,1610612762,1626220,1628378,201144,202711,203497,0021900841,4,2462,2462,3,0,1610612745
176,1610612745,1627863,200782,201569,201935,203496,1610612762,1626220,1628378,201144,202711,203497,0021900841,4,2474,2495,0,3,1610612762
177,1610612745,1627863,200782,201569,201935,203496,1610612762,1626220,1628378,201144,202711,203497,0021900841,4,2507,2507,0,0,1610612745
178,1610612745,1627863,200782,201569,201935,203496,1610612762,1626220,1628378,201144,202711,203497,0021900841,4,2521,2521,0,0,1610612762
179,1610612745,1627863,200782,201569,201935,203496,1610612762,1626220,1628378,201144,202711,203497,0021900841,4,2531,2531,2,0,1610612745
180,1610612745,1627863,200782,201569,201935,203496,1610612762,1626220,1628378,201144,202711,203497,0021900841,4,2545,2545,0,2,1610612762
181,1610612745,1627863,200782,201569,201935,203496,1610612762,1626220,1628378,201144,202711,203497,0021900841,4,2561,2564,0,0,1610612745
182,1610612745,1627863,200782,201569,201935,203496,1610612762,1626220,1628378,201144,202711,203497,0021900841,4,2575,2577,0,0,1610612762
183,1610612745,1627863,200782,201569,201935,203496,1610612762,1626220,1628378,201144,202711,203497,0021900841,4,2582,2583,0,0,1610612745
184,1610612745,1627863,200782,201566,201935,203496,1610612762,1626220,1628378,201144,202711,203497,0021900841,4,2591,2591,0,3,1610612762
185,1610612745,1627863,200782,201566,201935,203496,1610612762,1626220,1628378,201144,202711,203497,0021900841,4,2614,2617,0,0,1610612745
186,1610612745,1627863,200782,201566,201935,203496,1610612762,1626220,1628378,201144,202711,203497,0021900841,4,2622,2638,0,2,1610612762
187,1610612745,1627863,200782,201566,201935,203496,1610612762,1628378,201144,202711,203497,204060,0021900841,4,2646,2646,2,0,1610612745
188,1610612745,1627863,200782,201566,201935,203496,1610612762,1628378,201144,202711,203497,204060,0021900841,4,2664,2667,0,0,1610612762
189,1610612745,1627863,200782,201566,201935,203496,1610612762,1628378,201144,202711,203497,204060,0021900841,4,2674,2677,0,0,1610612745
190,1610612745,1627863,200782,201566,201935,203496,1610612762,1628378,201144,202711,203497,204060,0021900841,4,2698,2698,0,2,1610612762
191,1610612745,1627863,200782,201566,201935,203496,1610612762,1628378,201144,202711,203497,204060,0021900841,4,2722,2726,0,0,1610612745
192,1610612745,1627863,200782,201566,201935,203496,1610612762,1628378,201144,202711,203497,204060,0021900841,4,2739,2742,0,0,1610612762
193,1610612745,1627863,200782,201566,201935,203496,1610612762,1628378,201144,202711,203497,204060,0021900841,4,2747,2747,3,0,1610612745
194,1610612745,1627863,200782,201566,201935,203496,1610612762,1628378,201144,202711,203497,204060,0021900841,4,2751,2767,0,0,1610612762
195,1610612745,200782,201566,201569,201935,203496,1610612762,1628378,201144,202711,203497,204060,0021900841,4,2790,2794,0,0,1610612745
196,1610612745,200782,201566,201569,201935,203496,1610612762,1628378,201144,202711,203497,204060,0021900841,4,2810,2810,0,2,1610612762
197,1610612745,200782,201566,201569,201935,203496,1610612762,1628378,201144,202711,203497,204060,0021900841,4,2830,2843,0,0,1610612745
198,1610612745,200782,201566,201569,201935,203496,1610612762,1628378,201144,202711,203497,204060,0021900841,4,2845,2845,0,0,1610612762
199,1610612745,200782,201566,201569,201935,203496,1610612762,1628378,201144,202711,203497,204060,0021900841,4,2856,2856,2,0,1610612745
200,1610612745,200782,201566,201569,201935,203496,1610612762,1628378,201144,202711,203497,204060,0021900841,4,2867,2867,0,0,1610612762
