,stint_end,t1_players,t2_pm,t2_points_scored,stint_start,t1_pm,t1_points_scored,t2_id,t1_id,t2_players,margin_per_100,num_poss
0,439,"[201942, 1629640, 200746, 1629022, 1627749]",4,19,0,-4,15,1610612750,1610612759,"[1629633, 1627823, 1626157, 1627736, 1626156]",-14.814814814814813,27.0
1,495,"[201942, 1629640, 200746, 1629022, 1627749]",5,22,440,-5,17,1610612750,1610612759,"[1629633, 1627823, 1626157, 1627736, 1626156]",-16.666666666666664,30.0
2,541,"[1629022, 1629640, 200746, 200752, 201988]",7,26,496,-7,19,1610612750,1610612759,"[1626157, 1627736, 1629633, 1630162, 201937]",-21.21212121212121,33.0
3,580,"[1627751, 1629022, 1629640, 200752, 201988]",5,28,542,-5,23,1610612750,1610612759,"[1627736, 1629633, 1629675, 1630162, 201937]",-13.88888888888889,36.0
4,687,"[1627751, 1629022, 1629640, 200752, 201988]",2,30,581,-2,28,1610612750,1610612759,"[1626156, 1627774, 1629675, 1630162, 201937]",-4.545454545454546,44.0
5,719,"[1627751, 1629640, 1630170, 200752, 201988]",3,31,688,-3,28,1610612750,1610612759,"[1626156, 1627774, 1629675, 1630162, 201937]",-6.521739130434782,46.0
6,809,"[1627751, 1629640, 1630170, 200752, 201988]",8,38,720,-8,30,1610612750,1610612759,"[1626156, 1629633, 1629675, 1630162, 201937]",-14.814814814814813,54.0
7,869,"[201942, 200752, 201988, 1627751, 1630170]",6,38,810,-6,32,1610612750,1610612759,"[1629633, 201937, 1630162, 1629675, 1627774]",-10.344827586206897,58.0
8,933,"[201942, 200752, 201988, 1627751, 1630170]",1,40,870,-1,39,1610612750,1610612759,"[1626157, 1627774, 1629633, 1630162, 201937]",-1.5873015873015872,63.0
9,1022,"[1627749, 1627751, 1630170, 201942, 201988]",1,42,934,-1,41,1610612750,1610612759,"[1626157, 1629020, 1629633, 1630162, 201937]",-1.4705882352941175,68.0
10,1041,"[1627749, 1627751, 1629022, 1630170, 201942]",1,42,1023,-1,41,1610612750,1610612759,"[1626157, 1629020, 1629633, 1630162, 201937]",-1.4492753623188406,69.0
11,1174,"[1627749, 1627751, 1629022, 1630170, 201942]",1,46,1042,-1,45,1610612750,1610612759,"[1627736, 1629020, 1629633, 1629675, 201937]",-1.282051282051282,78.0
12,1193,"[1627749, 1629022, 1629640, 200746, 201942]",-1,46,1175,1,47,1610612750,1610612759,"[1626156, 1627736, 1629020, 1629633, 1629675]",1.25,80.0
13,1360,"[1627749, 1629022, 1629640, 200746, 201942]",-5,51,1194,5,56,1610612750,1610612759,"[1626156, 1626157, 1627736, 1627823, 201937]",5.376344086021505,93.0
14,1408,"[1627749, 1629640, 200746, 201942, 201988]",-3,55,1361,3,58,1610612750,1610612759,"[1626156, 1626157, 1627736, 1627823, 201937]",3.125,96.0
15,1438,"[1627749, 1629640, 200746, 201942, 201988]",-2,58,1409,2,60,1610612750,1610612759,"[1626156, 1626157, 1627823, 1629633, 201937]",2.0408163265306123,98.0
16,1772,"[1627749, 1629640, 200746, 201942, 201988]",-6,67,1439,6,73,1610612750,1610612759,"[1626156, 1626157, 1627736, 1627823, 201937]",5.0,120.0
17,1861,"[201942, 1629640, 200746, 1629022, 1627749]",-4,71,1773,4,75,1610612750,1610612759,"[1629633, 1627823, 1626157, 1627736, 1626156]",3.1746031746031744,126.0
18,1921,"[1627749, 1627751, 1629022, 1629640, 201942]",-6,73,1862,6,79,1610612750,1610612759,"[1626156, 1626157, 1627823, 1629633, 1630162]",4.615384615384616,130.0
19,1933,"[1627751, 1629022, 200752, 201942, 201988]",-4,75,1922,4,79,1610612750,1610612759,"[1626157, 1627823, 1629633, 1630162, 201937]",3.0534351145038165,131.0
20,2019,"[1627751, 1629022, 200752, 201942, 201988]",-8,75,1934,8,83,1610612750,1610612759,"[1626157, 1629020, 1629633, 1630162, 201937]",5.797101449275362,138.0
21,2157,"[1627751, 1629022, 200752, 201942, 201988]",-1,82,2020,1,83,1610612750,1610612759,"[1627736, 1629020, 1629675, 1630162, 201937]",0.684931506849315,146.0
22,2209,"[1627751, 1630170, 200752, 201942, 201988]",2,85,2158,-2,83,1610612750,1610612759,"[1627736, 1629020, 1629675, 1630162, 201937]",-1.342281879194631,149.0
23,2349,"[1627749, 200752, 201988, 1627751, 1630170]",1,90,2210,-1,89,1610612750,1610612759,"[1627736, 201937, 1630162, 1629675, 1629020]",-0.625,160.0
24,2431,"[1627749, 1629640, 1630170, 200752, 201988]",1,95,2350,-1,94,1610612750,1610612759,"[1627736, 201937, 1630162, 1629675, 1629020]",-0.6024096385542169,166.0
25,2448,"[1627749, 1629640, 1630170, 200752, 201988]",3,97,2432,-3,94,1610612750,1610612759,"[1626156, 1627736, 1627823, 1629675, 1630162]",-1.7857142857142856,168.0
26,2521,"[1627749, 1629640, 200746, 201942, 201988]",3,97,2449,-3,94,1610612750,1610612759,"[1626156, 1626157, 1627823, 1629633, 1630162]",-1.744186046511628,172.0
27,2680,"[1627749, 1629022, 1629640, 200746, 201942]",-1,102,2522,1,103,1610612750,1610612759,"[1626156, 1626157, 1627823, 1629633, 1630162]",0.5494505494505495,182.0
28,2864,"[1627749, 1629022, 1629640, 200746, 201942]",-1,110,2681,1,111,1610612750,1610612759,"[1626156, 1626157, 1627736, 1629633, 201937]",0.5128205128205128,195.0
29,2867,"[1627749, 1629640, 200746, 201942, 201988]",2,113,2865,-2,111,1610612750,1610612759,"[1626156, 1626157, 1627736, 1630162, 201937]",-1.0204081632653061,196.0
30,2879,"[1627749, 1629640, 200752, 201942, 201988]",0,113,2868,0,113,1610612750,1610612759,"[1626156, 1626157, 1627736, 1629020, 201937]",0.0,197.0
31,3175,"[1627749, 1629640, 200752, 201942, 201988]",-3,122,2880,3,125,1610612750,1610612759,"[1626156, 1626157, 1627736, 1630162, 201937]",1.4018691588785046,214.0
32,9999999,"[201942, 1629640, 200746, 1627749, 201988]",-3,122,3176,3,125,1610612750,1610612759,"[1626157, 1627736, 1626156, 201937, 1630162]",1.3953488372093024,215.0
