,t2_pm,t1_players,stint_end,t2_points_scored,stint_start,t1_points_scored,t1_id,t2_id,t2_players,t1_pm,margin_per_100,num_poss
0,5,"[202330, 1628970, 203486, 1626162, 1630163]",260,13,0,8,1610612766,1610612753,"[1630532, 1628976, 1628964, 1630175, 1630591]",-5,-26.31578947368421,19.0
1,10,"[202330, 1628970, 203486, 1626162, 1630163]",368,18,261,8,1610612766,1610612753,"[1630532, 1628976, 1628964, 1630175, 1630591]",-10,-38.46153846153847,26.0
2,12,"[1626162, 1628970, 202330, 202397, 203486]",377,20,369,8,1610612766,1610612753,"[1628964, 1630175, 1630532, 1630591, 203082]",-12,-44.44444444444444,27.0
3,10,"[1626162, 1628998, 1629667, 1630208, 202397]",406,20,378,10,1610612766,1610612753,"[1628964, 1630175, 1630532, 1630591, 203082]",-10,-35.714285714285715,28.0
4,8,"[1626162, 1628998, 1629667, 1630208, 202397]",544,25,407,17,1610612766,1610612753,"[1628964, 1630532, 1630591, 203082, 203914]",-8,-21.62162162162162,37.0
5,2,"[1626162, 1628998, 1629667, 1630208, 202397]",718,31,545,29,1610612766,1610612753,"[1628976, 1629021, 1630591, 203082, 203914]",-2,-3.9215686274509802,51.0
6,-2,"[1628998, 1629667, 1630208, 202330, 202397]",822,34,719,36,1610612766,1610612753,"[1628976, 1629021, 1630181, 203082, 203914]",2,3.4482758620689653,58.0
7,-4,"[202330, 202397, 1630208, 1628998, 1629667]",845,34,823,38,1610612766,1610612753,"[1630532, 1628976, 1630175, 203914, 1630181]",4,6.779661016949152,59.0
8,-3,"[1628970, 1629667, 1630163, 202330, 203486]",924,39,846,42,1610612766,1610612753,"[1630532, 1628976, 1630175, 203914, 1630181]",3,4.6875,64.0
9,-4,"[1626162, 1628970, 1630163, 202330, 203486]",961,39,925,43,1610612766,1610612753,"[1628976, 1630175, 1630181, 1630532, 1630591]",4,6.0606060606060606,66.0
10,-2,"[1626162, 1628970, 1630163, 202330, 203486]",991,41,962,43,1610612766,1610612753,"[1628976, 1630175, 1630532, 1630591, 203082]",2,2.898550724637681,69.0
11,-2,"[1626162, 1628970, 1630163, 202330, 203486]",1153,49,992,51,1610612766,1610612753,"[1628964, 1630175, 1630532, 1630591, 203082]",2,2.4691358024691357,81.0
12,0,"[1626162, 1628970, 1628998, 1630163, 203486]",1204,53,1154,53,1610612766,1610612753,"[1628964, 1630175, 1630532, 1630591, 203082]",0,0.0,84.0
13,0,"[1626162, 1628970, 1628998, 202397, 203486]",1266,55,1205,55,1610612766,1610612753,"[1628964, 1630175, 1630532, 1630591, 203082]",0,0.0,88.0
14,-3,"[1626162, 1628970, 1628998, 202330, 202397]",1434,61,1267,64,1610612766,1610612753,"[1628964, 1630175, 1630532, 1630591, 203082]",3,3.0,100.0
15,1,"[1628970, 1628998, 1629667, 202330, 202397]",1758,75,1435,74,1610612766,1610612753,"[1628964, 1628976, 1630175, 1630591, 203082]",-1,-0.819672131147541,122.0
16,3,"[202330, 1628970, 203486, 1626162, 1630163]",1803,77,1759,74,1610612766,1610612753,"[1630532, 1628976, 1628964, 1630175, 1630591]",-3,-2.4,125.0
17,3,"[1628970, 1628998, 1630163, 202330, 203486]",1815,77,1804,74,1610612766,1610612753,"[1628964, 1628976, 1630175, 203082, 203914]",-3,-2.380952380952381,126.0
18,6,"[1628998, 1629667, 1630163, 202330, 203486]",1858,82,1816,76,1610612766,1610612753,"[1628964, 1628976, 1630175, 203082, 203914]",-6,-4.651162790697675,129.0
19,6,"[1628998, 1629667, 202330, 202397, 203486]",1937,85,1859,79,1610612766,1610612753,"[1628964, 1628976, 1630175, 203082, 203914]",-6,-4.444444444444445,135.0
20,3,"[1628998, 1629667, 202330, 202397, 203486]",1971,85,1938,82,1610612766,1610612753,"[1628964, 1629021, 1630175, 203082, 203914]",-3,-2.18978102189781,137.0
21,1,"[1628970, 1628998, 1629667, 202330, 202397]",2150,91,1972,90,1610612766,1610612753,"[1628964, 1629021, 1630591, 203082, 203914]",-1,-0.6711409395973155,149.0
22,0,"[1628970, 1628998, 1629667, 202330, 202397]",2159,91,2151,91,1610612766,1610612753,"[1629021, 1630532, 1630591, 203082, 203914]",0,0.0,150.0
23,2,"[1628970, 1628998, 1629667, 202330, 202397]",2295,96,2160,94,1610612766,1610612753,"[1630175, 1630532, 1630591, 203082, 203914]",-2,-1.25,160.0
24,-4,"[1628970, 203486, 1630163, 1628998, 1629667]",2405,98,2296,102,1610612766,1610612753,"[1628976, 1628964, 1630175, 203914, 1630181]",4,2.366863905325444,169.0
25,-4,"[1626162, 1628998, 1629667, 1630163, 203486]",2484,100,2406,104,1610612766,1610612753,"[1628976, 1628964, 1630175, 203914, 1630181]",4,2.2988505747126435,174.0
26,-6,"[1626162, 1629667, 1630163, 202330, 203486]",2648,100,2485,106,1610612766,1610612753,"[1628964, 1628976, 1630532, 1630591, 203914]",6,3.278688524590164,183.0
27,-9,"[1626162, 1628970, 1630163, 202330, 203486]",2846,109,2649,118,1610612766,1610612753,"[1628964, 1630532, 1630591, 203082, 203914]",9,4.568527918781726,197.0
28,-9,"[1628970, 1628998, 202330, 202397, 203486]",2855,111,2847,120,1610612766,1610612753,"[1628976, 1630175, 1630532, 1630591, 203082]",9,4.522613065326634,199.0
29,-9,"[1626162, 1628970, 1628998, 202330, 202397]",9999999,111,2856,120,1610612766,1610612753,"[1628976, 1630175, 1630532, 1630591, 203082]",9,4.5,200.0
