,t1_points_scored,stint_end,t2_pm,t1_players,t2_id,t1_id,t2_players,t2_points_scored,t1_pm,stint_start,margin_per_100,num_poss
0,2,53,-2,"[203922, 203110, 1627737, 1627814, 202692]",1610612750,1610612744,"[1629103, 203496, 203476, 1629633, 203894]",0,2,0,100.0,2.0
1,13,331,0,"[203922, 203110, 1627737, 1627814, 202692]",1610612750,1610612744,"[1629103, 203496, 203476, 1629633, 203894]",13,0,54,0.0,23.0
2,13,393,4,"[1627814, 1629016, 202692, 203110, 203922]",1610612750,1610612744,"[1629103, 203496, 203476, 1629633, 203894]",17,-4,332,-14.814814814814813,27.0
3,13,463,6,"[1627814, 1629016, 202692, 203110, 203922]",1610612750,1610612744,"[1629006, 1629103, 203476, 203496, 203894]",19,-6,394,-19.35483870967742,31.0
4,13,541,12,"[1627814, 1629065, 1629672, 203110, 203922]",1610612750,1610612744,"[1629006, 1629103, 203476, 203496, 203894]",25,-12,464,-32.432432432432435,37.0
5,19,718,13,"[1627814, 1629065, 1629672, 203110, 203922]",1610612750,1610612744,"[1628966, 1629006, 1629103, 1629675, 203894]",32,-13,542,-27.083333333333332,48.0
6,26,850,16,"[1627737, 1628980, 1629016, 1629065, 1629672]",1610612750,1610612744,"[1628966, 1629006, 1629162, 1629633, 1629675]",42,-16,719,-28.07017543859649,57.0
7,27,955,15,"[202692, 1629065, 1629672, 1628980, 1629346]",1610612750,1610612744,"[1629633, 1629006, 1629675, 1628966, 1629162]",42,-15,851,-23.076923076923077,65.0
8,28,989,16,"[202692, 1629065, 1629672, 1628980, 1629346]",1610612750,1610612744,"[1628966, 1629006, 1629162, 1629669, 1629675]",44,-16,956,-23.88059701492537,67.0
9,28,1029,16,"[202692, 1629065, 1629672, 1628980, 1629346]",1610612750,1610612744,"[1628966, 1629103, 1629669, 1629675, 203894]",44,-16,990,-22.857142857142858,70.0
10,28,1069,16,"[1627737, 1627814, 1628980, 1629065, 1629672]",1610612750,1610612744,"[1628966, 1629103, 1629669, 1629675, 203894]",44,-16,1030,-21.91780821917808,73.0
11,30,1126,17,"[1627737, 1627814, 1628980, 1629065, 203110]",1610612750,1610612744,"[1629103, 1629669, 203476, 203496, 203894]",47,-17,1070,-21.794871794871796,78.0
12,30,1182,19,"[1627737, 1627814, 1629065, 203110, 203922]",1610612750,1610612744,"[1629103, 1629669, 203476, 203496, 203894]",49,-19,1127,-23.456790123456788,81.0
13,39,1381,19,"[1627737, 1627814, 1629065, 203110, 203922]",1610612750,1610612744,"[1629103, 1629633, 203476, 203496, 203894]",58,-19,1183,-20.0,95.0
14,39,1436,19,"[1627737, 1627814, 202692, 203110, 203922]",1610612750,1610612744,"[1629103, 1629633, 203476, 203496, 203894]",58,-19,1382,-19.587628865979383,97.0
15,41,1439,17,"[1627737, 1627814, 1628980, 203110, 203922]",1610612750,1610612744,"[1629103, 1629633, 203476, 203496, 203894]",58,-17,1437,-17.346938775510203,98.0
16,50,1731,19,"[1627814, 1628980, 1629065, 203110, 203922]",1610612750,1610612744,"[1629103, 1629633, 203476, 203496, 203894]",69,-19,1440,-15.833333333333332,120.0
17,52,1831,21,"[203922, 203110, 1627737, 1627814, 202692]",1610612750,1610612744,"[1629103, 203496, 203476, 1629633, 203894]",73,-21,1732,-16.666666666666664,126.0
18,54,1903,20,"[1628980, 1629065, 1629672, 203110, 203922]",1610612750,1610612744,"[1629006, 1629633, 203476, 203496, 203894]",74,-20,1832,-15.151515151515152,132.0
19,54,1936,20,"[1628980, 1629065, 1629346, 1629672, 203922]",1610612750,1610612744,"[1629006, 1629633, 203476, 203496, 203894]",74,-20,1904,-14.925373134328357,134.0
20,61,2057,18,"[1628980, 1629065, 1629346, 1629672, 203922]",1610612750,1610612744,"[1628966, 1629006, 1629162, 1629633, 1629675]",79,-18,1937,-12.676056338028168,142.0
21,67,2158,14,"[1628980, 1629016, 1629065, 1629346, 1629672]",1610612750,1610612744,"[1628966, 1629006, 1629162, 1629633, 1629675]",81,-14,2058,-9.333333333333334,150.0
22,71,2306,10,"[1628980, 1629016, 1629065, 1629346, 1629672]",1610612750,1610612744,"[1628395, 1628966, 1629006, 1629162, 1629675]",81,-10,2159,-6.211180124223603,161.0
23,71,2376,12,"[1629016, 1629065, 1629672, 1628980, 1629346]",1610612750,1610612744,"[1629006, 1629675, 1628966, 1629162, 1628395]",83,-12,2307,-7.317073170731707,164.0
24,74,2391,9,"[1629016, 1629065, 1629672, 1628980, 1629346]",1610612750,1610612744,"[1628395, 1628966, 1629006, 1629675, 203894]",83,-9,2377,-5.454545454545454,165.0
25,78,2514,12,"[1628980, 1629016, 1629346, 1629672, 202692]",1610612750,1610612744,"[1628966, 1629103, 1629675, 203496, 203894]",90,-12,2392,-6.976744186046512,172.0
26,84,2722,12,"[1628980, 1629016, 1629346, 1629672, 203922]",1610612750,1610612744,"[1628966, 1629103, 1629675, 203496, 203894]",96,-12,2515,-6.521739130434782,184.0
27,84,2810,15,"[1627737, 1627814, 1629016, 1629065, 203922]",1610612750,1610612744,"[1629103, 1629633, 203476, 203496, 203894]",99,-15,2723,-7.9787234042553195,188.0
28,84,2862,15,"[1627737, 1627814, 1629672, 202692, 203922]",1610612750,1610612744,"[1629103, 1629633, 203476, 203496, 203894]",99,-15,2811,-7.853403141361256,191.0
29,84,9999999,15,"[1627737, 1627814, 1629672, 202692, 203922]",1610612750,1610612744,"[1628966, 1629162, 1629633, 1629669, 1629675]",99,-15,2863,-7.8125,192.0
