,t1_points_scored,stint_end,t2_pm,t1_players,t2_id,t1_id,t2_players,t2_points_scored,t1_pm,stint_start,margin_per_100,num_poss
0,9,282,7,"[1628371, 203932, 202696, 203095, 201571]",1610612761,1610612753,"[1628384, 1627783, 201188, 200768, 1627832]",16,-7,0,-36.84210526315789,19.0
1,12,400,9,"[1628371, 203932, 202696, 203095, 201571]",1610612761,1610612753,"[1628384, 1627783, 201188, 200768, 1627832]",21,-9,283,-33.33333333333333,27.0
2,12,444,11,"[1628365, 1628371, 202696, 203095, 203932]",1610612761,1610612753,"[1628384, 1627783, 201188, 200768, 1627832]",23,-11,401,-36.666666666666664,30.0
3,14,479,11,"[1628365, 1628371, 202329, 202696, 203082]",1610612761,1610612753,"[1628384, 1627783, 201188, 200768, 1627832]",25,-11,445,-32.35294117647059,34.0
4,18,581,10,"[1628365, 1628371, 202329, 202696, 203082]",1610612761,1610612753,"[1626181, 1627783, 1627832, 1628384, 201586]",28,-10,480,-23.25581395348837,43.0
5,22,689,8,"[1628365, 1628371, 1628964, 202329, 203082]",1610612761,1610612753,"[1626181, 1627783, 1627832, 1628384, 201586]",30,-8,582,-15.09433962264151,53.0
6,22,717,9,"[1628365, 1628964, 202329, 203082, 203932]",1610612761,1610612753,"[1626181, 1627775, 1627783, 200768, 201586]",31,-9,690,-16.363636363636363,55.0
7,24,852,9,"[1628365, 1628964, 202329, 203082, 203932]",1610612761,1610612753,"[1626181, 1627775, 1629056, 200768, 201586]",33,-9,718,-13.636363636363635,66.0
8,24,860,10,"[203932, 201571, 203082, 202329, 1628964]",1610612761,1610612753,"[200768, 201586, 1626181, 1627775, 1628449]",34,-10,853,-14.925373134328357,67.0
9,24,904,10,"[1628964, 201571, 202329, 203082, 203487]",1610612761,1610612753,"[200768, 201586, 1626181, 1627775, 1628449]",34,-10,861,-14.285714285714285,70.0
10,29,983,9,"[1628964, 201571, 202329, 203082, 203487]",1610612761,1610612753,"[1626181, 1627775, 1628449, 200768, 201188]",38,-9,905,-12.162162162162163,74.0
11,34,1078,8,"[201571, 202329, 202696, 203082, 203487]",1610612761,1610612753,"[1626181, 1627775, 1628449, 200768, 201188]",42,-8,984,-10.0,80.0
12,34,1111,8,"[201571, 202329, 202696, 203082, 203487]",1610612761,1610612753,"[1626181, 1627775, 1627832, 1628384, 201188]",42,-8,1079,-9.876543209876543,81.0
13,34,1140,8,"[1628371, 201571, 202696, 203095, 203487]",1610612761,1610612753,"[1626181, 1627783, 1627832, 1628384, 201188]",42,-8,1112,-9.63855421686747,83.0
14,35,1179,7,"[1628371, 201571, 202696, 203095, 203487]",1610612761,1610612753,"[1626181, 1627783, 1627832, 1628384, 201586]",42,-7,1141,-8.045977011494253,87.0
15,37,1270,7,"[1628371, 201571, 202696, 203095, 203487]",1610612761,1610612753,"[1627783, 1627832, 1628384, 200768, 201586]",44,-7,1180,-7.526881720430108,93.0
16,41,1408,5,"[1628365, 1628371, 202696, 203095, 203487]",1610612761,1610612753,"[1627783, 1627832, 1628384, 200768, 201586]",46,-5,1271,-4.761904761904762,105.0
17,44,1411,2,"[1628365, 1628371, 202696, 203095, 203932]",1610612761,1610612753,"[1627783, 1627832, 1628384, 200768, 201586]",46,-2,1409,-1.8867924528301887,106.0
18,46,1439,3,"[1628365, 1628371, 202329, 203095, 203932]",1610612761,1610612753,"[1626181, 1627783, 1627832, 1628384, 200768]",49,-3,1412,-2.7777777777777777,108.0
19,48,1775,14,"[1628365, 1628371, 202329, 203095, 203932]",1610612761,1610612753,"[1626181, 1627775, 1627783, 1627832, 200768]",62,-14,1440,-10.687022900763358,131.0
20,59,1921,8,"[1628371, 203932, 202696, 203095, 201571]",1610612761,1610612753,"[1628384, 1627783, 201188, 200768, 1627832]",67,-8,1776,-5.633802816901409,142.0
21,59,1955,10,"[1628365, 1628371, 202696, 203095, 203932]",1610612761,1610612753,"[1627783, 1627832, 1628384, 200768, 201586]",69,-10,1922,-6.993006993006993,143.0
22,64,2075,8,"[1628365, 202329, 202696, 203082, 203932]",1610612761,1610612753,"[1626181, 1627775, 1627783, 200768, 201586]",72,-8,1956,-5.263157894736842,152.0
23,64,2079,8,"[1628365, 1628964, 202329, 203082, 203487]",1610612761,1610612753,"[1626181, 1627775, 1627783, 200768, 201586]",72,-8,2076,-5.263157894736842,152.0
24,67,2159,11,"[1628365, 1628964, 202329, 203082, 203487]",1610612761,1610612753,"[1626181, 1627783, 1627832, 1628384, 201586]",78,-11,2080,-7.006369426751593,157.0
25,73,2320,8,"[1628365, 1628964, 202329, 203082, 203487]",1610612761,1610612753,"[1626181, 1627775, 1627832, 1628384, 201586]",81,-8,2160,-4.733727810650888,169.0
26,76,2374,7,"[201571, 203082, 202329, 1628964, 203487]",1610612761,1610612753,"[1628384, 1627832, 201586, 1626181, 1627775]",83,-7,2321,-4.093567251461988,171.0
27,76,2412,7,"[1628365, 1628371, 201571, 202329, 203082]",1610612761,1610612753,"[1628384, 1627832, 201586, 1626181, 1627775]",83,-7,2375,-4.0,175.0
28,76,2480,11,"[1628365, 1628371, 201571, 202329, 203082]",1610612761,1610612753,"[1627775, 1627832, 1628384, 200768, 201188]",87,-11,2413,-6.111111111111111,180.0
29,84,2602,3,"[1628365, 1628371, 201571, 202329, 203095]",1610612761,1610612753,"[1627783, 1627832, 1628384, 200768, 201188]",87,-3,2481,-1.6042780748663104,187.0
30,95,2863,9,"[1628365, 1628371, 201571, 203095, 203932]",1610612761,1610612753,"[1627783, 1627832, 1628384, 200768, 201188]",104,-9,2603,-4.326923076923077,208.0
31,95,9999999,9,"[1628365, 1628371, 203082, 203095, 203932]",1610612761,1610612753,"[1627783, 1627832, 1628384, 200768, 201188]",104,-9,2864,-4.30622009569378,209.0
