,TEAM_ID_1,TEAM_1_PLAYERS,TEAM_ID_2,TEAM_2_PLAYERS,PERIOD
0,1610612737,[1627752 1629353  203458 1628989 1629121],1610612749,[ 203114  203507  201572 1628425  202339],1
1,1610612737,[1627752 1629353 1627738 1627761  203145],1610612749,[ 203114  203507  201572 1628425  202339],2
2,1610612737,[1627752 1629353  203458 1628989 1629121],1610612749,[ 203114  203507  201572 1628425  202339],3
3,1610612737,[1627752  203458 1628989 1629121    1713],1610612749,[ 203114  203507 1628425  202339 1628391],4
