,team1_id,team1_player1,team1_player2,team1_player3,team1_player4,team1_player5,team2_id,team2_player1,team2_player2,team2_player3,team2_player4,team2_player5,game_id,period,possession_start,possession_end,team1_points,team2_points,possession_team
0,1610612743,1628470,203924,203999,203115,1628420,1610612749,203114,203507,203648,202083,202339,0021900724,1,0,18,0,2,1610612749
1,1610612743,1628470,203924,203999,203115,1628420,1610612749,203114,203507,203648,202083,202339,0021900724,1,31,35,0,0,1610612743
2,1610612743,1628470,203924,203999,203115,1628420,1610612749,203114,203507,203648,202083,202339,0021900724,1,39,42,0,0,1610612749
3,1610612743,1628470,203924,203999,203115,1628420,1610612749,203114,203507,203648,202083,202339,0021900724,1,58,58,0,0,1610612743
4,1610612743,1628470,203924,203999,203115,1628420,1610612749,203114,203507,203648,202083,202339,0021900724,1,62,62,0,2,1610612749
5,1610612743,1628470,203924,203999,203115,1628420,1610612749,203114,203507,203648,202083,202339,0021900724,1,73,83,2,0,1610612743
6,1610612743,1628470,203924,203999,203115,1628420,1610612749,203114,203507,203648,202083,202339,0021900724,1,92,95,0,2,1610612749
7,1610612743,1628470,203924,203999,203115,1628420,1610612749,203114,203507,203648,202083,202339,0021900724,1,110,112,0,0,1610612743
8,1610612743,1628470,203924,203999,203115,1628420,1610612749,203114,203507,203648,202083,202339,0021900724,1,116,116,0,3,1610612749
9,1610612743,1628470,203924,203999,203115,1628420,1610612749,203114,203507,203648,202083,202339,0021900724,1,144,144,0,0,1610612743
10,1610612743,1628470,203924,203999,203115,1628420,1610612749,203114,203507,203648,202083,202339,0021900724,1,154,154,0,2,1610612749
11,1610612743,1628470,203924,203999,203115,1628420,1610612749,203114,203507,203648,202083,202339,0021900724,1,154,171,0,0,1610612743
12,1610612743,1628470,203924,203999,203115,1628420,1610612749,203114,203507,203648,202083,202339,0021900724,1,176,178,0,0,1610612749
13,1610612743,1628470,203924,203999,203115,1628420,1610612749,203114,203507,203648,202083,202339,0021900724,1,197,197,2,0,1610612743
14,1610612743,1628470,203924,203999,203115,1628420,1610612749,203114,203507,203648,202083,202339,0021900724,1,202,205,0,2,1610612749
15,1610612743,1628470,203924,203999,203115,1628420,1610612749,203114,203507,203648,202083,202339,0021900724,1,215,218,0,0,1610612743
16,1610612743,1628470,203924,203999,203115,1628420,1610612749,203114,203507,203648,202083,202339,0021900724,1,221,221,0,3,1610612749
17,1610612743,1628470,203924,203999,203115,1628420,1610612749,203114,203507,203648,202083,202339,0021900724,1,234,246,0,0,1610612743
18,1610612743,1628470,203924,203999,203115,1628420,1610612749,201572,202083,202339,203114,203507,0021900724,1,258,261,0,0,1610612749
19,1610612743,1628470,203924,203999,203115,1628420,1610612749,201572,202083,202339,203114,203507,0021900724,1,274,280,3,0,1610612743
20,1610612743,1628470,203924,203999,203115,1628420,1610612749,201572,202083,202339,203114,203507,0021900724,1,291,297,0,2,1610612749
21,1610612743,1628470,203924,203999,203115,1628420,1610612749,201572,202083,202339,203114,203507,0021900724,1,305,305,3,0,1610612743
22,1610612743,1628470,203924,203999,203115,1628420,1610612749,201572,202083,202339,203114,203507,0021900724,1,317,320,0,0,1610612749
23,1610612743,1628470,203924,203999,203115,1628420,1610612749,201572,202083,202339,203114,203507,0021900724,1,328,328,3,0,1610612743
24,1610612743,1628470,203924,203999,203115,1628420,1610612749,201572,202083,202339,203114,203507,0021900724,1,328,348,0,3,1610612749
25,1610612743,1628470,203924,203999,203115,1628420,1610612749,101141,201572,202083,202339,203114,0021900724,1,368,371,0,0,1610612743
26,1610612743,1628470,203924,203999,203115,1628420,1610612749,101141,201572,202083,202339,203114,0021900724,1,377,377,0,2,1610612749
27,1610612743,1628470,203924,203999,203115,1628420,1610612749,101141,201572,202083,202339,203114,0021900724,1,392,392,3,0,1610612743
28,1610612743,1628470,203924,203999,203115,1628420,1610612749,101141,201572,202083,202339,203114,0021900724,1,409,409,0,3,1610612749
29,1610612743,1628470,203924,203999,203115,1628420,1610612749,101141,201572,202083,202339,203114,0021900724,1,425,432,2,0,1610612743
30,1610612743,1628420,1628470,1629008,203115,203999,1610612749,101141,1626192,201572,202339,203114,0021900724,1,439,439,0,2,1610612749
31,1610612743,1628420,1628470,1629008,203115,203999,1610612749,101141,1626192,1628425,201572,203114,0021900724,1,453,456,0,0,1610612743
32,1610612743,1628420,1628470,1629008,203115,203999,1610612749,101141,1626192,1628425,201572,203114,0021900724,1,461,461,0,2,1610612749
33,1610612743,1628420,1628470,1629008,203115,203999,1610612749,101141,1626192,1628425,201572,203114,0021900724,1,463,475,0,0,1610612743
34,1610612743,1627736,1628408,1629008,203115,203999,1610612749,101141,1626192,1628425,201572,203507,0021900724,1,484,487,0,0,1610612749
35,1610612743,1627736,1628408,1629008,203115,203999,1610612749,101141,1626192,1628425,201572,203507,0021900724,1,502,502,3,0,1610612743
36,1610612743,1627736,1628408,1629008,203115,203999,1610612749,101141,1626192,1628425,201572,203507,0021900724,1,513,513,0,3,1610612749
37,1610612743,1627736,1628408,1629008,203115,203999,1610612749,101141,1626192,1628425,201572,203507,0021900724,1,524,524,2,0,1610612743
38,1610612743,1627736,1628408,1629008,203115,203999,1610612749,101141,1626192,1628425,201572,203507,0021900724,1,534,534,0,2,1610612749
39,1610612743,1627736,1628408,1629008,203115,203999,1610612749,101141,1626192,1628425,201572,203507,0021900724,1,549,553,0,0,1610612743
40,1610612743,1627736,1628408,1629008,203115,203999,1610612749,101141,1626192,1628425,201572,203507,0021900724,1,557,560,0,0,1610612749
41,1610612743,1627736,1628408,1629008,203115,203999,1610612749,101141,1626192,1628425,201572,203507,0021900724,1,568,571,0,0,1610612743
42,1610612743,1627736,1628408,1629008,203115,203999,1610612749,101141,1626192,1628425,201572,203507,0021900724,1,576,581,0,2,1610612749
43,1610612743,1627736,1627823,1628408,1629008,203924,1610612749,1626192,1628425,201572,203507,2594,0021900724,1,587,587,3,0,1610612743
44,1610612743,1627736,1627823,1628408,1629008,203924,1610612749,1626192,1628425,201572,203507,2594,0021900724,1,599,602,0,0,1610612749
45,1610612743,1627736,1627823,1628408,1629008,203924,1610612749,1626192,1628425,201572,203507,2594,0021900724,1,608,614,0,0,1610612743
46,1610612743,1627736,1627823,1628408,1629008,203924,1610612749,1626192,1628425,201572,203507,2594,0021900724,1,617,620,0,0,1610612749
47,1610612743,1627736,1627823,1628408,1629008,203924,1610612749,1626192,1628425,201572,203507,2594,0021900724,1,632,637,0,0,1610612743
48,1610612743,1627736,1627823,1628408,1629008,203924,1610612749,1626192,1628425,201572,203507,2594,0021900724,1,641,641,0,0,1610612749
49,1610612743,1627736,1627823,1628408,1629008,203924,1610612749,1626192,1628425,201572,203507,2594,0021900724,1,651,654,2,0,1610612743
50,1610612743,1627736,1627823,1628408,1629008,203924,1610612749,1626192,1628425,203507,203648,2594,0021900724,1,666,670,0,0,1610612749
51,1610612743,1627736,1627823,1628408,1629008,203924,1610612749,1626192,1628425,203507,203648,2594,0021900724,1,670,677,4,0,1610612743
52,1610612743,1627736,1627823,1628408,1629008,203924,1610612749,1626192,1628425,203507,203648,2594,0021900724,1,692,692,0,3,1610612749
53,1610612743,1627736,1627823,1628408,1629008,203924,1610612749,1626192,1628425,203507,203648,2594,0021900724,1,704,704,3,0,1610612743
54,1610612743,1627736,1627823,1628408,1629008,203924,1610612749,1626192,1628425,203507,203648,2594,0021900724,1,715,717,0,3,1610612749
55,1610612743,1627736,1627823,1628408,1629008,203924,1610612749,1626192,1628425,203507,203648,2594,0021900724,1,719,719,0,0,1610612749
56,1610612743,203924,1629008,1627736,1628408,1627823,1610612749,203114,202339,101141,2594,201577,0021900724,2,720,735,2,0,1610612743
57,1610612743,203924,1629008,1627736,1628408,1627823,1610612749,203114,202339,101141,2594,201577,0021900724,2,749,749,0,2,1610612749
58,1610612743,203924,1629008,1627736,1628408,1627823,1610612749,203114,202339,101141,2594,201577,0021900724,2,761,761,3,0,1610612743
59,1610612743,203924,1629008,1627736,1628408,1627823,1610612749,203114,202339,101141,2594,201577,0021900724,2,779,784,0,0,1610612749
60,1610612743,203924,1629008,1627736,1628408,1627823,1610612749,203114,202339,101141,2594,201577,0021900724,2,787,787,2,0,1610612743
61,1610612743,203924,1629008,1627736,1628408,1627823,1610612749,203114,202339,101141,2594,201577,0021900724,2,803,803,0,2,1610612749
62,1610612743,203924,1629008,1627736,1628408,1627823,1610612749,203114,202339,101141,2594,201577,0021900724,2,814,816,0,0,1610612743
63,1610612743,203924,1629008,1627736,1628408,1627823,1610612749,203114,202339,101141,2594,201577,0021900724,2,826,826,0,0,1610612749
64,1610612743,203924,1629008,1627736,1628408,1627823,1610612749,203114,202339,101141,2594,201577,0021900724,2,833,833,2,0,1610612743
65,1610612743,203924,1629008,1627736,1628408,1627823,1610612749,203114,202339,101141,2594,201577,0021900724,2,840,844,0,1,1610612749
66,1610612743,203924,1629008,1627736,1628408,1627823,1610612749,101141,1628425,202339,203114,2594,0021900724,2,857,859,0,0,1610612743
67,1610612743,203924,1629008,1627736,1628408,1627823,1610612749,101141,1628425,202339,203114,2594,0021900724,2,864,867,0,0,1610612749
68,1610612743,203924,1629008,1627736,1628408,1627823,1610612749,101141,1628425,202339,203114,2594,0021900724,2,881,884,0,0,1610612743
69,1610612743,203924,1629008,1627736,1628408,1627823,1610612749,101141,1628425,202339,203114,2594,0021900724,2,888,890,0,0,1610612749
70,1610612743,203924,1629008,1627736,1628408,1627823,1610612749,101141,1628425,202339,203114,2594,0021900724,2,897,897,0,0,1610612743
71,1610612743,203924,1629008,1627736,1628408,1627823,1610612749,101141,1628425,202339,203114,2594,0021900724,2,900,900,0,0,1610612749
72,1610612743,203924,1629008,1627736,1628408,1627823,1610612749,101141,1628425,202083,202339,203114,0021900724,2,911,911,0,0,1610612743
73,1610612743,203924,1629008,1627736,1628408,1627823,1610612749,101141,1628425,202083,202339,203114,0021900724,2,922,922,0,0,1610612749
74,1610612743,203924,1629008,1627736,1628408,1627823,1610612749,101141,1628425,202083,202339,203114,0021900724,2,922,942,0,0,1610612743
75,1610612743,1627736,1627823,1628408,1629008,203999,1610612749,1628425,201572,202083,202339,203114,0021900724,2,947,947,0,3,1610612749
76,1610612743,1627736,1627823,1628408,1629008,203999,1610612749,1628425,201572,202083,202339,203114,0021900724,2,960,960,0,0,1610612743
77,1610612743,1627736,1627823,1628420,1629008,203999,1610612749,201572,202083,202339,203114,203507,0021900724,2,971,971,0,0,1610612749
78,1610612743,1627736,1627823,1628420,1629008,203999,1610612749,201572,202083,202339,203114,203507,0021900724,2,971,993,2,0,1610612743
79,1610612743,1627736,1627823,1628420,1629008,203999,1610612749,201572,202083,202339,203114,203507,0021900724,2,993,1006,0,0,1610612749
80,1610612743,1627736,1627823,1628420,1629008,203999,1610612749,201572,202083,202339,203114,203507,0021900724,2,1018,1023,0,0,1610612743
81,1610612743,1627736,1627823,1628420,1629008,203999,1610612749,201572,202083,202339,203114,203507,0021900724,2,1033,1033,0,2,1610612749
82,1610612743,1627736,1627823,1628420,1629008,203999,1610612749,201572,202083,202339,203114,203507,0021900724,2,1048,1048,3,0,1610612743
83,1610612743,1627736,1627823,1628420,1629008,203999,1610612749,201572,202083,202339,203114,203507,0021900724,2,1054,1062,0,0,1610612749
84,1610612743,1627823,1628420,1629008,203115,203999,1610612749,1628425,201572,202083,203114,203507,0021900724,2,1088,1091,0,0,1610612743
85,1610612743,1627823,1628420,1629008,203115,203999,1610612749,1628425,201572,202083,203114,203507,0021900724,2,1103,1103,0,2,1610612749
86,1610612743,1627823,1628420,1629008,203115,203999,1610612749,1628425,201572,202083,203114,203507,0021900724,2,1114,1117,0,0,1610612743
87,1610612743,1627823,1628420,1629008,203115,203999,1610612749,1628425,201572,202083,203114,203507,0021900724,2,1125,1125,0,3,1610612749
88,1610612743,1627823,1628420,1629008,203115,203999,1610612749,1628425,201572,202083,203114,203507,0021900724,2,1144,1145,0,0,1610612743
89,1610612743,1627823,1628420,1629008,203115,203999,1610612749,1628425,201572,202083,203114,203507,0021900724,2,1145,1145,0,2,1610612749
90,1610612743,1628420,1628470,203115,203924,203999,1610612749,1626192,1628425,201577,202083,203507,0021900724,2,1158,1158,2,0,1610612743
91,1610612743,1628420,1628470,203115,203924,203999,1610612749,1626192,1628425,201577,202083,203507,0021900724,2,1170,1170,0,0,1610612749
92,1610612743,1628420,1628470,203115,203924,203999,1610612749,1626192,1628425,201577,202083,203507,0021900724,2,1181,1186,0,0,1610612743
93,1610612743,1628420,1628470,203115,203924,203999,1610612749,1626192,1628425,201577,202083,203507,0021900724,2,1188,1200,0,2,1610612749
94,1610612743,1628420,1628470,203115,203924,203999,1610612749,1626192,1628425,201577,202083,203507,0021900724,2,1206,1206,2,0,1610612743
95,1610612743,1628420,1628470,203115,203924,203999,1610612749,1626192,1628425,201577,202083,203507,0021900724,2,1224,1225,0,0,1610612749
96,1610612743,1628420,1628470,203115,203924,203999,1610612749,1626192,1628425,201577,202083,203507,0021900724,2,1226,1226,0,0,1610612743
97,1610612743,1628420,1628470,203115,203924,203999,1610612749,1626192,1628425,201577,202083,203507,0021900724,2,1246,1249,0,0,1610612749
98,1610612743,1628420,1628470,203115,203924,203999,1610612749,1626192,1628425,201577,202083,203507,0021900724,2,1250,1250,0,0,1610612743
99,1610612743,1628420,1628470,203115,203924,203999,1610612749,1626192,1628425,201577,202083,203507,0021900724,2,1253,1266,0,0,1610612749
100,1610612743,1628420,1628470,203115,203924,203999,1610612749,1626192,1628425,201577,202083,203507,0021900724,2,1282,1283,0,0,1610612743
101,1610612743,1628420,1628470,203115,203924,203999,1610612749,1626192,1628425,201577,202083,203507,0021900724,2,1283,1299,0,2,1610612749
102,1610612743,1628420,1629008,203115,203924,203999,1610612749,1626192,201577,202339,203114,2594,0021900724,2,1320,1320,3,0,1610612743
103,1610612743,1628420,1629008,203115,203924,203999,1610612749,1626192,201577,202339,203114,2594,0021900724,2,1336,1336,0,3,1610612749
104,1610612743,1628420,1629008,203115,203924,203999,1610612749,1626192,201577,202339,203114,2594,0021900724,2,1348,1352,0,0,1610612743
105,1610612743,1628420,1629008,203115,203924,203999,1610612749,1626192,201577,202339,203114,2594,0021900724,2,1357,1360,0,0,1610612749
106,1610612743,1628420,1629008,203115,203924,203999,1610612749,1626192,201577,202339,203114,2594,0021900724,2,1372,1372,2,0,1610612743
107,1610612743,1628420,1629008,203115,203924,203999,1610612749,1626192,201577,202339,203114,2594,0021900724,2,1389,1392,0,0,1610612749
108,1610612743,1628420,1629008,203115,203924,203999,1610612749,1626192,201577,202339,203114,2594,0021900724,2,1398,1398,2,0,1610612743
109,1610612743,1628420,1629008,203115,203924,203999,1610612749,1626192,201577,202339,203114,2594,0021900724,2,1410,1414,0,0,1610612749
110,1610612743,1628420,1629008,203115,203924,203999,1610612749,1626192,201577,202339,203114,2594,0021900724,2,1435,1437,0,0,1610612743
111,1610612743,1628420,1629008,203115,203924,203999,1610612749,1626192,201577,202339,203114,2594,0021900724,2,1440,1440,0,0,1610612743
112,1610612743,1628470,203924,203999,203115,1628420,1610612749,203114,203507,202083,202339,201572,0021900724,3,1440,1454,2,0,1610612743
113,1610612743,1628470,203924,203999,203115,1628420,1610612749,203114,203507,202083,202339,201572,0021900724,3,1465,1469,0,0,1610612749
114,1610612743,1628470,203924,203999,203115,1628420,1610612749,203114,203507,202083,202339,201572,0021900724,3,1475,1478,0,0,1610612743
115,1610612743,1628470,203924,203999,203115,1628420,1610612749,203114,203507,202083,202339,201572,0021900724,3,1479,1479,0,1,1610612749
116,1610612743,1628470,203924,203999,203115,1628420,1610612749,203114,203507,202083,202339,201572,0021900724,3,1496,1499,0,0,1610612743
117,1610612743,1628470,203924,203999,203115,1628420,1610612749,203114,203507,202083,202339,201572,0021900724,3,1508,1511,0,0,1610612749
118,1610612743,1628470,203924,203999,203115,1628420,1610612749,203114,203507,202083,202339,201572,0021900724,3,1522,1525,0,0,1610612743
119,1610612743,1628470,203924,203999,203115,1628420,1610612749,203114,203507,202083,202339,201572,0021900724,3,1534,1537,0,0,1610612749
120,1610612743,1628470,203924,203999,203115,1628420,1610612749,203114,203507,202083,202339,201572,0021900724,3,1542,1546,0,0,1610612743
121,1610612743,1628470,203924,203999,203115,1628420,1610612749,203114,203507,202083,202339,201572,0021900724,3,1548,1558,0,0,1610612749
122,1610612743,1628470,203924,203999,203115,1628420,1610612749,203114,203507,202083,202339,201572,0021900724,3,1568,1573,0,0,1610612743
123,1610612743,1628470,203924,203999,203115,1628420,1610612749,203114,203507,202083,202339,201572,0021900724,3,1577,1580,0,1,1610612749
124,1610612743,1628470,203924,203999,203115,1628420,1610612749,203114,203507,202083,202339,201572,0021900724,3,1585,1585,2,0,1610612743
125,1610612743,1628470,203924,203999,203115,1628420,1610612749,203114,203507,202083,202339,201572,0021900724,3,1604,1606,0,0,1610612749
126,1610612743,1628470,203924,203999,203115,1628420,1610612749,203114,203507,202083,202339,201572,0021900724,3,1612,1622,3,0,1610612743
127,1610612743,1628420,1628470,1629008,203115,203924,1610612749,203114,203507,202083,202339,201572,0021900724,3,1639,1642,0,0,1610612749
128,1610612743,1628420,1628470,1629008,203115,203924,1610612749,203114,203507,202083,202339,201572,0021900724,3,1655,1655,2,0,1610612743
129,1610612743,1628420,1628470,1629008,203115,203924,1610612749,203114,203507,202083,202339,201572,0021900724,3,1673,1673,0,2,1610612749
130,1610612743,1628420,1628470,1629008,203115,203924,1610612749,203114,203507,202083,202339,201572,0021900724,3,1686,1688,0,0,1610612743
131,1610612743,1628420,1628470,1629008,203115,203924,1610612749,203114,203507,202083,202339,201572,0021900724,3,1692,1692,0,2,1610612749
132,1610612743,1628420,1628470,1629008,203115,203924,1610612749,203114,203507,202083,202339,201572,0021900724,3,1694,1711,3,0,1610612743
133,1610612743,1628420,1628470,1629008,203115,203924,1610612749,203114,203507,202083,202339,201572,0021900724,3,1727,1727,0,2,1610612749
134,1610612743,1628420,1628470,1629008,203115,203924,1610612749,203114,203507,202083,202339,201572,0021900724,3,1740,1742,0,0,1610612743
135,1610612743,1628420,1628470,1629008,203115,203924,1610612749,203114,203507,202083,202339,201572,0021900724,3,1745,1760,0,0,1610612749
136,1610612743,1627736,1628420,1629008,203115,203924,1610612749,203114,203507,202083,202339,201572,0021900724,3,1763,1767,0,0,1610612743
137,1610612743,1627736,1628420,1629008,203115,203924,1610612749,203114,203507,202083,202339,201572,0021900724,3,1769,1772,0,0,1610612749
138,1610612743,1627736,1628420,1629008,203115,203924,1610612749,203114,203507,202083,202339,201572,0021900724,3,1780,1780,3,0,1610612743
139,1610612743,1627736,1628420,1629008,203115,203924,1610612749,203114,203507,202083,202339,201572,0021900724,3,1790,1790,0,2,1610612749
140,1610612743,1627736,1628420,1629008,203115,203924,1610612749,203114,203507,202083,202339,201572,0021900724,3,1804,1804,3,0,1610612743
141,1610612743,1627736,1628420,1629008,203115,203924,1610612749,203114,203507,202083,202339,201572,0021900724,3,1814,1814,0,0,1610612749
142,1610612743,1627736,1628420,1629008,203115,203924,1610612749,203114,203507,202083,202339,201572,0021900724,3,1814,1828,2,0,1610612743
143,1610612743,1627736,1628420,1629008,203115,203924,1610612749,1626192,201572,202083,202339,203114,0021900724,3,1848,1848,0,2,1610612749
144,1610612743,1627736,1628420,1629008,203115,203924,1610612749,1626192,201572,202083,202339,203114,0021900724,3,1861,1861,3,0,1610612743
145,1610612743,1627736,1628420,1629008,203115,203924,1610612749,1626192,201572,202083,202339,203114,0021900724,3,1880,1880,0,3,1610612749
146,1610612743,1627736,1628420,1629008,203115,203924,1610612749,1626192,201572,202083,202339,203114,0021900724,3,1901,1901,2,0,1610612743
147,1610612743,1627736,1628420,1629008,203115,203924,1610612749,1626192,201572,202083,202339,203114,0021900724,3,1915,1919,0,0,1610612749
148,1610612743,1627736,1628420,1629008,203115,203924,1610612749,1626192,201572,202083,202339,203114,0021900724,3,1923,1923,3,0,1610612743
149,1610612743,1627736,1628420,1629008,203115,203924,1610612749,1626192,201572,202083,202339,203114,0021900724,3,1923,1940,0,0,1610612749
150,1610612743,1627736,1628408,1629008,203115,203924,1610612749,1626192,1628425,203114,203507,2594,0021900724,3,1943,1948,0,0,1610612743
151,1610612743,1627736,1628408,1629008,203115,203924,1610612749,1626192,1628425,203114,203507,2594,0021900724,3,1950,1954,0,1,1610612749
152,1610612743,1627736,1628408,1629008,203115,203924,1610612749,1626192,1628425,203114,203507,2594,0021900724,3,1968,1979,2,0,1610612743
153,1610612743,1627736,1627823,1628408,1629008,203115,1610612749,1626192,1628425,203114,203507,2594,0021900724,3,1990,1994,0,0,1610612749
154,1610612743,1627736,1627823,1628408,1629008,203115,1610612749,1626192,1628425,203114,203507,2594,0021900724,3,1997,1997,3,0,1610612743
155,1610612743,1627736,1627823,1628408,1629008,203115,1610612749,1626192,1628425,203114,203507,2594,0021900724,3,2014,2018,0,2,1610612749
156,1610612743,1627736,1627823,1628408,1629008,203115,1610612749,1626192,1628425,203114,203507,2594,0021900724,3,2026,2031,0,0,1610612743
157,1610612743,1627736,1627823,1628408,1629008,203115,1610612749,1626192,1628425,203114,203507,2594,0021900724,3,2034,2034,0,1,1610612749
158,1610612743,1627736,1627823,1628408,1629008,203115,1610612749,1626192,1628425,203114,203507,2594,0021900724,3,2049,2049,0,0,1610612743
159,1610612743,1627736,1627823,1628408,1629008,203115,1610612749,1626192,1628425,203114,203507,2594,0021900724,3,2064,2073,0,0,1610612749
160,1610612743,1627736,1627823,1628408,1629008,203115,1610612749,1626192,1628425,203114,203507,2594,0021900724,3,2078,2078,2,0,1610612743
161,1610612743,1627736,1627823,1628408,1629008,203115,1610612749,1626192,1628425,203114,203507,2594,0021900724,3,2090,2090,0,3,1610612749
162,1610612743,1627736,1627823,1628408,1629008,203115,1610612749,1626192,1628425,203114,203507,2594,0021900724,3,2115,2121,0,0,1610612743
163,1610612743,1627736,1627823,1628408,1629008,203115,1610612749,1626192,1628425,203114,203507,2594,0021900724,3,2124,2124,0,0,1610612749
164,1610612743,1627736,1627823,1628408,1629008,203115,1610612749,1626192,1628425,203114,203507,2594,0021900724,3,2133,2133,2,0,1610612743
165,1610612743,1627736,1627823,1628408,1629008,203115,1610612749,1626192,1628425,203114,203507,2594,0021900724,3,2149,2149,0,2,1610612749
166,1610612743,1627736,1627823,1629008,203115,203924,1610612749,1626192,1628425,202083,203114,203648,0021900724,3,2159,2159,3,0,1610612743
167,1610612743,203999,1629008,1627736,1628408,1627823,1610612749,203507,202339,1626192,1628425,2594,0021900724,4,2160,2180,0,0,1610612749
168,1610612743,203999,1629008,1627736,1628408,1627823,1610612749,203507,202339,1626192,1628425,2594,0021900724,4,2190,2193,0,0,1610612743
169,1610612743,203999,1629008,1627736,1628408,1627823,1610612749,203507,202339,1626192,1628425,2594,0021900724,4,2198,2198,0,2,1610612749
170,1610612743,203999,1629008,1627736,1628408,1627823,1610612749,203507,202339,1626192,1628425,2594,0021900724,4,2219,2219,3,0,1610612743
171,1610612743,203999,1629008,1627736,1628408,1627823,1610612749,1626192,1628425,201572,202339,2594,0021900724,4,2233,2233,0,0,1610612749
172,1610612743,203999,1629008,1627736,1628408,1627823,1610612749,1626192,1628425,201572,202339,2594,0021900724,4,2238,2238,0,0,1610612743
173,1610612743,203999,1629008,1627736,1628408,1627823,1610612749,1626192,1628425,201572,202339,2594,0021900724,4,2243,2248,0,2,1610612749
174,1610612743,203999,1629008,1627736,1628408,1627823,1610612749,1626192,1628425,201572,202339,2594,0021900724,4,2253,2275,2,0,1610612743
175,1610612743,1627736,1627823,1628408,1628470,203999,1610612749,1626192,1628425,201572,202083,202339,0021900724,4,2286,2286,0,2,1610612749
176,1610612743,1627736,1627823,1628408,1628470,203999,1610612749,1626192,1628425,201572,202083,202339,0021900724,4,2305,2305,0,0,1610612743
177,1610612743,1627736,1627823,1628408,1628470,203999,1610612749,1626192,1628425,201572,202083,202339,0021900724,4,2320,2323,0,0,1610612749
178,1610612743,1627736,1627823,1628408,1628470,203999,1610612749,1626192,1628425,201572,202083,202339,0021900724,4,2332,2336,0,0,1610612743
179,1610612743,1627736,1627823,1628408,1628470,203999,1610612749,1626192,1628425,201572,202083,202339,0021900724,4,2344,2344,0,3,1610612749
180,1610612743,1627736,1627823,1628408,1628470,203999,1610612749,1626192,1628425,201572,202083,202339,0021900724,4,2365,2365,3,0,1610612743
181,1610612743,1627736,1627823,1628408,1628470,203999,1610612749,1626192,1628425,201572,202083,202339,0021900724,4,2381,2381,0,0,1610612749
182,1610612743,1627736,1627823,1628408,1628470,203999,1610612749,1626192,201572,202083,202339,203114,0021900724,4,2405,2405,2,0,1610612743
183,1610612743,1627736,1627823,1628408,1628470,203999,1610612749,1626192,201572,202083,202339,203114,0021900724,4,2419,2419,0,2,1610612749
184,1610612743,1627736,1627823,1628408,1628470,203999,1610612749,1626192,201572,202083,202339,203114,0021900724,4,2442,2442,3,0,1610612743
185,1610612743,1627736,1627823,1628408,1628470,203999,1610612749,1626192,201572,202083,202339,203114,0021900724,4,2456,2456,0,0,1610612749
186,1610612743,1627736,1627823,1628408,1628470,203999,1610612749,1626192,201572,202083,202339,203114,0021900724,4,2459,2459,2,0,1610612743
187,1610612743,1627736,1627823,1628408,1628470,203999,1610612749,1626192,201572,202083,202339,203114,0021900724,4,2459,2488,0,0,1610612749
188,1610612743,1627736,1627823,1628408,1628470,203999,1610612749,201572,202083,202339,203114,203507,0021900724,4,2506,2509,0,0,1610612743
189,1610612743,1627736,1627823,1628408,1628470,203999,1610612749,201572,202083,202339,203114,203507,0021900724,4,2515,2518,0,0,1610612749
190,1610612743,1627736,1627823,1628408,1628470,203999,1610612749,201572,202083,202339,203114,203507,0021900724,4,2532,2536,0,0,1610612743
191,1610612743,1627736,1627823,1628408,1628470,203999,1610612749,201572,202083,202339,203114,203507,0021900724,4,2542,2542,0,3,1610612749
192,1610612743,1628420,1628470,203115,203924,203999,1610612749,1626192,202083,203114,203507,2594,0021900724,4,2567,2571,0,0,1610612743
193,1610612743,1628420,1628470,203115,203924,203999,1610612749,1626192,202083,203114,203507,2594,0021900724,4,2580,2582,0,0,1610612749
194,1610612743,1628420,1628470,203115,203924,203999,1610612749,1626192,202083,203114,203507,2594,0021900724,4,2597,2597,0,0,1610612743
195,1610612743,1628420,1628470,203115,203924,203999,1610612749,1626192,202083,203114,203507,2594,0021900724,4,2608,2608,0,2,1610612749
196,1610612743,1628420,1628470,203115,203924,203999,1610612749,1626192,202083,203114,203507,2594,0021900724,4,2624,2624,2,0,1610612743
197,1610612743,1628420,1628470,203115,203924,203999,1610612749,1626192,202083,203114,203507,2594,0021900724,4,2624,2631,0,2,1610612749
198,1610612743,1628420,1628470,203115,203924,203999,1610612749,1626192,202083,203114,203507,2594,0021900724,4,2656,2659,0,0,1610612743
199,1610612743,1627736,1628420,203115,203924,203999,1610612749,1626192,202083,203114,203507,2594,0021900724,4,2665,2665,0,2,1610612749
200,1610612743,1627736,1628420,203115,203924,203999,1610612749,1626192,202083,203114,203507,2594,0021900724,4,2679,2679,3,0,1610612743
201,1610612743,1627736,1628420,203115,203924,203999,1610612749,1626192,202083,203114,203507,2594,0021900724,4,2688,2688,0,0,1610612749
202,1610612743,1627736,1628420,203115,203924,203999,1610612749,1626192,202083,203114,203507,2594,0021900724,4,2708,2708,3,0,1610612743
203,1610612743,1627736,1628420,203115,203924,203999,1610612749,1626192,202083,203114,203507,2594,0021900724,4,2708,2724,0,2,1610612749
204,1610612743,1627736,1628420,203115,203924,203999,1610612749,1626192,202083,202339,203114,203507,0021900724,4,2739,2749,2,0,1610612743
205,1610612743,1627736,1628420,203115,203924,203999,1610612749,1626192,202083,202339,203114,203507,0021900724,4,2758,2758,0,0,1610612749
206,1610612743,1627736,1628420,203115,203924,203999,1610612749,1626192,202083,202339,203114,203507,0021900724,4,2776,2776,0,0,1610612743
207,1610612743,1627736,1628420,203115,203924,203999,1610612749,1626192,202083,202339,203114,203507,0021900724,4,2779,2779,0,0,1610612749
208,1610612743,1627736,1628420,203115,203924,203999,1610612749,1626192,202083,202339,203114,203507,0021900724,4,2779,2797,0,0,1610612743
209,1610612743,1627736,1628420,203115,203924,203999,1610612749,1626192,202083,202339,203114,203507,0021900724,4,2802,2804,0,0,1610612749
210,1610612743,1627736,1628420,203115,203924,203999,1610612749,1626192,202083,202339,203114,203507,0021900724,4,2806,2806,2,0,1610612743
211,1610612743,1627736,1628420,203115,203924,203999,1610612749,1626192,1628425,201577,202083,2594,0021900724,4,2820,2824,0,0,1610612749
212,1610612743,1627736,1628420,203115,203924,203999,1610612749,1626192,1628425,201577,202083,2594,0021900724,4,2840,2844,0,0,1610612743
213,1610612743,1627736,1628420,203115,203924,203999,1610612749,1626192,1628425,201577,202083,2594,0021900724,4,2848,2848,0,2,1610612749
214,1610612743,1627736,1628420,203115,203924,203999,1610612749,1626192,1628425,201577,202083,2594,0021900724,4,2872,2872,0,0,1610612743
