,team1_id,team1_player1,team1_player2,team1_player3,team1_player4,team1_player5,team2_id,team2_player1,team2_player2,team2_player3,team2_player4,team2_player5,game_id,period,possession_start,possession_end,team1_points,team2_points,possession_team
0,1610612753,1628407,203932,202696,203095,1628365,1610612764,1629067,1630166,1628418,203078,201566,0022000024,1,0,16,0,2,1610612764
1,1610612753,1628407,203932,202696,203095,1628365,1610612764,1629067,1630166,1628418,203078,201566,0022000024,1,32,37,0,0,1610612753
2,1610612753,1628407,203932,202696,203095,1628365,1610612764,1629067,1630166,1628418,203078,201566,0022000024,1,45,48,0,0,1610612764
3,1610612753,1628407,203932,202696,203095,1628365,1610612764,1629067,1630166,1628418,203078,201566,0022000024,1,57,57,2,0,1610612753
4,1610612753,1628407,203932,202696,203095,1628365,1610612764,1629067,1630166,1628418,203078,201566,0022000024,1,76,78,0,2,1610612764
5,1610612753,1628407,203932,202696,203095,1628365,1610612764,1629067,1630166,1628418,203078,201566,0022000024,1,90,90,2,0,1610612753
6,1610612753,1628407,203932,202696,203095,1628365,1610612764,1629067,1630166,1628418,203078,201566,0022000024,1,98,98,0,2,1610612764
7,1610612753,1628407,203932,202696,203095,1628365,1610612764,1629067,1630166,1628418,203078,201566,0022000024,1,108,111,0,0,1610612753
8,1610612753,1628407,203932,202696,203095,1628365,1610612764,1629067,1630166,1628418,203078,201566,0022000024,1,122,124,0,0,1610612764
9,1610612753,1628407,203932,202696,203095,1628365,1610612764,1629067,1630166,1628418,203078,201566,0022000024,1,129,133,0,0,1610612753
10,1610612753,1628407,203932,202696,203095,1628365,1610612764,1629067,1630166,1628418,203078,201566,0022000024,1,138,139,0,0,1610612764
11,1610612753,1628407,203932,202696,203095,1628365,1610612764,1629067,1630166,1628418,203078,201566,0022000024,1,141,141,3,0,1610612753
12,1610612753,1628407,203932,202696,203095,1628365,1610612764,1629067,1630166,1628418,203078,201566,0022000024,1,151,162,0,3,1610612764
13,1610612753,1628407,203932,202696,203095,1628365,1610612764,1629067,1630166,1628418,203078,201566,0022000024,1,174,174,2,0,1610612753
14,1610612753,1628407,203932,202696,203095,1628365,1610612764,1629067,1630166,1628418,203078,201566,0022000024,1,187,187,0,3,1610612764
15,1610612753,1628407,203932,202696,203095,1628365,1610612764,1629067,1630166,1628418,203078,201566,0022000024,1,202,204,1,0,1610612753
16,1610612753,1628407,203932,202696,203095,1628365,1610612764,1628418,1628972,1629067,201566,203078,0022000024,1,214,218,0,0,1610612764
17,1610612753,1628407,203932,202696,203095,1628365,1610612764,1628418,1628972,1629067,201566,203078,0022000024,1,224,238,0,0,1610612753
18,1610612753,1628407,203932,202696,203095,1628365,1610612764,1628418,1628972,1629067,201566,203078,0022000024,1,248,250,0,0,1610612764
19,1610612753,1628407,203932,202696,203095,1628365,1610612764,1628418,1628972,1629067,201566,203078,0022000024,1,260,260,3,0,1610612753
20,1610612753,1628407,203932,202696,203095,1628365,1610612764,1628418,1628972,1629067,201566,203078,0022000024,1,276,276,0,0,1610612764
21,1610612753,1628407,203932,202696,203095,1628365,1610612764,1628418,1628972,1629067,201566,203078,0022000024,1,286,286,0,0,1610612753
22,1610612753,1628407,203932,202696,203095,1628365,1610612764,1628418,1628972,1629067,201566,203078,0022000024,1,295,295,0,2,1610612764
23,1610612753,1628407,203932,202696,203095,1628365,1610612764,1628418,1628972,1629067,201566,203078,0022000024,1,318,318,2,0,1610612753
24,1610612753,1628407,203932,202696,203095,1628365,1610612764,1628418,1628972,1629067,201566,203078,0022000024,1,328,339,0,0,1610612764
25,1610612753,1628407,203932,202696,203095,1628365,1610612764,1628418,1628972,1629067,201566,203078,0022000024,1,345,347,0,0,1610612753
26,1610612753,1628407,203932,202696,203095,1628365,1610612764,1628418,1628972,1629067,201566,203078,0022000024,1,353,354,0,0,1610612764
27,1610612753,1628407,203932,202696,203095,1628365,1610612764,1628418,1628972,1629067,201566,203078,0022000024,1,359,359,3,0,1610612753
28,1610612753,1628407,203932,202696,203095,1628365,1610612764,1628418,1628972,1629067,201566,203078,0022000024,1,360,371,0,0,1610612764
29,1610612753,1628407,203932,202696,203095,1628365,1610612764,1628418,1628972,1629067,202397,203078,0022000024,1,371,371,0,0,1610612764
30,1610612753,1628407,203932,202696,203095,1628365,1610612764,1628418,1628972,1629067,202397,203078,0022000024,1,374,374,0,0,1610612753
31,1610612753,1628407,203932,202696,203095,1628365,1610612764,1628418,1628972,1629067,202397,203078,0022000024,1,392,399,0,3,1610612764
32,1610612753,1628365,1629643,202696,203082,203095,1610612764,1628418,1628972,1629067,202397,203078,0022000024,1,412,412,0,0,1610612753
33,1610612753,1628365,1629643,202696,203082,203095,1610612764,1628418,1628972,202397,202722,203078,0022000024,1,430,432,0,0,1610612764
34,1610612753,1628365,1629643,202696,203082,203095,1610612764,1628418,1628972,202397,202722,203078,0022000024,1,437,437,2,0,1610612753
35,1610612753,1628365,1629643,202696,203082,203095,1610612764,1628418,1628972,202397,202722,203078,0022000024,1,445,447,0,0,1610612764
36,1610612753,1628365,1629643,202696,203082,203095,1610612764,1628418,1628972,202397,202722,203078,0022000024,1,458,461,0,0,1610612753
37,1610612753,1628365,1629643,202696,203082,203095,1610612764,1628418,1628972,202397,202722,203078,0022000024,1,468,468,0,2,1610612764
38,1610612753,1628365,1629643,202696,203082,203095,1610612764,1628418,1628972,202397,202722,203078,0022000024,1,483,494,3,0,1610612753
39,1610612753,1629643,1630175,203082,203095,203920,1610612764,1628972,201577,202397,202722,203078,0022000024,1,508,508,0,3,1610612764
40,1610612753,1629643,1630175,203082,203095,203920,1610612764,1628972,201577,202397,202722,203078,0022000024,1,520,535,2,0,1610612753
41,1610612753,1629643,1630175,203082,203487,203920,1610612764,1628972,201577,202397,202722,203078,0022000024,1,543,543,0,0,1610612764
42,1610612753,1629643,1630175,203082,203487,203920,1610612764,1628972,201577,202397,202722,203078,0022000024,1,543,567,0,0,1610612753
43,1610612753,1629643,1630175,203082,203487,203920,1610612764,1628972,201566,201577,202397,202722,0022000024,1,577,577,0,0,1610612764
44,1610612753,1629643,1630175,203082,203487,203920,1610612764,1628972,201566,201577,202397,202722,0022000024,1,588,588,2,0,1610612753
45,1610612753,1629643,1630175,203082,203487,203920,1610612764,1628972,201566,201577,202397,202722,0022000024,1,598,598,0,3,1610612764
46,1610612753,1629643,1630175,203082,203487,203920,1610612764,1628972,201566,201577,202397,202722,0022000024,1,612,612,0,0,1610612753
47,1610612753,1629643,1630175,203082,203487,203920,1610612764,1628972,201566,201577,202397,202722,0022000024,1,620,624,0,0,1610612764
48,1610612753,1629643,1630175,203082,203487,203920,1610612764,1628972,201566,201577,202397,202722,0022000024,1,630,632,0,0,1610612753
49,1610612753,1629643,1630175,203082,203487,203920,1610612764,1628972,201566,201577,202397,202722,0022000024,1,636,639,0,1,1610612764
50,1610612753,1629643,1630175,203082,203487,203920,1610612764,1628972,201566,201577,202397,202722,0022000024,1,650,650,2,0,1610612753
51,1610612753,1629643,1630175,203082,203487,203920,1610612764,1628972,201566,201577,202397,202722,0022000024,1,659,659,0,3,1610612764
52,1610612753,1629643,1630175,203082,203487,203920,1610612764,1628972,201566,201577,202397,202722,0022000024,1,673,675,0,0,1610612753
53,1610612753,1629643,1630175,203082,203487,203920,1610612764,1628972,201566,201577,202397,202722,0022000024,1,681,681,0,1,1610612764
54,1610612753,1629643,1630175,203082,203487,203920,1610612764,1628972,201566,201577,202397,202722,0022000024,1,681,689,3,0,1610612753
55,1610612753,1629643,1630175,203082,203487,203920,1610612764,1628972,201566,201577,202397,202722,0022000024,1,701,701,0,0,1610612764
56,1610612753,1629643,1630175,203082,203487,203920,1610612764,1628972,201566,201577,202397,202722,0022000024,1,713,713,0,0,1610612753
57,1610612753,1629643,1630175,203082,203487,203920,1610612764,1628972,201566,201577,202397,202722,0022000024,1,719,719,0,2,1610612764
58,1610612753,203932,203082,203920,1630175,203487,1610612764,201566,1628972,202397,201577,203526,0022000024,2,720,742,0,0,1610612753
59,1610612753,203932,203082,203920,1630175,203487,1610612764,201566,1628972,202397,201577,203526,0022000024,2,749,752,0,0,1610612764
60,1610612753,203932,203082,203920,1630175,203487,1610612764,201566,1628972,202397,201577,203526,0022000024,2,758,758,0,0,1610612753
61,1610612753,203932,203082,203920,1630175,203487,1610612764,1630166,201566,201577,202397,203526,0022000024,2,772,772,0,0,1610612764
62,1610612753,203932,203082,203920,1630175,203487,1610612764,1630166,201566,201577,202397,203526,0022000024,2,780,785,1,0,1610612753
63,1610612753,203932,203082,203920,1630175,203487,1610612764,1630166,201566,201577,202397,203526,0022000024,2,794,797,0,0,1610612764
64,1610612753,203932,203082,203920,1630175,203487,1610612764,1630166,201566,201577,202397,203526,0022000024,2,803,803,2,0,1610612753
65,1610612753,203932,203082,203920,1630175,203487,1610612764,1630166,201566,201577,202397,203526,0022000024,2,811,814,0,0,1610612764
66,1610612753,203932,203082,203920,1630175,203487,1610612764,1630166,201566,201577,202397,203526,0022000024,2,817,823,2,0,1610612753
67,1610612753,203932,203082,203920,1630175,203487,1610612764,1629010,201566,201577,202397,203526,0022000024,2,843,845,0,0,1610612764
68,1610612753,203932,203082,203920,1630175,203487,1610612764,1629010,201566,201577,202397,203526,0022000024,2,854,854,2,0,1610612753
69,1610612753,203932,203082,203920,1630175,203487,1610612764,1629010,201566,201577,202397,203526,0022000024,2,866,867,0,0,1610612764
70,1610612753,203932,203082,203920,1630175,203487,1610612764,1629010,201566,201577,202397,203526,0022000024,2,879,882,0,0,1610612753
71,1610612753,203932,203082,203920,1630175,203487,1610612764,1629010,201566,201577,202397,203526,0022000024,2,886,886,0,2,1610612764
72,1610612753,203932,203082,203920,1630175,203487,1610612764,1629010,201566,201577,202397,203526,0022000024,2,895,895,3,0,1610612753
73,1610612753,203932,203082,203920,1630175,203487,1610612764,1629010,201566,201577,203078,203526,0022000024,2,903,903,0,2,1610612764
74,1610612753,203932,203082,203920,1630175,203487,1610612764,1629010,201566,201577,203078,203526,0022000024,2,915,915,2,0,1610612753
75,1610612753,203932,203082,203920,1630175,203487,1610612764,1629010,201566,201577,203078,203526,0022000024,2,923,932,0,0,1610612764
76,1610612753,203932,203082,203920,1630175,203487,1610612764,1629010,201566,201577,203078,203526,0022000024,2,956,958,0,0,1610612753
77,1610612753,203932,203082,203920,1630175,203487,1610612764,1629010,201566,201577,203078,203526,0022000024,2,968,968,0,3,1610612764
78,1610612753,203932,203082,203920,1630175,203487,1610612764,1629010,201566,201577,203078,203526,0022000024,2,969,988,0,0,1610612753
79,1610612753,1628365,202696,203082,203487,203932,1610612764,1628418,1629010,1629067,203078,203526,0022000024,2,1010,1010,0,2,1610612764
80,1610612753,1628365,202696,203082,203487,203932,1610612764,1628418,1629010,1629067,203078,203526,0022000024,2,1023,1025,0,0,1610612753
81,1610612753,1628365,202696,203082,203487,203932,1610612764,1628418,1629010,1629067,203078,203526,0022000024,2,1029,1033,0,0,1610612764
82,1610612753,1628365,202696,203082,203487,203932,1610612764,1628418,1629010,1629067,203078,203526,0022000024,2,1047,1047,3,0,1610612753
83,1610612753,1628365,202696,203082,203487,203932,1610612764,1628418,1629010,1629067,203078,203526,0022000024,2,1065,1065,0,0,1610612764
84,1610612753,1628365,202696,203082,203487,203932,1610612764,1628418,1629010,1629067,203078,203526,0022000024,2,1066,1077,2,0,1610612753
85,1610612753,1628365,202696,203082,203095,203932,1610612764,1628418,1629010,1629067,203078,203526,0022000024,2,1093,1093,0,3,1610612764
86,1610612753,1628365,202696,203082,203095,203932,1610612764,1628418,1629010,1629067,203078,203526,0022000024,2,1111,1117,2,0,1610612753
87,1610612753,1628365,202696,203082,203095,203932,1610612764,1628418,1629010,1629067,203078,203526,0022000024,2,1125,1125,0,0,1610612764
88,1610612753,1628365,202696,203082,203095,203932,1610612764,1628418,1629010,1629067,203078,203526,0022000024,2,1132,1132,2,0,1610612753
89,1610612753,1628365,1629643,202696,203082,203095,1610612764,1628418,1629010,201566,203078,203526,0022000024,2,1139,1139,0,2,1610612764
90,1610612753,1628365,1629643,202696,203082,203095,1610612764,1628418,1629010,201566,203078,203526,0022000024,2,1149,1150,0,0,1610612753
91,1610612753,1628365,1629643,202696,203082,203095,1610612764,1628418,1629010,201566,203078,203526,0022000024,2,1161,1163,0,0,1610612764
92,1610612753,1628365,1629643,202696,203082,203095,1610612764,1628418,1629010,201566,203078,203526,0022000024,2,1168,1172,0,0,1610612753
93,1610612753,1628365,1629643,202696,203082,203095,1610612764,1628418,1629010,201566,203078,203526,0022000024,2,1187,1187,0,2,1610612764
94,1610612753,1628365,1629643,202696,203082,203095,1610612764,1628418,1629010,201566,203078,203526,0022000024,2,1205,1212,2,0,1610612753
95,1610612753,1628365,1629643,202696,203082,203095,1610612764,1628418,1629010,201566,203078,203526,0022000024,2,1212,1225,0,3,1610612764
96,1610612753,1628365,1629643,202696,203082,203095,1610612764,1628418,1629010,201566,203078,203526,0022000024,2,1226,1243,2,0,1610612753
97,1610612753,1628365,1628407,1629643,202696,203095,1610612764,1628418,1629010,201566,203078,203526,0022000024,2,1260,1262,0,0,1610612764
98,1610612753,1628365,1628407,1629643,202696,203095,1610612764,1628418,1629010,201566,203078,203526,0022000024,2,1268,1268,3,0,1610612753
99,1610612753,1628365,1628407,1629643,202696,203095,1610612764,1628418,1629010,201566,203078,203526,0022000024,2,1269,1280,0,2,1610612764
100,1610612753,1628365,1628407,1629643,202696,203095,1610612764,1628418,1629010,201566,202722,203078,0022000024,2,1293,1304,0,0,1610612753
101,1610612753,1628365,1628407,1629643,202696,203095,1610612764,1628418,1629010,201566,202722,203078,0022000024,2,1313,1330,0,1,1610612764
102,1610612753,1628365,1628407,1629643,202696,203095,1610612764,1628418,1629010,201566,202722,203078,0022000024,2,1343,1343,0,0,1610612753
103,1610612753,1628365,1628407,1629643,202696,203095,1610612764,1628418,1629010,201566,202722,203078,0022000024,2,1350,1350,0,3,1610612764
104,1610612753,1628365,1628407,1629643,202696,203095,1610612764,1628418,1629010,201566,202722,203078,0022000024,2,1363,1365,1,0,1610612753
105,1610612753,1628365,1628407,1629643,202696,203095,1610612764,1628418,1629010,201566,202722,203078,0022000024,2,1373,1373,0,0,1610612764
106,1610612753,1628365,1628407,1629643,202696,203082,1610612764,1628418,1629010,201566,202722,203078,0022000024,2,1385,1385,0,0,1610612753
107,1610612753,1628365,1628407,1629643,202696,203082,1610612764,1628418,1629010,201566,202722,203078,0022000024,2,1395,1397,0,2,1610612764
108,1610612753,1628365,1628407,1629643,202696,203082,1610612764,1628418,1629010,201566,202722,203078,0022000024,2,1406,1412,2,0,1610612753
109,1610612753,1628365,1628407,1629643,202696,203082,1610612764,1628418,1629010,201566,202722,203078,0022000024,2,1435,1435,0,0,1610612764
110,1610612753,1628365,1628407,1629643,202696,203082,1610612764,1628418,1629010,201566,202722,203078,0022000024,2,1440,1440,0,0,1610612753
111,1610612753,1628407,203932,202696,203095,1628365,1610612764,1629067,1630166,1628418,203078,201566,0022000024,3,1440,1450,2,0,1610612753
112,1610612753,1628407,203932,202696,203095,1628365,1610612764,1629067,1630166,1628418,203078,201566,0022000024,3,1467,1467,0,0,1610612764
113,1610612753,1628407,203932,202696,203095,1628365,1610612764,1629067,1630166,1628418,203078,201566,0022000024,3,1482,1484,0,0,1610612753
114,1610612753,1628407,203932,202696,203095,1628365,1610612764,1629067,1630166,1628418,203078,201566,0022000024,3,1488,1488,0,2,1610612764
115,1610612753,1628407,203932,202696,203095,1628365,1610612764,1629067,1630166,1628418,203078,201566,0022000024,3,1503,1503,0,0,1610612753
116,1610612753,1628407,203932,202696,203095,1628365,1610612764,1629067,1630166,1628418,203078,201566,0022000024,3,1504,1512,0,3,1610612764
117,1610612753,1628407,203932,202696,203095,1628365,1610612764,1629067,1630166,1628418,203078,201566,0022000024,3,1523,1532,3,0,1610612753
118,1610612753,1628407,203932,202696,203095,1628365,1610612764,1628418,1629010,1629067,201566,203078,0022000024,3,1550,1553,0,0,1610612764
119,1610612753,1628407,203932,202696,203095,1628365,1610612764,1628418,1629010,1629067,201566,203078,0022000024,3,1567,1574,2,0,1610612753
120,1610612753,1628407,203932,202696,203095,1628365,1610612764,1628418,1629010,1629067,201566,203078,0022000024,3,1574,1581,0,0,1610612764
121,1610612753,1628407,203932,202696,203095,1628365,1610612764,1628418,1629010,1629067,201566,203078,0022000024,3,1590,1596,0,0,1610612753
122,1610612753,1628407,203932,202696,203095,1628365,1610612764,1628418,1629010,1629067,201566,203078,0022000024,3,1598,1598,0,1,1610612764
123,1610612753,1628407,203932,202696,203095,1628365,1610612764,1628418,1629010,1629067,201566,203078,0022000024,3,1608,1618,2,0,1610612753
124,1610612753,1628407,203932,202696,203095,1628365,1610612764,1628418,1629010,1629067,201566,203078,0022000024,3,1626,1629,0,1,1610612764
125,1610612753,1628407,203932,202696,203095,1628365,1610612764,1628418,1629010,1629067,201566,203078,0022000024,3,1648,1648,2,0,1610612753
126,1610612753,1628407,203932,202696,203095,1628365,1610612764,1628418,1629010,1629067,201566,203078,0022000024,3,1655,1655,0,3,1610612764
127,1610612753,1628407,203932,202696,203095,1628365,1610612764,1628418,1629010,1629067,201566,203078,0022000024,3,1668,1670,0,0,1610612753
128,1610612753,1628407,203932,202696,203095,1628365,1610612764,1628418,1629010,1629067,201566,203078,0022000024,3,1679,1679,0,2,1610612764
129,1610612753,1628407,203932,202696,203095,1628365,1610612764,1628418,1629010,1629067,201566,203078,0022000024,3,1690,1692,0,0,1610612753
130,1610612753,1628407,203932,202696,203095,1628365,1610612764,1628418,1629010,1629067,201566,203078,0022000024,3,1701,1701,0,2,1610612764
131,1610612753,1628407,203932,202696,203095,1628365,1610612764,1628418,1629010,1629067,201566,203078,0022000024,3,1710,1715,3,0,1610612753
132,1610612753,1628407,203932,202696,203095,1628365,1610612764,1628418,1629010,1629067,201566,203078,0022000024,3,1725,1725,0,2,1610612764
133,1610612753,1628407,203932,202696,203095,1628365,1610612764,1628418,1629010,1629067,201566,203078,0022000024,3,1747,1748,0,0,1610612753
134,1610612753,1628407,203932,202696,203095,1628365,1610612764,1628418,1629010,1629067,201566,203078,0022000024,3,1756,1759,0,2,1610612764
135,1610612753,1628407,203932,202696,203095,1628365,1610612764,1628418,1629010,1629067,201566,203078,0022000024,3,1764,1775,3,0,1610612753
136,1610612753,1628407,203932,202696,203095,1628365,1610612764,1628418,1629010,1629067,201566,203078,0022000024,3,1791,1791,0,2,1610612764
137,1610612753,1628407,203932,202696,203095,1628365,1610612764,1628418,1629010,1629067,201566,203078,0022000024,3,1805,1806,0,0,1610612753
138,1610612753,1628407,203932,202696,203095,1628365,1610612764,1628418,1629010,1629067,201566,203078,0022000024,3,1810,1810,0,2,1610612764
139,1610612753,1628407,203932,202696,203095,1628365,1610612764,1628418,1629010,1629067,201566,203078,0022000024,3,1825,1829,0,0,1610612753
140,1610612753,1628407,203932,202696,203095,1628365,1610612764,1628418,1629010,1629067,201566,203078,0022000024,3,1837,1837,0,2,1610612764
141,1610612753,1628365,1629643,202696,203082,203095,1610612764,1629010,1629067,201577,202397,203078,0022000024,3,1855,1855,2,0,1610612753
142,1610612753,1628365,1629643,202696,203082,203095,1610612764,1629010,201577,202397,202722,203078,0022000024,3,1869,1874,0,0,1610612764
143,1610612753,1628365,1629643,202696,203082,203095,1610612764,1629010,201577,202397,202722,203078,0022000024,3,1876,1876,0,0,1610612753
144,1610612753,1628365,1629643,202696,203082,203095,1610612764,1629010,201577,202397,202722,203078,0022000024,3,1891,1894,0,0,1610612764
145,1610612753,1628365,1629643,202696,203082,203095,1610612764,1629010,201577,202397,202722,203078,0022000024,3,1902,1902,3,0,1610612753
146,1610612753,1628365,1629643,202696,203082,203095,1610612764,1629010,201577,202397,202722,203078,0022000024,3,1913,1913,0,2,1610612764
147,1610612753,1628365,1629643,202696,203082,203095,1610612764,1629010,201577,202397,202722,203078,0022000024,3,1923,1923,2,0,1610612753
148,1610612753,1628365,1629643,202696,203082,203095,1610612764,1629010,201577,202397,202722,203078,0022000024,3,1923,1940,0,0,1610612764
149,1610612753,1629643,1630175,203082,203095,203920,1610612764,1629010,201577,202397,202722,203078,0022000024,3,1947,1949,0,0,1610612753
150,1610612753,1629643,1630175,203082,203095,203920,1610612764,1629010,201577,202397,202722,203078,0022000024,3,1953,1953,0,2,1610612764
151,1610612753,1629643,1630175,203082,203487,203920,1610612764,1629010,201577,202397,202722,203078,0022000024,3,1975,1975,2,0,1610612753
152,1610612753,1629643,1630175,203082,203487,203920,1610612764,1629010,201577,202397,202722,203078,0022000024,3,1994,1999,0,0,1610612764
153,1610612753,1629643,1630175,203082,203487,203920,1610612764,1629010,201577,202397,202722,203078,0022000024,3,2008,2008,2,0,1610612753
154,1610612753,1629643,1630175,203082,203487,203920,1610612764,1629010,201577,202397,202722,203078,0022000024,3,2022,2035,0,0,1610612764
155,1610612753,1629643,1630175,203082,203487,203920,1610612764,1629010,201566,201577,202397,202722,0022000024,3,2043,2046,0,0,1610612753
156,1610612753,1629643,1630175,203082,203487,203920,1610612764,1629010,201566,201577,202397,202722,0022000024,3,2051,2055,0,0,1610612764
157,1610612753,1629643,1630175,203082,203487,203920,1610612764,1629010,201566,201577,202397,202722,0022000024,3,2060,2069,0,0,1610612753
158,1610612753,1629643,1630175,203082,203487,203920,1610612764,1629010,201566,201577,202397,202722,0022000024,3,2069,2073,0,0,1610612764
159,1610612753,1629643,1630175,203082,203487,203920,1610612764,1629010,201566,201577,202397,202722,0022000024,3,2079,2079,1,0,1610612753
160,1610612753,1629643,1630175,203082,203487,203920,1610612764,1628972,201566,201577,202397,202722,0022000024,3,2087,2091,0,0,1610612764
161,1610612753,1629643,1630175,203082,203487,203920,1610612764,1628972,201566,201577,202397,202722,0022000024,3,2103,2106,0,0,1610612753
162,1610612753,1629643,1630175,203082,203487,203920,1610612764,1628972,201566,201577,202397,202722,0022000024,3,2111,2113,0,2,1610612764
163,1610612753,1629643,1630175,203082,203487,203920,1610612764,1628972,201566,201577,202397,202722,0022000024,3,2123,2126,0,0,1610612753
164,1610612753,1629643,1630175,203082,203487,203920,1610612764,1628972,201566,201577,202397,202722,0022000024,3,2133,2135,0,2,1610612764
165,1610612753,1629643,1630175,203082,203487,203920,1610612764,1628972,201566,201577,202397,202722,0022000024,3,2157,2160,0,0,1610612753
166,1610612753,1629643,1630175,203082,203487,203920,1610612764,1628972,201566,201577,202397,202722,0022000024,3,2160,2160,0,0,1610612753
167,1610612753,1629643,203082,203920,1630175,203487,1610612764,201566,1628972,202397,202722,201577,0022000024,4,2160,2170,0,2,1610612764
168,1610612753,1629643,203082,203920,1630175,203487,1610612764,201566,1628972,202397,202722,201577,0022000024,4,2196,2196,2,0,1610612753
169,1610612753,1629643,203082,203920,1630175,203487,1610612764,201566,1628972,202397,202722,201577,0022000024,4,2205,2205,0,2,1610612764
170,1610612753,1629643,203082,203920,1630175,203487,1610612764,201566,1628972,202397,202722,201577,0022000024,4,2227,2230,0,0,1610612753
171,1610612753,1629643,203082,203920,1630175,203487,1610612764,201566,1628972,202397,202722,201577,0022000024,4,2236,2239,0,0,1610612764
172,1610612753,1629643,203082,203920,1630175,203487,1610612764,201566,1628972,202397,202722,201577,0022000024,4,2249,2252,0,0,1610612753
173,1610612753,1629643,203082,203920,1630175,203487,1610612764,201566,1628972,202397,202722,201577,0022000024,4,2257,2257,0,2,1610612764
174,1610612753,1629643,203082,203920,1630175,203487,1610612764,201566,1628972,202397,202722,201577,0022000024,4,2273,2273,3,0,1610612753
175,1610612753,1629643,203082,203920,1630175,203487,1610612764,201566,1628972,202397,202722,201577,0022000024,4,2287,2291,0,2,1610612764
176,1610612753,1629643,203082,203920,1630175,203487,1610612764,201566,1628972,202397,202722,201577,0022000024,4,2294,2303,0,0,1610612753
177,1610612753,1629643,203082,203920,1630175,203487,1610612764,201566,1628972,202397,202722,201577,0022000024,4,2304,2304,0,0,1610612764
178,1610612753,1629643,203082,203920,1630175,203487,1610612764,201566,1628972,202397,202722,201577,0022000024,4,2314,2314,2,0,1610612753
179,1610612753,1629643,203082,203920,1630175,203487,1610612764,201566,1628972,202397,202722,201577,0022000024,4,2317,2328,0,0,1610612764
180,1610612753,1630175,203082,203487,203920,203932,1610612764,201566,201577,202397,202722,203078,0022000024,4,2344,2344,1,0,1610612753
181,1610612753,1630175,203082,203487,203920,203932,1610612764,1630166,201566,201577,202397,203078,0022000024,4,2354,2354,0,2,1610612764
182,1610612753,1630175,203082,203487,203920,203932,1610612764,1630166,201566,201577,202397,203078,0022000024,4,2376,2383,2,0,1610612753
183,1610612753,1630175,203082,203487,203920,203932,1610612764,1630166,201566,201577,202397,203078,0022000024,4,2391,2393,0,0,1610612764
184,1610612753,1630175,203082,203487,203920,203932,1610612764,1630166,201566,201577,202397,203078,0022000024,4,2403,2403,2,0,1610612753
185,1610612753,1630175,203082,203487,203920,203932,1610612764,1630166,201566,201577,202397,203078,0022000024,4,2410,2410,0,2,1610612764
186,1610612753,1630175,203082,203487,203920,203932,1610612764,1630166,201566,201577,202397,203078,0022000024,4,2434,2434,2,0,1610612753
187,1610612753,1630175,203082,203487,203920,203932,1610612764,1630166,201566,201577,202397,203078,0022000024,4,2452,2454,0,0,1610612764
188,1610612753,1628365,1628407,202696,203487,203932,1610612764,1628418,1629067,1630166,202397,203078,0022000024,4,2470,2470,3,0,1610612753
189,1610612753,1628365,1628407,202696,203487,203932,1610612764,1628418,1629067,1630166,202397,203078,0022000024,4,2489,2492,0,0,1610612764
190,1610612753,1628365,1628407,202696,203487,203932,1610612764,1628418,1629067,1630166,202397,203078,0022000024,4,2497,2512,2,0,1610612753
191,1610612753,1628365,1628407,202696,203095,203932,1610612764,1628418,1629067,1630166,202397,203078,0022000024,4,2513,2524,0,0,1610612764
192,1610612753,1628365,1628407,202696,203095,203932,1610612764,1628418,1629067,1630166,202397,203078,0022000024,4,2527,2529,2,0,1610612753
193,1610612753,1628365,1628407,202696,203095,203932,1610612764,1628418,1629067,1630166,202397,203078,0022000024,4,2539,2539,0,2,1610612764
194,1610612753,1628365,1628407,202696,203095,203932,1610612764,1628418,1629067,1630166,202397,203078,0022000024,4,2555,2567,0,0,1610612753
195,1610612753,1628365,1628407,202696,203095,203932,1610612764,1628418,1629067,1630166,202397,203078,0022000024,4,2572,2572,0,2,1610612764
196,1610612753,1628365,1628407,202696,203095,203932,1610612764,1628418,1629067,1630166,202397,203078,0022000024,4,2586,2586,2,0,1610612753
197,1610612753,1628365,1628407,202696,203095,203932,1610612764,1628418,1629067,1630166,202397,203078,0022000024,4,2600,2603,0,0,1610612764
198,1610612753,1628365,1628407,202696,203095,203932,1610612764,1628418,1629067,1630166,202397,203078,0022000024,4,2607,2610,0,0,1610612753
199,1610612753,1628365,1628407,202696,203095,203932,1610612764,1628418,1629067,1630166,202397,203078,0022000024,4,2622,2627,0,0,1610612764
200,1610612753,1628365,1628407,202696,203095,203932,1610612764,1628418,1629067,1630166,202397,203078,0022000024,4,2639,2639,0,0,1610612753
201,1610612753,1628365,1628407,202696,203095,203932,1610612764,1628418,1629067,1630166,202397,203078,0022000024,4,2648,2648,0,3,1610612764
202,1610612753,1628365,1628407,202696,203095,203932,1610612764,1628418,1629067,1630166,202397,203078,0022000024,4,2655,2664,0,0,1610612753
203,1610612753,1628365,202696,203082,203095,203932,1610612764,1628418,1630166,201566,202722,203078,0022000024,4,2680,2683,0,0,1610612764
204,1610612753,1628365,202696,203082,203095,203932,1610612764,1628418,1630166,201566,202722,203078,0022000024,4,2690,2696,3,0,1610612753
205,1610612753,1628365,202696,203082,203095,203932,1610612764,1628418,1630166,201566,202722,203078,0022000024,4,2715,2715,0,3,1610612764
206,1610612753,1628365,202696,203082,203095,203932,1610612764,1628418,1630166,201566,202722,203078,0022000024,4,2729,2729,2,0,1610612753
207,1610612753,1628365,202696,203082,203095,203932,1610612764,1628418,1630166,201566,202722,203078,0022000024,4,2742,2742,0,2,1610612764
208,1610612753,1628365,202696,203082,203095,203932,1610612764,1628418,1630166,201566,202722,203078,0022000024,4,2757,2757,2,0,1610612753
209,1610612753,1628365,202696,203082,203095,203932,1610612764,1628418,1630166,201566,202722,203078,0022000024,4,2770,2773,0,0,1610612764
210,1610612753,1628365,202696,203082,203095,203932,1610612764,1628418,1630166,201566,202722,203078,0022000024,4,2785,2785,2,0,1610612753
211,1610612753,1628365,202696,203082,203095,203932,1610612764,1628418,1630166,201566,202722,203078,0022000024,4,2785,2789,0,2,1610612764
212,1610612753,1628365,202696,203082,203095,203932,1610612764,1628418,1630166,201566,202722,203078,0022000024,4,2804,2804,2,0,1610612753
213,1610612753,1628365,202696,203082,203095,203932,1610612764,1628418,1630166,201566,202722,203078,0022000024,4,2810,2810,0,1,1610612764
214,1610612753,1628365,202696,203082,203095,203932,1610612764,1628418,1630166,201566,202722,203078,0022000024,4,2831,2831,2,0,1610612753
215,1610612753,1628365,202696,203082,203095,203932,1610612764,1628418,1630166,201566,202722,203078,0022000024,4,2838,2846,0,2,1610612764
216,1610612753,1628365,202696,203095,203487,203932,1610612764,1628418,1630166,201566,202722,203078,0022000024,4,2851,2851,2,0,1610612753
217,1610612753,1628365,202696,203095,203487,203932,1610612764,1628418,1630166,201566,202722,203078,0022000024,4,2858,2860,0,0,1610612764
