,stint_start,t1_points_scored,t2_pm,stint_end,t1_id,t2_points_scored,t1_players,t2_id,t1_pm,t2_players,margin_per_100,num_poss
0,0,9,7,316,1610612756,16,"[1626162, 203967, 203382, 1626164, 201937]",1610612757,-7,"[203145, 2546, 202355, 203468, 203081]",-31.818181818181817,22.0
1,317,9,7,328,1610612756,16,"[1626162, 203967, 203382, 1626164, 201937]",1610612757,-7,"[203145, 2546, 202355, 203468, 203081]",-30.434782608695656,23.0
2,329,11,7,370,1610612756,18,"[1626162, 1626164, 1629028, 201937, 203967]",1610612757,-7,"[203145, 2546, 202355, 203468, 203081]",-28.000000000000004,25.0
3,371,11,9,425,1610612756,20,"[1626162, 1626164, 1628975, 1629028, 203967]",1610612757,-9,"[203145, 2546, 202355, 203468, 203081]",-32.142857142857146,28.0
4,426,11,9,432,1610612756,20,"[1626162, 1626164, 1628969, 1628975, 1629028]",1610612757,-9,"[203145, 2546, 202355, 203468, 203081]",-31.03448275862069,29.0
5,433,13,11,450,1610612756,24,"[1626164, 1628969, 1628975, 1629028, 1629661]",1610612757,-11,"[203145, 2546, 202355, 203468, 203081]",-35.483870967741936,31.0
6,451,17,15,606,1610612756,32,"[1626164, 1628969, 1628975, 1629028, 1629661]",1610612757,-15,"[1629014, 1629642, 202355, 203081, 203145]",-36.58536585365854,41.0
7,607,19,16,687,1610612756,35,"[1626164, 1628969, 1628975, 1629028, 1629661]",1610612757,-16,"[1629014, 1629018, 1629642, 202355, 203081]",-34.78260869565217,46.0
8,688,19,19,715,1610612756,38,"[1628969, 1629059, 1629661, 201937, 203382]",1610612757,-19,"[1629014, 1629018, 1629642, 202355, 203081]",-40.42553191489361,47.0
9,716,25,16,852,1610612756,41,"[1628969, 1629059, 1629661, 201937, 203382]",1610612757,-16,"[1629014, 1629018, 1629642, 201229, 203081]",-29.629629629629626,54.0
10,853,31,14,952,1610612756,45,"[1626162, 203382, 201937, 1628969, 1629661]",1610612757,-14,"[203468, 1629642, 1629014, 1629018, 201229]",-23.333333333333332,60.0
11,953,34,14,1008,1610612756,48,"[1626162, 203382, 201937, 1628969, 1629661]",1610612757,-14,"[1629014, 1629018, 201229, 203468, 2546]",-21.875,64.0
12,1009,37,11,1041,1610612756,48,"[1626162, 1626164, 1628969, 201937, 203382]",1610612757,-11,"[1629014, 1629018, 201229, 203468, 2546]",-16.417910447761194,67.0
13,1042,39,9,1069,1610612756,48,"[1626162, 1626164, 1628969, 1629028, 201937]",1610612757,-9,"[1629014, 1629018, 202355, 203468, 2546]",-13.043478260869565,69.0
14,1070,39,11,1080,1610612756,50,"[1626162, 1626164, 1629028, 1629059, 203967]",1610612757,-11,"[1629014, 1629018, 202355, 203468, 2546]",-15.714285714285714,70.0
15,1081,41,12,1174,1610612756,53,"[1626162, 1626164, 1629028, 1629059, 203967]",1610612757,-12,"[202355, 203081, 203145, 203468, 2546]",-15.584415584415584,77.0
16,1175,41,14,1222,1610612756,55,"[1626162, 1626164, 1629028, 1629059, 203967]",1610612757,-14,"[1629018, 202355, 203081, 203145, 2546]",-17.72151898734177,79.0
17,1223,47,14,1387,1610612756,61,"[1626164, 1629028, 1629059, 1629661, 203967]",1610612757,-14,"[1629018, 202355, 203081, 203145, 2546]",-15.384615384615385,91.0
18,1388,55,9,1439,1610612756,64,"[1626162, 1626164, 1628969, 201937, 203382]",1610612757,-9,"[202355, 203081, 203145, 203468, 2546]",-9.278350515463918,97.0
19,1440,71,4,1774,1610612756,75,"[1626162, 1626164, 1628969, 201937, 203382]",1610612757,-4,"[1629650, 203081, 203145, 203468, 2546]",-3.3057851239669422,121.0
20,1775,71,10,1890,1610612756,81,"[1626162, 203967, 203382, 1626164, 201937]",1610612757,-10,"[203145, 2546, 202355, 203468, 203081]",-7.874015748031496,127.0
21,1891,75,8,1984,1610612756,83,"[1626162, 1626164, 1628975, 1629028, 203967]",1610612757,-8,"[203145, 2546, 202355, 203468, 203081]",-5.970149253731343,134.0
22,1985,75,10,2022,1610612756,85,"[1626164, 1628969, 1628975, 1629028, 1629661]",1610612757,-10,"[1629018, 1629642, 202355, 203081, 203468]",-7.352941176470589,136.0
23,2023,83,6,2149,1610612756,89,"[1626164, 1628969, 1628975, 1629028, 1629661]",1610612757,-6,"[1629014, 1629018, 1629642, 202355, 203081]",-4.081632653061225,147.0
24,2150,83,6,2159,1610612756,89,"[1626162, 1626164, 1628969, 201937, 203382]",1610612757,-6,"[1629014, 1629018, 1629642, 202355, 203081]",-4.054054054054054,148.0
25,2160,95,5,2402,1610612756,100,"[1626162, 1626164, 1629661, 201937, 203382]",1610612757,-5,"[1629014, 1629018, 1629642, 202355, 203081]",-3.0864197530864197,162.0
26,2403,102,4,2587,1610612756,106,"[1626162, 203382, 201937, 1628969, 1629661]",1610612757,-4,"[2546, 203468, 1629014, 1629018, 201229]",-2.2988505747126435,174.0
27,2588,107,1,2683,1610612756,108,"[1626162, 1626164, 1628969, 1629028, 201937]",1610612757,-1,"[1629014, 202355, 203081, 203468, 2546]",-0.5586592178770949,179.0
28,2684,115,-5,2806,1610612756,110,"[1626162, 1626164, 1628969, 1629028, 1629661]",1610612757,5,"[1629014, 202355, 203081, 203468, 2546]",2.6737967914438503,187.0
29,2807,120,-6,2836,1610612756,114,"[1626162, 1626164, 1628969, 1629028, 201937]",1610612757,6,"[1629014, 202355, 203081, 203468, 2546]",3.1413612565445024,191.0
30,2837,120,-4,2857,1610612756,116,"[1626162, 1626164, 1628969, 1629028, 201937]",1610612757,4,"[202355, 203081, 203145, 203468, 2546]",2.083333333333333,192.0
31,2858,120,-4,2864,1610612756,116,"[1626162, 1626164, 1628969, 1628975, 201937]",1610612757,4,"[1629014, 1629018, 203081, 203468, 2546]",2.083333333333333,192.0
32,2865,122,-6,9999999,1610612756,116,"[1626162, 1626164, 1628969, 1629028, 201937]",1610612757,6,"[1629018, 203081, 203145, 203468, 2546]",3.0927835051546393,194.0
