,team1_id,team1_player1,team1_player2,team1_player3,team1_player4,team1_player5,team2_id,team2_player1,team2_player2,team2_player3,team2_player4,team2_player5,game_id,period,possession_start,possession_end,team1_points,team2_points,possession_team
0,1610612754,203933,1627734,1626167,203087,1627763,1610612737,1629631,203953,1627745,1628989,1629027,0021900373,1,0,20,0,0,1610612737
1,1610612754,203933,1627734,1626167,203087,1627763,1610612737,1629631,203953,1627745,1628989,1629027,0021900373,1,42,42,2,0,1610612754
2,1610612754,203933,1627734,1626167,203087,1627763,1610612737,1629631,203953,1627745,1628989,1629027,0021900373,1,54,54,0,2,1610612737
3,1610612754,203933,1627734,1626167,203087,1627763,1610612737,1629631,203953,1627745,1628989,1629027,0021900373,1,73,73,0,0,1610612754
4,1610612754,203933,1627734,1626167,203087,1627763,1610612737,1629631,203953,1627745,1628989,1629027,0021900373,1,78,78,0,2,1610612737
5,1610612754,203933,1627734,1626167,203087,1627763,1610612737,1629631,203953,1627745,1628989,1629027,0021900373,1,98,100,0,0,1610612754
6,1610612754,203933,1627734,1626167,203087,1627763,1610612737,1629631,203953,1627745,1628989,1629027,0021900373,1,118,118,0,2,1610612737
7,1610612754,203933,1627734,1626167,203087,1627763,1610612737,1629631,203953,1627745,1628989,1629027,0021900373,1,135,135,2,0,1610612754
8,1610612754,203933,1627734,1626167,203087,1627763,1610612737,1629631,203953,1627745,1628989,1629027,0021900373,1,146,148,0,0,1610612737
9,1610612754,203933,1627734,1626167,203087,1627763,1610612737,1629631,203953,1627745,1628989,1629027,0021900373,1,154,154,2,0,1610612754
10,1610612754,203933,1627734,1626167,203087,1627763,1610612737,1629631,203953,1627745,1628989,1629027,0021900373,1,168,172,0,0,1610612737
11,1610612754,203933,1627734,1626167,203087,1627763,1610612737,1629631,203953,1627745,1628989,1629027,0021900373,1,179,192,0,0,1610612754
12,1610612754,203933,1627734,1626167,203087,1627763,1610612737,1629631,203953,1627745,1628989,1629027,0021900373,1,195,195,0,2,1610612737
13,1610612754,203933,1627734,1626167,203087,1627763,1610612737,1629631,203953,1627745,1628989,1629027,0021900373,1,202,207,0,0,1610612754
14,1610612754,203933,1627734,1626167,203087,1627763,1610612737,1629631,203953,1627745,1628989,1629027,0021900373,1,208,208,0,0,1610612737
15,1610612754,203933,1627734,1626167,203087,1627763,1610612737,1629631,203953,1627745,1628989,1629027,0021900373,1,218,218,2,0,1610612754
16,1610612754,203933,1627734,1626167,203087,1627763,1610612737,1629631,203953,1627745,1628989,1629027,0021900373,1,238,244,0,0,1610612737
17,1610612754,203933,1627734,1626167,203087,1627763,1610612737,1629631,203953,1627745,1628989,1629027,0021900373,1,262,262,2,0,1610612754
18,1610612754,203933,1627734,1626167,203087,1627763,1610612737,1629631,203953,1627745,1628989,1629027,0021900373,1,272,272,0,2,1610612737
19,1610612754,203933,1627734,1626167,203087,1627763,1610612737,1629631,203953,1627745,1628989,1629027,0021900373,1,286,288,3,0,1610612754
20,1610612754,203933,1627734,1626167,203087,1627763,1610612737,1628989,1629027,1629631,203458,203953,0021900373,1,298,298,0,2,1610612737
21,1610612754,203933,1627734,1626167,203087,1627763,1610612737,1628989,1629027,1629631,203458,203953,0021900373,1,307,309,0,0,1610612754
22,1610612754,203933,1627734,1626167,203087,1627763,1610612737,1628989,1629027,1629631,203458,203953,0021900373,1,312,312,0,0,1610612737
23,1610612754,203933,1627734,1626167,203087,1627763,1610612737,1628989,1629027,1629631,203458,203953,0021900373,1,323,323,2,0,1610612754
24,1610612754,203933,1627734,1626167,203087,1627763,1610612737,1628989,1629027,1629631,203458,203953,0021900373,1,323,341,0,2,1610612737
25,1610612754,203933,1627734,1626167,203087,1627763,1610612737,1628989,1629027,1629631,203458,203953,0021900373,1,354,366,0,0,1610612754
26,1610612754,203933,1627734,1626167,203087,1627763,1610612737,1628989,1629027,1629631,203458,203953,0021900373,1,374,379,0,0,1610612737
27,1610612754,203933,1627734,1626167,203087,1627763,1610612737,1628989,1629027,1629631,203458,203953,0021900373,1,386,386,0,0,1610612754
28,1610612754,1626167,1627763,203087,203200,203933,1610612737,1629027,1629629,1629631,203458,203459,0021900373,1,397,399,0,1,1610612737
29,1610612754,1626167,1627763,203087,203200,203933,1610612737,1629027,1629629,1629631,203458,203459,0021900373,1,416,416,2,0,1610612754
30,1610612754,1626167,1627763,203087,203200,203933,1610612737,1629027,1629629,1629631,203458,203459,0021900373,1,429,429,0,2,1610612737
31,1610612754,1626167,1627763,203087,203200,203933,1610612737,1629027,1629629,1629631,203458,203459,0021900373,1,441,443,0,0,1610612754
32,1610612754,1626167,1627763,203087,203200,203933,1610612737,1629027,1629629,1629631,203458,203459,0021900373,1,454,454,0,0,1610612737
33,1610612754,1626167,1627763,1628988,203200,203933,1610612737,1629027,1629629,1629631,203458,203459,0021900373,1,466,469,2,0,1610612754
34,1610612754,1626167,1627763,1628988,203200,203933,1610612737,1629027,1629629,1713,203458,203459,0021900373,1,477,483,0,0,1610612737
35,1610612754,1626167,1627763,1628988,203200,203933,1610612737,1629027,1629629,1713,203458,203459,0021900373,1,488,491,1,0,1610612754
36,1610612754,1626167,1627763,1628988,203200,203933,1610612737,1629027,1629629,1713,203458,203459,0021900373,1,501,504,0,0,1610612737
37,1610612754,1626167,1627763,1628988,203200,203933,1610612737,1629027,1629629,1713,203458,203459,0021900373,1,507,507,2,0,1610612754
38,1610612754,1626167,1627763,1628988,203200,203933,1610612737,1629027,1629629,1713,203458,203459,0021900373,1,513,518,0,0,1610612737
39,1610612754,1626167,1627763,1628988,203200,203933,1610612737,1629027,1629629,1713,203458,203459,0021900373,1,521,526,0,0,1610612754
40,1610612754,1626167,1627763,1628988,203200,203933,1610612737,1629027,1629629,1713,203458,203459,0021900373,1,529,536,0,0,1610612737
41,1610612754,1627734,1628988,203200,203926,204456,1610612737,1628989,1629629,1713,203458,203459,0021900373,1,536,536,1,0,1610612754
42,1610612754,1627734,1628988,203200,203926,204456,1610612737,1628989,1629629,1713,203458,203459,0021900373,1,547,547,0,2,1610612737
43,1610612754,1627734,1628988,203200,203926,204456,1610612737,1628989,1629629,1713,203458,203459,0021900373,1,563,567,0,0,1610612754
44,1610612754,1627734,1628988,203200,203926,204456,1610612737,1628989,1629629,1713,203458,203459,0021900373,1,569,572,0,0,1610612737
45,1610612754,1627734,1628988,203200,203926,204456,1610612737,1628989,1629629,1713,203458,203459,0021900373,1,578,578,2,0,1610612754
46,1610612754,1627734,1628988,203200,203926,204456,1610612737,1628989,1629629,1713,203458,203459,0021900373,1,591,594,0,0,1610612737
47,1610612754,1627734,1628988,203200,203926,204456,1610612737,1628989,1629629,1713,203458,203459,0021900373,1,601,601,2,0,1610612754
48,1610612754,1627734,1628988,203200,203926,204456,1610612737,1628989,1629629,1713,203458,203459,0021900373,1,611,627,0,0,1610612737
49,1610612754,1627734,1628988,203200,203926,204456,1610612737,1628989,1629629,1713,203458,203459,0021900373,1,634,637,0,0,1610612754
50,1610612754,1627734,1628988,203200,203926,204456,1610612737,1628989,1629629,1713,203458,203459,0021900373,1,649,652,0,0,1610612737
51,1610612754,1627734,1628988,203200,203926,204456,1610612737,1628989,1629629,1713,203458,203459,0021900373,1,661,661,2,0,1610612754
52,1610612754,1627734,1628988,203200,203926,204456,1610612737,1628989,1629629,1713,203458,203459,0021900373,1,676,678,0,2,1610612737
53,1610612754,1627734,1628988,203200,203926,204456,1610612737,1628989,1629629,1713,203458,203459,0021900373,1,692,695,0,0,1610612754
54,1610612754,1627734,1628988,203200,203926,204456,1610612737,1628989,1629629,1713,203458,203459,0021900373,1,696,698,0,1,1610612737
55,1610612754,1627734,1628988,203200,203926,204456,1610612737,1628989,1629629,1713,203458,203459,0021900373,1,715,719,0,0,1610612754
56,1610612754,1627734,1628988,203200,203926,204456,1610612737,1628989,1629629,1713,203458,203459,0021900373,1,720,720,0,0,1610612754
57,1610612754,1627734,203200,1628988,204456,203926,1610612737,1629631,203953,1627745,1628989,1629027,0021900373,2,720,734,0,0,1610612754
58,1610612754,1627734,203200,1628988,204456,203926,1610612737,1629631,203953,1627745,1628989,1629027,0021900373,2,742,742,0,0,1610612737
59,1610612754,1627734,203200,1628988,204456,203926,1610612737,1629631,203953,1627745,1628989,1629027,0021900373,2,753,753,2,0,1610612754
60,1610612754,1627734,203200,1628988,204456,203926,1610612737,1629631,203953,1627745,1628989,1629027,0021900373,2,770,770,0,2,1610612737
61,1610612754,1627734,203200,1628988,204456,203926,1610612737,1629631,203953,1627745,1628989,1629027,0021900373,2,786,791,0,0,1610612754
62,1610612754,1627734,203200,1628988,204456,203926,1610612737,1629631,203953,1627745,1628989,1629027,0021900373,2,796,796,0,0,1610612737
63,1610612754,1627734,203200,1628988,204456,203926,1610612737,1629631,203953,1627745,1628989,1629027,0021900373,2,796,808,2,0,1610612754
64,1610612754,1627734,203200,1628988,204456,203926,1610612737,1629631,203953,1627745,1628989,1629027,0021900373,2,819,822,0,0,1610612737
65,1610612754,1627734,203200,1628988,204456,203926,1610612737,1629631,203953,1627745,1628989,1629027,0021900373,2,833,836,0,0,1610612754
66,1610612754,1627734,203200,1628988,204456,203926,1610612737,1629631,203953,1627745,1628989,1629027,0021900373,2,845,847,0,0,1610612737
67,1610612754,1627734,203200,1628988,204456,203926,1610612737,1629631,203953,1627745,1628989,1629027,0021900373,2,862,863,2,0,1610612754
68,1610612754,1627734,203200,1628988,204456,203926,1610612737,1629631,203953,1627745,1628989,1629027,0021900373,2,863,876,0,2,1610612737
69,1610612754,1627734,203200,1628988,204456,203926,1610612737,1628989,1629027,1629629,1629631,203953,0021900373,2,888,888,3,0,1610612754
70,1610612754,1627734,203200,1628988,204456,203926,1610612737,1628989,1629027,1629629,1629631,203953,0021900373,2,903,907,0,0,1610612737
71,1610612754,1627734,203200,1628988,204456,203926,1610612737,1628989,1629027,1629629,1629631,203953,0021900373,2,921,937,0,0,1610612754
72,1610612754,1627734,203200,1628988,204456,203926,1610612737,1629027,1629629,1629631,203459,203953,0021900373,2,945,949,0,0,1610612737
73,1610612754,1627734,203200,1628988,204456,203926,1610612737,1629027,1629629,1629631,203459,203953,0021900373,2,950,950,3,0,1610612754
74,1610612754,1627734,203200,1628988,204456,203926,1610612737,1629027,1629629,1629631,203459,203953,0021900373,2,964,964,0,2,1610612737
75,1610612754,1627734,203200,1628988,204456,203926,1610612737,1629027,1629629,1629631,203459,203953,0021900373,2,981,981,0,0,1610612754
76,1610612754,1627734,203200,1628988,204456,203926,1610612737,1629027,1629629,1629631,203458,203459,0021900373,2,995,995,0,2,1610612737
77,1610612754,1627734,203200,1628988,204456,203926,1610612737,1629027,1629629,1629631,203458,203459,0021900373,2,1010,1010,2,0,1610612754
78,1610612754,1627734,203200,1628988,204456,203926,1610612737,1629027,1629629,1629631,203458,203459,0021900373,2,1022,1022,0,0,1610612737
79,1610612754,1626167,1627763,203087,203200,203926,1610612737,1629027,1629629,1629631,203458,203459,0021900373,2,1034,1034,3,0,1610612754
80,1610612754,1626167,1627763,203087,203200,203926,1610612737,1629027,1629629,1629631,203458,203459,0021900373,2,1049,1049,0,2,1610612737
81,1610612754,1626167,1627763,203087,203926,203933,1610612737,1629027,1629629,1629631,203458,203459,0021900373,2,1066,1069,0,0,1610612754
82,1610612754,1626167,1627763,203087,203926,203933,1610612737,1629027,1629629,1629631,203458,203459,0021900373,2,1072,1079,0,0,1610612737
83,1610612754,1626167,1627763,203087,203926,203933,1610612737,1629027,1629629,1629631,203458,203459,0021900373,2,1087,1088,0,0,1610612754
84,1610612754,1626167,1627763,203087,203926,203933,1610612737,1629027,1629629,1629631,203458,203459,0021900373,2,1088,1116,0,0,1610612737
85,1610612754,1626167,1627763,203087,203926,203933,1610612737,1629027,1629629,1629631,203458,203459,0021900373,2,1119,1123,0,0,1610612754
86,1610612754,1626167,1627763,203087,203926,203933,1610612737,1629027,1629629,1629631,203458,203459,0021900373,2,1127,1127,0,2,1610612737
87,1610612754,1626167,1627763,203087,203926,203933,1610612737,1629027,1629629,1629631,203458,203459,0021900373,2,1135,1145,2,0,1610612754
88,1610612754,1626167,1627763,203087,203926,203933,1610612737,1628989,1629629,1629631,203458,203459,0021900373,2,1162,1162,0,2,1610612737
89,1610612754,1626167,1627763,203087,203926,203933,1610612737,1628989,1629629,1629631,203458,203459,0021900373,2,1175,1175,2,0,1610612754
90,1610612754,1626167,1627763,203087,203926,203933,1610612737,1628989,1629629,1629631,203458,203459,0021900373,2,1187,1190,0,0,1610612737
91,1610612754,1626167,1627763,203087,203926,203933,1610612737,1628989,1629629,1629631,203458,203459,0021900373,2,1195,1195,3,0,1610612754
92,1610612754,1626167,1627763,203087,203926,203933,1610612737,1628989,1629629,1629631,203459,203953,0021900373,2,1213,1215,0,0,1610612737
93,1610612754,1626167,1627763,203087,203926,203933,1610612737,1628989,1629629,1629631,203459,203953,0021900373,2,1220,1220,0,0,1610612754
94,1610612754,1626167,1627763,203087,203926,203933,1610612737,1628989,1629629,1629631,203459,203953,0021900373,2,1226,1226,0,2,1610612737
95,1610612754,1626167,1627763,203087,203926,203933,1610612737,1628989,1629629,1629631,203459,203953,0021900373,2,1241,1241,2,0,1610612754
96,1610612754,1626167,1627763,203087,203926,203933,1610612737,1628989,1629629,1629631,203459,203953,0021900373,2,1256,1256,0,2,1610612737
97,1610612754,1626167,1627763,203087,203926,203933,1610612737,1628989,1629629,1629631,203459,203953,0021900373,2,1265,1265,2,0,1610612754
98,1610612754,1626167,1627763,203087,203926,203933,1610612737,1628989,1629629,1629631,203459,203953,0021900373,2,1278,1283,0,3,1610612737
99,1610612754,1627763,1629048,203087,203926,203933,1610612737,1629027,1629629,1629631,203459,203953,0021900373,2,1295,1295,0,0,1610612754
100,1610612754,1627763,1629048,203087,203926,203933,1610612737,1629027,1629629,1629631,203459,203953,0021900373,2,1301,1301,0,2,1610612737
101,1610612754,1627763,1629048,203087,203926,203933,1610612737,1629027,1629629,1629631,203459,203953,0021900373,2,1314,1314,2,0,1610612754
102,1610612754,1627763,1629048,203087,203926,203933,1610612737,1629027,1629629,1629631,203459,203953,0021900373,2,1321,1328,0,2,1610612737
103,1610612754,1627763,1629048,203087,203926,203933,1610612737,1629027,1629629,1629631,203459,203953,0021900373,2,1337,1357,0,0,1610612754
104,1610612754,1627763,1628388,203087,203926,203933,1610612737,1629027,1629629,1629631,203459,203953,0021900373,2,1358,1358,0,0,1610612737
105,1610612754,1627763,1628388,203087,203926,203933,1610612737,1629027,1629629,1629631,203459,203953,0021900373,2,1364,1364,2,0,1610612754
106,1610612754,1627763,1628388,203087,203926,203933,1610612737,1629027,1629629,1629631,203459,203953,0021900373,2,1383,1391,0,0,1610612737
107,1610612754,1627763,1628388,203087,203926,203933,1610612737,1629027,1629629,1629631,203459,203953,0021900373,2,1402,1402,0,0,1610612754
108,1610612754,1627763,1628388,203087,203926,203933,1610612737,1629027,1629629,1629631,203459,203953,0021900373,2,1402,1412,0,1,1610612737
109,1610612754,1627763,1628388,203087,203926,203933,1610612737,1627761,1629027,1629629,1629631,203953,0021900373,2,1436,1436,2,0,1610612754
110,1610612754,1627763,1628388,203087,203926,203933,1610612737,1627761,1629027,1629629,1629631,203953,0021900373,2,1440,1440,0,0,1610612754
111,1610612754,203933,1627734,1626167,203087,1627763,1610612737,1629631,203953,1627745,1628989,1629027,0021900373,3,1440,1450,3,0,1610612754
112,1610612754,203933,1627734,1626167,203087,1627763,1610612737,1629631,203953,1627745,1628989,1629027,0021900373,3,1471,1472,0,1,1610612737
113,1610612754,203933,1627734,1626167,203087,1627763,1610612737,1629631,203953,1627745,1628989,1629027,0021900373,3,1488,1492,0,0,1610612754
114,1610612754,203933,1627734,1626167,203087,1627763,1610612737,1629631,203953,1627745,1628989,1629027,0021900373,3,1494,1494,0,2,1610612737
115,1610612754,203933,1627734,1626167,203087,1627763,1610612737,1629631,203953,1627745,1628989,1629027,0021900373,3,1521,1521,2,0,1610612754
116,1610612754,203933,1627734,1626167,203087,1627763,1610612737,1629631,203953,1627745,1628989,1629027,0021900373,3,1533,1533,0,2,1610612737
117,1610612754,203933,1627734,1626167,203087,1627763,1610612737,1629631,203953,1627745,1628989,1629027,0021900373,3,1552,1552,2,0,1610612754
118,1610612754,203933,1627734,1626167,203087,1627763,1610612737,1629631,203953,1627745,1628989,1629027,0021900373,3,1570,1573,0,3,1610612737
119,1610612754,203933,1627734,1626167,203087,1627763,1610612737,1629631,203953,1627745,1628989,1629027,0021900373,3,1587,1587,0,0,1610612754
120,1610612754,203933,1627734,1626167,203087,1627763,1610612737,1629631,203953,1627745,1628989,1629027,0021900373,3,1604,1604,0,3,1610612737
121,1610612754,203933,1627734,1626167,203087,1627763,1610612737,1629631,203953,1627745,1628989,1629027,0021900373,3,1619,1619,2,0,1610612754
122,1610612754,203933,1627734,1626167,203087,1627763,1610612737,1629631,203953,1627745,1628989,1629027,0021900373,3,1639,1639,0,2,1610612737
123,1610612754,203933,1627734,1626167,203087,1627763,1610612737,1629631,203953,1627745,1628989,1629027,0021900373,3,1646,1646,0,0,1610612754
124,1610612754,203933,1627734,1626167,203087,1627763,1610612737,1629631,203953,1627745,1628989,1629027,0021900373,3,1656,1659,0,0,1610612737
125,1610612754,203933,1627734,1626167,203087,1627763,1610612737,1629631,203953,1627745,1628989,1629027,0021900373,3,1669,1669,0,0,1610612754
126,1610612754,203933,1627734,1626167,203087,1627763,1610612737,1629631,203953,1627745,1628989,1629027,0021900373,3,1673,1673,0,2,1610612737
127,1610612754,203933,1627734,1626167,203087,1627763,1610612737,1629631,203953,1627745,1628989,1629027,0021900373,3,1686,1696,2,0,1610612754
128,1610612754,203933,1627734,1626167,203087,1627763,1610612737,1629631,203953,1627745,1628989,1629027,0021900373,3,1708,1717,0,2,1610612737
129,1610612754,203933,1627734,1626167,203087,1627763,1610612737,1629631,203953,1627745,1628989,1629027,0021900373,3,1738,1738,3,0,1610612754
130,1610612754,203933,1627734,1626167,203087,1627763,1610612737,1629631,203953,1627745,1628989,1629027,0021900373,3,1760,1760,0,2,1610612737
131,1610612754,203933,1627734,1626167,203087,1627763,1610612737,1629631,203953,1627745,1628989,1629027,0021900373,3,1781,1794,2,0,1610612754
132,1610612754,203933,1627734,1626167,203087,1627763,1610612737,1629027,1629629,1629631,1713,203458,0021900373,3,1807,1810,0,0,1610612737
133,1610612754,203933,1627734,1626167,203087,1627763,1610612737,1629027,1629629,1629631,1713,203458,0021900373,3,1812,1812,0,0,1610612754
134,1610612754,203933,1627734,1626167,203087,1627763,1610612737,1629027,1629629,1713,203458,203459,0021900373,3,1825,1831,0,0,1610612737
135,1610612754,1626167,1627763,203087,203200,203933,1610612737,1629027,1629629,1713,203458,203459,0021900373,3,1849,1849,2,0,1610612754
136,1610612754,1626167,1627763,203087,203200,203933,1610612737,1629027,1629629,1713,203458,203459,0021900373,3,1864,1872,0,1,1610612737
137,1610612754,1626167,1627763,203087,203200,203933,1610612737,1629027,1629629,1713,203458,203459,0021900373,3,1883,1887,0,0,1610612754
138,1610612754,1626167,1627763,203087,203200,203933,1610612737,1629027,1629629,1713,203458,203459,0021900373,3,1892,1898,0,3,1610612737
139,1610612754,1626167,1627763,203087,203200,203933,1610612737,1629027,1629629,1713,203458,203459,0021900373,3,1899,1916,0,0,1610612754
140,1610612754,1626167,1627763,1628988,203200,203933,1610612737,1629027,1629629,1713,203458,203459,0021900373,3,1924,1926,0,0,1610612737
141,1610612754,1626167,1627763,1628988,203200,203933,1610612737,1629027,1629629,1713,203458,203459,0021900373,3,1932,1937,0,0,1610612754
142,1610612754,1626167,1627763,1628988,203200,203933,1610612737,1629027,1629629,1713,203458,203459,0021900373,3,1949,1949,0,0,1610612737
143,1610612754,1626167,1627763,1628988,203200,203933,1610612737,1629027,1629629,1713,203458,203459,0021900373,3,1954,1957,0,0,1610612754
144,1610612754,1626167,1627763,1628988,203200,203933,1610612737,1629027,1629629,1713,203458,203459,0021900373,3,1968,1968,0,2,1610612737
145,1610612754,1626167,1627763,1628988,203200,203933,1610612737,1629027,1629629,1713,203458,203459,0021900373,3,1983,1987,0,0,1610612754
146,1610612754,1626167,1627763,1628988,203200,203933,1610612737,1629027,1629629,1713,203458,203459,0021900373,3,1995,1995,0,3,1610612737
147,1610612754,1626167,1627763,1628988,203200,203933,1610612737,1629027,1629629,1713,203458,203459,0021900373,3,1995,2009,3,0,1610612754
148,1610612754,1627734,1628988,203200,203926,204456,1610612737,1628989,1629629,1713,203458,203459,0021900373,3,2029,2029,0,2,1610612737
149,1610612754,1627734,1628988,203200,203926,204456,1610612737,1628989,1629629,1713,203458,203459,0021900373,3,2054,2054,0,0,1610612754
150,1610612754,1627734,1628988,203200,203926,204456,1610612737,1628989,1629629,1713,203458,203459,0021900373,3,2067,2071,0,0,1610612737
151,1610612754,1627734,1628988,203200,203926,204456,1610612737,1628989,1629629,1713,203458,203459,0021900373,3,2085,2085,2,0,1610612754
152,1610612754,1627734,1628988,203200,203926,204456,1610612737,1628989,1629629,1713,203458,203459,0021900373,3,2102,2104,0,2,1610612737
153,1610612754,1627734,1628988,203200,203926,204456,1610612737,1628989,1629629,1713,203458,203459,0021900373,3,2125,2128,0,0,1610612754
154,1610612754,1627734,1628988,203200,203926,204456,1610612737,1628989,1629629,1713,203458,203459,0021900373,3,2128,2128,0,0,1610612737
155,1610612754,1627734,1628988,203200,203926,204456,1610612737,1628989,1629629,1713,203458,203459,0021900373,3,2142,2142,0,0,1610612754
156,1610612754,1627734,1628988,203200,203926,204456,1610612737,1628989,1629027,1629629,203458,203459,0021900373,3,2157,2157,0,3,1610612737
157,1610612754,1627734,1628988,203200,203926,204456,1610612737,1628989,1629027,1629629,203458,203459,0021900373,3,2160,2160,0,0,1610612737
158,1610612754,1627734,203200,1628988,204456,203926,1610612737,1629631,203953,1627745,1629027,203459,0021900373,4,2160,2181,0,0,1610612737
159,1610612754,1626167,1628988,203200,203926,204456,1610612737,1629631,203953,1627745,1629027,203459,0021900373,4,2192,2192,4,0,1610612754
160,1610612754,1626167,1628988,203200,203926,204456,1610612737,1629631,203953,1627745,1629027,203459,0021900373,4,2211,2221,0,0,1610612737
161,1610612754,1626167,1628988,203200,203926,204456,1610612737,1629631,203953,1627745,1629027,203459,0021900373,4,2233,2235,0,0,1610612754
162,1610612754,1626167,1628988,203200,203926,204456,1610612737,1629631,203953,1627745,1629027,203459,0021900373,4,2241,2246,0,0,1610612737
163,1610612754,1626167,1628988,203200,203926,204456,1610612737,1629631,203953,1627745,1629027,203459,0021900373,4,2254,2256,0,0,1610612754
164,1610612754,1626167,1628988,203200,203926,204456,1610612737,1629631,203953,1627745,1629027,203459,0021900373,4,2263,2265,0,0,1610612737
165,1610612754,1626167,1628988,203200,203926,204456,1610612737,1629631,203953,1627745,1629027,203459,0021900373,4,2266,2282,0,0,1610612754
166,1610612754,1626167,1628988,203200,203926,204456,1610612737,1629631,203953,1627745,1629027,203459,0021900373,4,2296,2296,0,0,1610612737
167,1610612754,1626167,1628988,203200,203926,204456,1610612737,1627745,1628989,1629631,203459,203953,0021900373,4,2302,2302,0,0,1610612754
168,1610612754,1626167,1628988,203200,203926,204456,1610612737,1627745,1628989,1629631,203459,203953,0021900373,4,2321,2321,0,2,1610612737
169,1610612754,1627734,1628988,203200,203926,204456,1610612737,1627745,1628989,1629631,203459,203953,0021900373,4,2329,2329,3,0,1610612754
170,1610612754,1627734,1628988,203200,203926,204456,1610612737,1627745,1628989,1629631,203459,203953,0021900373,4,2338,2338,0,0,1610612737
171,1610612754,1627734,1628988,203200,203926,204456,1610612737,1627745,1628989,1629631,203459,203953,0021900373,4,2339,2344,0,0,1610612754
172,1610612754,1627734,1628988,203200,203926,204456,1610612737,1627745,1628989,1629629,1629631,203953,0021900373,4,2361,2361,0,0,1610612737
173,1610612754,1627734,1628988,203200,203926,204456,1610612737,1627745,1628989,1629629,1629631,203953,0021900373,4,2366,2370,0,0,1610612754
174,1610612754,1627734,1628988,203200,203926,204456,1610612737,1627745,1628989,1629629,1629631,203953,0021900373,4,2387,2387,0,2,1610612737
175,1610612754,1627734,1628988,203200,203926,204456,1610612737,1627745,1628989,1629629,1629631,203953,0021900373,4,2407,2411,0,0,1610612754
176,1610612754,1627734,1628988,203200,203926,204456,1610612737,1627745,1628989,1629629,1629631,203953,0021900373,4,2413,2413,0,0,1610612737
177,1610612754,1627734,1628988,203200,203926,204456,1610612737,1627745,1628989,1629629,1629631,203953,0021900373,4,2424,2424,2,0,1610612754
178,1610612754,1627734,1628988,203200,203926,204456,1610612737,1627745,1628989,1629629,1629631,203953,0021900373,4,2444,2447,0,0,1610612737
179,1610612754,1627734,1628988,203200,203926,204456,1610612737,1627745,1628989,1629629,1629631,203953,0021900373,4,2450,2452,0,0,1610612754
180,1610612754,1627734,1628988,203200,203926,204456,1610612737,1627745,1628989,1629629,1629631,203953,0021900373,4,2453,2453,0,0,1610612737
181,1610612754,1627734,1628988,203200,203926,204456,1610612737,1627745,1628989,1629629,1629631,203953,0021900373,4,2453,2465,2,0,1610612754
182,1610612754,1627734,1627763,1628988,203200,203926,1610612737,1627745,1629027,1629629,1629631,1713,0021900373,4,2477,2477,0,3,1610612737
183,1610612754,1627734,1627763,1628988,203200,203926,1610612737,1627745,1629027,1629629,1629631,1713,0021900373,4,2489,2489,0,0,1610612754
184,1610612754,1627734,1627763,1628988,203200,203926,1610612737,1627745,1629027,1629629,1629631,1713,0021900373,4,2489,2502,0,2,1610612737
185,1610612754,1627734,1627763,1628988,203926,203933,1610612737,1629027,1629629,1629631,1713,203458,0021900373,4,2520,2528,2,0,1610612754
186,1610612754,1627734,1627763,1628988,203926,203933,1610612737,1629027,1629629,1629631,1713,203458,0021900373,4,2528,2545,0,0,1610612737
187,1610612754,1627734,1627763,1628988,203926,203933,1610612737,1629027,1629629,1713,203458,203459,0021900373,4,2553,2556,0,0,1610612754
188,1610612754,1627734,1627763,1628988,203926,203933,1610612737,1629027,1629629,1713,203458,203459,0021900373,4,2564,2564,0,2,1610612737
189,1610612754,1627734,1627763,1628988,203926,203933,1610612737,1629027,1629629,1713,203458,203459,0021900373,4,2584,2584,2,0,1610612754
190,1610612754,1627734,1627763,1628988,203926,203933,1610612737,1629027,1629629,1713,203458,203459,0021900373,4,2594,2594,0,2,1610612737
191,1610612754,1627734,1627763,1628988,203926,203933,1610612737,1629027,1629629,1713,203458,203459,0021900373,4,2595,2611,0,0,1610612754
192,1610612754,1627734,1627763,1628988,203087,203933,1610612737,1629027,1629629,1629631,203458,203459,0021900373,4,2623,2625,0,0,1610612737
193,1610612754,1627734,1627763,1628988,203087,203933,1610612737,1629027,1629629,1629631,203458,203459,0021900373,4,2628,2628,2,0,1610612754
194,1610612754,1627734,1627763,1628988,203087,203933,1610612737,1629027,1629629,1629631,203458,203459,0021900373,4,2647,2649,0,0,1610612737
195,1610612754,1627734,1627763,1628988,203087,203933,1610612737,1629027,1629629,1629631,203458,203459,0021900373,4,2661,2663,0,0,1610612754
196,1610612754,1627734,1627763,1628988,203087,203933,1610612737,1629027,1629629,1629631,203458,203459,0021900373,4,2670,2673,0,0,1610612737
197,1610612754,1627734,1627763,1628988,203087,203933,1610612737,1629027,1629629,1629631,203458,203459,0021900373,4,2673,2685,2,0,1610612754
198,1610612754,1627734,1627763,203087,203926,203933,1610612737,1628989,1629027,1629629,1629631,203458,0021900373,4,2702,2702,0,2,1610612737
199,1610612754,1627734,1627763,203087,203926,203933,1610612737,1628989,1629027,1629629,1629631,203458,0021900373,4,2722,2722,0,0,1610612754
200,1610612754,1627734,1627763,203087,203926,203933,1610612737,1628989,1629027,1629629,1629631,203458,0021900373,4,2724,2734,0,2,1610612737
201,1610612754,1627734,1627763,203087,203926,203933,1610612737,1628989,1629027,1629629,1629631,203458,0021900373,4,2748,2751,0,0,1610612754
202,1610612754,1627734,1627763,203087,203926,203933,1610612737,1628989,1629027,1629629,1629631,203458,0021900373,4,2760,2763,0,0,1610612737
203,1610612754,1627734,1627763,203087,203926,203933,1610612737,1628989,1629027,1629629,1629631,203953,0021900373,4,2783,2783,1,0,1610612754
204,1610612754,1626167,1627763,203087,203926,203933,1610612737,1628989,1629027,1629629,1629631,203953,0021900373,4,2797,2797,0,0,1610612737
205,1610612754,1627734,1627763,203087,203926,203933,1610612737,1628989,1629027,1629629,1629631,203953,0021900373,4,2811,2811,2,0,1610612754
206,1610612754,1627734,1627763,203087,203926,203933,1610612737,1628989,1629027,1629629,1629631,203953,0021900373,4,2811,2824,0,0,1610612737
207,1610612754,1626167,1627763,203087,203926,203933,1610612737,1628989,1629027,1629629,1629631,203953,0021900373,4,2839,2842,0,0,1610612754
208,1610612754,1626167,1627763,203087,203926,203933,1610612737,1628989,1629027,1629629,1629631,203953,0021900373,4,2846,2850,0,0,1610612737
209,1610612754,1626167,1627763,203087,203926,203933,1610612737,1628989,1629027,1629629,1629631,203953,0021900373,4,2853,2853,2,0,1610612754
210,1610612754,1626167,1627763,203087,203926,203933,1610612737,1628989,1629027,1629629,1629631,203953,0021900373,4,2858,2861,0,0,1610612737
