,TEAM_ID_1,TEAM_1_PLAYERS,TEAM_ID_2,TEAM_2_PLAYERS,PERIOD
0,1610612758,[ 203084 1628963 1626158 1627741 1628368],1610612740,[1627742 1629627 1629637  202339 1628366],1
1,1610612758,[1628963 1626158 1627741 1630169  202709],1610612740,[1629627 1628404 1626195 1629638 1630184],2
2,1610612758,[ 203084 1628963 1626158 1627741 1628368],1610612740,[1627742 1629627 1629637  202339 1628366],3
3,1610612758,[ 203084 1626158 1627741 1628368 1630169],1610612740,[1629627  202339 1628404 1629638 1630184],4
