,stint_end,t1_players,t2_pm,t2_points_scored,stint_start,t1_pm,t1_points_scored,t2_id,t1_id,t2_players,margin_per_100,num_poss
0,240,"[2544, 203076, 201188, 203484, 203471]",-3,4,0,3,7,1610612741,1610612747,"[1630172, 1628374, 1629655, 203897, 1629632]",18.75,16.0
1,435,"[2544, 203076, 201188, 203484, 203471]",-12,8,241,12,20,1610612741,1610612747,"[1630172, 1628374, 1629655, 203897, 1629632]",38.70967741935484,31.0
2,541,"[2544, 203076, 201188, 203484, 203471]",-12,12,436,12,24,1610612741,1610612747,"[1628374, 1629632, 1630172, 201152, 203897]",30.76923076923077,39.0
3,581,"[1626149, 1628398, 202083, 203076, 203471]",-10,14,542,10,24,1610612741,1610612747,"[1628374, 1629632, 201152, 202066, 203897]",23.809523809523807,42.0
4,710,"[1626149, 1628398, 1629659, 202083, 203471]",-10,17,582,10,27,1610612741,1610612747,"[1626245, 1627756, 1628374, 202066, 203897]",20.0,50.0
5,787,"[1626149, 1628398, 1629659, 202083, 2544]",-12,19,711,12,31,1610612741,1610612747,"[1626245, 1627756, 1628990, 202066, 203107]",22.22222222222222,54.0
6,801,"[2544, 1628398, 202083, 1626149, 1629659]",-12,19,788,12,31,1610612741,1610612747,"[202066, 1627756, 1626245, 1628990, 203107]",21.818181818181817,55.0
7,829,"[2544, 1628398, 202083, 1626149, 1629659]",-12,19,802,12,31,1610612741,1610612747,"[1627756, 1628990, 201152, 202066, 203107]",20.689655172413794,58.0
8,853,"[2544, 1628398, 202083, 1626149, 1629659]",-17,19,830,17,36,1610612741,1610612747,"[1628990, 1630172, 201152, 202066, 203107]",27.86885245901639,61.0
9,872,"[2544, 1628398, 202083, 1626149, 1629659]",-17,19,854,17,36,1610612741,1610612747,"[1628990, 1629632, 1630172, 201152, 203107]",27.419354838709676,62.0
10,896,"[2544, 1628398, 202083, 1626149, 1629659]",-17,19,873,17,36,1610612741,1610612747,"[1629632, 1630172, 201152, 203107, 203897]",26.5625,64.0
11,995,"[2544, 1628398, 202083, 1626149, 1629659]",-22,19,897,22,41,1610612741,1610612747,"[1628374, 1629632, 1630172, 201152, 203897]",30.985915492957744,71.0
12,1093,"[1626149, 1627936, 1628398, 1629659, 2544]",-21,25,996,21,46,1610612741,1610612747,"[1628374, 1629632, 1630172, 201152, 203897]",27.27272727272727,77.0
13,1173,"[1626149, 1627936, 1629659, 203076, 203484]",-23,27,1094,23,50,1610612741,1610612747,"[1628374, 1629632, 1630172, 201152, 203897]",28.39506172839506,81.0
14,1235,"[1626149, 1627936, 203076, 203471, 203484]",-24,27,1174,24,51,1610612741,1610612747,"[1628374, 1629655, 1630172, 202066, 203897]",27.906976744186046,86.0
15,1435,"[1626149, 1627936, 203076, 203471, 203484]",-30,33,1236,30,63,1610612741,1610612747,"[1628374, 1630172, 201152, 202066, 203897]",29.126213592233007,103.0
16,1678,"[201188, 203076, 203471, 203484, 2544]",-26,41,1436,26,67,1610612741,1610612747,"[1628374, 1629632, 201152, 202066, 203897]",21.487603305785125,121.0
17,1906,"[2544, 203076, 201188, 203484, 203471]",-26,48,1679,26,74,1610612741,1610612747,"[1630172, 1628374, 1629655, 203897, 1629632]",18.84057971014493,138.0
18,1938,"[2544, 203076, 201188, 203484, 203471]",-22,52,1907,22,74,1610612741,1610612747,"[1628374, 1629655, 1630172, 203107, 203897]",15.602836879432624,141.0
19,2045,"[2544, 203076, 201188, 203484, 203471]",-20,57,1939,20,77,1610612741,1610612747,"[1628374, 1629632, 1629655, 1630172, 203897]",13.513513513513514,148.0
20,2090,"[1626149, 1627936, 203076, 203471, 2544]",-14,65,2046,14,79,1610612741,1610612747,"[1628374, 1629632, 1630172, 201152, 203897]",9.15032679738562,153.0
21,2131,"[1626149, 1627936, 202083, 203076, 2544]",-15,66,2091,15,81,1610612741,1610612747,"[1627756, 1629632, 1629655, 1630172, 201152]",9.615384615384617,156.0
22,2132,"[1626149, 1627936, 1628398, 202083, 203076]",-15,66,2132,15,81,1610612741,1610612747,"[1627756, 1629632, 1629655, 1630172, 201152]",9.615384615384617,156.0
23,2305,"[1626149, 1627936, 1628398, 202083, 203076]",-19,66,2133,19,85,1610612741,1610612747,"[1627756, 1629632, 1629655, 201152, 202066]",11.44578313253012,166.0
24,2417,"[1628398, 202083, 1626149, 1629659, 1627936]",-23,66,2306,23,89,1610612741,1610612747,"[1629655, 1629632, 201152, 202066, 1627756]",13.450292397660817,171.0
25,2427,"[1628398, 202083, 1626149, 1629659, 1627936]",-23,66,2418,23,89,1610612741,1610612747,"[1627756, 1628374, 201152, 202066, 203897]",13.372093023255813,172.0
26,2705,"[1628398, 202083, 1626149, 1629659, 1627936]",-19,80,2428,19,99,1610612741,1610612747,"[1628374, 1630172, 201152, 202066, 203897]",9.947643979057592,191.0
27,2859,"[1628398, 202083, 1626149, 1629659, 1627936]",-14,87,2706,14,101,1610612741,1610612747,"[1628374, 1629632, 1630172, 202066, 203897]",6.896551724137931,203.0
28,9999999,"[1626149, 1626188, 1628035, 1628398, 1629659]",-11,90,2860,11,101,1610612741,1610612747,"[1626245, 1627756, 1627853, 1628990, 203107]",5.392156862745098,204.0
