,TEAM_ID_1,TEAM_1_PLAYERS,TEAM_ID_2,TEAM_2_PLAYERS,PERIOD
0,1610612743,[1629008  200794  203999  203115 1628420],1610612758,[ 203084 1628963 1626158 1627741 1628368],1
1,1610612743,[ 203115 1630181  203210 1630210 1628427],1610612758,[1628963 1627741 1630169  202355  202709],2
2,1610612743,[1629008  200794  203999  203115 1628420],1610612758,[ 203084 1628963 1626158 1627741 1628368],3
3,1610612743,[1629008  203115 1630181  203210 1630210],1610612758,[1627741 1630169  202355  202709  203922],4
