,team1_id,team1_player1,team1_player2,team1_player3,team1_player4,team1_player5,team2_id,team2_player1,team2_player2,team2_player3,team2_player4,team2_player5,game_id,period,possession_start,possession_end,team1_points,team2_points,possession_team
0,1610612765,1630180,203924,1630191,1628402,1630165,1610612741,201942,1630172,202696,203897,1628366,0022100030,1,0,15,2,0,1610612765
1,1610612765,1630180,203924,1630191,1628402,1630165,1610612741,201942,1630172,202696,203897,1628366,0022100030,1,37,39,0,0,1610612741
2,1610612765,1630180,203924,1630191,1628402,1630165,1610612741,201942,1630172,202696,203897,1628366,0022100030,1,43,43,0,0,1610612765
3,1610612765,1630180,203924,1630191,1628402,1630165,1610612741,201942,1630172,202696,203897,1628366,0022100030,1,55,58,0,0,1610612741
4,1610612765,1630180,203924,1630191,1628402,1630165,1610612741,201942,1630172,202696,203897,1628366,0022100030,1,66,66,2,0,1610612765
5,1610612765,1630180,203924,1630191,1628402,1630165,1610612741,201942,1630172,202696,203897,1628366,0022100030,1,77,80,0,0,1610612741
6,1610612765,1630180,203924,1630191,1628402,1630165,1610612741,201942,1630172,202696,203897,1628366,0022100030,1,84,84,3,0,1610612765
7,1610612765,1630180,203924,1630191,1628402,1630165,1610612741,201942,1630172,202696,203897,1628366,0022100030,1,106,108,0,0,1610612741
8,1610612765,1630180,203924,1630191,1628402,1630165,1610612741,201942,1630172,202696,203897,1628366,0022100030,1,115,115,2,0,1610612765
9,1610612765,1630180,203924,1630191,1628402,1630165,1610612741,201942,1630172,202696,203897,1628366,0022100030,1,115,131,0,0,1610612741
10,1610612765,1630180,203924,1630191,1628402,1630165,1610612741,201942,1630172,202696,203897,1628366,0022100030,1,145,148,0,0,1610612765
11,1610612765,1630180,203924,1630191,1628402,1630165,1610612741,201942,1630172,202696,203897,1628366,0022100030,1,157,157,0,2,1610612741
12,1610612765,1630180,203924,1630191,1628402,1630165,1610612741,201942,1630172,202696,203897,1628366,0022100030,1,178,180,0,0,1610612765
13,1610612765,1630180,203924,1630191,1628402,1630165,1610612741,201942,1630172,202696,203897,1628366,0022100030,1,189,189,0,3,1610612741
14,1610612765,1630180,203924,1630191,1628402,1630165,1610612741,201942,1630172,202696,203897,1628366,0022100030,1,205,207,0,0,1610612765
15,1610612765,1630180,203924,1630191,1628402,1630165,1610612741,201942,1630172,202696,203897,1628366,0022100030,1,217,217,0,3,1610612741
16,1610612765,1630180,203924,1630191,1628402,1630165,1610612741,201942,1630172,202696,203897,1628366,0022100030,1,217,236,2,0,1610612765
17,1610612765,1630180,203924,1630191,1628402,1630165,1610612741,201942,1630172,202696,203897,1628366,0022100030,1,249,251,0,0,1610612741
18,1610612765,1630180,203924,1630191,1628402,1630165,1610612741,201942,1630172,202696,203897,1628366,0022100030,1,260,260,0,0,1610612765
19,1610612765,1630180,203924,1630191,1628402,1630165,1610612741,201942,1630172,202696,203897,1628366,0022100030,1,265,265,0,2,1610612741
20,1610612765,1630180,203924,1630191,1628402,1630165,1610612741,201942,1630172,202696,203897,1628366,0022100030,1,276,280,2,0,1610612765
21,1610612765,1630180,203924,1630191,1628402,1630165,1610612741,201942,1630172,202696,203897,1628366,0022100030,1,304,304,0,2,1610612741
22,1610612765,1630180,203924,1630191,1628402,1630165,1610612741,201942,1630172,202696,203897,1628366,0022100030,1,314,314,0,0,1610612765
23,1610612765,1630180,203924,1630191,1628402,1630165,1610612741,201942,1630172,202696,203897,1628366,0022100030,1,329,331,0,0,1610612741
24,1610612765,1630180,203924,1630191,1628402,1630165,1610612741,201942,1630172,202696,203897,1628366,0022100030,1,339,342,0,0,1610612765
25,1610612765,1630180,203924,1630191,1628402,1630165,1610612741,201942,1630172,202696,203897,1628366,0022100030,1,348,348,0,0,1610612741
26,1610612765,1630180,203924,1630191,1628402,1630165,1610612741,201942,1630172,202696,203897,1628366,0022100030,1,353,353,2,0,1610612765
27,1610612765,1630180,203924,1630191,1628402,1630165,1610612741,201942,1630172,202696,203897,1628366,0022100030,1,361,361,0,2,1610612741
28,1610612765,1628402,1630180,202709,203482,203924,1610612741,1628366,1629750,201942,202696,203897,0022100030,1,373,387,0,0,1610612765
29,1610612765,1628402,1630180,202709,203482,203924,1610612741,1628366,1628972,1629750,202696,203897,0022100030,1,391,394,0,0,1610612741
30,1610612765,1628402,1630180,202709,203482,203924,1610612741,1628366,1628972,1629750,202696,203897,0022100030,1,396,400,0,0,1610612765
31,1610612765,1628402,1630180,202709,203482,203924,1610612741,1628366,1628972,1629750,202696,203897,0022100030,1,402,424,0,2,1610612741
32,1610612765,1628367,1630180,202709,203482,203924,1610612741,1628366,1628972,1629750,202696,203897,0022100030,1,440,443,0,0,1610612765
33,1610612765,1628367,1630180,202709,203482,203924,1610612741,1628366,1628972,1629750,202696,203897,0022100030,1,448,448,0,2,1610612741
34,1610612765,1628367,1630180,202709,203482,203924,1610612741,1628366,1628972,1629750,202696,203897,0022100030,1,467,467,2,0,1610612765
35,1610612765,1628367,1630180,202709,203482,203924,1610612741,1628366,1628972,1629750,202696,203897,0022100030,1,481,481,0,3,1610612741
36,1610612765,1628367,1630180,202709,203482,203924,1610612741,1628366,1628972,1629750,202696,203897,0022100030,1,497,497,2,0,1610612765
37,1610612765,1628367,1630180,202709,203482,203924,1610612741,1628366,1628972,1629750,202696,203897,0022100030,1,514,516,0,0,1610612741
38,1610612765,1628367,1630180,202709,203482,203924,1610612741,1628366,1628972,1629750,202696,203897,0022100030,1,528,528,2,0,1610612765
39,1610612765,1628367,1630180,202709,203482,203924,1610612741,1628366,1628972,1629750,202696,203897,0022100030,1,542,544,0,0,1610612741
40,1610612765,1626168,1628367,1630180,202709,203482,1610612741,1627936,1628972,1628993,1629750,201942,0022100030,1,560,560,2,0,1610612765
41,1610612765,1626168,1628367,1630180,202709,203482,1610612741,1627936,1628972,1628993,1629750,201942,0022100030,1,568,570,0,1,1610612741
42,1610612765,1626168,1628367,1630180,202709,203482,1610612741,1627936,1628972,1628993,1629750,201942,0022100030,1,588,595,0,0,1610612765
43,1610612765,1626168,1628367,1628977,202709,203482,1610612741,1627936,1628972,1628993,1629750,201942,0022100030,1,604,604,0,2,1610612741
44,1610612765,1626168,1628367,1628977,202709,203482,1610612741,1627936,1628972,1628993,1629750,201942,0022100030,1,611,620,0,0,1610612765
45,1610612765,1626168,1628367,1628977,202709,203482,1610612741,1627936,1628972,1628993,1629750,201942,0022100030,1,633,633,0,2,1610612741
46,1610612765,1626168,1628367,1628977,202709,203482,1610612741,1627936,1628972,1628993,1629750,201942,0022100030,1,648,652,2,0,1610612765
47,1610612765,1626168,1628367,1628977,202709,203482,1610612741,1627936,1628972,1628993,1629750,201942,0022100030,1,673,673,0,3,1610612741
48,1610612765,1626168,1628367,1628977,202709,203482,1610612741,1627936,1628972,1628993,1629750,201942,0022100030,1,687,687,2,0,1610612765
49,1610612765,1626168,1628367,1628977,202709,203482,1610612741,1627936,1628972,1628993,1629750,201942,0022100030,1,702,702,0,2,1610612741
50,1610612765,1626168,1628367,1628977,202709,203482,1610612741,1627936,1628972,1628993,1629750,201942,0022100030,1,714,714,1,0,1610612765
51,1610612765,1626168,1628367,1628402,1628977,202709,1610612741,1627936,1628972,1629750,1630172,201942,0022100030,1,720,720,0,0,1610612765
52,1610612765,203482,202709,1628367,1626168,1628977,1610612741,201942,1630172,1628366,1628993,1627936,0022100030,2,720,741,0,0,1610612741
53,1610612765,203482,202709,1628367,1626168,1628977,1610612741,201942,1630172,1628366,1628993,1627936,0022100030,2,741,759,2,0,1610612765
54,1610612765,203482,202709,1628367,1626168,1628977,1610612741,201942,1630172,1628366,1628993,1627936,0022100030,2,759,778,0,2,1610612741
55,1610612765,203482,202709,1628367,1626168,1628977,1610612741,201942,1630172,1628366,1628993,1627936,0022100030,2,796,796,1,0,1610612765
56,1610612765,203482,202709,1628367,1626168,1628977,1610612741,1627936,1628366,1628972,1630172,201942,0022100030,2,807,809,0,0,1610612741
57,1610612765,203482,202709,1628367,1626168,1628977,1610612741,1627936,1628366,1628972,1630172,201942,0022100030,2,814,814,2,0,1610612765
58,1610612765,203482,202709,1628367,1626168,1628977,1610612741,1627936,1628366,1628972,1630172,201942,0022100030,2,832,834,0,0,1610612741
59,1610612765,203482,202709,1628367,1626168,1628977,1610612741,1627936,1628366,1628972,1630172,201942,0022100030,2,848,848,0,0,1610612765
60,1610612765,203482,202709,1628367,1626168,1628977,1610612741,1627936,1628366,1628972,1630172,201942,0022100030,2,851,851,0,1,1610612741
61,1610612765,203482,202709,1628367,1626168,1628977,1610612741,1627936,1628366,1628972,1630172,201942,0022100030,2,864,864,0,0,1610612765
62,1610612765,203482,202709,1628367,1626168,1628977,1610612741,1627936,1628366,1628972,1630172,201942,0022100030,2,869,869,0,2,1610612741
63,1610612765,1626168,1628367,1628977,1630165,203482,1610612741,1627936,1628366,1628972,1630172,201942,0022100030,2,887,887,2,0,1610612765
64,1610612765,1626168,1628367,1628977,1630165,203482,1610612741,1627936,1628366,1628972,1630172,201942,0022100030,2,902,902,0,2,1610612741
65,1610612765,1626168,1628367,1628977,1630165,203482,1610612741,1627936,1628366,1628972,1630172,201942,0022100030,2,917,919,0,0,1610612765
66,1610612765,1626168,1628367,1628977,1630165,203482,1610612741,1627936,1628366,1628972,1630172,201942,0022100030,2,922,942,0,2,1610612741
67,1610612765,1626168,1628977,1630165,203482,203924,1610612741,1628366,1628972,1630172,202696,203897,0022100030,2,953,971,0,0,1610612765
68,1610612765,1626168,1628977,1630165,1630191,203924,1610612741,1628366,1628972,1630172,202696,203897,0022100030,2,974,976,0,0,1610612741
69,1610612765,1626168,1628977,1630165,1630191,203924,1610612741,1628366,1628972,1630172,202696,203897,0022100030,2,984,988,0,0,1610612765
70,1610612765,1626168,1628977,1630165,1630191,203924,1610612741,1628366,1628972,1630172,202696,203897,0022100030,2,1002,1018,0,0,1610612741
71,1610612765,1626168,1630165,1630180,1630191,203924,1610612741,1628366,1628972,1630172,202696,203897,0022100030,2,1020,1024,1,0,1610612765
72,1610612765,1628402,1630165,1630180,1630191,203924,1610612741,1627936,1630172,1630245,202696,203897,0022100030,2,1043,1046,0,0,1610612741
73,1610612765,1628402,1630165,1630180,1630191,203924,1610612741,1627936,1630172,1630245,202696,203897,0022100030,2,1049,1049,3,0,1610612765
74,1610612765,1628402,1630165,1630180,1630191,203924,1610612741,1627936,1630172,1630245,202696,203897,0022100030,2,1058,1058,0,2,1610612741
75,1610612765,1628402,1630165,1630180,1630191,203924,1610612741,1627936,1630172,1630245,202696,203897,0022100030,2,1081,1084,0,0,1610612765
76,1610612765,1628402,1630165,1630180,1630191,203924,1610612741,1627936,1630172,1630245,202696,203897,0022100030,2,1087,1087,0,2,1610612741
77,1610612765,1628402,1630165,1630180,1630191,203924,1610612741,1627936,1630172,1630245,202696,203897,0022100030,2,1100,1105,2,0,1610612765
78,1610612765,1628402,1630165,1630180,1630191,203924,1610612741,1627936,1630172,1630245,202696,203897,0022100030,2,1116,1119,0,0,1610612741
79,1610612765,1628402,1630165,1630180,1630191,203924,1610612741,1627936,1630172,1630245,202696,203897,0022100030,2,1136,1136,0,0,1610612765
80,1610612765,1628402,1630165,1630180,1630191,203924,1610612741,1627936,1630172,1630245,202696,203897,0022100030,2,1139,1139,0,2,1610612741
81,1610612765,1628402,1630165,1630180,1630191,203924,1610612741,1627936,1630172,1630245,202696,203897,0022100030,2,1145,1162,0,0,1610612765
82,1610612765,1628402,1630180,1630191,202709,203924,1610612741,1627936,1628366,1630245,202696,203897,0022100030,2,1168,1168,0,3,1610612741
83,1610612765,1628402,1630180,1630191,202709,203924,1610612741,1627936,1628366,1630245,202696,203897,0022100030,2,1189,1195,0,0,1610612765
84,1610612765,1628402,1630180,1630191,202709,203924,1610612741,1627936,1628366,201942,202696,203897,0022100030,2,1213,1213,0,0,1610612741
85,1610612765,1628402,1630180,1630191,202709,203924,1610612741,1627936,1628366,201942,202696,203897,0022100030,2,1221,1221,0,0,1610612765
86,1610612765,1628402,1630180,1630191,202709,203924,1610612741,1627936,1628366,201942,202696,203897,0022100030,2,1224,1224,0,2,1610612741
87,1610612765,1628402,1630180,1630191,202709,203924,1610612741,1627936,1628366,201942,202696,203897,0022100030,2,1244,1244,0,0,1610612765
88,1610612765,1628402,1630180,1630191,202709,203924,1610612741,1627936,1628366,201942,202696,203897,0022100030,2,1257,1259,0,0,1610612741
89,1610612765,1628402,1630180,1630191,202709,203924,1610612741,1627936,1628366,201942,202696,203897,0022100030,2,1275,1278,0,0,1610612765
90,1610612765,1628402,1630180,1630191,202709,203924,1610612741,1627936,1628366,201942,202696,203897,0022100030,2,1285,1287,0,0,1610612741
91,1610612765,1628402,1630180,1630191,202709,203924,1610612741,1627936,1628366,201942,202696,203897,0022100030,2,1304,1304,0,0,1610612765
92,1610612765,1628402,1630165,1630180,1630191,203924,1610612741,1627936,1628366,201942,202696,203897,0022100030,2,1313,1316,0,0,1610612741
93,1610612765,1628402,1630165,1630180,1630191,203924,1610612741,1627936,1628366,201942,202696,203897,0022100030,2,1328,1333,2,0,1610612765
94,1610612765,1628402,1630165,1630180,1630191,203924,1610612741,1627936,1628366,201942,202696,203897,0022100030,2,1333,1341,0,2,1610612741
95,1610612765,1628402,1630165,1630180,1630191,203482,1610612741,1627936,1628366,201942,202696,203897,0022100030,2,1356,1356,0,0,1610612765
96,1610612765,1628402,1630165,1630180,1630191,203482,1610612741,1627936,1628366,201942,202696,203897,0022100030,2,1362,1364,0,0,1610612741
97,1610612765,1628402,1630165,1630180,1630191,203482,1610612741,1627936,1628366,201942,202696,203897,0022100030,2,1376,1379,0,0,1610612765
98,1610612765,1628402,1630165,1630180,1630191,203482,1610612741,1627936,1628366,201942,202696,203897,0022100030,2,1382,1382,0,1,1610612741
99,1610612765,1628402,1630165,1630180,1630191,203482,1610612741,1627936,1630172,201942,202696,203897,0022100030,2,1404,1406,0,0,1610612765
100,1610612765,1628402,1630165,1630180,1630191,203482,1610612741,1627936,1630172,201942,202696,203897,0022100030,2,1424,1427,0,0,1610612741
101,1610612765,1628402,1630165,1630180,1630191,203482,1610612741,1627936,1630172,201942,202696,203897,0022100030,2,1439,1439,0,0,1610612765
102,1610612765,1630180,203924,1630191,1628402,1630165,1610612741,201942,1630172,202696,203897,1628366,0022100030,3,1440,1462,0,0,1610612741
103,1610612765,1630180,203924,1630191,1628402,1630165,1610612741,201942,1630172,202696,203897,1628366,0022100030,3,1474,1478,0,0,1610612765
104,1610612765,1630180,203924,1630191,1628402,1630165,1610612741,201942,1630172,202696,203897,1628366,0022100030,3,1486,1488,0,0,1610612741
105,1610612765,1630180,203924,1630191,1628402,1630165,1610612741,201942,1630172,202696,203897,1628366,0022100030,3,1502,1504,0,0,1610612765
106,1610612765,1630180,203924,1630191,1628402,1630165,1610612741,201942,1630172,202696,203897,1628366,0022100030,3,1517,1517,0,3,1610612741
107,1610612765,1630180,203924,1630191,1628402,1630165,1610612741,201942,1630172,202696,203897,1628366,0022100030,3,1532,1537,0,0,1610612765
108,1610612765,1630180,203924,1630191,1628402,1630165,1610612741,201942,1630172,202696,203897,1628366,0022100030,3,1543,1546,0,0,1610612741
109,1610612765,1630180,203924,1630191,1628402,1630165,1610612741,201942,1630172,202696,203897,1628366,0022100030,3,1547,1563,0,0,1610612765
110,1610612765,1630180,203924,1630191,1628402,1630165,1610612741,201942,1630172,202696,203897,1628366,0022100030,3,1576,1578,0,0,1610612741
111,1610612765,1630180,203924,1630191,1628402,1630165,1610612741,201942,1630172,202696,203897,1628366,0022100030,3,1587,1587,2,0,1610612765
112,1610612765,1630180,203924,1630191,1628402,1630165,1610612741,201942,1630172,202696,203897,1628366,0022100030,3,1593,1603,0,3,1610612741
113,1610612765,1630180,203924,1630191,1628402,1630165,1610612741,201942,1630172,202696,203897,1628366,0022100030,3,1630,1630,2,0,1610612765
114,1610612765,1630180,203924,1630191,1628402,1630165,1610612741,201942,1630172,202696,203897,1628366,0022100030,3,1645,1650,0,0,1610612741
115,1610612765,1630180,203924,1630191,1628402,1630165,1610612741,201942,1630172,202696,203897,1628366,0022100030,3,1659,1662,0,0,1610612765
116,1610612765,1630180,203924,1630191,1628402,1630165,1610612741,201942,1630172,202696,203897,1628366,0022100030,3,1665,1665,0,0,1610612741
117,1610612765,1630180,203924,1630191,1628402,1630165,1610612741,201942,1630172,202696,203897,1628366,0022100030,3,1676,1678,0,0,1610612765
118,1610612765,1630180,203924,1630191,1628402,1630165,1610612741,201942,1630172,202696,203897,1628366,0022100030,3,1680,1680,0,0,1610612741
119,1610612765,1630180,203924,1630191,1628402,1630165,1610612741,201942,1630172,202696,203897,1628366,0022100030,3,1692,1694,0,0,1610612765
120,1610612765,1630180,203924,1630191,1628402,1630165,1610612741,201942,1630172,202696,203897,1628366,0022100030,3,1694,1708,0,2,1610612741
121,1610612765,1630180,203924,1630191,1628402,1630165,1610612741,201942,1630172,202696,203897,1628366,0022100030,3,1724,1726,0,0,1610612765
122,1610612765,1630180,203924,1630191,1628402,1630165,1610612741,201942,1630172,202696,203897,1628366,0022100030,3,1739,1743,0,0,1610612741
123,1610612765,1630180,203924,1630191,1628402,1630165,1610612741,201942,1630172,202696,203897,1628366,0022100030,3,1753,1755,0,0,1610612765
124,1610612765,1630180,203924,1630191,1628402,1630165,1610612741,201942,1630172,202696,203897,1628366,0022100030,3,1763,1763,0,3,1610612741
125,1610612765,1630180,203924,1630191,1628402,1630165,1610612741,201942,1630172,202696,203897,1628366,0022100030,3,1786,1788,0,0,1610612765
126,1610612765,1630180,203924,1630191,1628402,1630165,1610612741,201942,1630172,202696,203897,1628366,0022100030,3,1796,1800,0,0,1610612741
127,1610612765,1630180,203924,1630191,1628402,1630165,1610612741,201942,1630172,202696,203897,1628366,0022100030,3,1817,1819,0,0,1610612765
128,1610612765,1630180,203924,1630191,1628402,1630165,1610612741,201942,1630172,202696,203897,1628366,0022100030,3,1834,1834,0,2,1610612741
129,1610612765,1630180,203924,1630191,1628402,1630165,1610612741,201942,1630172,202696,203897,1628366,0022100030,3,1834,1857,0,0,1610612765
130,1610612765,1628367,1630180,1630240,203482,203924,1610612741,1628366,1629750,1630245,202696,203897,0022100030,3,1879,1879,0,2,1610612741
131,1610612765,1628367,1630180,1630240,203482,203924,1610612741,1628366,1629750,1630245,202696,203897,0022100030,3,1891,1893,0,0,1610612765
132,1610612765,1628367,1630180,1630240,203482,203924,1610612741,1628366,1629750,1630245,202696,203897,0022100030,3,1897,1897,0,2,1610612741
133,1610612765,1628367,1630180,1630240,203482,203924,1610612741,1628366,1629750,1630245,202696,203897,0022100030,3,1927,1929,0,0,1610612765
134,1610612765,1628367,1630180,1630240,203482,203924,1610612741,1628366,1629750,1630245,202696,203897,0022100030,3,1945,1947,0,0,1610612741
135,1610612765,1628367,1630180,1630240,203482,203924,1610612741,1628366,1629750,1630245,202696,203897,0022100030,3,1960,1963,0,0,1610612765
136,1610612765,1628367,1630180,1630240,203482,203924,1610612741,1628366,1629750,1630245,202696,203897,0022100030,3,1975,1977,0,0,1610612741
137,1610612765,1628367,1630180,1630240,203482,203924,1610612741,1628366,1629750,1630245,202696,203897,0022100030,3,1987,1989,2,0,1610612765
138,1610612765,1626168,1628367,1630180,1630240,203482,1610612741,1627936,1629750,1630172,1630245,201942,0022100030,3,1999,1999,0,0,1610612741
139,1610612765,1626168,1628367,1630180,1630240,203482,1610612741,1627936,1629750,1630172,1630245,201942,0022100030,3,2002,2002,0,0,1610612765
140,1610612765,1626168,1628367,1628977,1630240,203482,1610612741,1627936,1629750,1630172,1630245,201942,0022100030,3,2008,2008,0,0,1610612741
141,1610612765,1626168,1628367,1628977,1630240,203482,1610612741,1627936,1629750,1630172,1630245,201942,0022100030,3,2011,2030,0,0,1610612765
142,1610612765,1626168,1628367,1628977,1630240,203482,1610612741,1627936,1629750,1630172,1630245,201942,0022100030,3,2039,2039,0,3,1610612741
143,1610612765,1626168,1628367,1628977,1630240,203482,1610612741,1627936,1629750,1630172,1630245,201942,0022100030,3,2057,2057,2,0,1610612765
144,1610612765,1626168,1628367,1628977,1630240,203482,1610612741,1627936,1629750,1630172,1630245,201942,0022100030,3,2057,2073,1,0,1610612741
145,1610612765,1626168,1628367,1628977,1630240,203482,1610612741,1627936,1629750,1630172,1630245,201942,0022100030,3,2077,2077,0,0,1610612765
146,1610612765,1626168,1628367,1628977,1630240,203482,1610612741,1627936,1629750,1630172,1630245,201942,0022100030,3,2084,2088,0,0,1610612741
147,1610612765,1626168,1628367,1628977,1630240,203482,1610612741,1627936,1629750,1630172,1630245,201942,0022100030,3,2091,2091,2,0,1610612765
148,1610612765,1626168,1628367,1628977,1630240,203482,1610612741,1627936,1629750,1630172,1630245,201942,0022100030,3,2111,2111,0,0,1610612741
149,1610612765,1626168,1628367,1628977,1630240,203482,1610612741,1627936,1629750,1630172,1630245,201942,0022100030,3,2117,2117,0,0,1610612765
150,1610612765,1626168,1628367,1628977,1630240,203482,1610612741,1627936,1629750,1630172,1630245,201942,0022100030,3,2128,2128,0,2,1610612741
151,1610612765,1626168,1628367,1628977,1630240,203482,1610612741,1627936,1629750,1630172,1630245,201942,0022100030,3,2148,2150,0,0,1610612765
152,1610612765,1626168,1628367,1628977,1630240,203482,1610612741,1627936,1629750,1630172,1630245,201942,0022100030,3,2160,2160,0,3,1610612741
153,1610612765,1626168,1628367,1628977,1630240,203482,1610612741,1627936,1629750,1630172,1630245,201942,0022100030,3,2160,2160,0,0,510
154,1610612765,203482,1628367,1626168,1628977,1630240,1610612741,201942,1630172,1628366,1629750,1627936,0022100030,4,2160,2175,0,0,1610612765
155,1610612765,203482,1628367,1626168,1628977,1630240,1610612741,201942,1630172,1628366,1629750,1627936,0022100030,4,2178,2178,0,0,1610612741
156,1610612765,203482,1628367,1626168,1628977,1630240,1610612741,201942,1630172,1628366,1629750,1627936,0022100030,4,2193,2193,2,0,1610612765
157,1610612765,203482,1628367,1626168,1628977,1630240,1610612741,201942,1630172,1628366,1629750,1627936,0022100030,4,2211,2211,0,3,1610612741
158,1610612765,203482,1628367,1626168,1628977,1630240,1610612741,201942,1630172,1628366,1629750,1627936,0022100030,4,2233,2233,2,0,1610612765
159,1610612765,203482,1628367,1626168,1628977,1630240,1610612741,201942,1630172,1628366,1629750,1627936,0022100030,4,2256,2258,0,0,1610612741
160,1610612765,203482,1628367,1626168,1628977,1630240,1610612741,201942,1630172,1628366,1629750,1627936,0022100030,4,2268,2270,0,0,1610612765
161,1610612765,203482,1628367,1626168,1628977,1630240,1610612741,201942,1630172,1628366,1629750,1627936,0022100030,4,2278,2283,0,3,1610612741
162,1610612765,203482,1628367,1626168,1628977,1630240,1610612741,201942,1630172,1628366,1629750,1627936,0022100030,4,2292,2302,0,0,1610612765
163,1610612765,1626168,1628977,1630240,1630568,202709,1610612741,201942,1630172,1628366,1629750,1627936,0022100030,4,2304,2304,0,2,1610612741
164,1610612765,1626168,1628977,1630240,1630568,202709,1610612741,201942,1630172,1628366,1629750,1627936,0022100030,4,2320,2340,0,0,1610612765
165,1610612765,1626168,1628977,1630240,1630568,202709,1610612741,201942,1630172,1628366,1629750,1627936,0022100030,4,2350,2352,0,0,1610612741
166,1610612765,1626168,1628977,1630240,1630568,202709,1610612741,201942,1630172,1628366,1629750,1627936,0022100030,4,2365,2365,0,0,1610612765
167,1610612765,1626168,1628977,1630240,1630568,202709,1610612741,201942,1630172,1628366,1629750,1627936,0022100030,4,2375,2375,0,2,1610612741
168,1610612765,1626168,1628977,1630240,1630568,202709,1610612741,201942,1630172,1628366,1629750,1627936,0022100030,4,2387,2387,3,0,1610612765
169,1610612765,1626168,1628977,1630240,1630568,202709,1610612741,201942,1630172,1628366,1629750,1627936,0022100030,4,2409,2409,0,0,1610612741
170,1610612765,1626168,1628977,1630240,1630568,202709,1610612741,201942,1630172,1628366,1629750,1627936,0022100030,4,2420,2420,3,0,1610612765
171,1610612765,1626168,1628977,1630240,1630568,202709,1610612741,201942,1630172,1628366,1629750,1627936,0022100030,4,2420,2434,0,0,1610612741
172,1610612765,1626168,1630180,1630568,202709,203924,1610612741,1627936,1628366,1629750,202696,203897,0022100030,4,2445,2450,2,0,1610612765
173,1610612765,1626168,1630180,1630568,202709,203924,1610612741,1627936,1628366,1629750,202696,203897,0022100030,4,2464,2467,0,0,1610612741
174,1610612765,1626168,1630180,1630568,202709,203924,1610612741,1627936,1628366,1629750,202696,203897,0022100030,4,2471,2475,0,0,1610612765
175,1610612765,1626168,1630180,1630568,202709,203924,1610612741,1627936,1628366,1629750,202696,203897,0022100030,4,2485,2485,0,0,1610612741
176,1610612765,1626168,1630180,1630568,202709,203924,1610612741,1627936,1628366,1629750,202696,203897,0022100030,4,2485,2500,4,0,1610612765
177,1610612765,1626168,1630180,1630568,202709,203924,1610612741,1628366,1630172,1630245,202696,203897,0022100030,4,2516,2516,0,0,1610612741
178,1610612765,1626168,1630180,1630568,202709,203924,1610612741,1628366,1630172,1630245,202696,203897,0022100030,4,2518,2518,3,0,1610612765
179,1610612765,1626168,1630180,1630568,202709,203924,1610612741,1628366,1630172,1630245,202696,203897,0022100030,4,2537,2539,0,0,1610612741
180,1610612765,1626168,1630180,1630568,202709,203924,1610612741,1628366,1630172,1630245,202696,203897,0022100030,4,2546,2546,2,0,1610612765
181,1610612765,1626168,1630180,1630568,202709,203924,1610612741,1628366,1630172,1630245,202696,203897,0022100030,4,2567,2567,0,2,1610612741
182,1610612765,1626168,1630180,1630568,202709,203924,1610612741,1628366,1630172,1630245,202696,203897,0022100030,4,2583,2584,1,0,1610612765
183,1610612765,1626168,1630180,1630568,202709,203924,1610612741,1627936,1628366,201942,202696,203897,0022100030,4,2602,2602,0,0,1610612741
184,1610612765,1626168,1630180,1630568,202709,203924,1610612741,1627936,1628366,201942,202696,203897,0022100030,4,2618,2623,2,0,1610612765
185,1610612765,1626168,1630180,1630568,202709,203924,1610612741,1627936,1628366,201942,202696,203897,0022100030,4,2641,2641,0,2,1610612741
186,1610612765,1626168,1630180,1630568,202709,203924,1610612741,1627936,1628366,201942,202696,203897,0022100030,4,2649,2649,0,0,1610612765
187,1610612765,1626168,1630180,1630568,202709,203924,1610612741,1627936,1628366,201942,202696,203897,0022100030,4,2666,2666,0,2,1610612741
188,1610612765,1626168,1630180,1630568,202709,203924,1610612741,1627936,1628366,201942,202696,203897,0022100030,4,2666,2682,0,0,1610612765
189,1610612765,1630180,1630191,202709,203585,203924,1610612741,1627936,1628366,201942,202696,203897,0022100030,4,2689,2692,0,0,1610612741
190,1610612765,1630180,1630191,202709,203585,203924,1610612741,1627936,1628366,201942,202696,203897,0022100030,4,2711,2716,0,0,1610612765
191,1610612765,1630180,1630191,202709,203585,203924,1610612741,1627936,1628366,201942,202696,203897,0022100030,4,2730,2732,0,0,1610612741
192,1610612765,1630180,1630191,202709,203585,203924,1610612741,1627936,1628366,201942,202696,203897,0022100030,4,2745,2749,0,0,1610612765
193,1610612765,1630180,1630191,202709,203585,203924,1610612741,1627936,1628366,201942,202696,203897,0022100030,4,2760,2762,0,0,1610612741
194,1610612765,1630180,1630191,202709,203585,203924,1610612741,1627936,1628366,201942,202696,203897,0022100030,4,2772,2775,0,0,1610612765
195,1610612765,1630180,1630191,202709,203585,203924,1610612741,1627936,1628366,201942,202696,203897,0022100030,4,2789,2795,0,0,1610612741
196,1610612765,1630180,1630191,1630691,202709,203585,1610612741,1627936,1628972,1628993,1629750,1630245,0022100030,4,2806,2806,2,0,1610612765
197,1610612765,1630180,1630191,1630691,202709,203585,1610612741,1627936,1628972,1628993,1629750,1630245,0022100030,4,2825,2825,0,2,1610612741
198,1610612765,1630180,1630191,1630691,202709,203585,1610612741,1627936,1628972,1628993,1629750,1630245,0022100030,4,2836,2847,2,0,1610612765
199,1610612765,1630180,1630191,1630691,202709,203585,1610612741,1627936,1628972,1628993,1629750,1630245,0022100030,4,2866,2868,0,0,1610612741
200,1610612765,1630180,1630191,1630691,202709,203585,1610612741,1627936,1628972,1628993,1629750,1630245,0022100030,4,2870,2875,0,0,1610612765
