,team1_id,team1_player1,team1_player2,team1_player3,team1_player4,team1_player5,team2_id,team2_player1,team2_player2,team2_player3,team2_player4,team2_player5,game_id,period,possession_start,possession_end,team1_points,team2_points,possession_team
0,1610612757,203918,1629642,202355,203468,203081,1610612759,201942,200746,1626168,1627854,1628401,0021900181,1,0,18,2,0,1610612757
1,1610612757,203918,1629642,202355,203468,203081,1610612759,201942,200746,1626168,1627854,1628401,0021900181,1,33,35,0,0,1610612759
2,1610612757,203918,1629642,202355,203468,203081,1610612759,201942,200746,1626168,1627854,1628401,0021900181,1,50,50,2,0,1610612757
3,1610612757,203918,1629642,202355,203468,203081,1610612759,201942,200746,1626168,1627854,1628401,0021900181,1,63,67,0,0,1610612759
4,1610612757,203918,1629642,202355,203468,203081,1610612759,201942,200746,1626168,1627854,1628401,0021900181,1,88,93,0,0,1610612757
5,1610612757,203918,1629642,202355,203468,203081,1610612759,201942,200746,1626168,1627854,1628401,0021900181,1,111,111,0,3,1610612759
6,1610612757,203918,1629642,202355,203468,203081,1610612759,201942,200746,1626168,1627854,1628401,0021900181,1,134,136,0,0,1610612757
7,1610612757,203918,1629642,202355,203468,203081,1610612759,201942,200746,1626168,1627854,1628401,0021900181,1,150,154,0,0,1610612759
8,1610612757,203918,1629642,202355,203468,203081,1610612759,201942,200746,1626168,1627854,1628401,0021900181,1,164,164,3,0,1610612757
9,1610612757,203918,1629642,202355,203468,203081,1610612759,201942,200746,1626168,1627854,1628401,0021900181,1,190,192,0,0,1610612759
10,1610612757,203918,1629642,202355,203468,203081,1610612759,201942,200746,1626168,1627854,1628401,0021900181,1,199,199,2,0,1610612757
11,1610612757,203918,1629642,202355,203468,203081,1610612759,201942,200746,1626168,1627854,1628401,0021900181,1,221,221,0,2,1610612759
12,1610612757,203918,1629642,202355,203468,203081,1610612759,201942,200746,1626168,1627854,1628401,0021900181,1,236,236,0,0,1610612757
13,1610612757,203918,1629642,202355,203468,203081,1610612759,201942,200746,1626168,1627854,1628401,0021900181,1,239,239,0,2,1610612759
14,1610612757,203918,1629642,202355,203468,203081,1610612759,201942,200746,1626168,1627854,1628401,0021900181,1,250,252,0,0,1610612757
15,1610612757,203918,1629642,202355,203468,203081,1610612759,201942,200746,1626168,1627854,1628401,0021900181,1,259,263,0,0,1610612759
16,1610612757,203918,1629642,202355,203468,203081,1610612759,201942,200746,1626168,1627854,1628401,0021900181,1,272,272,2,0,1610612757
17,1610612757,203918,1629642,202355,203468,203081,1610612759,201942,200746,1626168,1627854,1628401,0021900181,1,290,290,0,2,1610612759
18,1610612757,203918,1629642,202355,203468,203081,1610612759,201942,200746,1626168,1627854,1628401,0021900181,1,305,305,2,0,1610612757
19,1610612757,203918,1629642,202355,203468,203081,1610612759,201942,200746,1626168,1627854,1628401,0021900181,1,321,321,0,0,1610612759
20,1610612757,203918,1629642,202355,203468,203081,1610612759,201942,200746,1626168,1627854,1628401,0021900181,1,321,340,2,0,1610612757
21,1610612757,203918,1629642,202355,203468,203081,1610612759,201942,200746,1626168,1627854,1628401,0021900181,1,362,362,0,2,1610612759
22,1610612757,203918,1629642,202355,203468,203081,1610612759,201942,200746,1626168,1627854,1628401,0021900181,1,377,377,3,0,1610612757
23,1610612757,203918,1629642,202355,203468,203081,1610612759,201942,200746,1626168,1627854,1628401,0021900181,1,396,398,0,0,1610612759
24,1610612757,203918,1629642,202355,203468,203081,1610612759,201942,200746,1626168,1627854,1628401,0021900181,1,403,405,0,0,1610612757
25,1610612757,203918,1629642,202355,203468,203081,1610612759,201942,200746,1626168,1627854,1628401,0021900181,1,421,421,0,2,1610612759
26,1610612757,203918,1629642,202355,203468,203081,1610612759,201942,200746,1626168,1627854,1628401,0021900181,1,435,435,3,0,1610612757
27,1610612757,203918,1629642,202355,203468,203081,1610612759,201942,200746,1626168,1627854,1628401,0021900181,1,450,450,0,2,1610612759
28,1610612757,1627746,1629642,203081,203468,203918,1610612759,1627751,1628401,200752,201942,201988,0021900181,1,474,474,2,0,1610612757
29,1610612757,1627746,1629642,203081,203468,203918,1610612759,1627751,1628401,200752,201942,201988,0021900181,1,486,486,0,2,1610612759
30,1610612757,1627746,1629642,203081,203468,203918,1610612759,1627751,1628401,200752,201942,201988,0021900181,1,502,502,3,0,1610612757
31,1610612757,1627746,1629642,203081,203468,203918,1610612759,1627751,1628401,200752,201942,201988,0021900181,1,511,514,0,0,1610612759
32,1610612757,1627746,1629642,203081,203468,203918,1610612759,1627751,1628401,200752,201942,201988,0021900181,1,522,522,3,0,1610612757
33,1610612757,1627746,1629642,203081,203468,203918,1610612759,1627751,1628401,200752,201942,201988,0021900181,1,540,542,0,0,1610612759
34,1610612757,1627746,1629642,203081,203468,203918,1610612759,1627751,1628401,200752,201942,201988,0021900181,1,546,549,0,0,1610612757
35,1610612757,1627746,1629642,203081,203468,203918,1610612759,1627751,1628401,200752,201942,201988,0021900181,1,557,561,0,0,1610612759
36,1610612757,1627746,1629642,203081,203468,203918,1610612759,1627751,1628401,200752,201942,201988,0021900181,1,576,576,2,0,1610612757
37,1610612757,1627746,1629642,203081,203468,203918,1610612759,1627751,1628401,200752,201942,201988,0021900181,1,602,609,0,0,1610612759
38,1610612757,1627746,1629642,203081,203468,203918,1610612759,1627751,1628401,200752,201942,201988,0021900181,1,618,618,2,0,1610612757
39,1610612757,1627746,1629642,203081,203468,203918,1610612759,1627751,1628401,200752,201942,201988,0021900181,1,632,632,0,2,1610612759
40,1610612757,1627746,1629642,203081,203468,203918,1610612759,1627751,1628401,200752,201942,201988,0021900181,1,632,651,3,0,1610612757
41,1610612757,1626209,1627746,1629014,203081,203145,1610612759,1627751,1629022,200752,201158,201988,0021900181,1,666,666,0,2,1610612759
42,1610612757,1626209,1627746,1629014,203081,203145,1610612759,1627751,1629022,200752,201158,201988,0021900181,1,683,683,2,0,1610612757
43,1610612757,1626209,1627746,1629014,203081,203145,1610612759,1627751,1629022,200752,201158,201988,0021900181,1,697,701,0,0,1610612759
44,1610612757,1626209,1627746,1629014,203081,203145,1610612759,1627751,1629022,200752,201158,201988,0021900181,1,716,716,3,0,1610612757
45,1610612757,1626209,1627746,1629014,203081,203145,1610612759,1627751,1629022,200752,201158,201988,0021900181,1,720,720,0,2,1610612759
46,1610612757,1626209,1627746,1629014,203081,203145,1610612759,1627751,1629022,200752,201158,201988,0021900181,1,720,727,0,0,1610612759
47,1610612757,203468,1627746,203145,1626209,1629014,1610612759,201988,1627751,200752,1629022,201158,0021900181,2,743,743,2,0,1610612757
48,1610612757,203468,1627746,203145,1626209,1629014,1610612759,201988,1627751,200752,1629022,201158,0021900181,2,754,756,0,0,1610612759
49,1610612757,203468,1627746,203145,1626209,1629014,1610612759,201988,1627751,200752,1629022,201158,0021900181,2,772,772,3,0,1610612757
50,1610612757,203468,1627746,203145,1626209,1629014,1610612759,201988,1627751,200752,1629022,201158,0021900181,2,789,792,0,2,1610612759
51,1610612757,203468,1627746,203145,1626209,1629014,1610612759,201988,1627751,200752,1629022,201158,0021900181,2,803,806,0,0,1610612757
52,1610612757,203468,1627746,203145,1626209,1629014,1610612759,201988,1627751,200752,1629022,201158,0021900181,2,815,815,0,2,1610612759
53,1610612757,203468,1627746,203145,1626209,1629014,1610612759,201988,1627751,200752,1629022,201158,0021900181,2,829,829,2,0,1610612757
54,1610612757,203468,1627746,203145,1626209,1629014,1610612759,201988,1627751,200752,1629022,201158,0021900181,2,840,842,0,1,1610612759
55,1610612757,203468,1627746,203145,1626209,1629014,1610612759,201988,1627751,200752,1629022,201158,0021900181,2,848,851,0,0,1610612757
56,1610612757,203468,1627746,203145,1626209,1629014,1610612759,201988,1627751,200752,1629022,201158,0021900181,2,857,857,0,3,1610612759
57,1610612757,203468,1627746,203145,1626209,1629014,1610612759,201988,1627751,200752,1629022,201158,0021900181,2,867,867,0,0,1610612757
58,1610612757,203468,1627746,203145,1626209,1629014,1610612759,201988,1627751,200752,1629022,201158,0021900181,2,873,873,0,2,1610612759
59,1610612757,203468,1627746,203145,1626209,1629014,1610612759,201988,1627751,200752,1629022,201158,0021900181,2,891,891,2,0,1610612757
60,1610612757,203468,1627746,203145,1626209,1629014,1610612759,201988,1627751,200752,1629022,201158,0021900181,2,906,906,0,2,1610612759
61,1610612757,203468,1627746,203145,1626209,1629014,1610612759,201988,1627751,200752,1629022,201158,0021900181,2,933,936,0,0,1610612757
62,1610612757,203468,1627746,203145,1626209,1629014,1610612759,201988,1627751,200752,1629022,201158,0021900181,2,943,943,0,2,1610612759
63,1610612757,203468,1627746,203145,1626209,1629014,1610612759,201988,1627751,200752,1629022,201158,0021900181,2,960,960,0,0,1610612757
64,1610612757,203468,1627746,203145,1626209,1629014,1610612759,1627751,1628401,1629022,200752,201158,0021900181,2,975,975,0,2,1610612759
65,1610612757,203468,1627746,203145,1626209,1629014,1610612759,1627751,1628401,1629022,200752,201158,0021900181,2,975,983,0,0,1610612757
66,1610612757,203468,1627746,203145,1626209,1629014,1610612759,1626168,1628401,200746,201158,201942,0021900181,2,1002,1004,0,0,1610612759
67,1610612757,203468,1627746,203145,1626209,1629014,1610612759,1626168,1628401,200746,201158,201942,0021900181,2,1012,1017,0,0,1610612757
68,1610612757,203468,1627746,203145,1626209,1629014,1610612759,1626168,1628401,200746,201158,201942,0021900181,2,1027,1027,0,2,1610612759
69,1610612757,1626209,1629014,202355,203081,203145,1610612759,1626168,1627854,1628401,200746,201942,0021900181,2,1051,1051,2,0,1610612757
70,1610612757,1626209,1629014,202355,203081,203145,1610612759,1626168,1627854,1628401,200746,201942,0021900181,2,1060,1060,0,2,1610612759
71,1610612757,1626209,1629014,202355,203081,203145,1610612759,1626168,1627854,1628401,200746,201942,0021900181,2,1068,1069,0,0,1610612757
72,1610612757,1626209,1629014,202355,203081,203145,1610612759,1626168,1627854,1628401,200746,201942,0021900181,2,1081,1084,0,0,1610612759
73,1610612757,1626209,1629014,202355,203081,203145,1610612759,1626168,1627854,1628401,200746,201942,0021900181,2,1094,1094,3,0,1610612757
74,1610612757,1626209,1629014,202355,203081,203145,1610612759,1626168,1627854,1628401,200746,201942,0021900181,2,1112,1112,0,2,1610612759
75,1610612757,1626209,1629014,202355,203081,203145,1610612759,1626168,1627854,1628401,200746,201942,0021900181,2,1130,1130,2,0,1610612757
76,1610612757,1626209,1629014,202355,203081,203145,1610612759,1626168,1627854,1628401,200746,201942,0021900181,2,1131,1147,0,0,1610612759
77,1610612757,1629014,1629642,202355,203081,203918,1610612759,1626168,1627854,1628401,200746,201942,0021900181,2,1155,1160,0,0,1610612757
78,1610612757,1629014,1629642,202355,203081,203918,1610612759,1626168,1627854,1628401,200746,201942,0021900181,2,1173,1179,0,2,1610612759
79,1610612757,1629014,1629642,202355,203081,203918,1610612759,1626168,1627854,1628401,200746,201942,0021900181,2,1195,1197,0,0,1610612757
80,1610612757,1629014,1629642,202355,203081,203918,1610612759,1626168,1627854,1628401,200746,201942,0021900181,2,1206,1206,0,2,1610612759
81,1610612757,1629014,1629642,202355,203081,203918,1610612759,1626168,1627854,1628401,200746,201942,0021900181,2,1224,1224,0,0,1610612757
82,1610612757,1629014,1629642,202355,203081,203918,1610612759,1626168,1627854,1628401,200746,201942,0021900181,2,1224,1224,0,1,1610612759
83,1610612757,1629014,1629642,202355,203081,203918,1610612759,1626168,1627854,1628401,200746,201942,0021900181,2,1238,1240,0,0,1610612757
84,1610612757,1629014,1629642,202355,203081,203918,1610612759,1626168,1627854,1628401,200746,201942,0021900181,2,1247,1253,0,0,1610612759
85,1610612757,1629642,202355,203081,203468,203918,1610612759,1626168,1627854,200746,201942,201988,0021900181,2,1262,1264,0,0,1610612757
86,1610612757,1629642,202355,203081,203468,203918,1610612759,1626168,1627854,200746,201942,201988,0021900181,2,1269,1269,0,0,1610612759
87,1610612757,1629642,202355,203081,203468,203918,1610612759,1626168,1627854,200746,201942,201988,0021900181,2,1281,1285,0,0,1610612757
88,1610612757,1629642,202355,203081,203468,203918,1610612759,1626168,1627854,200746,201942,201988,0021900181,2,1292,1294,0,2,1610612759
89,1610612757,1629642,202355,203081,203468,203918,1610612759,1626168,1627854,200746,201942,201988,0021900181,2,1314,1314,1,0,1610612757
90,1610612757,1629642,202355,203081,203468,203918,1610612759,1626168,1627854,200746,201942,201988,0021900181,2,1333,1333,0,2,1610612759
91,1610612757,1629642,202355,203081,203468,203918,1610612759,1626168,1627854,200746,201942,201988,0021900181,2,1344,1344,3,0,1610612757
92,1610612757,1629642,202355,203081,203468,203918,1610612759,1626168,1627854,200746,201942,201988,0021900181,2,1355,1355,0,3,1610612759
93,1610612757,1629642,202355,203081,203468,203918,1610612759,1626168,1627854,200746,201942,201988,0021900181,2,1377,1390,0,0,1610612757
94,1610612757,1629642,202355,203081,203468,203918,1610612759,1626168,1627854,200746,201942,201988,0021900181,2,1393,1395,0,0,1610612759
95,1610612757,1629642,202355,203081,203468,203918,1610612759,1626168,1627854,200746,201942,201988,0021900181,2,1400,1400,3,0,1610612757
96,1610612757,1629642,202355,203081,203468,203918,1610612759,1626168,1627854,200746,201942,201988,0021900181,2,1408,1408,0,1,1610612759
97,1610612757,1629642,202355,203081,203468,203918,1610612759,1626168,1628401,200746,201942,201988,0021900181,2,1422,1422,2,0,1610612757
98,1610612757,1629642,202355,203081,203468,203918,1610612759,1626168,1628401,200746,201942,201988,0021900181,2,1438,1438,0,0,1610612759
99,1610612757,203918,1629642,202355,203468,203081,1610612759,201942,200746,1627854,1628401,1627751,0021900181,3,1440,1456,0,0,1610612759
100,1610612757,203918,1629642,202355,203468,203081,1610612759,201942,200746,1627854,1628401,1627751,0021900181,3,1467,1467,3,0,1610612757
101,1610612757,203918,1629642,202355,203468,203081,1610612759,201942,200746,1627854,1628401,1627751,0021900181,3,1480,1480,0,2,1610612759
102,1610612757,203918,1629642,202355,203468,203081,1610612759,201942,200746,1627854,1628401,1627751,0021900181,3,1494,1494,3,0,1610612757
103,1610612757,203918,1629642,202355,203468,203081,1610612759,201942,200746,1627854,1628401,1627751,0021900181,3,1504,1504,0,2,1610612759
104,1610612757,203918,1629642,202355,203468,203081,1610612759,201942,200746,1627854,1628401,1627751,0021900181,3,1522,1532,0,0,1610612757
105,1610612757,203918,1629642,202355,203468,203081,1610612759,201942,200746,1627854,1628401,1627751,0021900181,3,1538,1545,0,0,1610612759
106,1610612757,203918,1629642,202355,203468,203081,1610612759,201942,200746,1627854,1628401,1627751,0021900181,3,1553,1553,2,0,1610612757
107,1610612757,203918,1629642,202355,203468,203081,1610612759,201942,200746,1627854,1628401,1627751,0021900181,3,1569,1569,0,2,1610612759
108,1610612757,203918,1629642,202355,203468,203081,1610612759,201942,200746,1627854,1628401,1627751,0021900181,3,1577,1577,3,0,1610612757
109,1610612757,203918,1629642,202355,203468,203081,1610612759,201942,200746,1627854,1628401,1627751,0021900181,3,1583,1593,2,2,1610612759
110,1610612757,203918,1629642,202355,203468,203081,1610612759,201942,200746,1627854,1628401,1627751,0021900181,3,1609,1614,0,0,1610612757
111,1610612757,203918,1629642,202355,203468,203081,1610612759,201942,200746,1627854,1628401,1627751,0021900181,3,1617,1617,0,0,1610612759
112,1610612757,203918,1629642,202355,203468,203081,1610612759,201942,200746,1627854,1628401,1627751,0021900181,3,1627,1629,0,0,1610612757
113,1610612757,203918,1629642,202355,203468,203081,1610612759,201942,200746,1627854,1628401,1627751,0021900181,3,1643,1647,0,0,1610612759
114,1610612757,203918,1629642,202355,203468,203081,1610612759,201942,200746,1627854,1628401,1627751,0021900181,3,1666,1670,0,0,1610612757
115,1610612757,203918,1629642,202355,203468,203081,1610612759,201942,200746,1627854,1628401,1627751,0021900181,3,1677,1688,0,4,1610612759
116,1610612757,203918,1629642,202355,203468,203081,1610612759,201942,200746,1627854,1628401,1627751,0021900181,3,1696,1697,0,0,1610612757
117,1610612757,203918,1629642,202355,203468,203081,1610612759,201942,200746,1627854,1628401,1627751,0021900181,3,1703,1703,0,0,1610612759
118,1610612757,203918,1629642,202355,203468,203081,1610612759,201942,200746,1627854,1628401,1627751,0021900181,3,1719,1725,0,0,1610612757
119,1610612757,203918,1629642,202355,203468,203081,1610612759,201942,200746,1627854,1628401,1627751,0021900181,3,1729,1729,0,2,1610612759
120,1610612757,203918,1629642,202355,203468,203081,1610612759,201942,200746,1627854,1628401,1627751,0021900181,3,1729,1747,2,0,1610612757
121,1610612757,203918,1629642,202355,203468,203081,1610612759,1627854,1628401,200746,200752,201942,0021900181,3,1765,1765,0,2,1610612759
122,1610612757,203918,1629642,202355,203468,203081,1610612759,1627854,1628401,200746,200752,201942,0021900181,3,1777,1777,2,0,1610612757
123,1610612757,203918,1629642,202355,203468,203081,1610612759,1627854,1628401,200746,200752,201942,0021900181,3,1790,1790,0,3,1610612759
124,1610612757,203918,1629642,202355,203468,203081,1610612759,1627854,1628401,200746,200752,201942,0021900181,3,1804,1804,3,0,1610612757
125,1610612757,203918,1629642,202355,203468,203081,1610612759,1627854,1628401,200746,200752,201942,0021900181,3,1818,1818,0,2,1610612759
126,1610612757,203918,1629642,202355,203468,203081,1610612759,1627854,1628401,200746,200752,201942,0021900181,3,1828,1831,0,0,1610612757
127,1610612757,203918,1629642,202355,203468,203081,1610612759,1627854,1628401,200746,200752,201942,0021900181,3,1845,1845,0,2,1610612759
128,1610612757,203918,1629642,202355,203468,203081,1610612759,1627854,1628401,200746,200752,201942,0021900181,3,1860,1864,0,0,1610612757
129,1610612757,203918,1629642,202355,203468,203081,1610612759,1627854,1628401,200746,200752,201942,0021900181,3,1869,1879,0,2,1610612759
130,1610612757,203918,1629642,202355,203468,203081,1610612759,1628401,200746,200752,201942,201988,0021900181,3,1898,1902,0,0,1610612757
131,1610612757,203918,1629642,202355,203468,203081,1610612759,1628401,200746,200752,201942,201988,0021900181,3,1908,1910,0,0,1610612759
132,1610612757,203918,1629642,202355,203468,203081,1610612759,1628401,200746,200752,201942,201988,0021900181,3,1916,1916,0,0,1610612757
133,1610612757,203918,1629642,202355,203468,203081,1610612759,1628401,200746,200752,201942,201988,0021900181,3,1920,1920,0,2,1610612759
134,1610612757,1629014,1629642,202355,203081,203145,1610612759,200746,200752,201158,201942,201988,0021900181,3,1938,1938,2,0,1610612757
135,1610612757,1629014,1629642,202355,203081,203145,1610612759,200746,200752,201158,201942,201988,0021900181,3,1959,1959,0,3,1610612759
136,1610612757,1626209,1629014,202355,203081,203145,1610612759,200746,200752,201158,201942,201988,0021900181,3,1968,1971,0,0,1610612757
137,1610612757,1626209,1629014,202355,203081,203145,1610612759,200746,200752,201158,201942,201988,0021900181,3,1975,1982,0,2,1610612759
138,1610612757,1626209,1629014,202355,203081,203145,1610612759,200746,200752,201158,201942,201988,0021900181,3,1982,1982,0,0,1610612757
139,1610612757,1626209,1629014,202355,203081,203145,1610612759,200746,200752,201158,201942,201988,0021900181,3,1985,1985,0,2,1610612759
140,1610612757,1626209,1629014,202355,203081,203145,1610612759,200746,200752,201158,201942,201988,0021900181,3,2001,2001,2,0,1610612757
141,1610612757,1626209,1629014,202355,203081,203145,1610612759,200746,200752,201158,201942,201988,0021900181,3,2015,2015,0,2,1610612759
142,1610612757,1626209,1629014,202355,203081,203145,1610612759,200746,200752,201158,201942,201988,0021900181,3,2023,2040,0,0,1610612757
143,1610612757,1626209,1629014,202355,203081,203145,1610612759,1629022,200746,200752,201158,201988,0021900181,3,2049,2049,0,2,1610612759
144,1610612757,1626209,1629014,202355,203081,203145,1610612759,1629022,200746,200752,201158,201988,0021900181,3,2060,2063,0,0,1610612757
145,1610612757,1626209,1629014,202355,203081,203145,1610612759,1629022,200746,200752,201158,201988,0021900181,3,2066,2068,0,0,1610612759
146,1610612757,1626209,1629014,202355,203081,203145,1610612759,1629022,200746,200752,201158,201988,0021900181,3,2081,2081,0,0,1610612757
147,1610612757,1626209,1629014,202355,203081,203145,1610612759,1629022,200746,200752,201158,201988,0021900181,3,2093,2097,0,0,1610612759
148,1610612757,1626209,1629014,202355,203081,203145,1610612759,1629022,200746,200752,201158,201988,0021900181,3,2106,2108,0,0,1610612757
149,1610612757,1626209,1629014,202355,203081,203145,1610612759,1629022,200746,200752,201158,201988,0021900181,3,2117,2119,0,0,1610612759
150,1610612757,1626209,1629014,202355,203081,203145,1610612759,1629022,200746,200752,201158,201988,0021900181,3,2132,2135,0,0,1610612757
151,1610612757,1626209,1629014,202355,203081,203145,1610612759,1629022,200746,200752,201158,201988,0021900181,3,2155,2157,0,0,1610612759
152,1610612757,1626209,1629014,202355,203081,203145,1610612759,1629022,200746,200752,201158,201988,0021900181,3,2160,2160,0,0,1610612757
153,1610612757,203468,1627746,203145,1626209,1629014,1610612759,201988,1627751,200752,1629022,201158,0021900181,4,2160,2183,0,0,1610612757
154,1610612757,203468,1627746,203145,1626209,1629014,1610612759,201988,1627751,200752,1629022,201158,0021900181,4,2196,2199,0,0,1610612759
155,1610612757,203468,1627746,203145,1626209,1629014,1610612759,201988,1627751,200752,1629022,201158,0021900181,4,2208,2208,0,0,1610612757
156,1610612757,203468,1627746,203145,1626209,1629014,1610612759,201988,1627751,200752,1629022,201158,0021900181,4,2228,2228,0,2,1610612759
157,1610612757,203468,1627746,203145,1626209,1629014,1610612759,201988,1627751,200752,1629022,201158,0021900181,4,2243,2247,0,0,1610612757
158,1610612757,203468,1627746,203145,1626209,1629014,1610612759,201988,1627751,200752,1629022,201158,0021900181,4,2262,2264,0,0,1610612759
159,1610612757,203468,1627746,203145,1626209,1629014,1610612759,201988,1627751,200752,1629022,201158,0021900181,4,2271,2279,0,0,1610612757
160,1610612757,203468,1627746,203145,1626209,1629014,1610612759,1627751,1628401,1629022,200752,201158,0021900181,4,2285,2288,0,1,1610612759
161,1610612757,203468,1627746,203145,1626209,1629014,1610612759,1627751,1628401,1629022,200752,201158,0021900181,4,2298,2298,0,0,1610612757
162,1610612757,203468,1627746,203145,1626209,1629014,1610612759,1627751,1628401,1629022,200752,201158,0021900181,4,2301,2301,0,2,1610612759
163,1610612757,203468,1627746,203145,1626209,1629014,1610612759,1627751,1628401,1629022,200752,201158,0021900181,4,2314,2314,1,0,1610612757
164,1610612757,1626209,1627746,203081,203145,203468,1610612759,1627751,1628401,1629022,200752,201158,0021900181,4,2329,2329,0,2,1610612759
165,1610612757,1626209,1627746,203081,203145,203468,1610612759,1627751,1628401,1629022,200752,201158,0021900181,4,2343,2345,0,0,1610612757
166,1610612757,1626209,1627746,203081,203145,203468,1610612759,1626168,1627751,1628401,201158,201942,0021900181,4,2355,2368,0,3,1610612759
167,1610612757,1626209,202355,203081,203145,203468,1610612759,1626168,1627751,1627854,1628401,201942,0021900181,4,2376,2376,2,0,1610612757
168,1610612757,1626209,202355,203081,203145,203468,1610612759,1626168,1627751,1627854,1628401,201942,0021900181,4,2394,2394,0,0,1610612759
169,1610612757,1626209,202355,203081,203145,203468,1610612759,1626168,1627751,1627854,1628401,201942,0021900181,4,2405,2414,2,0,1610612757
170,1610612757,1626209,202355,203081,203145,203468,1610612759,1626168,1627751,1627854,1628401,201942,0021900181,4,2414,2427,0,0,1610612759
171,1610612757,1626209,202355,203081,203145,203468,1610612759,1626168,1627751,1627854,1628401,201942,0021900181,4,2430,2430,3,0,1610612757
172,1610612757,1629642,202355,203081,203145,203468,1610612759,1626168,1627854,1628401,200746,201942,0021900181,4,2441,2441,0,0,1610612759
173,1610612757,1629642,202355,203081,203145,203468,1610612759,1626168,1627854,1628401,200746,201942,0021900181,4,2441,2461,2,0,1610612757
174,1610612757,1629642,202355,203081,203468,203918,1610612759,1626168,1627854,1628401,200746,201942,0021900181,4,2479,2479,0,0,1610612759
175,1610612757,1629642,202355,203081,203468,203918,1610612759,1626168,1627854,1628401,200746,201942,0021900181,4,2485,2485,0,0,1610612757
176,1610612757,1629642,202355,203081,203468,203918,1610612759,1626168,1627854,1628401,200746,201942,0021900181,4,2489,2493,0,0,1610612759
177,1610612757,1629642,202355,203081,203468,203918,1610612759,1626168,1627854,1628401,200746,201942,0021900181,4,2511,2516,2,0,1610612757
178,1610612757,1629642,202355,203081,203468,203918,1610612759,1626168,1627854,1628401,200746,201942,0021900181,4,2529,2529,0,2,1610612759
179,1610612757,1629642,202355,203081,203468,203918,1610612759,1626168,1627854,1628401,200746,201942,0021900181,4,2543,2551,0,0,1610612757
180,1610612757,1629642,202355,203081,203468,203918,1610612759,1626168,1627854,1628401,200746,201942,0021900181,4,2558,2558,0,2,1610612759
181,1610612757,1629642,202355,203081,203468,203918,1610612759,1626168,1627854,1628401,200746,201942,0021900181,4,2575,2575,2,0,1610612757
182,1610612757,1629642,202355,203081,203468,203918,1610612759,1626168,1627854,1628401,200746,201942,0021900181,4,2589,2592,0,0,1610612759
183,1610612757,1629642,202355,203081,203468,203918,1610612759,1626168,1627854,1628401,200746,201942,0021900181,4,2599,2602,0,0,1610612757
184,1610612757,1629642,202355,203081,203468,203918,1610612759,1626168,1627854,1628401,200746,201942,0021900181,4,2614,2615,0,0,1610612759
185,1610612757,1629642,202355,203081,203468,203918,1610612759,1626168,1627854,1628401,200746,201942,0021900181,4,2619,2627,0,0,1610612757
186,1610612757,1629642,202355,203081,203468,203918,1610612759,1626168,1627854,1628401,200746,201942,0021900181,4,2629,2629,0,0,1610612759
187,1610612757,1629642,202355,203081,203468,203918,1610612759,1626168,1627854,1628401,200746,201942,0021900181,4,2635,2637,0,0,1610612757
188,1610612757,1629642,202355,203081,203468,203918,1610612759,1626168,1627854,1628401,200746,201942,0021900181,4,2637,2648,0,1,1610612759
189,1610612757,1629642,202355,203081,203468,203918,1610612759,1627854,1628401,200746,200752,201942,0021900181,4,2663,2663,3,0,1610612757
190,1610612757,1629642,202355,203081,203468,203918,1610612759,1627854,1628401,200746,200752,201942,0021900181,4,2680,2682,0,0,1610612759
191,1610612757,1629642,202355,203081,203468,203918,1610612759,1627854,1628401,200746,200752,201942,0021900181,4,2697,2697,2,0,1610612757
192,1610612757,1629642,202355,203081,203468,203918,1610612759,1627854,1628401,200746,200752,201942,0021900181,4,2710,2722,0,0,1610612759
193,1610612757,1629642,202355,203081,203468,203918,1610612759,1627854,1628401,200746,200752,201942,0021900181,4,2731,2734,2,0,1610612757
194,1610612757,1629642,202355,203081,203468,203918,1610612759,1627854,1628401,200746,200752,201942,0021900181,4,2753,2753,0,0,1610612759
195,1610612757,1629642,202355,203081,203468,203918,1610612759,1628401,200746,200752,201942,201988,0021900181,4,2770,2773,0,0,1610612757
196,1610612757,1629642,202355,203081,203468,203918,1610612759,1628401,200746,200752,201942,201988,0021900181,4,2780,2783,0,0,1610612759
197,1610612757,1629642,202355,203081,203468,203918,1610612759,1628401,200746,200752,201942,201988,0021900181,4,2790,2799,3,0,1610612757
198,1610612757,1629642,202355,203081,203468,203918,1610612759,1628401,200746,200752,201942,201988,0021900181,4,2812,2812,0,2,1610612759
199,1610612757,1629642,202355,203081,203468,203918,1610612759,1628401,200746,200752,201942,201988,0021900181,4,2831,2831,0,0,1610612757
200,1610612757,1629642,202355,203081,203468,203918,1610612759,1628401,200746,200752,201942,201988,0021900181,4,2842,2843,0,0,1610612759
201,1610612757,1629642,202355,203081,203468,203918,1610612759,1628401,200746,200752,201942,201988,0021900181,4,2843,2843,2,0,1610612757
202,1610612757,1629642,202355,203081,203468,203918,1610612759,1628401,200746,200752,201942,201988,0021900181,4,2851,2854,0,0,1610612759
203,1610612757,1629642,202355,203081,203468,203918,1610612759,1628401,200746,200752,201942,201988,0021900181,4,2854,2854,2,0,1610612757
204,1610612757,1629642,202355,203081,203468,203918,1610612759,1628401,200746,200752,201942,201988,0021900181,4,2854,2866,0,0,1610612759
205,1610612757,1629642,202355,203081,203468,203918,1610612759,1628401,200746,200752,201942,201988,0021900181,4,2866,2866,3,0,1610612757
206,1610612757,1629642,202355,203081,203468,203918,1610612759,1628401,200746,200752,201942,201988,0021900181,4,2872,2872,0,3,1610612759
