,stint_end,t2_pm,stint_start,t1_id,t2_players,t2_id,t1_players,t2_points_scored,t1_pm,t1_points_scored,margin_per_100,num_poss
0,255,-2,0,1610612750,"[1629642, 1626204, 203994, 1626181, 203081]",1610612757,"[1630162, 1629020, 1626157, 201976, 1626156]",8,2,10,11.11111111111111,18.0
1,318,-6,256,1610612750,"[1629642, 1626204, 203994, 1626181, 203081]",1610612757,"[1630162, 1629020, 1626157, 201976, 1626156]",10,6,16,26.08695652173913,23.0
2,374,-5,319,1610612750,"[1626181, 1629642, 203081, 203496, 203994]",1610612757,"[1630162, 1629020, 1626157, 201976, 1626156]",13,5,18,18.51851851851852,27.0
3,480,-3,375,1610612750,"[1626181, 1629642, 203081, 203496, 203994]",1610612757,"[1626157, 1627736, 1629020, 1630162, 201976]",20,3,23,8.571428571428571,35.0
4,541,2,481,1610612750,"[1626181, 1629014, 203081, 203496, 203994]",1610612757,"[1626157, 1627736, 1630162, 1630183, 201976]",25,-2,23,-5.0,40.0
5,553,-1,542,1610612750,"[1626181, 1629014, 203081, 203496, 203994]",1610612757,"[1626157, 1627736, 1630162, 1630183, 1630195]",25,1,26,2.4390243902439024,41.0
6,716,-6,554,1610612750,"[1626181, 1629014, 203081, 203496, 203994]",1610612757,"[1626156, 1626157, 1627736, 1630183, 1630195]",26,6,32,11.538461538461538,52.0
7,775,-7,717,1610612750,"[1626181, 1628372, 1629014, 203496, 203994]",1610612757,"[1626156, 1626157, 1627736, 1630183, 1630195]",26,7,33,12.280701754385964,57.0
8,906,-1,776,1610612750,"[1626204, 203496, 1629014, 1628372, 203503]",1610612757,"[1629020, 1626156, 1627736, 1630183, 1629675]",35,1,36,1.5384615384615385,65.0
9,941,-1,907,1610612750,"[1626204, 1629014, 203463, 203496, 203503]",1610612757,"[1629020, 1626156, 1627736, 1630183, 1629675]",35,1,36,1.4925373134328357,67.0
10,996,-1,942,1610612750,"[1626204, 1629014, 203463, 203496, 203503]",1610612757,"[1629020, 1629675, 1630162, 1630183, 201976]",38,1,39,1.4285714285714286,70.0
11,1155,3,997,1610612750,"[1626204, 203081, 203463, 203496, 203503]",1610612757,"[1629020, 1629675, 1630162, 1630183, 201976]",45,-3,42,-3.7037037037037033,81.0
12,1179,4,1156,1610612750,"[1626181, 1626204, 203081, 203463, 203496]",1610612757,"[1626157, 1629020, 1630162, 1630183, 201976]",46,-4,42,-4.819277108433735,83.0
13,1226,4,1180,1610612750,"[1626181, 1629642, 203081, 203463, 203994]",1610612757,"[1626157, 1627736, 1630162, 1630183, 201976]",48,-4,44,-4.597701149425287,87.0
14,1356,0,1227,1610612750,"[1626181, 1629642, 203081, 203463, 203994]",1610612757,"[1626156, 1626157, 1627736, 1630183, 201976]",51,0,51,0.0,96.0
15,1439,-1,1357,1610612750,"[1626181, 1629014, 1629642, 203081, 203496]",1610612757,"[1626156, 1626157, 1627736, 1630183, 201976]",55,1,56,0.9803921568627451,102.0
16,1555,-7,1440,1610612750,"[1626181, 1629014, 1629642, 203081, 203496]",1610612757,"[1626156, 1626157, 1627736, 1629020, 201976]",56,7,63,6.363636363636363,110.0
17,1639,-10,1556,1610612750,"[1629642, 1626204, 203994, 1626181, 203081]",1610612757,"[1630162, 1629020, 1626157, 201976, 1626156]",58,10,68,8.771929824561402,114.0
18,1713,-9,1640,1610612750,"[1626181, 1629642, 203081, 203496, 203994]",1610612757,"[1630162, 1629020, 1626157, 201976, 1626156]",62,9,71,7.563025210084033,119.0
19,1736,-9,1714,1610612750,"[1626181, 1629014, 203081, 203496, 203994]",1610612757,"[1626156, 1626157, 1627736, 1629020, 201976]",62,9,71,7.43801652892562,121.0
20,1765,-7,1737,1610612750,"[1626181, 1629014, 1630570, 203081, 203496]",1610612757,"[1626156, 1626157, 1627736, 1629020, 201976]",64,7,71,5.6000000000000005,125.0
21,1975,-6,1766,1610612750,"[1626181, 1629014, 1630570, 203081, 203496]",1610612757,"[1626156, 1627736, 1629020, 1630183, 201976]",72,6,78,4.316546762589928,139.0
22,2155,-2,1976,1610612750,"[1626181, 1629014, 1630570, 203081, 203496]",1610612757,"[1626156, 1627736, 1629020, 1629669, 1630183]",84,2,86,1.3157894736842104,152.0
23,2246,0,2156,1610612750,"[1626181, 1629014, 1630570, 203463, 203496]",1610612757,"[1626156, 1627736, 1629669, 1629675, 1630183]",89,0,89,0.0,157.0
24,2451,5,2247,1610612750,"[1629642, 1626204, 203496, 1629014, 203463]",1610612757,"[1630162, 201976, 1630183, 1629675, 1629669]",100,-5,95,-2.941176470588235,170.0
25,2509,5,2452,1610612750,"[1626204, 1629014, 1629642, 203081, 203463]",1610612757,"[1626157, 1629669, 1630162, 1630183, 201976]",100,-5,95,-2.8901734104046244,173.0
26,2661,0,2510,1610612750,"[1626181, 1626204, 1629642, 203081, 203994]",1610612757,"[1626156, 1626157, 1629020, 1630162, 201976]",104,0,104,0.0,182.0
27,2873,-5,2662,1610612750,"[1626181, 1626204, 1629014, 203081, 203994]",1610612757,"[1626156, 1626157, 1629020, 1630162, 201976]",111,5,116,2.525252525252525,198.0
28,9999999,-5,2874,1610612750,"[1626181, 1626204, 1629014, 203081, 203496]",1610612757,"[1626156, 1626157, 1629020, 1630162, 201976]",111,5,116,2.512562814070352,199.0
