,stint_start,t2_points_scored,t2_id,t2_players,t1_pm,t1_id,t2_pm,t1_points_scored,stint_end,t1_players,margin_per_100,num_poss
0,0,6,1610612752,"[1629628, 203944, 1629011, 202692, 203095]",11,1610612738,-11,17,365,"[201143, 1628369, 1629057, 1627759, 203935]",44.0,25.0
1,366,11,1610612752,"[1629628, 203944, 1629011, 202692, 203095]",8,1610612738,-8,19,448,"[201143, 1628369, 1629057, 1627759, 203935]",26.666666666666668,30.0
2,449,14,1610612752,"[1629628, 203944, 1629011, 202692, 203095]",7,1610612738,-7,21,595,"[1626196, 1627759, 1629057, 1629684, 203935]",18.91891891891892,37.0
3,596,18,1610612752,"[1629628, 201959, 202692, 203095, 203944]",5,1610612738,-5,23,667,"[1626196, 1627759, 1629057, 1629684, 203471]",11.904761904761903,42.0
4,668,18,1610612752,"[1629628, 1630193, 201959, 203095, 203944]",7,1610612738,-7,25,719,"[1626196, 1628369, 1629684, 202683, 203471]",15.217391304347828,46.0
5,720,26,1610612752,"[1629656, 1630193, 201959, 203095, 203944]",14,1610612738,-14,40,961,"[1626196, 1628369, 1629684, 202683, 203471]",23.728813559322035,59.0
6,962,26,1610612752,"[202692, 201959, 1630193, 1629656, 1630167]",17,1610612738,-17,43,1003,"[1628369, 1626196, 1629684, 203471, 202683]",27.419354838709676,62.0
7,1004,26,1610612752,"[202692, 201959, 1630193, 1629656, 1630167]",19,1610612738,-19,45,1044,"[1626196, 1628369, 201143, 202683, 203471]",29.230769230769234,65.0
8,1045,32,1610612752,"[1629011, 1629656, 1630193, 202692, 203944]",25,1610612738,-25,57,1224,"[1627759, 1628369, 201143, 202683, 203471]",33.33333333333333,75.0
9,1225,37,1610612752,"[1629011, 1629628, 202692, 203095, 203944]",24,1610612738,-24,61,1348,"[1627759, 1628369, 201143, 202683, 203471]",28.915662650602407,83.0
10,1349,47,1610612752,"[1629011, 1629628, 202692, 203095, 203944]",16,1610612738,-16,63,1439,"[1627759, 1629057, 201143, 203471, 203935]",17.582417582417584,91.0
11,1440,59,1610612752,"[1629011, 1629628, 202692, 203095, 203944]",16,1610612738,-16,75,1753,"[1627759, 1628369, 1629057, 201143, 203935]",14.414414414414415,111.0
12,1754,59,1610612752,"[1629628, 203944, 1629011, 202692, 203095]",19,1610612738,-19,78,1760,"[201143, 1628369, 1629057, 1627759, 203935]",16.964285714285715,112.0
13,1761,61,1610612752,"[1629628, 203944, 1629011, 202692, 203095]",17,1610612738,-17,78,1826,"[1627759, 1628369, 1629057, 201143, 203471]",14.529914529914532,117.0
14,1827,64,1610612752,"[1629628, 201959, 202692, 203095, 203944]",17,1610612738,-17,81,1932,"[1627759, 1628369, 1629057, 201143, 203471]",13.821138211382115,123.0
15,1933,70,1610612752,"[1630193, 201959, 202692, 203095, 203944]",12,1610612738,-12,82,2012,"[1626196, 1628369, 1629684, 201143, 203471]",9.30232558139535,129.0
16,2013,77,1610612752,"[1630193, 201959, 202692, 203095, 203944]",7,1610612738,-7,84,2158,"[1626196, 1628369, 1629684, 202683, 203471]",5.072463768115942,138.0
17,2159,82,1610612752,"[1630193, 201959, 202692, 203095, 203944]",5,1610612738,-5,87,2306,"[1626196, 1627759, 1629057, 1629684, 203935]",3.4246575342465753,146.0
18,2307,85,1610612752,"[202692, 203095, 201959, 1630193, 1630167]",5,1610612738,-5,90,2407,"[201143, 1628369, 1629057, 1627759, 203935]",3.289473684210526,152.0
19,2408,85,1610612752,"[1629628, 1630167, 1630193, 201959, 203095]",8,1610612738,-8,93,2449,"[201143, 1628369, 1629057, 1627759, 203935]",5.194805194805195,154.0
20,2450,94,1610612752,"[1629628, 1630167, 1630193, 201959, 203095]",2,1610612738,-2,96,2635,"[1628369, 1629057, 201143, 203471, 203935]",1.2345679012345678,162.0
21,2636,101,1610612752,"[1629011, 1629628, 1630193, 203095, 203944]",0,1610612738,0,101,2835,"[1628369, 1629057, 201143, 203471, 203935]",0.0,172.0
22,2836,103,1610612752,"[1629011, 1629628, 1630193, 203095, 203944]",-2,1610612738,2,101,2861,"[1627759, 1628369, 1629057, 203471, 203935]",-1.1494252873563218,174.0
23,2862,104,1610612752,"[1629011, 1629628, 1630193, 202692, 203944]",-1,1610612738,1,103,2867,"[1627759, 1628369, 1629057, 203471, 203935]",-0.5681818181818182,176.0
24,2868,105,1610612752,"[1629011, 1630193, 202692, 203095, 203944]",0,1610612738,0,105,2878,"[1627759, 1628369, 1629057, 203471, 203935]",0.0,178.0
25,2879,105,1610612752,"[1629011, 1629628, 1630193, 202692, 203944]",0,1610612738,0,105,2879,"[1627759, 1628369, 1629057, 203471, 203935]",0.0,178.0
26,2880,108,1610612752,"[1629628, 1630193, 202692, 203095, 203944]",-3,1610612738,3,105,9999999,"[1627759, 1628369, 1629057, 201143, 203935]",-1.6666666666666667,180.0
