,stint_end,t1_players,t2_pm,t2_points_scored,stint_start,t1_pm,t1_points_scored,t2_id,t1_id,t2_players,margin_per_100,num_poss
0,323,"[202711, 1626220, 203497, 1628378, 201144]",5,14,0,-5,9,1610612746,1610612762,"[202695, 201587, 201586, 202331, 201976]",-23.809523809523807,21.0
1,389,"[202711, 1626220, 203497, 1628378, 201144]",3,14,324,-3,11,1610612746,1610612762,"[202695, 201587, 201586, 202331, 201976]",-12.0,25.0
2,532,"[1626220, 202324, 202711, 203903, 204060]",3,20,390,-3,17,1610612746,1610612762,"[101150, 201586, 201587, 202331, 202695]",-8.333333333333332,36.0
3,668,"[1626220, 202324, 202711, 203903, 204060]",4,27,533,-4,23,1610612746,1610612762,"[101150, 1627826, 1629611, 201587, 202695]",-8.695652173913043,46.0
4,695,"[1627777, 201144, 203497, 203903, 204060]",6,29,669,-6,23,1610612746,1610612762,"[101150, 1627826, 1629611, 202694, 202695]",-12.5,48.0
5,719,"[1627777, 201144, 203497, 203903, 204060]",8,31,696,-8,23,1610612746,1610612762,"[101150, 1627826, 1629611, 202694, 202704]",-16.0,50.0
6,904,"[1626220, 201144, 203497, 203903, 204060]",10,38,720,-10,28,1610612746,1610612762,"[101150, 201976, 202331, 202694, 202704]",-15.873015873015872,63.0
7,948,"[203497, 201144, 204060, 203903, 1627777]",10,38,905,-10,28,1610612746,1610612762,"[202331, 101150, 1627826, 202694, 202704]",-15.384615384615385,65.0
8,1055,"[1627777, 1628378, 203497, 203903, 204060]",12,45,949,-12,33,1610612746,1610612762,"[201586, 201976, 202331, 202694, 202704]",-16.666666666666664,72.0
9,1152,"[1626220, 1628378, 202324, 202711, 203903]",9,47,1056,-9,38,1610612746,1610612762,"[201586, 201976, 202331, 202694, 202704]",-11.25,80.0
10,1256,"[1626220, 1628378, 202324, 202711, 203903]",13,53,1153,-13,40,1610612746,1610612762,"[201586, 201976, 202694, 202695, 202704]",-15.294117647058824,85.0
11,1270,"[1626220, 1628378, 202324, 202711, 203903]",13,53,1257,-13,40,1610612746,1610612762,"[101150, 201586, 201587, 201976, 202695]",-15.11627906976744,86.0
12,1437,"[1626220, 1628378, 202711, 203497, 204060]",8,57,1271,-8,49,1610612746,1610612762,"[101150, 201586, 201587, 201976, 202695]",-8.333333333333332,96.0
13,1728,"[1626220, 1628378, 202711, 203497, 204060]",2,61,1438,-2,59,1610612746,1610612762,"[101150, 201586, 201587, 202695, 202704]",-1.7391304347826086,115.0
14,1781,"[202711, 1626220, 203497, 1628378, 201144]",2,63,1729,-2,61,1610612746,1610612762,"[202695, 201587, 201586, 202331, 201976]",-1.694915254237288,118.0
15,1831,"[1626220, 1628378, 202324, 202711, 204060]",-2,65,1782,2,67,1610612746,1610612762,"[202695, 201587, 201586, 202331, 201976]",1.639344262295082,122.0
16,1908,"[1626220, 1628378, 202324, 202711, 204060]",-2,67,1832,2,69,1610612746,1610612762,"[101150, 1629611, 201586, 201587, 202695]",1.574803149606299,127.0
17,1982,"[1626220, 1628378, 202324, 202711, 204060]",0,71,1909,0,71,1610612746,1610612762,"[101150, 1627826, 1629611, 201587, 202695]",0.0,133.0
18,2157,"[1626220, 1628378, 202324, 203903, 204060]",2,77,1983,-2,75,1610612746,1610612762,"[101150, 1627826, 1629611, 202694, 202695]",-1.3986013986013985,143.0
19,2239,"[1626220, 201144, 203497, 203903, 204060]",4,83,2158,-4,79,1610612746,1610612762,"[101150, 1627826, 1629611, 202694, 202695]",-2.7027027027027026,148.0
20,2312,"[203497, 201144, 204060, 203903, 1627777]",4,85,2240,-4,81,1610612746,1610612762,"[202331, 101150, 1627826, 1629611, 202694]",-2.631578947368421,152.0
21,2358,"[1627777, 1628378, 203497, 203903, 204060]",3,87,2313,-3,84,1610612746,1610612762,"[202331, 101150, 1627826, 1629611, 202694]",-1.935483870967742,155.0
22,2375,"[1627777, 1628378, 203497, 203903, 204060]",5,89,2359,-5,84,1610612746,1610612762,"[101150, 1627826, 201587, 202694, 202704]",-3.1847133757961785,157.0
23,2448,"[1628378, 202711, 203497, 203903, 204060]",5,91,2376,-5,86,1610612746,1610612762,"[101150, 1627826, 201587, 202694, 202704]",-3.0864197530864197,162.0
24,2549,"[1626220, 1628378, 202324, 202711, 203903]",4,94,2449,-4,90,1610612746,1610612762,"[101150, 201587, 202694, 202695, 202704]",-2.3952095808383236,167.0
25,2597,"[1626220, 1628378, 202324, 202711, 203903]",7,99,2550,-7,92,1610612746,1610612762,"[201587, 201976, 202694, 202695, 202704]",-4.069767441860465,172.0
26,2859,"[1626220, 1628378, 202324, 202711, 203903]",4,108,2598,-4,104,1610612746,1610612762,"[201587, 201976, 202331, 202694, 202695]",-2.1164021164021163,189.0
27,2869,"[1626220, 1628378, 201144, 202711, 203497]",2,112,2860,-2,110,1610612746,1610612762,"[201587, 201976, 202331, 202694, 202695]",-1.0362694300518136,193.0
28,2869,"[1628378, 201144, 202711, 203497, 204060]",2,112,2870,-2,110,1610612746,1610612762,"[201587, 201976, 202331, 202694, 202695]",-1.0362694300518136,193.0
29,2877,"[1628378, 202324, 202711, 203497, 204060]",6,116,2870,-6,110,1610612746,1610612762,"[201587, 201976, 202331, 202694, 202695]",-3.061224489795918,196.0
30,9999999,"[1628378, 201144, 202711, 203903, 204060]",4,116,2878,-4,112,1610612746,1610612762,"[201587, 201976, 202331, 202694, 202695]",-2.030456852791878,197.0
