,t1_points_scored,stint_end,t2_pm,t1_players,t2_id,t1_id,t2_players,t2_points_scored,t1_pm,stint_start,margin_per_100,num_poss
0,14,320,-3,"[1629067, 1629060, 101133, 203078, 203894]",1610612762,1610612764,"[202711, 1626220, 203497, 1628378, 201144]",11,3,0,15.0,20.0
1,17,455,1,"[1629067, 1629060, 101133, 203078, 203894]",1610612762,1610612764,"[202711, 1626220, 203497, 1628378, 201144]",18,-1,321,-3.571428571428571,28.0
2,24,557,-4,"[101133, 1629010, 1629060, 203078, 203894]",1610612762,1610612764,"[1626220, 1628378, 202711, 203497, 204060]",20,4,456,10.526315789473683,38.0
3,28,719,3,"[1629010, 1629060, 202397, 202722, 203078]",1610612762,1610612764,"[1626220, 1628378, 202711, 203497, 204060]",31,-3,558,-6.122448979591836,49.0
4,32,936,9,"[1628418, 1629010, 202397, 202722, 203078]",1610612762,1610612764,"[1627777, 1628396, 201144, 203903, 204060]",41,-9,720,-13.636363636363635,66.0
5,37,1043,9,"[1629010, 202397, 202722, 1628418, 1628972]",1610612762,1610612764,"[201144, 204060, 203903, 1628396, 1627777]",46,-9,937,-12.162162162162163,74.0
6,45,1167,4,"[1629010, 1629021, 1629060, 202397, 203078]",1610612762,1610612764,"[1626220, 202711, 203497, 203903, 204060]",49,-4,1044,-4.938271604938271,81.0
7,45,1201,6,"[1628972, 1629021, 1629060, 203078, 203894]",1610612762,1610612764,"[1626220, 1628378, 202711, 203497, 203903]",51,-6,1168,-7.228915662650602,83.0
8,49,1260,4,"[1628418, 1628972, 1629060, 203078, 203894]",1610612762,1610612764,"[1626220, 1628378, 202711, 203497, 203903]",53,-4,1202,-4.597701149425287,87.0
9,60,1439,-2,"[1628418, 1629060, 202722, 203078, 203894]",1610612762,1610612764,"[1626220, 1628378, 201144, 202711, 203497]",58,2,1261,1.9801980198019802,101.0
10,69,1774,-2,"[1628418, 1629060, 202722, 203078, 203894]",1610612762,1610612764,"[1628378, 201144, 202711, 203497, 204060]",67,2,1440,1.6260162601626018,123.0
11,69,1798,-2,"[1629067, 1629060, 101133, 203078, 203894]",1610612762,1610612764,"[202711, 1626220, 203497, 1628378, 201144]",67,2,1775,1.6,125.0
12,74,1889,-1,"[1629067, 1629060, 101133, 203078, 203894]",1610612762,1610612764,"[1626220, 1628378, 202711, 203497, 204060]",73,1,1799,0.7633587786259541,131.0
13,74,1930,2,"[1629010, 1629060, 202722, 203078, 203894]",1610612762,1610612764,"[1626220, 1628378, 202711, 203497, 204060]",76,-2,1890,-1.4925373134328357,134.0
14,76,1953,2,"[1629010, 1629060, 202397, 202722, 203078]",1610612762,1610612764,"[1628378, 202711, 203497, 203903, 204060]",78,-2,1931,-1.4705882352941175,136.0
15,78,2023,4,"[1629010, 1629021, 202397, 202722, 203078]",1610612762,1610612764,"[1628378, 202711, 203497, 203903, 204060]",82,-4,1954,-2.7777777777777777,144.0
16,81,2097,5,"[1629010, 1629021, 202397, 202722, 203078]",1610612762,1610612764,"[1627777, 1628396, 201144, 203903, 204060]",86,-5,2024,-3.3783783783783785,148.0
17,81,2157,9,"[1628972, 1629010, 202397, 202722, 203078]",1610612762,1610612764,"[1627777, 1628396, 201144, 203903, 204060]",90,-9,2098,-5.921052631578947,152.0
18,85,2312,12,"[1628972, 1629010, 202397, 202722, 203078]",1610612762,1610612764,"[1626220, 1627777, 201144, 203903, 204060]",97,-12,2158,-7.4074074074074066,162.0
19,85,2339,15,"[1629060, 1629010, 202397, 202722, 1628972]",1610612762,1610612764,"[201144, 204060, 203903, 1628396, 1627777]",100,-15,2313,-9.146341463414634,164.0
20,87,2377,15,"[1628972, 1629060, 202397, 202722, 203078]",1610612762,1610612764,"[1626220, 1628396, 201144, 203903, 204060]",102,-15,2340,-9.036144578313253,166.0
21,92,2477,12,"[1628418, 1628972, 202397, 202722, 203078]",1610612762,1610612764,"[1626220, 1628396, 201144, 203903, 204060]",104,-12,2378,-6.976744186046512,172.0
22,103,2605,7,"[1628418, 1628972, 202397, 202722, 203078]",1610612762,1610612764,"[1626220, 1628378, 203497, 203903, 204060]",110,-7,2478,-3.8461538461538463,182.0
23,105,2626,7,"[1628418, 1628972, 202397, 202722, 203078]",1610612762,1610612764,"[1626220, 1628378, 202711, 203497, 203903]",112,-7,2606,-3.804347826086957,184.0
24,106,2659,9,"[1628972, 1629060, 202397, 202722, 203078]",1610612762,1610612764,"[1626220, 1628378, 202711, 203497, 203903]",115,-9,2627,-4.761904761904762,189.0
25,110,2777,11,"[1628972, 1629060, 202722, 203078, 203894]",1610612762,1610612764,"[1626220, 1628378, 201144, 202711, 203497]",121,-11,2660,-5.583756345177665,197.0
26,112,2799,11,"[1628418, 1629060, 202722, 203078, 203894]",1610612762,1610612764,"[1626220, 1628378, 201144, 202711, 203497]",123,-11,2778,-5.527638190954774,199.0
27,116,2858,13,"[1628418, 1628972, 1629060, 203078, 203894]",1610612762,1610612764,"[1626220, 1628378, 201144, 202711, 203497]",129,-13,2800,-6.372549019607843,204.0
28,119,9999999,10,"[1627780, 1628972, 1629010, 1629021, 1629067]",1610612762,1610612764,"[1626220, 1628378, 201144, 202711, 203497]",129,-10,2859,-4.878048780487805,205.0
