,team1_id,team1_player1,team1_player2,team1_player3,team1_player4,team1_player5,team2_id,team2_player1,team2_player2,team2_player3,team2_player4,team2_player5,game_id,period,possession_start,possession_end,team1_points,team2_points,possession_team
0,1610612766,201587,101107,202687,203087,202689,1610612749,203114,203507,201572,1627763,202339,0021800727,1,0,19,0,0,1610612749
1,1610612766,201587,101107,202687,203087,202689,1610612749,203114,203507,201572,1627763,202339,0021800727,1,41,41,2,0,1610612766
2,1610612766,201587,101107,202687,203087,202689,1610612749,203114,203507,201572,1627763,202339,0021800727,1,50,53,0,0,1610612749
3,1610612766,201587,101107,202687,203087,202689,1610612749,203114,203507,201572,1627763,202339,0021800727,1,62,62,2,0,1610612766
4,1610612766,201587,101107,202687,203087,202689,1610612749,203114,203507,201572,1627763,202339,0021800727,1,73,76,0,0,1610612749
5,1610612766,201587,101107,202687,203087,202689,1610612749,203114,203507,201572,1627763,202339,0021800727,1,82,82,3,0,1610612766
6,1610612766,201587,101107,202687,203087,202689,1610612749,203114,203507,201572,1627763,202339,0021800727,1,105,105,0,2,1610612749
7,1610612766,201587,101107,202687,203087,202689,1610612749,203114,203507,201572,1627763,202339,0021800727,1,123,126,0,0,1610612766
8,1610612766,201587,101107,202687,203087,202689,1610612749,203114,203507,201572,1627763,202339,0021800727,1,138,138,0,2,1610612749
9,1610612766,201587,101107,202687,203087,202689,1610612749,203114,203507,201572,1627763,202339,0021800727,1,149,153,0,0,1610612766
10,1610612766,201587,101107,202687,203087,202689,1610612749,203114,203507,201572,1627763,202339,0021800727,1,160,164,0,0,1610612749
11,1610612766,201587,101107,202687,203087,202689,1610612749,203114,203507,201572,1627763,202339,0021800727,1,176,176,0,0,1610612766
12,1610612766,201587,101107,202687,203087,202689,1610612749,203114,203507,201572,1627763,202339,0021800727,1,190,190,0,2,1610612749
13,1610612766,201587,101107,202687,203087,202689,1610612749,203114,203507,201572,1627763,202339,0021800727,1,202,204,0,0,1610612766
14,1610612766,201587,101107,202687,203087,202689,1610612749,203114,203507,201572,1627763,202339,0021800727,1,206,210,0,1,1610612749
15,1610612766,201587,101107,202687,203087,202689,1610612749,203114,203507,201572,1627763,202339,0021800727,1,218,218,0,0,1610612766
16,1610612766,201587,101107,202687,203087,202689,1610612749,203114,203507,201572,1627763,202339,0021800727,1,222,225,0,0,1610612749
17,1610612766,201587,101107,202687,203087,202689,1610612749,203114,203507,201572,1627763,202339,0021800727,1,236,236,2,0,1610612766
18,1610612766,201587,101107,202687,203087,202689,1610612749,203114,203507,201572,1627763,202339,0021800727,1,247,247,0,2,1610612749
19,1610612766,201587,101107,202687,203087,202689,1610612749,203114,203507,201572,1627763,202339,0021800727,1,262,262,3,0,1610612766
20,1610612766,201587,101107,202687,203087,202689,1610612749,203114,203507,201572,1627763,202339,0021800727,1,269,269,0,0,1610612749
21,1610612766,201587,101107,202687,203087,202689,1610612749,1628425,201572,202339,203114,203507,0021800727,1,283,286,0,0,1610612766
22,1610612766,201587,101107,202687,203087,202689,1610612749,1628425,201572,202339,203114,203507,0021800727,1,295,298,0,0,1610612749
23,1610612766,201587,101107,202687,203087,202689,1610612749,1628425,201572,202339,203114,203507,0021800727,1,307,307,2,0,1610612766
24,1610612766,201587,101107,202687,203087,202689,1610612749,1628425,201572,202339,203114,203507,0021800727,1,318,318,0,3,1610612749
25,1610612766,101107,1628984,201587,202689,203077,1610612749,1628425,201572,202339,203114,203507,0021800727,1,329,341,0,0,1610612766
26,1610612766,101107,1628984,201587,202689,203077,1610612749,1628425,201572,202339,203114,203507,0021800727,1,348,352,0,0,1610612749
27,1610612766,101107,1628984,201587,202689,203077,1610612749,1628425,201572,202339,203114,203507,0021800727,1,356,356,0,0,1610612766
28,1610612766,101107,1628984,201587,202689,203077,1610612749,1628425,201572,202339,203114,203507,0021800727,1,373,374,0,0,1610612749
29,1610612766,101107,1628984,201587,202689,203077,1610612749,1628425,201572,202339,203114,203507,0021800727,1,389,393,0,0,1610612766
30,1610612766,101107,1628984,201587,202689,203077,1610612749,1628391,1628425,201572,201588,203114,0021800727,1,395,410,0,3,1610612749
31,1610612766,101107,1628984,201587,202689,203077,1610612749,1628391,1628425,201572,201588,203114,0021800727,1,424,424,3,0,1610612766
32,1610612766,101107,1628984,201587,202689,203077,1610612749,1628391,1628425,201572,201588,203114,0021800727,1,446,450,0,2,1610612749
33,1610612766,101107,1628984,201587,202689,203077,1610612749,1628391,1628425,201572,201588,203114,0021800727,1,473,473,2,0,1610612766
34,1610612766,101107,1628984,201587,202689,203077,1610612749,1628391,1628425,201572,201588,203114,0021800727,1,498,498,0,3,1610612749
35,1610612766,101107,1628984,201587,202689,203077,1610612749,1628391,1628425,201572,201588,203114,0021800727,1,512,512,0,0,1610612766
36,1610612766,101107,1628984,201587,202689,203077,1610612749,101141,1627763,1628391,1628425,201588,0021800727,1,531,533,0,0,1610612749
37,1610612766,101107,1628984,201587,202689,203077,1610612749,101141,1627763,1628391,1628425,201588,0021800727,1,536,536,0,0,1610612766
38,1610612766,101107,1628984,201587,202689,203077,1610612749,101141,1627763,1628391,1628425,201588,0021800727,1,543,543,0,0,1610612749
39,1610612766,101107,1628984,201587,202689,203077,1610612749,101141,1627763,1628391,1628425,201588,0021800727,1,543,563,1,0,1610612766
40,1610612766,1628370,1628970,1628984,201587,203077,1610612749,101141,1627763,1628391,1628425,201588,0021800727,1,573,576,0,0,1610612749
41,1610612766,1628370,1628970,1628984,201587,203077,1610612749,101141,1627763,1628391,1628425,201588,0021800727,1,586,586,2,0,1610612766
42,1610612766,1628370,1628970,1628984,201587,203077,1610612749,101141,1627763,201588,203503,203507,0021800727,1,597,597,0,0,1610612749
43,1610612766,1628370,1628970,1628984,201587,203077,1610612749,101141,1627763,201588,203503,203507,0021800727,1,613,613,3,0,1610612766
44,1610612766,1628370,1628970,1628984,201587,203077,1610612749,101141,1627763,201588,203503,203507,0021800727,1,631,637,0,0,1610612749
45,1610612766,1628370,1628970,1628984,201587,203077,1610612749,101141,1627763,201588,203503,203507,0021800727,1,637,661,0,0,1610612766
46,1610612766,1628370,1628970,1628984,201587,203077,1610612749,101141,1627763,201588,203503,203507,0021800727,1,671,677,0,0,1610612749
47,1610612766,1628370,1628970,1628984,201587,203077,1610612749,101141,1627763,201588,203503,203507,0021800727,1,688,688,0,0,1610612766
48,1610612766,1628370,1628970,1628984,201587,203077,1610612749,101141,1627763,201588,203503,203507,0021800727,1,697,697,0,2,1610612749
49,1610612766,1628370,1628970,1628984,201587,203077,1610612749,101141,1627763,201588,203503,203507,0021800727,1,719,720,2,0,1610612766
50,1610612766,1628370,1628970,1628984,201587,203077,1610612749,101141,1627763,201588,203503,203507,0021800727,1,720,720,0,0,0
51,1610612766,203077,1628984,1628970,1628370,1626195,1610612749,203507,1627763,201588,101141,203503,0021800727,2,720,756,0,0,1610612766
52,1610612766,203077,1628984,1628970,1628370,1626195,1610612749,203507,1627763,201588,101141,203503,0021800727,2,760,760,0,3,1610612749
53,1610612766,203077,1628984,1628970,1628370,1626195,1610612749,203507,1627763,201588,101141,203503,0021800727,2,772,776,0,0,1610612766
54,1610612766,203077,1628984,1628970,1628370,1626195,1610612749,203507,1627763,201588,101141,203503,0021800727,2,782,785,0,0,1610612749
55,1610612766,203077,1628984,1628970,1628370,1626195,1610612749,203507,1627763,201588,101141,203503,0021800727,2,790,790,2,0,1610612766
56,1610612766,203077,1628984,1628970,1628370,1626195,1610612749,203507,1627763,201588,101141,203503,0021800727,2,804,808,0,0,1610612749
57,1610612766,203077,1628984,1628970,1628370,1626195,1610612749,203507,1627763,201588,101141,203503,0021800727,2,813,813,2,0,1610612766
58,1610612766,1626195,1628370,1628970,1628984,202689,1610612749,101141,1627763,202339,203503,203507,0021800727,2,831,831,0,2,1610612749
59,1610612766,1626195,1628370,1628970,1628984,202689,1610612749,101141,1627763,202339,203503,203507,0021800727,2,844,844,0,0,1610612766
60,1610612766,1626195,1628370,1628970,1628984,202689,1610612749,101141,1627763,202339,203503,203507,0021800727,2,848,848,0,2,1610612749
61,1610612766,1626195,1628370,1628970,1628984,202689,1610612749,101141,1627763,202339,203503,203507,0021800727,2,848,862,1,0,1610612766
62,1610612766,1626195,1628370,1628970,1628984,202689,1610612749,1628391,1628425,202339,203503,203507,0021800727,2,876,881,0,2,1610612749
63,1610612766,1626195,1628370,1628970,1628984,202689,1610612749,1628391,1628425,202339,203503,203507,0021800727,2,890,890,2,0,1610612766
64,1610612766,1626195,1628370,1628970,1628984,202689,1610612749,1628391,1628425,202339,203503,203507,0021800727,2,902,906,0,0,1610612749
65,1610612766,1626195,1628370,1628970,1628984,202689,1610612749,1628391,1628425,202339,203503,203507,0021800727,2,909,909,2,0,1610612766
66,1610612766,1626195,1628370,1628970,1628984,202689,1610612749,1628391,1628425,202339,203503,203507,0021800727,2,927,927,0,2,1610612749
67,1610612766,1626195,1628370,1628970,1628984,202689,1610612749,1628391,1628425,202339,203503,203507,0021800727,2,944,947,0,0,1610612766
68,1610612766,1626195,1628370,1628970,1628984,202689,1610612749,1628391,1628425,202339,203503,203507,0021800727,2,953,956,0,0,1610612749
69,1610612766,1626195,1628370,1628970,1628984,202689,1610612749,1628391,1628425,202339,203503,203507,0021800727,2,958,962,2,0,1610612766
70,1610612766,1626195,1628370,1628970,1628984,202689,1610612749,1628391,1628425,202339,203503,203507,0021800727,2,979,983,0,0,1610612749
71,1610612766,1626195,1628370,1628970,1628984,202689,1610612749,1628391,1628425,202339,203503,203507,0021800727,2,998,998,2,0,1610612766
72,1610612766,1626195,1628370,1628970,1628984,202689,1610612749,1628391,1628425,202339,203503,203507,0021800727,2,1003,1014,0,3,1610612749
73,1610612766,101107,1626195,1628370,1628970,202689,1610612749,1628391,1628425,201572,202339,203114,0021800727,2,1031,1039,2,0,1610612766
74,1610612766,101107,1626195,1628370,1628970,202689,1610612749,1628391,1628425,201572,202339,203114,0021800727,2,1052,1055,0,0,1610612749
75,1610612766,101107,1626195,1628370,1628970,202689,1610612749,1628391,1628425,201572,202339,203114,0021800727,2,1061,1064,0,0,1610612766
76,1610612766,101107,1626195,1628370,1628970,202689,1610612749,1628391,1628425,201572,202339,203114,0021800727,2,1072,1072,0,2,1610612749
77,1610612766,101107,1626195,1628370,1628970,202689,1610612749,1628391,1628425,201572,202339,203114,0021800727,2,1093,1093,3,0,1610612766
78,1610612766,101107,1626195,1628370,1628970,202689,1610612749,1628391,1628425,201572,202339,203114,0021800727,2,1100,1100,0,2,1610612749
79,1610612766,101107,1626195,1628970,202689,203087,1610612749,1628391,1628425,201572,202339,203114,0021800727,2,1109,1109,2,0,1610612766
80,1610612766,101107,1626195,1628970,202689,203087,1610612749,1628391,1628425,201572,202339,203114,0021800727,2,1118,1118,0,3,1610612749
81,1610612766,101107,1626195,1628970,202689,203087,1610612749,1628391,1628425,201572,202339,203114,0021800727,2,1129,1129,0,0,1610612766
82,1610612766,101107,1626195,1628970,202689,203087,1610612749,1628391,1628425,201572,202339,203114,0021800727,2,1136,1136,0,2,1610612749
83,1610612766,101107,1626195,1628970,202689,203087,1610612749,1628391,1628425,201572,202339,203114,0021800727,2,1137,1154,0,0,1610612766
84,1610612766,101107,201587,202689,203077,203087,1610612749,1628391,1628425,201572,202339,203114,0021800727,2,1157,1160,0,0,1610612749
85,1610612766,101107,201587,202689,203077,203087,1610612749,1628391,1628425,201572,202339,203114,0021800727,2,1167,1171,0,0,1610612766
86,1610612766,101107,201587,202689,203077,203087,1610612749,1628391,1628425,201572,202339,203114,0021800727,2,1182,1185,0,0,1610612749
87,1610612766,101107,201587,202689,203077,203087,1610612749,1628391,1628425,201572,202339,203114,0021800727,2,1197,1200,0,0,1610612766
88,1610612766,101107,201587,202689,203077,203087,1610612749,1628391,1628425,201572,202339,203114,0021800727,2,1210,1213,0,0,1610612749
89,1610612766,101107,201587,202689,203077,203087,1610612749,1628391,1628425,201572,202339,203114,0021800727,2,1231,1240,3,0,1610612766
90,1610612766,101107,201587,202689,203077,203087,1610612749,1627763,201572,201588,203114,203507,0021800727,2,1265,1265,0,2,1610612749
91,1610612766,101107,201587,202689,203077,203087,1610612749,1627763,201572,201588,203114,203507,0021800727,2,1281,1281,0,0,1610612766
92,1610612766,101107,201587,202689,203077,203087,1610612749,1627763,201572,201588,203114,203507,0021800727,2,1288,1291,0,0,1610612749
93,1610612766,101107,201587,202689,203077,203087,1610612749,1627763,201572,201588,203114,203507,0021800727,2,1298,1298,2,0,1610612766
94,1610612766,101107,201587,202689,203077,203087,1610612749,1627763,201572,201588,203114,203507,0021800727,2,1317,1317,0,0,1610612749
95,1610612766,101107,201587,202689,203077,203087,1610612749,1627763,201572,201588,203114,203507,0021800727,2,1332,1332,2,0,1610612766
96,1610612766,101107,201587,202689,203077,203087,1610612749,1627763,201572,201588,203114,203507,0021800727,2,1350,1350,0,2,1610612749
97,1610612766,101107,201587,202689,203077,203087,1610612749,1627763,201572,201588,203114,203507,0021800727,2,1361,1361,0,0,1610612766
98,1610612766,101107,201587,202689,203077,203087,1610612749,1627763,201572,201588,203114,203507,0021800727,2,1365,1365,0,2,1610612749
99,1610612766,101107,201587,202689,203077,203087,1610612749,1627763,201572,201588,203114,203507,0021800727,2,1383,1385,0,0,1610612766
100,1610612766,101107,201587,202689,203077,203087,1610612749,1627763,201572,201588,203114,203507,0021800727,2,1391,1392,0,0,1610612749
101,1610612766,101107,201587,202689,203077,203087,1610612749,1627763,201572,201588,203114,203507,0021800727,2,1398,1398,0,0,1610612766
102,1610612766,101107,201587,202689,203077,203087,1610612749,201572,201588,203114,203503,203507,0021800727,2,1405,1413,0,1,1610612749
103,1610612766,101107,1628370,201587,202689,203087,1610612749,1628425,201588,203114,203503,203507,0021800727,2,1429,1432,0,0,1610612766
104,1610612766,101107,1628370,201587,202689,203087,1610612749,1628425,201588,203114,203503,203507,0021800727,2,1437,1438,0,0,1610612749
105,1610612766,201587,101107,202687,203087,202689,1610612749,203114,203507,201572,1627763,202339,0021800727,3,1440,1453,0,0,1610612766
106,1610612766,201587,101107,202687,203087,202689,1610612749,203114,203507,201572,1627763,202339,0021800727,3,1469,1472,0,0,1610612749
107,1610612766,201587,101107,202687,203087,202689,1610612749,203114,203507,201572,1627763,202339,0021800727,3,1476,1476,3,0,1610612766
108,1610612766,201587,101107,202687,203087,202689,1610612749,203114,203507,201572,1627763,202339,0021800727,3,1487,1487,0,3,1610612749
109,1610612766,201587,101107,202687,203087,202689,1610612749,203114,203507,201572,1627763,202339,0021800727,3,1504,1508,0,0,1610612766
110,1610612766,201587,101107,202687,203087,202689,1610612749,203114,203507,201572,1627763,202339,0021800727,3,1510,1510,0,2,1610612749
111,1610612766,201587,101107,202687,203087,202689,1610612749,203114,203507,201572,1627763,202339,0021800727,3,1522,1522,2,0,1610612766
112,1610612766,201587,101107,202687,203087,202689,1610612749,203114,203507,201572,1627763,202339,0021800727,3,1539,1543,0,0,1610612749
113,1610612766,201587,101107,202687,203087,202689,1610612749,203114,203507,201572,1627763,202339,0021800727,3,1551,1551,2,0,1610612766
114,1610612766,201587,101107,202687,203087,202689,1610612749,203114,203507,201572,1627763,202339,0021800727,3,1562,1562,0,2,1610612749
115,1610612766,201587,101107,202687,203087,202689,1610612749,203114,203507,201572,1627763,202339,0021800727,3,1574,1574,3,0,1610612766
116,1610612766,201587,101107,202687,203087,202689,1610612749,203114,203507,201572,1627763,202339,0021800727,3,1593,1593,0,2,1610612749
117,1610612766,201587,101107,202687,203087,202689,1610612749,203114,203507,201572,1627763,202339,0021800727,3,1612,1612,0,0,1610612766
118,1610612766,201587,101107,202687,203087,202689,1610612749,203114,203507,201572,1627763,202339,0021800727,3,1619,1619,0,0,1610612749
119,1610612766,201587,101107,202687,203087,202689,1610612749,203114,203507,201572,1627763,202339,0021800727,3,1629,1632,0,0,1610612766
120,1610612766,201587,101107,202687,203087,202689,1610612749,203114,203507,201572,1627763,202339,0021800727,3,1642,1645,0,0,1610612749
121,1610612766,201587,101107,202687,203087,202689,1610612749,203114,203507,201572,1627763,202339,0021800727,3,1654,1661,3,0,1610612766
122,1610612766,201587,101107,202687,203087,202689,1610612749,1628425,201572,202339,203114,203507,0021800727,3,1679,1679,0,0,1610612749
123,1610612766,201587,101107,202687,203087,202689,1610612749,1628425,201572,202339,203114,203507,0021800727,3,1687,1687,0,0,1610612766
124,1610612766,201587,101107,202687,203087,202689,1610612749,1628425,201572,202339,203114,203507,0021800727,3,1699,1699,0,2,1610612749
125,1610612766,201587,101107,202687,203087,202689,1610612749,1628425,201572,202339,203114,203507,0021800727,3,1707,1722,2,0,1610612766
126,1610612766,201587,101107,202687,203087,202689,1610612749,1628425,201572,202339,203114,203507,0021800727,3,1741,1745,0,0,1610612749
127,1610612766,201587,101107,202687,203087,202689,1610612749,1628425,201572,202339,203114,203507,0021800727,3,1763,1763,2,0,1610612766
128,1610612766,201587,101107,202687,203087,202689,1610612749,1628425,201572,202339,203114,203507,0021800727,3,1780,1780,0,2,1610612749
129,1610612766,201587,101107,202687,203087,202689,1610612749,1628425,201572,202339,203114,203507,0021800727,3,1797,1797,3,0,1610612766
130,1610612766,201587,101107,202687,203087,202689,1610612749,1628425,201572,202339,203114,203507,0021800727,3,1799,1815,0,0,1610612749
131,1610612766,201587,101107,202687,203087,202689,1610612749,1628425,201572,202339,203114,203507,0021800727,3,1818,1818,0,0,1610612766
132,1610612766,201587,101107,202687,203087,202689,1610612749,1628425,201572,202339,203114,203507,0021800727,3,1823,1823,0,2,1610612749
133,1610612766,201587,101107,202687,203087,202689,1610612749,1628425,201572,202339,203114,203507,0021800727,3,1843,1843,3,0,1610612766
134,1610612766,201587,101107,202687,203087,202689,1610612749,1628425,201572,202339,203114,203507,0021800727,3,1853,1857,0,0,1610612749
135,1610612766,201587,101107,202687,203087,202689,1610612749,1628425,201572,202339,203114,203507,0021800727,3,1860,1860,2,0,1610612766
136,1610612766,201587,101107,202687,203087,202689,1610612749,1628425,201572,202339,203114,203507,0021800727,3,1879,1879,0,2,1610612749
137,1610612766,201587,101107,202687,203087,202689,1610612749,1628425,201572,202339,203114,203507,0021800727,3,1890,1890,0,0,1610612766
138,1610612766,101107,1628970,201587,202689,203077,1610612749,1628391,1628425,201572,201588,203114,0021800727,3,1909,1914,0,0,1610612749
139,1610612766,101107,1628970,201587,202689,203077,1610612749,1628391,1628425,201572,201588,203114,0021800727,3,1919,1924,2,0,1610612766
140,1610612766,101107,1628970,201587,202689,203077,1610612749,1628391,1628425,201572,201588,203503,0021800727,3,1938,1941,0,0,1610612749
141,1610612766,101107,1628970,201587,202689,203077,1610612749,1628391,1628425,201572,201588,203503,0021800727,3,1949,1949,0,0,1610612766
142,1610612766,101107,1628970,201587,202689,203077,1610612749,1628391,1628425,201572,201588,203503,0021800727,3,1953,1953,0,2,1610612749
143,1610612766,101107,1628970,201587,202689,203077,1610612749,1628391,1628425,201572,201588,203503,0021800727,3,1961,1970,3,0,1610612766
144,1610612766,101107,1628370,1628970,202689,203077,1610612749,101141,1628391,1628425,201588,203503,0021800727,3,1992,1995,0,0,1610612749
145,1610612766,101107,1628370,1628970,202689,203077,1610612749,101141,1628391,1628425,201588,203503,0021800727,3,2009,2009,1,0,1610612766
146,1610612766,101107,1628370,1628970,1628984,203077,1610612749,101141,1628391,1628425,201588,203503,0021800727,3,2021,2025,0,0,1610612749
147,1610612766,101107,1628370,1628970,1628984,203077,1610612749,101141,1628391,1628425,201588,203503,0021800727,3,2035,2051,0,0,1610612766
148,1610612766,101107,1628370,1628970,1628984,203077,1610612749,101141,1628391,1628425,201588,203503,0021800727,3,2065,2065,0,3,1610612749
149,1610612766,1628370,1628970,1628984,201587,203077,1610612749,101141,1628425,201588,203503,203507,0021800727,3,2085,2085,0,0,1610612766
150,1610612766,1628370,1628970,1628984,201587,203077,1610612749,101141,1628425,201588,203503,203507,0021800727,3,2089,2089,0,0,1610612749
151,1610612766,1628370,1628970,1628984,201587,203077,1610612749,101141,1628425,201588,203503,203507,0021800727,3,2091,2091,0,0,1610612766
152,1610612766,1628370,1628970,1628984,201587,203077,1610612749,101141,1628425,201588,203503,203507,0021800727,3,2104,2104,0,0,1610612749
153,1610612766,1628970,1628984,201587,203077,203087,1610612749,101141,1628425,201588,203503,203507,0021800727,3,2122,2122,2,0,1610612766
154,1610612766,1628970,1628984,201587,203077,203087,1610612749,101141,1628425,201588,203503,203507,0021800727,3,2130,2130,0,2,1610612749
155,1610612766,101107,1628970,1628984,201587,203087,1610612749,101141,1626192,1628425,203503,203507,0021800727,3,2147,2147,0,0,1610612766
156,1610612766,101107,1628970,1628984,201587,203087,1610612749,101141,1626192,1628425,203503,203507,0021800727,3,2150,2150,0,0,1610612749
157,1610612766,101107,1628984,201587,202689,203087,1610612749,101141,1626192,1628425,203503,203507,0021800727,3,2159,2160,0,0,1610612766
158,1610612766,203087,203077,1628984,1628970,1626195,1610612749,203507,1627763,1628425,203503,1626192,0021800727,4,2160,2187,0,0,1610612749
159,1610612766,203087,203077,1628984,1628970,1626195,1610612749,203507,1627763,1628425,203503,1626192,0021800727,4,2201,2207,2,0,1610612766
160,1610612766,203087,203077,1628984,1628970,1626195,1610612749,203507,1627763,1628425,203503,1626192,0021800727,4,2218,2218,0,2,1610612749
161,1610612766,203087,203077,1628984,1628970,1626195,1610612749,203507,1627763,1628425,203503,1626192,0021800727,4,2228,2228,0,0,1610612766
162,1610612766,203087,203077,1628984,1628970,1626195,1610612749,203507,1627763,1628425,203503,1626192,0021800727,4,2232,2232,0,2,1610612749
163,1610612766,203087,203077,1628984,1628970,1626195,1610612749,203507,1627763,1628425,203503,1626192,0021800727,4,2232,2254,0,0,1610612766
164,1610612766,1628970,1628984,201587,203077,203087,1610612749,203507,1627763,1628425,203503,1626192,0021800727,4,2266,2269,0,0,1610612749
165,1610612766,1628970,1628984,201587,203077,203087,1610612749,203507,1627763,1628425,203503,1626192,0021800727,4,2276,2276,2,0,1610612766
166,1610612766,1628970,1628984,201587,203077,203087,1610612749,203507,1627763,1628425,203503,1626192,0021800727,4,2286,2286,0,0,1610612749
167,1610612766,1628970,1628984,201587,203077,203087,1610612749,203507,1627763,1628425,203503,1626192,0021800727,4,2294,2299,1,0,1610612766
168,1610612766,1628970,1628984,201587,203077,203087,1610612749,1626192,1627763,202339,203503,203507,0021800727,4,2304,2312,0,2,1610612749
169,1610612766,1628970,1628984,201587,203077,203087,1610612749,1626192,1627763,202339,203114,203507,0021800727,4,2332,2335,0,0,1610612766
170,1610612766,1628970,1628984,201587,203077,203087,1610612749,1626192,1627763,202339,203114,203507,0021800727,4,2340,2347,0,0,1610612749
171,1610612766,1628970,1628984,201587,203077,203087,1610612749,1626192,1627763,202339,203114,203507,0021800727,4,2367,2370,0,0,1610612766
172,1610612766,1628970,1628984,201587,203077,203087,1610612749,1626192,1627763,202339,203114,203507,0021800727,4,2374,2374,0,2,1610612749
173,1610612766,1628970,1628984,201587,202689,203077,1610612749,1626192,1627763,202339,203114,203507,0021800727,4,2387,2390,0,0,1610612766
174,1610612766,1628970,1628984,201587,202689,203077,1610612749,1626192,1627763,202339,203114,203507,0021800727,4,2398,2398,0,3,1610612749
175,1610612766,101107,1628984,201587,202689,203077,1610612749,1626192,1627763,202339,203114,203507,0021800727,4,2424,2424,0,0,1610612766
176,1610612766,101107,1628984,201587,202689,203077,1610612749,1626192,1627763,202339,203114,203507,0021800727,4,2434,2434,0,2,1610612749
177,1610612766,101107,1628984,201587,202689,203077,1610612749,1626192,1627763,202339,203114,203507,0021800727,4,2459,2462,0,0,1610612766
178,1610612766,101107,1628984,201587,202689,203077,1610612749,1626192,1627763,202339,203114,203507,0021800727,4,2471,2471,0,2,1610612749
179,1610612766,101107,1628984,201587,202689,203077,1610612749,1626192,1627763,202339,203114,203507,0021800727,4,2471,2488,2,0,1610612766
180,1610612766,101107,201587,202687,202689,203087,1610612749,1626192,1627763,202339,203114,203507,0021800727,4,2504,2512,0,2,1610612749
181,1610612766,101107,201587,202687,202689,203087,1610612749,1626192,1627763,202339,203114,203507,0021800727,4,2540,2543,0,0,1610612766
182,1610612766,101107,201587,202687,202689,203087,1610612749,1626192,1627763,202339,203114,203507,0021800727,4,2546,2546,0,2,1610612749
183,1610612766,101107,201587,202687,202689,203087,1610612749,1626192,1627763,202339,203114,203507,0021800727,4,2565,2571,2,0,1610612766
184,1610612766,101107,201587,202687,202689,203087,1610612749,1626192,1627763,202339,203114,203507,0021800727,4,2582,2582,0,2,1610612749
185,1610612766,101107,201587,202687,202689,203087,1610612749,1626192,1627763,202339,203114,203507,0021800727,4,2610,2613,0,0,1610612766
186,1610612766,101107,201587,202687,202689,203087,1610612749,1626192,1627763,202339,203114,203507,0021800727,4,2616,2616,0,2,1610612749
187,1610612766,101107,201587,202687,202689,203087,1610612749,1626192,1627763,202339,203114,203507,0021800727,4,2641,2643,0,0,1610612766
188,1610612766,101107,201587,202687,202689,203087,1610612749,1626192,1627763,202339,203114,203507,0021800727,4,2647,2647,0,0,1610612749
189,1610612766,101107,201587,202687,202689,203087,1610612749,1626192,1627763,202339,203114,203507,0021800727,4,2657,2660,0,0,1610612766
190,1610612766,101107,201587,202687,202689,203087,1610612749,1626192,1627763,202339,203114,203507,0021800727,4,2663,2680,0,0,1610612749
191,1610612766,101107,201587,202689,203077,203087,1610612749,1626192,1627763,202339,203114,203507,0021800727,4,2690,2695,0,0,1610612766
192,1610612766,101107,201587,202689,203077,203087,1610612749,1626192,1627763,202339,203114,203507,0021800727,4,2710,2714,0,0,1610612749
193,1610612766,101107,201587,202689,203077,203087,1610612749,1626192,1627763,202339,203114,203507,0021800727,4,2717,2724,0,0,1610612766
194,1610612766,101107,201587,202689,203077,203087,1610612749,1626192,1627763,202339,203114,203507,0021800727,4,2735,2735,0,3,1610612749
195,1610612766,101107,201587,202689,203077,203087,1610612749,1626192,1627763,202339,203114,203507,0021800727,4,2750,2754,0,0,1610612766
196,1610612766,101107,201587,202689,203077,203087,1610612749,1626192,1627763,202339,203114,203507,0021800727,4,2754,2754,0,0,1610612749
197,1610612766,101107,201587,202689,203077,203087,1610612749,1626192,1627763,202339,203114,203507,0021800727,4,2754,2761,2,0,1610612766
198,1610612766,101107,1628984,201587,203077,203087,1610612749,1626192,1627763,202339,203114,203507,0021800727,4,2770,2773,0,0,1610612749
199,1610612766,101107,1628984,201587,203077,203087,1610612749,1626192,1627763,202339,203114,203507,0021800727,4,2789,2792,0,0,1610612766
200,1610612766,101107,1628984,201587,203077,203087,1610612749,1626192,1627763,202339,203114,203507,0021800727,4,2804,2818,0,2,1610612749
201,1610612766,101107,1628984,201587,203077,203087,1610612749,1626192,1627763,202339,203114,203507,0021800727,4,2834,2837,0,0,1610612766
202,1610612766,101107,1628984,201587,203077,203087,1610612749,1626192,1627763,202339,203114,203507,0021800727,4,2847,2847,0,2,1610612749
203,1610612766,101107,1628984,201587,203077,203087,1610612749,1626192,1627763,202339,203114,203507,0021800727,4,2847,2857,1,0,1610612766
204,1610612766,101107,1628970,1628984,201587,203077,1610612749,1627763,201572,202339,203114,203507,0021800727,4,2868,2868,0,2,1610612749
205,1610612766,101107,1628984,201587,203077,203087,1610612749,1627763,1628391,1628425,201572,203503,0021800727,4,2873,2878,0,0,1610612766
