,team1_id,team1_player1,team1_player2,team1_player3,team1_player4,team1_player5,team2_id,team2_player1,team2_player2,team2_player3,team2_player4,team2_player5,game_id,period,possession_start,possession_end,team1_points,team2_points,possession_team
0,1610612747,1629659,2544,203076,202340,201566,1610612738,1628369,1629684,201143,203471,203935,0022100232,1,0,16,2,0,1610612747
1,1610612747,1629659,2544,203076,202340,201566,1610612738,1628369,1629684,201143,203471,203935,0022100232,1,26,26,0,0,1610612738
2,1610612747,1629659,2544,203076,202340,201566,1610612738,1628369,1629684,201143,203471,203935,0022100232,1,30,30,2,0,1610612747
3,1610612747,1629659,2544,203076,202340,201566,1610612738,1628369,1629684,201143,203471,203935,0022100232,1,43,43,0,3,1610612738
4,1610612747,1629659,2544,203076,202340,201566,1610612738,1628369,1629684,201143,203471,203935,0022100232,1,62,63,0,0,1610612747
5,1610612747,1629659,2544,203076,202340,201566,1610612738,1628369,1629684,201143,203471,203935,0022100232,1,79,79,0,2,1610612738
6,1610612747,1629659,2544,203076,202340,201566,1610612738,1628369,1629684,201143,203471,203935,0022100232,1,91,91,2,0,1610612747
7,1610612747,1629659,2544,203076,202340,201566,1610612738,1628369,1629684,201143,203471,203935,0022100232,1,104,106,0,0,1610612738
8,1610612747,1629659,2544,203076,202340,201566,1610612738,1628369,1629684,201143,203471,203935,0022100232,1,110,110,3,0,1610612747
9,1610612747,1629659,2544,203076,202340,201566,1610612738,1628369,1629684,201143,203471,203935,0022100232,1,135,141,0,0,1610612738
10,1610612747,1629659,2544,203076,202340,201566,1610612738,1628369,1629684,201143,203471,203935,0022100232,1,151,151,2,0,1610612747
11,1610612747,1629659,2544,203076,202340,201566,1610612738,1628369,1629684,201143,203471,203935,0022100232,1,152,167,0,2,1610612738
12,1610612747,1629659,2544,203076,202340,201566,1610612738,1628369,1629684,201143,203471,203935,0022100232,1,184,184,0,0,1610612747
13,1610612747,1629659,2544,203076,202340,201566,1610612738,1628369,1629684,201143,203471,203935,0022100232,1,189,194,0,0,1610612738
14,1610612747,1629659,2544,203076,202340,201566,1610612738,1628369,1629684,201143,203471,203935,0022100232,1,198,200,1,0,1610612747
15,1610612747,1629659,2544,203076,202340,201566,1610612738,1628369,1629684,201143,203471,203935,0022100232,1,219,219,0,0,1610612738
16,1610612747,1629659,2544,203076,202340,201566,1610612738,1628369,1629684,201143,203471,203935,0022100232,1,223,223,1,0,1610612747
17,1610612747,1629659,2544,203076,202340,201566,1610612738,1628369,1629684,201143,203471,203935,0022100232,1,245,246,0,0,1610612738
18,1610612747,1629659,2544,203076,202340,201566,1610612738,1628369,1629684,201143,203471,203935,0022100232,1,253,270,0,0,1610612747
19,1610612747,1629659,2544,203076,202340,201566,1610612738,1628369,1629684,201143,203471,203935,0022100232,1,278,278,0,2,1610612738
20,1610612747,1629659,2544,203076,202340,201566,1610612738,1628369,1629684,201143,203471,203935,0022100232,1,287,287,3,0,1610612747
21,1610612747,1629659,2544,203076,202340,201566,1610612738,1628369,1629684,201143,203471,203935,0022100232,1,301,302,0,0,1610612738
22,1610612747,1629659,2544,203076,202340,201566,1610612738,1628369,1629684,201143,203471,203935,0022100232,1,309,309,2,0,1610612747
23,1610612747,1629659,2544,203076,202340,201566,1610612738,1628369,1629684,201143,203471,203935,0022100232,1,309,336,0,0,1610612738
24,1610612747,1629659,2544,203076,202340,201566,1610612738,1628369,1629684,201143,203471,203935,0022100232,1,336,347,2,0,1610612747
25,1610612747,1629659,2544,203076,202340,201566,1610612738,1626196,1629641,1629684,201143,203471,0022100232,1,358,358,0,3,1610612738
26,1610612747,1629659,2544,203076,202340,201566,1610612738,1626196,1629641,1629684,201143,203471,0022100232,1,373,373,2,0,1610612747
27,1610612747,1629659,2544,203076,202340,201566,1610612738,1626196,1629641,1629684,201143,203471,0022100232,1,386,386,0,0,1610612738
28,1610612747,1629659,2544,203076,202340,201566,1610612738,1626196,1629641,1629684,1630202,201143,0022100232,1,399,399,2,0,1610612747
29,1610612747,1629659,2544,203076,202340,201566,1610612738,1626196,1629641,1629684,1630202,201143,0022100232,1,416,419,0,2,1610612738
30,1610612747,1628370,201566,202340,203076,2546,1610612738,1626196,1629641,1629684,1630202,202683,0022100232,1,433,435,0,0,1610612747
31,1610612747,1628370,201566,202340,203076,2546,1610612738,1626196,1629641,1629684,1630202,202683,0022100232,1,435,435,0,0,1610612738
32,1610612747,1628370,201566,202340,203076,2546,1610612738,1626196,1629641,1629684,1630202,202683,0022100232,1,439,439,2,0,1610612747
33,1610612747,1628370,201566,202340,203076,2546,1610612738,1626196,1629641,1629684,1630202,202683,0022100232,1,452,452,0,0,1610612738
34,1610612747,1628370,201566,202340,203076,2546,1610612738,1626196,1629641,1629684,1630202,202683,0022100232,1,463,467,0,0,1610612747
35,1610612747,1628370,201566,202340,203076,2546,1610612738,1626196,1629641,1629684,1630202,202683,0022100232,1,480,486,0,2,1610612738
36,1610612747,1628370,200765,201961,203076,2546,1610612738,1626196,1629641,1630202,202683,203935,0022100232,1,505,505,2,0,1610612747
37,1610612747,1628370,200765,201961,203076,2546,1610612738,1626196,1629641,1630202,202683,203935,0022100232,1,517,517,0,2,1610612738
38,1610612747,1628370,200765,201961,203076,2546,1610612738,1626196,1629641,1630202,202683,203935,0022100232,1,533,533,2,0,1610612747
39,1610612747,1628370,200765,201961,203076,2546,1610612738,1626196,1629641,1630202,202683,203935,0022100232,1,542,544,0,0,1610612738
40,1610612747,1628370,200765,201961,203076,2546,1610612738,1626196,1629641,1630202,202683,203935,0022100232,1,554,554,2,0,1610612747
41,1610612747,1628370,200765,201961,203076,2546,1610612738,1626196,1629641,1630202,202683,203935,0022100232,1,560,568,0,4,1610612738
42,1610612747,1628370,200765,201961,203076,2546,1610612738,1626196,1629641,1630202,202683,203935,0022100232,1,586,586,0,0,1610612747
43,1610612747,1628370,200765,201961,203076,2546,1610612738,1626196,1629641,1630202,202683,203935,0022100232,1,596,596,0,3,1610612738
44,1610612747,1628370,200765,201961,203076,2546,1610612738,1626196,1629641,1630202,202683,203935,0022100232,1,604,624,0,0,1610612747
45,1610612747,1628370,200765,203076,2544,2546,1610612738,1626196,1629641,1630202,202683,203935,0022100232,1,624,624,0,2,1610612738
46,1610612747,1628370,200765,203076,2544,2546,1610612738,1626196,1629641,1630202,202683,203935,0022100232,1,638,638,3,0,1610612747
47,1610612747,1628370,200765,203076,2544,2546,1610612738,1626196,1629641,1630202,202683,203935,0022100232,1,656,657,0,0,1610612738
48,1610612747,1628370,200765,203076,2544,2546,1610612738,1626196,1629641,1630202,202683,203935,0022100232,1,676,676,3,0,1610612747
49,1610612747,1628370,200765,203076,2544,2546,1610612738,1626196,1629641,1630202,202683,203935,0022100232,1,684,684,0,3,1610612738
50,1610612747,1628370,200765,203076,2544,2546,1610612738,1626196,1629641,1630202,202683,203935,0022100232,1,696,699,0,0,1610612747
51,1610612747,1628370,200765,203076,2544,2546,1610612738,1626196,1629641,1630202,202683,203935,0022100232,1,718,718,0,0,1610612738
52,1610612747,1628370,200765,203076,2544,2546,1610612738,1626196,1629641,1630202,202683,203935,0022100232,1,720,720,0,0,1610612738
53,1610612747,2544,201566,2546,1628370,2730,1610612738,1628369,203471,1629641,1626196,202683,0022100232,2,720,738,0,2,1610612738
54,1610612747,2544,201566,2546,1628370,2730,1610612738,1628369,203471,1629641,1626196,202683,0022100232,2,761,761,2,0,1610612747
55,1610612747,2544,201566,2546,1628370,2730,1610612738,1628369,203471,1629641,1626196,202683,0022100232,2,777,779,0,0,1610612738
56,1610612747,2544,201566,2546,1628370,2730,1610612738,1628369,203471,1629641,1626196,202683,0022100232,2,788,790,0,0,1610612747
57,1610612747,2544,201566,2546,1628370,2730,1610612738,1628369,203471,1629641,1626196,202683,0022100232,2,801,807,0,0,1610612738
58,1610612747,2544,201566,2546,1628370,2730,1610612738,1628369,203471,1629641,1626196,202683,0022100232,2,816,818,0,0,1610612747
59,1610612747,2544,201566,2546,1628370,2730,1610612738,1628369,203471,1629641,1626196,202683,0022100232,2,827,827,0,3,1610612738
60,1610612747,2544,201566,2546,1628370,2730,1610612738,1628369,203471,1629641,1626196,202683,0022100232,2,847,847,2,0,1610612747
61,1610612747,1629659,201566,2544,2546,2730,1610612738,1628369,203471,1629641,1626196,202683,0022100232,2,861,861,0,2,1610612738
62,1610612747,1629659,201566,202340,2544,2730,1610612738,1628369,203471,1629641,1626196,202683,0022100232,2,878,878,0,0,1610612747
63,1610612747,1629659,201566,202340,2544,2730,1610612738,1628369,203471,1629641,1626196,202683,0022100232,2,901,901,0,2,1610612738
64,1610612747,1629659,201566,202340,2544,2730,1610612738,1628369,203471,1629641,1626196,202683,0022100232,2,903,923,2,0,1610612747
65,1610612747,1629659,201566,202340,2544,2730,1610612738,1626196,1628369,1629684,202683,203471,0022100232,2,941,941,0,2,1610612738
66,1610612747,1629659,201566,202340,2546,2730,1610612738,1626196,1628369,1629684,202683,203471,0022100232,2,943,943,0,0,1610612747
67,1610612747,1629659,201566,202340,2546,2730,1610612738,1626196,1628369,1629684,202683,203471,0022100232,2,959,962,0,0,1610612738
68,1610612747,1629659,201566,202340,2546,2730,1610612738,1626196,1628369,1629684,202683,203471,0022100232,2,981,982,2,0,1610612747
69,1610612747,1629659,201566,202340,2546,2730,1610612738,1626196,1628369,1629684,202683,203471,0022100232,2,996,996,0,2,1610612738
70,1610612747,1629659,201566,202340,2546,2730,1610612738,1626196,1628369,1629684,202683,203471,0022100232,2,1015,1017,0,0,1610612747
71,1610612747,1629659,201566,202340,2546,2730,1610612738,1626196,1628369,1629684,202683,203471,0022100232,2,1026,1026,0,2,1610612738
72,1610612747,1629659,201566,202340,2546,2730,1610612738,1626196,1628369,1629684,202683,203471,0022100232,2,1026,1057,2,0,1610612747
73,1610612747,1629659,201566,202340,203076,2546,1610612738,1626196,1628369,1629684,201143,203471,0022100232,2,1075,1075,0,2,1610612738
74,1610612747,1629659,201566,202340,203076,2546,1610612738,1626196,1628369,1629684,201143,203471,0022100232,2,1094,1096,0,0,1610612747
75,1610612747,1629659,201566,202340,203076,2546,1610612738,1626196,1628369,1629684,201143,203471,0022100232,2,1115,1117,0,0,1610612738
76,1610612747,1629659,201566,202340,203076,2546,1610612738,1626196,1628369,1629684,201143,203471,0022100232,2,1141,1143,0,0,1610612747
77,1610612747,1629659,201566,202340,203076,2546,1610612738,1626196,1628369,1629684,201143,203471,0022100232,2,1151,1161,0,2,1610612738
78,1610612747,1628370,1629659,203076,2544,2546,1610612738,1628369,1629684,201143,203471,203935,0022100232,2,1176,1176,0,0,1610612747
79,1610612747,1628370,1629659,203076,2544,2546,1610612738,1628369,1629684,201143,203471,203935,0022100232,2,1182,1182,0,2,1610612738
80,1610612747,1628370,1629659,203076,2544,2546,1610612738,1628369,1629684,201143,203471,203935,0022100232,2,1195,1197,0,0,1610612747
81,1610612747,1628370,1629659,203076,2544,2546,1610612738,1628369,1629684,201143,203471,203935,0022100232,2,1201,1203,0,0,1610612738
82,1610612747,1628370,1629659,203076,2544,2546,1610612738,1628369,1629684,201143,203471,203935,0022100232,2,1206,1206,3,0,1610612747
83,1610612747,1628370,1629659,203076,2544,2546,1610612738,1628369,1629684,201143,203471,203935,0022100232,2,1222,1222,0,3,1610612738
84,1610612747,1628370,1629659,203076,2544,2546,1610612738,1628369,1629684,201143,203471,203935,0022100232,2,1232,1247,0,0,1610612747
85,1610612747,1628370,1629659,203076,2544,2546,1610612738,1628369,1629684,201143,203471,203935,0022100232,2,1257,1257,0,0,1610612738
86,1610612747,1628370,1629659,203076,2544,2546,1610612738,1628369,1629684,201143,203471,203935,0022100232,2,1271,1278,3,0,1610612747
87,1610612747,1628370,1629659,203076,2544,2546,1610612738,1628369,1629684,201143,203471,203935,0022100232,2,1300,1302,0,0,1610612738
88,1610612747,1628370,1629659,203076,2544,2546,1610612738,1628369,1629684,201143,203471,203935,0022100232,2,1305,1305,2,0,1610612747
89,1610612747,1628370,1629659,203076,2544,2546,1610612738,1628369,1629684,201143,203471,203935,0022100232,2,1308,1323,0,2,1610612738
90,1610612747,1628370,201566,203076,2544,2546,1610612738,1628369,1629684,201143,203471,203935,0022100232,2,1338,1338,2,0,1610612747
91,1610612747,1628370,201566,203076,2544,2546,1610612738,1628369,1629684,201143,203471,203935,0022100232,2,1351,1356,0,0,1610612738
92,1610612747,1628370,201566,203076,2544,2546,1610612738,1628369,1629684,201143,203471,203935,0022100232,2,1359,1359,0,0,1610612747
93,1610612747,1628370,201566,203076,2544,2546,1610612738,1628369,1629684,201143,203471,203935,0022100232,2,1361,1361,0,2,1610612738
94,1610612747,1628370,201566,203076,2544,2546,1610612738,1628369,1629684,201143,203471,203935,0022100232,2,1363,1373,1,0,1610612747
95,1610612747,1628370,201566,203076,2544,2546,1610612738,1628369,1629684,201143,203471,203935,0022100232,2,1382,1382,0,2,1610612738
96,1610612747,1628370,201566,203076,2544,2546,1610612738,1628369,1629684,201143,203471,203935,0022100232,2,1394,1396,0,0,1610612747
97,1610612747,1628370,201566,203076,2544,2546,1610612738,1628369,1629684,201143,203471,203935,0022100232,2,1405,1423,0,0,1610612738
98,1610612747,1628370,201566,203076,2544,2546,1610612738,1628369,1629684,201143,203471,203935,0022100232,2,1424,1437,2,0,1610612747
99,1610612747,201566,202340,203076,2544,2546,1610612738,1628369,1629684,201143,203471,203935,0022100232,2,1440,1440,0,0,1610612747
100,1610612747,1629659,2544,203076,202340,201566,1610612738,1628369,1629684,201143,203471,203935,0022100232,3,1440,1464,0,0,1610612738
101,1610612747,1629659,2544,203076,202340,201566,1610612738,1628369,1629684,201143,203471,203935,0022100232,3,1479,1481,0,0,1610612747
102,1610612747,1629659,2544,203076,202340,201566,1610612738,1628369,1629684,201143,203471,203935,0022100232,3,1503,1503,0,3,1610612738
103,1610612747,1629659,2544,203076,202340,201566,1610612738,1628369,1629684,201143,203471,203935,0022100232,3,1526,1528,0,0,1610612747
104,1610612747,1629659,2544,203076,202340,201566,1610612738,1628369,1629684,201143,203471,203935,0022100232,3,1538,1538,0,2,1610612738
105,1610612747,1629659,2544,203076,202340,201566,1610612738,1628369,1629684,201143,203471,203935,0022100232,3,1547,1547,0,0,1610612747
106,1610612747,1629659,2544,203076,202340,201566,1610612738,1628369,1629684,201143,203471,203935,0022100232,3,1557,1557,0,3,1610612738
107,1610612747,1629659,2544,203076,202340,201566,1610612738,1628369,1629684,201143,203471,203935,0022100232,3,1559,1576,2,0,1610612747
108,1610612747,1629659,2544,203076,202340,201566,1610612738,1628369,1629684,201143,203471,203935,0022100232,3,1590,1590,0,2,1610612738
109,1610612747,1629659,2544,203076,202340,201566,1610612738,1628369,1629684,201143,203471,203935,0022100232,3,1610,1610,2,0,1610612747
110,1610612747,1629659,2544,203076,202340,201566,1610612738,1628369,1629684,201143,203471,203935,0022100232,3,1624,1624,0,2,1610612738
111,1610612747,1629659,2544,203076,202340,201566,1610612738,1628369,1629684,201143,203471,203935,0022100232,3,1633,1635,0,0,1610612747
112,1610612747,1629659,2544,203076,202340,201566,1610612738,1628369,1629684,201143,203471,203935,0022100232,3,1643,1643,0,2,1610612738
113,1610612747,1629659,2544,203076,202340,201566,1610612738,1628369,1629684,201143,203471,203935,0022100232,3,1653,1655,0,0,1610612747
114,1610612747,1629659,2544,203076,202340,201566,1610612738,1628369,1629684,201143,203471,203935,0022100232,3,1661,1671,0,0,1610612738
115,1610612747,1629659,2544,203076,202340,201566,1610612738,1628369,1629684,201143,203471,203935,0022100232,3,1679,1679,3,0,1610612747
116,1610612747,1629659,2544,203076,202340,201566,1610612738,1628369,1629684,201143,203471,203935,0022100232,3,1703,1703,0,2,1610612738
117,1610612747,1629659,2544,203076,202340,201566,1610612738,1628369,1629684,201143,203471,203935,0022100232,3,1725,1725,3,0,1610612747
118,1610612747,1629659,2544,203076,202340,201566,1610612738,1628369,1629684,201143,203471,203935,0022100232,3,1735,1735,0,2,1610612738
119,1610612747,1629659,2544,203076,202340,201566,1610612738,1628369,1629684,201143,203471,203935,0022100232,3,1749,1756,0,0,1610612747
120,1610612747,1629659,2544,203076,202340,201566,1610612738,1628369,1629684,201143,203471,203935,0022100232,3,1760,1762,0,0,1610612738
121,1610612747,1629659,2544,203076,202340,201566,1610612738,1628369,1629684,201143,203471,203935,0022100232,3,1782,1782,2,0,1610612747
122,1610612747,1629659,2544,203076,202340,201566,1610612738,1628369,1629684,201143,203471,203935,0022100232,3,1807,1807,0,2,1610612738
123,1610612747,1629659,2544,203076,202340,201566,1610612738,1628369,1629684,201143,203471,203935,0022100232,3,1823,1823,2,0,1610612747
124,1610612747,1628370,201566,202340,203076,2546,1610612738,1626196,1629641,1629684,202683,203471,0022100232,3,1842,1842,0,3,1610612738
125,1610612747,1628370,201566,202340,203076,2546,1610612738,1626196,1629641,1629684,202683,203471,0022100232,3,1856,1858,0,0,1610612747
126,1610612747,1628370,201566,202340,203076,2546,1610612738,1626196,1629641,1629684,202683,203471,0022100232,3,1876,1878,0,2,1610612738
127,1610612747,1628370,201566,202340,203076,2546,1610612738,1626196,1629641,1629684,202683,203471,0022100232,3,1890,1890,0,0,1610612747
128,1610612747,1628370,201566,202340,203076,2546,1610612738,1626196,1629641,1629684,202683,203471,0022100232,3,1904,1904,0,0,1610612738
129,1610612747,1628370,201566,202340,203076,2546,1610612738,1626196,1629641,1629684,202683,203471,0022100232,3,1910,1910,0,0,1610612747
130,1610612747,1628370,201566,202340,203076,2546,1610612738,1626196,1629641,1629684,202683,203471,0022100232,3,1922,1922,0,2,1610612738
131,1610612747,1628370,201566,202340,203076,2546,1610612738,1626196,1629641,1629684,202683,203471,0022100232,3,1932,1935,0,0,1610612747
132,1610612747,1628370,201566,202340,203076,2546,1610612738,1626196,1629641,1629684,202683,203471,0022100232,3,1959,1970,0,0,1610612738
133,1610612747,1628370,1629659,203076,2544,2546,1610612738,1626196,1629641,1629684,201143,203471,0022100232,3,1985,1985,0,0,1610612747
134,1610612747,1628370,1629659,203076,2544,2546,1610612738,1626196,1629641,1629684,201143,203471,0022100232,3,1985,1996,0,2,1610612738
135,1610612747,1628370,201961,203076,2544,2546,1610612738,1626196,1629641,1629684,201143,203471,0022100232,3,2017,2017,2,0,1610612747
136,1610612747,1628370,201961,203076,2544,2546,1610612738,1626196,1629641,1629684,201143,203471,0022100232,3,2038,2041,0,0,1610612738
137,1610612747,1628370,201961,203076,2544,2546,1610612738,1626196,1629641,1629684,201143,203471,0022100232,3,2060,2060,3,0,1610612747
138,1610612747,1628370,201961,203076,2544,2546,1610612738,1626196,1629641,1629684,201143,203471,0022100232,3,2068,2077,0,2,1610612738
139,1610612747,1628370,201961,203076,2544,2546,1610612738,1626196,1628369,1629641,201143,203471,0022100232,3,2088,2089,0,0,1610612747
140,1610612747,1628370,201961,203076,2544,2546,1610612738,1626196,1628369,1629641,201143,203471,0022100232,3,2105,2107,0,0,1610612738
141,1610612747,1628370,201961,203076,2544,2546,1610612738,1626196,1628369,1629641,201143,203471,0022100232,3,2118,2121,2,0,1610612747
142,1610612747,1628370,201961,203076,2544,2546,1610612738,1626196,1628369,1629641,201143,203471,0022100232,3,2126,2126,0,2,1610612738
143,1610612747,1628370,201961,203076,2544,2546,1610612738,1626196,1629641,201143,203471,203935,0022100232,3,2149,2149,0,0,1610612747
144,1610612747,1628370,201961,203076,2544,2546,1610612738,1626196,1629641,201143,203471,203935,0022100232,3,2157,2160,0,0,1610612747
145,1610612747,2544,201566,2546,1628370,201961,1610612738,1628369,201143,203935,1629641,1626196,0022100232,4,2160,2169,2,0,1610612747
146,1610612747,2544,201566,2546,1628370,201961,1610612738,1628369,201143,203935,1629641,1626196,0022100232,4,2188,2189,0,2,1610612738
147,1610612747,2544,201566,2546,1628370,201961,1610612738,1628369,201143,203935,1629641,1626196,0022100232,4,2198,2198,3,0,1610612747
148,1610612747,2544,201566,2546,1628370,201961,1610612738,1628369,201143,203935,1629641,1626196,0022100232,4,2219,2219,0,2,1610612738
149,1610612747,2544,201566,2546,1628370,201961,1610612738,1628369,201143,203935,1629641,1626196,0022100232,4,2230,2232,2,0,1610612747
150,1610612747,2544,201566,2546,1628370,201961,1610612738,1628369,201143,203935,1629641,1626196,0022100232,4,2248,2248,0,2,1610612738
151,1610612747,2544,201566,2546,1628370,201961,1610612738,1628369,201143,203935,1629641,1626196,0022100232,4,2256,2256,2,0,1610612747
152,1610612747,2544,201566,2546,1628370,201961,1610612738,1628369,201143,203935,1629641,1626196,0022100232,4,2272,2272,0,2,1610612738
153,1610612747,1628370,201566,201961,203076,2546,1610612738,1628369,201143,203935,1629641,1626196,0022100232,4,2287,2289,0,0,1610612747
154,1610612747,1628370,201566,201961,203076,2546,1610612738,1628369,201143,203935,1629641,1626196,0022100232,4,2297,2301,0,0,1610612738
155,1610612747,1628370,201566,201961,203076,2546,1610612738,1628369,201143,203935,1629641,1626196,0022100232,4,2312,2312,1,0,1610612747
156,1610612747,1628370,1629659,201566,203076,2546,1610612738,1628369,201143,203935,1629641,1626196,0022100232,4,2335,2337,0,2,1610612738
157,1610612747,1628370,1629659,201566,203076,2546,1610612738,1628369,201143,203935,1629641,1626196,0022100232,4,2347,2350,0,0,1610612747
158,1610612747,1628370,1629659,201566,203076,2546,1610612738,1628369,201143,203935,1629641,1626196,0022100232,4,2356,2356,0,0,1610612738
159,1610612747,1628370,1629659,201566,203076,2546,1610612738,1628369,201143,203935,1629641,1626196,0022100232,4,2372,2378,2,0,1610612747
160,1610612747,1628370,1629659,201566,203076,2546,1610612738,1628369,201143,203935,1629641,1626196,0022100232,4,2389,2392,0,0,1610612738
161,1610612747,1628370,1629659,201566,203076,2546,1610612738,1628369,201143,203935,1629641,1626196,0022100232,4,2405,2421,0,0,1610612747
162,1610612747,1628370,1629659,201566,203076,2546,1610612738,1628369,201143,203935,1629641,1626196,0022100232,4,2424,2424,0,2,1610612738
163,1610612747,1628370,1629659,201566,203076,2546,1610612738,1628369,201143,203935,1629641,1626196,0022100232,4,2433,2435,0,0,1610612747
164,1610612747,1628370,1629659,201566,203076,2546,1610612738,1628369,201143,203935,1629641,1626196,0022100232,4,2440,2440,0,1,1610612738
165,1610612747,1628370,1629659,201566,203076,2544,1610612738,1628369,201143,203935,1629641,1626196,0022100232,4,2450,2452,0,0,1610612747
166,1610612747,1628370,1629659,201566,203076,2544,1610612738,1628369,201143,203935,1629641,1626196,0022100232,4,2461,2461,0,3,1610612738
167,1610612747,1628370,1629659,201566,203076,2544,1610612738,1628369,201143,203935,1629641,1626196,0022100232,4,2470,2472,0,0,1610612747
168,1610612747,1628370,1629659,201566,203076,2544,1610612738,1628369,201143,203935,1629641,1626196,0022100232,4,2487,2487,0,1,1610612738
169,1610612747,1628370,1629659,200765,203076,2544,1610612738,1626196,1628369,201143,203471,203935,0022100232,4,2499,2499,2,0,1610612747
170,1610612747,1628370,1629659,200765,203076,2544,1610612738,1626196,1628369,201143,203471,203935,0022100232,4,2512,2515,0,2,1610612738
171,1610612747,1628370,1629659,200765,203076,2544,1610612738,1626196,1628369,201143,203471,203935,0022100232,4,2520,2520,3,0,1610612747
172,1610612747,1628370,1629659,200765,203076,2544,1610612738,1626196,1628369,201143,203471,203935,0022100232,4,2546,2547,0,1,1610612738
173,1610612747,1628370,1629659,200765,203076,2544,1610612738,1626196,1628369,201143,203471,203935,0022100232,4,2556,2559,0,0,1610612747
174,1610612747,1628370,1629659,200765,203076,2544,1610612738,1626196,1628369,201143,203471,203935,0022100232,4,2577,2577,0,3,1610612738
175,1610612747,1628370,1629659,200765,203076,2544,1610612738,1626196,1628369,201143,203471,203935,0022100232,4,2578,2588,1,0,1610612747
176,1610612747,1628370,1629659,200765,203076,2544,1610612738,1626196,1628369,201143,203471,203935,0022100232,4,2591,2591,0,2,1610612738
177,1610612747,1628370,1629659,200765,203076,2544,1610612738,1626196,1628369,201143,203471,203935,0022100232,4,2598,2600,0,0,1610612747
178,1610612747,1628370,1629659,200765,203076,2544,1610612738,1626196,1628369,201143,203471,203935,0022100232,4,2613,2614,0,2,1610612738
179,1610612747,200765,201961,202340,203145,2730,1610612738,1626196,1628369,201143,203471,203935,0022100232,4,2625,2627,0,0,1610612747
180,1610612747,200765,201961,202340,203145,2730,1610612738,1626196,1628369,201143,203471,203935,0022100232,4,2642,2642,0,2,1610612738
181,1610612747,200765,201961,202340,203145,2730,1610612738,1626196,1628369,201143,203471,203935,0022100232,4,2655,2655,3,0,1610612747
182,1610612747,200765,201961,202340,203145,2730,1610612738,1626196,1627823,1630174,202683,203471,0022100232,4,2676,2679,0,0,1610612738
183,1610612747,200765,201961,202340,203145,2730,1610612738,1626196,1627823,1630174,202683,203471,0022100232,4,2687,2690,0,0,1610612747
184,1610612747,200765,201961,202340,203145,2730,1610612738,1626196,1627823,1630174,202683,203471,0022100232,4,2701,2701,0,0,1610612738
185,1610612747,200765,201961,202340,203145,2730,1610612738,1626196,1627823,1630174,1630202,202683,0022100232,4,2714,2716,0,0,1610612747
186,1610612747,200765,201961,202340,203145,2730,1610612738,1626196,1627823,1630174,1630202,202683,0022100232,4,2728,2728,0,3,1610612738
187,1610612747,200765,201961,202340,203145,2730,1610612738,1626196,1627823,1630174,1630202,202683,0022100232,4,2745,2747,0,0,1610612747
188,1610612747,200765,201961,202340,203145,2730,1610612738,1626196,1627823,1630174,1630202,202683,0022100232,4,2762,2764,0,0,1610612738
189,1610612747,200765,201961,202340,203145,2730,1610612738,1626196,1627823,1630174,1630202,202683,0022100232,4,2770,2772,0,0,1610612747
190,1610612747,200765,201961,202340,203145,2730,1610612738,1626196,1627823,1630174,1630202,202683,0022100232,4,2784,2784,0,0,1610612738
191,1610612747,200765,201961,202340,203145,2730,1610612738,1627823,1629641,1630174,1630202,202683,0022100232,4,2796,2796,2,0,1610612747
192,1610612747,200765,201961,202340,203145,2730,1610612738,1627823,1629641,1630174,1630202,202683,0022100232,4,2818,2818,0,2,1610612738
193,1610612747,200765,201961,202340,203145,2730,1610612738,1627823,1629641,1630174,1630202,202683,0022100232,4,2828,2830,0,0,1610612747
194,1610612747,200765,201961,202340,203145,2730,1610612738,1627823,1629641,1630174,1630202,202683,0022100232,4,2840,2840,0,3,1610612738
195,1610612747,200765,201961,202340,203145,2730,1610612738,1627823,1629641,1630174,1630202,202683,0022100232,4,2847,2847,3,0,1610612747
196,1610612747,200765,201961,202340,203145,2730,1610612738,1627823,1629641,1630174,1630202,202683,0022100232,4,2865,2876,0,0,1610612738
197,1610612747,200765,201961,202340,203145,2730,1610612738,1627823,1629641,1630174,1630202,202683,0022100232,4,2879,2879,0,0,1610612747
