,t1_points_scored,stint_end,stint_start,t1_id,t1_players,t2_players,t2_id,t2_points_scored,t2_pm,t1_pm,margin_per_100,num_poss
0,12,378,0,1610612743,"[203085, 1629626, 1630192, 203115, 1630267]","[1630581, 1630598, 203488, 1630544, 1630177]",1610612760,15,3,-3,-13.043478260869565,23.0
1,12,401,379,1610612743,"[203085, 1629626, 1630192, 203115, 1630267]","[1630581, 1630598, 203488, 1630544, 1630177]",1610612760,15,3,-3,-12.5,24.0
2,14,431,402,1610612743,"[1629626, 1630267, 1630538, 203085, 203115]","[1630581, 1630598, 203488, 1630544, 1630177]",1610612760,17,3,-3,-11.11111111111111,27.0
3,14,465,432,1610612743,"[1629626, 1630267, 1630538, 203085, 203115]","[1629660, 1630177, 1630581, 1630598, 203488]",1610612760,20,6,-6,-20.689655172413794,29.0
4,17,516,466,1610612743,"[1629626, 1630267, 1630538, 203085, 203115]","[1628778, 1629660, 1630177, 1630598, 203488]",1610612760,23,6,-6,-18.181818181818183,33.0
5,20,566,517,1610612743,"[1628427, 1630267, 1630538, 203085, 203115]","[1628778, 1629660, 1629676, 1630177, 1630598]",1610612760,25,5,-5,-14.285714285714285,35.0
6,20,595,567,1610612743,"[1628427, 1630210, 1630267, 1630538, 203115]","[1628778, 1629660, 1629676, 1630197, 1630598]",1610612760,28,8,-8,-21.62162162162162,37.0
7,26,716,596,1610612743,"[1628427, 1630210, 1630538, 203115, 204028]","[1628778, 1629660, 1629676, 1630197, 1630598]",1610612760,30,4,-4,-9.30232558139535,43.0
8,29,791,717,1610612743,"[1628427, 1628432, 1630210, 1630538, 204028]","[1628778, 1629660, 1629676, 1630197, 1630526]",1610612760,30,1,-1,-2.1739130434782608,46.0
9,40,1035,792,1610612743,"[1630538, 1628427, 1630210, 204028, 1628432]","[1630581, 1629660, 1629676, 1630197, 1630526]",1610612760,38,-2,2,3.225806451612903,62.0
10,40,1036,1036,1610612743,"[1630538, 1628427, 1630210, 204028, 1628432]","[1628778, 1629660, 1630197, 1630526, 1630581]",1610612760,38,-2,2,3.1746031746031744,63.0
11,45,1173,1037,1610612743,"[1628427, 1628432, 203085, 203115, 204028]","[1630177, 1630197, 1630544, 1630598, 203488]",1610612760,43,-2,2,2.857142857142857,70.0
12,49,1300,1174,1610612743,"[1628427, 1630192, 1630267, 203085, 203115]","[1630177, 1630197, 1630544, 1630598, 203488]",1610612760,45,-4,4,5.063291139240507,79.0
13,52,1402,1301,1610612743,"[1629626, 1630192, 1630267, 203085, 203115]","[1630177, 1630197, 1630544, 1630598, 203488]",1610612760,49,-3,3,3.488372093023256,86.0
14,54,1427,1403,1610612743,"[1629626, 1630192, 1630267, 203085, 203115]","[1630197, 1630544, 1630581, 1630598, 203488]",1610612760,49,-5,5,5.747126436781609,87.0
15,63,1742,1428,1610612743,"[1629626, 1630192, 1630267, 203085, 203115]","[1630197, 1630526, 1630581, 1630598, 203488]",1610612760,66,3,-3,-2.803738317757009,107.0
16,67,1843,1743,1610612743,"[1629626, 1630192, 1630267, 1630538, 1628427]","[1630581, 1630598, 203488, 1630177, 1630466]",1610612760,70,3,-3,-2.631578947368421,114.0
17,67,1925,1844,1610612743,"[1628427, 1628432, 1629626, 1630192, 1630267]","[1630581, 1630598, 203488, 1630177, 1630466]",1610612760,74,7,-7,-5.88235294117647,119.0
18,70,1978,1926,1610612743,"[1628427, 1628432, 1630192, 1630210, 204028]","[1630177, 1630197, 1630581, 1630598, 203488]",1610612760,76,6,-6,-4.878048780487805,123.0
19,77,2157,1979,1610612743,"[1627822, 1628427, 1628432, 1630210, 204028]","[1628778, 1629660, 1630197, 1630598, 203488]",1610612760,83,6,-6,-4.444444444444445,135.0
20,87,2360,2158,1610612743,"[1627822, 1628432, 1630210, 1630538, 204028]","[1628778, 1629660, 1630197, 1630526, 1630598]",1610612760,88,1,-1,-0.6711409395973155,149.0
21,89,2381,2361,1610612743,"[1630538, 1630210, 204028, 1628432, 1627822]","[1630581, 1629660, 1630197, 1630526, 1630466]",1610612760,88,-1,1,0.6666666666666667,150.0
22,89,2479,2382,1610612743,"[1628427, 1628432, 1630210, 1630538, 204028]","[1630177, 1630197, 1630466, 1630526, 1630581]",1610612760,90,1,-1,-0.641025641025641,156.0
23,91,2571,2480,1610612743,"[1628427, 1628432, 1630192, 1630210, 1630538]","[1630177, 1630197, 1630466, 1630526, 1630581]",1610612760,95,4,-4,-2.4539877300613497,163.0
24,102,2878,2572,1610612743,"[1628427, 1629626, 1630192, 1630210, 1630538]","[1628391, 1630177, 1630197, 1630466, 1630598]",1610612760,102,0,0,0.0,182.0
25,113,3177,2879,1610612743,"[1628427, 1629626, 1630192, 1630210, 1630538]","[1628391, 1629660, 1630197, 1630466, 1630598]",1610612760,107,-6,6,2.9702970297029703,202.0
26,113,9999999,3178,1610612743,"[1629626, 1630192, 1630538, 1628427, 1630210]","[1630598, 1629660, 1630197, 1630466, 1628391]",1610612760,107,-6,6,2.955665024630542,203.0
