,TEAM_ID_1,TEAM_1_PLAYERS,TEAM_ID_2,TEAM_2_PLAYERS,PERIOD
0,1610612759,[ 203926 1629640 1627751 1630170 1627749],1610612763,[1630533 1628991  203500 1630217 1629630],1
1,1610612759,[ 203926 1629640 1629022 1630200 1628380],1610612763,[1628991 1630217 1629634 1626145 1629681],2
2,1610612759,[ 203926 1629640 1627751 1630170 1627749],1610612763,[1630533 1628991  203500 1630217 1629630],3
3,1610612759,[1630170 1629022 1630200 1628380 1626196],1610612763,[1628991 1630217 1629634 1626145 1629681],4
