,t1_points_scored,stint_end,t2_pm,t1_players,t2_id,t1_id,t2_players,t2_points_scored,t1_pm,stint_start,margin_per_100,num_poss
0,13,419,8,"[1628970, 203469, 202687, 1628984, 1626179]",1610612739,1610612766,"[1626224, 201567, 202684, 1629012, 1629636]",21,-8,0,-30.76923076923077,26.0
1,13,463,12,"[1628970, 203469, 202687, 1628984, 1626179]",1610612739,1610612766,"[1626224, 201567, 202684, 1629012, 1629636]",25,-12,420,-41.37931034482759,29.0
2,15,472,10,"[101107, 1626179, 1628370, 1628998, 202687]",1610612739,1610612766,"[1626224, 1629012, 201567, 202684, 203521]",25,-10,464,-33.33333333333333,30.0
3,17,554,10,"[101107, 1626179, 1628370, 1628998, 202687]",1610612739,1610612766,"[1629645, 201567, 202684, 203521, 203903]",27,-10,473,-29.411764705882355,34.0
4,21,716,8,"[101107, 1626179, 1628370, 1628998, 202687]",1610612739,1610612766,"[1626204, 1629645, 202684, 203521, 203903]",29,-8,555,-19.51219512195122,41.0
5,27,906,8,"[101107, 1628370, 1628984, 1628998, 203469]",1610612739,1610612766,"[1626204, 1629636, 1629645, 203089, 203903]",35,-8,717,-14.814814814814813,54.0
6,29,1019,8,"[203469, 1628984, 1628370, 1628998, 203077]",1610612739,1610612766,"[1629636, 1629645, 203903, 1626204, 203089]",37,-8,907,-13.559322033898304,59.0
7,29,1037,8,"[1628370, 1628970, 1628984, 202687, 203077]",1610612739,1610612766,"[1629636, 1629645, 203903, 1626204, 203089]",37,-8,1020,-13.333333333333334,60.0
8,31,1113,8,"[101107, 1626179, 1628370, 1628970, 202687]",1610612739,1610612766,"[1629645, 201567, 202684, 203521, 203903]",39,-8,1038,-12.5,64.0
9,33,1232,12,"[101107, 1626179, 1628370, 1628970, 202687]",1610612739,1610612766,"[1626224, 1629012, 201567, 202684, 203521]",45,-12,1114,-16.666666666666664,72.0
10,36,1286,11,"[101107, 1626179, 1628970, 1628984, 202687]",1610612739,1610612766,"[1626224, 1629012, 201567, 202684, 203521]",47,-11,1233,-14.666666666666666,75.0
11,41,1435,12,"[101107, 1626179, 1628984, 1628998, 203469]",1610612739,1610612766,"[1626224, 1629012, 201567, 202684, 203521]",53,-12,1287,-14.285714285714285,84.0
12,43,1579,21,"[101107, 1626179, 1628984, 1628998, 203469]",1610612739,1610612766,"[1626224, 1629012, 201567, 202684, 203903]",64,-21,1436,-22.105263157894736,95.0
13,43,1644,24,"[1628970, 203469, 202687, 1628984, 1626179]",1610612739,1610612766,"[1626224, 201567, 202684, 1629012, 1629636]",67,-24,1580,-24.242424242424242,99.0
14,48,1707,19,"[101107, 1626179, 1628970, 1628984, 202687]",1610612739,1610612766,"[1626224, 201567, 202684, 1629012, 1629636]",67,-19,1645,-17.92452830188679,106.0
15,50,1817,20,"[101107, 1626179, 1628970, 1628984, 203469]",1610612739,1610612766,"[1626224, 201567, 202684, 1629012, 1629636]",70,-20,1708,-17.857142857142858,112.0
16,50,1923,22,"[101107, 1626179, 1628984, 1628998, 203469]",1610612739,1610612766,"[1626224, 1629012, 201567, 202684, 203521]",72,-22,1818,-18.333333333333332,120.0
17,52,1974,20,"[101107, 1628407, 1628984, 1628998, 203469]",1610612739,1610612766,"[1626224, 1629012, 201567, 202684, 203521]",72,-20,1924,-16.39344262295082,122.0
18,58,2077,16,"[101107, 1628407, 1628984, 1628998, 203077]",1610612739,1610612766,"[1626204, 1629645, 202684, 203521, 203903]",74,-16,1975,-12.5,128.0
19,61,2154,15,"[101107, 1626179, 1628407, 1628998, 203077]",1610612739,1610612766,"[1626204, 1629645, 202684, 203521, 203903]",76,-15,2078,-11.363636363636363,132.0
20,61,2157,15,"[101107, 1626179, 1628407, 1628998, 203077]",1610612739,1610612766,"[1626204, 1629636, 1629645, 203089, 203903]",76,-15,2155,-11.278195488721805,133.0
21,68,2298,11,"[101107, 1626179, 1628407, 1628984, 1628998]",1610612739,1610612766,"[1626204, 1629645, 202684, 203521, 203903]",79,-11,2158,-7.746478873239436,142.0
22,68,2331,11,"[1628970, 1626179, 1628998, 203077, 1628407]",1610612739,1610612766,"[1629636, 1629645, 203903, 1626204, 203089]",79,-11,2299,-7.638888888888889,144.0
23,68,2390,11,"[1628970, 1626179, 1628998, 203077, 1628407]",1610612739,1610612766,"[1626224, 1629012, 1629636, 201567, 202684]",79,-11,2332,-7.534246575342466,146.0
24,71,2483,13,"[1626179, 1628407, 1628970, 1628984, 203077]",1610612739,1610612766,"[1626224, 1629012, 1629636, 201567, 202684]",84,-13,2391,-8.666666666666668,150.0
25,74,2495,10,"[101107, 1626179, 1628407, 1628984, 203469]",1610612739,1610612766,"[1626224, 1629012, 1629636, 201567, 202684]",84,-10,2484,-6.578947368421052,152.0
26,74,2581,13,"[101107, 1626179, 1628984, 1628998, 203469]",1610612739,1610612766,"[1626224, 1629012, 1629636, 201567, 202684]",87,-13,2496,-8.280254777070063,157.0
27,81,2655,8,"[101107, 1626179, 1628984, 1628998, 203469]",1610612739,1610612766,"[1626224, 1629012, 201567, 202684, 203903]",89,-8,2582,-4.878048780487805,164.0
28,95,2844,4,"[101107, 1626179, 1628984, 1628998, 203469]",1610612739,1610612766,"[1626224, 1629636, 201567, 202684, 203903]",99,-4,2656,-2.272727272727273,176.0
29,95,2858,5,"[101107, 1626179, 1628984, 1628998, 203469]",1610612739,1610612766,"[1626224, 1629012, 201567, 202684, 203903]",100,-5,2845,-2.824858757062147,177.0
30,98,2876,2,"[1626179, 1628407, 1628984, 1628998, 203469]",1610612739,1610612766,"[1626204, 1626224, 1629012, 201567, 203903]",100,-2,2859,-1.1173184357541899,179.0
31,98,9999999,2,"[1626179, 1628407, 1628984, 1628998, 203469]",1610612739,1610612766,"[1626204, 1626224, 1629012, 202684, 203903]",100,-2,2877,-1.1111111111111112,180.0
