,TEAM_ID_1,TEAM_1_PLAYERS,TEAM_ID_2,TEAM_2_PLAYERS,PERIOD
0,1610612743,[ 200794 1629008  203999  203914 1627750],1610612744,[1629672  203952 1626172 1626162  201939],1
1,1610612743,[1628420  203210 1628408 1630267 1628392],1610612744,[ 203145 1629673  202954 1629346 1626253],2
2,1610612743,[ 200794 1629008  203999  203914 1627750],1610612744,[1629672  203952 1626172 1626162  201939],3
3,1610612743,[1628420  203210 1628408 1630267 1630181],1610612744,[ 203145 1627737 1629673 1629308  202954],4
