,stint_start,t1_points_scored,t2_pm,stint_end,t1_id,t2_points_scored,t1_players,t2_id,t1_pm,t2_players,margin_per_100,num_poss
0,0,8,4,330,1610612755,12,"[202699, 201143, 203954, 1629003, 1626196]",1610612739,-4,"[1626224, 201567, 202684, 1629012, 1629636]",-19.047619047619047,21.0
1,331,12,5,453,1610612755,17,"[202699, 201143, 203954, 1629003, 1626196]",1610612739,-5,"[1626224, 201567, 202684, 1629012, 1629636]",-16.666666666666664,30.0
2,454,16,4,553,1610612755,20,"[1627788, 1629003, 1629680, 201143, 202699]",1610612739,-4,"[1626204, 1626224, 1629636, 1629645, 201567]",-10.81081081081081,37.0
3,554,17,7,679,1610612755,24,"[1627788, 1629003, 1629680, 201143, 202699]",1610612739,-7,"[1626204, 1629636, 1629645, 201567, 203521]",-15.555555555555555,45.0
4,680,17,11,719,1610612755,28,"[1626196, 1627788, 202692, 203922, 203954]",1610612739,-11,"[1626204, 1627790, 1629012, 1629645, 203521]",-22.916666666666664,48.0
5,720,23,11,903,1610612755,34,"[1626196, 1627788, 201143, 202692, 203922]",1610612739,-11,"[1626204, 1627790, 1629012, 1629645, 203521]",-18.333333333333332,60.0
6,904,27,9,997,1610612755,36,"[202699, 201143, 1626196, 202692, 203922]",1610612739,-9,"[1629012, 1629645, 1626204, 203521, 1627790]",-13.23529411764706,68.0
7,998,29,9,1040,1610612755,38,"[1626196, 1629003, 201143, 202699, 203922]",1610612739,-9,"[1629012, 1629645, 1626204, 203521, 1627790]",-12.676056338028168,71.0
8,1041,32,9,1136,1610612755,41,"[1627788, 1629003, 1629680, 201143, 202699]",1610612739,-9,"[1626204, 1629012, 1629645, 202684, 203521]",-11.39240506329114,79.0
9,1137,34,12,1220,1610612755,46,"[1627788, 1629003, 1629680, 201143, 202699]",1610612739,-12,"[1629636, 1629645, 201567, 202684, 203521]",-14.457831325301203,83.0
10,1221,40,12,1333,1610612755,52,"[1627788, 1629003, 1629680, 201143, 202699]",1610612739,-12,"[1626224, 1629636, 201567, 202684, 203521]",-13.48314606741573,89.0
11,1334,40,14,1367,1610612755,54,"[1627788, 1629003, 1629680, 202699, 203124]",1610612739,-14,"[1626224, 1629636, 201567, 202684, 203521]",-15.217391304347828,92.0
12,1368,40,14,1381,1610612755,54,"[1627788, 1629003, 1629680, 203118, 203124]",1610612739,-14,"[1626204, 1626224, 1629012, 1629636, 201567]",-15.053763440860216,93.0
13,1382,44,11,1439,1610612755,55,"[1627788, 1629003, 1629680, 203118, 203124]",1610612739,-11,"[1626204, 1629012, 1629636, 1629645, 201567]",-11.224489795918368,98.0
14,1440,50,17,1706,1610612755,67,"[1627788, 1629003, 202692, 203118, 203124]",1610612739,-17,"[1626204, 1629012, 1629636, 1629645, 201567]",-14.655172413793101,116.0
15,1707,50,17,1748,1610612755,67,"[202699, 201143, 1629003, 1626196, 1629680]",1610612739,-17,"[1626224, 201567, 202684, 1629012, 1629636]",-14.40677966101695,118.0
16,1749,56,14,1847,1610612755,70,"[1626196, 1627788, 1629003, 201143, 202699]",1610612739,-14,"[1626224, 201567, 202684, 1629012, 1629636]",-11.38211382113821,123.0
17,1848,61,9,1944,1610612755,70,"[1626196, 1627788, 1629003, 201143, 202699]",1610612739,-9,"[1629012, 1629636, 1629645, 201567, 202684]",-6.976744186046512,129.0
18,1945,66,8,2081,1610612755,74,"[1626196, 1627788, 1629003, 202699, 203124]",1610612739,-8,"[1626204, 1629636, 1629645, 202684, 203521]",-5.9259259259259265,135.0
19,2082,68,9,2159,1610612755,77,"[1626196, 1627788, 202692, 203118, 203124]",1610612739,-9,"[1626204, 1629636, 1629645, 201567, 203521]",-6.382978723404255,141.0
20,2160,80,9,2365,1610612755,89,"[1627788, 202692, 203118, 203124, 203922]",1610612739,-9,"[1626204, 1629012, 1629645, 201567, 203521]",-5.844155844155844,154.0
21,2366,82,9,2463,1610612755,91,"[201143, 1629003, 1627788, 203922, 203118]",1610612739,-9,"[202684, 1629012, 1629645, 1626204, 203521]",-5.625,160.0
22,2464,84,9,2548,1610612755,93,"[1626196, 1629003, 202699, 203124, 203922]",1610612739,-9,"[202684, 1629012, 1629645, 1626204, 203521]",-5.454545454545454,165.0
23,2549,94,12,2867,1610612755,106,"[1626196, 202692, 202699, 203124, 203922]",1610612739,-12,"[1626204, 1629012, 1629636, 201567, 202684]",-6.486486486486487,185.0
24,2868,94,14,9999999,1610612755,108,"[1626196, 1629003, 201143, 202692, 202699]",1610612739,-14,"[1626204, 1629012, 1629636, 201567, 202684]",-7.526881720430108,186.0
