,team1_id,team1_player1,team1_player2,team1_player3,team1_player4,team1_player5,team2_id,team2_player1,team2_player2,team2_player3,team2_player4,team2_player5,game_id,period,possession_start,possession_end,team1_points,team2_points,possession_team
0,1610612749,203114,203507,1626171,1628960,201950,1610612741,201942,202696,202684,203897,1630245,0022100949,1,0,16,2,0,1610612749
1,1610612749,203114,203507,1626171,1628960,201950,1610612741,201942,202696,202684,203897,1630245,0022100949,1,33,35,0,0,1610612741
2,1610612749,203114,203507,1626171,1628960,201950,1610612741,201942,202696,202684,203897,1630245,0022100949,1,43,45,0,0,1610612749
3,1610612749,203114,203507,1626171,1628960,201950,1610612741,201942,202696,202684,203897,1630245,0022100949,1,49,49,0,2,1610612741
4,1610612749,203114,203507,1626171,1628960,201950,1610612741,201942,202696,202684,203897,1630245,0022100949,1,61,61,3,0,1610612749
5,1610612749,203114,203507,1626171,1628960,201950,1610612741,201942,202696,202684,203897,1630245,0022100949,1,68,77,0,0,1610612741
6,1610612749,203114,203507,1626171,1628960,201950,1610612741,201942,202696,202684,203897,1630245,0022100949,1,86,86,2,0,1610612749
7,1610612749,203114,203507,1626171,1628960,201950,1610612741,201942,202696,202684,203897,1630245,0022100949,1,106,106,0,0,1610612741
8,1610612749,203114,203507,1626171,1628960,201950,1610612741,201942,202696,202684,203897,1630245,0022100949,1,115,117,0,0,1610612749
9,1610612749,203114,203507,1626171,1628960,201950,1610612741,201942,202696,202684,203897,1630245,0022100949,1,125,125,0,2,1610612741
10,1610612749,203114,203507,1626171,1628960,201950,1610612741,201942,202696,202684,203897,1630245,0022100949,1,130,144,0,0,1610612749
11,1610612749,203114,203507,1626171,1628960,201950,1610612741,201942,202696,202684,203897,1630245,0022100949,1,157,169,0,2,1610612741
12,1610612749,203114,203507,1626171,1628960,201950,1610612741,201942,202696,202684,203897,1630245,0022100949,1,175,175,0,0,1610612749
13,1610612749,203114,203507,1626171,1628960,201950,1610612741,201942,202696,202684,203897,1630245,0022100949,1,190,190,0,2,1610612741
14,1610612749,203114,203507,1626171,1628960,201950,1610612741,201942,202696,202684,203897,1630245,0022100949,1,205,218,4,0,1610612749
15,1610612749,203114,203507,1626171,1628960,201950,1610612741,201942,202696,202684,203897,1630245,0022100949,1,235,235,0,2,1610612741
16,1610612749,203114,203507,1626171,1628960,201950,1610612741,201942,202696,202684,203897,1630245,0022100949,1,248,248,2,0,1610612749
17,1610612749,203114,203507,1626171,1628960,201950,1610612741,201942,202696,202684,203897,1630245,0022100949,1,274,274,0,0,1610612741
18,1610612749,1628960,201586,201950,203114,203507,1610612741,201942,202696,202684,203897,1630245,0022100949,1,284,288,0,0,1610612749
19,1610612749,1628960,201586,201950,203114,203507,1610612741,201942,202696,202684,203897,1630245,0022100949,1,296,296,0,2,1610612741
20,1610612749,1628960,201586,201950,203114,203507,1610612741,201942,202696,202684,203897,1630245,0022100949,1,304,304,3,0,1610612749
21,1610612749,1628960,201586,201950,203114,203507,1610612741,201942,202696,202684,203897,1630245,0022100949,1,316,320,0,0,1610612741
22,1610612749,1628960,201586,201950,203114,203507,1610612741,201942,202696,202684,203897,1630245,0022100949,1,325,330,2,0,1610612749
23,1610612749,1628960,201586,201950,203114,203507,1610612741,201942,202696,202684,203897,1630245,0022100949,1,330,345,0,2,1610612741
24,1610612749,1628960,201586,201950,203114,203507,1610612741,1629632,1629750,1630245,202696,203897,0022100949,1,359,360,0,0,1610612749
25,1610612749,1628960,201586,201950,203114,203507,1610612741,1629632,1629750,1630245,202696,203897,0022100949,1,363,366,0,0,1610612741
26,1610612749,1628960,201586,201950,203114,203507,1610612741,1629632,1629750,1630245,202696,203897,0022100949,1,372,372,0,0,1610612749
27,1610612749,1628960,201586,201950,203114,203507,1610612741,1629632,1629750,1630245,202696,203897,0022100949,1,382,382,0,2,1610612741
28,1610612749,1628960,201586,201950,203114,203507,1610612741,1629632,1629750,1630245,202696,203897,0022100949,1,394,394,2,0,1610612749
29,1610612749,1628960,201586,201950,203114,203507,1610612741,1629632,1629750,1630245,202696,203897,0022100949,1,412,412,0,2,1610612741
30,1610612749,1628960,201586,201950,203114,203507,1610612741,1629632,1629750,1630245,202696,203897,0022100949,1,423,423,0,0,1610612749
31,1610612749,1628960,201586,201950,203114,203507,1610612741,1629632,1629750,1630245,202696,203897,0022100949,1,434,434,0,2,1610612741
32,1610612749,1628960,201586,201950,203114,203507,1610612741,1629632,1629750,1630245,202696,203897,0022100949,1,453,453,0,0,1610612749
33,1610612749,1626171,1628960,1628975,201586,202083,1610612741,1629632,1629750,1630245,202696,203897,0022100949,1,470,472,0,0,1610612741
34,1610612749,1626171,1628960,1628975,201586,202083,1610612741,1629632,1629750,1630245,202696,203897,0022100949,1,476,480,0,0,1610612749
35,1610612749,1626171,1628960,1628975,201586,202083,1610612741,1629632,1629750,1630245,202696,203897,0022100949,1,489,489,0,0,1610612741
36,1610612749,1626171,1628960,1628975,201586,202083,1610612741,1629632,1629750,1630245,202696,203897,0022100949,1,489,509,0,0,1610612749
37,1610612749,1626171,1628975,201586,201950,202083,1610612741,1629632,1629750,1630245,202696,203897,0022100949,1,529,532,0,0,1610612741
38,1610612749,1626171,1628975,201586,201950,202083,1610612741,1629632,1629750,1630245,202696,203897,0022100949,1,542,542,2,0,1610612749
39,1610612749,1626171,1628975,201586,201950,202083,1610612741,1629632,1629750,1630245,202696,203897,0022100949,1,560,562,0,0,1610612741
40,1610612749,1626171,1628975,201586,201950,202083,1610612741,1629632,1629750,1630245,202696,203897,0022100949,1,572,581,0,0,1610612749
41,1610612749,1626171,1628975,201586,201950,202083,1610612741,1627884,1628972,1629632,1629750,201942,0022100949,1,595,597,0,0,1610612741
42,1610612749,1626171,1628975,201586,201950,202083,1610612741,1627884,1628972,1629632,1629750,201942,0022100949,1,606,608,0,0,1610612749
43,1610612749,1626171,1628975,201586,201950,202083,1610612741,1627884,1628972,1629632,1629750,201942,0022100949,1,615,619,0,0,1610612741
44,1610612749,1626171,1628975,201586,201950,202083,1610612741,1627884,1628972,1629632,1629750,201942,0022100949,1,631,635,0,0,1610612749
45,1610612749,1626171,1628975,201586,201950,202083,1610612741,1627884,1628972,1629632,1629750,201942,0022100949,1,644,644,0,2,1610612741
46,1610612749,1626171,1628975,201586,201950,202083,1610612741,1627884,1628972,1629632,1629750,201942,0022100949,1,655,658,1,0,1610612749
47,1610612749,1626171,1629670,201950,202083,203507,1610612741,1627884,1628972,1629632,1629750,201942,0022100949,1,672,672,0,0,1610612741
48,1610612749,1626171,1629670,201950,202083,203507,1610612741,1627884,1628972,1629632,1629750,201942,0022100949,1,675,675,0,0,1610612749
49,1610612749,1626171,1629670,201950,202083,203507,1610612741,1627884,1628972,1629632,1629750,201942,0022100949,1,689,689,0,3,1610612741
50,1610612749,1626171,1629670,201950,202083,203507,1610612741,1627884,1628972,1629632,1629750,201942,0022100949,1,699,699,2,0,1610612749
51,1610612749,1626171,1628975,1629670,202083,203507,1610612741,1627884,1628972,1629632,1629750,201942,0022100949,1,719,719,0,0,1610612741
52,1610612749,203114,203507,1628975,202083,1629670,1610612741,201942,202684,1629632,1627884,1628972,0022100949,2,720,738,0,0,1610612741
53,1610612749,203114,203507,1628975,202083,1629670,1610612741,201942,202684,1629632,1627884,1628972,0022100949,2,754,756,2,0,1610612749
54,1610612749,203114,203507,1628975,202083,1629670,1610612741,201942,202684,1629632,1627884,1628972,0022100949,2,772,787,0,0,1610612741
55,1610612749,203114,203507,1628975,202083,1629670,1610612741,201942,202684,1629632,1627884,1628972,0022100949,2,789,792,2,0,1610612749
56,1610612749,203114,203507,1628975,202083,1629670,1610612741,1627884,1628972,1630245,201942,202684,0022100949,2,804,804,0,0,1610612741
57,1610612749,203114,203507,1628975,202083,1629670,1610612741,1627884,1628972,1630245,201942,202684,0022100949,2,816,824,2,0,1610612749
58,1610612749,203114,203507,1628975,202083,1629670,1610612741,1627884,1628972,1630245,201942,202684,0022100949,2,839,839,0,2,1610612741
59,1610612749,203114,203507,1628975,202083,1629670,1610612741,1627884,1628972,1630245,201942,202684,0022100949,2,849,849,2,0,1610612749
60,1610612749,203114,203507,1628975,202083,1629670,1610612741,1627884,1628972,1630245,201942,202684,0022100949,2,864,864,0,2,1610612741
61,1610612749,203114,203507,1628975,202083,1629670,1610612741,1627884,1628972,1630245,201942,202684,0022100949,2,873,873,3,0,1610612749
62,1610612749,203114,203507,1628975,202083,1629670,1610612741,1627884,1628972,1630245,201942,202684,0022100949,2,898,900,0,0,1610612741
63,1610612749,203114,203507,1628975,202083,1629670,1610612741,1627884,1628972,1630245,201942,202684,0022100949,2,904,904,2,0,1610612749
64,1610612749,203114,203507,1628975,202083,1629670,1610612741,1627884,1628972,1630245,201942,202684,0022100949,2,904,924,0,0,1610612741
65,1610612749,203114,203507,1628975,202083,1629670,1610612741,1627884,1630245,201942,202684,203897,0022100949,2,928,930,0,0,1610612749
66,1610612749,203114,203507,1628975,202083,1629670,1610612741,1627884,1629750,1630245,201942,203897,0022100949,2,939,947,1,0,1610612741
67,1610612749,203114,203507,1628975,202083,1629670,1610612741,1627884,1629750,1630245,201942,203897,0022100949,2,959,959,2,0,1610612749
68,1610612749,203114,203507,1628975,202083,1629670,1610612741,1627884,1629750,1630245,201942,203897,0022100949,2,973,973,0,2,1610612741
69,1610612749,203114,203507,1628975,202083,1629670,1610612741,1627884,1629750,1630245,201942,203897,0022100949,2,989,993,0,0,1610612749
70,1610612749,203114,203507,1628975,202083,1629670,1610612741,1627884,1629750,1630245,201942,203897,0022100949,2,997,997,0,2,1610612741
71,1610612749,203114,203507,1628975,202083,1629670,1610612741,1627884,1629750,1630245,201942,203897,0022100949,2,1014,1014,3,0,1610612749
72,1610612749,203114,203507,1628975,202083,1629670,1610612741,1627884,1629750,1630245,201942,203897,0022100949,2,1024,1035,0,0,1610612741
73,1610612749,1626171,201950,202083,203114,203507,1610612741,1629750,1630245,201942,202696,203897,0022100949,2,1049,1049,3,0,1610612749
74,1610612749,1626171,201950,202083,203114,203507,1610612741,1629750,1630245,201942,202696,203897,0022100949,2,1065,1065,0,3,1610612741
75,1610612749,1626171,201950,202083,203114,203507,1610612741,1629750,1630245,201942,202696,203897,0022100949,2,1074,1074,0,0,1610612749
76,1610612749,1626171,1628960,201950,202083,203507,1610612741,1629750,1630245,201942,202696,203897,0022100949,2,1091,1093,0,0,1610612741
77,1610612749,1626171,1628960,201950,202083,203507,1610612741,1629750,1630245,201942,202696,203897,0022100949,2,1100,1100,2,0,1610612749
78,1610612749,1626171,1628960,201950,202083,203507,1610612741,1629750,1630245,201942,202696,203897,0022100949,2,1112,1112,0,2,1610612741
79,1610612749,1626171,1628960,201950,202083,203507,1610612741,1629750,1630245,201942,202696,203897,0022100949,2,1118,1148,0,0,1610612749
80,1610612749,1626171,1628960,201586,201950,203114,1610612741,1629632,1629750,1630245,202696,203897,0022100949,2,1158,1158,0,0,1610612741
81,1610612749,1626171,1628960,201586,201950,203114,1610612741,1629632,1629750,1630245,202696,203897,0022100949,2,1178,1184,0,0,1610612749
82,1610612749,1626171,1628960,201586,201950,203114,1610612741,1629632,1629750,1630245,202696,203897,0022100949,2,1190,1190,0,2,1610612741
83,1610612749,1626171,1628960,201586,201950,203114,1610612741,1629632,1629750,1630245,202696,203897,0022100949,2,1206,1208,0,0,1610612749
84,1610612749,1626171,1628960,201586,201950,203114,1610612741,1629632,1629750,1630245,202696,203897,0022100949,2,1225,1225,0,3,1610612741
85,1610612749,1626171,1628960,201586,201950,203114,1610612741,1629632,1629750,1630245,202696,203897,0022100949,2,1243,1243,2,0,1610612749
86,1610612749,1626171,1628960,201586,201950,203114,1610612741,1629632,1629750,1630245,202696,203897,0022100949,2,1257,1260,0,0,1610612741
87,1610612749,1626171,1628960,201586,201950,203114,1610612741,1629632,1629750,1630245,202696,203897,0022100949,2,1263,1263,0,0,1610612749
88,1610612749,1626171,1628960,201950,202083,203114,1610612741,1629632,1629750,201942,202696,203897,0022100949,2,1276,1279,0,0,1610612741
89,1610612749,1626171,1628960,201950,202083,203114,1610612741,1629632,1629750,201942,202696,203897,0022100949,2,1284,1297,0,0,1610612749
90,1610612749,1626171,1628960,201950,202083,203114,1610612741,1629632,1629750,201942,202696,203897,0022100949,2,1311,1311,0,2,1610612741
91,1610612749,1626171,1628960,201950,202083,203114,1610612741,1629632,1629750,201942,202696,203897,0022100949,2,1330,1330,0,0,1610612749
92,1610612749,1626171,1628960,201950,202083,203114,1610612741,1629632,1629750,201942,202696,203897,0022100949,2,1333,1333,0,2,1610612741
93,1610612749,1626171,1628960,201950,202083,203114,1610612741,1629632,1629750,201942,202696,203897,0022100949,2,1333,1345,2,0,1610612749
94,1610612749,1626171,201950,202083,203114,203507,1610612741,1629632,1629750,201942,202696,203897,0022100949,2,1365,1366,0,0,1610612741
95,1610612749,1626171,201950,202083,203114,203507,1610612741,1629632,1629750,201942,202696,203897,0022100949,2,1377,1379,0,0,1610612749
96,1610612749,1626171,201950,202083,203114,203507,1610612741,1629632,1629750,201942,202696,203897,0022100949,2,1389,1389,0,4,1610612741
97,1610612749,1626171,201950,202083,203114,203507,1610612741,1629632,1629750,201942,202696,203897,0022100949,2,1406,1406,2,0,1610612749
98,1610612749,1626171,1628975,202083,203114,203507,1610612741,1629632,1629750,201942,202696,203897,0022100949,2,1427,1427,0,2,1610612741
99,1610612749,1626171,1628975,202083,203114,203507,1610612741,1629632,1629750,201942,202696,203897,0022100949,2,1437,1437,2,0,1610612749
100,1610612749,1626171,1627761,1628975,202083,203507,1610612741,1629632,1629750,201942,202696,203897,0022100949,2,1440,1440,0,0,1610612749
101,1610612749,203114,203507,1626171,1628960,201950,1610612741,201942,202696,202684,203897,1630245,0022100949,3,1440,1460,0,2,1610612741
102,1610612749,203114,203507,1626171,1628960,201950,1610612741,201942,202696,202684,203897,1630245,0022100949,3,1473,1473,2,0,1610612749
103,1610612749,203114,203507,1626171,1628960,201950,1610612741,201942,202696,202684,203897,1630245,0022100949,3,1486,1492,0,0,1610612741
104,1610612749,203114,203507,1626171,1628960,201950,1610612741,201942,202696,202684,203897,1630245,0022100949,3,1500,1500,0,0,1610612749
105,1610612749,203114,203507,1626171,1628960,201950,1610612741,201942,202696,202684,203897,1630245,0022100949,3,1502,1502,0,0,1610612741
106,1610612749,203114,203507,1626171,1628960,201950,1610612741,201942,202696,202684,203897,1630245,0022100949,3,1502,1505,1,0,1610612749
107,1610612749,203114,203507,1626171,1628960,201950,1610612741,201942,202696,202684,203897,1630245,0022100949,3,1513,1524,0,3,1610612741
108,1610612749,203114,203507,1626171,1628960,201950,1610612741,201942,202696,202684,203897,1630245,0022100949,3,1542,1542,2,0,1610612749
109,1610612749,203114,203507,1626171,1628960,201950,1610612741,201942,202696,202684,203897,1630245,0022100949,3,1554,1563,0,0,1610612741
110,1610612749,203114,203507,1626171,1628960,201950,1610612741,201942,202696,202684,203897,1630245,0022100949,3,1566,1566,2,0,1610612749
111,1610612749,203114,203507,1626171,1628960,201950,1610612741,201942,202696,202684,203897,1630245,0022100949,3,1578,1590,0,2,1610612741
112,1610612749,203114,203507,1626171,1628960,201950,1610612741,201942,202696,202684,203897,1630245,0022100949,3,1596,1596,2,0,1610612749
113,1610612749,203114,203507,1626171,1628960,201950,1610612741,201942,202696,202684,203897,1630245,0022100949,3,1608,1608,0,2,1610612741
114,1610612749,203114,203507,1626171,1628960,201950,1610612741,201942,202696,202684,203897,1630245,0022100949,3,1616,1620,0,0,1610612749
115,1610612749,203114,203507,1626171,1628960,201950,1610612741,201942,202696,202684,203897,1630245,0022100949,3,1626,1626,0,0,1610612741
116,1610612749,203114,203507,1626171,1628960,201950,1610612741,201942,202696,202684,203897,1630245,0022100949,3,1636,1636,2,0,1610612749
117,1610612749,1626171,1628960,201950,202083,203507,1610612741,1629750,1630245,201942,202696,203897,0022100949,3,1653,1653,0,3,1610612741
118,1610612749,1626171,1628960,201950,202083,203507,1610612741,1629750,1630245,201942,202696,203897,0022100949,3,1668,1672,0,0,1610612749
119,1610612749,1626171,1628960,201950,202083,203507,1610612741,1629750,1630245,201942,202696,203897,0022100949,3,1676,1680,0,0,1610612741
120,1610612749,1626171,1628960,201950,202083,203507,1610612741,1629750,1630245,201942,202696,203897,0022100949,3,1686,1688,0,0,1610612749
121,1610612749,1626171,1628960,201950,202083,203507,1610612741,1629750,1630245,201942,202696,203897,0022100949,3,1695,1697,0,1,1610612741
122,1610612749,1626171,1628960,201950,202083,203507,1610612741,1629750,1630245,201942,202696,203897,0022100949,3,1719,1721,0,0,1610612749
123,1610612749,1626171,1628960,201950,202083,203507,1610612741,1629750,1630245,201942,202696,203897,0022100949,3,1729,1729,0,0,1610612741
124,1610612749,1626171,1628960,201950,202083,203507,1610612741,1629750,1630245,201942,202696,203897,0022100949,3,1732,1732,2,0,1610612749
125,1610612749,1626171,1628960,201950,202083,203507,1610612741,1629750,1630245,201942,202696,203897,0022100949,3,1754,1754,0,2,1610612741
126,1610612749,1626171,1628960,201950,202083,203507,1610612741,1629750,1630245,201942,202696,203897,0022100949,3,1760,1784,0,0,1610612749
127,1610612749,1626171,201950,202083,203114,203507,1610612741,1629750,1630245,201942,202696,203897,0022100949,3,1794,1794,0,0,1610612741
128,1610612749,1626171,201950,202083,203114,203507,1610612741,1629750,1630245,201942,202696,203897,0022100949,3,1799,1803,2,0,1610612749
129,1610612749,1626171,201586,201950,202083,203114,1610612741,1629750,1630245,201942,202696,203897,0022100949,3,1815,1819,0,0,1610612741
130,1610612749,1626171,201586,201950,202083,203114,1610612741,1629750,1630245,201942,202696,203897,0022100949,3,1826,1828,0,0,1610612749
131,1610612749,1626171,201586,201950,202083,203114,1610612741,1629750,1630245,201942,202696,203897,0022100949,3,1835,1838,0,0,1610612741
132,1610612749,1626171,201586,201950,202083,203114,1610612741,1629750,1630245,201942,202696,203897,0022100949,3,1849,1851,0,0,1610612749
133,1610612749,1626171,201586,201950,202083,203114,1610612741,1629750,1630245,201942,202696,203897,0022100949,3,1863,1863,0,2,1610612741
134,1610612749,1626171,201586,201950,202083,203114,1610612741,1629750,1630245,201942,202696,203897,0022100949,3,1883,1883,2,0,1610612749
135,1610612749,1626171,201586,201950,202083,203114,1610612741,1629750,1630245,201942,202696,203897,0022100949,3,1898,1898,0,2,1610612741
136,1610612749,1626171,201586,201950,202083,203114,1610612741,1629750,1630245,201942,202696,203897,0022100949,3,1904,1904,0,0,1610612749
137,1610612749,1626171,201586,201950,202083,203114,1610612741,1629750,1630245,201942,202696,203897,0022100949,3,1908,1908,0,2,1610612741
138,1610612749,1626171,201586,201950,202083,203114,1610612741,1629750,1630245,201942,202696,203897,0022100949,3,1922,1922,2,0,1610612749
139,1610612749,1626171,201586,201950,202083,203114,1610612741,1629750,1630245,201942,202696,203897,0022100949,3,1938,1947,0,1,1610612741
140,1610612749,1628960,1628975,201586,203114,203507,1610612741,1627884,1629632,1630245,202696,203897,0022100949,3,1957,1957,0,0,1610612749
141,1610612749,1628960,1628975,201586,203114,203507,1610612741,1627884,1629632,1630245,202696,203897,0022100949,3,1975,1975,0,2,1610612741
142,1610612749,1628960,1628975,201586,203114,203507,1610612741,1627884,1629632,1630245,202696,203897,0022100949,3,1997,2001,0,0,1610612749
143,1610612749,1628960,1628975,201586,203114,203507,1610612741,1627884,1629632,1630245,202696,203897,0022100949,3,2004,2006,0,2,1610612741
144,1610612749,1628960,1628975,1629670,203114,203507,1610612741,1627884,1629632,1630245,202696,203897,0022100949,3,2012,2016,0,0,1610612749
145,1610612749,1628960,1628975,1629670,203114,203507,1610612741,1627884,1629632,1630245,202696,203897,0022100949,3,2019,2019,0,2,1610612741
146,1610612749,1628960,1628975,1629670,203114,203507,1610612741,1627884,1629632,1630245,202696,203897,0022100949,3,2036,2039,0,0,1610612749
147,1610612749,1628960,1628975,1629670,203114,203507,1610612741,1627884,1629632,1630245,202696,203897,0022100949,3,2050,2056,0,2,1610612741
148,1610612749,1628960,1628975,1629670,203114,203507,1610612741,1627884,1629632,1630245,202696,203897,0022100949,3,2056,2079,2,0,1610612749
149,1610612749,1628960,1628975,1629670,203114,203507,1610612741,1627884,1629632,1629750,1630245,201942,0022100949,3,2095,2095,0,2,1610612741
150,1610612749,1628960,1628975,1629670,203114,203507,1610612741,1627884,1629632,1629750,1630245,201942,0022100949,3,2115,2115,0,0,1610612749
151,1610612749,1628960,1628975,1629670,203114,203507,1610612741,1627884,1629632,1629750,1630245,201942,0022100949,3,2127,2129,0,0,1610612741
152,1610612749,1628960,1628975,1629670,203114,203507,1610612741,1627884,1629632,1629750,1630245,201942,0022100949,3,2133,2133,3,0,1610612749
153,1610612749,1628960,1628975,1629670,203114,203507,1610612741,1627884,1629632,1629750,1630245,201942,0022100949,3,2152,2152,0,3,1610612741
154,1610612749,1628960,1629670,201950,203114,203507,1610612741,1627884,1628972,1629632,1630245,201942,0022100949,3,2160,2160,0,0,1610612749
155,1610612749,203114,203507,1628960,201950,1629670,1610612741,201942,202684,1629632,1627884,1628972,0022100949,4,2160,2181,2,0,1610612749
156,1610612749,203114,203507,1628960,201950,1629670,1610612741,201942,202684,1629632,1627884,1628972,0022100949,4,2203,2206,0,3,1610612741
157,1610612749,203114,203507,1628960,201950,1629670,1610612741,201942,202684,1629632,1627884,1628972,0022100949,4,2218,2218,3,0,1610612749
158,1610612749,203114,203507,1628960,201950,1629670,1610612741,201942,202684,1629632,1627884,1628972,0022100949,4,2235,2238,0,0,1610612741
159,1610612749,203114,203507,1628960,201950,1629670,1610612741,201942,202684,1629632,1627884,1628972,0022100949,4,2251,2251,2,0,1610612749
160,1610612749,203114,203507,1628960,201950,1629670,1610612741,201942,202684,1629632,1627884,1628972,0022100949,4,2271,2271,0,2,1610612741
161,1610612749,203114,203507,1628960,201950,1629670,1610612741,201942,202684,1629632,1627884,1628972,0022100949,4,2295,2295,3,0,1610612749
162,1610612749,203114,203507,1628960,201950,1629670,1610612741,201942,202684,1629632,1627884,1628972,0022100949,4,2314,2314,0,0,1610612741
163,1610612749,203114,203507,1628960,201950,1629670,1610612741,1627884,1629632,201942,202684,203897,0022100949,4,2329,2334,0,0,1610612749
164,1610612749,203114,203507,1628960,201950,1629670,1610612741,1627884,1629632,201942,202684,203897,0022100949,4,2344,2346,0,0,1610612741
165,1610612749,203114,203507,1628960,201950,1629670,1610612741,1627884,1629632,201942,202684,203897,0022100949,4,2353,2358,2,0,1610612749
166,1610612749,203114,203507,1628960,201950,1629670,1610612741,1627884,1629632,201942,202684,203897,0022100949,4,2359,2375,0,0,1610612741
167,1610612749,1628960,1629670,201950,202083,203507,1610612741,1627884,1629632,201942,202684,203897,0022100949,4,2379,2396,2,0,1610612749
168,1610612749,1628960,1629670,201950,202083,203507,1610612741,1627884,1629632,201942,202684,203897,0022100949,4,2413,2413,0,3,1610612741
169,1610612749,1628960,1629670,201950,202083,203507,1610612741,1627884,1629632,201942,202684,203897,0022100949,4,2426,2428,0,0,1610612749
170,1610612749,1626171,1628960,201950,202083,203507,1610612741,1627884,1629632,201942,202696,203897,0022100949,4,2434,2434,0,3,1610612741
171,1610612749,1626171,1628960,201950,202083,203507,1610612741,1627884,1629632,201942,202696,203897,0022100949,4,2445,2453,3,0,1610612749
172,1610612749,1626171,1628960,201950,202083,203507,1610612741,1627884,1629632,201942,202696,203897,0022100949,4,2469,2472,0,0,1610612741
173,1610612749,1626171,1628960,201950,202083,203507,1610612741,1627884,1629632,201942,202696,203897,0022100949,4,2475,2475,1,0,1610612749
174,1610612749,1626171,201950,202083,203114,203507,1610612741,1627884,1629632,201942,202696,203897,0022100949,4,2483,2483,0,0,1610612741
175,1610612749,1626171,201950,202083,203114,203507,1610612741,1629632,1629750,201942,202696,203897,0022100949,4,2492,2501,1,0,1610612749
176,1610612749,1626171,201950,202083,203114,203507,1610612741,1629632,1629750,201942,202696,203897,0022100949,4,2520,2520,0,3,1610612741
177,1610612749,1626171,201950,202083,203114,203507,1610612741,1629632,1629750,201942,202696,203897,0022100949,4,2531,2540,0,0,1610612749
178,1610612749,1626171,201950,202083,203114,203507,1610612741,1629632,1629750,201942,202696,203897,0022100949,4,2540,2561,0,0,1610612741
179,1610612749,1626171,201950,202083,203114,203507,1610612741,1629750,1630245,201942,202696,203897,0022100949,4,2567,2567,2,0,1610612749
180,1610612749,1626171,201950,202083,203114,203507,1610612741,1629750,1630245,201942,202696,203897,0022100949,4,2592,2594,0,0,1610612741
181,1610612749,1626171,201950,202083,203114,203507,1610612741,1629750,1630245,201942,202696,203897,0022100949,4,2597,2600,2,0,1610612749
182,1610612749,1626171,201950,202083,203114,203507,1610612741,1629750,1630245,201942,202696,203897,0022100949,4,2600,2619,0,0,1610612741
183,1610612749,1626171,1628960,201950,203114,203507,1610612741,1629750,1630245,201942,202696,203897,0022100949,4,2629,2629,2,0,1610612749
184,1610612749,1626171,1628960,201950,203114,203507,1610612741,1629750,1630245,201942,202696,203897,0022100949,4,2645,2648,0,1,1610612741
185,1610612749,1626171,1628960,201950,203114,203507,1610612741,1630245,201942,202684,202696,203897,0022100949,4,2661,2661,2,0,1610612749
186,1610612749,1626171,1628960,201950,203114,203507,1610612741,1630245,201942,202684,202696,203897,0022100949,4,2674,2674,0,2,1610612741
187,1610612749,1626171,1628960,201950,203114,203507,1610612741,1630245,201942,202684,202696,203897,0022100949,4,2684,2684,2,0,1610612749
188,1610612749,1626171,1628960,201950,203114,203507,1610612741,1630245,201942,202684,202696,203897,0022100949,4,2709,2709,0,2,1610612741
189,1610612749,1626171,1628960,201950,203114,203507,1610612741,1630245,201942,202684,202696,203897,0022100949,4,2717,2717,2,0,1610612749
190,1610612749,1626171,1628960,201950,203114,203507,1610612741,1630245,201942,202684,202696,203897,0022100949,4,2731,2743,0,0,1610612741
191,1610612749,1626171,1628960,201950,203114,203507,1610612741,1630245,201942,202684,202696,203897,0022100949,4,2760,2771,0,0,1610612749
192,1610612749,1626171,1628960,201950,203114,203507,1610612741,1630245,201942,202684,202696,203897,0022100949,4,2782,2792,0,0,1610612741
193,1610612749,1626171,1628960,201950,203114,203507,1610612741,1630245,201942,202684,202696,203897,0022100949,4,2806,2829,0,0,1610612749
194,1610612749,1626171,1628960,201950,203114,203507,1610612741,1630245,201942,202684,202696,203897,0022100949,4,2833,2833,0,2,1610612741
195,1610612749,1626171,1628960,201950,203114,203507,1610612741,1630245,201942,202684,202696,203897,0022100949,4,2852,2852,2,0,1610612749
196,1610612749,1626171,1628975,201950,203114,203507,1610612741,1630245,201942,202684,202696,203897,0022100949,4,2852,2856,0,3,1610612741
197,1610612749,1628975,1629623,201950,203114,203507,1610612741,1629632,1630245,201942,202696,203897,0022100949,4,2861,2861,2,0,1610612749
198,1610612749,1628975,1629623,201950,203114,203507,1610612741,1629632,1630245,201942,202696,203897,0022100949,4,2861,2865,0,0,1610612741
199,1610612749,1627761,1628975,201950,203114,203507,1610612741,1629632,1630245,201942,202696,203897,0022100949,4,2865,2868,2,0,1610612749
200,1610612749,1627761,1628975,201950,203114,203507,1610612741,1629632,1630245,201942,202696,203897,0022100949,4,2874,2877,0,0,1610612741
