,TEAM_ID_1,TEAM_1_PLAYERS,TEAM_ID_2,TEAM_2_PLAYERS,PERIOD
0,1610612742,[1627827 1628467  203939 1628425 1628973],1610612749,[1629670  203507  201572 1628960  201950],1
1,1610612742,[1626161 1630182 1628373  203504 1630647],1610612749,[1629670  203507  201572 1628960  201950],2
2,1610612742,[1627827 1628425 1628973 1628373 1626246],1610612749,[ 203507  201572 1628960  201950 1626192],3
3,1610612742,[1630182 1628373 1630647 1626246 1630637],1610612749,[ 201572 1628960  201950 1626192  201588],4
