,team1_id,team1_player1,team1_player2,team1_player3,team1_player4,team1_player5,team2_id,team2_player1,team2_player2,team2_player3,team2_player4,team2_player5,game_id,period,possession_start,possession_end,team1_points,team2_points,possession_team
0,1610612757,203918,201229,202355,203468,203081,1610612746,202695,202335,1627826,1629013,201976,0021900115,1,0,17,0,0,1610612757
1,1610612757,203918,201229,202355,203468,203081,1610612746,202695,202335,1627826,1629013,201976,0021900115,1,27,31,0,2,1610612746
2,1610612757,203918,201229,202355,203468,203081,1610612746,202695,202335,1627826,1629013,201976,0021900115,1,43,43,4,0,1610612757
3,1610612757,203918,201229,202355,203468,203081,1610612746,202695,202335,1627826,1629013,201976,0021900115,1,68,72,0,0,1610612746
4,1610612757,203918,201229,202355,203468,203081,1610612746,202695,202335,1627826,1629013,201976,0021900115,1,79,83,0,0,1610612757
5,1610612757,203918,201229,202355,203468,203081,1610612746,202695,202335,1627826,1629013,201976,0021900115,1,91,100,0,2,1610612746
6,1610612757,203918,201229,202355,203468,203081,1610612746,202695,202335,1627826,1629013,201976,0021900115,1,123,126,0,0,1610612757
7,1610612757,203918,201229,202355,203468,203081,1610612746,202695,202335,1627826,1629013,201976,0021900115,1,133,136,0,0,1610612746
8,1610612757,203918,201229,202355,203468,203081,1610612746,202695,202335,1627826,1629013,201976,0021900115,1,142,142,3,0,1610612757
9,1610612757,203918,201229,202355,203468,203081,1610612746,202695,202335,1627826,1629013,201976,0021900115,1,160,162,0,0,1610612746
10,1610612757,203918,201229,202355,203468,203081,1610612746,202695,202335,1627826,1629013,201976,0021900115,1,172,175,0,0,1610612757
11,1610612757,203918,201229,202355,203468,203081,1610612746,202695,202335,1627826,1629013,201976,0021900115,1,188,188,0,2,1610612746
12,1610612757,203918,201229,202355,203468,203081,1610612746,202695,202335,1627826,1629013,201976,0021900115,1,209,213,0,0,1610612757
13,1610612757,203918,201229,202355,203468,203081,1610612746,202695,202335,1627826,1629013,201976,0021900115,1,218,220,0,0,1610612746
14,1610612757,203918,201229,202355,203468,203081,1610612746,202695,202335,1627826,1629013,201976,0021900115,1,226,230,0,0,1610612757
15,1610612757,203918,201229,202355,203468,203081,1610612746,202695,202335,1627826,1629013,201976,0021900115,1,235,242,0,2,1610612746
16,1610612757,203918,201229,202355,203468,203081,1610612746,202695,202335,1627826,1629013,201976,0021900115,1,251,251,2,0,1610612757
17,1610612757,203918,201229,202355,203468,203081,1610612746,202695,202335,1627826,1629013,201976,0021900115,1,259,269,0,0,1610612746
18,1610612757,203918,201229,202355,203468,203081,1610612746,202695,202335,1627826,1629013,201976,0021900115,1,276,276,0,0,1610612757
19,1610612757,203918,201229,202355,203468,203081,1610612746,202695,202335,1627826,1629013,201976,0021900115,1,280,280,0,0,1610612746
20,1610612757,203918,201229,202355,203468,203081,1610612746,202695,202335,1627826,1629013,201976,0021900115,1,290,292,0,0,1610612757
21,1610612757,203918,201229,202355,203468,203081,1610612746,202695,202335,1627826,1629013,201976,0021900115,1,300,300,0,2,1610612746
22,1610612757,203918,201229,202355,203468,203081,1610612746,202695,202335,1627826,1629013,201976,0021900115,1,323,323,0,0,1610612757
23,1610612757,203918,201229,202355,203468,203081,1610612746,202695,202335,1627826,1629013,201976,0021900115,1,333,336,0,3,1610612746
24,1610612757,203918,201229,202355,203468,203081,1610612746,202695,202335,1627826,1629013,201976,0021900115,1,336,352,0,0,1610612757
25,1610612757,1626209,1627746,203081,203468,203918,1610612746,202695,202335,1627826,1629013,201976,0021900115,1,352,376,0,2,1610612746
26,1610612757,1626209,1627746,203081,203468,203918,1610612746,202695,202335,1627826,1629013,201976,0021900115,1,384,391,3,0,1610612757
27,1610612757,1626209,1627746,203081,203468,203918,1610612746,1627826,201976,202335,202695,203585,0021900115,1,413,413,0,2,1610612746
28,1610612757,1626209,1627746,203081,203468,203918,1610612746,1627826,201976,202335,202695,203585,0021900115,1,425,425,2,0,1610612757
29,1610612757,1626209,1627746,203081,203468,203918,1610612746,1627826,201976,202335,202695,203585,0021900115,1,435,439,0,0,1610612746
30,1610612757,1626209,1627746,203081,203468,203918,1610612746,1627826,201976,202335,202695,203585,0021900115,1,446,449,0,0,1610612757
31,1610612757,1626209,1627746,203081,203145,203468,1610612746,101150,1627826,201976,202335,203585,0021900115,1,466,466,0,2,1610612746
32,1610612757,1626209,1627746,203081,203145,203468,1610612746,101150,1627826,201976,202335,203585,0021900115,1,486,486,2,0,1610612757
33,1610612757,1626209,1627746,203081,203145,203468,1610612746,101150,1627826,201976,202335,203585,0021900115,1,500,506,0,0,1610612746
34,1610612757,1626209,1627746,1629014,203081,203145,1610612746,101150,1626149,203090,203210,203585,0021900115,1,513,517,0,0,1610612757
35,1610612757,1626209,1627746,1629014,203081,203145,1610612746,101150,1626149,203090,203210,203585,0021900115,1,520,521,0,2,1610612746
36,1610612757,1626209,1627746,1629014,203081,203145,1610612746,101150,1626149,203090,203210,203585,0021900115,1,536,550,0,0,1610612757
37,1610612757,1626209,1627746,1629014,203081,203145,1610612746,101150,1626149,203090,203210,203585,0021900115,1,561,562,0,0,1610612746
38,1610612757,1626209,1627746,1629014,203081,203145,1610612746,101150,1626149,203090,203210,203585,0021900115,1,574,582,1,0,1610612757
39,1610612757,1626209,1627746,1629014,203081,203145,1610612746,101150,1626149,203090,203210,203585,0021900115,1,595,595,0,2,1610612746
40,1610612757,1626209,1627746,1629014,203081,203145,1610612746,101150,1626149,203090,203210,203585,0021900115,1,611,614,0,0,1610612757
41,1610612757,1626209,1627746,1629014,203081,203145,1610612746,101150,1626149,203090,203210,203585,0021900115,1,621,621,0,0,1610612746
42,1610612757,1626209,1627746,1629014,203081,203145,1610612746,101150,1626149,203090,203210,203585,0021900115,1,635,635,2,0,1610612757
43,1610612757,1626209,1627746,1629014,203081,203145,1610612746,101150,1626149,203090,203210,203585,0021900115,1,644,644,0,2,1610612746
44,1610612757,1626209,1627746,1629014,203081,203145,1610612746,101150,1626149,203090,203210,203585,0021900115,1,653,653,0,0,1610612757
45,1610612757,1626209,1627746,1629014,203081,203145,1610612746,101150,1626149,203090,203210,203585,0021900115,1,655,657,0,1,1610612746
46,1610612757,1626209,1627746,1629014,203081,203145,1610612746,101150,1626149,202695,203090,203210,0021900115,1,673,673,3,0,1610612757
47,1610612757,1626209,1627746,1629014,203081,203145,1610612746,101150,1626149,202695,203090,203210,0021900115,1,684,688,0,0,1610612746
48,1610612757,1626209,1627746,1629014,203081,203145,1610612746,101150,1626149,202695,203090,203210,0021900115,1,697,698,0,0,1610612757
49,1610612757,1626209,1627746,1629014,203081,203145,1610612746,101150,1626149,202695,203090,203210,0021900115,1,720,720,0,0,1610612746
50,1610612757,203918,1626209,1627746,203145,1629014,1610612746,202695,101150,203210,1626149,203090,0021900115,2,720,736,0,0,1610612746
51,1610612757,203918,1626209,1627746,203145,1629014,1610612746,202695,101150,203210,1626149,203090,0021900115,2,739,741,0,0,1610612757
52,1610612757,203918,1626209,1627746,203145,1629014,1610612746,202695,101150,203210,1626149,203090,0021900115,2,744,751,0,0,1610612746
53,1610612757,203918,1626209,1627746,203145,1629014,1610612746,202695,101150,203210,1626149,203090,0021900115,2,766,766,2,0,1610612757
54,1610612757,203918,1626209,1627746,203145,1629014,1610612746,202695,101150,203210,1626149,203090,0021900115,2,785,785,0,2,1610612746
55,1610612757,203918,1626209,1627746,203145,1629014,1610612746,202695,101150,203210,1626149,203090,0021900115,2,803,807,0,0,1610612757
56,1610612757,203918,1626209,1627746,203145,1629014,1610612746,202695,101150,203210,1626149,203090,0021900115,2,816,822,0,0,1610612746
57,1610612757,203918,1626209,1627746,203145,1629014,1610612746,202695,101150,203210,1626149,203090,0021900115,2,824,850,0,0,1610612757
58,1610612757,203918,1626209,1627746,203145,1629014,1610612746,202695,101150,203210,1626149,203090,0021900115,2,855,855,0,0,1610612746
59,1610612757,203918,1626209,1627746,203145,1629014,1610612746,202695,101150,203210,1626149,203090,0021900115,2,865,866,0,0,1610612757
60,1610612757,203918,1626209,1627746,203145,1629014,1610612746,202695,101150,203210,1626149,203090,0021900115,2,873,873,0,2,1610612746
61,1610612757,203918,1626209,1627746,203145,1629014,1610612746,202695,101150,203210,1626149,203090,0021900115,2,890,890,0,0,1610612757
62,1610612757,203918,1626209,1627746,203145,1629014,1610612746,202695,101150,203210,1626149,203090,0021900115,2,903,903,0,2,1610612746
63,1610612757,203918,1626209,1627746,203145,1629014,1610612746,202695,101150,203210,1626149,203090,0021900115,2,903,919,0,0,1610612757
64,1610612757,1626209,1627746,203145,203468,203918,1610612746,202695,101150,203210,1626149,203090,0021900115,2,922,925,0,0,1610612746
65,1610612757,1626209,1627746,203145,203468,203918,1610612746,202695,101150,203210,1626149,203090,0021900115,2,929,929,3,0,1610612757
66,1610612757,1626209,1627746,203145,203468,203918,1610612746,202695,101150,203210,1626149,203090,0021900115,2,946,946,0,0,202695
67,1610612757,1626209,1627746,203145,203468,203918,1610612746,202695,101150,203210,1626149,203090,0021900115,2,958,962,0,0,1610612757
68,1610612757,1626209,1627746,203145,203468,203918,1610612746,202695,101150,203210,1626149,203090,0021900115,2,966,966,0,2,1610612746
69,1610612757,1626209,1627746,203145,203468,203918,1610612746,202695,101150,203210,1626149,203090,0021900115,2,987,987,0,0,1610612757
70,1610612757,1626209,1627746,203145,203468,203918,1610612746,202695,101150,203210,1626149,203090,0021900115,2,996,999,0,0,1610612746
71,1610612757,1626209,1627746,203145,203468,203918,1610612746,202695,101150,203210,1626149,203090,0021900115,2,1012,1015,0,0,1610612757
72,1610612757,1626209,1627746,203145,203468,203918,1610612746,202695,101150,203210,1626149,203090,0021900115,2,1022,1024,0,0,1610612746
73,1610612757,1626209,1627746,203145,203468,203918,1610612746,202695,101150,203210,1626149,203090,0021900115,2,1030,1030,2,0,1610612757
74,1610612757,1626209,1627746,203145,203468,203918,1610612746,202695,101150,203210,1626149,203090,0021900115,2,1030,1042,0,1,1610612746
75,1610612757,1626209,1627746,203081,203468,203918,1610612746,1626149,1629013,201976,202695,203210,0021900115,2,1061,1063,0,0,1610612757
76,1610612757,1626209,1627746,203081,203468,203918,1610612746,1626149,1629013,201976,202695,203210,0021900115,2,1075,1077,0,0,1610612746
77,1610612757,1626209,1627746,203081,203468,203918,1610612746,1626149,1629013,201976,202695,203210,0021900115,2,1094,1098,0,0,1610612757
78,1610612757,1626209,1627746,203081,203468,203918,1610612746,1626149,1629013,201976,202695,203210,0021900115,2,1114,1114,0,0,1610612746
79,1610612757,201229,202355,203081,203468,203918,1610612746,1626149,1629013,201976,202335,202695,0021900115,2,1129,1129,0,0,1610612757
80,1610612757,201229,202355,203081,203468,203918,1610612746,1627826,1629013,201976,202335,202695,0021900115,2,1145,1145,0,0,1610612746
81,1610612757,201229,202355,203081,203468,203918,1610612746,1627826,1629013,201976,202335,202695,0021900115,2,1156,1156,2,0,1610612757
82,1610612757,201229,202355,203081,203468,203918,1610612746,1627826,1629013,201976,202335,202695,0021900115,2,1177,1179,0,0,1610612746
83,1610612757,201229,202355,203081,203468,203918,1610612746,1627826,1629013,201976,202335,202695,0021900115,2,1198,1198,0,0,1610612757
84,1610612757,201229,202355,203081,203468,203918,1610612746,1627826,1629013,201976,202335,202695,0021900115,2,1207,1209,0,1,1610612746
85,1610612757,201229,202355,203081,203468,203918,1610612746,101150,1627826,1629013,201976,202335,0021900115,2,1221,1224,0,0,1610612757
86,1610612757,201229,202355,203081,203468,203918,1610612746,101150,1627826,1629013,201976,202335,0021900115,2,1234,1234,0,2,1610612746
87,1610612757,201229,202355,203081,203468,203918,1610612746,101150,1627826,1629013,201976,202335,0021900115,2,1246,1253,0,0,1610612757
88,1610612757,201229,202355,203081,203468,203918,1610612746,101150,1627826,1629013,201976,202335,0021900115,2,1264,1264,0,2,1610612746
89,1610612757,201229,202355,203081,203468,203918,1610612746,101150,1627826,1629013,201976,202335,0021900115,2,1276,1291,0,0,1610612757
90,1610612757,201229,202355,203081,203468,203918,1610612746,101150,1627826,1629013,201976,202335,0021900115,2,1298,1298,0,2,1610612746
91,1610612757,1627746,201229,203081,203468,203918,1610612746,101150,1627826,1629013,201976,202335,0021900115,2,1309,1309,3,0,1610612757
92,1610612757,1627746,201229,203081,203468,203918,1610612746,101150,1627826,1629013,201976,202335,0021900115,2,1324,1324,0,2,1610612746
93,1610612757,1627746,201229,203081,203468,203918,1610612746,101150,1627826,1629013,201976,202335,0021900115,2,1334,1334,2,0,1610612757
94,1610612757,1627746,201229,203081,203468,203918,1610612746,101150,1627826,1629013,201976,202335,0021900115,2,1345,1345,0,2,1610612746
95,1610612757,1627746,201229,203081,203468,203918,1610612746,101150,1627826,1629013,201976,202335,0021900115,2,1355,1360,2,0,1610612757
96,1610612757,1627746,201229,203081,203468,203918,1610612746,101150,1627826,1629013,201976,202335,0021900115,2,1377,1377,0,0,1610612746
97,1610612757,1627746,201229,203081,203468,203918,1610612746,101150,1627826,1629013,201976,202335,0021900115,2,1389,1389,2,0,1610612757
98,1610612757,1627746,201229,203081,203468,203918,1610612746,101150,1627826,1629013,201976,202335,0021900115,2,1413,1413,0,0,1610612746
99,1610612757,1627746,201229,203081,203468,203918,1610612746,101150,1627826,1629013,201976,202335,0021900115,2,1435,1438,0,0,1610612757
100,1610612757,1627746,201229,203081,203468,203918,1610612746,101150,1627826,1629013,201976,202335,0021900115,2,1438,1440,0,1,1610612757
101,1610612757,203918,201229,202355,203468,203081,1610612746,202695,202335,1627826,1629013,201976,0021900115,3,1440,1454,0,0,1610612746
102,1610612757,203918,201229,202355,203468,203081,1610612746,202695,202335,1627826,1629013,201976,0021900115,3,1461,1471,0,0,1610612757
103,1610612757,203918,201229,202355,203468,203081,1610612746,202695,202335,1627826,1629013,201976,0021900115,3,1477,1488,0,2,1610612746
104,1610612757,203918,201229,202355,203468,203081,1610612746,202695,202335,1627826,1629013,201976,0021900115,3,1495,1495,0,0,1610612757
105,1610612757,203918,201229,202355,203468,203081,1610612746,202695,202335,1627826,1629013,201976,0021900115,3,1506,1508,0,0,1610612746
106,1610612757,203918,201229,202355,203468,203081,1610612746,202695,202335,1627826,1629013,201976,0021900115,3,1516,1516,4,0,1610612757
107,1610612757,203918,201229,202355,203468,203081,1610612746,202695,202335,1627826,1629013,201976,0021900115,3,1526,1531,0,3,1610612746
108,1610612757,203918,201229,202355,203468,203081,1610612746,202695,202335,1627826,1629013,201976,0021900115,3,1541,1541,2,0,1610612757
109,1610612757,203918,201229,202355,203468,203081,1610612746,202695,202335,1627826,1629013,201976,0021900115,3,1554,1554,0,2,1610612746
110,1610612757,203918,201229,202355,203468,203081,1610612746,202695,202335,1627826,1629013,201976,0021900115,3,1567,1567,0,0,1610612757
111,1610612757,203918,201229,202355,203468,203081,1610612746,202695,202335,1627826,1629013,201976,0021900115,3,1575,1575,0,0,1610612746
112,1610612757,203918,201229,202355,203468,203081,1610612746,202695,202335,1627826,1629013,201976,0021900115,3,1578,1578,3,0,1610612757
113,1610612757,203918,201229,202355,203468,203081,1610612746,202695,202335,1627826,1629013,201976,0021900115,3,1587,1600,0,0,1610612746
114,1610612757,201229,202355,203081,203145,203468,1610612746,202695,202335,1627826,1629013,201976,0021900115,3,1617,1617,2,0,1610612757
115,1610612757,201229,202355,203081,203145,203468,1610612746,202695,202335,1627826,1629013,201976,0021900115,3,1630,1644,0,0,1610612746
116,1610612757,201229,202355,203081,203145,203468,1610612746,202695,202335,1627826,1629013,201976,0021900115,3,1649,1652,0,0,1610612757
117,1610612757,201229,202355,203081,203145,203468,1610612746,202695,202335,1627826,1629013,201976,0021900115,3,1655,1655,0,0,1610612746
118,1610612757,201229,202355,203081,203145,203468,1610612746,202695,202335,1627826,1629013,201976,0021900115,3,1671,1671,2,0,1610612757
119,1610612757,201229,202355,203081,203145,203468,1610612746,202695,202335,1627826,1629013,201976,0021900115,3,1685,1685,0,2,1610612746
120,1610612757,201229,202355,203081,203145,203468,1610612746,202695,202335,1627826,1629013,201976,0021900115,3,1704,1707,3,0,1610612757
121,1610612757,1626209,201229,202355,203081,203468,1610612746,202695,202335,1627826,1629013,201976,0021900115,3,1713,1713,0,2,1610612746
122,1610612757,1629014,201229,202355,203081,203468,1610612746,101150,1627826,1629013,201976,202335,0021900115,3,1730,1730,2,0,1610612757
123,1610612757,1629014,201229,202355,203081,203468,1610612746,101150,1627826,1629013,201976,202335,0021900115,3,1740,1754,0,0,1610612746
124,1610612757,1629014,201229,202355,203081,203468,1610612746,101150,1627826,1629013,201976,202335,0021900115,3,1761,1764,0,0,1610612757
125,1610612757,1629014,201229,202355,203081,203468,1610612746,101150,1627826,1629013,201976,202335,0021900115,3,1778,1778,0,3,1610612746
126,1610612757,1629014,201229,202355,203081,203468,1610612746,101150,1627826,1629013,201976,202335,0021900115,3,1795,1795,3,0,1610612757
127,1610612757,1629014,201229,202355,203081,203468,1610612746,101150,1627826,1629013,201976,202335,0021900115,3,1814,1814,0,0,1610612746
128,1610612757,1629014,201229,202355,203081,203468,1610612746,101150,1627826,1629013,201976,202335,0021900115,3,1823,1839,0,0,1610612757
129,1610612757,1629014,201229,202355,203081,203468,1610612746,101150,1626149,1629013,203090,203210,0021900115,3,1848,1848,0,0,1610612746
130,1610612757,1629014,201229,202355,203081,203468,1610612746,101150,1626149,1629013,203090,203210,0021900115,3,1856,1856,2,0,1610612757
131,1610612757,1629014,201229,202355,203081,203468,1610612746,101150,1626149,1629013,203090,203210,0021900115,3,1871,1873,0,0,1610612746
132,1610612757,1629014,201229,202355,203081,203468,1610612746,101150,1626149,1629013,203090,203210,0021900115,3,1883,1883,2,0,1610612757
133,1610612757,1629014,201229,202355,203081,203468,1610612746,101150,1626149,1629013,203090,203210,0021900115,3,1904,1906,0,0,1610612746
134,1610612757,1629014,201229,202355,203081,203468,1610612746,101150,1626149,1629013,203090,203210,0021900115,3,1916,1918,0,0,1610612757
135,1610612757,1629014,201229,202355,203081,203468,1610612746,101150,1626149,1629013,203090,203210,0021900115,3,1924,1924,0,2,1610612746
136,1610612757,1629014,201229,202355,203081,203468,1610612746,101150,1626149,1629013,203090,203210,0021900115,3,1946,1946,2,0,1610612757
137,1610612757,1629014,201229,202355,203081,203468,1610612746,101150,1626149,1629013,203090,203210,0021900115,3,1956,1956,0,2,1610612746
138,1610612757,1629014,201229,202355,203081,203468,1610612746,101150,1626149,1629013,203090,203210,0021900115,3,1976,1976,2,0,1610612757
139,1610612757,1629014,201229,202355,203081,203468,1610612746,101150,1626149,1629013,203090,203210,0021900115,3,1996,1998,0,0,1610612746
140,1610612757,1629014,201229,202355,203081,203468,1610612746,101150,1626149,1629013,203090,203210,0021900115,3,2005,2005,2,0,1610612757
141,1610612757,1629014,201229,202355,203081,203468,1610612746,101150,1626149,1629013,203090,203210,0021900115,3,2021,2021,0,0,1610612746
142,1610612757,1629014,201229,202355,203081,203468,1610612746,101150,1626149,1629013,203090,203210,0021900115,3,2021,2036,2,0,1610612757
143,1610612757,1626209,1629014,202355,203081,203145,1610612746,101150,1626149,203090,203210,203585,0021900115,3,2050,2050,0,2,1610612746
144,1610612757,1626209,1629014,202355,203081,203145,1610612746,101150,1626149,203090,203210,203585,0021900115,3,2076,2078,0,0,1610612757
145,1610612757,1626209,1629014,202355,203081,203145,1610612746,101150,1626149,203090,203210,203585,0021900115,3,2081,2084,0,1,1610612746
146,1610612757,1626209,1629014,202355,203081,203145,1610612746,101150,1626149,203090,203210,203585,0021900115,3,2093,2100,0,0,1610612757
147,1610612757,1626209,1629014,202355,203081,203145,1610612746,101150,1626149,203090,203210,203585,0021900115,3,2101,2101,0,0,1610612746
148,1610612757,1626209,1629014,202355,203081,203145,1610612746,101150,1626149,203090,203210,203585,0021900115,3,2103,2106,0,0,1610612757
149,1610612757,1626209,1629014,202355,203081,203145,1610612746,101150,1626149,203090,203210,203585,0021900115,3,2111,2111,0,2,1610612746
150,1610612757,1626209,1629014,202355,203081,203145,1610612746,101150,1626149,203090,203210,203585,0021900115,3,2125,2128,3,0,1610612757
151,1610612757,1626209,1629014,202355,203081,203468,1610612746,101150,1626149,203090,203210,203585,0021900115,3,2151,2153,0,0,1610612746
152,1610612757,1626209,1629014,202355,203081,203468,1610612746,101150,1626149,203090,203210,203585,0021900115,3,2159,2160,0,0,1610612757
153,1610612757,203918,203468,1626209,1627746,1629014,1610612746,202695,203585,101150,1626149,203090,0021900115,4,2160,2179,2,0,1610612757
154,1610612757,203918,203468,1626209,1627746,1629014,1610612746,202695,203585,101150,1626149,203090,0021900115,4,2192,2192,0,2,1610612746
155,1610612757,203918,203468,1626209,1627746,1629014,1610612746,202695,203585,101150,1626149,203090,0021900115,4,2208,2209,0,0,1610612757
156,1610612757,203918,203468,1626209,1627746,1629014,1610612746,202695,203585,101150,1626149,203090,0021900115,4,2219,2219,0,0,1610612746
157,1610612757,203918,203468,1626209,1627746,1629014,1610612746,202695,203585,101150,1626149,203090,0021900115,4,2230,2230,2,0,1610612757
158,1610612757,203918,203468,1626209,1627746,1629014,1610612746,202695,203585,101150,1626149,203090,0021900115,4,2242,2242,0,2,1610612746
159,1610612757,203918,203468,1626209,1627746,1629014,1610612746,202695,203585,101150,1626149,203090,0021900115,4,2256,2260,0,0,1610612757
160,1610612757,203918,203468,1626209,1627746,1629014,1610612746,202695,203585,101150,1626149,203090,0021900115,4,2265,2265,0,2,1610612746
161,1610612757,203918,203468,1626209,1627746,1629014,1610612746,202695,203585,101150,1626149,203090,0021900115,4,2286,2289,0,0,1610612757
162,1610612757,203918,203468,1626209,1627746,1629014,1610612746,202695,203585,101150,1626149,203090,0021900115,4,2297,2297,0,2,1610612746
163,1610612757,203918,203468,1626209,1627746,1629014,1610612746,202695,203585,101150,1626149,203090,0021900115,4,2313,2313,3,0,1610612757
164,1610612757,203918,203468,1626209,1627746,1629014,1610612746,202695,203585,101150,1626149,203090,0021900115,4,2328,2344,0,2,1610612746
165,1610612757,203918,203468,1626209,1627746,1629014,1610612746,1626149,201976,202695,203090,203585,0021900115,4,2364,2366,0,0,1610612757
166,1610612757,203918,203468,1626209,1627746,1629014,1610612746,1626149,201976,202695,203090,203585,0021900115,4,2370,2374,0,0,1610612746
167,1610612757,203918,203468,1626209,1627746,1629014,1610612746,1626149,201976,202695,203090,203585,0021900115,4,2379,2379,3,0,1610612757
168,1610612757,203918,203468,1626209,1627746,1629014,1610612746,1626149,201976,202695,203090,203585,0021900115,4,2386,2392,0,0,1610612746
169,1610612757,203918,203468,1626209,1627746,1629014,1610612746,1626149,201976,202695,203090,203585,0021900115,4,2409,2411,0,0,1610612757
170,1610612757,203918,203468,1626209,1627746,1629014,1610612746,1626149,201976,202695,203090,203585,0021900115,4,2417,2419,0,0,1610612746
171,1610612757,203918,203468,1626209,1627746,1629014,1610612746,1626149,201976,202695,203090,203585,0021900115,4,2419,2419,0,0,1610612757
172,1610612757,203918,203468,1626209,1627746,1629014,1610612746,1626149,201976,202695,203090,203585,0021900115,4,2419,2426,0,2,1610612746
173,1610612757,203918,203468,1626209,1627746,1629014,1610612746,1626149,1629013,201976,202695,203585,0021900115,4,2442,2442,0,0,1610612757
174,1610612757,1626209,1629014,202355,203081,203468,1610612746,1626149,1629013,201976,202695,203585,0021900115,4,2449,2449,0,0,1610612746
175,1610612757,1626209,1629014,202355,203081,203468,1610612746,1626149,1629013,201976,202695,203585,0021900115,4,2464,2464,2,0,1610612757
176,1610612757,1626209,1629014,202355,203081,203468,1610612746,1626149,1629013,201976,202695,203585,0021900115,4,2472,2472,0,2,1610612746
177,1610612757,1626209,1629014,202355,203081,203468,1610612746,1626149,1629013,201976,202695,203585,0021900115,4,2492,2492,2,0,1610612757
178,1610612757,1626209,1629014,202355,203081,203468,1610612746,1626149,1629013,201976,202695,203585,0021900115,4,2504,2504,0,2,1610612746
179,1610612757,1626209,1629014,202355,203081,203468,1610612746,1626149,1629013,201976,202695,203585,0021900115,4,2525,2528,0,0,1610612757
180,1610612757,1626209,1629014,202355,203081,203468,1610612746,1626149,1629013,201976,202695,203585,0021900115,4,2541,2545,0,2,1610612746
181,1610612757,1626209,1629014,202355,203081,203468,1610612746,101150,1626149,1629013,201976,202695,0021900115,4,2559,2559,0,0,1610612757
182,1610612757,1626209,1629014,202355,203081,203468,1610612746,101150,1626149,1629013,201976,202695,0021900115,4,2570,2573,0,0,1610612746
183,1610612757,1626209,1629014,202355,203081,203468,1610612746,101150,1626149,1629013,201976,202695,0021900115,4,2588,2591,0,0,1610612757
184,1610612757,1626209,1629014,202355,203081,203468,1610612746,101150,1626149,1629013,201976,202695,0021900115,4,2595,2600,0,0,1610612746
185,1610612757,1626209,1629014,202355,203081,203468,1610612746,101150,1626149,1629013,201976,202695,0021900115,4,2609,2625,0,0,1610612757
186,1610612757,1626209,1629014,202355,203081,203468,1610612746,101150,1626149,1629013,201976,202695,0021900115,4,2629,2629,0,0,1610612746
187,1610612757,1626209,1629014,202355,203081,203468,1610612746,101150,1626149,1629013,201976,202695,0021900115,4,2638,2638,3,0,1610612757
188,1610612757,1626209,1629014,202355,203081,203468,1610612746,101150,1626149,1629013,201976,202695,0021900115,4,2649,2649,0,2,1610612746
189,1610612757,1626209,1629014,202355,203081,203468,1610612746,101150,1626149,1629013,201976,202695,0021900115,4,2673,2680,0,0,1610612757
190,1610612757,1626209,1629014,202355,203081,203468,1610612746,101150,1626149,1629013,201976,202695,0021900115,4,2689,2689,0,2,1610612746
191,1610612757,1626209,1629014,202355,203081,203468,1610612746,101150,1626149,1629013,201976,202695,0021900115,4,2690,2710,0,0,1610612757
192,1610612757,1629014,202355,203081,203468,203918,1610612746,101150,1626149,1629013,201976,202695,0021900115,4,2720,2720,0,2,1610612746
193,1610612757,1629014,202355,203081,203468,203918,1610612746,101150,1626149,1629013,201976,202695,0021900115,4,2741,2760,0,0,1610612757
194,1610612757,1629014,202355,203081,203468,203918,1610612746,101150,1626149,1629013,201976,202695,0021900115,4,2762,2762,0,2,1610612746
195,1610612757,1629014,202355,203081,203468,203918,1610612746,101150,1626149,1629013,201976,202695,0021900115,4,2777,2777,2,0,1610612757
196,1610612757,1629014,202355,203081,203468,203918,1610612746,101150,1626149,1629013,201976,202695,0021900115,4,2792,2792,0,2,1610612746
197,1610612757,1629014,202355,203081,203468,203918,1610612746,101150,1626149,1629013,201976,202695,0021900115,4,2804,2804,3,0,1610612757
198,1610612757,1629014,202355,203081,203468,203918,1610612746,101150,1626149,1629013,201976,202695,0021900115,4,2822,2822,0,2,1610612746
199,1610612757,1629014,202355,203081,203468,203918,1610612746,101150,1626149,1629013,201976,202695,0021900115,4,2835,2835,1,0,1610612757
200,1610612757,1626209,1629014,203081,203468,203918,1610612746,101150,1626149,1629013,201976,202695,0021900115,4,2848,2848,0,3,1610612746
201,1610612757,1626209,1629014,203081,203468,203918,1610612746,101150,1626149,1629013,201976,202695,0021900115,4,2848,2863,2,0,1610612757
202,1610612757,1629014,202355,203081,203468,203918,1610612746,1626149,201976,202695,203090,203585,0021900115,4,2864,2867,0,2,1610612746
203,1610612757,1626209,1629014,203081,203468,203918,1610612746,1626149,201976,202695,203090,203585,0021900115,4,2874,2877,0,0,1610612757
204,1610612757,1626209,1629014,203081,203468,203918,1610612746,1626149,201976,202695,203090,203585,0021900115,4,2877,2877,0,2,1610612746
205,1610612757,1626209,1629014,203081,203468,203918,1610612746,1626149,201976,202695,203090,203585,0021900115,4,2877,2879,0,0,1610612757
