,TEAM_ID_1,TEAM_1_PLAYERS,TEAM_ID_2,TEAM_2_PLAYERS,PERIOD
0,1610612757,[203918 201229 202355 203468 203081],1610612746,[ 202695  202335 1627826 1629013  201976],1
1,1610612757,[ 203918 1626209 1627746  203145 1629014],1610612746,[ 202695  101150  203210 1626149  203090],2
2,1610612757,[203918 201229 202355 203468 203081],1610612746,[ 202695  202335 1627826 1629013  201976],3
3,1610612757,[ 203918  203468 1626209 1627746 1629014],1610612746,[ 202695  203585  101150 1626149  203090],4
