,TEAM_ID_1,TEAM_1_PLAYERS,TEAM_ID_2,TEAM_2_PLAYERS,PERIOD
0,1610612765,[1628977 1630180 1630191 1630595  202709],1610612743,[ 203115  203932  203999  203085 1628420],1
1,1610612765,[1626168 1628367 1630165  203585 1630199],1610612743,[1628420 1627854 1630267 1630192  202326],2
2,1610612765,[1628977 1630180 1630191 1630595  202709],1610612743,[ 203115  203932  203999  203085 1628420],3
3,1610612765,[1626168 1628367 1630165  203585 1630199],1610612743,[1627854 1630267 1630192  202326 1628432],4
