,team1_id,team1_player1,team1_player2,team1_player3,team1_player4,team1_player5,team2_id,team2_player1,team2_player2,team2_player3,team2_player4,team2_player5,game_id,period,possession_start,possession_end,team1_points,team2_points,possession_team
0,1610612761,1628384,1627783,201188,1627832,200768,1610612751,202066,1627789,1628386,204020,1627747,0041900113,1,0,21,3,0,1610612761
1,1610612761,1628384,1627783,201188,1627832,200768,1610612751,202066,1627789,1628386,204020,1627747,0041900113,1,37,37,0,3,1610612751
2,1610612761,1628384,1627783,201188,1627832,200768,1610612751,202066,1627789,1628386,204020,1627747,0041900113,1,48,55,3,0,1610612761
3,1610612761,1628384,1627783,201188,1627832,200768,1610612751,202066,1627789,1628386,204020,1627747,0041900113,1,66,67,0,0,1610612751
4,1610612761,1628384,1627783,201188,1627832,200768,1610612751,202066,1627789,1628386,204020,1627747,0041900113,1,80,81,0,0,1610612761
5,1610612761,1628384,1627783,201188,1627832,200768,1610612751,202066,1627789,1628386,204020,1627747,0041900113,1,91,91,0,2,1610612751
6,1610612761,1628384,1627783,201188,1627832,200768,1610612751,202066,1627789,1628386,204020,1627747,0041900113,1,112,112,2,0,1610612761
7,1610612761,1628384,1627783,201188,1627832,200768,1610612751,202066,1627789,1628386,204020,1627747,0041900113,1,135,136,0,0,1610612751
8,1610612761,1628384,1627783,201188,1627832,200768,1610612751,202066,1627789,1628386,204020,1627747,0041900113,1,141,141,3,0,1610612761
9,1610612761,1628384,1627783,201188,1627832,200768,1610612751,202066,1627789,1628386,204020,1627747,0041900113,1,154,167,0,0,1610612751
10,1610612761,1628384,1627783,201188,1627832,200768,1610612751,202066,1627789,1628386,204020,1627747,0041900113,1,183,184,0,0,1610612761
11,1610612761,1628384,1627783,201188,1627832,200768,1610612751,202066,1627789,1628386,204020,1627747,0041900113,1,191,192,0,0,1610612751
12,1610612761,1628384,1627783,201188,1627832,200768,1610612751,202066,1627789,1628386,204020,1627747,0041900113,1,196,196,2,0,1610612761
13,1610612761,1628384,1627783,201188,1627832,200768,1610612751,202066,1627789,1628386,204020,1627747,0041900113,1,196,207,0,0,1610612751
14,1610612761,1628384,1627783,201188,1627832,200768,1610612751,202066,1627789,1628386,204020,1627747,0041900113,1,218,218,3,0,1610612761
15,1610612761,1628384,1627783,201188,1627832,200768,1610612751,202066,1627789,1628386,204020,1627747,0041900113,1,228,229,0,0,1610612751
16,1610612761,1628384,1627783,201188,1627832,200768,1610612751,202066,1627789,1628386,204020,1627747,0041900113,1,235,235,0,0,1610612761
17,1610612761,1628384,1627783,201188,1627832,200768,1610612751,202066,1627789,1628386,204020,1627747,0041900113,1,248,248,0,3,1610612751
18,1610612761,1628384,1627783,201188,1627832,200768,1610612751,202066,1627789,1628386,204020,1627747,0041900113,1,267,268,0,0,1610612761
19,1610612761,1628384,1627783,201188,1627832,200768,1610612751,202066,1627789,1628386,204020,1627747,0041900113,1,279,280,0,0,1610612751
20,1610612761,1628384,1627783,201188,1627832,200768,1610612751,202066,1627789,1628386,204020,1627747,0041900113,1,296,311,0,0,1610612761
21,1610612761,1628384,1627783,201188,1627832,200768,1610612751,202066,1627789,1628386,204020,1627747,0041900113,1,334,334,0,0,1610612751
22,1610612761,1628384,1627783,201188,1627832,200768,1610612751,202066,1627789,1628386,204020,1627747,0041900113,1,337,337,2,0,1610612761
23,1610612761,1628384,1627783,201188,1627832,200768,1610612751,202066,1627789,1628386,204020,1627747,0041900113,1,358,359,0,0,1610612751
24,1610612761,1628384,1627783,201188,1627832,200768,1610612751,202066,1627789,1628386,204020,1627747,0041900113,1,373,374,0,0,1610612761
25,1610612761,1628384,1627783,201188,1627832,200768,1610612751,202066,1627789,1628386,204020,1627747,0041900113,1,381,382,0,0,1610612751
26,1610612761,1628384,1627783,201188,1627832,200768,1610612751,202066,1627789,1628386,204020,1627747,0041900113,1,395,395,0,0,1610612761
27,1610612761,1628384,1627783,201188,1627832,200768,1610612751,1627789,1628386,1629185,202066,204020,0041900113,1,420,420,0,2,1610612751
28,1610612761,1628384,1627783,201188,1627832,200768,1610612751,1627789,1628386,1629185,202066,204020,0041900113,1,428,428,2,0,1610612761
29,1610612761,1626181,1627783,1627832,200768,201586,1610612751,1626147,1627789,1628386,1629185,202066,0041900113,1,440,441,0,0,1610612751
30,1610612761,1626181,1627783,1627832,200768,201586,1610612751,1626147,1627789,1628386,1629185,202066,0041900113,1,466,467,0,0,1610612761
31,1610612761,1626181,1627783,1627832,200768,201586,1610612751,1626147,1627789,1628386,1629185,202066,0041900113,1,477,478,0,0,1610612751
32,1610612761,1626181,1627783,1627832,200768,201586,1610612751,1626147,1627789,1628386,1629185,202066,0041900113,1,499,500,0,0,1610612761
33,1610612761,1626181,1627783,1627832,200768,201586,1610612751,1626147,1627789,1628386,1629185,202066,0041900113,1,515,516,0,0,1610612751
34,1610612761,1626181,1627783,1627832,200768,201586,1610612751,1626147,1627789,1628386,1629185,202066,0041900113,1,529,529,0,0,1610612761
35,1610612761,1626181,1627783,1627832,200768,201586,1610612751,1626147,1627789,1628386,1629185,202066,0041900113,1,534,534,0,3,1610612751
36,1610612761,1626181,1627783,1627832,200768,201586,1610612751,1626147,1627789,1628386,1629185,202066,0041900113,1,551,554,0,0,1610612761
37,1610612761,1626181,1627783,1627832,200768,201586,1610612751,1626147,1627789,1628386,1629185,202066,0041900113,1,554,567,0,0,1610612751
38,1610612761,1626181,1627783,1627832,1628384,201586,1610612751,1626147,1627747,1627789,1629066,1629185,0041900113,1,580,584,0,0,1610612761
39,1610612761,1626181,1627783,1627832,1628384,201586,1610612751,1626147,1627747,1627789,1629066,1629185,0041900113,1,598,598,0,2,1610612751
40,1610612761,1626181,1627783,1627832,1628384,201586,1610612751,1626147,1627747,1627789,1629066,1629185,0041900113,1,616,616,2,0,1610612761
41,1610612761,1626181,1627783,1627832,1628384,201586,1610612751,1626147,1627747,1627789,1629066,1629185,0041900113,1,625,626,0,0,1610612751
42,1610612761,1626181,1627783,1627832,1628384,201586,1610612751,1626147,1627747,1627789,1629066,1629185,0041900113,1,633,637,2,0,1610612761
43,1610612761,1626181,1627783,1627832,1628384,201586,1610612751,1626147,1627747,1627789,1629066,1629185,0041900113,1,659,659,0,2,1610612751
44,1610612761,1626181,1627783,1627832,1629056,201586,1610612751,1626147,1627747,1627789,1629066,1629185,0041900113,1,674,674,0,0,1610612761
45,1610612761,1626181,1627783,1627832,1629056,201586,1610612751,1626147,1627747,1627789,1629066,1629185,0041900113,1,684,685,0,0,1610612751
46,1610612761,1626181,1627783,1627832,1629056,201586,1610612751,1626147,1627747,1627789,1629066,1629185,0041900113,1,691,691,0,0,1610612761
47,1610612761,1626181,1627783,1627832,1629056,201586,1610612751,1626147,1627747,1627789,1629066,1629185,0041900113,1,712,714,0,0,1610612751
48,1610612761,1626181,1627783,1627832,1629056,201586,1610612751,1626147,1627747,1627789,1629066,1629185,0041900113,1,718,718,0,0,1610612761
49,1610612761,1626181,1627783,1627832,1629056,201586,1610612751,1626147,1627747,1627789,1629066,1629185,0041900113,1,720,720,0,0,1610612761
50,1610612761,1627783,200768,201586,1626181,1629056,1610612751,202066,1627747,1629185,1626147,1629066,0041900113,2,720,733,0,0,1610612751
51,1610612761,1627783,200768,201586,1626181,1629056,1610612751,202066,1627747,1629185,1626147,1629066,0041900113,2,738,740,0,0,1610612761
52,1610612761,1627783,200768,201586,1626181,1629056,1610612751,202066,1627747,1629185,1626147,1629066,0041900113,2,746,746,0,2,1610612751
53,1610612761,1627783,200768,201586,1626181,1629056,1610612751,202066,1627747,1629185,1626147,1629066,0041900113,2,767,767,2,0,1610612761
54,1610612761,1627783,200768,201586,1626181,1629056,1610612751,202066,1627747,1629185,1626147,1629066,0041900113,2,785,786,0,0,1610612751
55,1610612761,1627783,200768,201586,1626181,1629056,1610612751,202066,1627747,1629185,1626147,1629066,0041900113,2,798,798,3,0,1610612761
56,1610612761,1627783,200768,201586,1626181,1629056,1610612751,202066,1627747,1629185,1626147,1629066,0041900113,2,821,822,0,0,1610612751
57,1610612761,1627783,200768,201586,1626181,1629056,1610612751,202066,1627747,1629185,1626147,1629066,0041900113,2,829,830,0,0,1610612761
58,1610612761,1627783,200768,201586,1626181,1629056,1610612751,202066,1627747,1629185,1626147,1629066,0041900113,2,836,836,0,0,1610612751
59,1610612761,1627783,200768,201586,1626181,1629056,1610612751,202066,1627747,1629185,1626147,1629066,0041900113,2,836,851,1,0,1610612761
60,1610612761,1627783,200768,201586,1626181,1629056,1610612751,202066,1627747,1629185,1626147,1629066,0041900113,2,856,856,0,0,1610612751
61,1610612761,1627783,200768,201586,1626181,1629056,1610612751,202066,1627747,1629185,1626147,1629066,0041900113,2,870,877,3,0,1610612761
62,1610612761,1627783,200768,201586,1626181,1629056,1610612751,202066,1627747,1629185,1626147,1629066,0041900113,2,881,893,0,0,1610612751
63,1610612761,1626181,1628384,1629056,200768,201586,1610612751,202066,1627747,1629185,1626147,1629066,0041900113,2,902,902,2,0,1610612761
64,1610612761,1626181,1628384,1629056,200768,201586,1610612751,202066,1627747,1629185,1626147,1629066,0041900113,2,921,928,0,3,1610612751
65,1610612761,1626181,1628384,1629056,200768,201586,1610612751,1627747,1627789,1628386,1629185,202066,0041900113,2,946,946,3,0,1610612761
66,1610612761,1626181,1628384,1629056,200768,201586,1610612751,1627747,1627789,1628386,1629185,202066,0041900113,2,960,961,0,0,1610612751
67,1610612761,1626181,1628384,1629056,200768,201586,1610612751,1627747,1627789,1628386,1629185,202066,0041900113,2,968,969,0,0,1610612761
68,1610612761,1626181,1628384,1629056,200768,201586,1610612751,1627747,1627789,1628386,1629185,202066,0041900113,2,974,974,0,3,1610612751
69,1610612761,1626181,1628384,1629056,200768,201586,1610612751,1627747,1627789,1628386,1629185,202066,0041900113,2,990,990,0,0,1610612761
70,1610612761,1626181,1628384,1629056,200768,201586,1610612751,1627747,1627789,1628386,1629185,202066,0041900113,2,996,996,0,2,1610612751
71,1610612761,1626181,1627832,1628384,200768,201586,1610612751,1627747,1627789,1628386,1629185,202066,0041900113,2,1005,1015,0,0,1610612761
72,1610612761,1626181,1627832,1628384,200768,201586,1610612751,1627747,1627789,1628386,1629185,202066,0041900113,2,1018,1025,0,2,1610612751
73,1610612761,1626181,1627832,1628384,200768,201586,1610612751,1627747,1627789,1628386,1629185,202066,0041900113,2,1037,1037,3,0,1610612761
74,1610612761,1626181,1627832,1628384,200768,201586,1610612751,1627747,1627789,1628386,1629185,202066,0041900113,2,1052,1053,0,0,1610612751
75,1610612761,1626181,1627832,1628384,200768,201586,1610612751,1627747,1627789,1628386,1629185,202066,0041900113,2,1069,1069,0,0,1610612761
76,1610612761,1626181,1627832,1628384,200768,201586,1610612751,1627747,1627789,1628386,1629185,202066,0041900113,2,1076,1077,0,0,1610612751
77,1610612761,1626181,1627832,1628384,200768,201586,1610612751,1627747,1627789,1628386,1629185,202066,0041900113,2,1091,1091,3,0,1610612761
78,1610612761,1626181,1627832,1628384,200768,201586,1610612751,1627747,1627789,1628386,1629185,202066,0041900113,2,1115,1115,0,2,1610612751
79,1610612761,1626181,1627832,1628384,200768,201586,1610612751,1627747,1627789,1628386,1629185,202066,0041900113,2,1125,1143,2,0,1610612761
80,1610612761,1627783,1627832,1628384,200768,201188,1610612751,1627747,1627789,1628386,202066,204020,0041900113,2,1157,1157,0,0,1610612751
81,1610612761,1627783,1627832,1628384,200768,201188,1610612751,1627747,1627789,1628386,202066,204020,0041900113,2,1160,1160,2,0,1610612761
82,1610612761,1627783,1627832,1628384,200768,201188,1610612751,1627747,1627789,1628386,202066,204020,0041900113,2,1177,1177,0,3,1610612751
83,1610612761,1627783,1627832,1628384,200768,201188,1610612751,1627747,1627789,1628386,202066,204020,0041900113,2,1194,1194,1,0,1610612761
84,1610612761,1627783,1627832,1628384,200768,201188,1610612751,1627747,1627789,1628386,202066,204020,0041900113,2,1216,1226,0,0,1610612751
85,1610612761,1627783,1627832,1628384,200768,201188,1610612751,1627747,1627789,1628386,202066,204020,0041900113,2,1237,1238,0,0,1610612761
86,1610612761,1627783,1627832,1628384,200768,201188,1610612751,1627747,1627789,1628386,202066,204020,0041900113,2,1242,1260,0,0,1610612751
87,1610612761,1627783,1627832,1628384,200768,201188,1610612751,1627747,1627789,1628386,202066,204020,0041900113,2,1275,1275,2,0,1610612761
88,1610612761,1627783,1627832,1628384,200768,201188,1610612751,1627747,1627789,1628386,202066,204020,0041900113,2,1294,1295,0,0,1610612751
89,1610612761,1627783,1627832,1628384,200768,201188,1610612751,1627747,1627789,1628386,202066,204020,0041900113,2,1302,1303,0,0,1610612761
90,1610612761,1627783,1627832,1628384,200768,201188,1610612751,1627747,1627789,1628386,202066,204020,0041900113,2,1308,1320,0,3,1610612751
91,1610612761,1627783,1627832,1628384,200768,201188,1610612751,1627747,1627789,1628386,202066,204020,0041900113,2,1346,1347,0,0,1610612761
92,1610612761,1627783,1627832,1628384,200768,201188,1610612751,1627747,1627789,1628386,202066,204020,0041900113,2,1355,1356,0,0,1610612751
93,1610612761,1627783,1627832,1628384,200768,201188,1610612751,1627747,1627789,1628386,202066,204020,0041900113,2,1371,1372,0,0,1610612761
94,1610612761,1627783,1627832,1628384,200768,201188,1610612751,1627747,1627789,1628386,202066,204020,0041900113,2,1383,1386,0,0,1610612751
95,1610612761,1627783,1627832,1628384,200768,201188,1610612751,1627747,1627789,1628386,202066,204020,0041900113,2,1388,1388,1,0,1610612761
96,1610612761,1627783,1627832,1628384,200768,201188,1610612751,1627747,1627789,1628386,202066,204020,0041900113,2,1405,1405,0,2,1610612751
97,1610612761,1627783,1627832,1628384,200768,201188,1610612751,1627747,1627789,1628386,202066,204020,0041900113,2,1417,1417,2,0,1610612761
98,1610612761,1627783,1627832,1628384,200768,201188,1610612751,1627747,1627789,1628386,202066,204020,0041900113,2,1440,1440,0,3,1610612751
99,1610612761,1627783,1627832,1628384,200768,201188,1610612751,1627747,1627789,1628386,202066,204020,0041900113,2,1440,1440,3,0,1610612761
100,1610612761,1627783,1627832,1628384,200768,201188,1610612751,1627747,1627789,1628386,202066,204020,0041900113,2,1440,1440,0,0,298
101,1610612761,1628384,1627783,201188,1627832,200768,1610612751,202066,1627789,1628386,204020,1627747,0041900113,3,1440,1457,0,0,1610612751
102,1610612761,1628384,1627783,201188,1627832,200768,1610612751,202066,1627789,1628386,204020,1627747,0041900113,3,1470,1470,0,0,1610612761
103,1610612761,1628384,1627783,201188,1627832,200768,1610612751,202066,1627789,1628386,204020,1627747,0041900113,3,1474,1474,0,3,1610612751
104,1610612761,1628384,1627783,201188,1627832,200768,1610612751,202066,1627789,1628386,204020,1627747,0041900113,3,1491,1492,0,0,1610612761
105,1610612761,1628384,1627783,201188,1627832,200768,1610612751,202066,1627789,1628386,204020,1627747,0041900113,3,1506,1506,0,0,1610612751
106,1610612761,1628384,1627783,201188,1627832,200768,1610612751,202066,1627789,1628386,204020,1627747,0041900113,3,1525,1527,0,0,1610612761
107,1610612761,1628384,1627783,201188,1627832,200768,1610612751,202066,1627789,1628386,204020,1627747,0041900113,3,1535,1535,0,3,1610612751
108,1610612761,1628384,1627783,201188,1627832,200768,1610612751,202066,1627789,1628386,204020,1627747,0041900113,3,1548,1548,3,0,1610612761
109,1610612761,1628384,1627783,201188,1627832,200768,1610612751,202066,1627789,1628386,204020,1627747,0041900113,3,1563,1565,0,0,1610612751
110,1610612761,1628384,1627783,201188,1627832,200768,1610612751,202066,1627789,1628386,204020,1627747,0041900113,3,1578,1579,0,0,1610612761
111,1610612761,1628384,1627783,201188,1627832,200768,1610612751,202066,1627789,1628386,204020,1627747,0041900113,3,1587,1587,0,0,1610612751
112,1610612761,1628384,1627783,201188,1627832,200768,1610612751,202066,1627789,1628386,204020,1627747,0041900113,3,1587,1601,0,0,1610612761
113,1610612761,1628384,1627783,201188,1627832,200768,1610612751,202066,1627789,1628386,204020,1627747,0041900113,3,1613,1613,0,2,1610612751
114,1610612761,1628384,1627783,201188,1627832,200768,1610612751,202066,1627789,1628386,204020,1627747,0041900113,3,1629,1629,2,0,1610612761
115,1610612761,1628384,1627783,201188,1627832,200768,1610612751,202066,1627789,1628386,204020,1627747,0041900113,3,1639,1639,0,2,1610612751
116,1610612761,1628384,1627783,201188,1627832,200768,1610612751,202066,1627789,1628386,204020,1627747,0041900113,3,1653,1653,2,0,1610612761
117,1610612761,1628384,1627783,201188,1627832,200768,1610612751,202066,1627789,1628386,204020,1627747,0041900113,3,1664,1669,0,3,1610612751
118,1610612761,1628384,1627783,201188,1627832,200768,1610612751,202066,1627789,1628386,204020,1627747,0041900113,3,1689,1689,3,0,1610612761
119,1610612761,1628384,1627783,201188,1627832,200768,1610612751,202066,1627789,1628386,204020,1627747,0041900113,3,1699,1700,0,0,1610612751
120,1610612761,1628384,1627783,201188,1627832,200768,1610612751,202066,1627789,1628386,204020,1627747,0041900113,3,1706,1706,3,0,1610612761
121,1610612761,1628384,1627783,201188,1627832,200768,1610612751,202066,1627789,1628386,204020,1627747,0041900113,3,1720,1721,0,0,1610612751
122,1610612761,1628384,1627783,201188,1627832,200768,1610612751,202066,1627789,1628386,204020,1627747,0041900113,3,1734,1735,0,0,1610612761
123,1610612761,1628384,1627783,201188,1627832,200768,1610612751,202066,1627789,1628386,204020,1627747,0041900113,3,1747,1748,0,0,1610612751
124,1610612761,1628384,1627783,201188,1627832,200768,1610612751,202066,1627789,1628386,204020,1627747,0041900113,3,1762,1762,2,0,1610612761
125,1610612761,1628384,1627783,201188,1627832,200768,1610612751,202066,1627789,1628386,204020,1627747,0041900113,3,1763,1777,0,2,1610612751
126,1610612761,1628384,1627783,201188,1627832,200768,1610612751,202066,1627789,1628386,204020,1627747,0041900113,3,1790,1791,0,0,1610612761
127,1610612761,1628384,1627783,201188,1627832,200768,1610612751,202066,1627789,1628386,204020,1627747,0041900113,3,1806,1806,0,3,1610612751
128,1610612761,1628384,1627783,201188,1627832,200768,1610612751,202066,1627789,1628386,204020,1627747,0041900113,3,1827,1833,2,0,1610612761
129,1610612761,1628384,1627783,201188,1627832,200768,1610612751,202066,1627789,1628386,204020,1627747,0041900113,3,1833,1843,0,0,1610612751
130,1610612761,1628384,1627783,201188,1627832,200768,1610612751,202066,1627789,1628386,204020,1627747,0041900113,3,1847,1847,0,0,1610612761
131,1610612761,1626181,1627783,1627832,1628384,201586,1610612751,202066,1627789,1628386,204020,1627747,0041900113,3,1854,1855,0,0,1610612751
132,1610612761,1626181,1627783,1627832,1628384,201586,1610612751,202066,1627789,1628386,204020,1627747,0041900113,3,1868,1878,0,0,1610612761
133,1610612761,1626181,1627783,1627832,1628384,201586,1610612751,1627789,1628386,1629185,202066,204020,0041900113,3,1887,1888,0,0,1610612751
134,1610612761,1626181,1627783,1627832,1628384,201586,1610612751,1627789,1628386,1629185,202066,204020,0041900113,3,1907,1907,2,0,1610612761
135,1610612761,1626181,1627783,1627832,1628384,201586,1610612751,1627789,1628386,1629185,202066,204020,0041900113,3,1926,1930,0,2,1610612751
136,1610612761,1626181,1627783,1627832,1628384,201586,1610612751,1627789,1628386,1629185,202066,204020,0041900113,3,1945,1954,0,0,1610612761
137,1610612761,1626181,1627783,1627832,1629056,201586,1610612751,1627789,1628386,1629058,1629185,202066,0041900113,3,1955,1978,0,3,1610612751
138,1610612761,1626181,1627783,1627832,1629056,201586,1610612751,1627789,1628386,1629058,1629185,202066,0041900113,3,1998,1998,3,0,1610612761
139,1610612761,1626181,1627783,1627832,1629056,201586,1610612751,1627789,1628386,1629058,1629185,202066,0041900113,3,2014,2020,0,2,1610612751
140,1610612761,1626181,1627783,1627832,1629056,201586,1610612751,1627789,1628386,1629058,1629185,202066,0041900113,3,2042,2043,0,0,1610612761
141,1610612761,1626181,1627783,1627832,1629056,201586,1610612751,1627789,1628386,1629058,1629185,202066,0041900113,3,2062,2063,0,0,1610612751
142,1610612761,1626181,1627783,1627832,1629056,201586,1610612751,1627789,1628386,1629058,1629185,202066,0041900113,3,2071,2071,0,0,1610612761
143,1610612761,1626181,1627783,1627832,1629056,201586,1610612751,1627789,1628386,1629058,1629185,202066,0041900113,3,2074,2074,0,1,1610612751
144,1610612761,1626181,1627783,1627832,1629056,201586,1610612751,1627789,1628386,1629058,1629185,202066,0041900113,3,2085,2097,3,0,1610612761
145,1610612761,1626181,1627783,1627832,1629056,201586,1610612751,1627789,1628386,1629058,1629185,202066,0041900113,3,2114,2115,0,0,1610612751
146,1610612761,1626181,1627783,1627832,1629056,201586,1610612751,1627789,1628386,1629058,1629185,202066,0041900113,3,2127,2130,0,0,1610612761
147,1610612761,1626181,1627783,1627832,1629056,201586,1610612751,1627789,1628386,1629058,1629185,202066,0041900113,3,2139,2140,0,0,1610612751
148,1610612761,1626181,1627783,1627832,1629056,201586,1610612751,1627789,1628386,1629058,1629185,202066,0041900113,3,2156,2157,2,0,1610612761
149,1610612761,1626181,1627783,1627832,1629056,201586,1610612751,1627789,1628386,1629058,1629185,202066,0041900113,3,2160,2160,0,0,1610612761
150,1610612761,1628384,200768,201586,1626181,1629056,1610612751,204020,1627747,1629185,1629066,1629058,0041900113,4,2160,2176,1,0,1610612761
151,1610612761,1628384,200768,201586,1626181,1629056,1610612751,204020,1627747,1629185,1629066,1629058,0041900113,4,2176,2193,0,2,1610612751
152,1610612761,1628384,200768,201586,1626181,1629056,1610612751,204020,1627747,1629185,1629066,1629058,0041900113,4,2212,2212,2,0,1610612761
153,1610612761,1628384,200768,201586,1626181,1629056,1610612751,204020,1627747,1629185,1629066,1629058,0041900113,4,2227,2227,0,2,1610612751
154,1610612761,1628384,200768,201586,1626181,1629056,1610612751,204020,1627747,1629185,1629066,1629058,0041900113,4,2236,2237,0,0,1610612761
155,1610612761,1628384,200768,201586,1626181,1629056,1610612751,204020,1627747,1629185,1629066,1629058,0041900113,4,2246,2246,0,3,1610612751
156,1610612761,1628384,200768,201586,1626181,1629056,1610612751,204020,1627747,1629185,1629066,1629058,0041900113,4,2263,2263,2,0,1610612761
157,1610612761,1628384,200768,201586,1626181,1629056,1610612751,204020,1627747,1629185,1629066,1629058,0041900113,4,2277,2278,0,0,1610612751
158,1610612761,1628384,200768,201586,1626181,1629056,1610612751,204020,1627747,1629185,1629066,1629058,0041900113,4,2286,2286,3,0,1610612761
159,1610612761,1628384,200768,201586,1626181,1629056,1610612751,204020,1627747,1629185,1629066,1629058,0041900113,4,2297,2297,0,1,1610612751
160,1610612761,1628384,200768,201586,1626181,1629056,1610612751,204020,1627747,1629185,1629066,1629058,0041900113,4,2308,2308,2,0,1610612761
161,1610612761,1628384,200768,201586,1626181,1629056,1610612751,204020,1627747,1629185,1629066,1629058,0041900113,4,2326,2327,0,0,1610612751
162,1610612761,1628384,200768,201586,1626181,1629056,1610612751,204020,1627747,1629185,1629066,1629058,0041900113,4,2331,2331,0,0,1610612761
163,1610612761,1628384,200768,201586,1626181,1629056,1610612751,204020,1627747,1629185,1629066,1629058,0041900113,4,2334,2334,0,2,1610612751
164,1610612761,1628384,200768,201586,1626181,1629056,1610612751,204020,1627747,1629185,1629066,1629058,0041900113,4,2351,2351,2,0,1610612761
165,1610612761,1628384,200768,201586,1626181,1629056,1610612751,204020,1627747,1629185,1629066,1629058,0041900113,4,2352,2358,0,0,1610612751
166,1610612761,1628384,200768,201586,1626181,1629056,1610612751,1627747,1627789,1628386,1629185,202066,0041900113,4,2361,2361,0,0,1610612761
167,1610612761,1628384,200768,201586,1626181,1629056,1610612751,1627747,1627789,1628386,1629185,202066,0041900113,4,2370,2370,0,0,1610612751
168,1610612761,1628384,200768,201586,1626181,1629056,1610612751,1627747,1627789,1628386,1629185,202066,0041900113,4,2374,2374,2,0,1610612761
169,1610612761,1628384,200768,201586,1626181,1629056,1610612751,1627747,1627789,1628386,1629185,202066,0041900113,4,2399,2400,0,0,1610612751
170,1610612761,1628384,200768,201586,1626181,1629056,1610612751,1627747,1627789,1628386,1629185,202066,0041900113,4,2412,2412,2,0,1610612761
171,1610612761,1628384,200768,201586,1626181,1629056,1610612751,1627747,1627789,1628386,1629185,202066,0041900113,4,2427,2427,0,3,1610612751
172,1610612761,1628384,200768,201586,1626181,1629056,1610612751,1627747,1627789,1628386,1629185,202066,0041900113,4,2453,2454,0,0,1610612761
173,1610612761,1628384,200768,201586,1626181,1629056,1610612751,1627747,1627789,1628386,1629185,202066,0041900113,4,2462,2471,0,0,1610612751
174,1610612761,1628384,200768,201586,1626181,1629056,1610612751,1627747,1627789,1628386,1629185,202066,0041900113,4,2489,2489,2,0,1610612761
175,1610612761,1628384,200768,201586,1626181,1629056,1610612751,1627747,1627789,1628386,1629185,202066,0041900113,4,2505,2505,0,0,1610612751
176,1610612761,1628384,200768,201586,1626181,1629056,1610612751,1627747,1627789,1628386,1629185,202066,0041900113,4,2508,2508,2,0,1610612761
177,1610612761,1628384,200768,201586,1626181,1629056,1610612751,1627747,1627789,1628386,1629185,202066,0041900113,4,2509,2533,0,0,1610612751
178,1610612761,1627783,1627832,1628384,200768,201188,1610612751,1626147,1629058,1629725,1629743,202498,0041900113,4,2541,2541,3,0,1610612761
179,1610612761,1627783,1627832,1628384,200768,201188,1610612751,1626147,1629058,1629725,1629743,202498,0041900113,4,2550,2551,0,0,1610612751
180,1610612761,1627783,1627832,1628384,200768,201188,1610612751,1626147,1629058,1629725,1629743,202498,0041900113,4,2557,2557,3,0,1610612761
181,1610612761,1627783,1627832,1628384,200768,201188,1610612751,1626147,1629058,1629725,1629743,202498,0041900113,4,2561,2579,0,0,1610612751
182,1610612761,1626259,1628449,1629056,1629744,201188,1610612751,1626147,1629058,1629725,1629743,202498,0041900113,4,2602,2603,0,0,1610612761
183,1610612761,1626259,1628449,1629056,1629744,201188,1610612751,1626147,1629058,1629725,1629743,202498,0041900113,4,2607,2610,0,0,1610612751
184,1610612761,1626259,1628449,1629056,1629744,201188,1610612751,1626147,1629058,1629725,1629743,202498,0041900113,4,2622,2625,0,0,1610612761
185,1610612761,1626259,1628449,1629056,1629744,201188,1610612751,1626147,1629058,1629725,1629743,202498,0041900113,4,2633,2633,0,1,1610612751
186,1610612761,1626169,1626259,1628449,1629056,1629744,1610612751,1626147,1629058,1629725,1629743,202498,0041900113,4,2649,2649,3,0,1610612761
187,1610612761,1626169,1626259,1628449,1629056,1629744,1610612751,1626147,1629058,1629725,1629743,202498,0041900113,4,2655,2666,0,0,1610612751
188,1610612761,1626169,1626259,1628449,1629056,1629744,1610612751,1626147,1629058,1629725,1629743,202498,0041900113,4,2689,2690,0,0,1610612761
189,1610612761,1626169,1626259,1628449,1629056,1629744,1610612751,1626147,1629058,1629725,1629743,202498,0041900113,4,2700,2701,0,0,1610612751
190,1610612761,1626169,1626259,1628449,1629056,1629744,1610612751,1626147,1629058,1629725,1629743,202498,0041900113,4,2706,2706,0,0,1610612761
191,1610612761,1626169,1626259,1628449,1628778,1629744,1610612751,1626147,1629058,1629725,1629743,202498,0041900113,4,2727,2727,0,3,1610612751
192,1610612761,1626169,1626259,1628449,1628778,1629744,1610612751,1626147,1629058,1629725,1629743,202498,0041900113,4,2740,2740,2,0,1610612761
193,1610612761,1626169,1626259,1628449,1628778,1629744,1610612751,1626147,1629058,1629725,1629743,202498,0041900113,4,2756,2759,0,1,1610612751
194,1610612761,1626169,1626259,1628449,1628778,1629744,1610612751,1626147,1629058,1629725,1629743,202498,0041900113,4,2774,2775,0,0,1610612761
195,1610612761,1626169,1626259,1628449,1628778,1629744,1610612751,1626147,1629058,1629725,1629743,202498,0041900113,4,2785,2786,0,0,1610612751
196,1610612761,1626169,1626259,1628449,1628778,1629744,1610612751,1626147,1629058,1629725,1629743,202498,0041900113,4,2800,2801,0,0,1610612761
197,1610612761,1626169,1626259,1628449,1628778,1629744,1610612751,1626147,1629058,1629725,1629743,202498,0041900113,4,2807,2807,0,2,1610612751
198,1610612761,1626169,1626259,1628449,1628778,1629744,1610612751,1626147,1629058,1629725,1629743,202498,0041900113,4,2816,2817,0,0,1610612761
199,1610612761,1626169,1626259,1628449,1628778,1629744,1610612751,1626147,1629058,1629725,1629743,202498,0041900113,4,2833,2833,0,2,1610612751
200,1610612761,1626169,1626259,1628449,1628778,1629744,1610612751,1626147,1629058,1629725,1629743,202498,0041900113,4,2846,2846,2,0,1610612761
201,1610612761,1626169,1626259,1628449,1628778,1629744,1610612751,1626147,1629058,1629725,1629743,202498,0041900113,4,2852,2853,0,2,1610612751
202,1610612761,1626169,1626259,1628449,1628778,1629744,1610612751,1626147,1629058,1629725,1629743,202498,0041900113,4,2877,2877,0,0,1610612761
