,team1_id,team1_player1,team1_player2,team1_player3,team1_player4,team1_player5,team2_id,team2_player1,team2_player2,team2_player3,team2_player4,team2_player5,game_id,period,possession_start,possession_end,team1_points,team2_points,possession_team
0,1610612759,1629640,203926,1627751,1630170,1627749,1610612740,1627742,1630529,202685,203468,1628984,0022100848,1,0,11,3,0,1610612759
1,1610612759,1629640,203926,1627751,1630170,1627749,1610612740,1627742,1630529,202685,203468,1628984,0022100848,1,31,34,0,0,1610612740
2,1610612759,1629640,203926,1627751,1630170,1627749,1610612740,1627742,1630529,202685,203468,1628984,0022100848,1,43,45,2,0,1610612759
3,1610612759,1629640,203926,1627751,1630170,1627749,1610612740,1627742,1630529,202685,203468,1628984,0022100848,1,57,70,0,0,1610612740
4,1610612759,1629640,203926,1627751,1630170,1627749,1610612740,1627742,1630529,202685,203468,1628984,0022100848,1,80,80,2,0,1610612759
5,1610612759,1629640,203926,1627751,1630170,1627749,1610612740,1627742,1630529,202685,203468,1628984,0022100848,1,89,89,0,3,1610612740
6,1610612759,1629640,203926,1627751,1630170,1627749,1610612740,1627742,1630529,202685,203468,1628984,0022100848,1,102,102,0,0,1610612759
7,1610612759,1629640,203926,1627751,1630170,1627749,1610612740,1627742,1630529,202685,203468,1628984,0022100848,1,113,113,0,2,1610612740
8,1610612759,1629640,203926,1627751,1630170,1627749,1610612740,1627742,1630529,202685,203468,1628984,0022100848,1,125,134,0,0,1610612759
9,1610612759,1629640,203926,1627751,1630170,1627749,1610612740,1627742,1630529,202685,203468,1628984,0022100848,1,140,145,0,0,1610612740
10,1610612759,1629640,203926,1627751,1630170,1627749,1610612740,1627742,1630529,202685,203468,1628984,0022100848,1,150,156,1,0,1610612759
11,1610612759,1629640,203926,1627751,1630170,1627749,1610612740,1627742,1630529,202685,203468,1628984,0022100848,1,164,164,0,0,1610612740
12,1610612759,1629640,203926,1627751,1630170,1627749,1610612740,1627742,1630529,202685,203468,1628984,0022100848,1,178,181,0,0,1610612759
13,1610612759,1629640,203926,1627751,1630170,1627749,1610612740,1627742,1630529,202685,203468,1628984,0022100848,1,186,186,0,0,1610612740
14,1610612759,1629640,203926,1627751,1630170,1627749,1610612740,1627742,1630529,202685,203468,1628984,0022100848,1,194,194,2,0,1610612759
15,1610612759,1629640,203926,1627751,1630170,1627749,1610612740,1627742,1630529,202685,203468,1628984,0022100848,1,206,206,0,3,1610612740
16,1610612759,1629640,203926,1627751,1630170,1627749,1610612740,1627742,1630529,202685,203468,1628984,0022100848,1,216,220,0,0,1610612759
17,1610612759,1629640,203926,1627751,1630170,1627749,1610612740,1627742,1630529,202685,203468,1628984,0022100848,1,232,236,0,0,1610612740
18,1610612759,1629640,203926,1627751,1630170,1627749,1610612740,1627742,1630529,202685,203468,1628984,0022100848,1,245,245,3,0,1610612759
19,1610612759,1629640,203926,1627751,1630170,1627749,1610612740,1627742,1630529,202685,203468,1628984,0022100848,1,264,284,0,2,1610612740
20,1610612759,1627749,1629022,1629111,1629640,1630563,1610612740,1627742,1630529,202685,203468,1628984,0022100848,1,284,298,3,0,1610612759
21,1610612759,1627749,1629022,1629111,1629640,1630563,1610612740,1627742,1630529,202685,203468,1628984,0022100848,1,320,320,0,2,1610612740
22,1610612759,1627749,1629022,1629111,1629719,1630563,1610612740,1627742,1628984,1629637,1630529,202685,0022100848,1,337,337,2,0,1610612759
23,1610612759,1627749,1629022,1629111,1629719,1630563,1610612740,1627742,1628984,1629637,1630529,202685,0022100848,1,357,357,0,2,1610612740
24,1610612759,1627749,1629022,1629111,1629719,1630563,1610612740,1627742,1628984,1629637,1630529,202685,0022100848,1,369,369,3,0,1610612759
25,1610612759,1627749,1629022,1629111,1629719,1630563,1610612740,1627742,1628984,1629637,1630529,202685,0022100848,1,384,384,0,3,1610612740
26,1610612759,1627749,1629022,1629111,1629719,1630563,1610612740,1627742,1629637,1630529,1630631,202685,0022100848,1,398,398,2,0,1610612759
27,1610612759,1627749,1629022,1629111,1629719,1630563,1610612740,1627742,1629637,1630529,1630631,202685,0022100848,1,411,411,0,0,1610612740
28,1610612759,1627749,1629022,1629111,1629719,1630563,1610612740,1627742,1629637,1630529,1630631,202685,0022100848,1,416,416,2,0,1610612759
29,1610612759,1627749,1629022,1629111,1629719,1630563,1610612740,1627742,1629637,1630529,1630631,202685,0022100848,1,428,431,0,1,1610612740
30,1610612759,1629022,1629111,1629719,1630200,1630563,1610612740,1627742,1629637,1630529,1630631,202685,0022100848,1,448,451,0,0,1610612759
31,1610612759,1629022,1629111,1629719,1630200,1630563,1610612740,1627742,1629637,1630529,1630631,202685,0022100848,1,459,463,0,0,1610612740
32,1610612759,1629022,1629111,1629719,1630200,1630563,1610612740,1627742,1629637,1630529,1630631,202685,0022100848,1,464,470,2,0,1610612759
33,1610612759,1629022,1629111,1629719,1630200,1630563,1610612740,1626195,1627742,1629637,1630529,1630631,0022100848,1,489,490,0,0,1610612740
34,1610612759,1629022,1629111,1629719,1630200,1630563,1610612740,1626195,1627742,1629637,1630529,1630631,0022100848,1,490,502,0,0,1610612759
35,1610612759,1629022,1629111,1629719,1630200,1630563,1610612740,1626195,1627742,1629637,1630529,1630631,0022100848,1,520,520,0,2,1610612740
36,1610612759,1629022,1629111,1629719,1630200,1630563,1610612740,1626195,1627742,1629637,1630529,1630631,0022100848,1,542,542,2,0,1610612759
37,1610612759,1629022,1629111,1629719,1630200,1630563,1610612740,1626195,1627742,1629637,1630529,1630631,0022100848,1,560,560,0,1,1610612740
38,1610612759,1629022,1629111,1629719,1630200,1630563,1610612740,1626195,1629637,1630230,1630631,203468,0022100848,1,577,581,2,0,1610612759
39,1610612759,1629022,1629111,1629719,1630200,1630563,1610612740,1626195,1629637,1630230,1630631,203468,0022100848,1,598,598,0,3,1610612740
40,1610612759,1629022,1629111,1629719,1630200,1630563,1610612740,1626195,1629637,1630230,1630631,203468,0022100848,1,605,608,0,0,1610612759
41,1610612759,1629022,1629111,1629719,1630200,1630563,1610612740,1626195,1629637,1630230,1630631,203468,0022100848,1,620,620,0,2,1610612740
42,1610612759,1629022,1629111,1629719,1630200,203926,1610612740,1626195,1629637,1630230,1630631,203468,0022100848,1,636,638,0,0,1610612759
43,1610612759,1629022,1629111,1629719,1630200,203926,1610612740,1626195,1629637,1630230,1630631,203468,0022100848,1,641,641,0,0,1610612740
44,1610612759,1629022,1629111,1629719,1630200,203926,1610612740,1626195,1629637,1630230,1630631,203468,0022100848,1,646,646,2,0,1610612759
45,1610612759,1629022,1629111,1629719,1630200,203926,1610612740,1626195,1629637,1630230,1630631,203468,0022100848,1,658,663,0,2,1610612740
46,1610612759,1629022,1629111,1629640,1630200,203926,1610612740,1626195,1629637,1630230,1630631,203468,0022100848,1,681,681,3,0,1610612759
47,1610612759,1629022,1629111,1629640,1630200,203926,1610612740,1626195,1629637,1630230,1630631,203468,0022100848,1,689,691,0,0,1610612740
48,1610612759,1629022,1629111,1629640,1630200,203926,1610612740,1626195,1629637,1630230,1630631,203468,0022100848,1,691,693,1,0,1610612759
49,1610612759,1629022,1629111,1629640,1630200,203926,1610612740,1626195,1629637,1630230,1630631,203468,0022100848,1,711,711,0,2,1610612740
50,1610612759,1629022,1629111,1629640,1630200,203926,1610612740,1626195,1629637,1630230,1630631,203468,0022100848,1,715,715,0,0,1610612759
51,1610612759,1629022,1629111,1629640,1630200,203926,1610612740,1626195,1629637,1630230,1630631,203468,0022100848,1,720,720,0,3,1610612740
52,1610612759,1629022,1629111,1629640,1630200,203926,1610612740,1626195,1629637,1630230,1630631,203468,0022100848,1,720,720,0,0,172
53,1610612759,1629640,203926,1627751,1630170,1627749,1610612740,202685,203468,1628984,1629637,1630230,0022100848,2,720,733,0,0,1610612740
54,1610612759,1629640,203926,1627751,1630170,1627749,1610612740,202685,203468,1628984,1629637,1630230,0022100848,2,751,762,0,0,1610612759
55,1610612759,1629640,203926,1627751,1630170,1627749,1610612740,202685,203468,1628984,1629637,1630230,0022100848,2,766,767,0,0,1610612740
56,1610612759,1629640,203926,1627751,1630170,1627749,1610612740,202685,203468,1628984,1629637,1630230,0022100848,2,780,784,0,0,1610612759
57,1610612759,1629640,203926,1627751,1630170,1627749,1610612740,202685,203468,1628984,1629637,1630230,0022100848,2,791,811,0,3,1610612740
58,1610612759,1629640,203926,1627751,1630170,1627749,1610612740,202685,203468,1628984,1629637,1630230,0022100848,2,825,827,0,0,1610612759
59,1610612759,1629640,203926,1627751,1630170,1627749,1610612740,202685,203468,1628984,1629637,1630230,0022100848,2,836,843,0,0,1610612740
60,1610612759,1629640,203926,1627751,1630170,1627749,1610612740,202685,203468,1628984,1629637,1630230,0022100848,2,844,858,1,0,1610612759
61,1610612759,1629640,203926,1627751,1630170,1627749,1610612740,202685,203468,1628984,1629637,1630230,0022100848,2,863,878,0,0,1610612740
62,1610612759,1629640,203926,1627751,1630170,1627749,1610612740,202685,203468,1628984,1629637,1630230,0022100848,2,883,883,3,0,1610612759
63,1610612759,1629640,203926,1627751,1630170,1627749,1610612740,202685,203468,1628984,1629637,1630230,0022100848,2,905,912,0,0,1610612740
64,1610612759,1629640,203926,1627751,1630170,1627749,1610612740,202685,203468,1628984,1629637,1630230,0022100848,2,919,919,3,0,1610612759
65,1610612759,1629640,203926,1627751,1630170,1627749,1610612740,202685,203468,1628984,1629637,1630230,0022100848,2,935,939,0,0,1610612740
66,1610612759,1629640,203926,1627751,1630170,1627749,1610612740,202685,203468,1628984,1629637,1630230,0022100848,2,940,940,2,0,1610612759
67,1610612759,1629640,203926,1627751,1630170,1627749,1610612740,202685,203468,1628984,1629637,1630230,0022100848,2,946,957,0,2,1610612740
68,1610612759,1629640,203926,1627751,1630170,1627749,1610612740,1627742,1630529,202066,202685,203468,0022100848,2,967,969,0,0,1610612759
69,1610612759,1629640,203926,1627751,1630170,1627749,1610612740,1627742,1630529,202066,202685,203468,0022100848,2,992,995,0,0,1610612740
70,1610612759,1629640,203926,1627751,1630170,1627749,1610612740,1627742,1630529,202066,202685,203468,0022100848,2,1008,1016,2,0,1610612759
71,1610612759,1629640,203926,1627751,1630170,1627749,1610612740,1627742,1630529,202066,202685,203468,0022100848,2,1036,1039,0,0,1610612740
72,1610612759,1629640,203926,1627751,1630170,1627749,1610612740,1627742,1630529,202066,202685,203468,0022100848,2,1045,1049,0,0,1610612759
73,1610612759,1629640,203926,1627751,1630170,1627749,1610612740,1627742,1630529,202066,202685,203468,0022100848,2,1061,1061,0,2,1610612740
74,1610612759,1629640,203926,1627751,1630170,1627749,1610612740,1627742,1630529,202066,202685,203468,0022100848,2,1081,1081,0,0,1610612759
75,1610612759,1627749,1629022,1629111,1629719,1630170,1610612740,1626195,1627742,1630529,1630631,202066,0022100848,2,1099,1099,0,2,1610612740
76,1610612759,1627749,1629022,1629111,1629719,1630170,1610612740,1626195,1627742,1630529,1630631,202066,0022100848,2,1101,1118,0,0,1610612759
77,1610612759,1627749,1629022,1629111,1629719,1630170,1610612740,1626195,1627742,1630529,1630631,202066,0022100848,2,1121,1121,0,3,1610612740
78,1610612759,1629022,1629111,1629719,1630170,1630200,1610612740,1626195,1627742,1630529,1630631,202066,0022100848,2,1145,1145,2,0,1610612759
79,1610612759,1629022,1629111,1629719,1630170,1630200,1610612740,1626195,1627742,1630529,1630631,202066,0022100848,2,1167,1167,0,2,1610612740
80,1610612759,1629022,1629111,1629719,1630170,1630200,1610612740,1626195,1627742,1630529,1630631,202066,0022100848,2,1181,1192,0,0,1610612759
81,1610612759,1629022,1629111,1629719,1630170,1630200,1610612740,1626195,1627742,1630529,1630631,202066,0022100848,2,1208,1210,0,0,1610612740
82,1610612759,1629022,1629111,1629719,1630170,1630200,1610612740,1626195,1627742,1630529,1630631,202066,0022100848,2,1221,1221,3,0,1610612759
83,1610612759,1629022,1629111,1629719,1630170,1630200,1610612740,1626195,1627742,1630529,1630631,202066,0022100848,2,1246,1250,0,0,1610612740
84,1610612759,1629022,1629111,1629719,1630170,1630200,1610612740,1626195,1627742,1630529,1630631,202066,0022100848,2,1254,1254,0,0,1610612759
85,1610612759,1629022,1629111,1629719,1630170,1630200,1610612740,1626195,1627742,1630529,1630631,202066,0022100848,2,1264,1264,0,2,1610612740
86,1610612759,1629022,1629111,1629719,1630170,1630200,1610612740,1626195,1627742,1630529,1630631,202066,0022100848,2,1288,1288,1,0,1610612759
87,1610612759,1627749,1627751,1629022,1629640,1630200,1610612740,1627742,1630529,1630631,202685,203468,0022100848,2,1294,1306,0,0,1610612740
88,1610612759,1627749,1627751,1629022,1629640,1630200,1610612740,1627742,1630529,1630631,202685,203468,0022100848,2,1317,1322,0,0,1610612759
89,1610612759,1627749,1627751,1629022,1629640,1630200,1610612740,1627742,1630529,1630631,202685,203468,0022100848,2,1324,1324,0,2,1610612740
90,1610612759,1627749,1627751,1629022,1629640,1630200,1610612740,1627742,1630529,1630631,202685,203468,0022100848,2,1342,1342,2,0,1610612759
91,1610612759,1627749,1627751,1629022,1629640,1630200,1610612740,1627742,1630529,1630631,202685,203468,0022100848,2,1355,1355,0,2,1610612740
92,1610612759,1627749,1627751,1629022,1629640,1630200,1610612740,1627742,1630529,1630631,202685,203468,0022100848,2,1369,1369,3,0,1610612759
93,1610612759,1627749,1627751,1629022,1629640,1630200,1610612740,1627742,1630529,1630631,202685,203468,0022100848,2,1381,1384,0,0,1610612740
94,1610612759,1627749,1627751,1629022,1629640,1630200,1610612740,1627742,1630529,1630631,202685,203468,0022100848,2,1392,1396,0,0,1610612759
95,1610612759,1627749,1627751,1629022,1629640,1630200,1610612740,1627742,1630529,1630631,202685,203468,0022100848,2,1401,1404,0,0,1610612740
96,1610612759,1627749,1627751,1629022,1629640,1630200,1610612740,1627742,1630529,1630631,202685,203468,0022100848,2,1405,1405,0,0,1610612759
97,1610612759,1627749,1627751,1629022,1629640,1630200,1610612740,1627742,1630529,1630631,202685,203468,0022100848,2,1414,1440,0,0,1610612759
98,1610612759,1629640,203926,1627751,1630170,1627749,1610612740,1627742,1630529,202685,203468,1628984,0022100848,3,1440,1457,0,2,1610612740
99,1610612759,1629640,203926,1627751,1630170,1627749,1610612740,1627742,1630529,202685,203468,1628984,0022100848,3,1470,1470,0,0,1610612759
100,1610612759,1629640,203926,1627751,1630170,1627749,1610612740,1627742,1630529,202685,203468,1628984,0022100848,3,1482,1485,0,0,1610612740
101,1610612759,1629640,203926,1627751,1630170,1627749,1610612740,1627742,1630529,202685,203468,1628984,0022100848,3,1491,1494,0,0,1610612759
102,1610612759,1629640,203926,1627751,1630170,1627749,1610612740,1627742,1630529,202685,203468,1628984,0022100848,3,1500,1500,0,2,1610612740
103,1610612759,1629640,203926,1627751,1630170,1627749,1610612740,1627742,1630529,202685,203468,1628984,0022100848,3,1510,1520,2,0,1610612759
104,1610612759,1629640,203926,1627751,1630170,1627749,1610612740,1627742,1630529,202685,203468,1628984,0022100848,3,1540,1540,0,0,1610612740
105,1610612759,1629640,203926,1627751,1630170,1627749,1610612740,1627742,1630529,202685,203468,1628984,0022100848,3,1547,1547,3,0,1610612759
106,1610612759,1629640,203926,1627751,1630170,1627749,1610612740,1627742,1630529,202685,203468,1628984,0022100848,3,1565,1565,0,2,1610612740
107,1610612759,1629640,203926,1627751,1630170,1627749,1610612740,1627742,1630529,202685,203468,1628984,0022100848,3,1578,1582,0,0,1610612759
108,1610612759,1629640,203926,1627751,1630170,1627749,1610612740,1627742,1630529,202685,203468,1628984,0022100848,3,1584,1587,0,0,1610612740
109,1610612759,1629640,203926,1627751,1630170,1627749,1610612740,1627742,1630529,202685,203468,1628984,0022100848,3,1598,1600,0,0,1610612759
110,1610612759,1629640,203926,1627751,1630170,1627749,1610612740,1627742,1630529,202685,203468,1628984,0022100848,3,1604,1604,0,2,1610612740
111,1610612759,1629640,203926,1627751,1630170,1627749,1610612740,1627742,1630529,202685,203468,1628984,0022100848,3,1620,1623,0,0,1610612759
112,1610612759,1629640,203926,1627751,1630170,1627749,1610612740,1627742,1630529,202685,203468,1628984,0022100848,3,1631,1631,0,2,1610612740
113,1610612759,1629640,203926,1627751,1630170,1627749,1610612740,1627742,1630529,202685,203468,1628984,0022100848,3,1650,1650,2,0,1610612759
114,1610612759,1629640,203926,1627751,1630170,1627749,1610612740,1627742,1630529,202685,203468,1628984,0022100848,3,1659,1659,0,0,1610612740
115,1610612759,1629640,203926,1627751,1630170,1627749,1610612740,1627742,1630529,202685,203468,1628984,0022100848,3,1662,1662,3,0,1610612759
116,1610612759,1629640,203926,1627751,1630170,1627749,1610612740,1627742,1630529,202685,203468,1628984,0022100848,3,1677,1677,0,2,1610612740
117,1610612759,1629640,203926,1627751,1630170,1627749,1610612740,1627742,1630529,202685,203468,1628984,0022100848,3,1698,1698,3,0,1610612759
118,1610612759,1629640,203926,1627751,1630170,1627749,1610612740,1627742,1630529,202685,203468,1628984,0022100848,3,1708,1722,0,0,1610612740
119,1610612759,1629640,203926,1627751,1630170,1627749,1610612740,1627742,1630529,202685,203468,1628984,0022100848,3,1724,1728,3,0,1610612759
120,1610612759,1629640,203926,1627751,1630170,1627749,1610612740,1627742,1630529,202685,203468,1628984,0022100848,3,1745,1748,0,0,1610612740
121,1610612759,1629640,203926,1627751,1630170,1627749,1610612740,1627742,1630529,202685,203468,1628984,0022100848,3,1755,1755,2,0,1610612759
122,1610612759,1629640,203926,1627751,1630170,1627749,1610612740,1627742,1630529,202685,203468,1628984,0022100848,3,1774,1774,0,3,1610612740
123,1610612759,1629640,203926,1627751,1630170,1627749,1610612740,1627742,1630529,202685,203468,1628984,0022100848,3,1784,1784,3,0,1610612759
124,1610612759,1627749,1627751,1629022,1629640,1630563,1610612740,1627742,1629637,1630529,1630631,202685,0022100848,3,1792,1796,0,0,1610612740
125,1610612759,1627749,1627751,1629022,1629640,1630563,1610612740,1627742,1629637,1630529,1630631,202685,0022100848,3,1796,1807,3,0,1610612759
126,1610612759,1627749,1627751,1629022,1629640,1630563,1610612740,1627742,1629637,1630529,1630631,202685,0022100848,3,1830,1830,0,3,1610612740
127,1610612759,1627749,1627751,1629022,1629640,1630563,1610612740,1627742,1629637,1630529,1630631,202685,0022100848,3,1845,1845,0,0,1610612759
128,1610612759,1627749,1627751,1629022,1629640,1630563,1610612740,1627742,1629637,1630529,1630631,202685,0022100848,3,1861,1861,0,2,1610612740
129,1610612759,1627749,1627751,1629022,1629640,1630563,1610612740,1627742,1629637,1630529,1630631,202685,0022100848,3,1874,1874,2,0,1610612759
130,1610612759,1627749,1627751,1629022,1629640,1630563,1610612740,1627742,1629637,1630529,1630631,202685,0022100848,3,1882,1882,0,2,1610612740
131,1610612759,1627749,1629022,1629111,1630170,1630563,1610612740,1626195,1627742,1629637,1630529,1630631,0022100848,3,1897,1906,0,0,1610612759
132,1610612759,1627749,1629022,1629111,1630170,1630563,1610612740,1626195,1627742,1629637,1630529,1630631,0022100848,3,1908,1908,0,2,1610612740
133,1610612759,1627749,1629022,1629111,1630170,1630563,1610612740,1626195,1627742,1629637,1630529,1630631,0022100848,3,1924,1924,2,0,1610612759
134,1610612759,1627749,1629022,1629111,1630170,1630563,1610612740,1626195,1627742,1629637,1630529,1630631,0022100848,3,1934,1934,0,0,1610612740
135,1610612759,1627749,1629022,1629111,1630170,1630563,1610612740,1626195,1627742,1629637,1630529,1630631,0022100848,3,1946,1950,0,0,1610612759
136,1610612759,1627749,1629022,1629111,1630170,1630563,1610612740,1626195,1627742,1629637,1630529,1630631,0022100848,3,1963,1963,0,2,1610612740
137,1610612759,1627749,1629022,1629111,1630170,1630563,1610612740,1626195,1627742,1629637,1630529,1630631,0022100848,3,1987,1987,2,0,1610612759
138,1610612759,1627749,1629022,1629111,1630170,1630563,1610612740,1626195,1627742,1629637,1630529,1630631,0022100848,3,2003,2003,0,0,1610612740
139,1610612759,1629022,1629111,1630170,1630200,1630563,1610612740,1626195,1629637,1630230,1630631,203468,0022100848,3,2017,2025,2,0,1610612759
140,1610612759,1629022,1629111,1630170,1630200,1630563,1610612740,1626195,1629637,1630230,1630631,203468,0022100848,3,2041,2041,0,1,1610612740
141,1610612759,1629022,1629111,1630170,1630200,1630563,1610612740,1626195,1629637,1630230,1630631,203468,0022100848,3,2055,2058,0,0,1610612759
142,1610612759,1629022,1629111,1630170,1630200,1630563,1610612740,1626195,1629637,1630230,1630631,203468,0022100848,3,2062,2062,0,0,1610612740
143,1610612759,1629022,1629111,1630170,1630200,1630563,1610612740,1626195,1629637,1630230,1630631,203468,0022100848,3,2068,2068,2,0,1610612759
144,1610612759,1629022,1629111,1630170,1630200,1630563,1610612740,1626195,1629637,1630230,1630631,203468,0022100848,3,2082,2085,0,0,1610612740
145,1610612759,1629022,1629111,1630170,1630200,1630563,1610612740,1626195,1629637,1630230,1630631,203468,0022100848,3,2092,2092,2,0,1610612759
146,1610612759,1629022,1629111,1630170,1630200,1630563,1610612740,1626195,1629637,1630230,1630631,203468,0022100848,3,2108,2113,0,0,1610612740
147,1610612759,1629022,1629111,1630170,1630200,1630563,1610612740,1626195,1629637,1630230,1630631,203468,0022100848,3,2131,2131,3,0,1610612759
148,1610612759,1629022,1629111,1630170,1630200,1630563,1610612740,1626195,1629637,1630230,1630631,203468,0022100848,3,2153,2153,0,2,1610612740
149,1610612759,1629022,1629111,1630170,1630200,1630563,1610612740,1626195,1629637,1630230,1630631,203468,0022100848,3,2160,2160,0,0,1610612759
150,1610612759,1629022,1629111,1630170,1630200,1630563,1610612740,1626195,1629637,1630230,1630631,203468,0022100848,3,2160,2160,0,0,518
151,1610612759,1630170,1630563,1629022,1629111,1630200,1610612740,1630529,203468,1629637,202066,1629109,0022100848,4,2160,2181,0,0,1610612759
152,1610612759,1630170,1630563,1629022,1629111,1630200,1610612740,1630529,203468,1629637,202066,1629109,0022100848,4,2190,2190,0,2,1610612740
153,1610612759,1630170,1630563,1629022,1629111,1630200,1610612740,1630529,203468,1629637,202066,1629109,0022100848,4,2212,2212,2,0,1610612759
154,1610612759,1630170,1630563,1629022,1629111,1630200,1610612740,1630529,203468,1629637,202066,1629109,0022100848,4,2227,2227,0,0,1610612740
155,1610612759,1630170,1630563,1629022,1629111,1630200,1610612740,1630529,203468,1629637,202066,1629109,0022100848,4,2236,2236,0,0,1610612759
156,1610612759,1630170,1630563,1629022,1629111,1630200,1610612740,1630529,203468,1629637,202066,1629109,0022100848,4,2242,2242,0,3,1610612740
157,1610612759,1630170,1630563,1629022,1629111,1630200,1610612740,1630529,203468,1629637,202066,1629109,0022100848,4,2262,2262,2,0,1610612759
158,1610612759,1629111,1629640,1630200,1630563,203926,1610612740,1630529,203468,1629637,202066,1629109,0022100848,4,2273,2278,0,0,1610612740
159,1610612759,1629111,1629640,1630200,1630563,203926,1610612740,1630529,203468,1629637,202066,1629109,0022100848,4,2298,2300,0,0,1610612759
160,1610612759,1629111,1629640,1630200,1630563,203926,1610612740,1630529,203468,1629637,202066,1629109,0022100848,4,2312,2312,0,3,1610612740
161,1610612759,1629111,1629640,1630200,1630563,203926,1610612740,1630529,203468,1629637,202066,1629109,0022100848,4,2325,2338,0,0,1610612759
162,1610612759,1629111,1629640,1630200,1630563,203926,1610612740,1630529,203468,1629637,202066,1629109,0022100848,4,2343,2343,0,2,1610612740
163,1610612759,1629111,1629640,1630200,1630563,203926,1610612740,1630529,203468,1629637,202066,1629109,0022100848,4,2344,2363,2,0,1610612759
164,1610612759,1627749,1627751,1629022,1629640,203926,1610612740,1630529,203468,1629637,202066,1629109,0022100848,4,2381,2381,0,0,1610612740
165,1610612759,1627749,1627751,1629022,1629640,203926,1610612740,1627742,1629109,1630529,202685,203468,0022100848,4,2393,2393,2,0,1610612759
166,1610612759,1627749,1627751,1629022,1629640,203926,1610612740,1627742,1629109,1630529,202685,203468,0022100848,4,2412,2423,0,2,1610612740
167,1610612759,1627749,1627751,1629022,1629640,203926,1610612740,1627742,1629109,1630529,202685,203468,0022100848,4,2432,2435,0,0,1610612759
168,1610612759,1627749,1627751,1629022,1629640,203926,1610612740,1627742,1629109,1630529,202685,203468,0022100848,4,2441,2445,0,0,1610612740
169,1610612759,1627749,1627751,1629022,1629640,203926,1610612740,1627742,1629109,1630529,202685,203468,0022100848,4,2465,2465,2,0,1610612759
170,1610612759,1627749,1627751,1629022,1629640,203926,1610612740,1627742,1629109,1630529,202685,203468,0022100848,4,2479,2479,0,3,1610612740
171,1610612759,1627749,1627751,1629022,1629640,203926,1610612740,1627742,1629109,1630529,202685,203468,0022100848,4,2494,2494,2,0,1610612759
172,1610612759,1627749,1627751,1629022,1629640,203926,1610612740,1627742,1629109,1630529,202685,203468,0022100848,4,2512,2512,0,2,1610612740
173,1610612759,1627749,1627751,1629022,1629640,203926,1610612740,1627742,1629109,1630529,202685,203468,0022100848,4,2524,2524,2,0,1610612759
174,1610612759,1627749,1627751,1629022,1629640,203926,1610612740,1627742,1629109,1630529,202685,203468,0022100848,4,2544,2544,0,2,1610612740
175,1610612759,1627749,1627751,1629022,1629640,203926,1610612740,1627742,1629109,1630529,202685,203468,0022100848,4,2561,2564,0,0,1610612759
176,1610612759,1627749,1627751,1629022,1629640,203926,1610612740,1627742,1629109,1630529,202685,203468,0022100848,4,2572,2572,0,0,1610612740
177,1610612759,1627749,1627751,1629022,1629640,203926,1610612740,1627742,1629109,1630529,202685,203468,0022100848,4,2579,2583,0,0,1610612759
178,1610612759,1627749,1627751,1629022,1629640,203926,1610612740,1627742,1629109,1630529,202685,203468,0022100848,4,2587,2590,0,0,1610612740
179,1610612759,1627749,1627751,1629022,1629640,203926,1610612740,1627742,1629109,1630529,202685,203468,0022100848,4,2604,2604,3,0,1610612759
180,1610612759,1627749,1627751,1629022,1629640,1630170,1610612740,1627742,1628984,1629109,1630529,202685,0022100848,4,2623,2626,0,0,1610612740
181,1610612759,1627749,1627751,1629022,1629640,1630170,1610612740,1627742,1628984,1629109,1630529,202685,0022100848,4,2644,2655,2,0,1610612759
182,1610612759,1627749,1627751,1629022,1629640,1630170,1610612740,1627742,1628984,1629109,1630529,202685,0022100848,4,2656,2669,0,0,1610612740
183,1610612759,1627749,1627751,1629022,1629640,1630170,1610612740,1627742,1628984,1630529,202685,203468,0022100848,4,2678,2682,0,0,1610612759
184,1610612759,1627749,1627751,1629022,1629640,1630170,1610612740,1627742,1628984,1630529,202685,203468,0022100848,4,2688,2691,0,0,1610612740
185,1610612759,1627749,1627751,1629022,1629640,1630170,1610612740,1627742,1628984,1630529,202685,203468,0022100848,4,2710,2710,2,0,1610612759
186,1610612759,1627749,1627751,1629022,1629640,1630170,1610612740,1627742,1628984,1630529,202685,203468,0022100848,4,2726,2726,0,3,1610612740
187,1610612759,1627749,1627751,1629022,1629640,1630170,1610612740,1627742,1628984,1630529,202685,203468,0022100848,4,2745,2745,3,0,1610612759
188,1610612759,1627749,1627751,1629022,1629640,1630170,1610612740,1627742,1628984,1630529,202685,203468,0022100848,4,2764,2764,0,3,1610612740
189,1610612759,1627749,1627751,1629022,1629640,1630170,1610612740,1627742,1628984,1630529,202685,203468,0022100848,4,2782,2800,0,0,1610612759
190,1610612759,1627749,1627751,1629022,1629640,1630170,1610612740,1627742,1628984,1630529,202685,203468,0022100848,4,2814,2814,0,3,1610612740
191,1610612759,1627749,1627751,1629022,1629640,1630170,1610612740,1627742,1628984,1630529,202685,203468,0022100848,4,2834,2834,2,0,1610612759
192,1610612759,1627749,1627751,1629022,1629640,1630170,1610612740,1627742,1628984,1630529,202685,203468,0022100848,4,2841,2841,0,2,1610612740
193,1610612759,1627749,1627751,1629022,1629640,1630170,1610612740,1627742,1628984,1630529,202685,203468,0022100848,4,2857,2860,0,0,1610612759
194,1610612759,1627749,1627751,1629022,1629640,1630170,1610612740,1627742,1628984,1630529,202685,203468,0022100848,4,2867,2867,0,2,1610612740
