,TEAM_ID_1,TEAM_1_PLAYERS,TEAM_ID_2,TEAM_2_PLAYERS,PERIOD
0,1610612746,[ 201587  202694 1627826 1629611  202704],1610612742,[ 203493 1627827  203939 1628973 1629029],1
1,1610612746,[1629611 1628379 1629599 1628392  203496],1610612742,[ 203493 1628973 1630182 1628467 1628373],2
2,1610612746,[ 201587  202694 1627826 1629611  202704],1610612742,[ 203493 1627827  203939 1628973 1629029],3
3,1610612746,[ 202704 1628379 1629599 1628392  203496],1610612742,[ 203493 1628973 1630182 1628467 1628373],4
