,TEAM_ID_1,TEAM_1_PLAYERS,TEAM_ID_2,TEAM_2_PLAYERS,PERIOD
0,1610612765,[1630180  203924  203486  201961 1626153],1610612751,[1628971  203925  201599  202681  201935],1
1,1610612765,[ 203924  203585 1628367 1630240 1630191],1610612751,[ 201935 1629013  201145  204020 1629651],2
2,1610612765,[1630180  203924  203486  201961 1626153],1610612751,[1628971  203925  201599  202681  201935],3
3,1610612765,[1630180  203585 1628367 1630240 1630191],1610612751,[ 201935 1629013  201145  204020 1629651],4
