,TEAM_ID_1,TEAM_1_PLAYERS,TEAM_ID_2,TEAM_2_PLAYERS,PERIOD
0,1610612751,[ 203925 1627752 1628386  202066  203915],1610612761,[1628384 1627783  201188 1626181  200768],1
1,1610612751,[ 202066 1629066 1627789  201599 1629033],1610612761,[ 200768 1627775 1629056  201586 1626178],2
2,1610612751,[ 203925 1627752 1628386  202066  203915],1610612761,[1628384 1627783  201188 1626181  200768],3
3,1610612751,[ 202066 1628021 1629066 1627789  201599],1610612761,[1628384  201188  200768 1627775  201586],4
