,TEAM_ID_1,TEAM_1_PLAYERS,TEAM_ID_2,TEAM_2_PLAYERS,PERIOD
0,1610612749,[ 203114  203507  201572 1628978  201950],1610612759,[ 201942 1629640 1627751 1629022 1627749],1
1,1610612749,[ 203114  203507  201950 1626171 1626192],1610612759,[1627749  201988  200752 1629234 1630170],2
2,1610612749,[ 203114  203507  201572 1628978  201950],1610612759,[ 201942 1629640 1627751 1629022 1627749],3
3,1610612749,[ 203507 1628978  200782 1627854 1626192],1610612759,[1629640 1627751 1627749  201988  200752],4
