,stint_end,t1_players,t2_pm,t2_points_scored,stint_start,t1_pm,t1_points_scored,t2_id,t1_id,t2_players,margin_per_100,num_poss
0,232,"[1627759, 1629684, 202684, 203935, 202689]",2,12,0,-2,10,1610612755,1610612738,"[201980, 202699, 203954, 203552, 1627732]",-12.5,16.0
1,385,"[1627759, 1629684, 202684, 203935, 202689]",4,21,233,-4,17,1610612755,1610612738,"[201980, 202699, 203954, 203552, 1627732]",-14.814814814814813,27.0
2,468,"[1627759, 1628464, 202684, 202689, 203935]",2,21,386,-2,19,1610612755,1610612738,"[201980, 202699, 203954, 203552, 1627732]",-6.451612903225806,31.0
3,521,"[1627759, 1628464, 1629057, 1630202, 203935]",2,23,469,-2,21,1610612755,1610612738,"[1627732, 1629003, 201980, 202699, 2730]",-5.714285714285714,35.0
4,610,"[1627759, 1628464, 1629057, 1630202, 203935]",-2,23,522,2,25,1610612755,1610612738,"[1627732, 1627788, 1629003, 201980, 2730]",5.0,40.0
5,635,"[1627759, 1628464, 1629057, 201952, 203935]",-5,23,611,5,28,1610612755,1610612738,"[1627732, 1627788, 1629003, 1629680, 2730]",11.904761904761903,42.0
6,716,"[1628464, 1629057, 1629750, 201952, 203935]",-8,25,636,8,33,1610612755,1610612738,"[1627732, 1627788, 1629003, 1629680, 2730]",16.3265306122449,49.0
7,882,"[1628464, 1629057, 1629750, 201952, 203935]",-6,29,717,6,35,1610612755,1610612738,"[1627788, 1629003, 1629680, 202699, 2730]",10.0,60.0
8,911,"[202689, 1629057, 201952, 1629750, 1628400]",-6,29,883,6,35,1610612755,1610612738,"[202699, 2730, 1629003, 1627788, 1629680]",9.836065573770492,61.0
9,1007,"[1628400, 1629750, 201952, 202684, 202689]",-6,31,912,6,37,1610612755,1610612738,"[1627788, 1629680, 1630178, 202699, 2730]",9.090909090909092,66.0
10,1021,"[1628400, 1629750, 201952, 202684, 202689]",-6,31,1008,6,37,1610612755,1610612738,"[1627788, 1629680, 1630178, 202699, 203954]",9.090909090909092,66.0
11,1203,"[1628400, 1629750, 201952, 202684, 203935]",-5,39,1022,5,44,1610612755,1610612738,"[1627788, 1630178, 202699, 203552, 203954]",6.41025641025641,78.0
12,1283,"[1627759, 1628400, 201952, 202684, 203935]",-3,44,1204,3,47,1610612755,1610612738,"[1627732, 1630178, 202699, 203552, 203954]",3.614457831325301,83.0
13,1355,"[1627759, 1628400, 1628464, 1629057, 203935]",-1,46,1284,1,47,1610612755,1610612738,"[1627732, 201980, 202699, 203552, 203954]",1.1494252873563218,87.0
14,1414,"[1627759, 1628464, 1629057, 1629750, 203935]",-3,49,1356,3,52,1610612755,1610612738,"[1627732, 201980, 202699, 203552, 203954]",3.296703296703297,91.0
15,1434,"[1627759, 1628464, 1629750, 202689, 203935]",-3,49,1415,3,52,1610612755,1610612738,"[1627732, 201980, 202699, 203552, 2730]",3.260869565217391,92.0
16,1663,"[1627759, 1628464, 1629750, 202689, 203935]",-3,59,1435,3,62,1610612755,1610612738,"[1629680, 1630178, 201980, 202699, 2730]",2.7522935779816518,109.0
17,1720,"[1627759, 202684, 203935, 202689, 1628464]",-3,63,1664,3,66,1610612755,1610612738,"[201980, 202699, 203954, 203552, 1627732]",2.6548672566371683,113.0
18,1768,"[1627759, 202684, 203935, 202689, 1628464]",-4,65,1721,4,69,1610612755,1610612738,"[1627732, 1627788, 201980, 203552, 203954]",3.4482758620689653,116.0
19,1824,"[1627759, 202684, 203935, 202689, 1628464]",-1,68,1769,1,69,1610612755,1610612738,"[1627732, 201980, 202699, 203552, 203954]",0.8333333333333334,120.0
20,1880,"[1627759, 1628464, 201952, 202684, 203935]",5,74,1825,-5,69,1610612755,1610612738,"[1627732, 201980, 202699, 203552, 203954]",-4.0650406504065035,123.0
21,1925,"[1627759, 1628464, 1629684, 201952, 203935]",3,76,1881,-3,73,1610612755,1610612738,"[1627732, 201980, 202699, 203552, 203954]",-2.380952380952381,126.0
22,1970,"[1627759, 1628464, 1629684, 201952, 203935]",5,78,1926,-5,73,1610612755,1610612738,"[1627732, 1629003, 201980, 202699, 2730]",-3.875968992248062,129.0
23,2017,"[1627759, 1629057, 1629684, 1629750, 201952]",7,80,1971,-7,73,1610612755,1610612738,"[1629003, 1629680, 201980, 202699, 2730]",-5.263157894736842,133.0
24,2130,"[1627759, 1629057, 1629684, 1629750, 201952]",10,90,2018,-10,80,1610612755,1610612738,"[1627788, 1629003, 1629680, 202699, 2730]",-7.042253521126761,142.0
25,2156,"[1629057, 1629684, 1629750, 201952, 202689]",11,91,2131,-11,80,1610612755,1610612738,"[1627788, 1629003, 1629680, 202699, 2730]",-7.6923076923076925,143.0
26,2213,"[1629057, 1629684, 1629750, 201952, 202689]",12,94,2157,-12,82,1610612755,1610612738,"[1627788, 1629003, 1629680, 1630178, 2730]",-8.16326530612245,147.0
27,2275,"[203935, 202689, 1629057, 1629750, 1628400]",12,94,2214,-12,82,1610612755,1610612738,"[202699, 2730, 1629003, 1627788, 1629680]",-7.9470198675496695,151.0
28,2317,"[1628400, 1629750, 202684, 202689, 203935]",9,94,2276,-9,85,1610612755,1610612738,"[202699, 2730, 1629003, 1627788, 1629680]",-5.844155844155844,154.0
29,2422,"[1628400, 1629750, 202684, 202689, 203935]",12,101,2318,-12,89,1610612755,1610612738,"[1627732, 1627788, 1629003, 1629680, 2730]",-7.453416149068323,161.0
30,2491,"[1627759, 1628400, 1629750, 202684, 203935]",5,101,2423,-5,96,1610612755,1610612738,"[1627732, 1627788, 1629003, 1629680, 203954]",-3.0120481927710845,166.0
31,2570,"[1627759, 1628400, 1629750, 202684, 203935]",4,101,2492,-4,97,1610612755,1610612738,"[1627732, 1629003, 201980, 202699, 203954]",-2.3391812865497075,171.0
32,2607,"[1627759, 1628400, 1629750, 202684, 203935]",3,103,2571,-3,100,1610612755,1610612738,"[1627732, 201980, 202699, 203552, 203954]",-1.7241379310344827,174.0
33,2621,"[1627759, 1628400, 202684, 202689, 203935]",6,106,2608,-6,100,1610612755,1610612738,"[1627732, 201980, 202699, 203552, 203954]",-3.4090909090909087,176.0
34,2694,"[1627759, 1628400, 202684, 202689, 203935]",16,116,2622,-16,100,1610612755,1610612738,"[1627732, 1629680, 202699, 203552, 203954]",-8.791208791208792,182.0
35,2777,"[1627759, 1628464, 202684, 202689, 203935]",15,120,2695,-15,105,1610612755,1610612738,"[1627732, 1629680, 202699, 203552, 203954]",-7.936507936507936,189.0
36,2877,"[1627759, 1628400, 1628464, 202689, 203935]",15,125,2778,-15,110,1610612755,1610612738,"[1627732, 1629680, 202699, 203552, 203954]",-7.653061224489796,196.0
37,9999999,"[1627759, 1628464, 1629684, 202689, 203935]",15,125,2878,-15,110,1610612755,1610612738,"[1627732, 1629680, 202699, 203552, 203954]",-7.614213197969544,197.0
