,TEAM_ID_1,TEAM_1_PLAYERS,TEAM_ID_2,TEAM_2_PLAYERS,PERIOD
0,1610612741,[1627884  201942  202696  203897 1629632],1610612764,[ 203484 1628398 1629655 1630557  203078],1
1,1610612741,[ 201942 1628972 1630245 1629744 1629076],1610612764,[ 203484 1628398 1629655  203078 1630166],2
2,1610612741,[1627884  201942  202696  203897 1629632],1610612764,[ 203484 1628398 1629655 1630557  203078],3
3,1610612741,[1627884  201942 1628972 1630245 1629744],1610612764,[1628398 1630557  203078 1630166 1629682],4
