,t1_points_scored,stint_end,t2_pm,t1_players,t2_id,t1_id,t2_players,t2_points_scored,t1_pm,stint_start,margin_per_100,num_poss
0,13,316,-5,"[203463, 200782, 1627863, 201569, 203085]",1610612762,1610612745,"[202711, 1626220, 203497, 204060, 1628378]",8,5,0,26.31578947368421,19.0
1,13,381,-3,"[203463, 200782, 1627863, 201569, 203085]",1610612762,1610612745,"[202711, 1626220, 203497, 204060, 1628378]",10,3,317,13.043478260869565,23.0
2,16,434,-3,"[1626187, 1627863, 200757, 200782, 201569]",1610612762,1610612745,"[202711, 1626220, 203497, 204060, 1628378]",13,3,382,11.11111111111111,27.0
3,18,460,-5,"[1626187, 1627863, 200757, 200782, 201569]",1610612762,1610612745,"[1627777, 201144, 202711, 203497, 204060]",13,5,435,17.857142857142858,28.0
4,22,537,-9,"[1626187, 1627863, 200757, 200782, 201569]",1610612762,1610612745,"[1627777, 201144, 202711, 203497, 203903]",13,9,461,26.47058823529412,34.0
5,24,600,-6,"[1626187, 1627863, 200757, 200782, 203085]",1610612762,1610612745,"[1627777, 201144, 202711, 203497, 203903]",18,6,538,15.384615384615385,39.0
6,28,719,-8,"[1626187, 1628392, 1629598, 200757, 203085]",1610612762,1610612745,"[1626220, 1628378, 1628396, 201144, 203903]",20,8,601,16.666666666666664,48.0
7,28,788,-4,"[1627863, 1628392, 1629598, 200757, 203085]",1610612762,1610612745,"[1626220, 1628378, 1628396, 201144, 203903]",24,4,720,7.2727272727272725,55.0
8,30,893,1,"[203463, 1627863, 203085, 1628392, 1629598]",1610612762,1610612745,"[204060, 1628378, 1627777, 203903, 1628396]",31,-1,789,-1.5873015873015872,63.0
9,30,975,3,"[1627863, 1628392, 1629598, 201569, 203463]",1610612762,1610612745,"[204060, 1628378, 1627777, 203903, 1628396]",33,-3,894,-4.285714285714286,70.0
10,39,1052,-4,"[1627863, 1629598, 200782, 201569, 203463]",1610612762,1610612745,"[1627777, 201144, 203497, 203903, 204060]",35,4,976,5.263157894736842,76.0
11,39,1094,-4,"[1627863, 200782, 201569, 203085, 203463]",1610612762,1610612745,"[201144, 202711, 203497, 203903, 204060]",35,4,1053,5.128205128205128,78.0
12,42,1146,-4,"[1627863, 200757, 201569, 203085, 203463]",1610612762,1610612745,"[1626220, 201144, 202711, 203497, 203903]",38,4,1095,4.878048780487805,82.0
13,46,1229,-6,"[1627863, 200757, 201569, 203085, 203463]",1610612762,1610612745,"[1626220, 1628378, 201144, 202711, 203497]",40,6,1147,6.8181818181818175,88.0
14,56,1419,-10,"[1626187, 1627863, 200757, 201569, 203085]",1610612762,1610612745,"[1626220, 1628378, 201144, 202711, 203497]",46,10,1230,9.523809523809524,105.0
15,59,1439,-13,"[1626187, 1627863, 200757, 201569, 203085]",1610612762,1610612745,"[1626220, 1628378, 202711, 203497, 204060]",46,13,1420,12.264150943396226,106.0
16,70,1822,-10,"[1626187, 1627863, 200757, 201569, 203085]",1610612762,1610612745,"[1626220, 201144, 202711, 203497, 204060]",60,10,1440,7.751937984496124,129.0
17,72,1864,-6,"[203463, 200782, 1627863, 201569, 203085]",1610612762,1610612745,"[202711, 1626220, 203497, 204060, 1628378]",66,6,1823,4.511278195488721,133.0
18,72,1894,-6,"[1626187, 1627863, 200782, 203085, 203463]",1610612762,1610612745,"[1627777, 201144, 202711, 203497, 204060]",66,6,1865,4.444444444444445,135.0
19,77,1973,-9,"[1626187, 1627863, 200757, 203085, 203463]",1610612762,1610612745,"[1627777, 201144, 202711, 203497, 204060]",68,9,1895,6.382978723404255,141.0
20,79,2014,-9,"[1626187, 1627863, 200757, 203085, 203463]",1610612762,1610612745,"[1627777, 201144, 202711, 203497, 203903]",70,9,1974,6.25,144.0
21,82,2077,-10,"[1626187, 1627863, 200757, 203085, 203463]",1610612762,1610612745,"[1627777, 1628378, 201144, 203497, 203903]",72,10,2015,6.666666666666667,150.0
22,87,2157,-15,"[1626187, 1627863, 200757, 203085, 203463]",1610612762,1610612745,"[1627777, 1628378, 1628396, 201144, 203903]",72,15,2078,9.740259740259742,154.0
23,87,2180,-10,"[1626187, 200757, 200782, 201569, 203085]",1610612762,1610612745,"[1627777, 1628378, 1628396, 201144, 203903]",77,10,2158,6.41025641025641,156.0
24,89,2255,-8,"[200782, 1627863, 201569, 200757, 1626187]",1610612762,1610612745,"[204060, 1628378, 1627777, 203903, 1628396]",81,8,2181,5.0,160.0
25,93,2309,-12,"[200782, 1627863, 201569, 200757, 1626187]",1610612762,1610612745,"[1626220, 1627777, 1628378, 1628396, 203903]",81,12,2256,7.361963190184049,163.0
26,93,2327,-12,"[1626187, 1627863, 200782, 201569, 203085]",1610612762,1610612745,"[1626220, 1627777, 1628378, 1628396, 203903]",81,12,2310,7.317073170731707,164.0
27,100,2454,-12,"[1626187, 1627863, 200782, 201569, 203085]",1610612762,1610612745,"[1626220, 1628378, 201144, 203497, 203903]",88,12,2328,6.9364161849710975,173.0
28,104,2497,-15,"[1626187, 1627863, 200782, 201569, 203085]",1610612762,1610612745,"[201144, 202711, 203497, 203903, 204060]",89,15,2455,8.379888268156424,179.0
29,106,2504,-17,"[1627863, 200782, 201569, 203085, 203463]",1610612762,1610612745,"[201144, 202711, 203497, 203903, 204060]",89,17,2498,9.392265193370166,181.0
30,115,2771,-10,"[1627863, 200782, 201569, 203085, 203463]",1610612762,1610612745,"[1628378, 201144, 202711, 203497, 204060]",105,10,2505,4.9504950495049505,202.0
31,122,2859,-8,"[1627863, 200757, 200782, 201569, 203085]",1610612762,1610612745,"[1628378, 201144, 202711, 203497, 204060]",114,8,2772,3.7735849056603774,212.0
32,126,2872,-9,"[1627863, 200757, 200782, 201569, 203085]",1610612762,1610612745,"[1626220, 1628378, 202711, 203497, 204060]",117,9,2860,4.186046511627907,215.0
33,126,9999999,-9,"[1627863, 200757, 200782, 201569, 203085]",1610612762,1610612745,"[1626220, 1628378, 202711, 203497, 203903]",117,9,2873,4.166666666666666,216.0
