,team1_id,team1_player1,team1_player2,team1_player3,team1_player4,team1_player5,team2_id,team2_player1,team2_player2,team2_player3,team2_player4,team2_player5,game_id,period,possession_start,possession_end,team1_points,team2_points,possession_team
0,1610612765,203924,1630180,203486,202709,1628367,1610612764,1630166,1629060,203458,203078,201566,0022000856,1,0,27,0,0,1610612765
1,1610612765,203924,1630180,203486,202709,1628367,1610612764,1630166,1629060,203458,203078,201566,0022000856,1,40,40,0,0,1610612764
2,1610612765,203924,1630180,203486,202709,1628367,1610612764,1630166,1629060,203458,203078,201566,0022000856,1,53,53,0,0,1610612765
3,1610612765,203924,1630180,203486,202709,1628367,1610612764,1630166,1629060,203458,203078,201566,0022000856,1,68,71,0,0,1610612764
4,1610612765,203924,1630180,203486,202709,1628367,1610612764,1630166,1629060,203458,203078,201566,0022000856,1,75,78,0,0,1610612765
5,1610612765,203924,1630180,203486,202709,1628367,1610612764,1630166,1629060,203458,203078,201566,0022000856,1,98,98,0,2,1610612764
6,1610612765,203924,1630180,203486,202709,1628367,1610612764,1630166,1629060,203458,203078,201566,0022000856,1,107,118,2,0,1610612765
7,1610612765,203924,1630180,203486,202709,1628367,1610612764,1630166,1629060,203458,203078,201566,0022000856,1,139,139,0,0,1610612764
8,1610612765,203924,1630180,203486,202709,1628367,1610612764,1630166,1629060,203458,203078,201566,0022000856,1,145,147,0,0,1610612765
9,1610612765,203924,1630180,203486,202709,1628367,1610612764,1630166,1629060,203458,203078,201566,0022000856,1,157,157,0,2,1610612764
10,1610612765,203924,1630180,203486,202709,1628367,1610612764,1630166,1629060,203458,203078,201566,0022000856,1,172,175,0,0,1610612765
11,1610612765,203924,1630180,203486,202709,1628367,1610612764,1630166,1629060,203458,203078,201566,0022000856,1,184,186,0,0,1610612764
12,1610612765,203924,1630180,203486,202709,1628367,1610612764,1630166,1629060,203458,203078,201566,0022000856,1,199,206,0,0,1610612765
13,1610612765,203924,1630180,203486,202709,1628367,1610612764,1630166,1629060,203458,203078,201566,0022000856,1,209,218,0,0,1610612764
14,1610612765,203924,1630180,203486,202709,1628367,1610612764,1630166,1629060,203458,203078,201566,0022000856,1,219,233,0,0,1610612765
15,1610612765,203924,1630180,203486,202709,1628367,1610612764,1630166,1629060,203458,203078,201566,0022000856,1,239,239,0,2,1610612764
16,1610612765,203924,1630180,203486,202709,1628367,1610612764,1630166,1629060,203458,203078,201566,0022000856,1,255,256,0,0,1610612765
17,1610612765,203924,1630180,203486,202709,1628367,1610612764,1630166,1629060,203458,203078,201566,0022000856,1,262,262,0,0,1610612764
18,1610612765,203924,1630180,203486,202709,1628367,1610612764,1630166,1629060,203458,203078,201566,0022000856,1,262,275,2,0,1610612765
19,1610612765,203924,1630180,203486,202709,1628367,1610612764,1630166,1629060,203458,203078,201566,0022000856,1,291,291,0,2,1610612764
20,1610612765,203924,1630180,203486,202709,1628367,1610612764,1630166,1629060,203458,203078,201566,0022000856,1,303,303,2,0,1610612765
21,1610612765,203924,1630180,203486,202709,1628367,1610612764,1630166,1629060,203458,203078,201566,0022000856,1,319,319,0,2,1610612764
22,1610612765,203924,1630180,203486,202709,1628367,1610612764,1630166,1629060,203458,203078,201566,0022000856,1,334,336,0,0,1610612765
23,1610612765,203924,1630180,203486,202709,1628367,1610612764,1630166,1629060,203458,203078,201566,0022000856,1,344,344,0,2,1610612764
24,1610612765,203924,1630180,203486,202709,1628367,1610612764,1630166,1629060,203458,203078,201566,0022000856,1,349,349,0,0,1610612765
25,1610612765,203924,1630180,203486,202709,1628367,1610612764,1630166,1629060,203458,203078,201566,0022000856,1,349,349,0,1,1610612764
26,1610612765,203924,1630180,203486,202709,1628367,1610612764,1629060,1630166,202397,203078,203458,0022000856,1,361,361,2,0,1610612765
27,1610612765,203924,1630180,203486,202709,1628367,1610612764,1629060,1630166,202397,203078,203458,0022000856,1,373,373,0,2,1610612764
28,1610612765,203924,1630180,203486,202709,1628367,1610612764,1629060,1630166,202397,203078,203458,0022000856,1,373,389,2,0,1610612765
29,1610612765,203924,1630180,203486,202709,1628367,1610612764,1629060,1630166,202397,203078,203458,0022000856,1,400,400,0,0,1610612764
30,1610612765,1630180,1630191,201961,202709,203924,1610612764,1629655,1629726,1630166,202397,203078,0022000856,1,419,422,0,0,1610612765
31,1610612765,1630180,1630191,201961,202709,203924,1610612764,1629655,1629726,1630166,202397,203078,0022000856,1,426,426,0,3,1610612764
32,1610612765,1630180,1630191,201961,202709,203924,1610612764,1629655,1629726,1630166,202397,203078,0022000856,1,439,439,2,0,1610612765
33,1610612765,1630180,1630191,201961,202709,203924,1610612764,1629655,1629726,1630166,202397,203078,0022000856,1,454,454,0,2,1610612764
34,1610612765,1630180,1630191,201961,202709,203924,1610612764,1629655,1629726,1630166,202397,203078,0022000856,1,467,470,0,0,1610612765
35,1610612765,1630180,1630191,201961,202709,203924,1610612764,1629655,1629726,1630166,202397,203078,0022000856,1,476,476,0,2,1610612764
36,1610612765,1630180,1630191,201961,202709,203924,1610612764,1629655,1629726,1630166,202397,203078,0022000856,1,494,494,3,0,1610612765
37,1610612765,1630180,1630191,201961,202709,203924,1610612764,1629655,1629726,1630166,202397,203078,0022000856,1,504,507,0,0,1610612764
38,1610612765,1630180,1630191,201961,202709,203924,1610612764,1629655,1629726,1630166,202397,203078,0022000856,1,516,516,2,0,1610612765
39,1610612765,1630180,1630191,201961,202709,203924,1610612764,1629655,1629726,1630166,202397,203078,0022000856,1,528,531,0,0,1610612764
40,1610612765,1630180,1630191,201961,202709,203924,1610612764,1629655,1629726,1630166,202397,203078,0022000856,1,540,543,0,0,1610612765
41,1610612765,1630180,1630191,201961,202709,203924,1610612764,1629655,1629726,1630166,202397,203078,0022000856,1,549,549,0,3,1610612764
42,1610612765,1628402,1630191,201961,202709,203924,1610612764,1629067,1629655,1629726,201566,202397,0022000856,1,555,555,3,0,1610612765
43,1610612765,1628402,1630191,201961,202709,203924,1610612764,1629067,1629655,1629726,201566,202397,0022000856,1,570,573,0,0,1610612764
44,1610612765,1628402,1630191,201961,202709,203924,1610612764,1629067,1629655,1629726,201566,202397,0022000856,1,580,583,0,0,1610612765
45,1610612765,1628402,1630191,201961,202709,203924,1610612764,1629067,1629655,1629726,201566,202397,0022000856,1,587,602,0,0,1610612764
46,1610612765,1628402,1630191,201961,202709,203924,1610612764,1629067,1629655,1629726,201566,202397,0022000856,1,603,603,3,0,1610612765
47,1610612765,1628402,1630191,201961,202709,203924,1610612764,1629067,1629655,1629726,201566,202397,0022000856,1,616,616,0,2,1610612764
48,1610612765,1628402,1630191,201961,202709,203924,1610612764,1629067,1629655,1629726,201566,202397,0022000856,1,627,627,0,0,1610612765
49,1610612765,1628402,1630191,201961,202709,203924,1610612764,1629067,1629655,1629726,201566,202397,0022000856,1,648,648,0,0,1610612764
50,1610612765,1628402,1630191,201961,202709,203924,1610612764,1629067,1629655,1629726,201566,202397,0022000856,1,650,654,2,0,1610612765
51,1610612765,1628402,1630191,201961,202709,203924,1610612764,1629067,1629655,1629726,201566,202397,0022000856,1,670,674,0,0,1610612764
52,1610612765,1628402,1630191,201961,202709,203924,1610612764,1629067,1629655,1629726,201566,202397,0022000856,1,692,694,2,0,1610612765
53,1610612765,1628402,1630191,201961,202709,203924,1610612764,1629067,1629655,1629726,201566,202397,0022000856,1,714,719,0,0,1610612764
54,1610612765,1628402,1630191,201961,202709,203924,1610612764,1629067,1629655,1629726,201566,202397,0022000856,1,720,720,0,0,1610612764
55,1610612765,1630191,201961,1628402,1629076,1630240,1610612764,1629060,201566,202397,201577,203526,0022000856,2,720,734,0,3,1610612764
56,1610612765,1630191,201961,1628402,1629076,1630240,1610612764,1629060,201566,202397,201577,203526,0022000856,2,754,757,0,0,1610612765
57,1610612765,1630191,201961,1628402,1629076,1630240,1610612764,1629060,201566,202397,201577,203526,0022000856,2,762,762,0,2,1610612764
58,1610612765,1630191,201961,1628402,1629076,1630240,1610612764,1629060,201566,202397,201577,203526,0022000856,2,781,781,2,0,1610612765
59,1610612765,1630191,201961,1628402,1629076,1630240,1610612764,1629060,201566,202397,201577,203526,0022000856,2,805,805,0,2,1610612764
60,1610612765,1630191,201961,1628402,1629076,1630240,1610612764,1629060,201566,202397,201577,203526,0022000856,2,816,829,0,0,1610612765
61,1610612765,1630191,201961,1628402,1629076,1630240,1610612764,1629060,201566,202397,201577,203526,0022000856,2,838,840,0,0,1610612764
62,1610612765,1630191,201961,1628402,1629076,1630240,1610612764,1629060,201566,202397,201577,203526,0022000856,2,843,843,3,0,1610612765
63,1610612765,1630191,201961,1628402,1629076,1630240,1610612764,1629060,201566,201577,203078,203526,0022000856,2,857,862,0,2,1610612764
64,1610612765,1630191,201961,1628402,1629076,1630240,1610612764,1629060,201566,201577,203078,203526,0022000856,2,870,870,0,0,1610612765
65,1610612765,1628367,1628402,1629076,1630240,203486,1610612764,1629060,201566,201577,203078,203526,0022000856,2,879,879,0,3,1610612764
66,1610612765,1628367,1628402,1629076,1630240,203486,1610612764,1629060,201566,201577,203078,203526,0022000856,2,894,894,2,0,1610612765
67,1610612765,1628367,1628402,1629076,1630240,203486,1610612764,1629060,201566,201577,203078,203526,0022000856,2,912,915,0,0,1610612764
68,1610612765,1628367,1628402,1629076,1630240,203486,1610612764,1629060,201566,201577,203078,203526,0022000856,2,919,919,2,0,1610612765
69,1610612765,1628367,1628402,1629076,1630240,203486,1610612764,1629060,201566,201577,203078,203526,0022000856,2,940,940,0,2,1610612764
70,1610612765,1628367,1628402,1629076,1630240,203486,1610612764,1629060,201566,201577,203078,203526,0022000856,2,959,959,2,0,1610612765
71,1610612765,1628367,1628402,1629076,1630240,203486,1610612764,1629060,201566,201577,203078,203526,0022000856,2,974,988,0,3,1610612764
72,1610612765,1628367,1628402,1629076,1630240,203486,1610612764,1629060,201566,201577,203078,203526,0022000856,2,1001,1001,2,0,1610612765
73,1610612765,1628367,1628402,1629076,1630240,203486,1610612764,1629060,201566,201577,203078,203526,0022000856,2,1014,1014,0,3,1610612764
74,1610612765,1626143,1628367,1628402,1629076,1630240,1610612764,1629060,1630166,201577,203078,203526,0022000856,2,1032,1032,0,0,1610612765
75,1610612765,1626143,1628367,1628402,1629076,1630240,1610612764,1629060,1630166,201577,203078,203526,0022000856,2,1036,1036,0,2,1610612764
76,1610612765,1626143,1628367,1628402,1629076,1630240,1610612764,1629060,1630166,201577,203078,203526,0022000856,2,1041,1053,2,0,1610612765
77,1610612765,1626143,1628367,1628402,1629076,1630240,1610612764,1629060,1630166,201577,203078,203526,0022000856,2,1073,1077,0,0,1610612764
78,1610612765,1626143,1628367,1628402,1629076,1630240,1610612764,1629060,1630166,201577,203078,203526,0022000856,2,1086,1086,0,0,1610612765
79,1610612765,1626143,1628367,1628402,1629076,1630240,1610612764,1629060,1630166,201577,203078,203526,0022000856,2,1101,1101,0,2,1610612764
80,1610612765,1626143,1628367,1628402,1629076,1630240,1610612764,1629060,1630166,201577,203078,203526,0022000856,2,1113,1113,3,0,1610612765
81,1610612765,1626143,1628367,1628402,1629076,1630240,1610612764,1629060,1630166,201577,203078,203526,0022000856,2,1128,1128,0,0,1610612764
82,1610612765,1626143,1628367,1628402,1629076,1630240,1610612764,1629060,1630166,201577,203078,203526,0022000856,2,1134,1134,2,0,1610612765
83,1610612765,1626143,1628367,1628402,1629076,1630240,1610612764,1629060,1630166,201577,203078,203526,0022000856,2,1149,1153,0,0,1610612764
84,1610612765,1626143,1628367,1628402,1629076,1630240,1610612764,1629060,1630166,201577,203078,203526,0022000856,2,1154,1154,0,0,1610612765
85,1610612765,1626143,1628367,1628402,1629076,1630240,1610612764,1629060,1630166,201577,203078,203526,0022000856,2,1156,1156,0,0,1610612764
86,1610612765,1626143,1628367,1628402,1629076,1630240,1610612764,1629060,1630166,201577,203078,203526,0022000856,2,1170,1170,0,0,1610612765
87,1610612765,1626143,1628367,1628402,1629076,1630240,1610612764,1629060,1630166,201577,203078,203526,0022000856,2,1175,1175,0,2,1610612764
88,1610612765,1626143,1628367,1628402,1629076,1630240,1610612764,1629060,1630166,201577,203078,203526,0022000856,2,1184,1186,0,0,1610612765
89,1610612765,1626143,1628367,1628402,1629076,1630240,1610612764,1629060,1630166,201577,203078,203526,0022000856,2,1196,1201,0,3,1610612764
90,1610612765,1626143,1628367,1628402,202709,203924,1610612764,1629060,201566,201577,203078,203526,0022000856,2,1214,1214,2,0,1610612765
91,1610612765,1626143,1628367,1628402,202709,203924,1610612764,1629060,201566,201577,203078,203526,0022000856,2,1231,1231,0,2,1610612764
92,1610612765,1626143,1628367,1628402,202709,203924,1610612764,1629060,1629655,201566,203078,203526,0022000856,2,1248,1249,0,0,1610612765
93,1610612765,1626143,1628367,1628402,202709,203924,1610612764,1629060,1629655,201566,203078,203526,0022000856,2,1249,1252,0,0,1610612764
94,1610612765,1626143,1628367,201961,202709,203924,1610612764,1629060,1629655,201566,203078,203526,0022000856,2,1260,1271,0,0,1610612765
95,1610612765,1626143,1628367,201961,202709,203924,1610612764,1629060,1629655,201566,203078,203526,0022000856,2,1278,1280,0,0,1610612764
96,1610612765,1626143,1628367,201961,202709,203924,1610612764,1629060,1629655,201566,203078,203526,0022000856,2,1286,1288,0,0,1610612765
97,1610612765,1626143,1628367,201961,202709,203924,1610612764,1629060,1629655,201566,203078,203526,0022000856,2,1294,1296,0,0,1610612764
98,1610612765,1626143,1628367,201961,202709,203924,1610612764,1629060,1629655,201566,203078,203526,0022000856,2,1301,1301,2,0,1610612765
99,1610612765,1626143,1628367,201961,202709,203924,1610612764,1629060,1629655,201566,203078,203526,0022000856,2,1301,1327,0,0,1610612764
100,1610612765,1630180,1630191,201961,202709,203924,1610612764,1629060,1629655,201566,203078,203526,0022000856,2,1338,1341,0,0,1610612765
101,1610612765,1630180,1630191,201961,202709,203924,1610612764,1629060,1629655,201566,203078,203526,0022000856,2,1349,1351,0,2,1610612764
102,1610612765,1630180,1630191,201961,202709,203924,1610612764,1629060,1629655,201566,203078,203526,0022000856,2,1361,1364,2,0,1610612765
103,1610612765,1630180,1630191,201961,202709,203924,1610612764,1629060,1629655,201566,203078,203526,0022000856,2,1373,1384,0,1,1610612764
104,1610612765,1630180,1630191,201961,202709,203924,1610612764,1629060,1629655,201566,203078,203526,0022000856,2,1391,1391,2,0,1610612765
105,1610612765,1630180,1630191,201961,202709,203924,1610612764,1629060,1629655,201566,203078,203526,0022000856,2,1402,1407,0,0,1610612764
106,1610612765,1630180,1630191,201961,202709,203924,1610612764,1629060,1629655,201566,203078,203526,0022000856,2,1421,1421,0,0,1610612765
107,1610612765,1630180,1630191,201961,202709,203924,1610612764,1629060,1629655,201566,203078,203526,0022000856,2,1421,1421,0,0,365
108,1610612765,203924,1630180,203486,202709,1628367,1610612764,1630166,1629060,203078,201566,1629655,0022000856,3,1440,1460,0,0,1610612764
109,1610612765,203924,1630180,203486,202709,1628367,1610612764,1630166,1629060,203078,201566,1629655,0022000856,3,1471,1471,2,0,1610612765
110,1610612765,203924,1630180,203486,202709,1628367,1610612764,1630166,1629060,203078,201566,1629655,0022000856,3,1489,1494,0,0,1610612764
111,1610612765,203924,1630180,203486,202709,1628367,1610612764,1630166,1629060,203078,201566,1629655,0022000856,3,1506,1509,0,0,1610612765
112,1610612765,203924,1630180,203486,202709,1628367,1610612764,1630166,1629060,203078,201566,1629655,0022000856,3,1512,1518,0,2,1610612764
113,1610612765,203924,1630180,203486,202709,1628367,1610612764,1630166,1629060,203078,201566,1629655,0022000856,3,1522,1532,3,0,1610612765
114,1610612765,203924,1630180,203486,202709,1628367,1610612764,1630166,1629060,203078,201566,1629655,0022000856,3,1552,1552,0,3,1610612764
115,1610612765,203924,1630180,203486,202709,1628367,1610612764,1630166,1629060,203078,201566,1629655,0022000856,3,1566,1566,0,0,1610612765
116,1610612765,203924,1630180,203486,202709,1628367,1610612764,1630166,1629060,203078,201566,1629655,0022000856,3,1572,1572,0,0,1610612764
117,1610612765,203924,1630180,203486,202709,1628367,1610612764,1630166,1629060,203078,201566,1629655,0022000856,3,1575,1578,1,0,1610612765
118,1610612765,203924,1630180,203486,202709,1628367,1610612764,1630166,1629060,203078,201566,1629655,0022000856,3,1582,1584,0,0,1610612764
119,1610612765,203924,1630180,203486,202709,1628367,1610612764,1630166,1629060,203078,201566,1629655,0022000856,3,1597,1600,0,0,1610612765
120,1610612765,203924,1630180,203486,202709,1628367,1610612764,1630166,1629060,203078,201566,1629655,0022000856,3,1609,1609,0,2,1610612764
121,1610612765,203924,1630180,203486,202709,1628367,1610612764,1630166,1629060,203078,201566,1629655,0022000856,3,1628,1630,0,0,1610612765
122,1610612765,203924,1630180,203486,202709,1628367,1610612764,1630166,1629060,203078,201566,1629655,0022000856,3,1638,1641,0,0,1610612764
123,1610612765,203924,1630180,203486,202709,1628367,1610612764,1630166,1629060,203078,201566,1629655,0022000856,3,1653,1653,0,0,1610612765
124,1610612765,203924,1630180,203486,202709,1628367,1610612764,1630166,1629060,203078,201566,1629655,0022000856,3,1656,1656,0,2,1610612764
125,1610612765,203924,1630180,203486,202709,1628367,1610612764,1630166,1629060,203078,201566,1629655,0022000856,3,1656,1682,0,0,1610612765
126,1610612765,203924,1630180,203486,202709,1628367,1610612764,1630166,1629060,203078,201566,1629655,0022000856,3,1688,1693,0,3,1610612764
127,1610612765,203924,1630180,203486,202709,1628367,1610612764,1630166,1629060,203078,201566,1629655,0022000856,3,1700,1706,2,0,1610612765
128,1610612765,203924,1630180,203486,202709,1628367,1610612764,1628395,1629655,1630166,201566,203078,0022000856,3,1725,1729,0,2,1610612764
129,1610612765,203924,1630180,203486,202709,1628367,1610612764,1628395,1629655,1630166,201566,203078,0022000856,3,1739,1739,3,0,1610612765
130,1610612765,203924,1630180,203486,202709,1628367,1610612764,1628395,1629655,1630166,201566,203078,0022000856,3,1752,1752,0,2,1610612764
131,1610612765,203924,1630180,203486,202709,1628367,1610612764,1628395,1629655,1630166,201566,203078,0022000856,3,1767,1769,1,0,1610612765
132,1610612765,1628367,1630180,1630191,202709,203924,1610612764,1628395,1629655,1630166,202397,203078,0022000856,3,1781,1781,0,2,1610612764
133,1610612765,1630180,1630191,201961,202709,203924,1610612764,1628395,1629655,1630166,202397,203078,0022000856,3,1798,1803,2,0,1610612765
134,1610612765,1630180,1630191,201961,202709,203924,1610612764,1628395,1629655,1630166,202397,203078,0022000856,3,1803,1810,0,2,1610612764
135,1610612765,1630180,1630191,201961,202709,203924,1610612764,1628395,1629655,1630166,202397,203078,0022000856,3,1823,1825,0,0,1610612765
136,1610612765,1630180,1630191,201961,202709,203924,1610612764,1628395,1629655,1630166,202397,203078,0022000856,3,1829,1832,0,0,1610612764
137,1610612765,1630180,1630191,201961,202709,203924,1610612764,1628395,1629655,1630166,202397,203078,0022000856,3,1839,1843,0,0,1610612765
138,1610612765,1630180,1630191,201961,202709,203924,1610612764,1628395,1629655,1630166,202397,203078,0022000856,3,1856,1856,0,2,1610612764
139,1610612765,1630180,1630191,201961,202709,203924,1610612764,1628395,1629655,1630166,202397,203078,0022000856,3,1878,1878,0,0,1610612765
140,1610612765,1628402,1630191,1630240,201961,203924,1610612764,1628395,1630166,201577,202397,203078,0022000856,3,1888,1888,0,3,1610612764
141,1610612765,1628402,1630191,1630240,201961,203924,1610612764,1628395,1630166,201577,202397,203078,0022000856,3,1906,1906,2,0,1610612765
142,1610612765,1628402,1630191,1630240,201961,203924,1610612764,1628395,1630166,201577,202397,203078,0022000856,3,1924,1924,0,0,1610612764
143,1610612765,1628402,1630191,1630240,201961,203924,1610612764,1628395,201577,202397,203078,203526,0022000856,3,1939,1939,2,0,1610612765
144,1610612765,1628402,1630191,1630240,201961,203924,1610612764,1628395,201577,202397,203078,203526,0022000856,3,1955,1958,0,0,1610612764
145,1610612765,1628402,1630191,1630240,201961,203924,1610612764,1628395,201577,202397,203078,203526,0022000856,3,1965,1965,3,0,1610612765
146,1610612765,1628402,1630191,1630240,201961,203924,1610612764,1628395,201577,202397,203078,203526,0022000856,3,1966,1982,0,3,1610612764
147,1610612765,1628402,1630191,1630240,201961,203924,1610612764,1628395,201577,202397,203078,203526,0022000856,3,1996,1996,2,0,1610612765
148,1610612765,1628402,1630191,1630240,201961,203924,1610612764,1628395,201566,201577,202397,203526,0022000856,3,2015,2019,0,0,1610612764
149,1610612765,1628402,1630191,1630240,201961,203924,1610612764,1628395,201566,201577,202397,203526,0022000856,3,2027,2027,2,0,1610612765
150,1610612765,1628402,1630191,1630240,201961,203924,1610612764,1628395,201566,201577,202397,203526,0022000856,3,2044,2044,0,2,1610612764
151,1610612765,1628402,1630191,1630240,201961,203924,1610612764,1628395,201566,201577,202397,203526,0022000856,3,2058,2061,0,0,1610612765
152,1610612765,1628402,1630191,1630240,201961,203924,1610612764,1628395,201566,201577,202397,203526,0022000856,3,2085,2090,0,2,1610612764
153,1610612765,1628402,1630191,1630240,201961,203924,1610612764,1628395,201566,201577,202397,203526,0022000856,3,2109,2111,0,0,1610612765
154,1610612765,1628402,1630191,1630240,201961,203924,1610612764,1628395,201566,201577,202397,203526,0022000856,3,2122,2126,0,0,1610612764
155,1610612765,1628402,1630191,1630240,201961,203924,1610612764,1628395,201566,201577,202397,203526,0022000856,3,2134,2134,0,0,1610612765
156,1610612765,1628402,1630191,1630240,201961,203924,1610612764,1628395,201566,201577,202397,203526,0022000856,3,2159,2159,0,0,1610612764
157,1610612765,1628402,1630191,1630240,201961,203924,1610612764,1628395,201566,201577,202397,203526,0022000856,3,2159,2159,0,0,0
158,1610612765,202709,1628367,1630191,1628402,1629076,1610612764,201566,202397,201577,203526,1628395,0022000856,4,2160,2177,2,0,1610612765
159,1610612765,202709,1628367,1630191,1628402,1629076,1610612764,201566,202397,201577,203526,1628395,0022000856,4,2195,2195,0,0,1610612764
160,1610612765,202709,1628367,1630191,1628402,1629076,1610612764,201566,202397,201577,203526,1628395,0022000856,4,2206,2206,0,0,1610612765
161,1610612765,202709,1628367,1630191,1628402,1629076,1610612764,201566,202397,201577,203526,1628395,0022000856,4,2218,2222,0,0,1610612764
162,1610612765,202709,1628367,1630191,1628402,1629076,1610612764,201566,202397,201577,203526,1628395,0022000856,4,2232,2241,0,0,1610612765
163,1610612765,202709,1628367,1630191,1628402,1629076,1610612764,201566,202397,201577,203526,1628395,0022000856,4,2262,2262,0,2,1610612764
164,1610612765,202709,1628367,1630191,1628402,1629076,1610612764,201566,202397,201577,203526,1628395,0022000856,4,2271,2283,0,0,1610612765
165,1610612765,202709,1628367,1630191,1628402,1629076,1610612764,201566,202397,201577,203526,1628395,0022000856,4,2295,2298,0,0,1610612764
166,1610612765,202709,1628367,1630191,1628402,1629076,1610612764,201566,202397,201577,203526,1628395,0022000856,4,2311,2315,0,0,1610612765
167,1610612765,202709,1628367,1630191,1628402,1629076,1610612764,201566,202397,201577,203526,1628395,0022000856,4,2317,2317,0,0,1610612764
168,1610612765,202709,1628367,1630191,1628402,1629076,1610612764,1628395,201577,202397,203078,203526,0022000856,4,2335,2335,0,0,1610612765
169,1610612765,202709,1628367,1630191,1628402,1629076,1610612764,1628395,201577,202397,203078,203526,0022000856,4,2346,2346,0,3,1610612764
170,1610612765,202709,1628367,1630191,1628402,1629076,1610612764,1628395,201577,202397,203078,203526,0022000856,4,2360,2364,0,0,1610612765
171,1610612765,202709,1628367,1630191,1628402,1629076,1610612764,1628395,201577,202397,203078,203526,0022000856,4,2383,2383,0,0,1610612764
172,1610612765,202709,1628367,1630191,1628402,1629076,1610612764,1628395,201577,202397,203078,203526,0022000856,4,2386,2386,2,0,1610612765
173,1610612765,202709,1628367,1630191,1628402,1629076,1610612764,1628395,201577,202397,203078,203526,0022000856,4,2405,2405,0,2,1610612764
174,1610612765,202709,1628367,1630191,1628402,1629076,1610612764,1628395,201577,202397,203078,203526,0022000856,4,2405,2434,0,0,1610612765
175,1610612765,1628367,1628402,1630180,1630191,202709,1610612764,1628395,201577,202397,203078,203526,0022000856,4,2443,2443,0,2,1610612764
176,1610612765,1628367,1628402,1630180,1630191,202709,1610612764,1628395,201577,202397,203078,203526,0022000856,4,2457,2460,0,0,1610612765
177,1610612765,1628367,1628402,1630180,1630191,202709,1610612764,1628395,201577,202397,203078,203526,0022000856,4,2478,2478,0,2,1610612764
178,1610612765,1628367,1628402,1630180,1630191,202709,1610612764,1628395,201577,202397,203078,203526,0022000856,4,2497,2497,2,0,1610612765
179,1610612765,1628367,1628402,1630180,1630191,202709,1610612764,1628395,201577,202397,203078,203526,0022000856,4,2508,2508,0,0,1610612764
180,1610612765,1628367,1628402,1630180,1630191,202709,1610612764,1630166,201577,202397,203078,203526,0022000856,4,2516,2516,3,0,1610612765
181,1610612765,1628367,1628402,1630180,1630191,202709,1610612764,1630166,201577,202397,203078,203526,0022000856,4,2538,2538,0,3,1610612764
182,1610612765,1628367,1628402,1630180,1630191,202709,1610612764,1630166,201577,202397,203078,203526,0022000856,4,2557,2559,0,0,1610612765
183,1610612765,1628367,1628402,1630180,1630191,202709,1610612764,1630166,201577,202397,203078,203526,0022000856,4,2571,2573,0,0,1610612764
184,1610612765,1628367,1628402,1630180,1630191,202709,1610612764,1630166,201577,202397,203078,203526,0022000856,4,2591,2591,0,0,1610612765
185,1610612765,1628367,1628402,1630180,1630191,202709,1610612764,1630166,201577,202397,203078,203526,0022000856,4,2595,2598,0,0,1610612764
186,1610612765,1628367,1628402,1630180,1630191,202709,1610612764,1630166,201577,202397,203078,203526,0022000856,4,2601,2601,0,0,1610612765
187,1610612765,1628367,1628402,1630180,1630191,202709,1610612764,1630166,201577,202397,203078,203526,0022000856,4,2602,2615,0,3,1610612764
188,1610612765,1628367,1628402,1630180,1630191,202709,1610612764,1630166,201566,201577,202397,203078,0022000856,4,2618,2636,0,0,1610612765
189,1610612765,1628367,1630180,202709,203486,203924,1610612764,1630166,201566,201577,202397,203078,0022000856,4,2648,2648,0,2,1610612764
190,1610612765,1628367,1630180,202709,203486,203924,1610612764,1630166,201566,201577,202397,203078,0022000856,4,2658,2662,2,0,1610612765
191,1610612765,1628367,1630180,202709,203486,203924,1610612764,1630166,201566,201577,202397,203078,0022000856,4,2673,2673,0,3,1610612764
192,1610612765,1628367,1630180,202709,203486,203924,1610612764,1630166,201566,201577,202397,203078,0022000856,4,2687,2687,3,0,1610612765
193,1610612765,1628367,1630180,202709,203486,203924,1610612764,1630166,201566,201577,202397,203078,0022000856,4,2701,2701,0,2,1610612764
194,1610612765,1628367,1630180,202709,203486,203924,1610612764,1630166,201566,201577,202397,203078,0022000856,4,2707,2707,2,0,1610612765
195,1610612765,1628367,1630180,202709,203486,203924,1610612764,1630166,201566,201577,202397,203078,0022000856,4,2707,2727,0,0,1610612764
196,1610612765,1628367,1630180,202709,203486,203924,1610612764,1628395,1629067,1629726,1630216,1630264,0022000856,4,2730,2730,2,0,1610612765
197,1610612765,1626143,1628367,1629076,1629686,1630240,1610612764,1628395,1629067,1629726,1630216,1630264,0022000856,4,2731,2766,0,2,1610612764
198,1610612765,1626143,1628402,1629076,1629686,1630240,1610612764,1628395,1629067,1629726,1630216,1630264,0022000856,4,2780,2780,2,0,1610612765
199,1610612765,1626143,1628402,1629076,1629686,1630240,1610612764,1628395,1629067,1629726,1630216,1630264,0022000856,4,2790,2794,0,0,1610612764
200,1610612765,1626143,1628402,1629076,1629686,1630240,1610612764,1628395,1629067,1629726,1630216,1630264,0022000856,4,2800,2803,0,0,1610612765
201,1610612765,1626143,1628402,1629076,1629686,1630240,1610612764,1628395,1629067,1629726,1630216,1630264,0022000856,4,2822,2824,0,0,1610612764
202,1610612765,1626143,1628402,1629076,1629686,1630240,1610612764,1628395,1629067,1629726,1630216,1630264,0022000856,4,2835,2839,0,0,1610612765
203,1610612765,1626143,1628402,1629076,1629686,1630240,1610612764,1628395,1629067,1629726,1630216,1630264,0022000856,4,2846,2846,0,2,1610612764
204,1610612765,1626143,1628402,1629076,1629686,1630240,1610612764,1628395,1629067,1629726,1630216,1630264,0022000856,4,2854,2854,0,0,1610612765
205,1610612765,1626143,1628402,1629076,1629686,1630240,1610612764,1628395,1629067,1629726,1630216,1630264,0022000856,4,2878,2878,0,0,1610612764
