,stint_start,t2_players,t2_pm,t1_points_scored,t1_pm,t1_id,t2_id,t2_points_scored,stint_end,t1_players,margin_per_100,num_poss
0,0,"[1629631, 1628381, 203991, 1628989, 1626153]",0,8,0,1610612761,1610612737,8,276,"[1630567, 1628384, 1627783, 1629018, 1627832]",0.0,17.0
1,277,"[1629631, 1628381, 203991, 1628989, 1626153]",-5,16,5,1610612761,1610612737,11,438,"[1630567, 1628384, 1627783, 1629018, 1627832]",18.51851851851852,27.0
2,439,"[1629631, 1628381, 203991, 1628989, 1626153]",-3,20,3,1610612761,1610612737,17,520,"[1627832, 1628384, 1628449, 1629018, 1630567]",9.090909090909092,33.0
3,521,"[1626153, 1628381, 1629631, 201568, 203992]",-1,20,1,1610612761,1610612737,19,543,"[1627832, 1628449, 1629018, 1630173, 1630551]",2.941176470588235,34.0
4,544,"[101150, 1626153, 1630168, 201568, 203992]",-1,21,1,1610612761,1610612737,20,645,"[1627832, 1628449, 1629018, 1630173, 1630551]",2.3255813953488373,43.0
5,646,"[101150, 1628989, 1630168, 201568, 203992]",-1,25,1,1610612761,1610612737,24,719,"[1627832, 1628449, 1629018, 1630173, 1630551]",2.0408163265306123,49.0
6,720,"[101150, 1628989, 1630168, 201568, 203992]",4,34,-4,1610612761,1610612737,38,964,"[1627832, 1628384, 1628449, 1630173, 1630567]",-5.88235294117647,68.0
7,965,"[1628989, 201568, 203992, 101150, 1630168]",7,36,-7,1610612761,1610612737,43,1087,"[1630567, 1628384, 1627783, 1630173, 1630625]",-9.090909090909092,77.0
8,1088,"[101150, 1628381, 1629631, 203991, 203992]",1,44,-1,1610612761,1610612737,45,1234,"[1627783, 1628384, 1629018, 1630173, 1630625]",-1.1764705882352942,85.0
9,1235,"[1626153, 1628381, 1629631, 203991, 203992]",9,48,-9,1610612761,1610612737,57,1439,"[1627783, 1627832, 1628449, 1629018, 1630567]",-9.090909090909092,99.0
10,1440,"[1626153, 1628381, 1628989, 1629631, 203991]",0,63,0,1610612761,1610612737,63,1823,"[1627783, 1627832, 1628449, 1629018, 1630567]",0.0,129.0
11,1824,"[1629631, 1628381, 203991, 1628989, 1626153]",1,67,-1,1610612761,1610612737,68,1929,"[1630567, 1628384, 1627783, 1629018, 1627832]",-0.7407407407407408,135.0
12,1930,"[1626153, 1629631, 201568, 203991, 203992]",-1,69,1,1610612761,1610612737,68,1998,"[1627783, 1627832, 1628449, 1629018, 1630567]",0.7142857142857143,140.0
13,1999,"[101150, 1629631, 1630168, 201568, 203992]",-5,77,5,1610612761,1610612737,72,2159,"[1627783, 1627832, 1628449, 1629018, 1630173]",3.3112582781456954,151.0
14,2160,"[101150, 1628989, 1630168, 201568, 203992]",-5,85,5,1610612761,1610612737,80,2330,"[1627783, 1627832, 1628384, 1629018, 1630173]",3.125,160.0
15,2331,"[1628989, 201568, 203992, 101150, 1630168]",-6,91,6,1610612761,1610612737,85,2444,"[1628384, 1627783, 1629018, 1628449, 1630173]",3.614457831325301,166.0
16,2445,"[1628989, 201568, 203992, 101150, 1630168]",-6,91,6,1610612761,1610612737,85,2472,"[1627783, 1627832, 1628384, 1628449, 1630567]",3.592814371257485,167.0
17,2473,"[1628989, 201568, 203992, 101150, 1630168]",-4,96,4,1610612761,1610612737,92,2635,"[1627783, 1627832, 1628384, 1629018, 1630567]",2.247191011235955,178.0
18,2636,"[1628989, 1629631, 1630168, 201568, 203992]",-1,101,1,1610612761,1610612737,100,2859,"[1627783, 1627832, 1628384, 1629018, 1630567]",0.5319148936170213,188.0
19,2860,"[1628381, 1628989, 1629631, 1630168, 203992]",-6,106,6,1610612761,1610612737,100,2877,"[1627783, 1627832, 1628384, 1629018, 1630567]",3.1088082901554404,193.0
20,2878,"[1628381, 1628989, 1629631, 201568, 203992]",-6,106,6,1610612761,1610612737,100,9999999,"[1627783, 1627832, 1628384, 1629018, 1630567]",3.0927835051546393,194.0
