,TEAM_ID_1,TEAM_1_PLAYERS,TEAM_ID_2,TEAM_2_PLAYERS,PERIOD
0,1610612741,[1630172  201152  202696  203897  203107],1610612761,[1628384 1627783 1628449 1629018 1630201],1
1,1610612741,[ 203897 1628464 1628374 1629632 1628972],1610612761,[1628384 1629018  203382 1626169 1629139],2
2,1610612741,[1630172  201152  202696  203897  203107],1610612761,[1628384 1627783 1628449 1629018 1630201],3
3,1610612741,[ 203897 1628464 1628374 1629632 1628972],1610612761,[1628384 1629018  203382 1626169 1629139],4
