,team1_id,team1_player1,team1_player2,team1_player3,team1_player4,team1_player5,team2_id,team2_player1,team2_player2,team2_player3,team2_player4,team2_player5,game_id,period,possession_start,possession_end,team1_points,team2_points,possession_team
0,1610612737,1629629,1628381,1627745,1628989,1629027,1610612742,1627827,1628467,1626161,203501,1628973,0021900733,1,0,13,0,0,1610612742
1,1610612737,1629629,1628381,1627745,1628989,1629027,1610612742,1627827,1628467,1626161,203501,1628973,0021900733,1,26,35,0,0,1610612737
2,1610612737,1629629,1628381,1627745,1628989,1629027,1610612742,1627827,1628467,1626161,203501,1628973,0021900733,1,40,43,0,0,1610612742
3,1610612737,1629629,1628381,1627745,1628989,1629027,1610612742,1627827,1628467,1626161,203501,1628973,0021900733,1,47,47,3,0,1610612737
4,1610612737,1629629,1628381,1627745,1628989,1629027,1610612742,1627827,1628467,1626161,203501,1628973,0021900733,1,68,70,0,0,1610612742
5,1610612737,1629629,1628381,1627745,1628989,1629027,1610612742,1627827,1628467,1626161,203501,1628973,0021900733,1,78,85,2,0,1610612737
6,1610612737,1629629,1628381,1627745,1628989,1629027,1610612742,1627827,1628467,1626161,203501,1628973,0021900733,1,102,107,0,0,1610612742
7,1610612737,1629629,1628381,1627745,1628989,1629027,1610612742,1627827,1628467,1626161,203501,1628973,0021900733,1,109,109,2,0,1610612737
8,1610612737,1629629,1628381,1627745,1628989,1629027,1610612742,1627827,1628467,1626161,203501,1628973,0021900733,1,128,138,0,3,1610612742
9,1610612737,1629629,1628381,1627745,1628989,1629027,1610612742,1627827,1628467,1626161,203501,1628973,0021900733,1,149,149,3,0,1610612737
10,1610612737,1629629,1628381,1627745,1628989,1629027,1610612742,1627827,1628467,1626161,203501,1628973,0021900733,1,155,157,0,0,1610612742
11,1610612737,1629629,1628381,1627745,1628989,1629027,1610612742,1627827,1628467,1626161,203501,1628973,0021900733,1,172,172,2,0,1610612737
12,1610612737,1629629,1628381,1627745,1628989,1629027,1610612742,1627827,1628467,1626161,203501,1628973,0021900733,1,174,188,0,2,1610612742
13,1610612737,1629629,1628381,1627745,1628989,1629027,1610612742,1627827,1628467,1626161,203501,1628973,0021900733,1,206,206,3,0,1610612737
14,1610612737,1629629,1628381,1627745,1628989,1629027,1610612742,1627827,1628467,1626161,203501,1628973,0021900733,1,221,224,0,0,1610612742
15,1610612737,1629629,1628381,1627745,1628989,1629027,1610612742,1627827,1628467,1626161,203501,1628973,0021900733,1,234,237,0,0,1610612737
16,1610612737,1629629,1628381,1627745,1628989,1629027,1610612742,1627827,1628467,1626161,203501,1628973,0021900733,1,245,245,0,2,1610612742
17,1610612737,1629629,1628381,1627745,1628989,1629027,1610612742,1627827,1628467,1626161,203501,1628973,0021900733,1,266,268,0,0,1610612737
18,1610612737,1629629,1628381,1627745,1628989,1629027,1610612742,1627827,1628467,1626161,203501,1628973,0021900733,1,273,273,0,3,1610612742
19,1610612737,1629629,1628381,1627745,1628989,1629027,1610612742,1627827,1628467,1626161,203501,1628973,0021900733,1,284,284,0,0,1610612737
20,1610612737,1629629,1628381,1627745,1628989,1629027,1610612742,1627827,1628467,1626161,203501,1628973,0021900733,1,297,299,0,3,1610612742
21,1610612737,1629629,1628381,1627745,1628989,1629027,1610612742,1627827,1628467,1626161,203501,1628973,0021900733,1,301,314,2,0,1610612737
22,1610612737,1629629,1628381,1627745,1628989,1629027,1610612742,1626161,1627827,1628467,1628973,203552,0021900733,1,331,331,0,2,1610612742
23,1610612737,1629629,1628381,1627745,1628989,1629027,1610612742,1626161,1627827,1628467,1628973,203552,0021900733,1,347,350,0,0,1610612737
24,1610612737,1629629,1628381,1627745,1628989,1629027,1610612742,1626161,1627827,1628467,1628973,203552,0021900733,1,353,353,0,2,1610612742
25,1610612737,1629629,1628381,1627745,1628989,1629027,1610612742,1626161,1627827,1628467,1628973,203552,0021900733,1,370,381,0,0,1610612737
26,1610612737,1629629,1628381,1627745,1628989,1629027,1610612742,1626161,1627827,1628467,1628973,203552,0021900733,1,387,387,0,2,1610612742
27,1610612737,1629629,1628381,1627745,1628989,1629027,1610612742,1626161,1627827,1628467,1628973,203552,0021900733,1,400,403,0,0,1610612737
28,1610612737,1629629,1628381,1627745,1628989,1629027,1610612742,1626161,1627827,1628467,1628973,203552,0021900733,1,410,414,0,0,1610612742
29,1610612737,1629629,1628381,1627745,1628989,1629027,1610612742,1626161,1627827,1628467,1628973,203552,0021900733,1,415,427,0,0,1610612737
30,1610612737,1628381,1628989,1629027,1629629,1713,1610612742,1626153,1626161,1627827,1629151,203552,0021900733,1,430,430,0,2,1610612742
31,1610612737,1628381,1628989,1629027,1713,201952,1610612742,1626153,1626161,1627827,1629151,203552,0021900733,1,443,447,0,0,1610612737
32,1610612737,1628381,1628989,1629027,1713,201952,1610612742,1626153,1626161,1627827,1629151,203552,0021900733,1,453,456,0,0,1610612742
33,1610612737,1628381,1628989,1629027,1713,201952,1610612742,1626153,1626161,1627827,1629151,203552,0021900733,1,461,464,0,0,1610612737
34,1610612737,1628381,1628989,1629027,1713,201952,1610612742,1626153,1626161,1627827,1629151,203552,0021900733,1,478,478,0,2,1610612742
35,1610612737,1628381,1628989,1629027,1713,201952,1610612742,1626153,1626161,1627827,1629151,203552,0021900733,1,491,493,0,0,1610612737
36,1610612737,1628381,1628989,1629027,1713,201952,1610612742,1626153,1626161,1627827,1629151,203552,0021900733,1,512,515,0,0,1610612742
37,1610612737,1628381,1628989,1629027,1713,201952,1610612742,1626153,1626161,1627827,1629151,203552,0021900733,1,519,522,2,0,1610612737
38,1610612737,1628381,1628989,1629027,1713,201952,1610612742,1626153,1626161,1627827,1629151,203552,0021900733,1,522,540,0,0,1610612742
39,1610612737,1628381,1628989,1629164,1713,201952,1610612742,1626153,1628467,1629151,203501,203552,0021900733,1,551,551,0,0,1610612737
40,1610612737,1628381,1628989,1629164,1713,201952,1610612742,1626153,1628467,1629151,203501,203552,0021900733,1,564,564,0,2,1610612742
41,1610612737,1628381,1628989,1629164,1713,201952,1610612742,1626153,1628467,1629151,203501,203552,0021900733,1,580,580,2,0,1610612737
42,1610612737,1628381,1628989,1629164,1713,201952,1610612742,1626153,1628467,1629151,203501,203552,0021900733,1,590,606,0,0,1610612742
43,1610612737,1628381,1628989,1629164,1713,201952,1610612742,1626153,1628467,1629151,203501,203552,0021900733,1,610,613,0,0,1610612737
44,1610612737,1626203,1627745,1629164,1713,201952,1610612742,1626153,1628467,1629151,203501,203552,0021900733,1,626,626,0,2,1610612742
45,1610612737,1626203,1627745,1629164,1713,201952,1610612742,1626153,1628467,1629151,203501,203552,0021900733,1,641,643,0,0,1610612737
46,1610612737,1626203,1627745,1629164,1713,201952,1610612742,1626153,1628467,1629151,203501,203552,0021900733,1,650,650,0,3,1610612742
47,1610612737,1626203,1627745,1629164,1713,201952,1610612742,1626153,1628467,1629151,203501,203552,0021900733,1,670,670,3,0,1610612737
48,1610612737,1626203,1627745,1629164,1713,201952,1610612742,1626153,1628467,1629151,203501,203552,0021900733,1,688,688,0,3,1610612742
49,1610612737,1626203,1627745,1629164,1713,201952,1610612742,1626153,1628467,1629151,203501,203552,0021900733,1,703,703,2,0,1610612737
50,1610612737,1626203,1627745,1629164,1713,201952,1610612742,1626153,1628467,1629151,203501,203552,0021900733,1,717,720,0,3,1610612742
51,1610612737,1626203,1627745,1629164,1713,201952,1610612742,1626153,1628467,1629151,203501,203552,0021900733,1,720,720,0,0,161
52,1610612737,1627745,1628989,1629027,1629164,1626203,1610612742,1626161,203501,203552,1626153,1628382,0021900733,2,720,735,0,0,1610612737
53,1610612737,1627745,1628989,1629027,1629164,1626203,1610612742,1626161,203501,203552,1626153,1628382,0021900733,2,745,750,0,0,1610612742
54,1610612737,1627745,1628989,1629027,1629164,1626203,1610612742,1626161,203501,203552,1626153,1628382,0021900733,2,758,762,0,0,1610612737
55,1610612737,1627745,1628989,1629027,1629164,1626203,1610612742,1626161,203501,203552,1626153,1628382,0021900733,2,769,773,0,0,1610612742
56,1610612737,1627745,1628989,1629027,1629164,1626203,1610612742,1626161,203501,203552,1626153,1628382,0021900733,2,781,783,0,0,1610612737
57,1610612737,1627745,1628989,1629027,1629164,1626203,1610612742,1626161,203501,203552,1626153,1628382,0021900733,2,790,790,0,2,1610612742
58,1610612737,1627745,1628989,1629027,1629164,1626203,1610612742,1626161,203501,203552,1626153,1628382,0021900733,2,808,811,1,0,1610612737
59,1610612737,1627745,1628989,1629027,1629164,1626203,1610612742,1626161,203501,203552,1626153,1628382,0021900733,2,830,830,0,3,1610612742
60,1610612737,1627745,1628989,1629027,1629164,1626203,1610612742,1626161,203501,203552,1626153,1628382,0021900733,2,847,851,0,0,1610612737
61,1610612737,1627745,1628989,1629027,1629164,1626203,1610612742,1626161,203501,203552,1626153,1628382,0021900733,2,861,864,0,0,1610612742
62,1610612737,1627745,1628989,1629027,1629164,1626203,1610612742,1626161,203501,203552,1626153,1628382,0021900733,2,868,885,2,0,1610612737
63,1610612737,1627745,1628989,1629027,1629164,1626203,1610612742,1626153,1628382,1628467,1628973,203501,0021900733,2,903,907,0,0,1610612742
64,1610612737,1627745,1628989,1629027,1629164,1626203,1610612742,1626153,1628382,1628467,1628973,203501,0021900733,2,915,915,2,0,1610612737
65,1610612737,1627745,1628989,1629027,1629164,1626203,1610612742,1626153,1628382,1628467,1628973,203501,0021900733,2,932,932,0,3,1610612742
66,1610612737,1627745,1628989,1629027,1629164,1626203,1610612742,1626153,1628382,1628467,1628973,203501,0021900733,2,946,946,2,0,1610612737
67,1610612737,1627745,1628989,1629027,1629164,1626203,1610612742,1626153,1628382,1628467,1628973,203501,0021900733,2,971,973,0,0,1610612742
68,1610612737,1627745,1628989,1629027,1629164,1626203,1610612742,1626153,1628382,1628467,1628973,203501,0021900733,2,977,979,0,0,1610612737
69,1610612737,1627745,1628989,1629027,1629164,1626203,1610612742,1626153,1628382,1628467,1628973,203501,0021900733,2,992,1005,0,0,1610612742
70,1610612737,1627745,1628989,1629027,1629164,1626203,1610612742,1626153,1628382,1628467,1628973,203501,0021900733,2,1014,1017,0,0,1610612737
71,1610612737,1627745,1628989,1629027,1629164,1626203,1610612742,1626153,1628382,1628467,1628973,203501,0021900733,2,1025,1025,0,2,1610612742
72,1610612737,1627745,1628989,1629027,1629164,1626203,1610612742,1626153,1628382,1628467,1628973,203501,0021900733,2,1025,1041,0,0,1610612737
73,1610612737,1627745,1628381,1628989,1629027,1629164,1610612742,1626153,1627827,1628382,1628467,1628973,0021900733,2,1057,1057,0,2,1610612742
74,1610612737,1627745,1628381,1628989,1629027,1629164,1610612742,1626153,1627827,1628382,1628467,1628973,0021900733,2,1071,1071,3,0,1610612737
75,1610612737,1627745,1628381,1628989,1629027,1629164,1610612742,1626153,1627827,1628382,1628467,1628973,0021900733,2,1083,1083,0,2,1610612742
76,1610612737,1627745,1628381,1628989,1629027,1629164,1610612742,1626153,1627827,1628382,1628467,1628973,0021900733,2,1100,1100,3,0,1610612737
77,1610612737,1627745,1628381,1628989,1629027,1629164,1610612742,1626153,1627827,1628382,1628467,1628973,0021900733,2,1119,1119,0,2,1610612742
78,1610612737,1627745,1628381,1628989,1629027,1629164,1610612742,1626153,1627827,1628382,1628467,1628973,0021900733,2,1129,1131,0,0,1610612737
79,1610612737,1627745,1628381,1628989,1629027,1629164,1610612742,1626153,1627827,1628382,1628467,1628973,0021900733,2,1137,1141,0,0,1610612742
80,1610612737,1627745,1628381,1628989,1629027,1629164,1610612742,1626153,1627827,1628382,1628467,1628973,0021900733,2,1144,1147,0,0,1610612737
81,1610612737,1627745,1628381,1628989,1629027,1629164,1610612742,1626153,1627827,1628382,1628467,1628973,0021900733,2,1162,1162,0,3,1610612742
82,1610612737,1627745,1628381,1628989,1629027,1629164,1610612742,1626153,1627827,1628382,1628467,1628973,0021900733,2,1164,1183,2,0,1610612737
83,1610612737,1628381,1628989,1629027,1713,201952,1610612742,1626153,1626161,1627827,1628382,1628973,0021900733,2,1205,1212,0,0,1610612742
84,1610612737,1628381,1628989,1629027,1713,201952,1610612742,1626153,1626161,1627827,1628382,1628973,0021900733,2,1218,1222,0,0,1610612737
85,1610612737,1628381,1628989,1629027,1713,201952,1610612742,1626153,1626161,1627827,1628382,1628973,0021900733,2,1224,1224,0,0,1610612742
86,1610612737,1628381,1628989,1629027,1713,201952,1610612742,1626161,1627827,1628382,1628973,203501,0021900733,2,1241,1243,0,0,1610612737
87,1610612737,1628381,1628989,1629027,1713,201952,1610612742,1626161,1627827,1628382,1628973,203501,0021900733,2,1252,1257,0,2,1610612742
88,1610612737,1628381,1628989,1629027,1713,201952,1610612742,1626161,1627827,1628382,1628973,203501,0021900733,2,1279,1281,0,0,1610612737
89,1610612737,1628381,1628989,1629027,1713,201952,1610612742,1626161,1627827,1628382,1628973,203501,0021900733,2,1298,1305,0,0,1610612742
90,1610612737,1628381,1628989,1629027,1713,201952,1610612742,1626161,1627827,1628382,1628973,203501,0021900733,2,1309,1309,2,0,1610612737
91,1610612737,1628381,1628989,1629027,1713,201952,1610612742,1626161,1627827,1628382,1628973,203501,0021900733,2,1335,1335,0,0,1610612742
92,1610612737,1628381,1628989,1629027,1713,201952,1610612742,1626161,1627827,1628382,1628973,203501,0021900733,2,1338,1338,2,0,1610612737
93,1610612737,1628381,1628989,1629027,1713,201952,1610612742,1626161,1627827,1628382,1628973,203501,0021900733,2,1363,1365,0,0,1610612742
94,1610612737,1628381,1628989,1629027,1713,201952,1610612742,1626161,1627827,1628382,1628973,203501,0021900733,2,1369,1369,2,0,1610612737
95,1610612737,1628381,1628989,1629027,1713,201952,1610612742,1626161,1627827,1628382,1628973,203501,0021900733,2,1370,1392,0,0,1610612742
96,1610612737,1628381,1628989,1629027,1713,201952,1610612742,1626153,1627827,1628382,1628467,203501,0021900733,2,1397,1401,0,0,1610612737
97,1610612737,1628381,1628989,1629027,1713,201952,1610612742,1626153,1627827,1628382,1628467,203501,0021900733,2,1407,1407,0,2,1610612742
98,1610612737,1628381,1628989,1629027,1713,201952,1610612742,1626153,1627827,1628382,1628467,203501,0021900733,2,1425,1430,2,0,1610612737
99,1610612737,1628381,1628989,1629027,1713,201952,1610612742,1626153,1627827,1628382,1628467,203501,0021900733,2,1434,1437,0,3,1610612742
100,1610612737,1628381,1628989,1629027,1713,201952,1610612742,1627827,1628382,1628467,203501,203552,0021900733,2,1440,1440,0,0,1610612742
101,1610612737,1628381,1627745,1628989,1629027,201952,1610612742,1627827,1628467,1626161,203501,1628973,0021900733,3,1440,1468,0,0,1610612737
102,1610612737,1628381,1627745,1628989,1629027,201952,1610612742,1627827,1628467,1626161,203501,1628973,0021900733,3,1488,1488,0,3,1610612742
103,1610612737,1628381,1627745,1628989,1629027,201952,1610612742,1627827,1628467,1626161,203501,1628973,0021900733,3,1498,1498,0,0,1610612737
104,1610612737,1628381,1627745,1628989,1629027,201952,1610612742,1627827,1628467,1626161,203501,1628973,0021900733,3,1506,1506,0,0,1610612742
105,1610612737,1628381,1627745,1628989,1629027,201952,1610612742,1627827,1628467,1626161,203501,1628973,0021900733,3,1522,1527,2,0,1610612737
106,1610612737,1628381,1627745,1628989,1629027,201952,1610612742,1627827,1628467,1626161,203501,1628973,0021900733,3,1527,1538,0,3,1610612742
107,1610612737,1628381,1627745,1628989,1629027,201952,1610612742,1627827,1628467,1626161,203501,1628973,0021900733,3,1552,1552,3,0,1610612737
108,1610612737,1628381,1627745,1628989,1629027,201952,1610612742,1627827,1628467,1626161,203501,1628973,0021900733,3,1568,1570,0,0,1610612742
109,1610612737,1628381,1627745,1628989,1629027,201952,1610612742,1627827,1628467,1626161,203501,1628973,0021900733,3,1576,1582,0,0,1610612737
110,1610612737,1628381,1627745,1628989,1629027,201952,1610612742,1627827,1628467,1626161,203501,1628973,0021900733,3,1592,1592,0,2,1610612742
111,1610612737,1628381,1627745,1628989,1629027,201952,1610612742,1627827,1628467,1626161,203501,1628973,0021900733,3,1593,1610,0,0,1610612737
112,1610612737,1628381,1627745,1628989,1629027,201952,1610612742,1627827,1628467,1626161,203501,1628973,0021900733,3,1622,1626,0,0,1610612742
113,1610612737,1628381,1627745,1628989,1629027,201952,1610612742,1627827,1628467,1626161,203501,1628973,0021900733,3,1632,1632,2,0,1610612737
114,1610612737,1628381,1628989,1629027,1713,201952,1610612742,1627827,1628467,1628973,1629151,203501,0021900733,3,1649,1649,0,2,1610612742
115,1610612737,1628381,1628989,1629027,1713,201952,1610612742,1627827,1628467,1628973,1629151,203501,0021900733,3,1664,1668,2,0,1610612737
116,1610612737,1628381,1628989,1629027,1713,201952,1610612742,1627827,1628467,1628973,1629151,203501,0021900733,3,1685,1685,0,2,1610612742
117,1610612737,1628381,1628989,1629027,1713,201952,1610612742,1627827,1628467,1628973,1629151,203501,0021900733,3,1697,1697,0,0,1610612737
118,1610612737,1628381,1628989,1629027,1713,201952,1610612742,1627827,1628467,1628973,1629151,203501,0021900733,3,1699,1699,0,2,1610612742
119,1610612737,1628381,1628989,1629027,1713,201952,1610612742,1627827,1628467,1628973,1629151,203501,0021900733,3,1712,1712,3,0,1610612737
120,1610612737,1628381,1628989,1629027,1713,201952,1610612742,1627827,1628467,1628973,1629151,203501,0021900733,3,1727,1727,0,2,1610612742
121,1610612737,1628381,1628989,1629027,1713,201952,1610612742,1627827,1628467,1628973,1629151,203501,0021900733,3,1751,1751,0,0,1610612737
122,1610612737,1628381,1628989,1629027,1713,201952,1610612742,1627827,1628467,1628973,1629151,203501,0021900733,3,1757,1757,0,3,1610612742
123,1610612737,1628381,1628989,1629027,1713,201952,1610612742,1627827,1628467,1628973,1629151,203501,0021900733,3,1776,1778,1,0,1610612737
124,1610612737,1628381,1628989,1629164,1713,201952,1610612742,1626153,1627827,1628467,1629151,203552,0021900733,3,1792,1792,0,3,1610612742
125,1610612737,1628381,1628989,1629164,1713,201952,1610612742,1626153,1627827,1628467,1629151,203552,0021900733,3,1813,1813,2,0,1610612737
126,1610612737,1628381,1628989,1629164,1713,201952,1610612742,1626153,1627827,1628467,1629151,203552,0021900733,3,1838,1838,0,3,1610612742
127,1610612737,1628381,1628989,1629164,1713,201952,1610612742,1626153,1627827,1628467,1629151,203552,0021900733,3,1839,1857,2,0,1610612737
128,1610612737,1627745,1628989,1629164,1713,201952,1610612742,1626153,1626161,1627827,1629151,203552,0021900733,3,1874,1874,0,3,1610612742
129,1610612737,1627745,1628989,1629164,1713,201952,1610612742,1626153,1626161,1627827,1629151,203552,0021900733,3,1887,1890,0,0,1610612737
130,1610612737,1627745,1628989,1629164,1713,201952,1610612742,1626153,1626161,1627827,1629151,203552,0021900733,3,1893,1896,0,0,1610612742
131,1610612737,1627745,1628989,1629164,1713,201952,1610612742,1626153,1626161,1627827,1629151,203552,0021900733,3,1897,1915,2,0,1610612737
132,1610612737,1626203,1627745,1628989,1713,201952,1610612742,1626153,1626161,1628382,1629151,203552,0021900733,3,1927,1927,0,2,1610612742
133,1610612737,1626203,1627745,1628989,1713,201952,1610612742,1626153,1626161,1628382,1629151,203552,0021900733,3,1946,1950,0,0,1610612737
134,1610612737,1626203,1627745,1628989,1713,201952,1610612742,1626153,1626161,1628382,1629151,203552,0021900733,3,1966,1966,0,2,1610612742
135,1610612737,1626203,1627745,1628989,1713,201952,1610612742,1626153,1626161,1628382,1629151,203552,0021900733,3,1983,1986,0,0,1610612737
136,1610612737,1626203,1627745,1628989,1713,201952,1610612742,1626153,1626161,1628382,1629151,203552,0021900733,3,1995,1997,0,0,1610612742
137,1610612737,1626203,1627745,1628989,1713,201952,1610612742,1626153,1626161,1628382,1629151,203552,0021900733,3,2005,2009,0,0,1610612737
138,1610612737,1626203,1627745,1628989,1713,201952,1610612742,1626153,1626161,1628382,1629151,203552,0021900733,3,2032,2032,0,3,1610612742
139,1610612737,1626203,1627745,1628989,1713,201952,1610612742,1626153,1626161,1628382,1629151,203552,0021900733,3,2056,2058,0,0,1610612737
140,1610612737,1626203,1627745,1628989,1713,201952,1610612742,1626153,1626161,1628382,1629151,203552,0021900733,3,2069,2071,0,0,1610612742
141,1610612737,1626203,1627745,1628989,1713,201952,1610612742,1626153,1626161,1628382,1629151,203552,0021900733,3,2083,2083,2,0,1610612737
142,1610612737,1626203,1627745,1628381,1629164,1629718,1610612742,1626153,1626161,1628382,1629151,203552,0021900733,3,2094,2099,0,0,1610612742
143,1610612737,1626203,1627745,1628381,1629164,1629718,1610612742,1626153,1626161,1628382,1629151,203552,0021900733,3,2103,2103,2,0,1610612737
144,1610612737,1626203,1627745,1628381,1629164,1629718,1610612742,1626153,1626161,1628382,1629151,203552,0021900733,3,2110,2113,0,0,1610612742
145,1610612737,1626203,1627745,1628381,1629164,1629718,1610612742,1626153,1626161,1628382,1629151,203552,0021900733,3,2116,2116,0,0,1610612737
146,1610612737,1626203,1627745,1628381,1629164,1629718,1610612742,1626153,1626161,1628382,1629151,203552,0021900733,3,2128,2131,0,0,1610612742
147,1610612737,1626203,1627745,1628381,1629164,1629718,1610612742,1626153,1626161,1628382,1629151,203552,0021900733,3,2148,2151,0,0,1610612737
148,1610612737,1626203,1627745,1628381,1629164,1629718,1610612742,1626153,1626161,1628382,1629151,203552,0021900733,3,2159,2160,0,0,1610612742
149,1610612737,1628381,1713,201952,1629164,1626203,1610612742,1628467,203552,1629151,1626153,1628382,0021900733,4,2160,2178,0,0,1610612742
150,1610612737,1628381,1713,201952,1629164,1626203,1610612742,1628467,203552,1629151,1626153,1628382,0021900733,4,2182,2200,2,0,1610612737
151,1610612737,1628381,1713,201952,1629164,1626203,1610612742,1628467,203552,1629151,1626153,1628382,0021900733,4,2209,2209,0,0,1610612742
152,1610612737,1628381,1713,201952,1629164,1626203,1610612742,1628467,203552,1629151,1626153,1628382,0021900733,4,2220,2220,2,0,1610612737
153,1610612737,1628381,1713,201952,1629164,1626203,1610612742,1628467,203552,1629151,1626153,1628382,0021900733,4,2230,2241,0,0,1610612742
154,1610612737,1628381,1713,201952,1629164,1626203,1610612742,1628382,1628467,1628973,1629151,203552,0021900733,4,2244,2245,2,0,1610612737
155,1610612737,1628381,1713,201952,1629164,1626203,1610612742,1628382,1628467,1628973,1629151,203552,0021900733,4,2260,2260,0,3,1610612742
156,1610612737,1628381,1713,201952,1629164,1626203,1610612742,1628382,1628467,1628973,1629151,203552,0021900733,4,2270,2274,0,0,1610612737
157,1610612737,1628381,1713,201952,1629164,1626203,1610612742,1628382,1628467,1628973,1629151,203552,0021900733,4,2283,2283,0,3,1610612742
158,1610612737,1628381,1713,201952,1629164,1626203,1610612742,1628382,1628467,1628973,1629151,203552,0021900733,4,2299,2299,2,0,1610612737
159,1610612737,1628381,1713,201952,1629164,1626203,1610612742,1628382,1628467,1628973,1629151,203552,0021900733,4,2312,2315,0,0,1610612742
160,1610612737,1628381,1713,201952,1629164,1626203,1610612742,1628382,1628467,1628973,1629151,203552,0021900733,4,2319,2322,2,0,1610612737
161,1610612737,1628381,1713,201952,1629164,1626203,1610612742,1628382,1628467,1628973,1629151,203552,0021900733,4,2322,2332,0,0,1610612742
162,1610612737,1626203,1627745,1628381,1628989,1629164,1610612742,1628382,1628467,1628973,1629151,203552,0021900733,4,2335,2335,2,0,1610612737
163,1610612737,1626203,1627745,1628381,1628989,1629164,1610612742,1628382,1628467,1628973,1629151,203552,0021900733,4,2357,2357,0,3,1610612742
164,1610612737,1626203,1627745,1628381,1628989,1629164,1610612742,1628382,1628467,1628973,1629151,203552,0021900733,4,2366,2366,3,0,1610612737
165,1610612737,1626203,1627745,1628381,1628989,1629164,1610612742,1628382,1628467,1628973,1629151,203552,0021900733,4,2391,2391,0,0,1610612742
166,1610612737,1626203,1627745,1628381,1628989,1629164,1610612742,1628382,1628467,1628973,1629151,203552,0021900733,4,2407,2410,0,0,1610612737
167,1610612737,1626203,1627745,1628381,1628989,1629164,1610612742,1628382,1628467,1628973,1629151,203552,0021900733,4,2421,2424,0,0,1610612742
168,1610612737,1626203,1627745,1628381,1628989,1629164,1610612742,1628382,1628467,1628973,1629151,203552,0021900733,4,2432,2432,0,0,1610612737
169,1610612737,1626203,1627745,1628381,1628989,1629164,1610612742,1628382,1628467,1628973,1629151,203552,0021900733,4,2441,2454,0,0,1610612742
170,1610612737,1626203,1627745,1628989,1713,201952,1610612742,1626153,1627827,1628467,1628973,1629151,0021900733,4,2468,2468,0,0,1610612737
171,1610612737,1626203,1627745,1628989,1713,201952,1610612742,1626153,1627827,1628467,1628973,1629151,0021900733,4,2469,2491,0,3,1610612742
172,1610612737,1626203,1627745,1628989,1713,201952,1610612742,1626153,1627827,1628467,1628973,1629151,0021900733,4,2500,2500,2,0,1610612737
173,1610612737,1627745,1628989,1629164,1713,201952,1610612742,1626153,1626161,1627827,1629151,203501,0021900733,4,2511,2511,0,0,1610612742
174,1610612737,1627745,1628989,1629164,1713,201952,1610612742,1626153,1626161,1627827,1629151,203501,0021900733,4,2517,2528,0,0,1610612737
175,1610612737,1627745,1628989,1629164,1713,201952,1610612742,1626153,1626161,1627827,1629151,203501,0021900733,4,2538,2543,0,0,1610612742
176,1610612737,1627745,1628989,1629164,1713,201952,1610612742,1626153,1626161,1627827,1629151,203501,0021900733,4,2558,2558,2,0,1610612737
177,1610612737,1628381,1628989,1629164,1713,201952,1610612742,1626153,1626161,1627827,1628382,203501,0021900733,4,2574,2574,0,3,1610612742
178,1610612737,1626203,1628381,1628989,1629164,201952,1610612742,1626153,1626161,1627827,1628382,203501,0021900733,4,2592,2592,2,0,1610612737
179,1610612737,1626203,1628381,1628989,1629164,201952,1610612742,1626153,1626161,1627827,1628382,203501,0021900733,4,2608,2611,0,0,1610612742
180,1610612737,1626203,1628381,1628989,1629164,201952,1610612742,1626153,1626161,1627827,1628382,203501,0021900733,4,2617,2617,0,0,1610612737
181,1610612737,1626203,1628381,1628989,1629164,201952,1610612742,1626153,1626161,1627827,1628382,203501,0021900733,4,2631,2635,0,0,1610612742
182,1610612737,1626203,1628381,1628989,1629164,201952,1610612742,1626153,1626161,1627827,1628382,203501,0021900733,4,2638,2638,3,0,1610612737
183,1610612737,1626203,1628381,1628989,1629164,201952,1610612742,1626153,1626161,1627827,1628382,203501,0021900733,4,2656,2658,0,0,1610612742
184,1610612737,1626203,1628381,1628989,1629164,201952,1610612742,1626153,1626161,1627827,1628382,203501,0021900733,4,2658,2666,0,0,1610612737
185,1610612737,1628381,1628989,1629164,1713,201952,1610612742,1626153,1627827,1628382,1628467,203501,0021900733,4,2666,2666,0,2,1610612742
186,1610612737,1628381,1628989,1629164,1713,201952,1610612742,1626153,1627827,1628382,1628467,203501,0021900733,4,2673,2687,0,0,1610612737
187,1610612737,1628381,1628989,1629164,1713,201952,1610612742,1626153,1627827,1628382,1628467,203501,0021900733,4,2705,2705,0,2,1610612742
188,1610612737,1628381,1628989,1629164,1713,201952,1610612742,1626153,1627827,1628382,1628467,203501,0021900733,4,2714,2717,0,0,1610612737
189,1610612737,1628381,1628989,1629164,1713,201952,1610612742,1626153,1627827,1628382,1628467,203501,0021900733,4,2738,2744,0,2,1610612742
190,1610612737,1628381,1628989,1629164,1713,201952,1610612742,1626153,1627827,1628382,1628467,203501,0021900733,4,2756,2759,0,0,1610612737
191,1610612737,1628381,1628989,1629164,1713,201952,1610612742,1626153,1627827,1628382,1628467,203501,0021900733,4,2759,2769,0,0,1610612742
192,1610612737,1626203,1627745,1629718,1713,201952,1610612742,1626153,1628382,1628499,1628973,1629151,0021900733,4,2779,2783,0,0,1610612737
193,1610612737,1626203,1627745,1629718,1713,201952,1610612742,1626153,1628382,1628499,1628973,1629151,0021900733,4,2792,2792,0,3,1610612742
194,1610612737,1626203,1627745,1629164,1629718,201952,1610612742,1626153,1628382,1628499,1628973,1629151,0021900733,4,2807,2811,0,0,1610612737
195,1610612737,1626203,1627745,1629164,1629718,201952,1610612742,1626153,1628382,1628499,1628973,1629151,0021900733,4,2829,2829,0,2,1610612742
196,1610612737,1626203,1627745,1629164,1629718,201952,1610612742,1626153,1628382,1628499,1628973,1629151,0021900733,4,2839,2839,2,0,1610612737
197,1610612737,1626203,1627745,1629164,1629718,201952,1610612742,1626153,1628382,1628499,1628973,1629151,0021900733,4,2849,2852,0,0,1610612742
198,1610612737,1626203,1627745,1629164,1629718,201952,1610612742,1626153,1628382,1628499,1628973,1629151,0021900733,4,2860,2860,2,0,1610612737
