,stint_end,t1_players,t2_pm,t2_points_scored,stint_start,t1_pm,t1_points_scored,t2_id,t1_id,t2_players,margin_per_100,num_poss
0,320,"[1630180, 203924, 203486, 201961, 1626153]",-4,12,0,4,16,1610612739,1610612765,"[1626224, 1630171, 203083, 1629012, 1629636]",19.047619047619047,21.0
1,389,"[1630180, 203924, 203486, 201961, 1626153]",0,18,321,0,18,1610612739,1610612765,"[1626224, 1630171, 203083, 1629012, 1629636]",0.0,27.0
2,521,"[1630180, 203924, 203486, 201961, 1626153]",5,27,390,-5,22,1610612739,1610612765,"[1627752, 1629636, 1629685, 1630171, 203083]",-13.513513513513514,37.0
3,568,"[1629635, 1630180, 201565, 201961, 203486]",3,27,522,-3,24,1610612739,1610612765,"[1627752, 1629636, 1629685, 1630171, 203083]",-7.142857142857142,42.0
4,691,"[1628367, 1629635, 1630191, 201565, 201961]",4,32,569,-4,28,1610612739,1610612765,"[1627752, 1628386, 1628422, 1629012, 1629685]",-7.547169811320755,53.0
5,719,"[1628367, 1629004, 1629635, 1630191, 201565]",4,32,692,-4,28,1610612739,1610612765,"[1627752, 1628386, 1628422, 1629012, 1629685]",-7.2727272727272725,55.0
6,822,"[1628367, 1629004, 1629635, 1630191, 201565]",6,36,720,-6,30,1610612739,1610612765,"[1627752, 1628386, 1628422, 1629012, 1630171]",-9.67741935483871,62.0
7,869,"[203924, 201565, 1628367, 1630191, 1629004]",8,38,823,-8,30,1610612739,1610612765,"[1629012, 1627752, 1629685, 1628422, 1628386]",-12.307692307692308,65.0
8,1015,"[1626153, 1629004, 1630191, 201961, 203924]",4,42,870,-4,38,1610612739,1610612765,"[1626224, 1628386, 1628422, 1629012, 1629685]",-5.333333333333334,75.0
9,1044,"[1626153, 1629004, 1630191, 201961, 203924]",4,42,1016,-4,38,1610612739,1610612765,"[1626224, 1628386, 1628422, 1629012, 1630171]",-5.194805194805195,77.0
10,1214,"[1626153, 1628367, 1630191, 201961, 203924]",-6,45,1045,6,51,1610612739,1610612765,"[1626224, 1627752, 1628386, 1629636, 1630171]",6.8181818181818175,88.0
11,1258,"[1626153, 1628367, 201961, 203486, 203924]",-8,45,1215,8,53,1610612739,1610612765,"[1626224, 1627752, 1629636, 1630171, 203083]",8.791208791208792,91.0
12,1420,"[1626153, 1628367, 1630180, 203486, 203924]",-5,51,1259,5,56,1610612739,1610612765,"[1626224, 1627752, 1629636, 1630171, 203083]",4.807692307692308,104.0
13,1439,"[1626153, 1628367, 1629635, 1630180, 203486]",-2,54,1421,2,56,1610612739,1610612765,"[1629012, 1629636, 1629685, 1630171, 203083]",1.9047619047619049,105.0
14,1708,"[1626153, 1628367, 1629635, 1630180, 203486]",4,66,1440,-4,62,1610612739,1610612765,"[1627752, 1629636, 1629685, 1630171, 203083]",-3.1746031746031744,126.0
15,1748,"[1630180, 203924, 203486, 201961, 1626153]",2,66,1709,-2,64,1610612739,1610612765,"[1626224, 1630171, 203083, 1629012, 1629636]",-1.5384615384615385,130.0
16,1916,"[1630180, 203924, 203486, 201961, 1626153]",1,72,1749,-1,71,1610612739,1610612765,"[1626224, 1629636, 1629685, 1630171, 203083]",-0.7194244604316548,139.0
17,2004,"[1626153, 1628367, 201961, 203486, 203924]",5,79,1917,-5,74,1610612739,1610612765,"[1627752, 1628386, 1629636, 1629685, 1630171]",-3.4482758620689653,145.0
18,2149,"[1628367, 1630191, 201565, 201961, 203924]",6,88,2005,-6,82,1610612739,1610612765,"[1627752, 1628386, 1629012, 1629685, 1630171]",-3.9215686274509802,153.0
19,2158,"[1628367, 1629004, 1629635, 1630191, 201565]",8,90,2150,-8,82,1610612739,1610612765,"[1626224, 1627752, 1628386, 1629012, 1629685]",-5.161290322580645,155.0
20,2323,"[1628367, 1629004, 1629635, 1630191, 201565]",13,99,2159,-13,86,1610612739,1610612765,"[1627752, 1628386, 1629012, 1629685, 1630171]",-7.784431137724551,167.0
21,2424,"[1629635, 201565, 1628367, 1629004, 1626143]",16,103,2324,-16,87,1610612739,1610612765,"[1626224, 1629012, 1627752, 1629685, 1628386]",-9.248554913294797,173.0
22,2461,"[1626143, 1629004, 201565, 201961, 203924]",15,103,2425,-15,88,1610612739,1610612765,"[1626224, 1627752, 1628386, 1629012, 1630171]",-8.522727272727272,176.0
23,2559,"[1626143, 1626153, 1629004, 201961, 203924]",14,108,2462,-14,94,1610612739,1610612765,"[1626224, 1627752, 1629636, 1630171, 203083]",-7.650273224043716,183.0
24,2765,"[1626153, 1629004, 201961, 203486, 203924]",19,119,2560,-19,100,1610612739,1610612765,"[1626224, 1627752, 1629636, 1630171, 203083]",-9.644670050761421,197.0
25,2785,"[1626153, 201565, 201961, 203486, 203924]",17,119,2766,-17,102,1610612739,1610612765,"[1627752, 1629012, 1629636, 1630171, 203083]",-8.585858585858585,198.0
26,2864,"[1628402, 1629004, 1630180, 1630191, 203924]",15,122,2786,-15,107,1610612739,1610612765,"[1627752, 1629012, 1629636, 1630171, 203083]",-7.389162561576355,203.0
27,9999999,"[1628402, 1629004, 1629635, 1630180, 1630191]",15,122,2865,-15,107,1610612739,1610612765,"[1629012, 1629636, 1629731, 1630171, 203083]",-7.352941176470589,204.0
