,TEAM_ID_1,TEAM_1_PLAYERS,TEAM_ID_2,TEAM_2_PLAYERS,PERIOD
0,1610612751,[1628971 1627761 1629651  201988  201935],1610612747,[1629659    2544    2730  201961  201566],1
1,1610612751,[1627761 1629651  201988 1628975  200794],1610612747,[   2544  201566 1628370    2546  201954],2
2,1610612751,[1628971 1627761 1629651  201988  201935],1610612747,[1629659    2544  201961  201566    2546],3
3,1610612751,[1628971 1629651  201988  201935  204038],1610612747,[1629659    2544  201566 1628370    2546],4
