,t1_points_scored,stint_end,t2_pm,t1_players,t2_id,t1_id,t2_players,t2_points_scored,t1_pm,stint_start,margin_per_100,num_poss
0,18,335,-6,"[203503, 1629635, 203083, 201565, 1628971]",1610612737,1610612765,"[1629629, 1629631, 1628381, 1628989, 1629027]",12,6,0,24.0,25.0
1,23,438,-9,"[203503, 1629635, 203083, 201565, 1628971]",1610612737,1610612765,"[1629629, 1629631, 1628381, 1628989, 1629027]",14,9,336,29.03225806451613,31.0
2,26,480,-10,"[1628971, 201565, 202693, 203083, 203503]",1610612737,1610612765,"[1628381, 1628981, 1628989, 1629027, 201952]",16,10,439,29.411764705882355,34.0
3,26,488,-10,"[1628971, 202693, 203083, 203503, 204025]",1610612737,1610612765,"[1627761, 1628381, 1628981, 1629027, 201952]",16,10,481,28.57142857142857,35.0
4,26,515,-7,"[1628971, 202693, 203083, 203503, 204025]",1610612737,1610612765,"[1627761, 1628981, 1629027, 1713, 201952]",19,7,489,18.91891891891892,37.0
5,29,571,-8,"[1628971, 1629004, 202693, 203083, 204025]",1610612737,1610612765,"[1627761, 1628981, 1629027, 1713, 201952]",21,8,516,19.51219512195122,41.0
6,36,719,-7,"[1628971, 1629004, 202693, 203083, 204025]",1610612737,1610612765,"[1627761, 1628981, 1629629, 1713, 201952]",29,7,572,14.000000000000002,50.0
7,38,820,-7,"[1626174, 1629004, 202693, 204025, 204038]",1610612737,1610612765,"[1627761, 1628981, 1629629, 1713, 201952]",31,7,720,12.5,56.0
8,40,887,-7,"[202693, 204025, 1629004, 1626174, 204038]",1610612737,1610612765,"[1629629, 1629631, 1628381, 201952, 1626203]",33,7,821,11.666666666666666,60.0
9,48,961,-9,"[202693, 204025, 1629004, 1626174, 204038]",1610612737,1610612765,"[1626203, 1628381, 1628989, 1629027, 1629631]",39,9,888,13.636363636363635,66.0
10,58,1110,-17,"[202693, 204025, 1629004, 1626174, 204038]",1610612737,1610612765,"[1628381, 1628989, 1629027, 1629629, 1629631]",41,17,962,22.07792207792208,77.0
11,63,1213,-18,"[1626174, 1629004, 1629635, 204025, 204038]",1610612737,1610612765,"[1628381, 1628989, 1629027, 1629629, 1629631]",45,18,1111,20.930232558139537,86.0
12,65,1269,-16,"[1629004, 1629635, 201565, 203083, 204038]",1610612737,1610612765,"[1627745, 1627761, 1629027, 1629629, 1629631]",49,16,1214,17.77777777777778,90.0
13,70,1380,-17,"[1629004, 1629635, 201565, 203083, 204038]",1610612737,1610612765,"[1627745, 1627761, 1629629, 1629631, 201952]",53,17,1270,17.346938775510203,98.0
14,71,1439,-16,"[1628971, 1629635, 201565, 203083, 203503]",1610612737,1610612765,"[1627745, 1627761, 1629629, 1629631, 201952]",55,16,1381,15.384615384615385,104.0
15,75,1566,-18,"[1626174, 1628971, 1629635, 201565, 203503]",1610612737,1610612765,"[1627745, 1627761, 1629629, 1629631, 201952]",57,18,1440,16.071428571428573,112.0
16,86,1762,-21,"[203503, 1629635, 203083, 201565, 1628971]",1610612737,1610612765,"[1629629, 1629631, 1628381, 1628989, 1629027]",65,21,1567,16.666666666666664,126.0
17,87,1789,-20,"[203503, 1629635, 203083, 201565, 1628971]",1610612737,1610612765,"[1628381, 1628981, 1628989, 1629027, 1629631]",67,20,1763,15.503875968992247,129.0
18,89,1820,-22,"[203503, 1629635, 203083, 201565, 1628971]",1610612737,1610612765,"[1628981, 1629027, 1629629, 1629631, 1713]",67,22,1790,16.793893129770993,131.0
19,90,1859,-21,"[1626174, 1628971, 1629635, 201565, 203503]",1610612737,1610612765,"[1628981, 1629027, 1629629, 1629631, 1713]",69,21,1821,15.909090909090908,132.0
20,95,1929,-26,"[1626174, 1628971, 202693, 203503, 204025]",1610612737,1610612765,"[1628981, 1629629, 1629631, 1713, 201952]",69,26,1860,19.11764705882353,136.0
21,97,1982,-25,"[1626174, 1628971, 202693, 203503, 204025]",1610612737,1610612765,"[1628981, 1628989, 1629629, 1713, 201952]",72,25,1930,17.6056338028169,142.0
22,103,2158,-27,"[1626174, 1629004, 202693, 204025, 204038]",1610612737,1610612765,"[1626203, 1627761, 1628981, 1628989, 201952]",76,27,1983,17.532467532467532,154.0
23,110,2258,-32,"[1626174, 1629004, 202693, 204025, 204038]",1610612737,1610612765,"[1626203, 1627761, 1628381, 1628989, 201952]",78,32,2159,19.875776397515526,161.0
24,115,2418,-30,"[203083, 201565, 202693, 1629004, 204038]",1610612737,1610612765,"[1629629, 1629631, 1628381, 1629027, 201952]",85,30,2259,17.441860465116278,172.0
25,115,2436,-30,"[203083, 201565, 202693, 1629004, 204038]",1610612737,1610612765,"[1628381, 1628981, 1629027, 1629629, 1629631]",85,30,2419,17.24137931034483,174.0
26,120,2515,-31,"[1629004, 1629635, 201565, 203083, 204038]",1610612737,1610612765,"[1628981, 1629027, 1629629, 1629631, 1713]",89,31,2437,17.22222222222222,180.0
27,125,2584,-36,"[1629004, 1629635, 201565, 203083, 204038]",1610612737,1610612765,"[1628981, 1628989, 1629027, 1629631, 1713]",89,36,2516,19.565217391304348,184.0
28,125,2620,-34,"[1629004, 1629635, 201565, 203083, 204038]",1610612737,1610612765,"[1626203, 1627745, 1627761, 1713, 201952]",91,34,2585,18.181818181818183,187.0
29,136,2863,-35,"[1627748, 1629004, 1629635, 204025, 204038]",1610612737,1610612765,"[1626203, 1627745, 1627761, 1713, 201952]",101,35,2621,17.326732673267326,202.0
30,136,9999999,-33,"[1627748, 1629004, 1629635, 204025, 204038]",1610612737,1610612765,"[1626203, 1627745, 1627761, 1629164, 201952]",103,33,2864,16.25615763546798,203.0
