,team1_id,team1_player1,team1_player2,team1_player3,team1_player4,team1_player5,team2_id,team2_player1,team2_player2,team2_player3,team2_player4,team2_player5,game_id,period,possession_start,possession_end,team1_points,team2_points,possession_team
0,1610612747,1626169,2544,203076,202340,201566,1610612744,203952,1630228,1626172,202691,201939,0022100854,1,0,23,0,0,1610612747
1,1610612747,1626169,2544,203076,202340,201566,1610612744,203952,1630228,1626172,202691,201939,0022100854,1,39,39,0,2,1610612744
2,1610612747,1626169,2544,203076,202340,201566,1610612744,203952,1630228,1626172,202691,201939,0022100854,1,39,50,2,0,1610612747
3,1610612747,1626169,2544,203076,202340,201566,1610612744,203952,1630228,1626172,202691,201939,0022100854,1,62,62,0,3,1610612744
4,1610612747,1626169,2544,203076,202340,201566,1610612744,203952,1630228,1626172,202691,201939,0022100854,1,80,80,3,0,1610612747
5,1610612747,1626169,2544,203076,202340,201566,1610612744,203952,1630228,1626172,202691,201939,0022100854,1,96,99,0,0,1610612744
6,1610612747,1626169,2544,203076,202340,201566,1610612744,203952,1630228,1626172,202691,201939,0022100854,1,101,103,0,0,1610612747
7,1610612747,1626169,2544,203076,202340,201566,1610612744,203952,1630228,1626172,202691,201939,0022100854,1,121,121,0,0,1610612744
8,1610612747,1626169,2544,203076,202340,201566,1610612744,203952,1630228,1626172,202691,201939,0022100854,1,125,125,2,0,1610612747
9,1610612747,1626169,2544,203076,202340,201566,1610612744,203952,1630228,1626172,202691,201939,0022100854,1,125,132,0,3,1610612744
10,1610612747,1626169,2544,203076,202340,201566,1610612744,203952,1630228,1626172,202691,201939,0022100854,1,145,146,0,0,1610612747
11,1610612747,1626169,2544,203076,202340,201566,1610612744,203952,1630228,1626172,202691,201939,0022100854,1,154,154,0,1,1610612744
12,1610612747,1626169,2544,203076,202340,201566,1610612744,203952,1630228,1626172,202691,201939,0022100854,1,167,170,0,0,1610612747
13,1610612747,1626169,2544,203076,202340,201566,1610612744,203952,1630228,1626172,202691,201939,0022100854,1,182,182,0,2,1610612744
14,1610612747,1626169,2544,203076,202340,201566,1610612744,203952,1630228,1626172,202691,201939,0022100854,1,192,195,0,0,1610612747
15,1610612747,1626169,2544,203076,202340,201566,1610612744,203952,1630228,1626172,202691,201939,0022100854,1,199,210,0,0,1610612744
16,1610612747,201566,202340,203076,2544,2772,1610612744,203952,1630228,1626172,202691,201939,0022100854,1,226,229,0,0,1610612747
17,1610612747,201566,202340,203076,2544,2772,1610612744,203952,1630228,1626172,202691,201939,0022100854,1,234,236,0,0,1610612744
18,1610612747,201566,202340,203076,2544,2772,1610612744,203952,1630228,1626172,202691,201939,0022100854,1,249,252,0,0,1610612747
19,1610612747,201566,202340,203076,2544,2772,1610612744,203952,1630228,1626172,202691,201939,0022100854,1,271,271,0,3,1610612744
20,1610612747,201566,202340,203076,2544,2772,1610612744,203952,1630228,1626172,202691,201939,0022100854,1,288,291,0,0,1610612747
21,1610612747,201566,202340,203076,2544,2772,1610612744,203952,1630228,1626172,202691,201939,0022100854,1,298,301,0,0,1610612744
22,1610612747,201566,202340,203076,2544,2772,1610612744,203952,1630228,1626172,202691,201939,0022100854,1,305,305,2,0,1610612747
23,1610612747,201566,202340,203076,2544,2772,1610612744,203952,1630228,1626172,202691,201939,0022100854,1,321,321,0,0,1610612744
24,1610612747,201566,202340,203076,2544,2772,1610612744,203952,1630228,1626172,202691,201939,0022100854,1,325,325,2,0,1610612747
25,1610612747,201566,202340,203076,2544,2772,1610612744,203952,1630228,1626172,202691,201939,0022100854,1,326,346,0,1,1610612744
26,1610612747,201566,202340,203076,2544,2772,1610612744,203952,1630228,1626172,202691,201939,0022100854,1,347,349,0,0,1610612747
27,1610612747,201566,202340,203076,2544,2772,1610612744,203952,1630228,1626172,202691,201939,0022100854,1,365,365,0,2,1610612744
28,1610612747,201566,202340,203076,2544,2772,1610612744,203952,1630228,1626172,202691,201939,0022100854,1,375,377,0,0,1610612747
29,1610612747,201566,202340,203076,2544,2772,1610612744,203952,1630228,1626172,202691,201939,0022100854,1,386,386,0,0,1610612744
30,1610612747,201566,202340,203076,2544,2772,1610612744,203952,1630228,1626172,202691,201939,0022100854,1,391,393,0,0,1610612747
31,1610612747,201566,202340,203076,2544,2772,1610612744,203952,1630228,1626172,202691,201939,0022100854,1,397,397,0,2,1610612744
32,1610612747,201566,202340,203076,2544,2772,1610612744,203952,1630228,1626172,202691,201939,0022100854,1,398,412,2,0,1610612747
33,1610612747,1628370,201566,202340,203076,2772,1610612744,1626172,1627780,1629673,201939,203952,0022100854,1,428,431,0,0,1610612744
34,1610612747,1628370,201566,202340,203076,2772,1610612744,1626172,1627780,1629673,201939,203952,0022100854,1,442,442,2,0,1610612747
35,1610612747,1628370,201566,202340,203076,2772,1610612744,1626172,1627780,1629673,201939,203952,0022100854,1,461,464,0,0,1610612744
36,1610612747,1628370,201566,202340,203076,2772,1610612744,1626172,1627780,1629673,201939,203952,0022100854,1,468,468,0,0,1610612747
37,1610612747,1628370,201566,202340,203076,2772,1610612744,1626172,1627780,1629673,201939,203952,0022100854,1,473,473,0,2,1610612744
38,1610612747,1628370,201566,202340,203076,2772,1610612744,1626172,1627780,1629673,201939,203952,0022100854,1,491,491,0,0,1610612747
39,1610612747,1628370,1629659,202340,203076,2772,1610612744,1626172,1627780,1629673,201939,203490,0022100854,1,500,500,0,2,1610612744
40,1610612747,1628370,1629659,202340,203076,2772,1610612744,1626172,1627780,1629673,201939,203490,0022100854,1,521,521,0,0,1610612747
41,1610612747,1628370,1629659,202340,203076,2772,1610612744,1626172,1627780,1629673,201939,203490,0022100854,1,528,531,0,0,1610612744
42,1610612747,1628370,1629659,202340,203076,2772,1610612744,1626172,1627780,1629673,201939,203490,0022100854,1,540,540,3,0,1610612747
43,1610612747,1628370,1629659,202340,203076,2772,1610612744,1626172,1627780,1629673,201939,203490,0022100854,1,552,552,0,3,1610612744
44,1610612747,1628370,1629659,203076,2544,2772,1610612744,1626172,1627780,1629673,201939,203490,0022100854,1,567,569,0,0,1610612747
45,1610612747,1628370,1629659,203076,2544,2772,1610612744,1626172,1627780,1629673,201939,203490,0022100854,1,587,589,0,0,1610612744
46,1610612747,1628370,1629659,203076,2544,2772,1610612744,1626172,1627780,1629673,201939,203490,0022100854,1,603,605,0,0,1610612747
47,1610612747,1628370,1629659,203076,2544,2772,1610612744,1626172,1627780,1627814,1629673,203490,0022100854,1,624,626,0,0,1610612744
48,1610612747,1628370,1629659,203076,2544,2772,1610612744,1626172,1627780,1627814,1629673,203490,0022100854,1,636,636,2,0,1610612747
49,1610612747,1628370,1629659,203076,2544,2772,1610612744,1626172,1627780,1627814,1629673,203490,0022100854,1,661,663,0,0,1610612744
50,1610612747,1628370,1629659,203076,2544,2772,1610612744,1626172,1627780,1627814,1629673,203490,0022100854,1,672,672,2,0,1610612747
51,1610612747,1628370,1629659,203076,2544,2772,1610612744,1626172,1627780,1627814,1629673,203490,0022100854,1,680,681,0,0,1610612744
52,1610612747,1628370,1629659,203076,2544,2772,1610612744,1626172,1627780,1627814,1629673,203490,0022100854,1,681,681,2,0,1610612747
53,1610612747,1628370,1629659,203076,2544,2772,1610612744,1627780,1627814,1629673,202357,203490,0022100854,1,704,704,0,3,1610612744
54,1610612747,1628370,1629659,203076,2544,2772,1610612744,1627780,1627814,1629673,202357,203490,0022100854,1,715,715,2,0,1610612747
55,1610612747,1628370,1629659,203076,2544,2772,1610612744,1627780,1627814,1629673,202357,203490,0022100854,1,719,719,0,3,1610612744
56,1610612747,1626169,2544,1628370,1629659,1630559,1610612744,202691,201939,1629673,203490,202357,0022100854,2,720,734,0,2,1610612744
57,1610612747,1626169,2544,1628370,1629659,1630559,1610612744,202691,201939,1629673,203490,202357,0022100854,2,754,757,0,0,1610612747
58,1610612747,1626169,2544,1628370,1629659,1630559,1610612744,202691,201939,1629673,203490,202357,0022100854,2,763,763,0,2,1610612744
59,1610612747,1626169,2544,1628370,1629659,1630559,1610612744,202691,201939,1629673,203490,202357,0022100854,2,780,783,0,0,1610612747
60,1610612747,1626169,2544,1628370,1629659,1630559,1610612744,202691,201939,1629673,203490,202357,0022100854,2,793,802,0,0,1610612744
61,1610612747,1626169,2544,1628370,1629659,1630559,1610612744,202691,201939,1629673,203490,202357,0022100854,2,807,809,0,0,1610612747
62,1610612747,1626169,2544,1628370,1629659,1630559,1610612744,202691,201939,1629673,203490,202357,0022100854,2,819,824,0,3,1610612744
63,1610612747,1626169,2544,1628370,1629659,1630559,1610612744,202691,201939,1629673,203490,202357,0022100854,2,824,830,0,0,1610612747
64,1610612747,1628370,1629659,1630559,2544,2772,1610612744,202691,201939,1629673,203490,202357,0022100854,2,844,857,0,0,1610612744
65,1610612747,1628370,1629659,1630559,2544,2772,1610612744,202691,201939,1629673,203490,202357,0022100854,2,864,864,0,0,1610612747
66,1610612747,1628370,1629659,1630559,2544,2772,1610612744,202691,201939,1629673,203490,202357,0022100854,2,870,870,0,2,1610612744
67,1610612747,1628370,1629659,1630559,2544,2772,1610612744,202691,201939,1629673,203490,202357,0022100854,2,881,891,2,0,1610612747
68,1610612747,1628370,1629659,1630559,2544,2772,1610612744,1629673,1630228,201939,202357,202691,0022100854,2,910,912,0,0,1610612744
69,1610612747,1629659,1630559,201566,2544,2772,1610612744,1627814,1630228,201939,202357,202691,0022100854,2,921,921,2,0,1610612747
70,1610612747,1629659,1630559,201566,2544,2772,1610612744,1627814,1630228,201939,202357,202691,0022100854,2,941,941,0,3,1610612744
71,1610612747,1629659,1630559,201566,2544,2772,1610612744,1627814,1630228,201939,202357,202691,0022100854,2,952,952,2,0,1610612747
72,1610612747,1629659,1630559,201566,2544,2772,1610612744,1627814,1630228,201939,202357,202691,0022100854,2,952,969,0,2,1610612744
73,1610612747,1629659,1630559,201566,2544,2772,1610612744,1627814,1630228,201939,202357,202691,0022100854,2,987,987,3,0,1610612747
74,1610612747,1629659,1630559,201566,2544,2772,1610612744,1627814,1630228,201939,202357,202691,0022100854,2,1000,1000,0,2,1610612744
75,1610612747,1629659,1630559,201566,2544,2772,1610612744,1627814,1630228,201939,202357,202691,0022100854,2,1016,1016,3,0,1610612747
76,1610612747,1629659,1630559,201566,2544,2772,1610612744,1627814,1630228,201939,202357,202691,0022100854,2,1017,1035,0,0,1610612744
77,1610612747,1629659,1630559,201566,203076,2544,1610612744,1626172,1627814,1629673,1630228,202691,0022100854,2,1046,1046,3,0,1610612747
78,1610612747,1629659,1630559,201566,203076,2544,1610612744,1626172,1627814,1629673,1630228,202691,0022100854,2,1071,1071,0,2,1610612744
79,1610612747,1629659,1630559,201566,203076,2544,1610612744,1626172,1627814,1629673,1630228,202691,0022100854,2,1097,1097,0,0,1610612747
80,1610612747,1626169,1629659,1630559,201566,203076,1610612744,1626172,1627814,1629673,1630228,203952,0022100854,2,1112,1112,0,0,1610612744
81,1610612747,1626169,1629659,1630559,201566,203076,1610612744,1626172,1627814,1629673,1630228,203952,0022100854,2,1133,1133,2,0,1610612747
82,1610612747,1626169,1629659,1630559,201566,203076,1610612744,1626172,1627814,1629673,1630228,203952,0022100854,2,1134,1155,0,1,1610612744
83,1610612747,1626169,1629659,1630559,201566,203076,1610612744,1626172,1627814,1629673,1630228,203952,0022100854,2,1165,1165,3,0,1610612747
84,1610612747,1626169,1629659,1630559,201566,203076,1610612744,1626172,1627814,1629673,1630228,203952,0022100854,2,1183,1183,0,3,1610612744
85,1610612747,1626169,1629659,1630559,201566,203076,1610612744,1626172,1627814,1629673,1630228,203952,0022100854,2,1198,1200,2,0,1610612747
86,1610612747,1626169,1629659,1630559,201566,203076,1610612744,1627814,1629673,1630228,203490,203952,0022100854,2,1214,1214,0,1,1610612744
87,1610612747,1626169,1629659,1630559,201566,2544,1610612744,1627814,1630228,201939,203490,203952,0022100854,2,1227,1227,2,0,1610612747
88,1610612747,1626169,1629659,1630559,201566,2544,1610612744,1627814,1630228,201939,203490,203952,0022100854,2,1237,1240,0,0,1610612744
89,1610612747,1626169,1629659,1630559,201566,2544,1610612744,1627814,1630228,201939,203490,203952,0022100854,2,1246,1248,0,0,1610612747
90,1610612747,1626169,1629659,1630559,201566,2544,1610612744,1627814,1630228,201939,203490,203952,0022100854,2,1263,1263,0,0,1610612744
91,1610612747,1626169,1629659,1630559,201566,2544,1610612744,1627814,1630228,201939,203490,203952,0022100854,2,1266,1268,0,0,1610612747
92,1610612747,1626169,1629659,1630559,201566,2544,1610612744,1627814,1630228,201939,203490,203952,0022100854,2,1275,1275,0,2,1610612744
93,1610612747,1626169,1629659,1630559,201566,2544,1610612744,1627814,1630228,201939,203490,203952,0022100854,2,1285,1302,2,0,1610612747
94,1610612747,1626169,1629659,201566,202340,2544,1610612744,1627814,1630228,201939,203490,203952,0022100854,2,1317,1319,0,0,1610612744
95,1610612747,1626169,1629659,201566,202340,2544,1610612744,1627814,1630228,201939,203490,203952,0022100854,2,1325,1325,2,0,1610612747
96,1610612747,1626169,1629659,201566,202340,2544,1610612744,1627814,1630228,201939,203490,203952,0022100854,2,1335,1335,0,2,1610612744
97,1610612747,1626169,1629659,201566,202340,2544,1610612744,1627814,1630228,201939,203490,203952,0022100854,2,1356,1356,3,0,1610612747
98,1610612747,1626169,1629659,201566,202340,2544,1610612744,1627814,1630228,201939,203490,203952,0022100854,2,1377,1377,0,2,1610612744
99,1610612747,1626169,1629659,201566,202340,2544,1610612744,1627814,1630228,201939,203490,203952,0022100854,2,1388,1391,0,0,1610612747
100,1610612747,1626169,1629659,201566,202340,2544,1610612744,1627814,1630228,201939,203490,203952,0022100854,2,1401,1401,0,2,1610612744
101,1610612747,1626169,1629659,201566,202340,2544,1610612744,1627814,1630228,201939,203490,203952,0022100854,2,1415,1415,2,0,1610612747
102,1610612747,1626169,1629659,201566,202340,2544,1610612744,1627814,1630228,201939,203490,203952,0022100854,2,1430,1432,0,2,1610612744
103,1610612747,1626169,1629659,201566,202340,2544,1610612744,1627814,1630228,201939,203490,203952,0022100854,2,1437,1437,3,0,1610612747
104,1610612747,1626169,1629659,201566,202340,2544,1610612744,1627814,1630228,201939,203490,203952,0022100854,2,1440,1440,0,0,1610612747
105,1610612747,1626169,2544,203076,202340,201566,1610612744,203952,1630228,1626172,202691,201939,0022100854,3,1440,1460,0,0,1610612744
106,1610612747,1626169,2544,203076,202340,201566,1610612744,203952,1630228,1626172,202691,201939,0022100854,3,1468,1468,2,0,1610612747
107,1610612747,1626169,2544,203076,202340,201566,1610612744,203952,1630228,1626172,202691,201939,0022100854,3,1489,1489,0,2,1610612744
108,1610612747,1626169,2544,203076,202340,201566,1610612744,203952,1630228,1626172,202691,201939,0022100854,3,1511,1514,0,0,1610612747
109,1610612747,1626169,2544,203076,202340,201566,1610612744,203952,1630228,1626172,202691,201939,0022100854,3,1520,1520,0,2,1610612744
110,1610612747,1626169,2544,203076,202340,201566,1610612744,203952,1630228,1626172,202691,201939,0022100854,3,1532,1532,2,0,1610612747
111,1610612747,1626169,2544,203076,202340,201566,1610612744,203952,1630228,1626172,202691,201939,0022100854,3,1549,1549,0,0,1610612744
112,1610612747,1626169,2544,203076,202340,201566,1610612744,203952,1630228,1626172,202691,201939,0022100854,3,1562,1565,0,0,1610612747
113,1610612747,1626169,2544,203076,202340,201566,1610612744,203952,1630228,1626172,202691,201939,0022100854,3,1570,1572,0,0,1610612744
114,1610612747,1626169,2544,203076,202340,201566,1610612744,203952,1630228,1626172,202691,201939,0022100854,3,1579,1581,0,0,1610612747
115,1610612747,1626169,2544,203076,202340,201566,1610612744,203952,1630228,1626172,202691,201939,0022100854,3,1593,1601,0,2,1610612744
116,1610612747,1626169,2544,203076,202340,201566,1610612744,203952,1630228,1626172,202691,201939,0022100854,3,1621,1623,0,0,1610612747
117,1610612747,1626169,2544,203076,202340,201566,1610612744,203952,1630228,1626172,202691,201939,0022100854,3,1632,1635,0,0,1610612744
118,1610612747,1626169,2544,203076,202340,201566,1610612744,203952,1630228,1626172,202691,201939,0022100854,3,1641,1641,3,0,1610612747
119,1610612747,1626169,2544,203076,202340,201566,1610612744,203952,1630228,1626172,202691,201939,0022100854,3,1657,1657,0,2,1610612744
120,1610612747,1626169,2544,203076,202340,201566,1610612744,203952,1630228,1626172,202691,201939,0022100854,3,1670,1670,2,0,1610612747
121,1610612747,1626169,2544,203076,202340,201566,1610612744,203952,1630228,1626172,202691,201939,0022100854,3,1685,1688,0,0,1610612744
122,1610612747,1626169,2544,203076,202340,201566,1610612744,203952,1630228,1626172,202691,201939,0022100854,3,1698,1706,0,0,1610612747
123,1610612747,1626169,2544,203076,202340,201566,1610612744,203952,1630228,1626172,202691,201939,0022100854,3,1713,1713,0,2,1610612744
124,1610612747,1626169,2544,203076,202340,201566,1610612744,203952,1630228,1626172,202691,201939,0022100854,3,1732,1732,3,0,1610612747
125,1610612747,1626169,2544,203076,202340,201566,1610612744,203952,1630228,1626172,202691,201939,0022100854,3,1753,1756,0,0,1610612744
126,1610612747,1626169,2544,203076,202340,201566,1610612744,203952,1630228,1626172,202691,201939,0022100854,3,1760,1763,0,0,1610612747
127,1610612747,1626169,2544,203076,202340,201566,1610612744,203952,1630228,1626172,202691,201939,0022100854,3,1768,1771,0,2,1610612744
128,1610612747,1626169,2544,203076,202340,201566,1610612744,203952,1630228,1626172,202691,201939,0022100854,3,1771,1793,0,0,1610612747
129,1610612747,1629659,201566,202340,203076,2544,1610612744,1626172,1629673,1630228,201939,203952,0022100854,3,1809,1812,0,2,1610612744
130,1610612747,1628370,1629659,201566,202340,203076,1610612744,1626172,1629673,1630228,201939,203952,0022100854,3,1825,1832,0,0,1610612747
131,1610612747,1628370,1629659,201566,202340,203076,1610612744,1626172,1627780,1629673,201939,203952,0022100854,3,1840,1840,0,3,1610612744
132,1610612747,1628370,1629659,201566,202340,203076,1610612744,1626172,1627780,1629673,201939,203952,0022100854,3,1855,1855,2,0,1610612747
133,1610612747,1628370,1629659,201566,202340,203076,1610612744,1626172,1627780,1629673,201939,203952,0022100854,3,1855,1864,0,3,1610612744
134,1610612747,1628370,1629659,201566,202340,203076,1610612744,1626172,1627780,1629673,201939,203952,0022100854,3,1873,1873,0,0,1610612747
135,1610612747,1628370,1629659,201566,202340,203076,1610612744,1626172,1627780,1629673,201939,203952,0022100854,3,1889,1889,0,0,1610612744
136,1610612747,1628370,1629659,201566,202340,203076,1610612744,1626172,1627780,1629673,201939,203952,0022100854,3,1900,1900,2,0,1610612747
137,1610612747,1628370,1629659,201566,202340,203076,1610612744,1626172,1627780,1629673,201939,203952,0022100854,3,1913,1915,0,0,1610612744
138,1610612747,1628370,1629659,201566,202340,203076,1610612744,1626172,1627780,1629673,201939,203952,0022100854,3,1921,1921,2,0,1610612747
139,1610612747,1628370,1629659,201566,202340,203076,1610612744,1626172,1627780,1629673,201939,203952,0022100854,3,1922,1947,0,2,1610612744
140,1610612747,1628370,1629659,201566,202340,203076,1610612744,1626172,1627780,1629673,203490,203952,0022100854,3,1962,1962,2,0,1610612747
141,1610612747,1628370,1629659,201566,202340,203076,1610612744,1626172,1627780,1629673,203490,203952,0022100854,3,1975,1978,0,0,1610612744
142,1610612747,1628370,1629659,201566,202340,203076,1610612744,1626172,1627780,1629673,203490,203952,0022100854,3,1983,1983,3,0,1610612747
143,1610612747,1628370,1629659,201566,202340,203076,1610612744,1626172,1627780,1629673,203490,203952,0022100854,3,1995,1998,0,0,1610612744
144,1610612747,1628370,1629659,201566,202340,203076,1610612744,1626172,1627780,1629673,203490,203952,0022100854,3,2001,2004,0,0,1610612747
145,1610612747,1628370,1629659,201566,202340,203076,1610612744,1626172,1627780,1629673,203490,203952,0022100854,3,2011,2014,0,0,1610612744
146,1610612747,1628370,1629659,201566,202340,203076,1610612744,1626172,1627780,1629673,203490,203952,0022100854,3,2017,2023,3,0,1610612747
147,1610612747,1628370,1629659,201566,202340,203076,1610612744,1626172,1627780,1629673,203490,203952,0022100854,3,2043,2043,0,1,1610612744
148,1610612747,1628370,1629659,1630559,203076,2544,1610612744,1627780,1629673,202357,203490,203952,0022100854,3,2067,2069,0,0,1610612747
149,1610612747,1628370,1629659,1630559,203076,2544,1610612744,1627780,1629673,202357,203490,203952,0022100854,3,2082,2082,0,3,1610612744
150,1610612747,1628370,1629659,1630559,203076,2544,1610612744,1627780,1629673,202357,203490,203952,0022100854,3,2103,2105,0,0,1610612747
151,1610612747,1628370,1629659,1630559,203076,2544,1610612744,1627780,1629673,202357,203490,203952,0022100854,3,2110,2110,0,2,1610612744
152,1610612747,1628370,1629659,1630559,203076,2544,1610612744,1627780,1629673,202357,202691,203490,0022100854,3,2118,2121,2,0,1610612747
153,1610612747,1628370,1629659,1630559,203076,2544,1610612744,1627780,1629673,202357,202691,203490,0022100854,3,2129,2129,0,1,1610612744
154,1610612747,1628370,1629659,1630559,203076,2544,1610612744,1627780,1629673,202357,202691,203490,0022100854,3,2132,2132,2,0,1610612747
155,1610612747,1629659,1630559,203076,2544,2772,1610612744,1627780,1629673,202357,202691,203490,0022100854,3,2147,2147,0,1,1610612744
156,1610612747,1628370,1629659,1630559,203076,2544,1610612744,1626172,1627780,1629308,202691,203490,0022100854,3,2158,2158,2,0,1610612747
157,1610612747,1628370,1629659,1630559,203076,2544,1610612744,1626172,1627780,1629308,202691,203490,0022100854,3,2159,2160,0,0,1610612747
158,1610612747,2544,2772,1628370,1629659,1630559,1610612744,202691,201939,203490,1627814,202357,0022100854,4,2160,2188,2,0,1610612747
159,1610612747,2544,2772,1628370,1629659,1630559,1610612744,202691,201939,203490,1627814,202357,0022100854,4,2202,2205,0,0,1610612744
160,1610612747,2544,2772,1628370,1629659,1630559,1610612744,202691,201939,203490,1627814,202357,0022100854,4,2220,2222,0,0,1610612747
161,1610612747,2544,2772,1628370,1629659,1630559,1610612744,202691,201939,203490,1627814,202357,0022100854,4,2234,2237,0,0,1610612744
162,1610612747,2544,2772,1628370,1629659,1630559,1610612744,202691,201939,203490,1627814,202357,0022100854,4,2253,2271,0,0,1610612747
163,1610612747,2544,2772,1628370,1629659,1630559,1610612744,202691,201939,203490,1627814,202357,0022100854,4,2289,2291,0,0,1610612744
164,1610612747,2544,2772,1628370,1629659,1630559,1610612744,202691,201939,203490,1627814,202357,0022100854,4,2297,2297,3,0,1610612747
165,1610612747,2544,2772,1628370,1629659,1630559,1610612744,1627814,1630228,201939,202357,202691,0022100854,4,2312,2315,0,0,1610612744
166,1610612747,2544,2772,1628370,1629659,1630559,1610612744,1627814,1630228,201939,202357,202691,0022100854,4,2321,2321,0,0,1610612747
167,1610612747,2544,2772,1628370,1629659,1630559,1610612744,1627814,1630228,201939,202357,202691,0022100854,4,2330,2333,0,0,1610612744
168,1610612747,2544,2772,1628370,1629659,1630559,1610612744,1627814,1630228,201939,202357,202691,0022100854,4,2346,2353,2,0,1610612747
169,1610612747,2544,2772,1628370,1629659,1630559,1610612744,1627814,1630228,201939,202357,202691,0022100854,4,2373,2375,0,0,1610612744
170,1610612747,2544,2772,1628370,1629659,1630559,1610612744,1627814,1630228,201939,202357,202691,0022100854,4,2377,2392,0,0,1610612747
171,1610612747,2544,2772,1628370,1629659,1630559,1610612744,1627814,1630228,201939,202357,202691,0022100854,4,2394,2394,0,3,1610612744
172,1610612747,1628370,1629659,1630559,201566,203076,1610612744,1627814,1630228,201939,202357,202691,0022100854,4,2410,2432,0,0,1610612747
173,1610612747,1628370,1629659,1630559,201566,203076,1610612744,1626172,1629673,1630228,201939,203952,0022100854,4,2451,2454,0,0,1610612744
174,1610612747,1628370,1629659,1630559,201566,203076,1610612744,1626172,1629673,1630228,201939,203952,0022100854,4,2468,2468,2,0,1610612747
175,1610612747,1628370,1629659,1630559,201566,203076,1610612744,1626172,1629673,1630228,201939,203952,0022100854,4,2468,2480,0,0,1610612744
176,1610612747,1629659,1630559,201566,203076,2544,1610612744,1626172,1627814,1629673,203490,203952,0022100854,4,2490,2491,0,0,1610612747
177,1610612747,1629659,1630559,201566,203076,2544,1610612744,1626172,1627814,1629673,203490,203952,0022100854,4,2494,2498,0,3,1610612744
178,1610612747,1629659,1630559,201566,203076,2544,1610612744,1626172,1629673,202691,203490,203952,0022100854,4,2513,2516,0,0,1610612747
179,1610612747,1629659,1630559,201566,203076,2544,1610612744,1626172,1629673,202691,203490,203952,0022100854,4,2524,2529,0,2,1610612744
180,1610612747,1629659,1630559,201566,203076,2544,1610612744,1626172,1629673,202691,203490,203952,0022100854,4,2531,2546,2,0,1610612747
181,1610612747,1629659,1630559,201566,203076,2544,1610612744,1626172,1629673,202691,203490,203952,0022100854,4,2566,2569,0,0,1610612744
182,1610612747,1629659,1630559,201566,203076,2544,1610612744,1626172,1629673,202691,203490,203952,0022100854,4,2582,2585,0,0,1610612747
183,1610612747,1629659,1630559,201566,203076,2544,1610612744,1626172,1629673,202691,203490,203952,0022100854,4,2599,2600,0,0,1610612744
184,1610612747,1629659,1630559,201566,203076,2544,1610612744,1626172,1629673,202691,203490,203952,0022100854,4,2600,2616,2,0,1610612747
185,1610612747,1630559,201566,202340,203076,2544,1610612744,1629673,201939,202691,203490,203952,0022100854,4,2631,2633,0,0,1610612744
186,1610612747,1630559,201566,202340,203076,2544,1610612744,1629673,201939,202691,203490,203952,0022100854,4,2653,2653,2,0,1610612747
187,1610612747,1630559,201566,202340,203076,2544,1610612744,1629673,201939,202691,203490,203952,0022100854,4,2669,2669,0,3,1610612744
188,1610612747,1630559,201566,202340,203076,2544,1610612744,1629673,201939,202691,203490,203952,0022100854,4,2686,2686,0,0,1610612747
189,1610612747,1630559,201566,202340,203076,2544,1610612744,1629673,201939,202691,203490,203952,0022100854,4,2691,2699,0,3,1610612744
190,1610612747,1630559,201566,202340,203076,2544,1610612744,1629673,201939,202691,203490,203952,0022100854,4,2719,2719,2,0,1610612747
191,1610612747,1630559,201566,202340,203076,2544,1610612744,1629673,201939,202691,203490,203952,0022100854,4,2739,2739,0,3,1610612744
192,1610612747,1630559,201566,202340,203076,2544,1610612744,1629673,201939,202691,203490,203952,0022100854,4,2766,2766,2,0,1610612747
193,1610612747,1630559,201566,202340,203076,2544,1610612744,1629673,201939,202691,203490,203952,0022100854,4,2780,2785,0,3,1610612744
194,1610612747,1630559,201566,202340,203076,2544,1610612744,1629673,201939,202691,203490,203952,0022100854,4,2806,2815,1,0,1610612747
195,1610612747,1630559,201566,202340,203076,2544,1610612744,1629673,201939,202691,203490,203952,0022100854,4,2815,2834,0,2,1610612744
196,1610612747,1630559,201566,202340,203076,2544,1610612744,1629673,201939,202691,203490,203952,0022100854,4,2834,2853,0,0,1610612747
197,1610612747,1628370,1630559,201566,203076,2544,1610612744,1626172,201939,202691,203490,203952,0022100854,4,2871,2873,0,0,1610612744
198,1610612747,1628370,1630559,201566,203076,2544,1610612744,1626172,201939,202691,203490,203952,0022100854,4,2873,2880,1,0,1610612744
