,TEAM_ID_1,TEAM_1_PLAYERS,TEAM_ID_2,TEAM_2_PLAYERS,PERIOD
0,1610612747,[1626169    2544  203076  202340  201566],1610612744,[ 203952 1630228 1626172  202691  201939],1
1,1610612747,[1626169    2544 1628370 1629659 1630559],1610612744,[ 202691  201939 1629673  203490  202357],2
2,1610612747,[1626169    2544  203076  202340  201566],1610612744,[ 203952 1630228 1626172  202691  201939],3
3,1610612747,[   2544    2772 1628370 1629659 1630559],1610612744,[ 202691  201939  203490 1627814  202357],4
