,TEAM_ID_1,TEAM_1_PLAYERS,TEAM_ID_2,TEAM_2_PLAYERS,PERIOD
0,1610612742,[1627827 1628467  203939 1628973 1629029],1610612752,[1629628  203944 1629011  202692  203095],1
1,1610612742,[1629029  203501  203493 1629650 1630182],1610612752,[1629628  203457 1630193 1629656 1630167],2
2,1610612742,[1627827 1628467  203939 1628973 1629029],1610612752,[1629628  203944 1629011  202692  203095],3
3,1610612742,[ 203939 1629029  203501  203493 1630182],1610612752,[1629628  203457 1630193 1629656 1630167],4
