,stint_end,t1_players,t2_pm,t2_points_scored,stint_start,t1_pm,t1_points_scored,t2_id,t1_id,t2_players,margin_per_100,num_poss
0,312,"[202695, 202694, 201587, 202331, 202704]",1,10,0,-1,9,1610612762,1610612746,"[202711, 1626220, 203497, 204060, 1628378]",-5.0,20.0
1,331,"[202695, 202694, 201587, 202331, 202704]",1,10,313,-1,9,1610612762,1610612746,"[202711, 1626220, 203497, 204060, 1628378]",-4.761904761904762,21.0
2,349,"[202695, 202694, 201587, 202331, 202704]",-1,10,332,1,11,1610612762,1610612746,"[1626220, 1628378, 202324, 202711, 203903]",4.545454545454546,22.0
3,394,"[1627826, 202331, 202694, 202695, 202704]",-1,10,350,1,11,1610612762,1610612746,"[1626220, 1628378, 202324, 202711, 203903]",4.166666666666666,24.0
4,430,"[1627826, 201976, 202331, 202694, 202695]",-2,12,395,2,14,1610612762,1610612746,"[1626220, 1628378, 202324, 202711, 203903]",7.6923076923076925,26.0
5,467,"[1627826, 1628379, 201976, 202694, 202695]",-2,12,431,2,14,1610612762,1610612746,"[1626220, 1628378, 202324, 202711, 203903]",6.896551724137931,29.0
6,569,"[1627826, 1628379, 201976, 202331, 202694]",-7,12,468,7,19,1610612762,1610612746,"[1626220, 1628378, 202324, 202711, 203903]",20.0,35.0
7,587,"[1627826, 1628379, 201976, 202331, 202694]",-9,12,570,9,21,1610612762,1610612746,"[1626220, 1627777, 1628378, 202324, 203903]",24.324324324324326,37.0
8,718,"[1627826, 1628379, 201976, 202331, 202694]",-10,15,588,10,25,1610612762,1610612746,"[1627777, 1629671, 203497, 203903, 204060]",21.73913043478261,46.0
9,839,"[1627826, 1628379, 1629611, 201976, 202331]",-7,23,719,7,30,1610612762,1610612746,"[1627777, 1629671, 203497, 203903, 204060]",13.20754716981132,53.0
10,856,"[202331, 1627826, 1628379, 1629611, 200765]",-7,23,840,7,30,1610612762,1610612746,"[203497, 204060, 203903, 1627777, 1629671]",12.727272727272727,55.0
11,1028,"[1628379, 1629611, 200765, 202326, 202695]",-10,30,857,10,40,1610612762,1610612746,"[203497, 204060, 203903, 1627777, 1629671]",15.151515151515152,66.0
12,1078,"[1628379, 1629611, 200765, 202326, 202695]",-13,30,1029,13,43,1610612762,1610612746,"[1627777, 202711, 203497, 203903, 204060]",18.84057971014493,69.0
13,1180,"[200765, 201587, 202326, 202695, 202704]",-14,37,1079,14,51,1610612762,1610612746,"[1626220, 1628378, 202324, 202711, 203903]",18.421052631578945,76.0
14,1223,"[200765, 201587, 202694, 202695, 202704]",-12,39,1181,12,51,1610612762,1610612746,"[1626220, 1628378, 202324, 202711, 203903]",15.0,80.0
15,1348,"[200765, 201587, 202694, 202695, 202704]",-13,44,1224,13,57,1610612762,1610612746,"[1626220, 1628378, 202711, 203497, 204060]",14.606741573033707,89.0
16,1397,"[201587, 202331, 202694, 202695, 202704]",-11,46,1349,11,57,1610612762,1610612746,"[1626220, 1628378, 202711, 203497, 204060]",11.956521739130435,92.0
17,1425,"[1628379, 200765, 201587, 202694, 202695]",-10,47,1398,10,57,1610612762,1610612746,"[1626220, 1628378, 202711, 203497, 204060]",10.638297872340425,94.0
18,1438,"[1628379, 1629611, 200765, 201587, 202694]",-10,47,1426,10,57,1610612762,1610612746,"[1626220, 1628378, 202711, 203497, 204060]",10.526315789473683,95.0
19,1620,"[1628379, 1629611, 200765, 201587, 202694]",-5,57,1439,5,62,1610612762,1610612746,"[1626220, 1628378, 1629671, 202711, 203497]",4.761904761904762,105.0
20,1757,"[202695, 202694, 201587, 202331, 202704]",-5,61,1621,5,66,1610612762,1610612746,"[202711, 1626220, 203497, 204060, 1628378]",4.424778761061947,113.0
21,1845,"[1627826, 200765, 202331, 202694, 202695]",-5,66,1758,5,71,1610612762,1610612746,"[202711, 1626220, 203497, 204060, 1628378]",4.201680672268908,119.0
22,1943,"[1627826, 200765, 202331, 202694, 202695]",-1,70,1846,1,71,1610612762,1610612746,"[1626220, 1628378, 202324, 202711, 203903]",0.8064516129032258,124.0
23,1996,"[1627826, 1628379, 200765, 202694, 202695]",1,72,1944,-1,71,1610612762,1610612746,"[1626220, 1628378, 202324, 202711, 203903]",-0.78125,128.0
24,2059,"[1627826, 1628379, 200765, 201587, 202695]",2,75,1997,-2,73,1610612762,1610612746,"[1626220, 1628378, 202324, 202711, 203903]",-1.5384615384615385,130.0
25,2159,"[1627826, 1628379, 200765, 201587, 202331]",0,79,2060,0,79,1610612762,1610612746,"[1627777, 1629671, 202324, 203903, 204060]",0.0,137.0
26,2201,"[1627826, 1628379, 200765, 201587, 202331]",0,79,2160,0,79,1610612762,1610612746,"[1627777, 1629671, 203497, 203903, 204060]",0.0,139.0
27,2227,"[201587, 202331, 1627826, 1628379, 200765]",-2,79,2202,2,81,1610612762,1610612746,"[203497, 204060, 1628378, 203903, 1627777]",1.4285714285714286,140.0
28,2268,"[201587, 202331, 1627826, 1628379, 200765]",1,85,2228,-1,84,1610612762,1610612746,"[1628378, 202711, 203497, 203903, 204060]",-0.6993006993006993,143.0
29,2340,"[201587, 202331, 1627826, 1628379, 200765]",6,91,2269,-6,85,1610612762,1610612746,"[1628378, 202324, 202711, 203903, 204060]",-4.026845637583892,149.0
30,2394,"[1627826, 1628379, 200765, 202331, 202695]",5,93,2341,-5,88,1610612762,1610612746,"[1626220, 1628378, 202324, 202711, 203903]",-3.2679738562091507,153.0
31,2440,"[1628379, 202331, 202694, 202695, 202704]",4,95,2395,-4,91,1610612762,1610612746,"[1626220, 1628378, 202324, 202711, 203903]",-2.5316455696202533,158.0
32,2493,"[1628379, 202331, 202694, 202695, 202704]",5,98,2441,-5,93,1610612762,1610612746,"[1626220, 202711, 203497, 203903, 204060]",-3.0864197530864197,162.0
33,2558,"[1628379, 202331, 202694, 202695, 202704]",10,103,2494,-10,93,1610612762,1610612746,"[1626220, 1628378, 202711, 203497, 203903]",-6.0606060606060606,165.0
34,2878,"[1628379, 200765, 202331, 202694, 202695]",3,112,2559,-3,109,1610612762,1610612746,"[1626220, 1628378, 202711, 203497, 203903]",-1.639344262295082,183.0
35,9999999,"[1628379, 200765, 202331, 202694, 202695]",3,112,2879,-3,109,1610612762,1610612746,"[1626220, 1628378, 202711, 203497, 204060]",-1.6304347826086956,184.0
