,TEAM_ID_1,TEAM_1_PLAYERS,TEAM_ID_2,TEAM_2_PLAYERS,PERIOD
0,1610612744,[1629308  203952  203110 1626162  201939],1610612753,[203516 203920 202696 203095 203487],1
1,1610612744,[ 203952 1629672 1627814  203145  202954],1610612753,[ 203487  203082 1628407 1628964 1629643],2
2,1610612744,[ 203952  203110 1626162  201939 1628539],1610612753,[203516 203920 202696 203095 203487],3
3,1610612744,[ 203952 1629672 1627814  203145  202954],1610612753,[ 203487  203082 1628407 1628964 1629643],4
