,team1_id,team1_player1,team1_player2,team1_player3,team1_player4,team1_player5,team2_id,team2_player1,team2_player2,team2_player3,team2_player4,team2_player5,game_id,period,possession_start,possession_end,team1_points,team2_points,possession_team
0,1610612737,1629629,1628381,1630168,1630219,1626153,1610612755,1629680,202699,203954,1627788,203552,0022100478,1,0,15,0,0,1610612755
1,1610612737,1629629,1628381,1630168,1630219,1626153,1610612755,1629680,202699,203954,1627788,203552,0022100478,1,32,40,0,0,1610612737
2,1610612737,1629629,1628381,1630168,1630219,1626153,1610612755,1629680,202699,203954,1627788,203552,0022100478,1,44,48,0,0,1610612755
3,1610612737,1629629,1628381,1630168,1630219,1626153,1610612755,1629680,202699,203954,1627788,203552,0022100478,1,56,56,2,0,1610612737
4,1610612737,1629629,1628381,1630168,1630219,1626153,1610612755,1629680,202699,203954,1627788,203552,0022100478,1,70,72,0,0,1610612755
5,1610612737,1629629,1628381,1630168,1630219,1626153,1610612755,1629680,202699,203954,1627788,203552,0022100478,1,93,93,2,0,1610612737
6,1610612737,1629629,1628381,1630168,1630219,1626153,1610612755,1629680,202699,203954,1627788,203552,0022100478,1,114,116,0,0,1610612755
7,1610612737,1629629,1628381,1630168,1630219,1626153,1610612755,1629680,202699,203954,1627788,203552,0022100478,1,131,131,3,0,1610612737
8,1610612737,1629629,1628381,1630168,1630219,1626153,1610612755,1629680,202699,203954,1627788,203552,0022100478,1,148,148,0,2,1610612755
9,1610612737,1629629,1628381,1630168,1630219,1626153,1610612755,1629680,202699,203954,1627788,203552,0022100478,1,164,164,2,0,1610612737
10,1610612737,1629629,1628381,1630168,1630219,1626153,1610612755,1629680,202699,203954,1627788,203552,0022100478,1,182,185,0,0,1610612755
11,1610612737,1629629,1628381,1630168,1630219,1626153,1610612755,1629680,202699,203954,1627788,203552,0022100478,1,199,204,0,0,1610612737
12,1610612737,1629629,1628381,1630168,1630219,1626153,1610612755,1629680,202699,203954,1627788,203552,0022100478,1,210,210,0,3,1610612755
13,1610612737,1629629,1628381,1630168,1630219,1626153,1610612755,1629680,202699,203954,1627788,203552,0022100478,1,222,222,2,0,1610612737
14,1610612737,1629629,1628381,1630168,1630219,1626153,1610612755,1629680,202699,203954,1627788,203552,0022100478,1,236,236,0,0,1610612755
15,1610612737,1629629,1628381,1630168,1630219,1626153,1610612755,1629680,202699,203954,1627788,203552,0022100478,1,259,259,2,0,1610612737
16,1610612737,1629629,1628381,1630168,1630219,1626153,1610612755,1629680,202699,203954,1627788,203552,0022100478,1,278,278,0,2,1610612755
17,1610612737,1629629,1628381,1630168,1630219,1626153,1610612755,1629680,202699,203954,1627788,203552,0022100478,1,297,297,2,0,1610612737
18,1610612737,1629629,1628381,1630168,1630219,1626153,1610612755,1629680,202699,203954,1627788,203552,0022100478,1,308,310,0,0,1610612755
19,1610612737,1629629,1628381,1630168,1630219,1626153,1610612755,1629680,202699,203954,1627788,203552,0022100478,1,329,336,2,0,1610612737
20,1610612737,1629629,1628381,1630168,1630219,1626153,1610612755,1629680,1630178,202699,203552,203954,0022100478,1,362,365,0,0,1610612755
21,1610612737,1629629,1628381,1630168,1630219,1626153,1610612755,1629680,1630178,202699,203552,203954,0022100478,1,371,381,2,0,1610612737
22,1610612737,1629629,1628381,1630168,1630219,1626153,1610612755,1629680,1630178,202699,203552,203954,0022100478,1,396,399,0,0,1610612755
23,1610612737,1629629,1628381,1630168,1630219,1626153,1610612755,1629680,1630178,202699,203552,203954,0022100478,1,415,415,2,0,1610612737
24,1610612737,1629629,1628381,1630168,1630219,1626153,1610612755,1629680,1630178,202699,203552,203954,0022100478,1,425,429,0,0,1610612755
25,1610612737,1629629,1628381,1630168,1630219,1626153,1610612755,1629680,1630178,202699,203552,203954,0022100478,1,441,460,0,0,1610612737
26,1610612737,1629629,1628381,1630168,1630219,1626153,1610612755,1629680,1630178,202699,203552,203954,0022100478,1,470,470,0,0,1610612755
27,1610612737,1629629,1628381,1630168,1630219,1626153,1610612755,1629680,1630178,202699,203552,203954,0022100478,1,484,485,0,0,1610612737
28,1610612737,1626153,1628381,1629629,1630168,203992,1610612755,1629680,1630178,202699,203552,203954,0022100478,1,503,503,0,2,1610612755
29,1610612737,1626153,1628381,1629629,1630168,203992,1610612755,1629680,1630178,202699,203552,203954,0022100478,1,516,518,0,0,1610612737
30,1610612737,1626153,1628381,1629629,1630168,203992,1610612755,1629680,1630178,202699,203552,203954,0022100478,1,525,525,0,2,1610612755
31,1610612737,1626153,1628381,1629629,203476,203992,1610612755,1630178,1630198,202699,203552,203954,0022100478,1,534,542,3,0,1610612737
32,1610612737,1626153,1628381,1629629,203476,203992,1610612755,1630178,1630198,202699,203552,203954,0022100478,1,566,566,0,2,1610612755
33,1610612737,1626153,1628381,1629629,203476,203992,1610612755,1630178,1630198,202699,203552,203954,0022100478,1,585,595,2,0,1610612737
34,1610612737,1626153,1628381,1629629,203476,203992,1610612755,1630178,1630198,202699,203552,203954,0022100478,1,603,606,0,0,1610612755
35,1610612737,1626153,1628381,1629629,203476,203992,1610612755,1630178,1630198,202699,203552,203954,0022100478,1,614,614,2,0,1610612737
36,1610612737,1626153,1628381,1628411,203476,203992,1610612755,1629646,1630178,1630198,202699,203552,0022100478,1,629,632,0,0,1610612755
37,1610612737,1626153,1628381,1628411,203476,203992,1610612755,1629646,1630178,1630198,202699,203552,0022100478,1,652,652,2,0,1610612737
38,1610612737,1626153,1628381,1628411,203476,203992,1610612755,1629646,1630178,1630198,202699,203552,0022100478,1,681,683,0,0,1610612755
39,1610612737,1626153,1628381,1628411,203476,203992,1610612755,1629646,1630178,1630198,202699,203552,0022100478,1,683,683,2,0,1610612737
40,1610612737,1626153,1628381,1628411,203476,203992,1610612755,1629646,1630178,1630194,1630198,204020,0022100478,1,692,692,0,2,1610612755
41,1610612737,1626153,1628381,1628411,203476,203992,1610612755,1629646,1630178,1630194,1630198,204020,0022100478,1,712,714,0,0,1610612737
42,1610612737,1626153,1628381,1628411,203476,203992,1610612755,1629646,1630178,1630194,1630198,204020,0022100478,1,720,720,0,3,1610612755
43,1610612737,203992,203476,1628411,1630552,202362,1610612755,1630178,1630198,1629646,1630194,204020,0022100478,2,720,737,0,0,1610612737
44,1610612737,203992,203476,1628411,1630552,202362,1610612755,1630178,1630198,1629646,1630194,204020,0022100478,2,751,751,0,3,1610612755
45,1610612737,203992,203476,1628411,1630552,202362,1610612755,1630178,1630198,1629646,1630194,204020,0022100478,2,766,766,2,0,1610612737
46,1610612737,203992,203476,1628411,1630552,202362,1610612755,1630178,1630198,1629646,1630194,204020,0022100478,2,780,785,0,0,1610612755
47,1610612737,203992,203476,1628411,1630552,202362,1610612755,1630178,1630198,1629646,1630194,204020,0022100478,2,790,792,0,0,1610612737
48,1610612737,203992,203476,1628411,1630552,202362,1610612755,1630178,1630198,1629646,1630194,204020,0022100478,2,799,799,0,1,1610612755
49,1610612737,1628411,1629629,1630552,202362,203476,1610612755,1630178,1630198,1629646,1630194,204020,0022100478,2,823,823,0,0,1610612737
50,1610612737,1629629,1630219,1630552,202362,203476,1610612755,1630178,1630198,1629646,1630194,204020,0022100478,2,831,843,0,1,1610612755
51,1610612737,1629629,1630219,1630552,202362,203476,1610612755,1630178,1630198,1629646,1630194,204020,0022100478,2,854,857,0,0,1610612737
52,1610612737,1629629,1630219,1630552,202362,203476,1610612755,1630178,1630198,1629646,1630194,204020,0022100478,2,860,864,0,0,1610612755
53,1610612737,1629629,1630219,1630552,202362,203476,1610612755,1630178,1630198,1629646,1630194,204020,0022100478,2,868,868,2,0,1610612737
54,1610612737,1629629,1630219,1630552,202362,203476,1610612755,1630178,1630198,1629646,1630194,204020,0022100478,2,881,897,0,0,1610612755
55,1610612737,1629629,1630219,1630552,202362,203476,1610612755,1630178,1630198,1629646,1630194,204020,0022100478,2,902,906,0,0,1610612737
56,1610612737,1629629,1630219,1630552,202362,203476,1610612755,1630178,1630198,1629646,1630194,204020,0022100478,2,910,910,0,3,1610612755
57,1610612737,1629629,1630219,1630552,202362,203476,1610612755,1630178,1630198,1629646,1630194,204020,0022100478,2,919,921,0,0,1610612737
58,1610612737,1629629,1630219,1630552,202362,203476,1610612755,1630178,1630198,1629646,1630194,204020,0022100478,2,930,930,0,2,1610612755
59,1610612737,1629629,1630219,1630552,202362,203476,1610612755,1627788,1629646,1630178,1630194,204020,0022100478,2,953,954,0,0,1610612737
60,1610612737,1629629,1630219,1630552,202362,203476,1610612755,1627788,1629646,1630178,1630194,204020,0022100478,2,968,972,0,0,1610612755
61,1610612737,1629629,1630219,1630552,202362,203476,1610612755,1627788,1629646,1630178,1630194,204020,0022100478,2,977,977,2,0,1610612737
62,1610612737,1629629,1630219,1630552,202362,203476,1610612755,1627788,1629646,1630178,1630194,204020,0022100478,2,990,990,0,2,1610612755
63,1610612737,1629629,1630219,1630552,202362,203476,1610612755,1627788,1629646,1630178,1630194,204020,0022100478,2,995,1016,0,0,1610612737
64,1610612737,1628381,1629629,1630168,1630219,202362,1610612755,1627788,1630178,1630194,203552,203954,0022100478,2,1029,1032,0,1,1610612755
65,1610612737,1626153,1628381,1630168,1630219,203992,1610612755,1627788,1630178,1630194,203552,203954,0022100478,2,1049,1055,0,0,1610612737
66,1610612737,1626153,1628381,1630168,1630219,203992,1610612755,1627788,1630178,1630194,203552,203954,0022100478,2,1070,1070,0,2,1610612755
67,1610612737,1626153,1628381,1630168,1630219,203992,1610612755,1627788,1629680,202699,203552,203954,0022100478,2,1083,1083,0,0,1610612737
68,1610612737,1626153,1628381,1630168,1630219,203992,1610612755,1627788,1629680,202699,203552,203954,0022100478,2,1102,1104,0,0,1610612755
69,1610612737,1626153,1628381,1630168,1630219,203992,1610612755,1627788,1629680,202699,203552,203954,0022100478,2,1115,1120,2,0,1610612737
70,1610612737,1626153,1628381,1630168,1630219,203992,1610612755,1627788,1629680,202699,203552,203954,0022100478,2,1138,1138,0,2,1610612755
71,1610612737,1626153,1628381,1630168,1630219,203992,1610612755,1627788,1629680,202699,203552,203954,0022100478,2,1150,1155,0,0,1610612737
72,1610612737,1626153,1628381,1630168,1630219,203992,1610612755,1627788,1629680,202699,203552,203954,0022100478,2,1164,1164,0,2,1610612755
73,1610612737,1626153,1628381,1629629,1630168,203992,1610612755,1627788,1629680,202699,203552,203954,0022100478,2,1183,1183,2,0,1610612737
74,1610612737,1626153,1628381,1629629,1630168,203992,1610612755,1627788,1629680,202699,203552,203954,0022100478,2,1203,1203,0,2,1610612755
75,1610612737,1626153,1628381,1629629,1630168,203992,1610612755,1627788,1629680,202699,203552,203954,0022100478,2,1216,1216,2,0,1610612737
76,1610612737,1626153,1628381,1629629,1630168,203992,1610612755,1627788,1629680,202699,203552,203954,0022100478,2,1229,1229,0,2,1610612755
77,1610612737,1626153,1628381,1629629,1630168,203992,1610612755,1627788,1629680,202699,203552,203954,0022100478,2,1241,1241,0,0,1610612737
78,1610612737,1626153,1628381,1629629,1630168,203992,1610612755,1627788,1629680,202699,203552,203954,0022100478,2,1244,1244,0,2,1610612755
79,1610612737,1626153,1628411,1629629,1630168,203992,1610612755,1627788,1629680,202699,203552,203954,0022100478,2,1261,1266,2,0,1610612737
80,1610612737,1626153,1628411,1629629,1630168,203992,1610612755,1627788,1629680,202699,203552,203954,0022100478,2,1273,1273,0,2,1610612755
81,1610612737,1626153,1628411,1629629,1630168,203992,1610612755,1627788,1629680,202699,203552,203954,0022100478,2,1297,1297,2,0,1610612737
82,1610612737,1626153,1628411,1629629,1630168,203992,1610612755,1627788,1629680,202699,203552,203954,0022100478,2,1311,1311,0,2,1610612755
83,1610612737,1626153,1628411,1629629,1630168,203992,1610612755,1627788,1629680,202699,203552,203954,0022100478,2,1327,1329,0,0,1610612737
84,1610612737,1626153,1628411,1629629,1630168,203992,1610612755,1627788,1629680,202699,203552,203954,0022100478,2,1333,1333,0,0,1610612755
85,1610612737,1626153,1628411,1629629,1630168,203992,1610612755,1627788,1629680,202699,203552,203954,0022100478,2,1333,1357,3,0,1610612737
86,1610612737,1626153,1628411,1629629,1630168,203992,1610612755,1629680,1630178,202699,203552,203954,0022100478,2,1372,1375,0,0,1610612755
87,1610612737,1626153,1628411,1629629,1630168,203992,1610612755,1629680,1630178,202699,203552,203954,0022100478,2,1388,1388,0,0,1610612737
88,1610612737,1626153,1628411,1629629,1630168,203992,1610612755,1629680,1630178,202699,203552,203954,0022100478,2,1391,1391,0,2,1610612755
89,1610612737,1626153,1628411,1629629,1630168,203992,1610612755,1629680,1630178,202699,203552,203954,0022100478,2,1407,1407,0,0,1610612737
90,1610612737,1626153,1628411,1629629,1630168,203992,1610612755,1629680,1630178,202699,203552,203954,0022100478,2,1410,1410,0,2,1610612755
91,1610612737,1626153,1628411,1629629,1630168,203992,1610612755,1629680,1630178,202699,203552,203954,0022100478,2,1433,1433,0,0,1610612737
92,1610612737,1626153,1628411,1629629,1630168,203992,1610612755,1629680,1630178,202699,203552,203954,0022100478,2,1437,1437,0,0,1610612755
93,1610612737,1626153,1628411,1629629,1630168,203992,1610612755,1629680,1630178,202699,203552,203954,0022100478,2,1439,1440,0,0,1610612755
94,1610612737,1629629,1628381,1630168,1630219,1626153,1610612755,1629680,202699,203954,1627788,203552,0022100478,3,1440,1458,0,0,1610612737
95,1610612737,1629629,1628381,1630168,1630219,1626153,1610612755,1629680,202699,203954,1627788,203552,0022100478,3,1475,1478,0,0,1610612755
96,1610612737,1629629,1628381,1630168,1630219,1626153,1610612755,1629680,202699,203954,1627788,203552,0022100478,3,1492,1492,3,0,1610612737
97,1610612737,1629629,1628381,1630168,1630219,1626153,1610612755,1629680,202699,203954,1627788,203552,0022100478,3,1510,1510,0,2,1610612755
98,1610612737,1629629,1628381,1630168,1630219,1626153,1610612755,1629680,202699,203954,1627788,203552,0022100478,3,1534,1535,0,0,1610612737
99,1610612737,1629629,1628381,1630168,1630219,1626153,1610612755,1629680,202699,203954,1627788,203552,0022100478,3,1559,1559,0,3,1610612755
100,1610612737,1629629,1628381,1630168,1630219,1626153,1610612755,1629680,202699,203954,1627788,203552,0022100478,3,1582,1584,0,0,1610612737
101,1610612737,1629629,1628381,1630168,1630219,1626153,1610612755,1629680,202699,203954,1627788,203552,0022100478,3,1593,1599,0,2,1610612755
102,1610612737,1626153,1628411,1629629,1630168,1630219,1610612755,1629680,202699,203954,1627788,203552,0022100478,3,1610,1610,2,0,1610612737
103,1610612737,1626153,1629629,1630168,1630219,203992,1610612755,1629680,202699,203954,1627788,203552,0022100478,3,1628,1630,0,0,1610612755
104,1610612737,1626153,1629629,1630168,1630219,203992,1610612755,1629680,202699,203954,1627788,203552,0022100478,3,1645,1645,2,0,1610612737
105,1610612737,1626153,1629629,1630168,1630219,203992,1610612755,1629680,202699,203954,1627788,203552,0022100478,3,1648,1648,0,0,1610612755
106,1610612737,1626153,1629629,1630168,1630219,203992,1610612755,1629680,202699,203954,1627788,203552,0022100478,3,1658,1658,3,0,1610612737
107,1610612737,1626153,1629629,1630168,1630219,203992,1610612755,1629680,202699,203954,1627788,203552,0022100478,3,1674,1674,0,0,1610612755
108,1610612737,1626153,1629629,1630168,1630219,203992,1610612755,1629680,202699,203954,1627788,203552,0022100478,3,1685,1685,2,0,1610612737
109,1610612737,1626153,1629629,1630168,1630219,203992,1610612755,1629680,202699,203954,1627788,203552,0022100478,3,1702,1703,0,0,1610612755
110,1610612737,1626153,1629629,1630168,1630219,203992,1610612755,1629680,202699,203954,1627788,203552,0022100478,3,1716,1716,2,0,1610612737
111,1610612737,1626153,1629629,1630168,1630219,203992,1610612755,1629680,202699,203954,1627788,203552,0022100478,3,1718,1739,0,2,1610612755
112,1610612737,1626153,1629629,1630168,1630219,203992,1610612755,1629680,1630178,202699,203552,203954,0022100478,3,1749,1749,0,0,1610612737
113,1610612737,1626153,1629629,1630168,1630219,203992,1610612755,1629680,1630178,202699,203552,203954,0022100478,3,1756,1756,0,2,1610612755
114,1610612737,1626153,1629629,1630168,1630219,203992,1610612755,1629680,1630178,202699,203552,203954,0022100478,3,1771,1771,3,0,1610612737
115,1610612737,1626153,1629629,1630168,1630219,203992,1610612755,1629680,1630178,202699,203552,203954,0022100478,3,1786,1786,0,2,1610612755
116,1610612737,1626153,1629629,1630168,1630219,203992,1610612755,1629680,1630178,202699,203552,203954,0022100478,3,1809,1809,3,0,1610612737
117,1610612737,1626153,1629629,1630168,1630219,203992,1610612755,1629680,1630178,202699,203552,203954,0022100478,3,1815,1835,0,2,1610612755
118,1610612737,1626153,1628411,1630168,1630219,203992,1610612755,1630178,1630198,202699,203552,203954,0022100478,3,1849,1849,2,0,1610612737
119,1610612737,1626153,1628411,1630168,1630219,203992,1610612755,1630178,1630198,202699,203552,203954,0022100478,3,1876,1879,0,0,1610612755
120,1610612737,1626153,1628411,1630168,1630219,203992,1610612755,1630178,1630198,202699,203552,203954,0022100478,3,1899,1901,0,0,1610612737
121,1610612737,1626153,1628411,1630168,1630219,203992,1610612755,1630178,1630198,202699,203552,203954,0022100478,3,1923,1923,0,0,1610612755
122,1610612737,1626153,1628411,1630168,1630219,203992,1610612755,1630178,1630198,202699,203552,203954,0022100478,3,1929,1933,0,0,1610612737
123,1610612737,1626153,1628411,1630168,1630219,203992,1610612755,1630178,1630198,202699,203552,203954,0022100478,3,1941,1941,0,3,1610612755
124,1610612737,1626153,1628411,1630168,1630219,203992,1610612755,1630178,1630198,202699,203552,203954,0022100478,3,1952,1967,0,0,1610612737
125,1610612737,1626153,1628411,1629629,203476,203992,1610612755,1629646,1630178,1630198,202699,203552,0022100478,3,1984,1986,0,0,1610612755
126,1610612737,1626153,1628411,1629629,203476,203992,1610612755,1629646,1630178,1630198,202699,203552,0022100478,3,1995,2010,0,0,1610612737
127,1610612737,1626153,1628411,1629629,202362,203476,1610612755,1629646,1630178,1630198,203552,204020,0022100478,3,2017,2020,0,0,1610612755
128,1610612737,1626153,1628411,1629629,202362,203476,1610612755,1629646,1630178,1630198,203552,204020,0022100478,3,2030,2032,0,0,1610612737
129,1610612737,1626153,1628411,1629629,202362,203476,1610612755,1629646,1630178,1630198,203552,204020,0022100478,3,2039,2039,0,2,1610612755
130,1610612737,1626153,1628411,1629629,202362,203476,1610612755,1629646,1630178,1630198,203552,204020,0022100478,3,2058,2058,0,0,1610612737
131,1610612737,1626153,1628411,1629629,202362,203476,1610612755,1629646,1630178,1630198,203552,204020,0022100478,3,2070,2070,0,2,1610612755
132,1610612737,1626153,1628411,1629629,202362,203476,1610612755,1629646,1630178,1630198,203552,204020,0022100478,3,2096,2096,3,0,1610612737
133,1610612737,1626153,1628411,1630219,202362,203476,1610612755,1627788,1629646,1630178,1630198,204020,0022100478,3,2114,2114,0,2,1610612755
134,1610612737,1626153,1628411,1630219,202362,203476,1610612755,1627788,1629646,1630178,1630198,204020,0022100478,3,2126,2129,0,0,1610612737
135,1610612737,1626153,1628411,1630219,202362,203476,1610612755,1627788,1629646,1630178,1630198,204020,0022100478,3,2136,2139,0,0,1610612755
136,1610612737,1626153,1628411,1630219,202362,203476,1610612755,1627788,1629646,1630178,1630198,204020,0022100478,3,2159,2159,3,0,1610612737
137,1610612737,1628381,1630219,203476,1628411,202362,1610612755,1627788,1630178,1630198,1629646,204020,0022100478,4,2160,2182,0,0,1610612755
138,1610612737,1628381,1630219,203476,1628411,202362,1610612755,1627788,1630178,1630198,1629646,204020,0022100478,4,2189,2189,2,0,1610612737
139,1610612737,1628381,1630219,203476,1628411,202362,1610612755,1627788,1630178,1630198,1629646,204020,0022100478,4,2200,2209,0,0,1610612755
140,1610612737,1628381,1630219,203476,1628411,202362,1610612755,1627788,1629646,1630178,202699,204020,0022100478,4,2226,2239,0,0,1610612737
141,1610612737,1628381,1630219,203476,1628411,202362,1610612755,1627788,1629646,1630178,202699,204020,0022100478,4,2244,2263,0,2,1610612755
142,1610612737,1628381,1630219,203476,1628411,202362,1610612755,1627788,1629646,1630178,202699,204020,0022100478,4,2278,2278,2,0,1610612737
143,1610612737,1628381,1630219,203476,1628411,202362,1610612755,1627788,1629646,1630178,202699,204020,0022100478,4,2294,2298,0,2,1610612755
144,1610612737,1628381,1630219,203476,1628411,202362,1610612755,1627788,1629646,1630178,202699,204020,0022100478,4,2307,2310,0,0,1610612737
145,1610612737,1628381,1630219,203476,1628411,202362,1610612755,1627788,1629646,1630178,202699,204020,0022100478,4,2319,2319,0,2,1610612755
146,1610612737,1628381,1630219,203476,1628411,202362,1610612755,1627788,1629646,1630178,202699,204020,0022100478,4,2320,2348,0,0,1610612737
147,1610612737,1626153,1628381,1628411,1630168,203992,1610612755,1627788,1629680,1630178,202699,203954,0022100478,4,2366,2372,0,0,1610612755
148,1610612737,1626153,1628381,1628411,1630168,203992,1610612755,1627788,1629680,1630178,202699,203954,0022100478,4,2381,2382,0,0,1610612737
149,1610612737,1626153,1628381,1628411,1630168,203992,1610612755,1627788,1629680,1630178,202699,203954,0022100478,4,2397,2397,0,2,1610612755
150,1610612737,1626153,1628381,1628411,1630168,203992,1610612755,1627788,1629680,1630178,202699,203954,0022100478,4,2418,2419,1,0,1610612737
151,1610612737,1626153,1628381,1630168,1630219,203992,1610612755,1629680,1630178,202699,203552,203954,0022100478,4,2432,2435,0,0,1610612755
152,1610612737,1626153,1628381,1630168,1630219,203992,1610612755,1629680,1630178,202699,203552,203954,0022100478,4,2453,2455,0,0,1610612737
153,1610612737,1626153,1628381,1630168,1630219,203992,1610612755,1629680,1630178,202699,203552,203954,0022100478,4,2457,2457,0,2,1610612755
154,1610612737,1626153,1628381,1630168,1630219,203992,1610612755,1629680,1630178,202699,203552,203954,0022100478,4,2480,2484,0,0,1610612737
155,1610612737,1626153,1628381,1630168,1630219,203992,1610612755,1629680,1630178,202699,203552,203954,0022100478,4,2484,2495,0,0,1610612755
156,1610612737,1628381,1630168,1630219,202362,203992,1610612755,1629680,1630178,202699,203552,203954,0022100478,4,2509,2509,2,0,1610612737
157,1610612737,1628381,1630168,1630219,202362,203992,1610612755,1629680,1630178,202699,203552,203954,0022100478,4,2510,2528,0,3,1610612755
158,1610612737,1628381,1628411,1630168,1630219,203992,1610612755,1629680,1630178,202699,203552,203954,0022100478,4,2545,2545,0,0,1610612737
159,1610612737,1628381,1628411,1630168,1630219,203992,1610612755,1629680,1630178,202699,203552,203954,0022100478,4,2555,2558,0,0,1610612755
160,1610612737,1628381,1628411,1630168,1630219,203992,1610612755,1629680,1630178,202699,203552,203954,0022100478,4,2577,2579,0,0,1610612737
161,1610612737,1628381,1628411,1630168,1630219,203992,1610612755,1629680,1630178,202699,203552,203954,0022100478,4,2588,2591,0,0,1610612755
162,1610612737,1628381,1628411,1630168,1630219,203992,1610612755,1629680,1630178,202699,203552,203954,0022100478,4,2598,2598,0,0,1610612737
163,1610612737,1628381,1628411,1630168,1630219,203992,1610612755,1629680,1630178,202699,203552,203954,0022100478,4,2609,2609,0,2,1610612755
164,1610612737,1628381,1628411,1630168,1630219,203992,1610612755,1629680,1630178,202699,203552,203954,0022100478,4,2609,2631,2,0,1610612737
165,1610612737,1628381,1628411,1630168,1630219,203992,1610612755,1629680,1630178,202699,203552,203954,0022100478,4,2646,2649,0,0,1610612755
166,1610612737,1628381,1628411,1630168,1630219,203992,1610612755,1629680,1630178,202699,203552,203954,0022100478,4,2656,2656,3,0,1610612737
167,1610612737,1628381,1628411,1630168,1630219,203992,1610612755,1629680,1630178,202699,203552,203954,0022100478,4,2684,2684,0,2,1610612755
168,1610612737,1628381,1628411,1630168,1630219,203992,1610612755,1629680,1630178,202699,203552,203954,0022100478,4,2704,2709,3,0,1610612737
169,1610612737,1628381,1628411,1630168,1630219,203992,1610612755,1629680,1630178,202699,203552,203954,0022100478,4,2720,2720,0,0,1610612755
170,1610612737,1628381,1628411,1630168,1630219,203992,1610612755,1629680,1630178,202699,203552,203954,0022100478,4,2726,2726,0,0,1610612737
171,1610612737,1628381,1628411,1630168,1630219,203992,1610612755,1629680,1630178,202699,203552,203954,0022100478,4,2741,2751,0,0,1610612755
172,1610612737,1628381,1628411,1630168,1630219,203992,1610612755,1629680,1630178,202699,203552,203954,0022100478,4,2753,2753,2,0,1610612737
173,1610612737,1628381,1628411,1630168,1630219,203992,1610612755,1629680,1630178,202699,203552,203954,0022100478,4,2754,2777,0,0,1610612755
174,1610612737,1628381,1628411,1630168,1630219,203992,1610612755,1629680,1630178,202699,203552,203954,0022100478,4,2795,2795,2,0,1610612737
175,1610612737,1628381,1628411,1630168,1630219,203992,1610612755,1629680,1630178,202699,203552,203954,0022100478,4,2812,2819,0,2,1610612755
176,1610612737,1628381,1628411,1630168,1630219,203992,1610612755,1629680,1630178,202699,203552,203954,0022100478,4,2843,2843,0,0,1610612737
177,1610612737,1628381,1628411,1630168,1630219,203992,1610612755,1629680,1630178,202699,203552,203954,0022100478,4,2847,2851,0,2,1610612755
178,1610612737,1628381,1628411,1630168,1630219,203992,1610612755,1629680,1630178,202699,203954,204020,0022100478,4,2875,2875,0,0,1610612737
179,1610612737,1628381,1628411,1630168,1630219,203992,1610612755,1629680,1630178,202699,203954,204020,0022100478,4,2875,2880,0,0,1610612737
