,team1_id,team1_player1,team1_player2,team1_player3,team1_player4,team1_player5,team2_id,team2_player1,team2_player2,team2_player3,team2_player4,team2_player5,game_id,period,possession_start,possession_end,team1_points,team2_points,possession_team
0,1610612752,203090,203944,1626171,1629628,203901,1610612755,203922,202699,201143,1626196,1629003,0021900873,1,0,17,0,0,1610612755
1,1610612752,203090,203944,1626171,1629628,203901,1610612755,203922,202699,201143,1626196,1629003,0021900873,1,27,29,0,0,1610612752
2,1610612752,203090,203944,1626171,1629628,203901,1610612755,203922,202699,201143,1626196,1629003,0021900873,1,40,40,0,2,1610612755
3,1610612752,203090,203944,1626171,1629628,203901,1610612755,203922,202699,201143,1626196,1629003,0021900873,1,55,55,2,0,1610612752
4,1610612752,203090,203944,1626171,1629628,203901,1610612755,203922,202699,201143,1626196,1629003,0021900873,1,70,70,0,2,1610612755
5,1610612752,203090,203944,1626171,1629628,203901,1610612755,203922,202699,201143,1626196,1629003,0021900873,1,80,80,2,0,1610612752
6,1610612752,203090,203944,1626171,1629628,203901,1610612755,203922,202699,201143,1626196,1629003,0021900873,1,88,88,0,3,1610612755
7,1610612752,203090,203944,1626171,1629628,203901,1610612755,203922,202699,201143,1626196,1629003,0021900873,1,109,111,0,0,1610612752
8,1610612752,203090,203944,1626171,1629628,203901,1610612755,203922,202699,201143,1626196,1629003,0021900873,1,112,112,0,0,1610612755
9,1610612752,203090,203944,1626171,1629628,203901,1610612755,203922,202699,201143,1626196,1629003,0021900873,1,122,122,0,0,1610612752
10,1610612752,203090,203944,1626171,1629628,203901,1610612755,203922,202699,201143,1626196,1629003,0021900873,1,137,137,0,2,1610612755
11,1610612752,203090,203944,1626171,1629628,203901,1610612755,203922,202699,201143,1626196,1629003,0021900873,1,146,146,2,0,1610612752
12,1610612752,203090,203944,1626171,1629628,203901,1610612755,203922,202699,201143,1626196,1629003,0021900873,1,146,158,0,3,1610612755
13,1610612752,203090,203944,1626171,1629628,203901,1610612755,203922,202699,201143,1626196,1629003,0021900873,1,177,182,2,0,1610612752
14,1610612752,203090,203944,1626171,1629628,203901,1610612755,203922,202699,201143,1626196,1629003,0021900873,1,195,197,0,0,1610612755
15,1610612752,203090,203944,1626171,1629628,203901,1610612755,203922,202699,201143,1626196,1629003,0021900873,1,205,208,0,0,1610612752
16,1610612752,203090,203944,1626171,1629628,203901,1610612755,203922,202699,201143,1626196,1629003,0021900873,1,223,225,0,0,1610612755
17,1610612752,203090,203944,1626171,1629628,203901,1610612755,203922,202699,201143,1626196,1629003,0021900873,1,237,239,0,0,1610612752
18,1610612752,203090,203944,1626171,1629628,203901,1610612755,203922,202699,201143,1626196,1629003,0021900873,1,251,253,0,0,1610612755
19,1610612752,203090,203944,1626171,1629628,203901,1610612755,203922,202699,201143,1626196,1629003,0021900873,1,264,266,0,0,1610612752
20,1610612752,203090,203944,1626171,1629628,203901,1610612755,203922,202699,201143,1626196,1629003,0021900873,1,270,270,0,3,1610612755
21,1610612752,203090,203944,1626171,1629628,203901,1610612755,203922,202699,201143,1626196,1629003,0021900873,1,276,295,1,0,1610612752
22,1610612752,203090,203944,1626171,1629628,203901,1610612755,1627788,1629003,1629680,201143,202699,0021900873,1,300,300,0,2,1610612755
23,1610612752,203090,203944,1626171,1629628,203901,1610612755,1627788,1629003,1629680,201143,202699,0021900873,1,319,322,0,0,1610612752
24,1610612752,203090,203944,1626171,1629628,203901,1610612755,1627788,1629003,1629680,201143,202699,0021900873,1,331,331,0,2,1610612755
25,1610612752,203090,203944,1626171,1629628,203901,1610612755,1627788,1629003,1629680,201143,202699,0021900873,1,344,347,2,0,1610612752
26,1610612752,1629011,1629628,203090,203901,203944,1610612755,1627788,1629003,1629680,201143,202699,0021900873,1,365,365,0,2,1610612755
27,1610612752,1629011,1629628,203090,203901,203944,1610612755,1627788,1629003,1629680,201143,202699,0021900873,1,379,379,2,0,1610612752
28,1610612752,1629011,1629628,203090,203901,203944,1610612755,1627788,1629003,1629680,201143,202699,0021900873,1,391,394,0,0,1610612755
29,1610612752,1629011,1629628,203090,203901,203944,1610612755,1627788,1629003,1629680,201143,202699,0021900873,1,398,398,0,0,1610612752
30,1610612752,1629011,1629628,203090,203901,203944,1610612755,1627788,1629003,1629680,201143,202699,0021900873,1,403,403,0,0,1610612755
31,1610612752,1629011,1629628,203090,203901,203944,1610612755,1627788,1629003,1629680,201143,202699,0021900873,1,414,417,2,0,1610612752
32,1610612752,1629011,1629628,203090,203901,203944,1610612755,1627788,1629003,1629680,201143,202699,0021900873,1,426,432,0,0,1610612755
33,1610612752,1629011,1629628,203090,203901,203944,1610612755,1627788,1629003,1629680,201143,202699,0021900873,1,435,435,0,0,1610612752
34,1610612752,1629011,1629628,203090,203901,203944,1610612755,1627788,1629003,1629680,201143,202699,0021900873,1,448,450,0,0,1610612755
35,1610612752,1629011,1629628,203090,203901,203944,1610612755,1627788,1629003,1629680,201143,202699,0021900873,1,456,456,2,0,1610612752
36,1610612752,1629011,1629628,203090,203901,203944,1610612755,1627788,1629003,1629680,201143,202699,0021900873,1,456,475,0,2,1610612755
37,1610612752,1628995,1629011,1629628,203901,203944,1610612755,1627788,1629680,201143,202692,202699,0021900873,1,492,495,0,0,1610612752
38,1610612752,1628995,1629011,1629628,203901,203944,1610612755,1627788,1629680,201143,202692,202699,0021900873,1,497,497,0,0,1610612755
39,1610612752,1628995,1629011,1629628,203901,203944,1610612755,1627788,1629680,201143,202692,202699,0021900873,1,509,509,3,0,1610612752
40,1610612752,1628995,1629011,1629628,203901,203944,1610612755,1627788,1629680,201143,202692,202699,0021900873,1,530,532,0,0,1610612755
41,1610612752,1628995,1629011,1629628,203901,203944,1610612755,1627788,1629680,201143,202692,202699,0021900873,1,535,535,1,0,1610612752
42,1610612752,1628995,1629011,1629628,203901,203944,1610612755,1626196,1627788,202692,203118,203124,0021900873,1,551,555,0,0,1610612755
43,1610612752,1628995,1629011,1629628,203901,203944,1610612755,1626196,1627788,202692,203118,203124,0021900873,1,572,577,0,0,1610612752
44,1610612752,1628995,1629011,1629628,203901,203944,1610612755,1626196,1627788,202692,203118,203124,0021900873,1,585,585,0,0,1610612755
45,1610612752,1628995,1629011,203493,203901,203944,1610612755,1626196,1627788,202692,203118,203124,0021900873,1,597,599,0,0,1610612752
46,1610612752,1628995,1629011,203493,203901,203944,1610612755,1626196,1627788,202692,203118,203124,0021900873,1,624,626,0,0,1610612755
47,1610612752,1628995,1629011,203493,203901,203944,1610612755,1626196,1627788,202692,203118,203124,0021900873,1,637,639,0,0,1610612752
48,1610612752,1628372,1628995,1629011,203493,203944,1610612755,1626196,1627788,202692,203118,203124,0021900873,1,652,656,0,0,1610612755
49,1610612752,1628372,1628995,1629011,203493,203944,1610612755,1626196,1627788,202692,203118,203124,0021900873,1,662,675,0,0,1610612752
50,1610612752,1628372,1628995,1629011,201961,203493,1610612755,1626196,1627788,202692,203118,203124,0021900873,1,677,683,0,3,1610612755
51,1610612752,1628372,1628995,1629011,201961,203493,1610612755,1626196,1627788,202692,203118,203124,0021900873,1,705,705,0,0,1610612752
52,1610612752,1628372,1628995,1629011,201961,203493,1610612755,1626196,1627788,202692,203118,203124,0021900873,1,717,719,0,0,1610612752
53,1610612752,1629011,1628995,203493,1628372,201961,1610612755,1626196,1627788,202692,203118,203124,0021900873,2,720,744,0,0,1610612752
54,1610612752,1629011,1628995,203493,1628372,201961,1610612755,1626196,1627788,202692,203118,203124,0021900873,2,762,765,0,0,1610612755
55,1610612752,1629011,1628995,203493,1628372,201961,1610612755,1626196,1627788,202692,203118,203124,0021900873,2,777,780,0,0,1610612752
56,1610612752,1629011,1628995,203493,1628372,201961,1610612755,1626196,1627788,202692,203118,203124,0021900873,2,790,790,0,3,1610612755
57,1610612752,1629011,1628995,203493,1628372,201961,1610612755,1626196,1627788,202692,203118,203124,0021900873,2,805,805,0,0,1610612752
58,1610612752,1629011,1628995,203493,1628372,201961,1610612755,1626196,1627788,202692,203118,203124,0021900873,2,805,817,0,2,1610612755
59,1610612752,1629011,1628995,203493,1628372,201961,1610612755,1626196,202692,203118,203124,203922,0021900873,2,831,843,0,0,1610612752
60,1610612752,1629011,1628995,203493,1628372,201961,1610612755,1626196,202692,203118,203124,203922,0021900873,2,859,859,0,0,1610612755
61,1610612752,1629011,1628995,203493,1628372,201961,1610612755,1626196,202692,203118,203124,203922,0021900873,2,862,864,1,0,1610612752
62,1610612752,1629011,1628995,203493,1628372,201961,1610612755,1626196,202692,203118,203124,203922,0021900873,2,876,876,0,2,1610612755
63,1610612752,1629011,1628995,203493,1628372,201961,1610612755,1626196,202692,203118,203124,203922,0021900873,2,897,897,2,0,1610612752
64,1610612752,1629011,1628995,203493,1628372,201961,1610612755,1626196,202692,203118,203124,203922,0021900873,2,913,918,0,2,1610612755
65,1610612752,1629011,1628995,203493,1628372,201961,1610612755,1626196,202692,203118,203124,203922,0021900873,2,926,934,0,0,1610612752
66,1610612752,1626171,1628372,1629011,201961,203493,1610612755,1626196,1629680,202692,203124,203922,0021900873,2,945,954,0,0,1610612755
67,1610612752,1626171,1628372,1629011,201961,203493,1610612755,1626196,1629680,202692,203124,203922,0021900873,2,965,965,2,0,1610612752
68,1610612752,1626171,1628372,1629011,201961,203493,1610612755,1626196,1629680,202692,203124,203922,0021900873,2,982,983,0,0,1610612755
69,1610612752,1626171,1628372,1629011,201961,203493,1610612755,1626196,1629680,202692,203124,203922,0021900873,2,983,996,0,0,1610612752
70,1610612752,1626171,1628372,1629011,201961,203493,1610612755,1629680,201143,202692,202699,203922,0021900873,2,1007,1007,0,2,1610612755
71,1610612752,1626171,1628372,1629011,201961,203493,1610612755,1629680,201143,202692,202699,203922,0021900873,2,1032,1035,0,0,1610612752
72,1610612752,1626171,1628372,1629011,201961,203493,1610612755,1629680,201143,202692,202699,203922,0021900873,2,1044,1044,0,3,1610612755
73,1610612752,1626171,1628372,1629011,201961,203493,1610612755,1629680,201143,202692,202699,203922,0021900873,2,1051,1060,2,0,1610612752
74,1610612752,1626171,1629628,201961,203901,203944,1610612755,1629003,1629680,201143,202699,203922,0021900873,2,1077,1077,0,2,1610612755
75,1610612752,1626171,1629628,201961,203901,203944,1610612755,1629003,1629680,201143,202699,203922,0021900873,2,1101,1101,2,0,1610612752
76,1610612752,1626171,1629628,201961,203901,203944,1610612755,1629003,1629680,201143,202699,203922,0021900873,2,1125,1125,0,3,1610612755
77,1610612752,1626171,1629628,201961,203901,203944,1610612755,1629003,1629680,201143,202699,203922,0021900873,2,1146,1146,3,0,1610612752
78,1610612752,1626171,1629628,201961,203901,203944,1610612755,1629003,1629680,201143,202699,203922,0021900873,2,1162,1162,0,3,1610612755
79,1610612752,1626171,1629628,201961,203901,203944,1610612755,1629003,1629680,201143,202699,203922,0021900873,2,1187,1187,2,0,1610612752
80,1610612752,1626171,1629628,201961,203901,203944,1610612755,1629003,1629680,201143,202699,203922,0021900873,2,1187,1203,0,3,1610612755
81,1610612752,1626171,1629019,1629628,203901,203944,1610612755,1627788,1629003,1629680,201143,202699,0021900873,2,1220,1220,2,0,1610612752
82,1610612752,1626171,1629019,1629628,203901,203944,1610612755,1627788,1629003,1629680,201143,202699,0021900873,2,1242,1242,0,2,1610612755
83,1610612752,1626171,1629019,1629628,203901,203944,1610612755,1627788,1629003,1629680,201143,202699,0021900873,2,1256,1259,0,0,1610612752
84,1610612752,1626171,1629019,1629628,203901,203944,1610612755,1627788,1629003,1629680,201143,202699,0021900873,2,1266,1266,0,2,1610612755
85,1610612752,1626171,1629019,1629628,203901,203944,1610612755,1627788,1629003,1629680,201143,202699,0021900873,2,1283,1283,0,0,1610612752
86,1610612752,1626171,1629019,1629628,203901,203944,1610612755,1626196,1627788,1629003,201143,202699,0021900873,2,1306,1311,0,2,1610612755
87,1610612752,1626171,1629019,1629628,203901,203944,1610612755,1626196,1627788,1629003,201143,202699,0021900873,2,1311,1327,2,0,1610612752
88,1610612752,1626171,1629019,1629628,203901,203944,1610612755,1626196,1627788,1629003,201143,202699,0021900873,2,1341,1341,0,2,1610612755
89,1610612752,1626171,1629019,1629628,203901,203944,1610612755,1626196,1627788,1629003,201143,202699,0021900873,2,1352,1352,2,0,1610612752
90,1610612752,1626171,1629019,1629628,203901,203944,1610612755,1626196,1627788,1629003,201143,202699,0021900873,2,1369,1375,0,2,1610612755
91,1610612752,1626171,1629019,1629628,203901,203944,1610612755,1626196,1627788,1629003,201143,202699,0021900873,2,1387,1387,2,0,1610612752
92,1610612752,1626171,1629019,1629628,203901,203944,1610612755,1626196,1627788,1629003,201143,202699,0021900873,2,1407,1410,0,0,1610612755
93,1610612752,1626171,1629019,1629628,203901,203944,1610612755,1626196,1627788,1629003,201143,202699,0021900873,2,1416,1430,3,0,1610612752
94,1610612752,1626171,1629019,1629628,203901,203944,1610612755,1626196,1627788,1629003,201143,202699,0021900873,2,1440,1440,0,0,1610612752
95,1610612752,203090,203944,1629628,203901,1629011,1610612755,203922,202699,201143,1626196,1629003,0021900873,3,1440,1457,2,0,1610612752
96,1610612752,203090,203944,1629628,203901,1629011,1610612755,203922,202699,201143,1626196,1629003,0021900873,3,1480,1484,0,0,1610612755
97,1610612752,203090,203944,1629628,203901,1629011,1610612755,203922,202699,201143,1626196,1629003,0021900873,3,1491,1491,2,0,1610612752
98,1610612752,203090,203944,1629628,203901,1629011,1610612755,203922,202699,201143,1626196,1629003,0021900873,3,1508,1511,0,3,1610612755
99,1610612752,203090,203944,1629628,203901,1629011,1610612755,203922,202699,201143,1626196,1629003,0021900873,3,1538,1542,0,0,1610612752
100,1610612752,203090,203944,1629628,203901,1629011,1610612755,203922,202699,201143,1626196,1629003,0021900873,3,1555,1555,0,2,1610612755
101,1610612752,203090,203944,1629628,203901,1629011,1610612755,203922,202699,201143,1626196,1629003,0021900873,3,1568,1568,2,0,1610612752
102,1610612752,203090,203944,1629628,203901,1629011,1610612755,203922,202699,201143,1626196,1629003,0021900873,3,1592,1592,0,2,1610612755
103,1610612752,203090,203944,1629628,203901,1629011,1610612755,203922,202699,201143,1626196,1629003,0021900873,3,1607,1607,3,0,1610612752
104,1610612752,203090,203944,1629628,203901,1629011,1610612755,203922,202699,201143,1626196,1629003,0021900873,3,1625,1627,0,0,1610612755
105,1610612752,203090,203944,1629628,203901,1629011,1610612755,203922,202699,201143,1626196,1629003,0021900873,3,1637,1637,2,0,1610612752
106,1610612752,203090,203944,1629628,203901,1629011,1610612755,203922,202699,201143,1626196,1629003,0021900873,3,1653,1653,0,0,1610612755
107,1610612752,203090,203944,1629628,203901,1629011,1610612755,203922,202699,201143,1626196,1629003,0021900873,3,1666,1666,3,0,1610612752
108,1610612752,203090,203944,1629628,203901,1629011,1610612755,203922,202699,201143,1626196,1629003,0021900873,3,1667,1683,0,2,1610612755
109,1610612752,203090,203944,1629628,203901,1629011,1610612755,203922,202699,201143,1626196,1629003,0021900873,3,1700,1702,0,0,1610612752
110,1610612752,203090,203944,1629628,203901,1629011,1610612755,203922,202699,201143,1626196,1629003,0021900873,3,1706,1715,0,2,1610612755
111,1610612752,203090,203944,1629628,203901,1629011,1610612755,203922,202699,201143,1626196,1629003,0021900873,3,1732,1732,3,0,1610612752
112,1610612752,203090,203944,1629628,203901,1629011,1610612755,203922,202699,201143,1626196,1629003,0021900873,3,1744,1755,0,2,1610612755
113,1610612752,203090,203944,1629628,203901,1629011,1610612755,203922,202699,201143,1626196,1629003,0021900873,3,1771,1786,3,0,1610612752
114,1610612752,203090,203944,1629628,203901,1629011,1610612755,1626196,1627788,1629003,201143,202699,0021900873,3,1801,1801,0,2,1610612755
115,1610612752,203090,203944,1629628,203901,1629011,1610612755,1626196,1627788,1629003,201143,202699,0021900873,3,1814,1814,3,0,1610612752
116,1610612752,203090,203944,1629628,203901,1629011,1610612755,1626196,1627788,1629003,201143,202699,0021900873,3,1836,1841,0,0,1610612755
117,1610612752,203090,203944,1629628,203901,1629011,1610612755,1626196,1627788,1629003,201143,202699,0021900873,3,1850,1850,3,0,1610612752
118,1610612752,203090,203944,1629628,203901,1629011,1610612755,1626196,1627788,1629003,201143,202699,0021900873,3,1869,1869,0,3,1610612755
119,1610612752,203090,203944,1629628,203901,1629011,1610612755,1626196,1627788,1629003,201143,202699,0021900873,3,1884,1884,0,0,1610612752
120,1610612752,1629011,203090,203493,203901,203944,1610612755,1627788,1629003,1629680,201143,202699,0021900873,3,1895,1895,0,2,1610612755
121,1610612752,1629011,203090,203493,203901,203944,1610612755,1627788,1629003,1629680,201143,202699,0021900873,3,1910,1910,2,0,1610612752
122,1610612752,1629011,203090,203493,203901,203944,1610612755,1627788,1629003,1629680,201143,202699,0021900873,3,1930,1932,0,0,1610612755
123,1610612752,1629011,203090,203493,203901,203944,1610612755,1627788,1629003,1629680,201143,202699,0021900873,3,1941,1944,0,0,1610612752
124,1610612752,1629011,203090,203493,203901,203944,1610612755,1627788,1629003,1629680,201143,202699,0021900873,3,1955,1955,0,2,1610612755
125,1610612752,1629011,203090,203493,203901,203944,1610612755,1627788,1629003,1629680,201143,202699,0021900873,3,1958,1978,1,0,1610612752
126,1610612752,1626171,203090,203493,203901,203944,1610612755,1626196,1627788,1629680,202699,203124,0021900873,3,1996,2009,0,0,1610612755
127,1610612752,1626171,203090,203493,203901,203944,1610612755,1626196,1627788,1629680,202699,203124,0021900873,3,2016,2018,0,0,1610612752
128,1610612752,1626171,203090,203493,203901,203944,1610612755,1626196,1627788,1629680,202699,203124,0021900873,3,2032,2032,0,2,1610612755
129,1610612752,1626171,1629628,203090,203493,203944,1610612755,1626196,1627788,1629680,202699,203124,0021900873,3,2049,2055,0,0,1610612752
130,1610612752,1626171,1629628,203090,203493,203944,1610612755,1626196,1627788,1629680,202699,203124,0021900873,3,2061,2066,0,0,1610612755
131,1610612752,1626171,1629628,203090,203493,203944,1610612755,1626196,1627788,1629680,202699,203124,0021900873,3,2075,2075,2,0,1610612752
132,1610612752,1626171,1629628,203090,203493,203944,1610612755,1626196,1627788,1629680,202699,203124,0021900873,3,2100,2102,0,0,1610612755
133,1610612752,1626171,1629628,203090,203493,203944,1610612755,1626196,1627788,1629680,202699,203124,0021900873,3,2114,2114,2,0,1610612752
134,1610612752,1626171,1629628,203090,203493,203944,1610612755,1626196,1627788,1629680,202699,203124,0021900873,3,2129,2129,0,2,1610612755
135,1610612752,1626171,1629628,203090,203493,203944,1610612755,1626196,1627788,1629680,202699,203124,0021900873,3,2153,2156,0,0,1610612752
136,1610612752,1626171,1629628,203090,203493,203944,1610612755,1626196,1627788,1629680,202699,203124,0021900873,3,2160,2160,0,0,434
137,1610612752,1626171,1629628,1629011,203493,1629019,1610612755,201143,1629003,1627788,202692,203118,0021900873,4,2160,2176,0,2,1610612755
138,1610612752,1626171,1629628,1629011,203493,1629019,1610612755,201143,1629003,1627788,202692,203118,0021900873,4,2195,2195,2,0,1610612752
139,1610612752,1626171,1629628,1629011,203493,1629019,1610612755,201143,1629003,1627788,202692,203118,0021900873,4,2207,2207,0,1,1610612755
140,1610612752,1626171,1629628,1629011,203493,1629019,1610612755,201143,1629003,1627788,202692,203118,0021900873,4,2222,2222,2,0,1610612752
141,1610612752,1626171,1629628,1629011,203493,1629019,1610612755,201143,1629003,1627788,202692,203118,0021900873,4,2234,2234,0,2,1610612755
142,1610612752,1626171,1629628,1629011,203493,1629019,1610612755,201143,1629003,1627788,202692,203118,0021900873,4,2248,2261,0,0,1610612752
143,1610612752,1626171,1629628,1629011,203493,1629019,1610612755,201143,1629003,1627788,202692,203118,0021900873,4,2279,2281,0,0,1610612755
144,1610612752,1626171,1629628,1629011,203493,1629019,1610612755,201143,1629003,1627788,202692,203118,0021900873,4,2286,2290,0,0,1610612752
145,1610612752,1626171,1629628,1629011,203493,1629019,1610612755,201143,1629003,1627788,202692,203118,0021900873,4,2292,2292,0,2,1610612755
146,1610612752,1626171,1629628,1629011,203493,1629019,1610612755,1629003,201143,202692,203118,203922,0021900873,4,2311,2311,2,0,1610612752
147,1610612752,1626171,1629628,1629011,203493,1629019,1610612755,1629003,201143,202692,203118,203922,0021900873,4,2327,2327,0,3,1610612755
148,1610612752,1626171,1629628,1629011,203493,1629019,1610612755,1629003,201143,202692,203118,203922,0021900873,4,2341,2345,0,0,1610612752
149,1610612752,1626171,1629628,1629011,203493,1629019,1610612755,1629003,201143,202692,203118,203922,0021900873,4,2366,2366,0,3,1610612755
150,1610612752,1626171,1629628,1629011,203493,1629019,1610612755,1629003,201143,202692,203118,203922,0021900873,4,2368,2392,2,0,1610612752
151,1610612752,1629011,1629019,203493,203901,203944,1610612755,1626196,201143,202692,203118,203922,0021900873,4,2406,2406,0,3,1610612755
152,1610612752,1629011,1629019,203493,203901,203944,1610612755,1626196,201143,202692,203118,203922,0021900873,4,2425,2425,2,0,1610612752
153,1610612752,1629011,1629019,203493,203901,203944,1610612755,1626196,201143,202692,203118,203922,0021900873,4,2440,2443,0,0,1610612755
154,1610612752,1629011,1629019,203493,203901,203944,1610612755,1626196,201143,202692,203118,203922,0021900873,4,2449,2451,0,0,1610612752
155,1610612752,1629011,1629019,203493,203901,203944,1610612755,1626196,201143,202692,203118,203922,0021900873,4,2469,2469,0,2,1610612755
156,1610612752,1629011,1629019,203090,203901,203944,1610612755,1626196,202692,202699,203124,203922,0021900873,4,2484,2484,2,0,1610612752
157,1610612752,1629011,1629019,203090,203901,203944,1610612755,1626196,202692,202699,203124,203922,0021900873,4,2497,2497,0,0,1610612755
158,1610612752,1629011,1629019,203090,203901,203944,1610612755,1626196,202692,202699,203124,203922,0021900873,4,2511,2511,2,0,1610612752
159,1610612752,1629011,1629628,203090,203901,203944,1610612755,1626196,202692,202699,203124,203922,0021900873,4,2528,2530,0,0,1610612755
160,1610612752,1629011,1629628,203090,203901,203944,1610612755,1626196,202692,202699,203124,203922,0021900873,4,2534,2538,0,0,1610612752
161,1610612752,1629011,1629628,203090,203901,203944,1610612755,1626196,202692,202699,203124,203922,0021900873,4,2539,2539,0,0,1610612755
162,1610612752,1629011,1629628,203090,203901,203944,1610612755,1626196,202692,202699,203124,203922,0021900873,4,2557,2557,2,0,1610612752
163,1610612752,1629011,1629628,203090,203901,203944,1610612755,1626196,202692,202699,203124,203922,0021900873,4,2557,2575,0,0,1610612755
164,1610612752,1629011,1629628,203090,203901,203944,1610612755,1626196,1629003,202692,202699,203124,0021900873,4,2593,2593,2,0,1610612752
165,1610612752,1629011,1629628,203090,203901,203944,1610612755,1626196,1629003,202692,202699,203124,0021900873,4,2618,2621,0,0,1610612755
166,1610612752,1629011,1629628,203090,203901,203944,1610612755,1626196,1629003,202692,202699,203124,0021900873,4,2624,2627,0,0,1610612752
167,1610612752,1629011,1629628,203090,203901,203944,1610612755,1626196,1629003,202692,202699,203124,0021900873,4,2636,2642,0,1,1610612755
168,1610612752,1629011,1629628,203090,203901,203944,1610612755,1626196,1627788,1629003,202699,203124,0021900873,4,2656,2656,2,0,1610612752
169,1610612752,1629011,1629628,203090,203901,203944,1610612755,1626196,1627788,1629003,202699,203124,0021900873,4,2676,2680,0,0,1610612755
170,1610612752,1629011,1629628,203090,203901,203944,1610612755,1626196,1627788,1629003,202699,203124,0021900873,4,2680,2683,0,0,1610612752
171,1610612752,1629011,1629628,203090,203901,203944,1610612755,1626196,1627788,1629003,201143,202699,0021900873,4,2701,2701,0,1,1610612755
172,1610612752,1629011,1629628,203090,203901,203944,1610612755,1626196,1627788,1629003,201143,202699,0021900873,4,2719,2726,2,0,1610612752
173,1610612752,1629011,1629628,203090,203901,203944,1610612755,1626196,1627788,1629003,201143,202699,0021900873,4,2739,2739,0,0,1610612755
174,1610612752,1629011,1629628,203090,203901,203944,1610612755,1626196,1627788,1629003,201143,202699,0021900873,4,2752,2755,1,0,1610612752
175,1610612752,1629011,1629628,203090,203901,203944,1610612755,1626196,1627788,1629003,201143,202699,0021900873,4,2768,2768,0,3,1610612755
176,1610612752,1629011,1629628,203090,203901,203944,1610612755,1626196,1627788,1629003,201143,202699,0021900873,4,2768,2791,0,0,1610612752
177,1610612752,1629011,1629628,203090,203901,203944,1610612755,1626196,1627788,1629003,201143,202699,0021900873,4,2806,2806,0,3,1610612755
178,1610612752,1629011,1629628,203090,203901,203944,1610612755,1626196,1627788,1629003,201143,202699,0021900873,4,2814,2814,2,0,1610612752
179,1610612752,1629011,1629628,203090,203901,203944,1610612755,1626196,1627788,1629003,201143,202699,0021900873,4,2832,2832,0,2,1610612755
180,1610612752,1629011,1629628,203090,203901,203944,1610612755,1626196,1627788,1629003,201143,202699,0021900873,4,2832,2840,0,0,1610612752
181,1610612752,1626171,1629628,203090,203901,203944,1610612755,1626196,1627788,1629003,201143,202699,0021900873,4,2858,2861,0,0,1610612755
182,1610612752,1626171,1629628,203090,203901,203944,1610612755,1626196,1627788,1629003,201143,202699,0021900873,4,2866,2866,2,0,1610612752
