,team1_id,team1_player1,team1_player2,team1_player3,team1_player4,team1_player5,team2_id,team2_player1,team2_player2,team2_player3,team2_player4,team2_player5,game_id,period,possession_start,possession_end,team1_points,team2_points,possession_team
0,1610612758,203084,203090,1627745,1627741,1628368,1610612756,1628969,203109,1629028,1626164,101108,0022000843,1,0,12,2,0,1610612758
1,1610612758,203084,203090,1627745,1627741,1628368,1610612756,1628969,203109,1629028,1626164,101108,0022000843,1,28,28,0,2,1610612756
2,1610612758,203084,203090,1627745,1627741,1628368,1610612756,1628969,203109,1629028,1626164,101108,0022000843,1,43,45,0,0,1610612758
3,1610612758,203084,203090,1627745,1627741,1628368,1610612756,1628969,203109,1629028,1626164,101108,0022000843,1,52,52,0,3,1610612756
4,1610612758,203084,203090,1627745,1627741,1628368,1610612756,1628969,203109,1629028,1626164,101108,0022000843,1,62,65,0,0,1610612758
5,1610612758,203084,203090,1627745,1627741,1628368,1610612756,1628969,203109,1629028,1626164,101108,0022000843,1,74,74,0,3,1610612756
6,1610612758,203084,203090,1627745,1627741,1628368,1610612756,1628969,203109,1629028,1626164,101108,0022000843,1,96,96,2,0,1610612758
7,1610612758,203084,203090,1627745,1627741,1628368,1610612756,1628969,203109,1629028,1626164,101108,0022000843,1,109,109,0,3,1610612756
8,1610612758,203084,203090,1627745,1627741,1628368,1610612756,1628969,203109,1629028,1626164,101108,0022000843,1,126,129,0,0,1610612758
9,1610612758,203084,203090,1627745,1627741,1628368,1610612756,1628969,203109,1629028,1626164,101108,0022000843,1,136,136,0,0,1610612756
10,1610612758,203084,203090,1627745,1627741,1628368,1610612756,1628969,203109,1629028,1626164,101108,0022000843,1,143,145,0,0,1610612758
11,1610612758,203084,203090,1627745,1627741,1628368,1610612756,1628969,203109,1629028,1626164,101108,0022000843,1,163,163,0,2,1610612756
12,1610612758,203084,203090,1627745,1627741,1628368,1610612756,1628969,203109,1629028,1626164,101108,0022000843,1,172,186,0,0,1610612758
13,1610612758,203084,203090,1627745,1627741,1628368,1610612756,1628969,203109,1629028,1626164,101108,0022000843,1,197,199,0,0,1610612756
14,1610612758,203084,203090,1627745,1627741,1628368,1610612756,1628969,203109,1629028,1626164,101108,0022000843,1,204,204,3,0,1610612758
15,1610612758,203084,203090,1627745,1627741,1628368,1610612756,1628969,203109,1629028,1626164,101108,0022000843,1,221,224,0,0,1610612756
16,1610612758,203084,203090,1627745,1627741,1628368,1610612756,1628969,203109,1629028,1626164,101108,0022000843,1,229,229,3,0,1610612758
17,1610612758,203084,203090,1627745,1627741,1628368,1610612756,1628969,203109,1629028,1626164,101108,0022000843,1,256,256,0,0,1610612756
18,1610612758,203084,203090,1627745,1627741,1628368,1610612756,1628969,203109,1629028,1626164,101108,0022000843,1,260,260,0,0,1610612758
19,1610612758,203084,203090,1627745,1627741,1628368,1610612756,1628969,203109,1629028,1626164,101108,0022000843,1,270,270,0,3,1610612756
20,1610612758,203084,203090,1627745,1627741,1628368,1610612756,1628969,203109,1629028,1626164,101108,0022000843,1,287,287,3,0,1610612758
21,1610612758,203084,203090,1627745,1627741,1628368,1610612756,1628969,203109,1629028,1626164,101108,0022000843,1,300,309,0,0,1610612756
22,1610612758,1627741,1628368,202355,203084,203090,1610612756,1626164,1626166,1628969,1629028,203109,0022000843,1,323,328,0,0,1610612758
23,1610612758,1627741,1628368,202355,203084,203090,1610612756,1626164,1626166,1628969,1629028,203109,0022000843,1,347,347,0,3,1610612756
24,1610612758,1627741,1628368,202355,203084,203090,1610612756,1626164,1626166,1628969,1629028,203109,0022000843,1,364,377,0,0,1610612758
25,1610612758,1628368,1630169,202355,203084,203090,1610612756,1626164,1626166,1628969,1629028,203109,0022000843,1,381,384,0,0,1610612756
26,1610612758,1628368,1630169,202355,203084,203090,1610612756,1626164,1626166,1628969,1629028,203109,0022000843,1,392,392,2,0,1610612758
27,1610612758,1628368,1630169,202355,203084,203090,1610612756,1626164,1626166,1628969,1629028,203109,0022000843,1,413,413,0,2,1610612756
28,1610612758,1628368,1630169,202355,203084,203090,1610612756,1626164,1626166,1628969,1629028,203109,0022000843,1,426,430,2,0,1610612758
29,1610612758,1628368,1630169,202355,203084,203090,1610612756,1626164,1626166,1628969,1629028,203109,0022000843,1,439,442,0,0,1610612756
30,1610612758,1628368,1630169,202355,203084,203090,1610612756,1626164,1626166,1628969,1629028,203109,0022000843,1,458,461,0,0,1610612758
31,1610612758,1628368,1630169,202355,203084,203090,1610612756,1626164,1626166,1628969,1629028,203109,0022000843,1,476,476,0,3,1610612756
32,1610612758,1628368,1630169,202355,203084,203090,1610612756,1626164,1626166,1628969,1629028,203109,0022000843,1,493,496,0,0,1610612758
33,1610612758,1628368,1630169,202355,203084,203090,1610612756,1626164,1626166,1628969,1629028,203109,0022000843,1,514,514,0,2,1610612756
34,1610612758,1626153,1629056,1630169,202355,203090,1610612756,1626164,1626166,1629028,1629661,203109,0022000843,1,526,526,3,0,1610612758
35,1610612758,1626153,1629056,1630169,202355,203090,1610612756,1626164,1626166,1629028,1629661,203109,0022000843,1,536,538,0,0,1610612756
36,1610612758,1626153,1629056,1630169,202355,203090,1610612756,1626164,1626166,1629661,203109,203967,0022000843,1,546,550,0,0,1610612758
37,1610612758,1626153,1629056,1630169,202355,203090,1610612756,1626164,1626166,1629661,203109,203967,0022000843,1,562,564,0,0,1610612756
38,1610612758,1626153,1629056,1630169,202355,203090,1610612756,1626164,1626166,1629661,203109,203967,0022000843,1,572,572,2,0,1610612758
39,1610612758,1626153,1629056,1630169,202355,203090,1610612756,1626164,1626166,1629661,203109,203967,0022000843,1,581,588,0,3,1610612756
40,1610612758,1626153,1629056,1630169,202355,203084,1610612756,1626164,1626166,1628470,1629661,203967,0022000843,1,614,614,2,0,1610612758
41,1610612758,1626153,1629056,1630169,202355,203084,1610612756,1626164,1626166,1628470,1629661,203967,0022000843,1,638,648,0,0,1610612756
42,1610612758,1626153,1629056,1630169,202355,203084,1610612756,1626164,1626166,1628470,1629661,203967,0022000843,1,654,656,0,0,1610612758
43,1610612758,1626153,1629056,1630169,202355,203084,1610612756,1626164,1626166,1628470,1629661,203967,0022000843,1,660,660,0,2,1610612756
44,1610612758,1626153,1629056,1630169,202355,203084,1610612756,1626164,1626166,1628470,1629661,203967,0022000843,1,675,677,2,0,1610612758
45,1610612758,1626153,1629056,1630169,202355,203084,1610612756,1626164,1626166,1628470,1629661,203967,0022000843,1,699,699,0,2,1610612756
46,1610612758,1626153,1627741,1629056,202355,203084,1610612756,1626166,1628470,1628975,1629661,203967,0022000843,1,711,720,2,0,1610612758
47,1610612758,203084,1627741,1628368,1626153,1629002,1610612756,101108,1629661,203967,1628470,1628975,0022000843,2,720,742,0,2,1610612756
48,1610612758,203084,1627741,1628368,1626153,1629002,1610612756,101108,1629661,203967,1628470,1628975,0022000843,2,758,758,3,0,1610612758
49,1610612758,203084,1627741,1628368,1626153,1629002,1610612756,101108,1629661,203967,1628470,1628975,0022000843,2,776,776,0,3,1610612756
50,1610612758,203084,1627741,1628368,1626153,1629002,1610612756,101108,1629661,203967,1628470,1628975,0022000843,2,802,802,2,0,1610612758
51,1610612758,203084,1627741,1628368,1626153,1629002,1610612756,101108,1629661,203967,1628470,1628975,0022000843,2,818,818,0,2,1610612756
52,1610612758,203084,1627741,1628368,1626153,1629002,1610612756,101108,1629661,203967,1628470,1628975,0022000843,2,832,832,0,0,1610612758
53,1610612758,203084,1627741,1628368,1626153,1629002,1610612756,101108,1629661,203967,1628470,1628975,0022000843,2,838,838,0,2,1610612756
54,1610612758,203084,1627741,1628368,1626153,1629002,1610612756,101108,1629661,203967,1628470,1628975,0022000843,2,858,859,0,0,1610612758
55,1610612758,203084,1627741,1628368,1626153,1629002,1610612756,101108,1629661,203967,1628470,1628975,0022000843,2,870,870,0,3,1610612756
56,1610612758,203084,1627741,1628368,1626153,1629002,1610612756,101108,1629661,203967,1628470,1628975,0022000843,2,872,886,2,0,1610612758
57,1610612758,1626153,1627741,1628368,203084,203090,1610612756,101108,1629661,203967,1628470,1628975,0022000843,2,900,903,0,0,1610612756
58,1610612758,1626153,1627741,1628368,203084,203090,1610612756,101108,1629661,203967,1628470,1628975,0022000843,2,911,911,3,0,1610612758
59,1610612758,1626153,1627741,1628368,203084,203090,1610612756,101108,1629661,203967,1628470,1628975,0022000843,2,933,933,0,2,1610612756
60,1610612758,1626153,1627741,1628368,203084,203090,1610612756,101108,1629661,203967,1628470,1628975,0022000843,2,947,947,3,0,1610612758
61,1610612758,1626153,1627741,1628368,203084,203090,1610612756,101108,1629661,203967,1628470,1628975,0022000843,2,960,960,0,3,1610612756
62,1610612758,1626153,1627741,1628368,203084,203090,1610612756,101108,1629661,203967,1628470,1628975,0022000843,2,968,968,2,0,1610612758
63,1610612758,1626153,1627741,1628368,203084,203090,1610612756,101108,1629661,203967,1628470,1628975,0022000843,2,981,983,0,0,1610612756
64,1610612758,1626153,1627741,1628368,203084,203090,1610612756,101108,1629661,203967,1628470,1628975,0022000843,2,1005,1005,3,0,1610612758
65,1610612758,1626153,1627741,1628368,203084,203090,1610612756,101108,1629661,203967,1628470,1628975,0022000843,2,1017,1017,0,0,1610612756
66,1610612758,1626153,1627741,1628368,203084,203090,1610612756,101108,1628969,1628975,1629661,203967,0022000843,2,1034,1034,2,0,1610612758
67,1610612758,1626153,1627741,1628368,202355,203090,1610612756,101108,1628969,1628975,1629028,203109,0022000843,2,1045,1045,0,2,1610612756
68,1610612758,1626153,1627741,1628368,202355,203090,1610612756,101108,1628969,1628975,1629028,203109,0022000843,2,1060,1060,0,0,1610612758
69,1610612758,1626153,1627741,1628368,202355,203090,1610612756,101108,1628969,1628975,1629028,203109,0022000843,2,1068,1068,0,3,1610612756
70,1610612758,1626153,1627741,1628368,202355,203090,1610612756,101108,1628969,1628975,1629028,203109,0022000843,2,1094,1094,0,0,1610612758
71,1610612758,1626153,1627741,1628368,202355,203090,1610612756,101108,1628969,1628975,1629028,203109,0022000843,2,1109,1113,0,0,1610612756
72,1610612758,1626153,1627741,1628368,202355,203090,1610612756,101108,1628969,1628975,1629028,203109,0022000843,2,1118,1121,0,0,1610612758
73,1610612758,1626153,1627741,1628368,202355,203090,1610612756,101108,1628969,1628975,1629028,203109,0022000843,2,1127,1127,0,2,1610612756
74,1610612758,1626153,1627741,1628368,202355,203090,1610612756,101108,1628969,1628975,1629028,203109,0022000843,2,1139,1162,4,0,1610612758
75,1610612758,1626153,1627741,1628368,202355,203090,1610612756,1626164,1626166,1628969,1629028,203109,0022000843,2,1178,1178,0,2,1610612756
76,1610612758,1626153,1627741,1628368,202355,203090,1610612756,1626164,1626166,1628969,1629028,203109,0022000843,2,1186,1186,3,0,1610612758
77,1610612758,1626153,1627741,1628368,202355,203090,1610612756,1626164,1626166,1628969,1629028,203109,0022000843,2,1211,1214,0,0,1610612756
78,1610612758,1626153,1627741,1628368,202355,203090,1610612756,1626164,1626166,1628969,1629028,203109,0022000843,2,1219,1219,2,0,1610612758
79,1610612758,1626153,1627741,1628368,202355,203090,1610612756,1626164,1626166,1628969,1629028,203109,0022000843,2,1228,1228,0,2,1610612756
80,1610612758,1626153,1627741,1628368,202355,203090,1610612756,1626164,1626166,1628969,1629028,203109,0022000843,2,1229,1261,2,0,1610612758
81,1610612758,1626153,1627741,1628368,202355,203090,1610612756,1626164,1626166,1628969,1629028,203109,0022000843,2,1266,1280,0,2,1610612756
82,1610612758,1626153,1627741,1628368,202355,203084,1610612756,1626164,1626166,1628969,1629028,203109,0022000843,2,1294,1294,1,0,1610612758
83,1610612758,1626153,1627741,1628368,202355,203084,1610612756,1626164,1626166,1628969,1629028,1629661,0022000843,2,1304,1304,0,2,1610612756
84,1610612758,1626153,1627741,1628368,202355,203084,1610612756,1626164,1626166,1628969,1629028,1629661,0022000843,2,1315,1315,2,0,1610612758
85,1610612758,1626153,1627741,1628368,202355,203084,1610612756,1626164,1626166,1628969,1629028,1629661,0022000843,2,1337,1337,0,0,1610612756
86,1610612758,1626153,1627741,1628368,202355,203084,1610612756,1626164,1626166,1628969,1629028,1629661,0022000843,2,1360,1360,3,0,1610612758
87,1610612758,1626153,1627741,1628368,202355,203084,1610612756,1626164,1626166,1628969,1629028,1629661,0022000843,2,1380,1380,0,2,1610612756
88,1610612758,1626153,1627741,1628368,202355,203084,1610612756,1626164,1626166,1628969,1629028,1629661,0022000843,2,1389,1394,0,0,1610612758
89,1610612758,1626153,1627741,1628368,202355,203084,1610612756,1626164,1626166,1628969,1629028,1629661,0022000843,2,1406,1412,0,0,1610612756
90,1610612758,1626153,1627741,1628368,202355,203084,1610612756,101108,1626164,1628969,1629028,1629661,0022000843,2,1434,1438,0,0,1610612758
91,1610612758,1626153,1627741,1628368,202355,203084,1610612756,101108,1626164,1628969,1629028,1629661,0022000843,2,1439,1439,0,0,1610612756
92,1610612758,203084,203090,1627741,1628368,202355,1610612756,1628969,203109,1629028,1626164,101108,0022000843,3,1440,1450,0,2,1610612756
93,1610612758,203084,203090,1627741,1628368,202355,1610612756,1628969,203109,1629028,1626164,101108,0022000843,3,1469,1469,3,0,1610612758
94,1610612758,203084,203090,1627741,1628368,202355,1610612756,1628969,203109,1629028,1626164,101108,0022000843,3,1487,1487,0,2,1610612756
95,1610612758,203084,203090,1627741,1628368,202355,1610612756,1628969,203109,1629028,1626164,101108,0022000843,3,1505,1508,0,0,1610612758
96,1610612758,203084,203090,1627741,1628368,202355,1610612756,1628969,203109,1629028,1626164,101108,0022000843,3,1512,1516,0,0,1610612756
97,1610612758,203084,203090,1627741,1628368,202355,1610612756,1628969,203109,1629028,1626164,101108,0022000843,3,1531,1531,2,0,1610612758
98,1610612758,203084,203090,1627741,1628368,202355,1610612756,1628969,203109,1629028,1626164,101108,0022000843,3,1541,1541,0,2,1610612756
99,1610612758,203084,203090,1627741,1628368,202355,1610612756,1628969,203109,1629028,1626164,101108,0022000843,3,1555,1555,2,0,1610612758
100,1610612758,203084,203090,1627741,1628368,202355,1610612756,1628969,203109,1629028,1626164,101108,0022000843,3,1565,1570,0,2,1610612756
101,1610612758,203084,203090,1627741,1628368,202355,1610612756,1628969,203109,1629028,1626164,101108,0022000843,3,1583,1591,0,0,1610612758
102,1610612758,203084,203090,1627741,1628368,202355,1610612756,1628969,203109,1629028,1626164,101108,0022000843,3,1603,1603,0,0,1610612756
103,1610612758,203084,203090,1627741,1628368,202355,1610612756,1628969,203109,1629028,1626164,101108,0022000843,3,1612,1612,2,0,1610612758
104,1610612758,203084,203090,1627741,1628368,202355,1610612756,1628969,203109,1629028,1626164,101108,0022000843,3,1634,1634,0,2,1610612756
105,1610612758,203084,203090,1627741,1628368,202355,1610612756,1628969,203109,1629028,1626164,101108,0022000843,3,1656,1656,3,0,1610612758
106,1610612758,203084,203090,1627741,1628368,202355,1610612756,1628969,203109,1629028,1626164,101108,0022000843,3,1668,1668,0,3,1610612756
107,1610612758,203084,203090,1627741,1628368,202355,1610612756,1628969,203109,1629028,1626164,101108,0022000843,3,1694,1698,0,0,1610612758
108,1610612758,203084,203090,1627741,1628368,202355,1610612756,1628969,203109,1629028,1626164,101108,0022000843,3,1706,1715,0,2,1610612756
109,1610612758,203084,203090,1627741,1628368,202355,1610612756,1628969,203109,1629028,1626164,101108,0022000843,3,1722,1722,0,0,1610612758
110,1610612758,203084,203090,1627741,1628368,202355,1610612756,1628969,203109,1629028,1626164,101108,0022000843,3,1723,1730,0,2,1610612756
111,1610612758,1627741,1628368,1630169,202355,203090,1610612756,1628969,203109,1629028,1626164,101108,0022000843,3,1749,1749,0,0,1610612758
112,1610612758,1627741,1628368,1630169,202355,203090,1610612756,1628969,203109,1629028,1626164,101108,0022000843,3,1749,1765,0,0,1610612756
113,1610612758,1627741,1628368,1630169,202355,203090,1610612756,1628969,203109,1629028,1626164,101108,0022000843,3,1788,1788,2,0,1610612758
114,1610612758,1627741,1628368,1630169,202355,203090,1610612756,1628969,203109,1629028,1626164,101108,0022000843,3,1807,1807,0,2,1610612756
115,1610612758,1627741,1628368,1630169,202355,203090,1610612756,1628969,203109,1629028,1626164,101108,0022000843,3,1826,1826,0,0,1610612758
116,1610612758,1627741,1628368,1630169,202355,203090,1610612756,1628969,203109,1629028,1626164,101108,0022000843,3,1835,1838,0,0,1610612756
117,1610612758,1627741,1628368,1630169,202355,203090,1610612756,1628969,203109,1629028,1626164,101108,0022000843,3,1847,1847,0,0,1610612758
118,1610612758,1626153,1628368,1630169,202355,203090,1610612756,1626164,1626166,1628969,1629028,203109,0022000843,3,1867,1870,0,0,1610612756
119,1610612758,1626153,1628368,1630169,202355,203090,1610612756,1626164,1626166,1628969,1629028,203109,0022000843,3,1872,1872,3,0,1610612758
120,1610612758,1626153,1628368,1630169,202355,203090,1610612756,1626164,1626166,1628969,1629028,203109,0022000843,3,1890,1895,0,0,1610612756
121,1610612758,1626153,1628368,1630169,202355,203090,1610612756,1626164,1626166,1628969,1629028,203109,0022000843,3,1898,1898,2,0,1610612758
122,1610612758,1626153,1628368,1630169,202355,203090,1610612756,1626164,1626166,1628969,1629028,203109,0022000843,3,1904,1904,0,2,1610612756
123,1610612758,1626153,1628368,1630169,202355,203090,1610612756,1626164,1626166,1628969,1629028,203109,0022000843,3,1906,1927,0,0,1610612758
124,1610612758,1626153,1628368,1629002,1630169,203084,1610612756,1626164,1626166,1628969,1629028,1629661,0022000843,3,1937,1937,0,2,1610612756
125,1610612758,1626153,1628368,1629002,1630169,203084,1610612756,1626164,1626166,1628969,1629028,1629661,0022000843,3,1965,1965,0,0,1610612758
126,1610612758,1626153,1628368,1629002,1630169,203084,1610612756,1626164,1626166,1628969,1629028,1629661,0022000843,3,1976,1976,0,0,1610612756
127,1610612758,1626153,1628368,1629002,1630169,203084,1610612756,1626164,1626166,1628969,1629028,1629661,0022000843,3,1987,1987,2,0,1610612758
128,1610612758,1626153,1628368,1629002,1630169,203084,1610612756,1626164,1626166,1628969,1629028,1629661,0022000843,3,2009,2009,0,0,1610612756
129,1610612758,1626153,1628368,1629002,1630169,203084,1610612756,1626164,1626166,1628969,1629028,1629661,0022000843,3,2013,2013,2,0,1610612758
130,1610612758,1626153,1628368,1629002,1630169,203084,1610612756,1626164,1626166,1628969,1629028,1629661,0022000843,3,2017,2024,0,0,1610612756
131,1610612758,1626153,1629002,1629056,1630169,203084,1610612756,1626166,1628470,1628975,1629661,203967,0022000843,3,2043,2043,2,0,1610612758
132,1610612758,1626153,1629002,1629056,1630169,203084,1610612756,1626166,1628470,1628975,1629661,203967,0022000843,3,2058,2062,0,3,1610612756
133,1610612758,1626153,1629002,1629056,1630169,203084,1610612756,1626166,1628470,1628975,1629661,203967,0022000843,3,2082,2085,0,0,1610612758
134,1610612758,1626153,1629002,1629056,1630169,203084,1610612756,1626166,1628470,1628975,1629661,203967,0022000843,3,2090,2090,0,0,1610612756
135,1610612758,1626153,1629002,1629056,1630169,203084,1610612756,1626166,1628470,1628975,1629661,203967,0022000843,3,2090,2090,0,0,1610612758
136,1610612758,1626153,1629002,1629056,1630169,203084,1610612756,1626166,1628470,1628975,1629661,203967,0022000843,3,2104,2104,0,2,1610612756
137,1610612758,1626153,1629002,1629056,1630169,203084,1610612756,1626166,1628470,1628975,1629661,203967,0022000843,3,2123,2123,2,0,1610612758
138,1610612758,1626153,1629002,1629056,203084,203090,1610612756,1626166,1628470,1628975,1629661,203967,0022000843,3,2135,2146,0,0,1610612756
139,1610612758,1626153,1627741,1629002,1629056,203084,1610612756,1626166,1628470,1628969,1628975,1629661,0022000843,3,2157,2157,2,0,1610612758
140,1610612758,1626153,1627741,1629002,1629056,203084,1610612756,1626166,1628969,1628975,1629661,203967,0022000843,3,2158,2158,0,0,1610612756
141,1610612758,1626153,1627741,1629002,1629056,203084,1610612756,1626166,1628969,1628975,1629661,203967,0022000843,3,2160,2160,0,0,1610612756
142,1610612758,203084,1630169,1626153,1629056,1629002,1610612756,1628969,1626166,1629661,203967,1628975,0022000843,4,2160,2178,2,0,1610612758
143,1610612758,203084,1630169,1626153,1629056,1629002,1610612756,1628969,1626166,1629661,203967,1628975,0022000843,4,2201,2206,0,0,1610612756
144,1610612758,203084,1630169,1626153,1629056,1629002,1610612756,1628969,1626166,1629661,203967,1628975,0022000843,4,2211,2211,0,0,1610612758
145,1610612758,203084,1630169,1626153,1629056,1629002,1610612756,1628969,1626166,1629661,203967,1628975,0022000843,4,2216,2216,0,2,1610612756
146,1610612758,203084,1630169,1626153,1629056,1629002,1610612756,1628969,1626166,1629661,203967,1628975,0022000843,4,2240,2243,0,0,1610612758
147,1610612758,203084,1630169,1626153,1629056,1629002,1610612756,1628969,1626166,1629661,203967,1628975,0022000843,4,2250,2252,0,0,1610612756
148,1610612758,203084,1630169,1626153,1629056,1629002,1610612756,1628969,1626166,1629661,203967,1628975,0022000843,4,2263,2276,0,0,1610612758
149,1610612758,1626153,1628368,1629056,1630169,203084,1610612756,101108,1628470,1628969,1628975,1629661,0022000843,4,2280,2283,0,0,1610612756
150,1610612758,1626153,1628368,1629056,1630169,203084,1610612756,101108,1628470,1628969,1628975,1629661,0022000843,4,2289,2289,3,0,1610612758
151,1610612758,1626153,1628368,1629056,1630169,203084,1610612756,101108,1628470,1628969,1628975,1629661,0022000843,4,2313,2313,0,2,1610612756
152,1610612758,1626153,1628368,1629056,1630169,203084,1610612756,101108,1628470,1628969,1628975,1629661,0022000843,4,2337,2337,0,0,1610612758
153,1610612758,1626153,1628368,1629056,1630169,203084,1610612756,101108,1628470,1628969,1628975,1629661,0022000843,4,2348,2351,0,0,1610612756
154,1610612758,1626153,1628368,1629056,1630169,203084,1610612756,101108,1628470,1628969,1628975,1629661,0022000843,4,2355,2355,0,0,1610612758
155,1610612758,1626153,1628368,1629056,1630169,203084,1610612756,101108,1628470,1628969,1628975,1629661,0022000843,4,2364,2366,0,0,1610612756
156,1610612758,1626153,1628368,1629056,1630169,203084,1610612756,101108,1628470,1628969,1628975,1629661,0022000843,4,2374,2376,0,0,1610612758
157,1610612758,1626153,1628368,1629056,1630169,203084,1610612756,101108,1628470,1628969,1628975,1629661,0022000843,4,2380,2380,0,2,1610612756
158,1610612758,1626153,1628368,1629056,1630169,203084,1610612756,101108,1628470,1628969,1628975,1629661,0022000843,4,2398,2398,0,0,1610612758
159,1610612758,1626153,1628368,1629056,1630169,203084,1610612756,101108,1628470,1628969,1628975,1629661,0022000843,4,2409,2409,0,2,1610612756
160,1610612758,1626153,1628368,1629056,1630169,203084,1610612756,101108,1628470,1628969,1628975,1629661,0022000843,4,2409,2423,0,0,1610612758
161,1610612758,1626153,1627741,1628368,1630169,203084,1610612756,101108,1628470,1628969,1628975,1629661,0022000843,4,2440,2440,0,2,1610612756
162,1610612758,1626153,1627741,1628368,1630169,203084,1610612756,101108,1628470,1628969,1628975,1629661,0022000843,4,2453,2465,1,0,1610612758
163,1610612758,1626153,1627741,1628368,1630169,203084,1610612756,101108,1628470,1628969,1628975,1629661,0022000843,4,2475,2475,0,3,1610612756
164,1610612758,1626153,1627741,1628368,1630169,203084,1610612756,101108,1628470,1628969,1628975,1629661,0022000843,4,2488,2488,2,0,1610612758
165,1610612758,1626153,1627741,1628368,1630169,203084,1610612756,101108,1628470,1628969,1628975,1629661,0022000843,4,2501,2503,0,0,1610612756
166,1610612758,1626153,1627741,1628368,1630169,203084,1610612756,101108,1628470,1628969,1628975,1629661,0022000843,4,2524,2528,0,0,1610612758
167,1610612758,1626153,1627741,1628368,1630169,203084,1610612756,101108,1628470,1628969,1628975,1629661,0022000843,4,2534,2536,0,0,1610612756
168,1610612758,1626153,1627741,1628368,1630169,203084,1610612756,101108,1628470,1628969,1628975,1629661,0022000843,4,2540,2545,2,0,1610612758
169,1610612758,1626153,1627741,1628368,1630169,203084,1610612756,101108,1628470,1628969,1628975,1629661,0022000843,4,2545,2570,0,0,1610612756
170,1610612758,1626153,1627741,1628368,1630169,203084,1610612756,101108,1628470,1628969,1628975,1629661,0022000843,4,2583,2587,0,0,1610612758
171,1610612758,1626153,1627741,1628368,202355,203084,1610612756,101108,1626164,1628470,1628969,1629028,0022000843,4,2597,2602,0,2,1610612756
172,1610612758,1626153,1627741,1628368,202355,203084,1610612756,101108,1626164,1628470,1628969,1629028,0022000843,4,2602,2613,0,0,1610612758
173,1610612758,1627741,1628368,1630169,202355,203084,1610612756,101108,1626164,1628470,1628969,1629028,0022000843,4,2626,2643,0,2,1610612756
174,1610612758,1627741,1628368,1630169,202355,203084,1610612756,101108,1626164,1628470,1628969,1629028,0022000843,4,2647,2659,2,0,1610612758
175,1610612758,1627741,1628368,1630169,202355,203084,1610612756,101108,1626164,1628969,1629028,203109,0022000843,4,2674,2674,0,2,1610612756
176,1610612758,1627741,1628368,1630169,202355,203084,1610612756,101108,1626164,1628969,1629028,203109,0022000843,4,2685,2699,2,0,1610612758
177,1610612758,1627741,1628368,1630169,202355,203084,1610612756,101108,1626164,1628969,1629028,203109,0022000843,4,2722,2722,0,2,1610612756
178,1610612758,1627741,1628368,1630169,202355,203084,1610612756,101108,1626164,1628969,1629028,203109,0022000843,4,2728,2731,1,0,1610612758
179,1610612758,1627741,1628368,1630169,203084,203090,1610612756,101108,1626164,1628969,1629028,203109,0022000843,4,2750,2752,0,2,1610612756
180,1610612758,1627741,1628368,1630169,203084,203090,1610612756,101108,1626164,1628969,1629028,203109,0022000843,4,2767,2769,2,0,1610612758
181,1610612758,1627741,1628368,1630169,203084,203090,1610612756,101108,1626164,1628969,1629028,203109,0022000843,4,2783,2783,0,2,1610612756
182,1610612758,1627741,1628368,1630169,203084,203090,1610612756,101108,1626164,1628969,1629028,203109,0022000843,4,2798,2800,1,0,1610612758
183,1610612758,1627741,1628368,1630169,203084,203090,1610612756,101108,1626164,1628969,1629028,203109,0022000843,4,2818,2822,0,2,1610612756
184,1610612758,1627741,1628368,1630169,203084,203090,1610612756,101108,1626164,1628969,1629028,203109,0022000843,4,2822,2832,0,0,1610612758
185,1610612758,1627741,1628368,1630169,203084,203090,1610612756,101108,1626164,1628969,1629028,203109,0022000843,4,2852,2854,0,0,1610612756
186,1610612758,1627741,1628368,1630169,203084,203090,1610612756,101108,1626164,1628969,1629028,203109,0022000843,4,2857,2857,2,0,1610612758
187,1610612758,1627741,1628368,1630169,203084,203090,1610612756,101108,1626164,1628969,1629028,203109,0022000843,4,2862,2862,0,0,1610612758
