,t1_points_scored,stint_end,t2_pm,t1_players,t2_id,t1_id,t2_players,t2_points_scored,t1_pm,stint_start,margin_per_100,num_poss
0,11,328,10,"[1626224, 201567, 202684, 1629012, 1629636]",1610612761,1610612739,"[1628384, 1627783, 201188, 1626181, 200768]",21,-10,0,-40.0,25.0
1,17,447,10,"[1626224, 201567, 202684, 1629012, 1629636]",1610612761,1610612739,"[1628384, 1627783, 201188, 1626181, 200768]",27,-10,329,-29.411764705882355,34.0
2,17,522,15,"[1626224, 1629012, 201567, 202684, 203521]",1610612761,1610612739,"[1628384, 1627783, 201188, 1626181, 200768]",32,-15,448,-36.58536585365854,41.0
3,19,587,16,"[1626224, 1629012, 201567, 202684, 203521]",1610612761,1610612739,"[1626181, 1627775, 1627783, 1628384, 201188]",35,-16,523,-36.36363636363637,44.0
4,27,717,10,"[1626204, 1629645, 203089, 203521, 203903]",1610612761,1610612739,"[1626181, 1627775, 1627783, 201188, 201586]",37,-10,588,-19.607843137254903,51.0
5,34,905,11,"[1626204, 1629636, 1629645, 203089, 203903]",1610612761,1610612739,"[1626181, 1627775, 1627783, 1628384, 201586]",45,-11,718,-17.46031746031746,63.0
6,37,989,14,"[1629636, 1626204, 203903, 203089, 1629645]",1610612761,1610612739,"[1628384, 200768, 1627775, 201586, 1629056]",51,-14,906,-20.588235294117645,68.0
7,39,1038,12,"[1629636, 1626204, 203903, 203089, 1629645]",1610612761,1610612739,"[1627775, 1628449, 1629056, 200768, 201586]",51,-12,990,-16.666666666666664,72.0
8,39,1084,12,"[1626204, 1629636, 1629645, 202684, 203903]",1610612761,1610612739,"[1627775, 1628449, 1629056, 200768, 201586]",51,-12,1039,-16.216216216216218,74.0
9,41,1122,10,"[1626204, 1629636, 1629645, 202684, 203903]",1610612761,1610612739,"[1626181, 1627775, 1627783, 1628449, 201188]",51,-10,1085,-12.987012987012985,77.0
10,41,1176,16,"[1629636, 1629645, 201567, 202684, 203903]",1610612761,1610612739,"[1626181, 1627775, 1627783, 1628449, 201188]",57,-16,1123,-19.51219512195122,82.0
11,44,1248,16,"[1626224, 1629012, 1629636, 201567, 202684]",1610612761,1610612739,"[1626181, 1627775, 1627783, 1628449, 201188]",60,-16,1177,-18.6046511627907,86.0
12,48,1323,16,"[1626224, 1629012, 1629636, 201567, 202684]",1610612761,1610612739,"[1626181, 1627783, 1628449, 200768, 201188]",64,-16,1249,-17.391304347826086,92.0
13,54,1439,12,"[1626224, 1629012, 1629636, 201567, 202684]",1610612761,1610612739,"[1626181, 1627783, 1628384, 200768, 201188]",66,-12,1324,-11.76470588235294,102.0
14,72,1840,14,"[1626224, 1629012, 201567, 202684, 203903]",1610612761,1610612739,"[1626181, 1627783, 1628384, 200768, 201188]",86,-14,1440,-10.852713178294573,129.0
15,80,2078,15,"[1626224, 201567, 202684, 1629012, 1629636]",1610612761,1610612739,"[1628384, 1627783, 201188, 1626181, 200768]",95,-15,1841,-10.416666666666668,144.0
16,84,2159,20,"[1626224, 1629012, 201567, 202684, 203903]",1610612761,1610612739,"[1628384, 1627783, 201188, 1626181, 200768]",104,-20,2079,-13.422818791946309,149.0
17,89,2236,15,"[1626204, 1629636, 1629645, 203089, 203903]",1610612761,1610612739,"[1626181, 1627775, 1627783, 1629056, 201586]",104,-15,2160,-9.740259740259742,154.0
18,100,2476,14,"[1629636, 1626204, 203903, 203089, 1629645]",1610612761,1610612739,"[1627783, 1626181, 1627775, 201586, 1629056]",114,-14,2237,-8.235294117647058,170.0
19,104,2554,12,"[1629636, 1626204, 203903, 203089, 1629645]",1610612761,1610612739,"[1627775, 1628449, 1629056, 200768, 201586]",116,-12,2477,-6.8181818181818175,176.0
20,109,2767,17,"[1626204, 1629012, 1629636, 1629645, 203089]",1610612761,1610612739,"[1627775, 1628449, 1629056, 200768, 201586]",126,-17,2555,-9.042553191489363,188.0
21,109,2768,18,"[1626204, 1629012, 1629636, 1629645, 202684]",1610612761,1610612739,"[1626181, 1627783, 1629056, 200768, 201586]",127,-18,2768,-9.523809523809524,189.0
22,113,2852,20,"[1626204, 1629012, 1629636, 1629645, 202684]",1610612761,1610612739,"[1626259, 1628449, 1629056, 1629608, 200768]",133,-20,2769,-10.256410256410255,195.0
23,113,9999999,20,"[1626204, 1629012, 1629636, 1629645, 202684]",1610612761,1610612739,"[1626259, 1627775, 1628449, 1629056, 1629608]",133,-20,2853,-10.204081632653061,196.0
