,stint_start,t2_players,t2_pm,t1_points_scored,t1_pm,t1_id,t2_id,t2_points_scored,stint_end,t1_players,margin_per_100,num_poss
0,0,"[1630563, 1628966, 1627751, 1629022, 1627749]",-4,19,4,1610612745,1610612759,15,339,"[201569, 1630256, 1626174, 1629645, 1630224]",16.666666666666664,24.0
1,340,"[1630563, 1628966, 1627751, 1629022, 1627749]",-10,25,10,1610612745,1610612759,15,387,"[201569, 1630256, 1626174, 1629645, 1630224]",35.714285714285715,28.0
2,388,"[1627749, 1627751, 1627854, 1629640, 1630170]",-12,27,12,1610612745,1610612759,15,396,"[201569, 1630256, 1626174, 1629645, 1630224]",41.37931034482759,29.0
3,397,"[1627749, 1627854, 1629111, 1629640, 1630170]",-4,27,4,1610612745,1610612759,23,450,"[1626174, 1629645, 1629726, 1630224, 1630231]",11.76470588235294,34.0
4,451,"[1627749, 1627854, 1629111, 1629640, 1630170]",-7,37,7,1610612745,1610612759,30,634,"[1626174, 1629645, 1629726, 1630231, 201571]",14.583333333333334,48.0
5,635,"[1627854, 1629111, 1629640, 1630170, 1630563]",-9,39,9,1610612745,1610612759,30,655,"[1626174, 1629645, 1629726, 1630231, 201571]",18.367346938775512,49.0
6,656,"[1627854, 1629022, 1629111, 1629640, 1630563]",-3,39,3,1610612745,1610612759,36,714,"[1628464, 1629645, 1629726, 1630231, 201571]",5.769230769230769,52.0
7,715,"[1627854, 1629022, 1629111, 1629640, 1630563]",-2,41,2,1610612745,1610612759,39,817,"[1628464, 1629726, 1630224, 1630231, 201571]",3.278688524590164,61.0
8,818,"[1629022, 1627749, 1627854, 1629111, 1629719]",-5,46,5,1610612745,1610612759,41,913,"[201569, 1630256, 1630224, 1629726, 1628464]",7.575757575757576,66.0
9,914,"[1629022, 1627749, 1627854, 1629111, 1629719]",-7,48,7,1610612745,1610612759,41,923,"[1628464, 1630224, 1630256, 1630528, 201569]",10.44776119402985,67.0
10,924,"[1627749, 1627751, 1629022, 1629719, 1630170]",-5,50,5,1610612745,1610612759,45,1010,"[1628464, 1630224, 1630256, 1630528, 201569]",6.666666666666667,75.0
11,1011,"[1627749, 1627751, 1628966, 1629022, 1630170]",-7,52,7,1610612745,1610612759,45,1044,"[1628464, 1630224, 1630256, 1630528, 201569]",9.090909090909092,77.0
12,1045,"[1627749, 1627751, 1628966, 1629022, 1630170]",-5,52,5,1610612745,1610612759,47,1076,"[1628464, 1629645, 1630256, 1630528, 201569]",6.329113924050633,79.0
13,1077,"[1627749, 1627751, 1627854, 1629640, 1630170]",-7,54,7,1610612745,1610612759,47,1102,"[1628464, 1629645, 1630256, 1630528, 201569]",8.536585365853659,82.0
14,1103,"[1627749, 1627751, 1627854, 1629640, 1630170]",-4,58,4,1610612745,1610612759,54,1256,"[1626174, 1629645, 1630231, 1630528, 201571]",4.301075268817205,93.0
15,1257,"[1627751, 1627854, 1629640, 1630170, 1630563]",-2,58,2,1610612745,1610612759,56,1265,"[1626174, 1629645, 1630231, 1630528, 201571]",2.127659574468085,94.0
16,1266,"[1627749, 1627751, 1627854, 1629640, 1630563]",0,63,0,1610612745,1610612759,63,1393,"[1626174, 1630224, 1630231, 201569, 201571]",0.0,102.0
17,1394,"[1627749, 1627751, 1627854, 1629640, 1630563]",4,63,-4,1610612745,1610612759,67,1439,"[1626174, 1630224, 1630256, 201569, 201571]",-3.7735849056603774,106.0
18,1440,"[1627749, 1627751, 1627854, 1629640, 1630563]",7,72,-7,1610612745,1610612759,79,1719,"[1626174, 1629726, 1630224, 1630256, 201569]",-5.691056910569105,123.0
19,1720,"[1630563, 1628966, 1627751, 1629022, 1627749]",7,72,-7,1610612745,1610612759,79,1750,"[201569, 1630256, 1626174, 1629645, 1630224]",-5.6000000000000005,125.0
20,1751,"[1627749, 1627751, 1627854, 1629022, 1629640]",8,75,-8,1610612745,1610612759,83,1829,"[201569, 1630256, 1626174, 1629645, 1630224]",-6.106870229007633,131.0
21,1830,"[1627749, 1627751, 1627854, 1629022, 1629640]",7,77,-7,1610612745,1610612759,84,1867,"[1626174, 1629645, 1629726, 1630231, 201571]",-5.185185185185185,135.0
22,1868,"[1627749, 1627751, 1627854, 1629640, 1630170]",5,81,-5,1610612745,1610612759,86,1974,"[1626174, 1629645, 1629726, 1630231, 201571]",-3.4965034965034967,143.0
23,1975,"[1627749, 1627854, 1629111, 1629640, 1630170]",5,81,-5,1610612745,1610612759,86,2004,"[1626174, 1629645, 1629726, 1630231, 201571]",-3.4722222222222223,144.0
24,2005,"[1627854, 1629111, 1629640, 1630170, 1630563]",2,84,-2,1610612745,1610612759,86,2103,"[1626174, 1629726, 1630231, 201569, 201571]",-1.3245033112582782,151.0
25,2104,"[1627854, 1629111, 1629640, 1630170, 1630563]",-1,89,1,1610612745,1610612759,88,2156,"[1628464, 1629726, 1630231, 201569, 201571]",0.6451612903225806,155.0
26,2157,"[1627854, 1628966, 1629022, 1629111, 1630170]",-1,91,1,1610612745,1610612759,90,2159,"[1628464, 1629726, 1630224, 1630231, 201569]",0.6369426751592357,157.0
27,2160,"[1628966, 1629022, 1629111, 1630170, 1630563]",-3,93,3,1610612745,1610612759,90,2202,"[1628464, 1629726, 1630224, 1630231, 201569]",1.875,160.0
28,2203,"[1630563, 1628966, 1627751, 1629022, 1627854]",-5,95,5,1610612745,1610612759,90,2226,"[201569, 1630224, 1630231, 1629726, 1628464]",3.1055900621118013,161.0
29,2227,"[1630563, 1628966, 1627751, 1629022, 1627854]",-3,97,3,1610612745,1610612759,94,2329,"[1628464, 1629726, 1630224, 1630256, 201569]",1.7857142857142856,168.0
30,2330,"[1627749, 1627751, 1627854, 1628966, 1629022]",-9,103,9,1610612745,1610612759,94,2438,"[1628464, 1630224, 1630256, 1630528, 201569]",5.202312138728324,173.0
31,2439,"[1627749, 1627751, 1627854, 1629022, 1629640]",-7,103,7,1610612745,1610612759,96,2453,"[1628464, 1630224, 1630256, 1630528, 201571]",4.022988505747127,174.0
32,2454,"[1627749, 1627751, 1628966, 1629022, 1629640]",-5,104,5,1610612745,1610612759,99,2510,"[1628464, 1630224, 1630256, 1630528, 201571]",2.8089887640449436,178.0
33,2511,"[1627749, 1627751, 1628966, 1629640, 1630563]",-4,106,4,1610612745,1610612759,102,2528,"[1628464, 1630224, 1630256, 1630528, 201571]",2.2222222222222223,180.0
34,2529,"[1627749, 1628966, 1629111, 1629640, 1630563]",-12,116,12,1610612745,1610612759,104,2648,"[1628464, 1630224, 1630256, 1630528, 201571]",6.417112299465241,187.0
35,2649,"[1627749, 1628966, 1629111, 1629640, 1630170]",-12,116,12,1610612745,1610612759,104,2673,"[1626174, 1629645, 1630231, 1630528, 201569]",6.382978723404255,188.0
36,2674,"[1627749, 1627854, 1628966, 1629111, 1630170]",-11,118,11,1610612745,1610612759,107,2704,"[1626174, 1629645, 1630231, 1630528, 201569]",5.7591623036649215,191.0
37,2705,"[1627749, 1627751, 1627854, 1628966, 1630170]",-6,119,6,1610612745,1610612759,113,2754,"[1626174, 1629645, 1630231, 1630528, 201569]",3.076923076923077,195.0
38,2755,"[1627749, 1627751, 1627854, 1628966, 1630170]",-4,128,4,1610612745,1610612759,124,2866,"[1626174, 1629645, 1630256, 1630528, 201569]",1.9417475728155338,206.0
39,2867,"[1627749, 1627751, 1627854, 1628966, 1630170]",-4,128,4,1610612745,1610612759,124,2874,"[1626174, 1629645, 1630224, 1630256, 201569]",1.932367149758454,207.0
40,2875,"[1627749, 1627854, 1628966, 1629111, 1630170]",-4,128,4,1610612745,1610612759,124,9999999,"[1626174, 1629645, 1630224, 1630256, 201569]",1.9230769230769231,208.0
