,t1_points_scored,stint_end,t2_pm,t1_players,t2_id,t1_id,t2_players,t2_points_scored,t1_pm,stint_start,margin_per_100,num_poss
0,14,235,-3,"[1628972, 1629060, 1628418, 203078, 202738]",1610612750,1610612764,"[1626203, 203496, 1626157, 1629633, 201952]",11,3,0,16.666666666666664,18.0
1,18,322,-5,"[1628972, 1629060, 1628418, 203078, 202738]",1610612750,1610612764,"[1626203, 203496, 1626157, 1629633, 201952]",13,5,236,18.51851851851852,27.0
2,20,387,-5,"[1628972, 1629060, 1628418, 203078, 202738]",1610612750,1610612764,"[1626157, 1626203, 1629006, 201952, 203496]",15,5,323,15.625,32.0
3,24,448,-4,"[1628972, 1629060, 1628418, 203078, 202738]",1610612750,1610612764,"[1626157, 1626203, 1627774, 1629006, 201952]",20,4,388,10.81081081081081,37.0
4,27,503,-5,"[1628972, 1629021, 1629060, 202738, 203078]",1610612750,1610612764,"[1626203, 1627774, 1629006, 201952, 203943]",22,5,449,12.195121951219512,41.0
5,27,524,-5,"[1628972, 1629021, 202722, 202738, 203078]",1610612750,1610612764,"[1626203, 1627774, 1629006, 1629633, 203943]",22,5,504,11.627906976744185,43.0
6,29,549,-7,"[1628972, 1629021, 202397, 202722, 203078]",1610612750,1610612764,"[1626203, 1627774, 1629006, 1629633, 203943]",22,7,525,15.909090909090908,44.0
7,34,620,-7,"[101139, 1629021, 202397, 202722, 203078]",1610612750,1610612764,"[1627774, 1629006, 1629103, 1629633, 203943]",27,7,550,13.725490196078432,51.0
8,39,719,-9,"[101139, 1629021, 202397, 202722, 203078]",1610612750,1610612764,"[1626157, 1627774, 1629006, 1629103, 1629633]",30,9,621,15.254237288135593,59.0
9,51,929,-10,"[101139, 1629021, 202397, 202722, 203895]",1610612750,1610612764,"[1626157, 1627774, 1629006, 1629103, 1629633]",41,10,720,12.987012987012985,77.0
10,51,998,-4,"[1629021, 202722, 202397, 101139, 203895]",1610612750,1610612764,"[203496, 1626157, 1629633, 1629006, 1627774]",47,4,930,4.938271604938271,81.0
11,55,1056,-6,"[101139, 1628418, 202397, 202722, 203078]",1610612750,1610612764,"[203496, 1626157, 1629633, 1629006, 1627774]",49,6,999,6.896551724137931,87.0
12,60,1134,-6,"[101139, 1628418, 1629060, 202397, 203078]",1610612750,1610612764,"[1626157, 1629006, 1629633, 201952, 203496]",54,6,1057,6.382978723404255,94.0
13,62,1234,-4,"[1628418, 1628972, 1629060, 202738, 203078]",1610612750,1610612764,"[1629006, 1629633, 201952, 203476, 203496]",58,4,1135,3.9215686274509802,102.0
14,76,1439,-3,"[1628418, 1628972, 1629060, 202738, 203078]",1610612750,1610612764,"[1626203, 1627774, 201952, 203476, 203496]",73,3,1235,2.586206896551724,116.0
15,81,1706,3,"[1628418, 1628972, 1629060, 202738, 203078]",1610612750,1610612764,"[1626157, 1626203, 1627774, 201952, 203476]",84,-3,1440,-2.18978102189781,137.0
16,89,1791,-5,"[1628972, 1629060, 1628418, 203078, 202738]",1610612750,1610612764,"[1626203, 203496, 1626157, 1629633, 201952]",84,5,1707,3.4722222222222223,144.0
17,93,1896,-7,"[1628972, 1629060, 1628418, 203078, 202738]",1610612750,1610612764,"[1626157, 1626203, 1629006, 201952, 203496]",86,7,1792,4.666666666666667,150.0
18,95,1955,-8,"[1628972, 1629060, 1628418, 203078, 202738]",1610612750,1610612764,"[1626157, 1627774, 1629006, 201952, 203496]",87,8,1897,5.194805194805195,154.0
19,95,1972,-6,"[1628972, 1629021, 1629060, 202738, 203078]",1610612750,1610612764,"[1626157, 1627774, 1629006, 1629633, 203496]",89,6,1956,3.870967741935484,155.0
20,98,1997,-9,"[1629021, 1629060, 202722, 202738, 203078]",1610612750,1610612764,"[1626203, 1627774, 1629006, 1629633, 203476]",89,9,1973,5.7324840764331215,157.0
21,98,2058,-9,"[1629021, 1629060, 202397, 202722, 203078]",1610612750,1610612764,"[1626203, 1627774, 1629006, 1629633, 203476]",89,9,1998,5.625,160.0
22,98,2125,-6,"[1629021, 1629060, 202397, 202722, 203078]",1610612750,1610612764,"[1627774, 1629006, 1629633, 203476, 203943]",92,6,2059,3.6585365853658534,164.0
23,100,2157,-8,"[101139, 1629021, 202397, 202722, 203895]",1610612750,1610612764,"[1627774, 1629006, 1629633, 203476, 203943]",92,8,2126,4.790419161676647,167.0
24,107,2240,-13,"[101139, 1629021, 202722, 203078, 203895]",1610612750,1610612764,"[1626157, 1627774, 1629006, 1629633, 203476]",94,13,2158,7.514450867052023,173.0
25,109,2365,-10,"[203078, 1629021, 202722, 202397, 203895]",1610612750,1610612764,"[1629633, 1629006, 1627774, 1629103, 203476]",99,10,2241,5.46448087431694,183.0
26,113,2437,-8,"[101139, 1629021, 202397, 202722, 203895]",1610612750,1610612764,"[1626157, 1627774, 1629006, 1629103, 201952]",105,8,2366,4.27807486631016,187.0
27,113,2481,-8,"[1629021, 202397, 202722, 203078, 203895]",1610612750,1610612764,"[1626157, 1629006, 1629103, 201952, 203496]",105,8,2438,4.18848167539267,191.0
28,124,2595,-17,"[1629021, 202397, 202722, 203078, 203895]",1610612750,1610612764,"[1626157, 1626203, 1629103, 201952, 203496]",107,17,2482,8.415841584158416,202.0
29,126,2617,-17,"[1629021, 202397, 202722, 203078, 203895]",1610612750,1610612764,"[1626157, 1626203, 1627774, 201952, 203496]",109,17,2596,8.333333333333332,204.0
30,128,2716,-18,"[1629021, 202397, 202722, 203078, 203895]",1610612750,1610612764,"[1628395, 1628966, 1629633, 203496, 203943]",110,18,2618,8.61244019138756,209.0
31,137,2879,-21,"[1629021, 202397, 202722, 203078, 203895]",1610612750,1610612764,"[1628395, 1628966, 1629103, 1629633, 203943]",116,21,2717,9.545454545454547,220.0
32,137,9999999,-21,"[1628972, 1629021, 1629067, 202722, 203895]",1610612750,1610612764,"[1628395, 1628966, 1629103, 1629633, 203943]",116,21,2880,9.502262443438914,221.0
