,t2_pm,stint_end,t1_points_scored,t1_players,stint_start,t2_players,t1_id,t2_id,t2_points_scored,t1_pm,margin_per_100,num_poss
0,9,379,8,"[203932, 201145, 203999, 203115, 1628420]",0,"[203952, 1627780, 1626172, 202691, 201939]",1610612743,1610612744,17,-9,-31.03448275862069,29.0
1,4,459,13,"[203932, 201145, 203999, 203115, 1628420]",380,"[203952, 1627780, 1626172, 202691, 201939]",1610612743,1610612744,17,-4,-11.428571428571429,35.0
2,4,483,16,"[1627854, 1628420, 203085, 203932, 203999]",460,"[1626172, 1629673, 1630228, 201939, 203952]",1610612743,1610612744,20,-4,-10.81081081081081,37.0
3,6,550,18,"[1627854, 1628420, 203085, 203932, 203999]",484,"[1629673, 1630228, 201939, 202357, 203952]",1610612743,1610612744,24,-6,-15.0,40.0
4,4,572,20,"[1627854, 1630538, 203085, 203932, 203999]",551,"[1629673, 1630228, 202357, 202691, 203952]",1610612743,1610612744,24,-4,-9.75609756097561,41.0
5,10,719,23,"[1627854, 1630538, 203085, 203210, 203999]",573,"[1629673, 1630228, 202357, 202691, 203952]",1610612743,1610612744,33,-10,-19.230769230769234,52.0
6,5,972,41,"[1627854, 1630538, 202326, 203085, 203210]",720,"[1629673, 1630228, 202357, 202691, 203490]",1610612743,1610612744,46,-5,-7.352941176470589,68.0
7,7,989,41,"[203085, 1627854, 1630538, 203210, 202326]",973,"[201939, 1629673, 1630228, 202357, 203490]",1610612743,1610612744,48,-7,-10.0,70.0
8,9,1041,41,"[203085, 1627854, 1630538, 203210, 202326]",990,"[1627780, 1629673, 1630228, 201939, 202357]",1610612743,1610612744,50,-9,-12.162162162162163,74.0
9,9,1053,41,"[1627854, 1630538, 203085, 203210, 203999]",1042,"[1627780, 1629673, 1630228, 201939, 203952]",1610612743,1610612744,50,-9,-12.0,75.0
10,11,1100,43,"[1627854, 1628420, 203085, 203115, 203999]",1054,"[1627780, 1629673, 1630228, 201939, 203952]",1610612743,1610612744,54,-11,-14.102564102564102,78.0
11,10,1164,44,"[1627854, 1628420, 203115, 203932, 203999]",1101,"[1627780, 1629673, 1630228, 201939, 203952]",1610612743,1610612744,54,-10,-12.195121951219512,82.0
12,12,1222,46,"[1627854, 1628420, 203115, 203932, 203999]",1165,"[1627780, 1629673, 1630228, 203490, 203952]",1610612743,1610612744,58,-12,-13.953488372093023,86.0
13,14,1266,46,"[1628420, 201145, 203115, 203932, 203999]",1223,"[1627780, 1629673, 1630228, 203490, 203952]",1610612743,1610612744,60,-14,-15.909090909090908,88.0
14,10,1356,52,"[1628420, 201145, 203115, 203932, 203999]",1267,"[1627780, 201939, 202691, 203490, 203952]",1610612743,1610612744,62,-10,-10.638297872340425,94.0
15,8,1415,54,"[1628420, 201145, 203115, 203932, 203999]",1357,"[1626172, 1627780, 201939, 202691, 203952]",1610612743,1610612744,62,-8,-8.080808080808081,99.0
16,9,1439,54,"[1628420, 201145, 203115, 203932, 203999]",1416,"[1626172, 201939, 202691, 203490, 203952]",1610612743,1610612744,63,-9,-8.823529411764707,102.0
17,13,1898,66,"[1627854, 1628420, 203115, 203932, 203999]",1440,"[1626172, 201939, 202691, 203490, 203952]",1610612743,1610612744,79,-13,-9.701492537313433,134.0
18,11,1954,70,"[203932, 201145, 203999, 203115, 1628420]",1899,"[203952, 1627780, 1626172, 202691, 201939]",1610612743,1610612744,81,-11,-7.971014492753622,138.0
19,9,2055,74,"[1627854, 1628420, 203085, 203210, 203999]",1955,"[1629673, 1630228, 201939, 202357, 203952]",1610612743,1610612744,83,-9,-6.206896551724138,145.0
20,11,2105,74,"[1627854, 1630538, 203085, 203210, 203999]",2056,"[1629673, 1630228, 201939, 202357, 203952]",1610612743,1610612744,85,-11,-7.38255033557047,149.0
21,7,2158,78,"[1627854, 1630538, 202326, 203085, 203210]",2106,"[1629673, 1630228, 202357, 202691, 203490]",1610612743,1610612744,85,-7,-4.516129032258064,155.0
22,6,2297,85,"[1627854, 1630538, 202326, 203085, 203210]",2159,"[1627780, 1629673, 202357, 202691, 203490]",1610612743,1610612744,91,-6,-3.7037037037037033,162.0
23,6,2324,85,"[203085, 1627854, 1630538, 203210, 202326]",2298,"[201939, 1629673, 1630228, 202357, 203490]",1610612743,1610612744,91,-6,-3.6809815950920246,163.0
24,7,2341,85,"[203085, 1627854, 1630538, 203210, 202326]",2325,"[1627780, 1630228, 201939, 202357, 203490]",1610612743,1610612744,92,-7,-4.2682926829268295,164.0
25,8,2387,86,"[203085, 1627854, 1630538, 203210, 202326]",2342,"[1626172, 1627780, 1630228, 201939, 203490]",1610612743,1610612744,94,-8,-4.790419161676647,167.0
26,10,2407,86,"[203085, 1627854, 1630538, 203210, 202326]",2388,"[1626172, 1627780, 201939, 203490, 203952]",1610612743,1610612744,96,-10,-5.952380952380952,168.0
27,10,2433,86,"[1627854, 1628420, 202326, 203085, 203210]",2408,"[1626172, 1627780, 1629673, 203490, 203952]",1610612743,1610612744,96,-10,-5.88235294117647,170.0
28,10,2460,88,"[1627854, 1628420, 202326, 203085, 203210]",2434,"[1626172, 1627780, 1629673, 202691, 203952]",1610612743,1610612744,98,-10,-5.813953488372093,172.0
29,7,2529,94,"[1627854, 1628420, 203085, 203210, 203999]",2461,"[1626172, 1627780, 1629673, 202691, 203952]",1610612743,1610612744,101,-7,-3.977272727272727,176.0
30,5,2819,108,"[1627854, 1628420, 203085, 203932, 203999]",2530,"[1626172, 1627780, 201939, 202691, 203952]",1610612743,1610612744,113,-5,-2.5510204081632653,196.0
31,3,2834,110,"[1627854, 1628420, 203085, 203932, 203999]",2820,"[1626172, 201939, 202691, 203490, 203952]",1610612743,1610612744,113,-3,-1.5151515151515151,198.0
32,1,2865,112,"[1627854, 1628420, 203085, 203210, 203932]",2835,"[1629673, 201939, 202691, 203490, 203952]",1610612743,1610612744,113,-1,-0.5,200.0
33,-1,2874,114,"[1627854, 1628420, 203085, 203932, 203999]",2866,"[1626172, 201939, 202691, 203490, 203952]",1610612743,1610612744,113,1,0.4975124378109453,201.0
34,2,2879,114,"[1628420, 203085, 203210, 203932, 203999]",2875,"[1627780, 201939, 202691, 203490, 203952]",1610612743,1610612744,116,-2,-0.9900990099009901,202.0
35,-1,9999999,117,"[1627854, 1628420, 203085, 203932, 203999]",2880,"[1626172, 201939, 202691, 203490, 203952]",1610612743,1610612744,116,1,0.49019607843137253,204.0
