,stint_end,t1_players,t2_pm,t2_points_scored,stint_start,t1_pm,t1_points_scored,t2_id,t1_id,t2_players,margin_per_100,num_poss
0,304,"[1626224, 1626204, 203083, 1630171, 1628422]",-3,5,0,3,8,1610612763,1610612739,"[203937, 1629634, 202685, 1628415, 1626145]",15.0,20.0
1,360,"[1626224, 1626204, 203083, 1630171, 1628422]",-4,7,305,4,11,1610612763,1610612739,"[203937, 1629634, 202685, 1628415, 1626145]",17.391304347826086,23.0
2,408,"[1626204, 1626224, 1630171, 1630205, 203083]",-4,9,361,4,13,1610612763,1610612739,"[1626145, 1629634, 1630217, 202685, 203937]",15.384615384615385,26.0
3,510,"[1626204, 1626224, 1630171, 1630205, 203083]",1,16,409,-1,15,1610612763,1610612739,"[1629001, 1630214, 1630217, 202685, 203937]",-3.125,32.0
4,595,"[1626224, 1629731, 1630171, 1630205, 203083]",6,21,511,-6,15,1610612763,1610612739,"[1629001, 1630214, 1630217, 202685, 203937]",-15.789473684210526,38.0
5,716,"[1626224, 1628422, 1629731, 1630205, 201580]",5,24,596,-5,19,1610612763,1610612739,"[1628960, 1629001, 1630214, 1630217, 203476]",-10.869565217391305,46.0
6,822,"[1626204, 1628422, 1629731, 1630205, 201580]",0,27,717,0,27,1610612763,1610612739,"[1628960, 1629001, 1630214, 1630217, 203476]",0.0,53.0
7,895,"[1626204, 203083, 1628422, 1629731, 201580]",4,31,823,-4,27,1610612763,1610612739,"[1628415, 1626145, 1630214, 1628960, 203476]",-6.896551724137931,58.0
8,991,"[1626204, 1628422, 1630171, 201580, 203083]",-2,33,896,2,35,1610612763,1610612739,"[1626145, 1628415, 1628960, 1629634, 203476]",3.076923076923077,65.0
9,1040,"[1626204, 1626224, 1630171, 201580, 203083]",-2,33,992,2,35,1610612763,1610612739,"[1626145, 1628415, 1628960, 1629634, 203476]",2.9850746268656714,67.0
10,1132,"[1626204, 1626224, 1630171, 1630205, 203083]",0,35,1041,0,35,1610612763,1610612739,"[1626145, 1629634, 1630217, 202685, 203937]",0.0,74.0
11,1219,"[1626204, 1626224, 1630171, 1630205, 203083]",3,39,1133,-3,36,1610612763,1610612739,"[1629001, 1629634, 1630217, 202685, 203937]",-3.75,80.0
12,1274,"[1627748, 1628422, 1630171, 1630205, 203083]",2,41,1220,-2,39,1610612763,1610612739,"[1629001, 1629634, 1630217, 202685, 203937]",-2.3529411764705883,85.0
13,1434,"[1626224, 1627748, 1628422, 1630171, 201580]",-3,45,1275,3,48,1610612763,1610612739,"[1629001, 1629634, 1630217, 202685, 203937]",3.125,96.0
14,1715,"[1626224, 1627748, 1628422, 1630171, 201580]",2,59,1435,-2,57,1610612763,1610612739,"[1628415, 1629001, 1630214, 1630217, 202685]",-1.7543859649122806,114.0
15,1802,"[1626224, 1626204, 203083, 1630171, 1628422]",2,62,1716,-2,60,1610612763,1610612739,"[203937, 1629634, 202685, 1628415, 1626145]",-1.680672268907563,119.0
16,1864,"[1626204, 1626224, 1630171, 1630205, 203083]",2,62,1803,-2,60,1610612763,1610612739,"[1626145, 1628415, 1629634, 203476, 203937]",-1.6260162601626018,123.0
17,1891,"[1626204, 1626224, 1630171, 1630205, 203083]",2,62,1865,-2,60,1610612763,1610612739,"[1628415, 1629001, 1629634, 1630217, 203476]",-1.6129032258064515,124.0
18,1923,"[1626204, 1626224, 1630171, 1630205, 203083]",2,62,1892,-2,60,1610612763,1610612739,"[1628415, 1629001, 1630214, 1630217, 203476]",-1.574803149606299,127.0
19,1949,"[1626204, 1628422, 1630171, 1630205, 203083]",4,64,1924,-4,60,1610612763,1610612739,"[1628415, 1629001, 1630214, 1630217, 203476]",-3.125,128.0
20,2003,"[1626204, 1628422, 1630171, 1630205, 203083]",2,64,1950,-2,62,1610612763,1610612739,"[1628960, 1629001, 1630214, 1630217, 203476]",-1.5037593984962405,133.0
21,2158,"[1626204, 1626224, 1628422, 1630205, 201580]",0,69,2004,0,69,1610612763,1610612739,"[1628960, 1629001, 1630214, 1630217, 203476]",0.0,142.0
22,2288,"[1626224, 1628422, 1629731, 1630205, 201580]",-1,72,2159,1,73,1610612763,1610612739,"[1628960, 1629001, 1630214, 1630217, 203476]",0.6666666666666667,150.0
23,2353,"[1626224, 203083, 1630171, 1628422, 201580]",1,76,2289,-1,75,1610612763,1610612739,"[203937, 1629634, 202685, 1626145, 1628960]",-0.6535947712418301,153.0
24,2424,"[1626204, 1626224, 1628422, 1630171, 203083]",2,81,2354,-2,79,1610612763,1610612739,"[203937, 1629634, 202685, 1626145, 1628960]",-1.2658227848101267,158.0
25,2493,"[1626204, 1626224, 1630171, 1630205, 203083]",4,83,2425,-4,79,1610612763,1610612739,"[1626145, 1628960, 1629634, 1630214, 203937]",-2.484472049689441,161.0
26,2631,"[1626204, 1626224, 1630171, 1630205, 203083]",2,88,2494,-2,86,1610612763,1610612739,"[1626145, 1628415, 1629634, 1630214, 203937]",-1.183431952662722,169.0
27,2656,"[1626204, 1628422, 1629731, 1630171, 203083]",2,88,2632,-2,86,1610612763,1610612739,"[1628415, 1629001, 1630214, 1630217, 203476]",-1.1695906432748537,171.0
28,2682,"[1626204, 1628422, 1629731, 1630171, 203083]",0,88,2657,0,88,1610612763,1610612739,"[1628415, 1629001, 1629634, 1630217, 203476]",0.0,172.0
29,2869,"[1626204, 1626224, 1628422, 1630171, 203083]",-3,90,2683,3,93,1610612763,1610612739,"[1626145, 1628415, 1629634, 1630217, 202685]",1.639344262295082,183.0
30,2879,"[1626204, 1626224, 1628422, 1630171, 203083]",-5,90,2870,5,95,1610612763,1610612739,"[1626145, 1628415, 1629634, 202685, 203937]",2.7027027027027026,185.0
31,9999999,"[1626204, 1626224, 1628422, 1630171, 203083]",-6,90,2880,6,96,1610612763,1610612739,"[1626145, 1628415, 1630217, 202685, 203937]",3.2085561497326207,187.0
