,TEAM_ID_1,TEAM_1_PLAYERS,TEAM_ID_2,TEAM_2_PLAYERS,PERIOD
0,1610612755,[ 201980  202699    2730 1630178 1627732],1610612763,[ 203937 1629634  202685 1628415 1629630],1
1,1610612755,[1627732 1629003 1628396 1629680 1630198],1610612763,[ 203937  202685 1628415 1629630 1630217],2
2,1610612755,[ 201980  202699    2730 1630178 1627732],1610612763,[ 203937 1629634  202685 1628415 1629630],3
3,1610612755,[ 201980 1629003 1628396 1629680 1630198],1610612763,[ 203937  202685 1629630 1628960 1630217],4
