,stint_end,t1_players,t2_pm,t2_points_scored,stint_start,t1_pm,t1_points_scored,t2_id,t1_id,t2_players,margin_per_100,num_poss
0,313,"[1629652, 1629647, 1629676, 1628983, 201588]",9,16,0,-9,7,1610612746,1610612760,"[202695, 201587, 201586, 202331, 201976]",-39.130434782608695,23.0
1,439,"[1629652, 1629647, 1629676, 1628983, 201588]",10,21,314,-10,11,1610612746,1610612760,"[202695, 201587, 201586, 202331, 201976]",-30.303030303030305,33.0
2,503,"[1629652, 1629647, 1629676, 1628983, 201588]",14,25,440,-14,11,1610612746,1610612760,"[1628379, 201586, 201587, 202331, 202695]",-37.83783783783784,37.0
3,569,"[1628977, 1628983, 1629652, 1630177, 203488]",14,29,504,-14,15,1610612746,1610612760,"[1628379, 201586, 201587, 202331, 202695]",-32.55813953488372,43.0
4,608,"[1628977, 1628983, 1629652, 1630177, 203488]",14,29,570,-14,15,1610612746,1610612760,"[1627826, 1628379, 201587, 201976, 202695]",-29.78723404255319,47.0
5,719,"[1628977, 1629026, 1630177, 1630197, 203488]",17,36,609,-17,19,1610612746,1610612760,"[1627826, 1628379, 201587, 201976, 202695]",-30.909090909090907,55.0
6,816,"[1628977, 1629026, 1630177, 1630197, 203488]",12,36,720,-12,24,1610612746,1610612760,"[101150, 1627826, 1628379, 202335, 202695]",-19.672131147540984,61.0
7,1000,"[1628977, 1630177, 203488, 1630197, 1629026]",11,40,817,-11,29,1610612746,1610612760,"[202331, 1628379, 1627826, 101150, 202335]",-14.864864864864865,74.0
8,1040,"[1628977, 1630177, 203488, 1630197, 1629026]",11,40,1001,-11,29,1610612746,1610612760,"[101150, 1627826, 1629611, 202331, 202335]",-14.102564102564102,78.0
9,1218,"[1628977, 1630177, 203488, 1630197, 1629026]",11,46,1041,-11,35,1610612746,1610612760,"[101150, 1627826, 1629611, 201587, 202331]",-12.222222222222221,90.0
10,1336,"[1628983, 1629647, 1629652, 1629676, 201588]",11,50,1219,-11,39,1610612746,1610612760,"[201586, 201587, 201976, 202331, 202695]",-11.34020618556701,97.0
11,1371,"[1628983, 1629647, 1629652, 1629676, 201588]",12,53,1337,-12,41,1610612746,1610612760,"[1628379, 201586, 201587, 201976, 202695]",-12.0,100.0
12,1439,"[1628983, 1629647, 1629652, 1629676, 201588]",11,56,1372,-11,45,1610612746,1610612760,"[1628379, 201586, 201587, 202331, 202695]",-10.476190476190476,105.0
13,1865,"[1628983, 1629647, 1629652, 201588, 203488]",7,72,1440,-7,65,1610612746,1610612760,"[1628379, 201587, 201976, 202331, 202695]",-5.303030303030303,132.0
14,1959,"[1629652, 1629647, 1629676, 1628983, 201588]",8,75,1866,-8,67,1610612746,1610612760,"[202695, 201587, 201586, 202331, 202704]",-5.839416058394161,137.0
15,2077,"[1629652, 1629647, 1629676, 1628983, 201588]",12,81,1960,-12,69,1610612746,1610612760,"[1628379, 201586, 201587, 202695, 202704]",-8.333333333333332,144.0
16,2159,"[1628977, 1628983, 1630177, 1630197, 203488]",10,83,2078,-10,73,1610612746,1610612760,"[1627826, 1628379, 201587, 202695, 202704]",-6.622516556291391,151.0
17,2334,"[1628977, 1628983, 1630177, 1630197, 203488]",13,94,2160,-13,81,1610612746,1610612760,"[101150, 1627826, 1628379, 201587, 202695]",-8.024691358024691,162.0
18,2348,"[1628977, 1630177, 203488, 1630197, 1629026]",13,94,2335,-13,81,1610612746,1610612760,"[202331, 1628379, 1627826, 101150, 202335]",-7.926829268292683,164.0
19,2499,"[1628977, 1630177, 203488, 1630197, 1629026]",11,94,2349,-11,83,1610612746,1610612760,"[101150, 1627826, 202331, 202335, 202704]",-6.321839080459771,174.0
20,2608,"[1628977, 1628983, 1629026, 1630197, 203488]",17,100,2500,-17,83,1610612746,1610612760,"[101150, 1627826, 202331, 202335, 202704]",-9.444444444444445,180.0
21,2733,"[1628983, 1629647, 1629652, 1629676, 201588]",11,102,2609,-11,91,1610612746,1610612760,"[1627826, 201587, 202331, 202695, 202704]",-5.9459459459459465,185.0
22,2837,"[1628983, 1629647, 1629652, 1629676, 201588]",6,102,2734,-6,96,1610612746,1610612760,"[1627826, 1628379, 201587, 202695, 202704]",-3.1413612565445024,191.0
23,2843,"[1628983, 1629647, 1629652, 201588, 203488]",8,104,2838,-8,96,1610612746,1610612760,"[1627826, 1628379, 201587, 202695, 202704]",-4.166666666666666,192.0
24,2872,"[1628977, 1628983, 1629647, 1629652, 203488]",8,108,2844,-8,100,1610612746,1610612760,"[1628379, 1629611, 201587, 202695, 202704]",-4.081632653061225,196.0
25,9999999,"[1628977, 1629647, 1629676, 1630177, 1630197]",8,108,2873,-8,100,1610612746,1610612760,"[1628379, 1629599, 1629611, 201587, 202704]",-4.060913705583756,197.0
