,stint_end,t2_points_scored,t1_id,t2_id,t2_pm,t1_players,t2_players,t1_points_scored,t1_pm,stint_start,margin_per_100,num_poss
0,331,14,1610612742,1610612763,6,"[1627827, 1628467, 203939, 1628973, 1629029]","[1630533, 1629634, 1628991, 1630217, 1629630]",8,-6,0,-25.0,24.0
1,430,18,1610612742,1610612763,5,"[1627827, 1628467, 203939, 1628973, 1629029]","[1630533, 1629634, 1628991, 1630217, 1629630]",13,-5,332,-16.666666666666664,30.0
2,540,25,1610612742,1610612763,9,"[1627827, 1628467, 203939, 1628973, 1629029]","[1629630, 1629723, 1630533, 203500, 203937]",16,-9,431,-23.076923076923077,39.0
3,640,27,1610612742,1610612763,6,"[1627737, 1627827, 1628973, 1629029, 203501]","[1629630, 1629723, 1630533, 203500, 203937]",21,-6,541,-13.333333333333334,45.0
4,713,29,1610612742,1610612763,4,"[1627737, 1627827, 1628973, 203493, 203501]","[1626145, 1629001, 1629723, 203500, 203937]",25,-4,641,-8.16326530612245,49.0
5,801,31,1610612742,1610612763,3,"[1627737, 1629029, 1630182, 203493, 203501]","[1626145, 1628991, 1629001, 1630217, 203937]",28,-3,714,-5.454545454545454,55.0
6,896,35,1610612742,1610612763,3,"[1629029, 203501, 1627737, 203493, 1630182]","[1629634, 1628991, 1630217, 1626145, 1629001]",32,-3,802,-4.838709677419355,62.0
7,980,37,1610612742,1610612763,0,"[1629029, 1630182, 203493, 203501, 203939]","[1629634, 1628991, 1630217, 1626145, 1629001]",37,0,897,0.0,67.0
8,1032,37,1610612742,1610612763,0,"[1629029, 1630182, 203493, 203501, 203939]","[1626145, 1628991, 1629634, 1630217, 1630533]",37,0,981,0.0,70.0
9,1056,39,1610612742,1610612763,2,"[1629029, 1630182, 203493, 203501, 203939]","[1628991, 1629630, 1629634, 1630217, 1630533]",37,-2,1033,-2.8169014084507045,71.0
10,1227,42,1610612742,1610612763,1,"[1627827, 1628425, 1628467, 1628973, 203939]","[1629630, 1629634, 1629723, 1630533, 203500]",41,-1,1057,-1.25,80.0
11,1306,46,1610612742,1610612763,0,"[1627827, 1628425, 1628467, 1628973, 203939]","[1629630, 1629723, 1630533, 203500, 203937]",46,0,1228,0.0,86.0
12,1393,49,1610612742,1610612763,3,"[1627827, 1628467, 1628973, 203501, 203939]","[1629630, 1629723, 1630533, 203500, 203937]",46,-3,1307,-3.260869565217391,92.0
13,1439,55,1610612742,1610612763,5,"[1627827, 1628973, 1629029, 203501, 203939]","[1626145, 1628991, 1629630, 1630217, 203937]",50,-5,1394,-5.154639175257731,97.0
14,1788,64,1610612742,1610612763,-1,"[1627827, 1628973, 1629029, 203501, 203939]","[1626145, 1629630, 1629634, 1630217, 203937]",65,1,1440,0.8064516129032258,124.0
15,1941,66,1610612742,1610612763,-5,"[1627827, 1628467, 203939, 1628973, 1629029]","[1630533, 1629634, 1628991, 1630217, 1629630]",71,5,1789,3.731343283582089,134.0
16,2031,70,1610612742,1610612763,-5,"[1627737, 1627827, 1628973, 203493, 203501]","[1629001, 1629630, 1630533, 203500, 203937]",75,5,1942,3.597122302158273,139.0
17,2052,70,1610612742,1610612763,-7,"[1627737, 1627827, 1628973, 203493, 203501]","[1629001, 1629630, 1629723, 203500, 203937]",77,7,2032,4.964539007092199,141.0
18,2152,73,1610612742,1610612763,-11,"[1627737, 1628467, 1629029, 203493, 203501]","[1626145, 1629001, 1629723, 203500, 203937]",84,11,2053,7.4324324324324325,148.0
19,2282,73,1610612742,1610612763,-18,"[1627737, 1628467, 1629029, 203493, 203501]","[1626145, 1629723, 1630217, 203500, 203937]",91,18,2153,11.538461538461538,156.0
20,2397,77,1610612742,1610612763,-16,"[1628467, 203939, 1629029, 203501, 203493]","[1629634, 1628991, 1630217, 1629723, 1626145]",93,16,2283,9.937888198757763,161.0
21,2521,79,1610612742,1610612763,-18,"[1628467, 203939, 1629029, 203501, 203493]","[1628991, 1629630, 1630217, 1630533, 203500]",97,18,2398,10.650887573964498,169.0
22,2583,79,1610612742,1610612763,-22,"[1627827, 1628973, 1629029, 203501, 203939]","[1628991, 1629630, 1630217, 1630533, 203500]",101,22,2522,12.716763005780345,173.0
23,2685,79,1610612742,1610612763,-27,"[1627827, 1628467, 1628973, 203493, 203939]","[1628991, 1629630, 1630217, 1630533, 203500]",106,27,2584,15.0,180.0
24,2862,85,1610612742,1610612763,-27,"[1627827, 1628467, 1628973, 203493, 203939]","[1629633, 1629723, 1629751, 1630214, 1630583]",112,27,2686,13.846153846153847,195.0
25,9999999,85,1610612742,1610612763,-27,"[1627737, 1628373, 1628425, 1630182, 203504]","[1629633, 1629723, 1629751, 1630214, 1630583]",112,27,2863,13.77551020408163,196.0
