,TEAM_ID_1,TEAM_1_PLAYERS,TEAM_ID_2,TEAM_2_PLAYERS,PERIOD
0,1610612743,[1629008  203932  203999  203085 1630267],1610612766,[1629667 1629023  202687 1626179 1630163],1
1,1610612743,[1628420  203210  200794 1627885 1628427],1610612766,[1629667 1630163  203469 1628984 1628370],2
2,1610612743,[1629008  203932  203999  203085 1630267],1610612766,[1629667 1629023  202687 1626179 1630163],3
3,1610612743,[1629008 1630267  203210  200794 1627885],1610612766,[1629667 1629023 1630163 1628984 1628370],4
