,TEAM_ID_1,TEAM_1_PLAYERS,TEAM_ID_2,TEAM_2_PLAYERS,PERIOD
0,1610612758,[ 203084  202357 1626158 1627741  202709],1610612759,[ 201942  200746  200752 1627854 1628401],1
1,1610612758,[ 202357 1627741    2772 1627812  203473],1610612759,[ 201988 1627749 1626168 1627751 1629022],2
2,1610612758,[ 203084  202357 1626158 1627741  202709],1610612759,[ 201942  200746  200752 1627854 1628401],3
3,1610612758,[ 203084 1626158  203992    2772 1627812],1610612759,[ 201988 1627749 1626168 1627751 1629022],4
4,1610612758,[ 203084 1626158 1627741  202709    2772],1610612759,[ 201942  200746  201988 1627749  201158],5
