,TEAM_ID_1,TEAM_1_PLAYERS,TEAM_ID_2,TEAM_2_PLAYERS,PERIOD
0,1610612751,[1627752  201145 1628386 1628971 1627747],1610612763,[ 203937 1629634  202685 1628415 1626145],1
1,1610612751,[1627789  203925 1629013  201599 1629185],1610612763,[ 203937  202685 1628960 1629001  204025],2
2,1610612751,[1627752  201145 1628386 1628971 1627747],1610612763,[ 203937 1629634 1628415 1626145  203476],3
3,1610612751,[1628971 1627789  203925 1629013  201599],1610612763,[1629634 1628415 1628960  204025  203476],4
