,t1_pm,t2_pm,stint_start,t2_points_scored,t2_players,t2_id,t1_id,t1_players,stint_end,t1_points_scored,margin_per_100,num_poss
0,3,-3,0,4,"[1630172, 1628374, 1629655, 203897, 1629632]",1610612741,1610612747,"[2544, 203076, 201188, 203484, 203471]",240,7,18.75,16.0
1,12,-12,241,8,"[1630172, 1628374, 1629655, 203897, 1629632]",1610612741,1610612747,"[2544, 203076, 201188, 203484, 203471]",435,20,38.70967741935484,31.0
2,12,-12,436,12,"[1628374, 1629632, 1630172, 201152, 203897]",1610612741,1610612747,"[2544, 203076, 201188, 203484, 203471]",541,24,30.76923076923077,39.0
3,10,-10,542,14,"[1628374, 1629632, 201152, 202066, 203897]",1610612741,1610612747,"[1626149, 1628398, 202083, 203076, 203471]",581,24,23.809523809523807,42.0
4,10,-10,582,17,"[1626245, 1627756, 1628374, 202066, 203897]",1610612741,1610612747,"[1626149, 1628398, 1629659, 202083, 203471]",710,27,20.0,50.0
5,12,-12,711,19,"[1626245, 1627756, 1628990, 202066, 203107]",1610612741,1610612747,"[1626149, 1628398, 1629659, 202083, 2544]",787,31,22.22222222222222,54.0
6,12,-12,788,19,"[202066, 1627756, 1626245, 1628990, 203107]",1610612741,1610612747,"[2544, 1628398, 202083, 1626149, 1629659]",801,31,21.818181818181817,55.0
7,12,-12,802,19,"[1627756, 1628990, 201152, 202066, 203107]",1610612741,1610612747,"[2544, 1628398, 202083, 1626149, 1629659]",829,31,20.689655172413794,58.0
8,17,-17,830,19,"[1628990, 1630172, 201152, 202066, 203107]",1610612741,1610612747,"[2544, 1628398, 202083, 1626149, 1629659]",853,36,27.86885245901639,61.0
9,17,-17,854,19,"[1628990, 1629632, 1630172, 201152, 203107]",1610612741,1610612747,"[2544, 1628398, 202083, 1626149, 1629659]",872,36,27.419354838709676,62.0
10,17,-17,873,19,"[1629632, 1630172, 201152, 203107, 203897]",1610612741,1610612747,"[2544, 1628398, 202083, 1626149, 1629659]",896,36,26.5625,64.0
11,22,-22,897,19,"[1628374, 1629632, 1630172, 201152, 203897]",1610612741,1610612747,"[2544, 1628398, 202083, 1626149, 1629659]",995,41,30.985915492957744,71.0
12,21,-21,996,25,"[1628374, 1629632, 1630172, 201152, 203897]",1610612741,1610612747,"[1626149, 1627936, 1628398, 1629659, 2544]",1093,46,27.27272727272727,77.0
13,23,-23,1094,27,"[1628374, 1629632, 1630172, 201152, 203897]",1610612741,1610612747,"[1626149, 1627936, 1629659, 203076, 203484]",1173,50,28.39506172839506,81.0
14,24,-24,1174,27,"[1628374, 1629655, 1630172, 202066, 203897]",1610612741,1610612747,"[1626149, 1627936, 203076, 203471, 203484]",1235,51,27.906976744186046,86.0
15,30,-30,1236,33,"[1628374, 1630172, 201152, 202066, 203897]",1610612741,1610612747,"[1626149, 1627936, 203076, 203471, 203484]",1435,63,29.126213592233007,103.0
16,26,-26,1436,41,"[1628374, 1629632, 201152, 202066, 203897]",1610612741,1610612747,"[201188, 203076, 203471, 203484, 2544]",1678,67,21.487603305785125,121.0
17,26,-26,1679,48,"[1630172, 1628374, 1629655, 203897, 1629632]",1610612741,1610612747,"[2544, 203076, 201188, 203484, 203471]",1906,74,18.84057971014493,138.0
18,22,-22,1907,52,"[1628374, 1629655, 1630172, 203107, 203897]",1610612741,1610612747,"[2544, 203076, 201188, 203484, 203471]",1938,74,15.602836879432624,141.0
19,20,-20,1939,57,"[1628374, 1629632, 1629655, 1630172, 203897]",1610612741,1610612747,"[2544, 203076, 201188, 203484, 203471]",2045,77,13.513513513513514,148.0
20,14,-14,2046,65,"[1628374, 1629632, 1630172, 201152, 203897]",1610612741,1610612747,"[1626149, 1627936, 203076, 203471, 2544]",2090,79,9.15032679738562,153.0
21,15,-15,2091,66,"[1627756, 1629632, 1629655, 1630172, 201152]",1610612741,1610612747,"[1626149, 1627936, 202083, 203076, 2544]",2131,81,9.615384615384617,156.0
22,15,-15,2132,66,"[1627756, 1629632, 1629655, 1630172, 201152]",1610612741,1610612747,"[1626149, 1627936, 1628398, 202083, 203076]",2132,81,9.615384615384617,156.0
23,19,-19,2133,66,"[1627756, 1629632, 1629655, 201152, 202066]",1610612741,1610612747,"[1626149, 1627936, 1628398, 202083, 203076]",2305,85,11.44578313253012,166.0
24,23,-23,2306,66,"[1629655, 1629632, 201152, 202066, 1627756]",1610612741,1610612747,"[1628398, 202083, 1626149, 1629659, 1627936]",2417,89,13.450292397660817,171.0
25,23,-23,2418,66,"[1627756, 1628374, 201152, 202066, 203897]",1610612741,1610612747,"[1628398, 202083, 1626149, 1629659, 1627936]",2427,89,13.372093023255813,172.0
26,19,-19,2428,80,"[1628374, 1630172, 201152, 202066, 203897]",1610612741,1610612747,"[1628398, 202083, 1626149, 1629659, 1627936]",2705,99,9.947643979057592,191.0
27,14,-14,2706,87,"[1628374, 1629632, 1630172, 202066, 203897]",1610612741,1610612747,"[1628398, 202083, 1626149, 1629659, 1627936]",2859,101,6.896551724137931,203.0
28,11,-11,2860,90,"[1626245, 1627756, 1627853, 1628990, 203107]",1610612741,1610612747,"[1626149, 1626188, 1628035, 1628398, 1629659]",9999999,101,5.392156862745098,204.0
