,team1_id,team1_player1,team1_player2,team1_player3,team1_player4,team1_player5,team2_id,team2_player1,team2_player2,team2_player3,team2_player4,team2_player5,game_id,period,possession_start,possession_end,team1_points,team2_points,possession_team
0,1610612749,203114,1626192,1626171,1628960,201950,1610612761,1630567,1627783,1630173,1629018,1627832,0022100329,1,0,26,0,3,1610612761
1,1610612749,203114,1626192,1626171,1628960,201950,1610612761,1630567,1627783,1630173,1629018,1627832,0022100329,1,50,58,0,0,1610612749
2,1610612749,203114,1626192,1626171,1628960,201950,1610612761,1630567,1627783,1630173,1629018,1627832,0022100329,1,70,70,0,2,1610612761
3,1610612749,203114,1626192,1626171,1628960,201950,1610612761,1630567,1627783,1630173,1629018,1627832,0022100329,1,93,95,0,0,1610612749
4,1610612749,203114,1626192,1626171,1628960,201950,1610612761,1630567,1627783,1630173,1629018,1627832,0022100329,1,101,101,0,0,1610612761
5,1610612749,203114,1626192,1626171,1628960,201950,1610612761,1630567,1627783,1630173,1629018,1627832,0022100329,1,114,117,0,0,1610612749
6,1610612749,203114,1626192,1626171,1628960,201950,1610612761,1630567,1627783,1630173,1629018,1627832,0022100329,1,124,128,0,0,1610612761
7,1610612749,203114,1626192,1626171,1628960,201950,1610612761,1630567,1627783,1630173,1629018,1627832,0022100329,1,133,133,2,0,1610612749
8,1610612749,203114,1626192,1626171,1628960,201950,1610612761,1630567,1627783,1630173,1629018,1627832,0022100329,1,152,154,0,0,1610612761
9,1610612749,203114,1626192,1626171,1628960,201950,1610612761,1630567,1627783,1630173,1629018,1627832,0022100329,1,168,168,2,0,1610612749
10,1610612749,203114,1626192,1626171,1628960,201950,1610612761,1630567,1627783,1630173,1629018,1627832,0022100329,1,183,183,0,3,1610612761
11,1610612749,203114,1626192,1626171,1628960,201950,1610612761,1630567,1627783,1630173,1629018,1627832,0022100329,1,194,194,0,0,1610612749
12,1610612749,203114,1626192,1626171,1628960,201950,1610612761,1630567,1627783,1630173,1629018,1627832,0022100329,1,208,211,0,0,1610612761
13,1610612749,203114,1626192,1626171,1628960,201950,1610612761,1630567,1627783,1630173,1629018,1627832,0022100329,1,212,212,3,0,1610612749
14,1610612749,203114,1626192,1626171,1628960,201950,1610612761,1630567,1627783,1630173,1629018,1627832,0022100329,1,231,234,0,0,1610612761
15,1610612749,203114,1626192,1626171,1628960,201950,1610612761,1630567,1627783,1630173,1629018,1627832,0022100329,1,240,244,2,0,1610612749
16,1610612749,203114,1626192,1626171,1628960,201950,1610612761,1630567,1627783,1630173,1629018,1627832,0022100329,1,263,263,0,0,1610612761
17,1610612749,1626171,1626192,1628960,201588,203114,1610612761,1630567,1627783,1630173,1629018,1627832,0022100329,1,277,279,1,0,1610612749
18,1610612749,1626171,1628960,1630572,201588,203114,1610612761,1630567,1627783,1630173,1629018,1627832,0022100329,1,296,299,0,0,1610612761
19,1610612749,1626171,1628960,1630572,201588,203114,1610612761,1630567,1627783,1630173,1629018,1627832,0022100329,1,307,310,0,0,1610612749
20,1610612749,1626171,1628960,1630572,201588,203114,1610612761,1630567,1627783,1630173,1629018,1627832,0022100329,1,316,316,0,3,1610612761
21,1610612749,1626171,1628960,1630572,201588,203114,1610612761,1630567,1627783,1630173,1629018,1627832,0022100329,1,328,347,2,0,1610612749
22,1610612749,1626171,1628960,1630572,201588,201950,1610612761,1630567,1627783,1630173,1629018,1627832,0022100329,1,367,371,0,2,1610612761
23,1610612749,1626171,1628960,1630572,201588,201950,1610612761,1630567,1627783,1630173,1629018,1627832,0022100329,1,380,380,0,0,1610612749
24,1610612749,1626171,1628960,1630572,201588,201950,1610612761,1630567,1627783,1630173,1629018,1627832,0022100329,1,384,384,0,2,1610612761
25,1610612749,1626171,1628960,1630572,201588,201950,1610612761,1630567,1627783,1630173,1629018,1627832,0022100329,1,403,403,3,0,1610612749
26,1610612749,1626171,1628960,1630572,201588,201950,1610612761,1630567,1627783,1630173,1629018,1627832,0022100329,1,427,427,0,0,1610612761
27,1610612749,1630572,201588,201950,203648,203918,1610612761,1630567,1627783,1630173,1629018,1627832,0022100329,1,446,456,0,0,1610612749
28,1610612749,1630572,201588,201950,203648,203918,1610612761,1627783,1627832,1628449,1629018,1630625,0022100329,1,468,473,0,0,1610612761
29,1610612749,1630572,201588,201950,203648,203918,1610612761,1627783,1627832,1628449,1629018,1630625,0022100329,1,490,498,3,0,1610612749
30,1610612749,1630572,201588,201950,203648,203918,1610612761,1627783,1627832,1628449,1629018,1630625,0022100329,1,522,524,0,0,1610612761
31,1610612749,1630572,201588,201950,203648,203918,1610612761,1627783,1627832,1628449,1629004,1630625,0022100329,1,538,547,0,0,1610612749
32,1610612749,1626192,201588,201950,203648,203918,1610612761,1627832,1628449,1629004,1630567,1630625,0022100329,1,553,553,0,3,1610612761
33,1610612749,1626192,201588,201950,203648,203918,1610612761,1627832,1628449,1629004,1630567,1630625,0022100329,1,569,576,0,0,1610612749
34,1610612749,1626192,201588,201950,203648,203918,1610612761,1627832,1628449,1629004,1630567,1630625,0022100329,1,576,576,0,0,1610612761
35,1610612749,1626192,201588,203114,203648,203918,1610612761,1627832,1628449,1629004,1630567,1630625,0022100329,1,582,584,0,0,1610612749
36,1610612749,1626192,201588,203114,203648,203918,1610612761,1627832,1628449,1629004,1630567,1630625,0022100329,1,594,594,0,0,1610612761
37,1610612749,1626192,201588,203114,203648,203918,1610612761,1627832,1628449,1629004,1630567,1630625,0022100329,1,617,617,3,0,1610612749
38,1610612749,1626192,201588,203114,203648,203918,1610612761,1627832,1628449,1629004,1630567,1630625,0022100329,1,629,629,0,2,1610612761
39,1610612749,1626192,201588,203114,203648,203918,1610612761,1628449,1629004,1629018,1630567,1630625,0022100329,1,650,657,0,0,1610612749
40,1610612749,1626192,201588,203114,203648,203918,1610612761,1628449,1629004,1629018,1630567,1630625,0022100329,1,667,667,0,3,1610612761
41,1610612749,1626192,201588,203114,203648,203918,1610612761,1628449,1629004,1629018,1630567,1630625,0022100329,1,682,682,2,0,1610612749
42,1610612749,1626192,201588,203114,203648,203918,1610612761,1628449,1629004,1629018,1630567,1630625,0022100329,1,692,692,0,3,1610612761
43,1610612749,1626192,201588,203114,203648,203918,1610612761,1628449,1629004,1629018,1630567,1630625,0022100329,1,711,714,0,0,1610612749
44,1610612749,1626192,201588,203114,203648,203918,1610612761,1628449,1629004,1629018,1630567,1630625,0022100329,1,719,719,0,0,1610612761
45,1610612749,1626192,201588,203114,203648,203918,1610612761,1628449,1629004,1629018,1630567,1630625,0022100329,1,720,720,0,0,1610612761
46,1610612749,203114,1626192,1626171,1628960,201950,1610612761,1630567,1629018,1630625,1628449,1629004,0022100329,2,720,741,0,0,1610612749
47,1610612749,203114,1626192,1626171,1628960,201950,1610612761,1630567,1629018,1630625,1628449,1629004,0022100329,2,755,758,0,0,1610612761
48,1610612749,203114,1626192,1626171,1628960,201950,1610612761,1630567,1629018,1630625,1628449,1629004,0022100329,2,772,781,0,0,1610612749
49,1610612749,203114,1626192,1626171,1628960,201950,1610612761,1630567,1629018,1630625,1628449,1629004,0022100329,2,792,794,0,0,1610612761
50,1610612749,203114,1626192,1626171,1628960,201950,1610612761,1630567,1629018,1630625,1628449,1629004,0022100329,2,802,802,3,0,1610612749
51,1610612749,203114,1626192,1626171,1628960,201950,1610612761,1630567,1629018,1630625,1628449,1629004,0022100329,2,822,822,0,2,1610612761
52,1610612749,203114,1626192,1626171,1628960,201950,1610612761,1630567,1629018,1630625,1628449,1629004,0022100329,2,836,836,2,0,1610612749
53,1610612749,1626171,1628960,1630572,201950,203114,1610612761,1629004,1629018,1629139,1630567,1630625,0022100329,2,856,859,0,0,1610612761
54,1610612749,1626171,1628960,1630572,201950,203114,1610612761,1629004,1629018,1629139,1630567,1630625,0022100329,2,869,874,2,0,1610612749
55,1610612749,1626171,1628960,1630572,201950,203114,1610612761,1629004,1629018,1629139,1630567,1630625,0022100329,2,884,888,0,0,1610612761
56,1610612749,1626171,1628960,1630572,201950,203114,1610612761,1629004,1629018,1629139,1630567,1630625,0022100329,2,898,898,0,0,1610612749
57,1610612749,1626171,1628960,1630572,201950,203114,1610612761,1629004,1629018,1629139,1630567,1630625,0022100329,2,902,908,0,2,1610612761
58,1610612749,1626171,1628960,1630572,201950,203114,1610612761,1629004,1629018,1629139,1630567,1630625,0022100329,2,918,921,0,0,1610612749
59,1610612749,1626171,1628960,1630572,201950,203114,1610612761,1629004,1629018,1629139,1630567,1630625,0022100329,2,924,942,0,0,1610612761
60,1610612749,1626171,1628960,1630572,201950,203114,1610612761,1629004,1629018,1629139,1630567,1630625,0022100329,2,952,952,0,0,1610612749
61,1610612749,1626171,1628960,1630572,201950,203114,1610612761,1629004,1629018,1629139,1630567,1630625,0022100329,2,955,958,0,0,1610612761
62,1610612749,1626171,1628960,1630572,201950,203918,1610612761,1627783,1627832,1629004,1629139,1630173,0022100329,2,977,980,0,0,1610612749
63,1610612749,1626171,1628960,1630572,201950,203918,1610612761,1627783,1627832,1629004,1629139,1630173,0022100329,2,985,990,0,0,1610612761
64,1610612749,1626171,1628960,1630572,201950,203918,1610612761,1627783,1627832,1629004,1629139,1630173,0022100329,2,1003,1006,0,0,1610612749
65,1610612749,1626171,1628960,1630572,201950,203918,1610612761,1627783,1627832,1629004,1629139,1630173,0022100329,2,1017,1025,0,2,1610612761
66,1610612749,1630572,201588,201950,203648,203918,1610612761,1627783,1627832,1629004,1629139,1630173,0022100329,2,1045,1053,0,0,1610612749
67,1610612749,1630572,201588,201950,203648,203918,1610612761,1627783,1627832,1629004,1629139,1630173,0022100329,2,1059,1059,0,2,1610612761
68,1610612749,1630572,201588,201950,203648,203918,1610612761,1627783,1627832,1629004,1629139,1630173,0022100329,2,1073,1073,0,0,1610612749
69,1610612749,1630572,201588,201950,203648,203918,1610612761,1627783,1627832,1629004,1629139,1630173,0022100329,2,1082,1082,0,3,1610612761
70,1610612749,1630572,201588,201950,203648,203918,1610612761,1627783,1627832,1629004,1629139,1630173,0022100329,2,1084,1098,2,0,1610612749
71,1610612749,1626192,1630572,201588,201950,203918,1610612761,1627783,1627832,1629004,1629139,1630173,0022100329,2,1124,1124,0,0,1610612761
72,1610612749,1626192,1630572,201588,201950,203918,1610612761,1627783,1627832,1629004,1629139,1630173,0022100329,2,1141,1141,2,0,1610612749
73,1610612749,1626192,1630572,201588,201950,203918,1610612761,1627783,1627832,1629004,1629139,1630173,0022100329,2,1155,1155,0,2,1610612761
74,1610612749,1626192,1630572,201588,201950,203918,1610612761,1627783,1627832,1629004,1629139,1630173,0022100329,2,1169,1185,0,0,1610612749
75,1610612749,1626192,1630572,201588,201950,203114,1610612761,1627783,1627832,1629018,1630173,1630567,0022100329,2,1199,1201,0,0,1610612761
76,1610612749,1626192,1630572,201588,201950,203114,1610612761,1627783,1627832,1629018,1630173,1630567,0022100329,2,1215,1218,0,0,1610612749
77,1610612749,1626192,1630572,201588,201950,203114,1610612761,1627783,1627832,1629018,1630173,1630567,0022100329,2,1230,1230,0,2,1610612761
78,1610612749,1626192,1630572,201588,201950,203114,1610612761,1627783,1627832,1629018,1630173,1630567,0022100329,2,1242,1244,0,0,1610612749
79,1610612749,1626192,1630572,201588,201950,203114,1610612761,1627783,1627832,1629018,1630173,1630567,0022100329,2,1248,1252,0,0,1610612761
80,1610612749,1626171,1626192,1628960,201588,203114,1610612761,1627783,1627832,1629018,1630173,1630567,0022100329,2,1257,1261,0,0,1610612749
81,1610612749,1626171,1626192,1628960,201588,203114,1610612761,1627783,1627832,1629018,1630173,1630567,0022100329,2,1272,1272,0,3,1610612761
82,1610612749,1626171,1626192,1628960,201588,203114,1610612761,1627783,1627832,1629018,1630173,1630567,0022100329,2,1301,1306,2,0,1610612749
83,1610612749,1626171,1626192,1628960,201588,203114,1610612761,1627783,1627832,1629018,1630173,1630567,0022100329,2,1327,1335,0,0,1610612761
84,1610612749,1626171,1626192,1628960,201588,203114,1610612761,1627783,1627832,1629018,1630173,1630567,0022100329,2,1338,1338,2,0,1610612749
85,1610612749,1626171,1626192,1628960,201588,203114,1610612761,1627783,1627832,1629018,1630173,1630567,0022100329,2,1365,1365,0,2,1610612761
86,1610612749,1626171,1626192,1628960,201588,203114,1610612761,1627783,1627832,1629018,1630173,1630567,0022100329,2,1365,1382,0,0,1610612749
87,1610612749,1626171,1626192,1628960,201588,203114,1610612761,1627783,1627832,1629018,1630173,1630567,0022100329,2,1385,1385,0,2,1610612761
88,1610612749,1626171,1626192,1628960,201588,203114,1610612761,1627783,1627832,1629018,1630173,1630567,0022100329,2,1392,1401,0,0,1610612749
89,1610612749,1626171,1626192,1628960,201588,203114,1610612761,1627783,1627832,1629018,1630173,1630567,0022100329,2,1409,1412,0,0,1610612761
90,1610612749,1626171,1626192,1628960,201588,203114,1610612761,1627783,1627832,1629018,1630173,1630567,0022100329,2,1434,1434,2,0,1610612749
91,1610612749,1626171,1626192,1628960,201588,203114,1610612761,1627783,1627832,1629018,1630173,1630567,0022100329,2,1440,1440,0,0,1610612749
92,1610612749,203114,1626192,1626171,1628960,201950,1610612761,1630567,1627783,1630173,1629018,1627832,0022100329,3,1440,1461,0,0,1610612749
93,1610612749,203114,1626192,1626171,1628960,201950,1610612761,1630567,1627783,1630173,1629018,1627832,0022100329,3,1474,1478,0,0,1610612761
94,1610612749,203114,1626192,1626171,1628960,201950,1610612761,1630567,1627783,1630173,1629018,1627832,0022100329,3,1483,1483,2,0,1610612749
95,1610612749,203114,1626192,1626171,1628960,201950,1610612761,1630567,1627783,1630173,1629018,1627832,0022100329,3,1504,1507,0,0,1610612761
96,1610612749,203114,1626192,1626171,1628960,201950,1610612761,1630567,1627783,1630173,1629018,1627832,0022100329,3,1517,1517,2,0,1610612749
97,1610612749,203114,1626192,1626171,1628960,201950,1610612761,1630567,1627783,1630173,1629018,1627832,0022100329,3,1530,1530,0,3,1610612761
98,1610612749,203114,1626192,1626171,1628960,201950,1610612761,1630567,1627783,1630173,1629018,1627832,0022100329,3,1551,1551,2,0,1610612749
99,1610612749,203114,1626192,1626171,1628960,201950,1610612761,1630567,1627783,1630173,1629018,1627832,0022100329,3,1564,1564,0,2,1610612761
100,1610612749,203114,1626192,1626171,1628960,201950,1610612761,1630567,1627783,1630173,1629018,1627832,0022100329,3,1573,1575,3,0,1610612749
101,1610612749,203114,1626192,1626171,1628960,201950,1610612761,1630567,1627783,1630173,1629018,1627832,0022100329,3,1584,1588,0,3,1610612761
102,1610612749,203114,1626192,1626171,1628960,201950,1610612761,1630567,1627783,1630173,1629018,1627832,0022100329,3,1602,1609,2,0,1610612749
103,1610612749,203114,1626192,1626171,1628960,201950,1610612761,1630567,1627783,1630173,1629018,1627832,0022100329,3,1634,1637,0,0,1610612761
104,1610612749,203114,1626192,1626171,1628960,201950,1610612761,1630567,1627783,1630173,1629018,1627832,0022100329,3,1645,1648,0,0,1610612749
105,1610612749,203114,1626192,1626171,1628960,201950,1610612761,1630567,1627783,1630173,1629018,1627832,0022100329,3,1651,1665,0,2,1610612761
106,1610612749,203114,1626192,1626171,1628960,201950,1610612761,1630567,1627783,1630173,1629018,1627832,0022100329,3,1682,1682,1,0,1610612749
107,1610612749,1626171,1628960,1630572,201950,203114,1610612761,1630567,1627783,1630173,1629018,1627832,0022100329,3,1701,1701,0,3,1610612761
108,1610612749,1626171,1628960,1630572,201950,203114,1610612761,1630567,1627783,1630173,1629018,1627832,0022100329,3,1726,1730,0,0,1610612749
109,1610612749,1626171,1628960,1630572,201950,203114,1610612761,1630567,1627783,1630173,1629018,1627832,0022100329,3,1737,1750,0,2,1610612761
110,1610612749,1626171,1628960,1630572,201950,203114,1610612761,1630567,1627783,1630173,1629018,1627832,0022100329,3,1757,1777,2,0,1610612749
111,1610612749,1626171,1628960,1630572,201588,201950,1610612761,1630567,1627783,1630173,1629018,1627832,0022100329,3,1801,1804,0,0,1610612761
112,1610612749,1626171,1628960,1630572,201588,201950,1610612761,1630567,1627783,1630173,1629018,1627832,0022100329,3,1810,1814,0,0,1610612749
113,1610612749,1626171,1628960,1630572,201588,201950,1610612761,1630567,1627783,1630173,1629018,1627832,0022100329,3,1814,1814,0,0,1610612761
114,1610612749,1626171,1628960,1630572,201588,201950,1610612761,1630567,1627783,1630173,1629018,1627832,0022100329,3,1825,1839,0,0,1610612749
115,1610612749,1626171,1628960,1630572,201588,201950,1610612761,1630567,1627783,1630173,1629018,1627832,0022100329,3,1840,1859,0,1,1610612761
116,1610612749,1629670,1630572,201588,201950,203648,1610612761,1627783,1627832,1628449,1629004,1630567,0022100329,3,1876,1886,3,0,1610612749
117,1610612749,1629670,1630572,201588,201950,203648,1610612761,1627783,1627832,1628449,1629004,1630567,0022100329,3,1904,1904,0,0,1610612761
118,1610612749,1629670,1630572,201588,201950,203648,1610612761,1627783,1627832,1628449,1629004,1630567,0022100329,3,1911,1911,3,0,1610612749
119,1610612749,1629670,1630572,201588,201950,203648,1610612761,1627783,1627832,1628449,1629004,1630567,0022100329,3,1931,1935,0,3,1610612761
120,1610612749,1629670,1630572,201588,201950,203648,1610612761,1627783,1627832,1628449,1629004,1630567,0022100329,3,1946,1946,0,0,1610612749
121,1610612749,1629670,1630572,201588,201950,203648,1610612761,1627783,1627832,1628449,1629004,1630567,0022100329,3,1960,1961,0,0,1610612761
122,1610612749,1629670,1630572,201588,201950,203648,1610612761,1627783,1627832,1628449,1629004,1630567,0022100329,3,1964,1964,1,0,1610612749
123,1610612749,1629670,1630572,201588,201950,203648,1610612761,1627832,1628449,1629004,1629067,1630567,0022100329,3,1985,1988,0,0,1610612761
124,1610612749,1629670,1630572,201588,201950,203648,1610612761,1627832,1628449,1629004,1629067,1630567,0022100329,3,2003,2009,0,0,1610612749
125,1610612749,1629670,1630572,201588,201950,203648,1610612761,1627832,1628449,1629004,1629067,1630567,0022100329,3,2009,2036,0,2,1610612761
126,1610612749,1626192,1629670,201588,203114,203648,1610612761,1627832,1628449,1629004,1629067,1630625,0022100329,3,2056,2058,0,0,1610612749
127,1610612749,1626192,1629670,201588,203114,203648,1610612761,1627832,1628449,1629004,1629067,1630625,0022100329,3,2068,2068,0,0,1610612761
128,1610612749,1626192,1629670,201588,203114,203648,1610612761,1627832,1628449,1629004,1629067,1630625,0022100329,3,2073,2073,0,0,1610612749
129,1610612749,1626192,1629670,201588,203114,203648,1610612761,1627832,1628449,1629004,1629067,1630625,0022100329,3,2091,2095,0,2,1610612761
130,1610612749,1626192,1629670,201588,203114,203648,1610612761,1627832,1628449,1629004,1629067,1630625,0022100329,3,2109,2109,2,0,1610612749
131,1610612749,1626171,1626192,201588,203114,203648,1610612761,1628449,1629004,1629067,1629139,1630625,0022100329,3,2123,2123,0,2,1610612761
132,1610612749,1626171,1626192,201588,203114,203648,1610612761,1628449,1629004,1629067,1629139,1630625,0022100329,3,2129,2129,3,0,1610612749
133,1610612749,1626171,1626192,201588,203114,203648,1610612761,1628449,1629004,1629067,1629139,1630625,0022100329,3,2138,2138,0,0,1610612761
134,1610612749,1626171,1626192,1628960,201588,203114,1610612761,1629004,1629067,1629139,1630173,1630625,0022100329,3,2160,2160,2,0,1610612749
135,1610612749,1626171,1626192,1628960,201588,203114,1610612761,1629004,1629067,1629139,1630173,1630625,0022100329,3,2160,2160,0,0,491
136,1610612749,203114,1626192,1626171,1628960,201588,1610612761,1627783,1630173,1630625,1629004,1629139,0022100329,4,2160,2178,0,0,1610612761
137,1610612749,203114,1626192,1626171,1628960,201588,1610612761,1627783,1630173,1630625,1629004,1629139,0022100329,4,2185,2198,0,0,1610612749
138,1610612749,203114,1626192,1626171,1628960,201588,1610612761,1627783,1630173,1630625,1629004,1629139,0022100329,4,2214,2217,0,0,1610612761
139,1610612749,203114,1626192,1626171,1628960,201588,1610612761,1627783,1630173,1630625,1629004,1629139,0022100329,4,2235,2237,0,0,1610612749
140,1610612749,203114,1626192,1626171,1628960,201588,1610612761,1627783,1630173,1630625,1629004,1629139,0022100329,4,2241,2241,0,2,1610612761
141,1610612749,203114,1626192,1626171,1628960,201588,1610612761,1627783,1630173,1630625,1629004,1629139,0022100329,4,2255,2255,0,0,1610612749
142,1610612749,203114,1626192,1626171,1628960,201588,1610612761,1627783,1630173,1630625,1629004,1629139,0022100329,4,2255,2274,0,0,1610612761
143,1610612749,1626171,1626192,1628960,201950,203114,1610612761,1627783,1629004,1630173,1630567,1630625,0022100329,4,2289,2289,3,0,1610612749
144,1610612749,1626171,1626192,1628960,201950,203114,1610612761,1627783,1629004,1630173,1630567,1630625,0022100329,4,2306,2307,0,0,1610612761
145,1610612749,1626171,1626192,1628960,201950,203114,1610612761,1627783,1629004,1630173,1630567,1630625,0022100329,4,2312,2312,2,0,1610612749
146,1610612749,1626171,1626192,1628960,201950,203114,1610612761,1627783,1629004,1630173,1630567,1630625,0022100329,4,2335,2345,0,3,1610612761
147,1610612749,1626171,1626192,1628960,1630572,201950,1610612761,1627783,1627832,1629018,1630173,1630567,0022100329,4,2365,2368,0,0,1610612749
148,1610612749,1626171,1626192,1628960,1630572,201950,1610612761,1627783,1627832,1629018,1630173,1630567,0022100329,4,2371,2376,0,2,1610612761
149,1610612749,1626171,1626192,1628960,1630572,201950,1610612761,1627783,1627832,1629018,1630173,1630567,0022100329,4,2388,2392,0,0,1610612749
150,1610612749,1626171,1626192,1628960,1630572,201950,1610612761,1627783,1627832,1629018,1630173,1630567,0022100329,4,2395,2395,0,2,1610612761
151,1610612749,1626171,1626192,1628960,1630572,201950,1610612761,1627783,1627832,1629018,1630173,1630567,0022100329,4,2396,2423,2,0,1610612749
152,1610612749,1628960,1630572,201588,201950,203114,1610612761,1627783,1627832,1629018,1630173,1630567,0022100329,4,2439,2439,0,2,1610612761
153,1610612749,1628960,1630572,201588,201950,203114,1610612761,1627783,1627832,1629018,1630173,1630567,0022100329,4,2452,2458,3,0,1610612749
154,1610612749,1628960,1630572,201588,201950,203114,1610612761,1627783,1627832,1629018,1630173,1630567,0022100329,4,2471,2471,0,0,1610612761
155,1610612749,1628960,1630572,201588,201950,203114,1610612761,1627783,1627832,1629018,1630173,1630567,0022100329,4,2471,2504,3,0,1610612749
156,1610612749,1628960,1630572,201588,201950,203114,1610612761,1627832,1629018,1629139,1630173,1630567,0022100329,4,2527,2527,0,3,1610612761
157,1610612749,1628960,1630572,201588,201950,203114,1610612761,1627832,1629018,1629139,1630173,1630567,0022100329,4,2547,2557,2,0,1610612749
158,1610612749,1628960,1630572,201588,201950,203114,1610612761,1627832,1629018,1629139,1630173,1630567,0022100329,4,2573,2575,0,0,1610612761
159,1610612749,1628960,1630572,201588,201950,203114,1610612761,1627832,1629018,1629139,1630173,1630567,0022100329,4,2576,2585,0,0,1610612749
160,1610612749,1628960,1630572,201588,201950,203114,1610612761,1627783,1627832,1629018,1630173,1630567,0022100329,4,2596,2596,0,0,1610612761
161,1610612749,1626192,1630572,201588,201950,203114,1610612761,1627783,1627832,1629018,1630173,1630567,0022100329,4,2606,2606,2,0,1610612749
162,1610612749,1626192,1630572,201588,201950,203114,1610612761,1627783,1627832,1629018,1630173,1630567,0022100329,4,2620,2632,0,2,1610612761
163,1610612749,1626192,1630572,201588,201950,203114,1610612761,1627783,1627832,1629018,1630173,1630567,0022100329,4,2654,2654,0,0,1610612749
164,1610612749,1626192,1630572,201588,201950,203114,1610612761,1627783,1627832,1629018,1630173,1630567,0022100329,4,2659,2662,0,0,1610612761
165,1610612749,1626192,1630572,201588,201950,203114,1610612761,1627783,1627832,1629018,1630173,1630567,0022100329,4,2671,2678,0,0,1610612749
166,1610612749,1626192,1630572,201588,201950,203114,1610612761,1627783,1627832,1629018,1630173,1630567,0022100329,4,2690,2690,0,2,1610612761
167,1610612749,1626192,1630572,201588,201950,203114,1610612761,1627783,1627832,1629018,1630173,1630567,0022100329,4,2691,2715,0,0,1610612749
168,1610612749,1626171,1626192,1628960,201950,203114,1610612761,1627783,1627832,1629018,1630173,1630567,0022100329,4,2731,2744,0,2,1610612761
169,1610612749,1626171,1626192,1628960,201950,203114,1610612761,1627783,1627832,1629018,1630173,1630567,0022100329,4,2755,2755,0,0,1610612749
170,1610612749,1626171,1626192,1628960,201950,203114,1610612761,1627783,1627832,1629018,1630173,1630567,0022100329,4,2772,2791,0,0,1610612761
171,1610612749,1626171,1626192,1628960,201950,203114,1610612761,1627783,1627832,1629018,1630173,1630567,0022100329,4,2807,2807,2,0,1610612749
172,1610612749,1626171,1626192,1628960,201950,203114,1610612761,1627783,1627832,1629018,1630173,1630567,0022100329,4,2825,2827,0,0,1610612761
173,1610612749,1626171,1626192,1628960,201950,203114,1610612761,1627783,1627832,1629018,1630173,1630567,0022100329,4,2832,2835,0,0,1610612749
174,1610612749,1626171,1626192,1628960,201950,203114,1610612761,1627783,1627832,1629018,1630173,1630567,0022100329,4,2838,2838,0,0,1610612761
175,1610612749,1626171,1626192,1628960,201950,203114,1610612761,1627783,1627832,1629018,1630173,1630567,0022100329,4,2838,2847,3,0,1610612749
176,1610612749,1626171,1626192,1628960,201950,203114,1610612761,1627832,1629018,1629139,1630173,1630567,0022100329,4,2861,2861,0,2,1610612761
177,1610612749,1626171,1626192,1628960,201950,203114,1610612761,1627832,1629018,1629139,1630173,1630567,0022100329,4,2861,2877,3,0,1610612749
178,1610612749,1626171,1626192,1628960,201950,203114,1610612761,1627832,1629018,1629139,1630173,1630567,0022100329,4,2877,2880,0,2,1610612761
179,1610612749,1626171,1626192,1630572,201950,203114,1610612761,1627832,1629018,1629139,1630173,1630567,0022100329,4,2880,2880,0,0,1610612761
