,team1_id,team1_player1,team1_player2,team1_player3,team1_player4,team1_player5,team2_id,team2_player1,team2_player2,team2_player3,team2_player4,team2_player5,game_id,period,possession_start,possession_end,team1_points,team2_points,possession_team
0,1610612751,1627789,201145,201599,203925,201935,1610612755,201980,202699,203954,203552,1627732,0022000354,1,0,20,0,0,1610612755
1,1610612751,1627789,201145,201599,203925,201935,1610612755,201980,202699,203954,203552,1627732,0022000354,1,23,23,2,0,1610612751
2,1610612751,1627789,201145,201599,203925,201935,1610612755,201980,202699,203954,203552,1627732,0022000354,1,36,36,0,2,1610612755
3,1610612751,1627789,201145,201599,203925,201935,1610612755,201980,202699,203954,203552,1627732,0022000354,1,49,49,3,0,1610612751
4,1610612751,1627789,201145,201599,203925,201935,1610612755,201980,202699,203954,203552,1627732,0022000354,1,68,70,0,0,1610612755
5,1610612751,1627789,201145,201599,203925,201935,1610612755,201980,202699,203954,203552,1627732,0022000354,1,86,89,0,0,1610612751
6,1610612751,1627789,201145,201599,203925,201935,1610612755,201980,202699,203954,203552,1627732,0022000354,1,95,95,0,2,1610612755
7,1610612751,1627789,201145,201599,203925,201935,1610612755,201980,202699,203954,203552,1627732,0022000354,1,115,118,0,0,1610612751
8,1610612751,1627789,201145,201599,203925,201935,1610612755,201980,202699,203954,203552,1627732,0022000354,1,121,124,0,0,1610612755
9,1610612751,1627789,201145,201599,203925,201935,1610612755,201980,202699,203954,203552,1627732,0022000354,1,145,145,3,0,1610612751
10,1610612751,1627789,201145,201599,203925,201935,1610612755,201980,202699,203954,203552,1627732,0022000354,1,158,158,0,0,1610612755
11,1610612751,1627789,201145,201599,203925,201935,1610612755,201980,202699,203954,203552,1627732,0022000354,1,163,163,2,0,1610612751
12,1610612751,1627789,201145,201599,203925,201935,1610612755,201980,202699,203954,203552,1627732,0022000354,1,183,183,0,2,1610612755
13,1610612751,1627789,201145,201599,203925,201935,1610612755,201980,202699,203954,203552,1627732,0022000354,1,192,192,0,0,1610612751
14,1610612751,1627789,201145,201599,203925,201935,1610612755,201980,202699,203954,203552,1627732,0022000354,1,198,198,0,0,1610612755
15,1610612751,1627789,201145,201599,203925,201935,1610612755,201980,202699,203954,203552,1627732,0022000354,1,209,211,0,0,1610612751
16,1610612751,1627789,201145,201599,203925,201935,1610612755,201980,202699,203954,203552,1627732,0022000354,1,215,215,0,2,1610612755
17,1610612751,1627789,201145,201599,203925,201935,1610612755,201980,202699,203954,203552,1627732,0022000354,1,232,232,2,0,1610612751
18,1610612751,1627789,201145,201599,203925,201935,1610612755,201980,202699,203954,203552,1627732,0022000354,1,247,247,0,2,1610612755
19,1610612751,1627789,201145,201599,203925,201935,1610612755,201980,202699,203954,203552,1627732,0022000354,1,259,261,0,0,1610612751
20,1610612751,1627789,201145,201599,203925,201935,1610612755,201980,202699,203954,203552,1627732,0022000354,1,265,269,0,2,1610612755
21,1610612751,1627789,201145,201599,203925,201935,1610612755,201980,202699,203954,203552,1627732,0022000354,1,283,287,3,0,1610612751
22,1610612751,1627789,201145,201599,203925,201935,1610612755,201980,202699,203954,203552,1627732,0022000354,1,303,303,0,0,1610612755
23,1610612751,1627789,201145,201599,203925,201935,1610612755,201980,202699,203954,203552,1627732,0022000354,1,303,311,0,0,1610612751
24,1610612751,1627789,201145,201599,203925,201935,1610612755,201980,202699,203954,203552,1627732,0022000354,1,313,313,0,2,1610612755
25,1610612751,1627789,201145,201599,203925,201935,1610612755,201980,202699,203954,203552,1627732,0022000354,1,328,332,2,0,1610612751
26,1610612751,1627789,201145,201599,203925,201935,1610612755,201980,202699,203954,203552,1627732,0022000354,1,345,345,0,0,1610612755
27,1610612751,1627789,201145,201599,203925,201935,1610612755,201980,202699,203954,203552,1627732,0022000354,1,357,368,0,0,1610612751
28,1610612751,1627789,201145,201599,203925,201935,1610612755,201980,202699,203954,203552,1627732,0022000354,1,376,376,0,3,1610612755
29,1610612751,1627789,201145,201599,203925,201935,1610612755,201980,202699,203954,203552,1627732,0022000354,1,394,397,0,0,1610612751
30,1610612751,1627789,201145,201599,203925,201935,1610612755,201980,202699,203954,203552,1627732,0022000354,1,402,402,0,3,1610612755
31,1610612751,1627789,201145,201599,203925,201935,1610612755,201980,202699,203954,203552,1627732,0022000354,1,419,419,2,0,1610612751
32,1610612751,1627789,201145,201599,203925,201935,1610612755,201980,202699,203954,203552,1627732,0022000354,1,434,434,0,2,1610612755
33,1610612751,1627789,201145,201599,203925,201935,1610612755,201980,202699,203954,203552,1627732,0022000354,1,434,448,0,2,1610612751
34,1610612751,1629013,201145,201599,201935,203925,1610612755,1627732,1627788,201980,202699,203954,0022000354,1,453,457,0,0,1610612755
35,1610612751,1629013,201145,201599,201935,203925,1610612755,1627732,1627788,201980,202699,203954,0022000354,1,477,477,3,0,1610612751
36,1610612751,1629013,201145,201599,201935,203925,1610612755,1627732,1627788,201980,202699,203954,0022000354,1,491,491,0,2,1610612755
37,1610612751,1629013,201145,201599,201935,203925,1610612755,1627732,1627788,201980,202699,203954,0022000354,1,497,500,0,0,1610612751
38,1610612751,1629013,201145,201599,201935,203925,1610612755,1627732,1627788,201980,202699,203954,0022000354,1,510,515,0,2,1610612755
39,1610612751,1629013,201145,201599,201935,203925,1610612755,1627732,1627788,201980,202699,203954,0022000354,1,531,534,0,0,1610612751
40,1610612751,1629013,201145,201599,201935,203925,1610612755,1627732,1627788,201980,202699,203954,0022000354,1,539,541,0,0,1610612755
41,1610612751,1629013,201145,201599,201935,203925,1610612755,1627732,1627788,201980,202699,203954,0022000354,1,562,562,3,0,1610612751
42,1610612751,1629013,201145,201599,201935,203925,1610612755,1627732,1627788,201980,202699,203954,0022000354,1,565,578,0,2,1610612755
43,1610612751,1629013,201145,201599,201935,203925,1610612755,1627732,1627788,1629680,201980,203954,0022000354,1,592,595,0,0,1610612751
44,1610612751,1629013,201145,201599,201935,203925,1610612755,1627732,1627788,1629680,201980,203954,0022000354,1,597,601,0,0,1610612755
45,1610612751,1629013,201145,201599,201935,203925,1610612755,1627732,1627788,1629680,201980,203954,0022000354,1,613,613,2,0,1610612751
46,1610612751,1629013,201145,201599,201935,203925,1610612755,1627732,1627788,1629680,201980,203954,0022000354,1,637,650,0,2,1610612755
47,1610612751,1628971,1629013,201145,201599,201935,1610612755,1627732,1627788,1629003,1629680,203954,0022000354,1,672,672,2,0,1610612751
48,1610612751,1628971,1629013,201145,201599,201935,1610612755,1627732,1627788,1629003,1629680,203954,0022000354,1,683,687,0,0,1610612755
49,1610612751,1628971,1629013,201145,201599,201935,1610612755,1627732,1627788,1629003,1629680,203954,0022000354,1,691,695,0,0,1610612751
50,1610612751,1628971,1629013,201145,201599,201935,1610612755,1627732,1627788,1629003,1629680,203954,0022000354,1,699,699,0,2,1610612755
51,1610612751,1627789,1629013,201145,201935,203925,1610612755,1627732,1627788,1629003,1629680,2730,0022000354,1,716,718,0,0,1610612751
52,1610612751,1627789,1629013,201145,201935,203925,1610612755,1627732,1627788,1629003,1629680,2730,0022000354,1,720,720,0,0,1610612751
53,1610612751,1627789,1629013,1628971,204020,203658,1610612755,202699,1627788,1629680,1629003,2730,0022000354,2,720,737,0,0,1610612751
54,1610612751,1627789,1629013,1628971,204020,203658,1610612755,202699,1627788,1629680,1629003,2730,0022000354,2,748,761,0,0,1610612755
55,1610612751,1627789,1629013,1628971,204020,203658,1610612755,202699,1627788,1629680,1629003,2730,0022000354,2,766,770,0,0,1610612751
56,1610612751,1627789,1629013,1628971,204020,203658,1610612755,202699,1627788,1629680,1629003,2730,0022000354,2,787,787,0,2,1610612755
57,1610612751,1627789,1629013,1628971,204020,203658,1610612755,202699,1627788,1629680,1629003,2730,0022000354,2,803,814,0,0,1610612751
58,1610612751,1627789,1629013,1628971,204020,203658,1610612755,202699,1627788,1629680,1629003,2730,0022000354,2,818,825,0,2,1610612755
59,1610612751,1627789,1629013,1628971,204020,203658,1610612755,202699,1627788,1629680,1629003,2730,0022000354,2,831,834,0,0,1610612751
60,1610612751,1627789,1629013,1628971,204020,203658,1610612755,202699,1627788,1629680,1629003,2730,0022000354,2,844,846,0,0,1610612755
61,1610612751,1627789,1629013,1628971,204020,203658,1610612755,202699,1627788,1629680,1629003,2730,0022000354,2,850,850,0,0,1610612751
62,1610612751,1627789,1629013,1628971,204020,203658,1610612755,202699,1627788,1629680,1629003,2730,0022000354,2,863,865,0,0,1610612755
63,1610612751,1627789,1629013,1628971,204020,203658,1610612755,202699,1627788,1629680,1629003,2730,0022000354,2,871,876,2,0,1610612751
64,1610612751,1627789,1629013,1628971,204020,203658,1610612755,202699,1627788,1629680,1629003,2730,0022000354,2,886,899,0,2,1610612755
65,1610612751,1627789,1629013,1628971,204020,203658,1610612755,202699,1627788,1629680,1629003,2730,0022000354,2,913,913,3,0,1610612751
66,1610612751,1627789,1629013,1628971,204020,203658,1610612755,202699,1627788,1629680,1629003,2730,0022000354,2,933,933,0,2,1610612755
67,1610612751,1627789,1629013,1628971,204020,203658,1610612755,202699,1627788,1629680,1629003,2730,0022000354,2,946,958,2,0,1610612751
68,1610612751,1627789,1629013,1628971,204020,203658,1610612755,1629003,1629680,202699,203552,2730,0022000354,2,969,969,0,2,1610612755
69,1610612751,1627789,1629013,1628971,204020,203658,1610612755,1629003,1629680,202699,203552,2730,0022000354,2,995,995,3,0,1610612751
70,1610612751,1627789,1629013,1628971,204020,203658,1610612755,1629003,1629680,202699,203552,2730,0022000354,2,1008,1008,0,0,1610612755
71,1610612751,1627789,1629013,1628971,204020,203658,1610612755,1629003,1629680,202699,203552,2730,0022000354,2,1015,1018,0,0,1610612751
72,1610612751,1627789,1629013,1628971,204020,203658,1610612755,1629003,1629680,202699,203552,2730,0022000354,2,1026,1026,0,2,1610612755
73,1610612751,1627789,1629013,1628971,204020,203658,1610612755,1629003,1629680,202699,203552,2730,0022000354,2,1026,1041,2,0,1610612751
74,1610612751,1627789,1629013,1628971,204020,203658,1610612755,1629003,1629680,202699,203552,2730,0022000354,2,1055,1066,0,0,1610612755
75,1610612751,1627789,1629013,1628971,204020,203658,1610612755,1629003,1629680,202699,203552,2730,0022000354,2,1066,1091,2,0,1610612751
76,1610612751,1627789,1629013,1628971,204020,203658,1610612755,1627732,1629003,202699,203552,2730,0022000354,2,1104,1104,0,2,1610612755
77,1610612751,1627789,1629013,1628971,204020,203658,1610612755,1627732,1629003,202699,203552,2730,0022000354,2,1114,1114,2,0,1610612751
78,1610612751,1627789,1629013,1628971,204020,203658,1610612755,1627732,1629003,202699,203552,2730,0022000354,2,1133,1137,0,2,1610612755
79,1610612751,1629013,201145,201599,201935,203925,1610612755,1627732,1629003,201980,203552,203954,0022000354,2,1155,1155,0,0,1610612751
80,1610612751,1629013,201145,201599,201935,203925,1610612755,1627732,1629003,201980,203552,203954,0022000354,2,1160,1160,0,0,1610612755
81,1610612751,1629013,201145,201599,201935,203925,1610612755,1627732,1629003,201980,203552,203954,0022000354,2,1174,1174,2,0,1610612751
82,1610612751,1629013,201145,201599,201935,203925,1610612755,1627732,1629003,201980,203552,203954,0022000354,2,1187,1190,0,0,1610612755
83,1610612751,1629013,201145,201599,201935,203925,1610612755,1627732,1629003,201980,203552,203954,0022000354,2,1204,1204,2,0,1610612751
84,1610612751,1629013,201145,201599,201935,203925,1610612755,1627732,1629003,201980,203552,203954,0022000354,2,1221,1221,0,0,1610612755
85,1610612751,1629013,201145,201599,201935,203925,1610612755,1627732,1629003,201980,203552,203954,0022000354,2,1235,1235,2,0,1610612751
86,1610612751,1629013,201145,201599,201935,203925,1610612755,1627732,1629003,201980,203552,203954,0022000354,2,1245,1248,0,0,1610612755
87,1610612751,1629013,201145,201599,201935,203925,1610612755,1627732,1629003,201980,203552,203954,0022000354,2,1270,1270,2,0,1610612751
88,1610612751,1629013,201145,201599,201935,203925,1610612755,1627732,1629003,201980,203552,203954,0022000354,2,1289,1289,0,2,1610612755
89,1610612751,1629013,201145,201599,201935,203925,1610612755,1627732,1629003,201980,203552,203954,0022000354,2,1312,1316,0,0,1610612751
90,1610612751,1629013,201145,201599,201935,203925,1610612755,1627732,1629003,201980,203552,203954,0022000354,2,1319,1321,0,0,1610612755
91,1610612751,1629013,201145,201599,201935,203925,1610612755,1627732,1629003,201980,203552,203954,0022000354,2,1328,1328,3,0,1610612751
92,1610612751,1629013,201145,201599,201935,203925,1610612755,1627732,1629003,201980,203552,203954,0022000354,2,1345,1347,0,0,1610612755
93,1610612751,1629013,201145,201599,201935,203925,1610612755,1627732,1629003,201980,203552,203954,0022000354,2,1354,1357,0,0,1610612751
94,1610612751,1629013,201145,201599,201935,203925,1610612755,1627732,1629003,201980,203552,203954,0022000354,2,1366,1366,0,2,1610612755
95,1610612751,1629013,201145,201599,201935,203925,1610612755,1627732,1629003,201980,203552,203954,0022000354,2,1387,1390,0,0,1610612751
96,1610612751,1629013,201145,201599,201935,203925,1610612755,1627732,1629003,201980,203552,203954,0022000354,2,1393,1393,0,3,1610612755
97,1610612751,1629013,201145,201599,201935,203925,1610612755,1627732,1629003,201980,203552,203954,0022000354,2,1411,1414,0,0,1610612751
98,1610612751,1629013,201145,201599,201935,203925,1610612755,1627732,1629003,201980,203552,203954,0022000354,2,1434,1439,0,2,1610612755
99,1610612751,1629013,201145,201599,201935,203925,1610612755,1627732,1629003,201980,203552,203954,0022000354,2,1440,1440,0,0,1610612755
100,1610612751,1627789,201145,201599,203925,201935,1610612755,201980,202699,203954,203552,1627732,0022000354,3,1440,1452,3,0,1610612751
101,1610612751,1627789,201145,201599,203925,201935,1610612755,201980,202699,203954,203552,1627732,0022000354,3,1467,1467,0,3,1610612755
102,1610612751,1627789,201145,201599,203925,201935,1610612755,201980,202699,203954,203552,1627732,0022000354,3,1482,1484,0,0,1610612751
103,1610612751,1627789,201145,201599,203925,201935,1610612755,201980,202699,203954,203552,1627732,0022000354,3,1495,1495,0,2,1610612755
104,1610612751,1627789,201145,201599,203925,201935,1610612755,201980,202699,203954,203552,1627732,0022000354,3,1515,1515,2,0,1610612751
105,1610612751,1627789,201145,201599,203925,201935,1610612755,201980,202699,203954,203552,1627732,0022000354,3,1530,1530,0,3,1610612755
106,1610612751,1627789,201145,201599,203925,201935,1610612755,201980,202699,203954,203552,1627732,0022000354,3,1557,1557,3,0,1610612751
107,1610612751,1627789,201145,201599,203925,201935,1610612755,201980,202699,203954,203552,1627732,0022000354,3,1572,1574,0,0,1610612755
108,1610612751,1627789,201145,201599,203925,201935,1610612755,201980,202699,203954,203552,1627732,0022000354,3,1584,1584,3,0,1610612751
109,1610612751,1627789,201145,201599,203925,201935,1610612755,201980,202699,203954,203552,1627732,0022000354,3,1607,1614,0,0,1610612755
110,1610612751,1627789,201145,201599,203925,201935,1610612755,201980,202699,203954,203552,1627732,0022000354,3,1627,1627,2,0,1610612751
111,1610612751,1627789,201145,201599,203925,201935,1610612755,201980,202699,203954,203552,1627732,0022000354,3,1637,1644,0,2,1610612755
112,1610612751,1627789,201145,201599,203925,201935,1610612755,201980,202699,203954,203552,1627732,0022000354,3,1661,1661,2,0,1610612751
113,1610612751,1627789,201145,201599,203925,201935,1610612755,201980,202699,203954,203552,1627732,0022000354,3,1680,1682,0,1,1610612755
114,1610612751,1627789,201145,201599,203925,201935,1610612755,201980,202699,203954,203552,1627732,0022000354,3,1697,1697,2,0,1610612751
115,1610612751,1627789,201145,201599,203925,201935,1610612755,201980,202699,203954,203552,1627732,0022000354,3,1709,1709,0,2,1610612755
116,1610612751,1627789,201145,201599,203925,201935,1610612755,201980,202699,203954,203552,1627732,0022000354,3,1721,1727,0,0,1610612751
117,1610612751,1627789,201145,201599,203925,201935,1610612755,201980,202699,203954,203552,1627732,0022000354,3,1734,1734,0,2,1610612755
118,1610612751,1627789,201145,201599,203925,201935,1610612755,201980,202699,203954,203552,1627732,0022000354,3,1748,1748,0,0,1610612751
119,1610612751,1627789,201145,201599,203925,201935,1610612755,201980,202699,203954,203552,1627732,0022000354,3,1752,1752,0,2,1610612755
120,1610612751,1627789,201145,201599,203925,201935,1610612755,201980,202699,203954,203552,1627732,0022000354,3,1767,1775,3,0,1610612751
121,1610612751,1627789,1629013,201145,201599,201935,1610612755,1627732,1627788,201980,202699,203954,0022000354,3,1793,1793,0,3,1610612755
122,1610612751,1627789,1629013,201145,201599,201935,1610612755,1627732,1627788,201980,202699,203954,0022000354,3,1805,1809,0,0,1610612751
123,1610612751,1627789,1629013,201145,201599,201935,1610612755,1627732,1627788,201980,202699,203954,0022000354,3,1815,1820,0,0,1610612755
124,1610612751,1627789,1629013,201145,201599,201935,1610612755,1627732,1627788,201980,202699,203954,0022000354,3,1824,1825,0,0,1610612751
125,1610612751,1627789,1629013,201145,201599,201935,1610612755,1627732,1627788,201980,202699,203954,0022000354,3,1838,1841,0,0,1610612755
126,1610612751,1627789,1629013,201145,201599,201935,1610612755,1627732,1627788,201980,202699,203954,0022000354,3,1845,1845,2,0,1610612751
127,1610612751,1627789,1629013,201145,201599,201935,1610612755,1627732,1627788,201980,202699,203954,0022000354,3,1845,1859,1,2,1610612755
128,1610612751,1629013,201145,201599,201935,204020,1610612755,1627732,1627788,201980,202699,203954,0022000354,3,1881,1884,0,0,1610612751
129,1610612751,1629013,201145,201599,201935,204020,1610612755,1627732,1627788,201980,202699,203954,0022000354,3,1888,1888,0,3,1610612755
130,1610612751,1629013,201145,201599,201935,204020,1610612755,1627732,1627788,201980,202699,203954,0022000354,3,1902,1904,0,0,1610612751
131,1610612751,1629013,201145,201599,201935,204020,1610612755,1627732,1627788,201980,202699,203954,0022000354,3,1908,1908,0,3,1610612755
132,1610612751,1629013,201145,201599,201935,204020,1610612755,1627732,1627788,201980,202699,203954,0022000354,3,1910,1918,0,0,1610612751
133,1610612751,1629013,201145,201599,201935,204020,1610612755,1627732,1627788,1629680,201980,203954,0022000354,3,1927,1927,0,2,1610612755
134,1610612751,1629013,201145,201599,201935,204020,1610612755,1627732,1627788,1629680,201980,203954,0022000354,3,1947,1951,0,0,1610612751
135,1610612751,1629013,201145,201599,201935,204020,1610612755,1627732,1627788,1629680,201980,203954,0022000354,3,1952,1952,0,0,1610612755
136,1610612751,1629013,201145,201599,201935,204020,1610612755,1627732,1627788,1629680,201980,203954,0022000354,3,1963,1963,0,0,1610612751
137,1610612751,1629013,201145,201599,201935,204020,1610612755,1627732,1627788,1629680,201980,203954,0022000354,3,1967,1970,0,2,1610612755
138,1610612751,1629013,201145,201599,201935,204020,1610612755,1627732,1627788,1629680,201980,203954,0022000354,3,1970,1983,0,0,1610612751
139,1610612751,1629013,201145,201599,201935,204020,1610612755,1627732,1627788,1629680,201980,203954,0022000354,3,1992,1992,0,0,1610612755
140,1610612751,1629013,201145,201599,201935,204020,1610612755,1627732,1627788,1629680,201980,203954,0022000354,3,2011,2014,0,0,1610612751
141,1610612751,1629013,201145,201599,201935,204020,1610612755,1627732,1627788,1629680,201980,203954,0022000354,3,2028,2030,0,2,1610612755
142,1610612751,1629013,201145,201935,203658,204020,1610612755,1627732,1627788,1629680,201980,203954,0022000354,3,2048,2053,2,0,1610612751
143,1610612751,1629013,201145,201935,203658,204020,1610612755,1627732,1627788,1629680,201980,203954,0022000354,3,2066,2066,0,2,1610612755
144,1610612751,1629013,201145,201935,203658,204020,1610612755,1627732,1627788,1629003,1629680,203954,0022000354,3,2075,2075,2,0,1610612751
145,1610612751,1629013,201145,201935,203658,204020,1610612755,1627732,1627788,1629003,1629680,203954,0022000354,3,2088,2088,0,2,1610612755
146,1610612751,1629013,201145,201935,203658,204020,1610612755,1627732,1627788,1629003,1629680,203954,0022000354,3,2100,2100,0,0,1610612751
147,1610612751,1629013,201145,201935,203658,204020,1610612755,1627732,1627788,1629003,1629680,203954,0022000354,3,2101,2101,0,2,1610612755
148,1610612751,1629013,201145,201935,203658,204020,1610612755,1627732,1627788,1629003,1629680,203954,0022000354,3,2101,2124,0,0,1610612751
149,1610612751,1629013,201145,201935,203658,204020,1610612755,1627732,1627788,1629003,1629680,203954,0022000354,3,2126,2126,0,0,1610612755
150,1610612751,1629013,201145,201935,203658,204020,1610612755,1627732,1627788,1629003,1629680,203954,0022000354,3,2145,2145,3,0,1610612751
151,1610612751,1629013,201145,201935,203658,204020,1610612755,1627732,1627788,1629003,1629680,203954,0022000354,3,2156,2159,0,2,1610612755
152,1610612751,1629013,201145,201935,203658,204020,1610612755,1627732,1627788,1629003,1629680,203954,0022000354,3,2159,2159,0,0,1610612751
153,1610612751,1629013,201145,201935,203658,204020,1610612755,1627732,1627788,1629003,1629680,203954,0022000354,3,2160,2160,0,1,1610612755
154,1610612751,1629013,201145,201935,203658,204020,1610612755,1627732,1627788,1629003,1629680,203954,0022000354,3,2160,2160,0,0,468
155,1610612751,1627789,1629013,1628971,204020,203658,1610612755,202699,1627788,1629680,1629003,2730,0022000354,4,2160,2170,0,3,1610612755
156,1610612751,1627789,1629013,1628971,204020,203658,1610612755,202699,1627788,1629680,1629003,2730,0022000354,4,2188,2188,3,0,1610612751
157,1610612751,1627789,1629013,1628971,204020,203658,1610612755,202699,1627788,1629680,1629003,2730,0022000354,4,2211,2211,0,2,1610612755
158,1610612751,1627789,1629013,1628971,204020,203658,1610612755,202699,1627788,1629680,1629003,2730,0022000354,4,2221,2221,0,0,1610612751
159,1610612751,1627789,1629013,1628971,204020,203658,1610612755,202699,1627788,1629680,1629003,2730,0022000354,4,2231,2234,0,0,1610612755
160,1610612751,1627789,1629013,1628971,204020,203658,1610612755,202699,1627788,1629680,1629003,2730,0022000354,4,2240,2242,0,0,1610612751
161,1610612751,1627789,1629013,1628971,204020,203658,1610612755,202699,1627788,1629680,1629003,2730,0022000354,4,2252,2255,0,0,1610612755
162,1610612751,1627789,1629013,1628971,204020,203658,1610612755,202699,1627788,1629680,1629003,2730,0022000354,4,2267,2267,2,0,1610612751
163,1610612751,1627789,1629013,1628971,204020,203658,1610612755,202699,1627788,1629680,1629003,2730,0022000354,4,2283,2283,0,2,1610612755
164,1610612751,1627789,1629013,1628971,204020,203658,1610612755,202699,1627788,1629680,1629003,2730,0022000354,4,2295,2295,3,0,1610612751
165,1610612751,1627789,1629013,1628971,204020,203658,1610612755,202699,1627788,1629680,1629003,2730,0022000354,4,2318,2319,0,0,1610612755
166,1610612751,1627789,1629013,1628971,204020,203658,1610612755,202699,1627788,1629680,1629003,2730,0022000354,4,2329,2333,0,0,1610612751
167,1610612751,1627789,1629013,1628971,204020,203658,1610612755,202699,1627788,1629680,1629003,2730,0022000354,4,2335,2335,0,3,1610612755
168,1610612751,1627789,1629013,1628971,204020,203658,1610612755,202699,1627788,1629680,1629003,2730,0022000354,4,2357,2357,3,0,1610612751
169,1610612751,1627789,1629013,1628971,204020,203658,1610612755,202699,1627788,1629680,1629003,2730,0022000354,4,2371,2371,0,0,1610612755
170,1610612751,1627789,1629013,1628971,204020,203658,1610612755,1629003,1629680,202699,203552,2730,0022000354,4,2383,2404,0,0,1610612751
171,1610612751,1627789,1629013,1628971,204020,203658,1610612755,1629003,1629680,202699,203552,2730,0022000354,4,2408,2421,0,0,1610612755
172,1610612751,1627789,1629013,1628971,204020,203658,1610612755,1629003,1629680,202699,203552,2730,0022000354,4,2429,2429,0,0,1610612751
173,1610612751,1627789,1629013,1628971,204020,203658,1610612755,1629003,1629680,202699,203552,2730,0022000354,4,2438,2441,0,0,1610612755
174,1610612751,1627789,1629013,1628971,204020,203658,1610612755,1629003,1629680,202699,203552,2730,0022000354,4,2457,2457,2,0,1610612751
175,1610612751,1627789,1629013,1628971,204020,203658,1610612755,1629003,1629680,202699,203552,2730,0022000354,4,2479,2481,0,0,1610612755
176,1610612751,1627789,1629013,1628971,204020,203658,1610612755,1629003,1629680,202699,203552,2730,0022000354,4,2493,2493,0,0,1610612751
177,1610612751,1627789,1629013,1628971,204020,203658,1610612755,1629003,1629680,202699,203552,2730,0022000354,4,2502,2502,0,2,1610612755
178,1610612751,1627789,1629013,1628971,204020,203658,1610612755,1629003,1629680,202699,203552,2730,0022000354,4,2516,2516,0,0,1610612751
179,1610612751,1627789,1629013,1628971,204020,203658,1610612755,1629003,1629680,202699,203552,2730,0022000354,4,2535,2535,0,0,1610612755
180,1610612751,1627789,1629013,1628971,204020,203658,1610612755,1629003,1629680,202699,203552,2730,0022000354,4,2535,2555,0,0,1610612751
181,1610612751,1627789,1628971,1629185,203658,204020,1610612755,1627732,1629003,202699,203552,203954,0022000354,4,2567,2567,0,0,1610612755
182,1610612751,1627789,1628971,1629185,203658,204020,1610612755,1627732,1629003,202699,203552,203954,0022000354,4,2569,2571,1,0,1610612751
183,1610612751,1627789,1628971,1629185,203658,204020,1610612755,1627732,1629003,202699,203552,203954,0022000354,4,2593,2593,0,2,1610612755
184,1610612751,1627789,1628971,1629185,203658,204020,1610612755,1627732,1629003,202699,203552,203954,0022000354,4,2614,2614,0,0,1610612751
185,1610612751,1627789,1628971,1629185,203658,204020,1610612755,1627732,1629003,202699,203552,203954,0022000354,4,2618,2618,0,0,1610612755
186,1610612751,1627789,1628971,1629185,203658,204020,1610612755,1627732,1627788,1629003,203552,203954,0022000354,4,2618,2630,2,0,1610612751
187,1610612751,1627789,1628971,1629185,203658,204020,1610612755,1627732,1627788,1629003,203552,203954,0022000354,4,2650,2664,0,0,1610612755
188,1610612751,1627789,1628971,1629013,1629185,204020,1610612755,1627732,1627788,1629003,203552,203954,0022000354,4,2666,2673,0,0,1610612751
189,1610612751,1627789,1628971,1629013,1629185,204020,1610612755,1627732,1627788,1629003,1629680,203552,0022000354,4,2684,2684,0,0,1610612755
190,1610612751,1627789,1628971,1629013,1629185,204020,1610612755,1627732,1627788,1629003,1629680,203552,0022000354,4,2699,2699,2,0,1610612751
191,1610612751,1627789,1628971,1629013,1629185,204020,1610612755,1627732,1627788,1629003,1629680,203552,0022000354,4,2714,2714,0,0,1610612755
192,1610612751,1627789,1628971,1629013,1629185,204020,1610612755,1627732,1627788,1629003,1629680,203552,0022000354,4,2717,2717,2,0,1610612751
193,1610612751,1627789,1628971,1629013,1629185,204020,1610612755,1627732,1627788,1629003,1629680,1630178,0022000354,4,2730,2730,0,2,1610612755
194,1610612751,1627789,1628971,1629013,1629185,204020,1610612755,1627732,1627788,1629003,1629680,1630178,0022000354,4,2743,2747,0,0,1610612751
195,1610612751,1627789,1628971,1629013,1629185,204020,1610612755,1627732,1627788,1629003,1629680,1630178,0022000354,4,2754,2754,0,0,1610612755
196,1610612751,1627789,1628971,1629013,1629185,204020,1610612755,1627732,1627788,1629003,1629680,1630178,0022000354,4,2772,2775,0,0,1610612751
197,1610612751,1627789,1628971,1629013,1629185,204020,1610612755,1627732,1627788,1629003,1629680,1630178,0022000354,4,2792,2792,0,3,1610612755
198,1610612751,1627789,1628971,1629013,1629185,204020,1610612755,1627732,1627788,1629003,1629680,1630178,0022000354,4,2799,2799,2,0,1610612751
199,1610612751,1627789,1628971,1629013,1629185,204020,1610612755,1627788,1629003,1629680,1630178,1630198,0022000354,4,2817,2817,0,3,1610612755
200,1610612751,1627789,1628971,1629013,1629185,204020,1610612755,1627788,1629003,1629680,1630178,1630198,0022000354,4,2830,2832,0,0,1610612751
201,1610612751,1627789,1628971,1629013,1629185,204020,1610612755,1627788,1629003,1629680,1630178,1630198,0022000354,4,2856,2858,0,0,1610612755
202,1610612751,1627789,1628971,1629013,1629185,204020,1610612755,1627788,1629003,1629680,1630178,1630198,0022000354,4,2864,2872,0,0,1610612751
