,TEAM_ID_1,TEAM_1_PLAYERS,TEAM_ID_2,TEAM_2_PLAYERS,PERIOD
0,1610612737,[1627752 1629016  203458  203145 1629027],1610612747,[   2544 1628398  201580 1627742 1628366],1
1,1610612737,[1629016  203458  203145 1629027 1627761],1610612747,[ 201580 1628404  202362  203484  200765],2
2,1610612737,[1627752 1629016  203458  203145 1629027],1610612747,[   2544 1628398  201580 1627742 1628366],3
3,1610612737,[1627752  203458  203145 1629027    1713],1610612747,[1628404  202362    2199  203484  200765],4
