,TEAM_ID_1,TEAM_1_PLAYERS,TEAM_ID_2,TEAM_2_PLAYERS,PERIOD
0,1610612754,[ 203200 1626167 1627734 1630537 1627747],1610612741,[1629750  201942  202696  203897 1629632],1
1,1610612754,[1626167 1630537 1628470 1629103  202954],1610612741,[ 201942 1629632 1628972 1629744 1629076],2
2,1610612754,[ 203200 1626167 1627734 1630537 1627747],1610612741,[1629750  201942  202696  203897 1629632],3
3,1610612754,[1626167 1629052 1628470  202954 1630613],1610612741,[ 201942 1629632 1628972 1629744 1629076],4
