,TEAM_ID_1,TEAM_1_PLAYERS,TEAM_ID_2,TEAM_2_PLAYERS,PERIOD
0,1610612755,[1627788  202699  203954  203552 1630178],1610612748,[ 202710  200782 1630209 1629622  200768],1
1,1610612755,[1627788  202699 1627777  203083 1630198],1610612748,[ 200768 1629639  203473 1629130 1628997],2
2,1610612755,[1627788  202699  203954  203552 1630178],1610612748,[ 202710  200782 1630209 1629622  200768],3
3,1610612755,[ 202699 1630178 1627777  203083 1629718],1610612748,[ 200768 1629639  203473 1629130 1628997],4
