,TEAM_ID_1,TEAM_1_PLAYERS,TEAM_ID_2,TEAM_2_PLAYERS,PERIOD
0,1610612739,[1626224  201567 1628386 1630171 1629636],1610612764,[ 203078 1630264  203458  203526  201566],1
1,1610612739,[ 201567 1629636 1626204 1628392 1630271],1610612764,[ 201566 1629655  202397  202722 1629726],2
2,1610612739,[1626224  201567 1628386 1630171 1629636],1610612764,[ 203078 1630264  203458  203526  201566],3
3,1610612739,[1630171 1629636  203521 1626204 1628392],1610612764,[ 201566 1629655  202397  202722 1629726],4
