,t1_pm,t2_pm,stint_start,t2_points_scored,t2_players,t2_id,t1_id,t1_players,stint_end,t1_points_scored,margin_per_100,num_poss
0,6,-6,0,4,"[202710, 2772, 1628389, 1629130, 201609]",1610612748,1610612749,"[203114, 203507, 201572, 1628978, 201950]",301,10,30.0,20.0
1,6,-6,302,6,"[202710, 2772, 1628389, 1629130, 201609]",1610612748,1610612749,"[203114, 203507, 201572, 1628978, 201950]",364,12,24.0,25.0
2,6,-6,365,6,"[202710, 2772, 1628389, 1629130, 201609]",1610612748,1610612749,"[1627854, 1628978, 201572, 203114, 203507]",385,12,23.076923076923077,26.0
3,7,-7,386,6,"[1629130, 1629639, 202710, 203473, 2772]",1610612748,1610612749,"[1627854, 1628978, 201572, 203114, 203507]",407,13,25.0,28.0
4,7,-7,408,6,"[1629130, 1629639, 202710, 203473, 2772]",1610612748,1610612749,"[1626171, 1627854, 1628978, 200782, 203507]",467,13,21.875,32.0
5,11,-11,468,8,"[1629130, 1629639, 202710, 203473, 2738]",1610612748,1610612749,"[1626171, 1627854, 200782, 201950, 203114]",545,19,28.947368421052634,38.0
6,10,-10,546,14,"[1629134, 1629639, 202710, 203473, 2738]",1610612748,1610612749,"[1626171, 1627854, 200782, 201950, 203114]",629,24,22.727272727272727,44.0
7,12,-12,630,14,"[1628389, 1629134, 1629639, 202710, 2738]",1610612748,1610612749,"[1626171, 1627854, 200782, 201950, 203507]",679,26,25.53191489361702,47.0
8,12,-12,680,14,"[1628389, 1629134, 1629639, 202710, 2738]",1610612748,1610612749,"[1626171, 1626192, 200782, 201950, 203507]",685,26,25.0,48.0
9,12,-12,686,14,"[1629639, 201609, 202710, 203473, 2738]",1610612748,1610612749,"[1626171, 1626192, 1628978, 200782, 203507]",694,26,24.489795918367346,49.0
10,12,-12,695,14,"[1629130, 1629639, 201609, 203473, 2738]",1610612748,1610612749,"[1626171, 1626192, 1628978, 200782, 203507]",714,26,24.0,50.0
11,10,-10,715,16,"[1629639, 201609, 203473, 2738, 2772]",1610612748,1610612749,"[1626171, 1626192, 1627854, 1628978, 203507]",834,26,17.24137931034483,58.0
12,13,-13,835,16,"[1628389, 201609, 1629639, 2738, 1629134]",1610612748,1610612749,"[203114, 203507, 1628978, 1626171, 1626192]",862,29,22.033898305084744,59.0
13,11,-11,863,18,"[1628389, 201609, 1629639, 2738, 1629134]",1610612748,1610612749,"[1626171, 1626192, 201950, 203114, 203507]",922,29,17.1875,64.0
14,11,-11,923,20,"[1628389, 1629639, 201609, 202710, 2738]",1610612748,1610612749,"[1626192, 201572, 201950, 203114, 203507]",988,31,16.176470588235293,68.0
15,15,-15,989,20,"[1629130, 201609, 202710, 203473, 2738]",1610612748,1610612749,"[1626192, 200782, 201572, 201950, 203114]",1081,35,20.54794520547945,73.0
16,18,-18,1082,20,"[1629130, 1629134, 202710, 203473, 2738]",1610612748,1610612749,"[1627854, 200782, 201572, 201950, 203114]",1109,38,24.0,75.0
17,17,-17,1110,25,"[1628389, 1629130, 1629134, 202710, 2738]",1610612748,1610612749,"[1627854, 200782, 201572, 201950, 203507]",1220,42,20.481927710843372,83.0
18,17,-17,1221,27,"[1628389, 1629130, 1629134, 202710, 2772]",1610612748,1610612749,"[1627854, 200782, 201572, 201950, 203507]",1271,44,19.767441860465116,86.0
19,17,-17,1272,30,"[1628389, 1629130, 201609, 202710, 2772]",1610612748,1610612749,"[1627854, 200782, 201572, 201950, 203507]",1334,47,18.681318681318682,91.0
20,15,-15,1335,32,"[1628389, 1629130, 201609, 202710, 2772]",1610612748,1610612749,"[200782, 201572, 201950, 203114, 203507]",1389,47,15.789473684210526,95.0
21,13,-13,1390,36,"[1629130, 201609, 202710, 203473, 2772]",1610612748,1610612749,"[1627854, 201572, 201950, 203114, 203507]",1437,49,13.26530612244898,98.0
22,13,-13,1438,36,"[1628389, 1629130, 201609, 202710, 2772]",1610612748,1610612749,"[1626171, 1626192, 200782, 203114, 203507]",1437,49,13.26530612244898,98.0
23,13,-13,1438,36,"[201609, 202710, 203473, 2738, 2772]",1610612748,1610612749,"[1626171, 1627854, 201950, 203114, 203507]",1439,49,13.0,100.0
24,16,-16,1440,40,"[201609, 202710, 203473, 2738, 2772]",1610612748,1610612749,"[1626171, 200782, 201950, 203114, 203507]",1622,56,14.035087719298245,114.0
25,16,-16,1623,40,"[202710, 2772, 1628389, 1629130, 201609]",1610612748,1610612749,"[203114, 203507, 201572, 201950, 1627854]",1696,56,13.559322033898304,118.0
26,17,-17,1697,42,"[1628389, 1629639, 201609, 202710, 2772]",1610612748,1610612749,"[203114, 203507, 201572, 201950, 1627854]",1752,59,13.821138211382115,123.0
27,17,-17,1753,42,"[1628389, 1629639, 201609, 202710, 2772]",1610612748,1610612749,"[1626192, 1627854, 201572, 203114, 203507]",1784,59,13.600000000000001,125.0
28,16,-16,1785,45,"[1628389, 1629639, 201609, 202710, 2772]",1610612748,1610612749,"[1626171, 1626192, 1627854, 203114, 203507]",1829,61,12.598425196850393,127.0
29,14,-14,1830,50,"[1628389, 1629639, 201609, 202357, 202710]",1610612748,1610612749,"[1626171, 1626192, 1627854, 203114, 203507]",1877,64,10.76923076923077,130.0
30,16,-16,1878,50,"[1628389, 1629639, 201609, 202357, 202710]",1610612748,1610612749,"[1626171, 1626192, 200782, 201950, 203114]",1904,66,12.121212121212121,132.0
31,20,-20,1905,52,"[1629639, 201609, 202357, 202710, 203473]",1610612748,1610612749,"[1626171, 1626192, 200782, 201950, 203114]",1957,72,14.814814814814813,135.0
32,21,-21,1958,53,"[1629134, 1629639, 202357, 202710, 203473]",1610612748,1610612749,"[1626171, 1626192, 200782, 201950, 203114]",1992,74,15.107913669064748,139.0
33,24,-24,1993,56,"[1629639, 202357, 202710, 203473, 2738]",1610612748,1610612749,"[1626171, 1626192, 200782, 201950, 203114]",2070,80,16.666666666666664,144.0
34,24,-24,2071,60,"[1628389, 1629639, 202357, 202710, 2738]",1610612748,1610612749,"[1626171, 1626192, 200782, 201950, 203507]",2158,84,16.10738255033557,149.0
35,23,-23,2159,65,"[1628389, 1629639, 202357, 202710, 2738]",1610612748,1610612749,"[1626171, 1627854, 200782, 201950, 203507]",2285,88,14.64968152866242,157.0
36,21,-21,2286,70,"[202710, 1628389, 1629130, 201609, 202357]",1610612748,1610612749,"[203114, 203507, 201572, 200782, 201952]",2407,91,12.804878048780488,164.0
37,24,-24,2408,70,"[202710, 1628389, 1629130, 201609, 202357]",1610612748,1610612749,"[1626192, 201572, 201950, 203114, 203507]",2411,94,14.545454545454545,165.0
38,25,-25,2412,73,"[202710, 1628389, 1629130, 201609, 202357]",1610612748,1610612749,"[200782, 201572, 201950, 203114, 203507]",2491,98,14.534883720930234,172.0
39,30,-30,2492,73,"[202710, 1628389, 1629130, 201609, 202357]",1610612748,1610612749,"[1626192, 200782, 201572, 201950, 203114]",2546,103,17.142857142857142,175.0
40,30,-30,2547,75,"[1629134, 1629639, 201609, 202357, 203473]",1610612748,1610612749,"[1626192, 200782, 201572, 201950, 203114]",2571,105,16.94915254237288,177.0
41,30,-30,2572,77,"[1629134, 1629216, 1629639, 202357, 203473]",1610612748,1610612749,"[1626171, 1626192, 200782, 201952, 203114]",2626,107,16.666666666666664,180.0
42,28,-28,2627,81,"[1629134, 1629216, 1629639, 202357, 203473]",1610612748,1610612749,"[1626171, 1626192, 1629670, 200782, 201952]",2746,109,14.659685863874344,191.0
43,29,-29,2747,84,"[1629134, 1629216, 1629639, 1630173, 202357]",1610612748,1610612749,"[1629091, 1629603, 1629670, 1630241, 201952]",2864,113,14.572864321608039,199.0
44,29,-29,2865,84,"[1629134, 1629216, 1629639, 1630173, 202357]",1610612748,1610612749,"[1626253, 1629091, 1629603, 1629670, 1630241]",9999999,113,14.499999999999998,200.0
