,team1_id,team1_player1,team1_player2,team1_player3,team1_player4,team1_player5,team2_id,team2_player1,team2_player2,team2_player3,team2_player4,team2_player5,game_id,period,possession_start,possession_end,team1_points,team2_points,possession_team
0,1610612745,1629726,1630256,1626174,1629645,1630224,1610612740,1630230,1629637,202685,1630529,1628984,0022101017,1,0,18,0,0,1610612740
1,1610612745,1629726,1630256,1626174,1629645,1630224,1610612740,1630230,1629637,202685,1630529,1628984,0022101017,1,31,31,2,0,1610612745
2,1610612745,1629726,1630256,1626174,1629645,1630224,1610612740,1630230,1629637,202685,1630529,1628984,0022101017,1,41,41,0,2,1610612740
3,1610612745,1629726,1630256,1626174,1629645,1630224,1610612740,1630230,1629637,202685,1630529,1628984,0022101017,1,60,60,3,0,1610612745
4,1610612745,1629726,1630256,1626174,1629645,1630224,1610612740,1630230,1629637,202685,1630529,1628984,0022101017,1,71,71,0,3,1610612740
5,1610612745,1629726,1630256,1626174,1629645,1630224,1610612740,1630230,1629637,202685,1630529,1628984,0022101017,1,86,91,0,0,1610612745
6,1610612745,1629726,1630256,1626174,1629645,1630224,1610612740,1630230,1629637,202685,1630529,1628984,0022101017,1,102,104,0,0,1610612740
7,1610612745,1629726,1630256,1626174,1629645,1630224,1610612740,1630230,1629637,202685,1630529,1628984,0022101017,1,109,109,2,0,1610612745
8,1610612745,1629726,1630256,1626174,1629645,1630224,1610612740,1630230,1629637,202685,1630529,1628984,0022101017,1,126,126,0,2,1610612740
9,1610612745,1629726,1630256,1626174,1629645,1630224,1610612740,1630230,1629637,202685,1630529,1628984,0022101017,1,134,138,0,0,1610612745
10,1610612745,1629726,1630256,1626174,1629645,1630224,1610612740,1630230,1629637,202685,1630529,1628984,0022101017,1,144,144,0,1,1610612740
11,1610612745,1629726,1630256,1626174,1629645,1630224,1610612740,1630230,1629637,202685,1630529,1628984,0022101017,1,157,161,0,0,1610612745
12,1610612745,1629726,1630256,1626174,1629645,1630224,1610612740,1630230,1629637,202685,1630529,1628984,0022101017,1,168,171,0,0,1610612740
13,1610612745,1629726,1630256,1626174,1629645,1630224,1610612740,1630230,1629637,202685,1630529,1628984,0022101017,1,183,187,0,0,1610612745
14,1610612745,1629726,1630256,1626174,1629645,1630224,1610612740,1630230,1629637,202685,1630529,1628984,0022101017,1,191,191,0,2,1610612740
15,1610612745,1629726,1630256,1626174,1629645,1630224,1610612740,1630230,1629637,202685,1630529,1628984,0022101017,1,205,210,2,0,1610612745
16,1610612745,1629726,1630256,1626174,1629645,1630224,1610612740,1630230,1629637,202685,1630529,1628984,0022101017,1,215,215,0,0,1610612740
17,1610612745,1629726,1630256,1626174,1629645,1630224,1610612740,1630230,1629637,202685,1630529,1628984,0022101017,1,227,237,1,0,1610612745
18,1610612745,1629726,1630256,1626174,1629645,1630224,1610612740,1630230,1629637,202685,1630529,1628984,0022101017,1,240,240,0,0,1610612740
19,1610612745,1629726,1630256,1626174,1629645,1630224,1610612740,1630230,1629637,202685,1630529,1628984,0022101017,1,252,252,2,0,1610612745
20,1610612745,1629726,1630256,1626174,1629645,1630224,1610612740,1630230,1629637,202685,1630529,1628984,0022101017,1,273,276,0,2,1610612740
21,1610612745,1629726,1630256,1626174,1629645,1630224,1610612740,1630230,1629637,202685,1630529,1628984,0022101017,1,291,291,2,0,1610612745
22,1610612745,1629726,1630256,1626174,1629645,1630224,1610612740,1630230,1629637,202685,1630529,1628984,0022101017,1,300,303,0,0,1610612740
23,1610612745,1629726,1630256,1626174,1629645,1630224,1610612740,1630230,1629637,202685,1630529,1628984,0022101017,1,313,314,3,0,1610612745
24,1610612745,1629726,1630256,1626174,1629645,1630224,1610612740,1626195,1628984,1629637,1630529,1630631,0022101017,1,328,328,0,3,1610612740
25,1610612745,1629726,1630256,1626174,1629645,1630224,1610612740,1626195,1628984,1629637,1630529,1630631,0022101017,1,348,351,0,0,1610612745
26,1610612745,1629726,1630256,1626174,1629645,1630224,1610612740,1626195,1628984,1629637,1630529,1630631,0022101017,1,355,355,0,0,1610612740
27,1610612745,1629726,1630256,1626174,1629645,1630224,1610612740,1626195,1628984,1629637,1630529,1630631,0022101017,1,361,362,0,0,1610612745
28,1610612745,1629726,1630256,1626174,1629645,1630224,1610612740,1626195,1628984,1629637,1630529,1630631,0022101017,1,362,374,0,3,1610612740
29,1610612745,1629726,1630256,1626174,1629645,1630224,1610612740,1626195,1628984,1630529,1630530,1630631,0022101017,1,396,396,0,0,1610612745
30,1610612745,1629726,1630256,1626174,1629645,1630224,1610612740,1626195,1628984,1630529,1630530,1630631,0022101017,1,409,413,0,0,1610612740
31,1610612745,1629726,1630256,1626174,1629645,1630224,1610612740,1626195,1628984,1630529,1630530,1630631,0022101017,1,421,421,0,0,1610612745
32,1610612745,1629726,1630256,1626174,1629645,1630224,1610612740,1626195,1628984,1630529,1630530,1630631,0022101017,1,428,431,0,2,1610612740
33,1610612745,1629726,1630256,1626174,1629645,1630224,1610612740,1626195,1628984,1630529,1630530,1630631,0022101017,1,438,438,0,0,1610612745
34,1610612745,1629726,1630256,1626174,1629645,1630224,1610612740,1626195,1628984,1630529,1630530,1630631,0022101017,1,442,445,0,0,1610612740
35,1610612745,1629726,1630256,1626174,1629645,1630224,1610612740,1626195,1628984,1630529,1630530,1630631,0022101017,1,458,458,2,0,1610612745
36,1610612745,1629726,1630256,1626174,1629645,1630224,1610612740,1626195,1628984,1630529,1630530,1630631,0022101017,1,474,478,0,0,1610612740
37,1610612745,1629726,1630256,1626174,1629645,1630224,1610612740,1626195,1628984,1630529,1630530,1630631,0022101017,1,490,490,2,0,1610612745
38,1610612745,1629726,1630256,1626174,1629645,1630224,1610612740,1626195,1628984,1630529,1630530,1630631,0022101017,1,497,509,0,2,1610612740
39,1610612745,1626174,1629645,1630224,1630528,1630578,1610612740,1626195,1627820,1630529,1630530,1630631,0022101017,1,531,531,3,0,1610612745
40,1610612745,1626174,1629645,1630224,1630528,1630578,1610612740,1626195,1627820,1630529,1630530,1630631,0022101017,1,549,551,0,0,1610612740
41,1610612745,1626174,1629645,1630224,1630528,1630578,1610612740,1626195,1627820,1630529,1630530,1630631,0022101017,1,555,555,0,0,1610612745
42,1610612745,1629645,1630224,1630231,1630528,1630578,1610612740,1626195,1627820,1630230,1630530,1630631,0022101017,1,568,571,0,2,1610612740
43,1610612745,1629645,1630224,1630231,1630528,1630578,1610612740,1626195,1627820,1630230,1630530,1630631,0022101017,1,596,600,0,0,1610612745
44,1610612745,1629645,1630224,1630231,1630528,1630578,1610612740,1626195,1627820,1630230,1630530,1630631,0022101017,1,618,618,0,1,1610612740
45,1610612745,1630224,1630227,1630231,1630528,1630578,1610612740,1626195,1627820,1630230,1630530,1630631,0022101017,1,638,638,2,0,1610612745
46,1610612745,1630224,1630227,1630231,1630528,1630578,1610612740,1626195,1627820,1630230,1630530,1630631,0022101017,1,646,650,0,0,1610612740
47,1610612745,1630224,1630227,1630231,1630528,1630578,1610612740,1626195,1627820,1630230,1630530,1630631,0022101017,1,652,658,2,0,1610612745
48,1610612745,1629726,1630227,1630231,1630528,1630578,1610612740,1627820,1630230,1630530,1630631,202685,0022101017,1,676,679,0,0,1610612740
49,1610612745,1629726,1630227,1630231,1630528,1630578,1610612740,1627820,1630230,1630530,1630631,202685,0022101017,1,683,683,1,0,1610612745
50,1610612745,1629726,1630227,1630231,1630528,1630578,1610612740,1627820,1630230,1630530,1630631,202685,0022101017,1,689,689,0,2,1610612740
51,1610612745,1629726,1630227,1630231,1630528,1630578,1610612740,1627820,1630230,1630530,1630631,202685,0022101017,1,714,714,3,0,1610612745
52,1610612745,1629726,1630227,1630231,1630528,1630578,1610612740,1627820,1630230,1630530,1630631,202685,0022101017,1,720,720,0,2,1610612740
53,1610612745,1629726,1630578,1630528,1630231,1630227,1610612740,1630230,202685,1628984,1630530,1627820,0022101017,2,720,743,0,0,1610612745
54,1610612745,1629726,1630578,1630528,1630231,1630227,1610612740,1630230,202685,1628984,1630530,1627820,0022101017,2,744,744,0,0,1610612740
55,1610612745,1629726,1630578,1630528,1630231,1630227,1610612740,1630230,202685,1628984,1630530,1627820,0022101017,2,760,760,2,0,1610612745
56,1610612745,1629726,1630578,1630528,1630231,1630227,1610612740,1630230,202685,1628984,1630530,1627820,0022101017,2,773,776,0,2,1610612740
57,1610612745,1629726,1630578,1630528,1630231,1630227,1610612740,1630230,202685,1628984,1630530,1627820,0022101017,2,784,790,2,0,1610612745
58,1610612745,1629726,1630578,1630528,1630231,1630227,1610612740,1630230,202685,1628984,1630530,1627820,0022101017,2,790,808,0,2,1610612740
59,1610612745,1629726,1630578,1630528,1630231,1630227,1610612740,1630230,202685,1628984,1630530,1627820,0022101017,2,819,819,0,0,1610612745
60,1610612745,1629726,1630578,1630528,1630231,1630227,1610612740,1630230,202685,1628984,1630530,1627820,0022101017,2,827,827,0,0,1610612740
61,1610612745,1629726,1630578,1630528,1630231,1630227,1610612740,1630230,202685,1628984,1630530,1627820,0022101017,2,839,840,0,0,1610612745
62,1610612745,1629726,1630578,1630528,1630231,1630227,1610612740,1630230,202685,1628984,1630530,1627820,0022101017,2,844,845,0,0,1610612740
63,1610612745,1629726,1630578,1630528,1630231,1630227,1610612740,1630230,202685,1628984,1630530,1627820,0022101017,2,861,861,2,0,1610612745
64,1610612745,1629726,1630578,1630528,1630231,1630227,1610612740,1630230,202685,1628984,1630530,1627820,0022101017,2,881,884,0,2,1610612740
65,1610612745,1629726,1630227,1630256,1630528,1630578,1610612740,1630230,202685,1628984,1630530,1627820,0022101017,2,892,892,3,0,1610612745
66,1610612745,1629726,1630227,1630256,1630528,1630578,1610612740,1630230,202685,1628984,1630530,1627820,0022101017,2,913,913,0,2,1610612740
67,1610612745,1629726,1630227,1630256,1630528,1630578,1610612740,1630230,202685,1628984,1630530,1627820,0022101017,2,934,934,2,0,1610612745
68,1610612745,1629726,1630227,1630256,1630528,1630578,1610612740,1630230,202685,1628984,1630530,1627820,0022101017,2,945,945,0,3,1610612740
69,1610612745,1626174,1629726,1630227,1630256,1630528,1610612740,1630230,1630529,1630530,1630631,202685,0022101017,2,957,961,0,0,1610612745
70,1610612745,1626174,1629726,1630227,1630256,1630528,1610612740,1630230,1630529,1630530,1630631,202685,0022101017,2,974,974,0,2,1610612740
71,1610612745,1626174,1629726,1630227,1630256,1630528,1610612740,1630230,1630529,1630530,1630631,202685,0022101017,2,986,986,0,0,1610612745
72,1610612745,1626174,1629726,1630227,1630256,1630528,1610612740,1629637,1630230,1630529,1630631,202685,0022101017,2,999,1003,0,2,1610612740
73,1610612745,1626174,1629726,1630227,1630256,1630528,1610612740,1629637,1630230,1630529,1630631,202685,0022101017,2,1005,1029,0,0,1610612745
74,1610612745,1626174,1629726,1630227,1630256,1630528,1610612740,1629637,1630230,1630529,1630631,202685,0022101017,2,1036,1053,0,2,1610612740
75,1610612745,1626174,1629726,1630227,1630256,1630528,1610612740,1629637,1630230,1630529,1630631,202685,0022101017,2,1067,1070,0,0,1610612745
76,1610612745,1626174,1629645,1629726,1630224,1630256,1610612740,1628984,1629637,1630529,1630631,202685,0022101017,2,1089,1093,0,0,1610612740
77,1610612745,1626174,1629645,1629726,1630224,1630256,1610612740,1628984,1629637,1630529,1630631,202685,0022101017,2,1100,1105,2,0,1610612745
78,1610612745,1626174,1629645,1629726,1630224,1630256,1610612740,1628984,1629637,1630529,1630631,202685,0022101017,2,1120,1129,0,2,1610612740
79,1610612745,1626174,1629645,1629726,1630224,1630231,1610612740,1626195,1628984,1629637,1630529,1630631,0022101017,2,1146,1151,0,0,1610612745
80,1610612745,1626174,1629645,1629726,1630224,1630231,1610612740,1626195,1628984,1629637,1630529,1630631,0022101017,2,1154,1154,0,2,1610612740
81,1610612745,1626174,1629645,1629726,1630224,1630231,1610612740,1626195,1628984,1629637,1630529,1630631,0022101017,2,1162,1162,2,0,1610612745
82,1610612745,1626174,1629645,1629726,1630224,1630231,1610612740,1626195,1628984,1629637,1630529,1630631,0022101017,2,1173,1173,0,3,1610612740
83,1610612745,1626174,1629645,1629726,1630224,1630231,1610612740,1626195,1628984,1629637,1630529,1630631,0022101017,2,1181,1184,0,0,1610612745
84,1610612745,1626174,1629645,1629726,1630224,1630231,1610612740,1626195,1628984,1629637,1630529,1630631,0022101017,2,1185,1185,0,3,1610612740
85,1610612745,1626174,1629645,1629726,1630224,1630231,1610612740,1626195,1628984,1629637,1630529,1630631,0022101017,2,1203,1205,1,0,1610612745
86,1610612745,1626174,1629645,1629726,1630224,1630231,1610612740,1626195,1628984,1629637,1630230,1630631,0022101017,2,1216,1218,0,0,1610612740
87,1610612745,1626174,1629645,1629726,1630224,1630231,1610612740,1626195,1628984,1629637,1630230,1630631,0022101017,2,1225,1228,0,0,1610612745
88,1610612745,1626174,1629645,1629726,1630224,1630231,1610612740,1626195,1628984,1629637,1630230,1630631,0022101017,2,1242,1242,0,2,1610612740
89,1610612745,1626174,1629645,1629726,1630224,1630231,1610612740,1626195,1628984,1629637,1630230,1630631,0022101017,2,1251,1251,0,0,1610612745
90,1610612745,1626174,1629645,1629726,1630224,1630231,1610612740,1626195,1628984,1629637,1630230,1630631,0022101017,2,1262,1262,0,2,1610612740
91,1610612745,1626174,1629645,1629726,1630224,1630231,1610612740,1626195,1628984,1629637,1630230,1630631,0022101017,2,1275,1275,3,0,1610612745
92,1610612745,1626174,1629645,1629726,1630224,1630231,1610612740,1628984,1629637,1630230,1630631,202685,0022101017,2,1287,1287,0,1,1610612740
93,1610612745,1626174,1629645,1629726,1630224,1630231,1610612740,1628984,1629637,1630230,1630631,202685,0022101017,2,1306,1306,2,0,1610612745
94,1610612745,1626174,1629645,1629726,1630224,1630231,1610612740,1628984,1629637,1630230,1630631,202685,0022101017,2,1317,1321,0,0,1610612740
95,1610612745,1626174,1629645,1629726,1630224,1630231,1610612740,1628984,1629637,1630230,1630631,202685,0022101017,2,1322,1322,2,0,1610612745
96,1610612745,1626174,1629645,1629726,1630224,1630231,1610612740,1628984,1629637,1630230,1630631,202685,0022101017,2,1338,1338,0,3,1610612740
97,1610612745,1626174,1629645,1629726,1630224,1630231,1610612740,1628984,1629637,1630230,1630631,202685,0022101017,2,1359,1366,0,0,1610612745
98,1610612745,1626174,1629645,1629726,1630224,1630231,1610612740,1628984,1629637,1630230,1630631,202685,0022101017,2,1378,1378,0,2,1610612740
99,1610612745,1626174,1629645,1629726,1630224,1630231,1610612740,1628984,1629637,1630230,1630631,202685,0022101017,2,1388,1391,0,0,1610612745
100,1610612745,1626174,1629645,1629726,1630224,1630231,1610612740,1628984,1629637,1630230,1630631,202685,0022101017,2,1395,1395,0,2,1610612740
101,1610612745,1626174,1629645,1629726,1630224,1630231,1610612740,1628984,1629637,1630230,1630631,202685,0022101017,2,1412,1415,0,0,1610612745
102,1610612745,1626174,1629645,1629726,1630224,1630231,1610612740,1628984,1629637,1630230,1630631,202685,0022101017,2,1433,1436,0,0,1610612740
103,1610612745,1626174,1629645,1629726,1630224,1630231,1610612740,1628984,1629637,1630230,1630631,202685,0022101017,2,1439,1440,0,0,1610612745
104,1610612745,1629726,1630256,1626174,1629645,1630224,1610612740,1630230,1629637,202685,1630529,1628984,0022101017,3,1440,1449,3,0,1610612745
105,1610612745,1629726,1630256,1626174,1629645,1630224,1610612740,1630230,1629637,202685,1630529,1628984,0022101017,3,1465,1465,0,2,1610612740
106,1610612745,1629726,1630256,1626174,1629645,1630224,1610612740,1630230,1629637,202685,1630529,1628984,0022101017,3,1486,1486,0,0,1610612745
107,1610612745,1629726,1630256,1626174,1629645,1630224,1610612740,1630230,1629637,202685,1630529,1628984,0022101017,3,1501,1501,0,2,1610612740
108,1610612745,1629726,1630256,1626174,1629645,1630224,1610612740,1630230,1629637,202685,1630529,1628984,0022101017,3,1516,1516,3,0,1610612745
109,1610612745,1629726,1630256,1626174,1629645,1630224,1610612740,1630230,1629637,202685,1630529,1628984,0022101017,3,1530,1530,0,2,1610612740
110,1610612745,1629726,1630256,1626174,1629645,1630224,1610612740,1630230,1629637,202685,1630529,1628984,0022101017,3,1550,1550,0,0,1610612745
111,1610612745,1629726,1630256,1626174,1629645,1630224,1610612740,1630230,1629637,202685,1630529,1628984,0022101017,3,1556,1556,0,2,1610612740
112,1610612745,1629726,1630256,1626174,1629645,1630224,1610612740,1630230,1629637,202685,1630529,1628984,0022101017,3,1579,1579,0,0,1610612745
113,1610612745,1629726,1630256,1626174,1629645,1630224,1610612740,1630230,1629637,202685,1630529,1628984,0022101017,3,1588,1588,0,3,1610612740
114,1610612745,1629726,1630256,1626174,1629645,1630224,1610612740,1630230,1629637,202685,1630529,1628984,0022101017,3,1590,1614,0,0,1610612745
115,1610612745,1629726,1630256,1626174,1629645,1630224,1610612740,1630230,1629637,202685,1630529,1628984,0022101017,3,1624,1624,0,0,1610612740
116,1610612745,1629726,1630256,1626174,1629645,1630224,1610612740,1630230,1629637,202685,1630529,1628984,0022101017,3,1638,1638,0,0,1610612745
117,1610612745,1629726,1630256,1626174,1629645,1630224,1610612740,1630230,1629637,202685,1630529,1628984,0022101017,3,1655,1661,0,0,1610612740
118,1610612745,1629726,1630256,1626174,1629645,1630224,1610612740,1628984,1630230,1630529,1630530,202685,0022101017,3,1672,1679,0,0,1610612745
119,1610612745,1629726,1630256,1626174,1629645,1630224,1610612740,1628984,1630230,1630529,1630530,202685,0022101017,3,1687,1691,0,2,1610612740
120,1610612745,1629726,1630256,1626174,1629645,1630224,1610612740,1628984,1630230,1630529,1630530,202685,0022101017,3,1694,1694,2,0,1610612745
121,1610612745,1629726,1630256,1626174,1629645,1630224,1610612740,1628984,1630230,1630529,1630530,202685,0022101017,3,1703,1703,0,0,1610612740
122,1610612745,1629726,1630256,1626174,1629645,1630224,1610612740,1628984,1630230,1630529,1630530,202685,0022101017,3,1707,1707,0,0,1610612745
123,1610612745,1629726,1630256,1626174,1629645,1630224,1610612740,1628984,1630230,1630529,1630530,202685,0022101017,3,1728,1728,0,2,1610612740
124,1610612745,1629726,1630256,1626174,1629645,1630224,1610612740,1628984,1630230,1630529,1630530,202685,0022101017,3,1742,1742,0,0,1610612745
125,1610612745,1629726,1630256,1626174,1629645,1630224,1610612740,1628984,1630529,1630530,1630631,202685,0022101017,3,1759,1759,0,3,1610612740
126,1610612745,1629726,1630256,1626174,1629645,1630224,1610612740,1628984,1630529,1630530,1630631,202685,0022101017,3,1769,1769,3,0,1610612745
127,1610612745,1629726,1630256,1626174,1629645,1630224,1610612740,1628984,1630529,1630530,1630631,202685,0022101017,3,1778,1778,0,0,1610612740
128,1610612745,1629726,1630256,1626174,1629645,1630224,1610612740,1626195,1627820,1630529,1630530,1630631,0022101017,3,1796,1817,1,0,1610612745
129,1610612745,1629726,1630256,1626174,1629645,1630224,1610612740,1626195,1627820,1630529,1630530,1630631,0022101017,3,1821,1821,0,2,1610612740
130,1610612745,1629726,1630256,1626174,1629645,1630224,1610612740,1626195,1627820,1630529,1630530,1630631,0022101017,3,1829,1829,0,0,1610612745
131,1610612745,1629726,1630256,1626174,1629645,1630224,1610612740,1626195,1627820,1630529,1630530,1630631,0022101017,3,1850,1866,0,0,1610612740
132,1610612745,1629726,1630256,1626174,1629645,1630224,1610612740,1626195,1627820,1630529,1630530,1630631,0022101017,3,1874,1877,0,0,1610612745
133,1610612745,1629726,1630256,1626174,1629645,1630224,1610612740,1626195,1627820,1630529,1630530,1630631,0022101017,3,1884,1888,0,0,1610612740
134,1610612745,1626174,1629645,1630224,1630528,1630578,1610612740,1626195,1627820,1630529,1630530,1630631,0022101017,3,1896,1896,3,0,1610612745
135,1610612745,1626174,1629645,1630224,1630528,1630578,1610612740,1626195,1627820,1630529,1630530,1630631,0022101017,3,1917,1917,0,2,1610612740
136,1610612745,1626174,1629645,1630224,1630528,1630578,1610612740,1626195,1627820,1630529,1630530,1630631,0022101017,3,1938,1938,0,0,1610612745
137,1610612745,1626174,1629645,1630224,1630528,1630578,1610612740,1626195,1627820,1630529,1630530,1630631,0022101017,3,1943,1947,0,2,1610612740
138,1610612745,1626174,1629645,1630224,1630528,1630578,1610612740,1626195,1627820,1630529,1630530,1630631,0022101017,3,1947,1971,0,0,1610612745
139,1610612745,1629645,1630224,1630231,1630528,1630578,1610612740,1626195,1627820,1630529,1630530,1630631,0022101017,3,1973,1973,0,0,1610612740
140,1610612745,1629645,1630224,1630231,1630528,1630578,1610612740,1626195,1627820,1630529,1630530,1630631,0022101017,3,1989,1995,0,0,1610612745
141,1610612745,1629645,1630224,1630231,1630528,1630578,1610612740,1626195,1627820,1630529,1630530,1630631,0022101017,3,2018,2021,0,0,1610612740
142,1610612745,1629645,1630224,1630231,1630528,1630578,1610612740,1626195,1627820,1630529,1630530,1630631,0022101017,3,2023,2023,0,0,1610612745
143,1610612745,1630224,1630227,1630231,1630528,1630578,1610612740,1626195,1627820,1630230,1630530,1630631,0022101017,3,2037,2040,0,0,1610612740
144,1610612745,1630224,1630227,1630231,1630528,1630578,1610612740,1626195,1627820,1630230,1630530,1630631,0022101017,3,2048,2048,0,0,1610612745
145,1610612745,1628021,1630227,1630231,1630528,1630578,1610612740,1626195,1627820,1630230,1630530,1630631,0022101017,3,2067,2067,0,2,1610612740
146,1610612745,1628021,1630227,1630231,1630528,1630578,1610612740,1626195,1627820,1630230,1630530,1630631,0022101017,3,2084,2084,0,0,1610612745
147,1610612745,1628021,1630227,1630231,1630528,1630578,1610612740,1626195,1627820,1630230,1630530,1630631,0022101017,3,2097,2100,0,0,1610612740
148,1610612745,1628021,1630227,1630231,1630528,1630578,1610612740,1626195,1627820,1630230,1630530,1630631,0022101017,3,2103,2105,2,0,1610612745
149,1610612745,1628021,1630227,1630231,1630528,1630578,1610612740,1626195,1627820,1630230,1630530,1630631,0022101017,3,2127,2127,0,2,1610612740
150,1610612745,1628021,1630227,1630231,1630528,1630578,1610612740,1626195,1627820,1630230,1630530,1630631,0022101017,3,2149,2149,0,0,1610612745
151,1610612745,1628021,1630227,1630231,1630528,1630578,1610612740,1626195,1627820,1630230,1630530,1630631,0022101017,3,2158,2158,0,2,1610612740
152,1610612745,1628021,1630227,1630231,1630528,1630578,1610612740,1626195,1627820,1630230,1630530,1630631,0022101017,3,2160,2160,0,0,1610612745
153,1610612745,1630578,1630528,1630231,1630227,1628021,1610612740,1630230,202685,1630631,1630530,1627820,0022101017,4,2160,2177,0,2,1610612740
154,1610612745,1630578,1630528,1630231,1630227,1628021,1610612740,1630230,202685,1630631,1630530,1627820,0022101017,4,2197,2197,2,0,1610612745
155,1610612745,1630578,1630528,1630231,1630227,1628021,1610612740,1630230,202685,1630631,1630530,1627820,0022101017,4,2217,2217,0,2,1610612740
156,1610612745,1630578,1630528,1630231,1630227,1628021,1610612740,1630230,202685,1630631,1630530,1627820,0022101017,4,2244,2244,2,0,1610612745
157,1610612745,1630578,1630528,1630231,1630227,1628021,1610612740,1630230,202685,1630631,1630530,1627820,0022101017,4,2258,2265,0,2,1610612740
158,1610612745,1630578,1630528,1630231,1630227,1628021,1610612740,1630230,202685,1630631,1630530,1627820,0022101017,4,2279,2284,2,0,1610612745
159,1610612745,1630578,1630528,1630231,1630227,1628021,1610612740,1630230,202685,1630631,1630530,1627820,0022101017,4,2293,2293,0,0,1610612740
160,1610612745,1630578,1630528,1630231,1630227,1628021,1610612740,1630230,202685,1630631,1630530,1627820,0022101017,4,2305,2305,1,0,1610612745
161,1610612745,1630578,1630528,1630231,1630227,1628021,1610612740,1627820,1629637,1630230,1630631,202685,0022101017,4,2315,2317,0,2,1610612740
162,1610612745,1628021,1628981,1630227,1630231,1630528,1610612740,1627820,1629637,1630230,1630631,202685,0022101017,4,2326,2326,2,0,1610612745
163,1610612745,1628021,1628981,1630227,1630231,1630528,1610612740,1627820,1629637,1630230,1630631,202685,0022101017,4,2326,2346,0,0,1610612740
164,1610612745,1628021,1628981,1630227,1630231,1630528,1610612740,1628984,1629637,1630230,1630529,202685,0022101017,4,2359,2359,0,0,1610612745
165,1610612745,1628021,1628981,1630227,1630231,1630528,1610612740,1628984,1629637,1630230,1630529,202685,0022101017,4,2375,2378,0,0,1610612740
166,1610612745,1628021,1628981,1630227,1630231,1630528,1610612740,1628984,1629637,1630230,1630529,202685,0022101017,4,2382,2386,0,0,1610612745
167,1610612745,1628021,1628981,1630227,1630231,1630528,1610612740,1628984,1629637,1630230,1630529,202685,0022101017,4,2411,2411,0,2,1610612740
168,1610612745,1628021,1628981,1630227,1630231,1630528,1610612740,1628984,1629637,1630230,1630529,202685,0022101017,4,2430,2433,1,0,1610612745
169,1610612745,1628021,1628981,1630227,1630231,1630528,1610612740,1628984,1629637,1630230,1630529,202685,0022101017,4,2453,2453,0,2,1610612740
170,1610612745,1628021,1628981,1630227,1630231,1630528,1610612740,1628984,1629637,1630230,1630529,202685,0022101017,4,2462,2462,0,0,1610612745
171,1610612745,1628021,1628981,1630227,1630231,1630528,1610612740,1628984,1629637,1630230,1630529,202685,0022101017,4,2462,2473,0,1,1610612740
172,1610612745,1628021,1630227,1630231,1630528,1630586,1610612740,1626195,1628984,1629637,1630230,1630529,0022101017,4,2486,2486,3,0,1610612745
173,1610612745,1628021,1630227,1630231,1630528,1630586,1610612740,1626195,1628984,1629637,1630230,1630529,0022101017,4,2503,2507,0,0,1610612740
174,1610612745,1628021,1630227,1630231,1630528,1630586,1610612740,1626195,1628984,1629637,1630230,1630529,0022101017,4,2508,2511,1,0,1610612745
175,1610612745,1628021,1630227,1630231,1630528,1630586,1610612740,1626195,1628984,1629637,1630230,1630529,0022101017,4,2523,2526,0,0,1610612740
176,1610612745,1628021,1630227,1630231,1630528,1630586,1610612740,1626195,1628984,1629637,1630230,1630529,0022101017,4,2531,2531,2,0,1610612745
177,1610612745,1628021,1630227,1630231,1630528,1630586,1610612740,1626195,1628984,1629637,1630230,1630529,0022101017,4,2550,2550,0,0,1610612740
178,1610612745,1628021,1630227,1630231,1630528,1630586,1610612740,1626195,1628984,1629637,1630230,1630529,0022101017,4,2553,2553,2,0,1610612745
179,1610612745,1628021,1630227,1630231,1630528,1630586,1610612740,1626195,1628984,1629637,1630230,1630529,0022101017,4,2553,2574,0,2,1610612740
180,1610612745,1628021,1630227,1630231,1630528,1630586,1610612740,1626195,1629637,1630230,1630529,1630631,0022101017,4,2587,2587,3,0,1610612745
181,1610612745,1628021,1630227,1630231,1630528,1630586,1610612740,1626195,1629637,1630230,1630529,1630631,0022101017,4,2607,2607,0,3,1610612740
182,1610612745,1628021,1630227,1630231,1630528,1630586,1610612740,1626195,1629637,1630230,1630529,1630631,0022101017,4,2619,2619,0,0,1610612745
183,1610612745,1628021,1630227,1630231,1630528,1630586,1610612740,1626195,1629637,1630230,1630529,1630631,0022101017,4,2622,2622,0,2,1610612740
184,1610612745,1628021,1630227,1630231,1630528,1630586,1610612740,1626195,1629637,1630230,1630529,1630631,0022101017,4,2639,2639,1,0,1610612745
185,1610612745,1628021,1630227,1630231,1630528,1630586,1610612740,1628993,1629637,1630230,1630529,1630631,0022101017,4,2647,2650,0,0,1610612740
186,1610612745,1628021,1630227,1630231,1630528,1630586,1610612740,1628993,1629637,1630230,1630529,1630631,0022101017,4,2658,2658,1,0,1610612745
187,1610612745,1628021,1630227,1630231,1630528,1630586,1610612740,1628993,1629637,1630230,1630529,1630631,0022101017,4,2675,2675,0,2,1610612740
188,1610612745,1628021,1630227,1630231,1630528,1630586,1610612740,1628993,1629637,1630230,1630529,1630631,0022101017,4,2695,2698,0,0,1610612745
189,1610612745,1628021,1630227,1630231,1630528,1630586,1610612740,1628993,1629637,1630230,1630529,1630631,0022101017,4,2702,2702,0,1,1610612740
190,1610612745,1628021,1630227,1630231,1630528,1630586,1610612740,1627820,1628993,1629637,1630230,1630631,0022101017,4,2717,2717,0,0,1610612745
191,1610612745,1628021,1630227,1630231,1630528,1630586,1610612740,1627820,1628993,1629637,1630230,1630631,0022101017,4,2721,2730,0,0,1610612740
192,1610612745,1628021,1630227,1630231,1630528,1630586,1610612740,1627820,1628993,1629637,1630230,1630631,0022101017,4,2744,2744,3,0,1610612745
193,1610612745,1628021,1630227,1630231,1630528,1630586,1610612740,1627820,1628993,1629637,1630230,1630631,0022101017,4,2769,2769,0,0,1610612740
194,1610612745,1628021,1630227,1630231,1630528,1630586,1610612740,1627820,1628993,1629637,1630230,1630631,0022101017,4,2773,2777,0,0,1610612745
195,1610612745,1628021,1630227,1630231,1630528,1630586,1610612740,1627820,1628993,1629637,1630230,1630631,0022101017,4,2781,2781,0,3,1610612740
196,1610612745,1628021,1630227,1630231,1630528,1630586,1610612740,1627820,1628993,1629637,1630230,1630631,0022101017,4,2790,2794,0,0,1610612745
197,1610612745,1628021,1630227,1630231,1630528,1630586,1610612740,1627820,1628993,1629637,1630230,1630631,0022101017,4,2799,2803,0,3,1610612740
198,1610612745,1628021,1630227,1630231,1630528,1630586,1610612740,1627820,1628993,1629637,1630230,1630631,0022101017,4,2819,2819,2,0,1610612745
199,1610612745,1628021,1630227,1630231,1630528,1630586,1610612740,1627820,1628993,1629637,1630230,1630631,0022101017,4,2834,2834,0,3,1610612740
200,1610612745,1628021,1630227,1630231,1630528,1630586,1610612740,1627820,1628993,1629637,1630230,1630631,0022101017,4,2842,2842,3,0,1610612745
201,1610612745,1628021,1630227,1630231,1630528,1630586,1610612740,1627820,1628993,1629637,1630230,1630631,0022101017,4,2868,2868,0,0,1610612740
202,1610612745,1628021,1630227,1630231,1630528,1630586,1610612740,1627820,1628993,1629637,1630230,1630631,0022101017,4,2878,2878,2,0,1610612745
