,TEAM_ID_1,TEAM_1_PLAYERS,TEAM_ID_2,TEAM_2_PLAYERS,PERIOD
0,1610612758,[ 203084 1626168 1627734  203200 1628368],1610612759,[1629640  203926 1627751 1630170 1627749],1
1,1610612758,[1628368 1628978  203087 1629002 1627745],1610612759,[ 203926 1627751 1630170 1627749 1628966],2
2,1610612758,[ 203084 1626168 1627734  203200 1628368],1610612759,[1629640  203926 1627751 1630170 1627749],3
3,1610612758,[ 203084 1627734  203200 1630558 1628978],1610612759,[1630170 1627749 1629022 1630563 1628380],4
