,team1_id,team1_player1,team1_player2,team1_player3,team1_player4,team1_player5,team2_id,team2_player1,team2_player2,team2_player3,team2_player4,team2_player5,game_id,period,possession_start,possession_end,team1_points,team2_points,possession_team
0,1610612760,1628983,201568,203500,1629652,101108,1610612765,203503,1626174,203089,1629004,202688,0021900918,1,0,22,3,0,1610612760
1,1610612760,1628983,201568,203500,1629652,101108,1610612765,203503,1626174,203089,1629004,202688,0021900918,1,36,36,0,0,1610612765
2,1610612760,1628983,201568,203500,1629652,101108,1610612765,203503,1626174,203089,1629004,202688,0021900918,1,41,41,2,0,1610612760
3,1610612760,1628983,201568,203500,1629652,101108,1610612765,203503,1626174,203089,1629004,202688,0021900918,1,57,59,0,0,1610612765
4,1610612760,1628983,201568,203500,1629652,101108,1610612765,203503,1626174,203089,1629004,202688,0021900918,1,79,81,0,0,1610612760
5,1610612760,1628983,201568,203500,1629652,101108,1610612765,203503,1626174,203089,1629004,202688,0021900918,1,93,93,0,3,1610612765
6,1610612760,1628983,201568,203500,1629652,101108,1610612765,203503,1626174,203089,1629004,202688,0021900918,1,118,118,0,0,1610612760
7,1610612760,1628983,201568,203500,1629652,101108,1610612765,203503,1626174,203089,1629004,202688,0021900918,1,132,132,0,0,1610612765
8,1610612760,1628983,201568,203500,1629652,101108,1610612765,203503,1626174,203089,1629004,202688,0021900918,1,140,142,0,0,1610612760
9,1610612760,1628983,201568,203500,1629652,101108,1610612765,203503,1626174,203089,1629004,202688,0021900918,1,151,153,0,0,1610612765
10,1610612760,1628983,201568,203500,1629652,101108,1610612765,203503,1626174,203089,1629004,202688,0021900918,1,157,166,2,0,1610612760
11,1610612760,1628983,201568,203500,1629652,101108,1610612765,203503,1626174,203089,1629004,202688,0021900918,1,177,182,0,2,1610612765
12,1610612760,1628983,201568,203500,1629652,101108,1610612765,203503,1626174,203089,1629004,202688,0021900918,1,191,191,2,0,1610612760
13,1610612760,1628983,201568,203500,1629652,101108,1610612765,203503,1626174,203089,1629004,202688,0021900918,1,205,207,0,0,1610612765
14,1610612760,1628983,201568,203500,1629652,101108,1610612765,203503,1626174,203089,1629004,202688,0021900918,1,216,216,2,0,1610612760
15,1610612760,1628983,201568,203500,1629652,101108,1610612765,203503,1626174,203089,1629004,202688,0021900918,1,224,231,0,3,1610612765
16,1610612760,1628983,201568,203500,1629652,101108,1610612765,203503,1626174,203089,1629004,202688,0021900918,1,242,244,0,0,1610612760
17,1610612760,1628983,201568,203500,1629652,101108,1610612765,203503,1626174,203089,1629004,202688,0021900918,1,259,259,0,3,1610612765
18,1610612760,1628983,201568,203500,1629652,101108,1610612765,203503,1626174,203089,1629004,202688,0021900918,1,276,278,0,0,1610612760
19,1610612760,1628983,201568,203500,1629652,101108,1610612765,203503,1626174,203089,1629004,202688,0021900918,1,286,286,0,2,1610612765
20,1610612760,1628983,201568,203500,1629652,101108,1610612765,203503,1626174,203089,1629004,202688,0021900918,1,302,302,3,0,1610612760
21,1610612760,1628983,201568,203500,1629652,101108,1610612765,203503,1626174,203089,1629004,202688,0021900918,1,314,314,0,3,1610612765
22,1610612760,1628983,201568,203500,1629652,101108,1610612765,203503,1626174,203089,1629004,202688,0021900918,1,325,325,2,0,1610612760
23,1610612760,1628983,201568,203500,1629652,101108,1610612765,203503,1626174,203089,1629004,202688,0021900918,1,335,345,0,0,1610612765
24,1610612760,1628983,201568,203500,1629652,101108,1610612765,203503,1626174,203089,1629004,202688,0021900918,1,356,356,3,0,1610612760
25,1610612760,1628983,201568,203500,1629652,101108,1610612765,203503,1626174,203089,1629004,202688,0021900918,1,364,376,0,2,1610612765
26,1610612760,101108,1628983,1629652,201568,203457,1610612765,203503,1626174,203089,1629004,202688,0021900918,1,391,391,0,0,1610612760
27,1610612760,101108,1628983,1629652,201568,203457,1610612765,203503,1626174,203089,1629004,202688,0021900918,1,398,398,0,2,1610612765
28,1610612760,101108,1628983,1629652,201568,203457,1610612765,203503,1626174,203089,1629004,202688,0021900918,1,413,415,0,0,1610612760
29,1610612760,101108,1628983,1629652,201568,203457,1610612765,203503,1626174,203089,1629004,202688,0021900918,1,426,429,0,0,1610612765
30,1610612760,101108,1628983,1629652,201568,203457,1610612765,203503,1626174,203089,1629004,202688,0021900918,1,438,438,2,0,1610612760
31,1610612760,101108,1628983,1629652,201568,203457,1610612765,203503,1626174,203089,1629004,202688,0021900918,1,461,461,0,0,1610612765
32,1610612760,101108,1628983,1629652,201568,203457,1610612765,203503,1626174,203089,1629004,202688,0021900918,1,467,467,3,0,1610612760
33,1610612760,101108,1628983,1629652,201568,203457,1610612765,203503,1626174,203089,1629004,202688,0021900918,1,495,496,0,0,1610612765
34,1610612760,101108,1628983,1629652,201568,203457,1610612765,203503,1626174,203089,1629004,202688,0021900918,1,496,511,2,0,1610612760
35,1610612760,1627846,1628390,1628983,203457,203471,1610612765,1626174,1629004,1629635,202688,204038,0021900918,1,516,534,0,0,1610612765
36,1610612760,1627846,1628390,1628983,203457,203471,1610612765,1626174,1629004,1629635,202688,204038,0021900918,1,538,538,3,0,1610612760
37,1610612760,1627846,1628390,1628983,203457,203471,1610612765,1626174,1629004,1629635,202688,204038,0021900918,1,561,567,0,2,1610612765
38,1610612760,1627846,1628390,1628983,203457,203471,1610612765,1626174,1629004,1629635,202688,204038,0021900918,1,567,578,0,0,1610612760
39,1610612760,1627846,1628390,1629652,203471,203500,1610612765,1626174,1629004,1629635,202688,204038,0021900918,1,598,603,0,3,1610612765
40,1610612760,1627846,1628390,1629652,203471,203500,1610612765,1626174,1629004,1629635,202688,204038,0021900918,1,619,619,2,0,1610612760
41,1610612760,1627846,1628390,1629652,203471,203500,1610612765,1626174,1629004,1629635,202688,204038,0021900918,1,626,626,0,2,1610612765
42,1610612760,1627846,1628390,1629652,203471,203500,1610612765,1626174,1629004,1629635,202688,204038,0021900918,1,642,642,3,0,1610612760
43,1610612760,1627846,1628390,1629652,203471,203500,1610612765,1626174,1629004,1629635,202688,204038,0021900918,1,662,662,0,2,1610612765
44,1610612760,1627846,1628390,1629652,203471,203500,1610612765,1626174,1629004,1629635,202688,204038,0021900918,1,678,681,0,0,1610612760
45,1610612760,1627846,1628390,1629652,203471,203500,1610612765,1626174,1629004,1629635,202688,204038,0021900918,1,685,685,0,3,1610612765
46,1610612760,1627846,1628390,1629652,203471,203500,1610612765,1626174,1629004,1629635,202688,204038,0021900918,1,691,691,2,0,1610612760
47,1610612760,1627846,1628390,1629652,203471,203500,1610612765,1626174,1629004,1629635,202688,204038,0021900918,1,712,713,0,0,1610612765
48,1610612760,1627846,1628390,1629652,203471,203500,1610612765,1626174,1629004,1629635,202688,204038,0021900918,1,718,718,2,0,1610612760
49,1610612760,1627846,1628390,1629652,203471,203500,1610612765,1626174,1629004,1629635,202688,204038,0021900918,1,720,720,0,0,1610612760
50,1610612760,203500,101108,1627846,203471,1628390,1610612765,204038,1629635,1627748,203895,1629017,0021900918,2,720,738,0,0,1610612765
51,1610612760,203500,101108,1627846,203471,1628390,1610612765,204038,1629635,1627748,203895,1629017,0021900918,2,754,757,0,0,1610612760
52,1610612760,203500,101108,1627846,203471,1628390,1610612765,204038,1629635,1627748,203895,1629017,0021900918,2,771,782,0,1,1610612765
53,1610612760,203500,101108,1627846,203471,1628390,1610612765,204038,1629635,1627748,203895,1629017,0021900918,2,796,796,2,0,1610612760
54,1610612760,203500,101108,1627846,203471,1628390,1610612765,204038,1629635,1627748,203895,1629017,0021900918,2,816,816,0,3,1610612765
55,1610612760,203500,101108,1627846,203471,1628390,1610612765,204038,1629635,1627748,203895,1629017,0021900918,2,826,834,2,0,1610612760
56,1610612760,203500,101108,1627846,203471,1628390,1610612765,204038,1629635,1627748,203895,1629017,0021900918,2,846,853,0,0,1610612765
57,1610612760,203500,101108,1627846,203471,1628390,1610612765,204038,1629635,1627748,203895,1629017,0021900918,2,861,861,2,0,1610612760
58,1610612760,203500,101108,1627846,203471,1628390,1610612765,204038,1629635,1627748,203895,1629017,0021900918,2,861,885,0,2,1610612765
59,1610612760,203500,101108,1627846,203471,1628390,1610612765,204038,1629635,1627748,203895,1629017,0021900918,2,894,894,2,0,1610612760
60,1610612760,203500,101108,1627846,203471,1628390,1610612765,204038,1629635,1627748,203895,1629017,0021900918,2,900,905,0,3,1610612765
61,1610612760,203500,101108,1627846,203471,1628390,1610612765,204038,1629635,1627748,203895,1629017,0021900918,2,905,932,2,0,1610612760
62,1610612760,203500,101108,1627846,203471,1628390,1610612765,204038,1629635,1627748,203895,1629017,0021900918,2,945,945,0,0,1610612765
63,1610612760,203500,101108,1627846,203471,1628390,1610612765,204038,1629635,1627748,203895,1629017,0021900918,2,949,949,2,0,1610612760
64,1610612760,203500,101108,1627846,203471,1628390,1610612765,204038,1629635,1627748,203895,1629017,0021900918,2,960,961,0,3,1610612765
65,1610612760,101108,1627846,1628390,203457,203471,1610612765,204038,1629635,1627748,203895,1629017,0021900918,2,973,973,2,0,1610612760
66,1610612760,101108,1627846,1628390,203457,203471,1610612765,204038,1629635,1627748,203895,1629017,0021900918,2,983,983,0,1,1610612765
67,1610612760,1628983,1629652,201568,203457,203471,1610612765,204038,1629635,1627748,203895,1629017,0021900918,2,1000,1000,2,0,1610612760
68,1610612760,1628983,1629652,201568,203457,203471,1610612765,204038,1629635,1627748,203895,1629017,0021900918,2,1015,1022,0,0,1610612765
69,1610612760,1628983,1629652,201568,203457,203471,1610612765,204038,1629635,1627748,203895,1629017,0021900918,2,1022,1039,0,0,1610612760
70,1610612760,1628983,1629652,201568,203457,203471,1610612765,1627748,1629635,202688,203895,204038,0021900918,2,1039,1039,0,2,1610612765
71,1610612760,1628983,1629652,201568,203457,203471,1610612765,1627748,1629635,202688,203895,204038,0021900918,2,1064,1066,0,0,1610612760
72,1610612760,1628983,1629652,201568,203457,203471,1610612765,1627748,1629635,202688,203895,204038,0021900918,2,1066,1066,0,0,1610612765
73,1610612760,1628983,1629652,201568,203457,203471,1610612765,1627748,1629635,202688,203895,204038,0021900918,2,1073,1073,3,0,1610612760
74,1610612760,1628983,1629652,201568,203457,203471,1610612765,1627748,1629635,202688,203895,204038,0021900918,2,1093,1093,0,3,1610612765
75,1610612760,1628983,1629652,201568,203457,203471,1610612765,1627748,1629635,202688,203895,204038,0021900918,2,1114,1116,0,0,1610612760
76,1610612760,1628983,1629652,201568,203457,203471,1610612765,1627748,1629635,202688,203895,204038,0021900918,2,1124,1124,0,0,1610612765
77,1610612760,1628983,1629652,201568,203457,203471,1610612765,1627748,1629635,202688,203895,204038,0021900918,2,1137,1137,3,0,1610612760
78,1610612760,1628983,1629652,201568,203457,203471,1610612765,1627748,1629635,202688,203895,204038,0021900918,2,1137,1161,0,2,1610612765
79,1610612760,1628390,1628983,201568,203457,203471,1610612765,1626174,202688,203089,203503,203895,0021900918,2,1177,1177,0,0,1610612760
80,1610612760,1628390,1628983,201568,203457,203471,1610612765,1626174,202688,203089,203503,203895,0021900918,2,1200,1200,0,2,1610612765
81,1610612760,1628390,1628983,201568,203457,203471,1610612765,1626174,202688,203089,203503,203895,0021900918,2,1226,1226,2,0,1610612760
82,1610612760,1628390,1628983,201568,203457,203471,1610612765,1626174,202688,203089,203503,203895,0021900918,2,1247,1247,0,0,1610612765
83,1610612760,1628390,1628983,201568,203457,203471,1610612765,1626174,202688,203089,203503,203895,0021900918,2,1254,1257,0,0,1610612760
84,1610612760,1628390,1628983,201568,203457,203471,1610612765,1626174,202688,203089,203503,203895,0021900918,2,1268,1268,0,0,1610612765
85,1610612760,1628390,1628983,201568,203457,203471,1610612765,1626174,202688,203089,203503,203895,0021900918,2,1270,1280,2,0,1610612760
86,1610612760,101108,1628390,1628983,201568,203500,1610612765,1626174,1629004,202688,203089,203503,0021900918,2,1288,1288,0,0,1610612765
87,1610612760,101108,1628390,1628983,201568,203500,1610612765,1626174,1629004,202688,203089,203503,0021900918,2,1308,1308,0,0,1610612760
88,1610612760,101108,1628390,1628983,201568,203500,1610612765,1626174,1629004,202688,203089,203503,0021900918,2,1327,1327,0,3,1610612765
89,1610612760,101108,1628390,1628983,201568,203500,1610612765,1626174,1629004,202688,203089,203503,0021900918,2,1340,1340,1,0,1610612760
90,1610612760,101108,1628390,1628983,201568,203500,1610612765,1626174,1629004,202688,203089,203503,0021900918,2,1358,1358,0,2,1610612765
91,1610612760,101108,1628390,1628983,201568,203500,1610612765,1626174,1629004,202688,203089,203503,0021900918,2,1369,1369,0,0,1610612760
92,1610612760,101108,1628390,1628983,201568,203500,1610612765,1626174,1629004,202688,203089,203503,0021900918,2,1390,1390,0,3,1610612765
93,1610612760,101108,1628390,1628983,201568,203500,1610612765,1626174,1629004,202688,203089,203503,0021900918,2,1405,1405,2,0,1610612760
94,1610612760,101108,1628390,1628983,201568,203500,1610612765,1626174,1629004,202688,203089,203503,0021900918,2,1414,1417,0,0,1610612765
95,1610612760,101108,1628390,1628983,201568,203500,1610612765,1626174,1629004,202688,203089,203503,0021900918,2,1423,1423,2,0,1610612760
96,1610612760,101108,1628390,1628983,201568,203500,1610612765,1626174,1629004,202688,203089,203503,0021900918,2,1432,1432,0,2,1610612765
97,1610612760,101108,1628983,201568,203471,203500,1610612765,1626174,1629004,202688,203089,203503,0021900918,2,1439,1439,0,0,1610612760
98,1610612760,1628983,201568,203500,1629652,101108,1610612765,203503,1626174,203089,1629004,202688,0021900918,3,1440,1462,0,0,1610612765
99,1610612760,1628983,201568,203500,1629652,101108,1610612765,203503,1626174,203089,1629004,202688,0021900918,3,1472,1472,2,0,1610612760
100,1610612760,1628983,201568,203500,1629652,101108,1610612765,203503,1626174,203089,1629004,202688,0021900918,3,1494,1497,0,2,1610612765
101,1610612760,1628983,201568,203500,1629652,101108,1610612765,203503,1626174,203089,1629004,202688,0021900918,3,1512,1512,3,0,1610612760
102,1610612760,1628983,201568,203500,1629652,101108,1610612765,203503,1626174,203089,1629004,202688,0021900918,3,1531,1531,0,3,1610612765
103,1610612760,1628983,201568,203500,1629652,101108,1610612765,203503,1626174,203089,1629004,202688,0021900918,3,1550,1552,0,0,1610612760
104,1610612760,1628983,201568,203500,1629652,101108,1610612765,203503,1626174,203089,1629004,202688,0021900918,3,1562,1562,0,0,1610612765
105,1610612760,1628983,201568,203500,1629652,101108,1610612765,203503,1626174,203089,1629004,202688,0021900918,3,1571,1575,2,0,1610612760
106,1610612760,1628983,201568,203500,1629652,101108,1610612765,203503,1626174,203089,1629004,202688,0021900918,3,1593,1596,0,0,1610612765
107,1610612760,1628983,201568,203500,1629652,101108,1610612765,203503,1626174,203089,1629004,202688,0021900918,3,1599,1599,0,0,1610612760
108,1610612760,1628983,201568,203500,1629652,101108,1610612765,203503,1626174,203089,1629004,202688,0021900918,3,1603,1603,0,2,1610612765
109,1610612760,1628983,201568,203500,1629652,101108,1610612765,203503,1626174,203089,1629004,202688,0021900918,3,1608,1623,3,0,1610612760
110,1610612760,1628983,201568,203500,1629652,101108,1610612765,203503,1626174,203089,1629004,202688,0021900918,3,1624,1642,0,0,1610612765
111,1610612760,1628983,201568,203500,1629652,101108,1610612765,203503,1626174,203089,1629004,202688,0021900918,3,1645,1645,0,0,1610612760
112,1610612760,1628983,201568,203500,1629652,101108,1610612765,203503,1626174,203089,1629004,202688,0021900918,3,1666,1668,0,0,1610612765
113,1610612760,1628983,201568,203500,1629652,101108,1610612765,203503,1626174,203089,1629004,202688,0021900918,3,1676,1676,2,0,1610612760
114,1610612760,1628983,201568,203500,1629652,101108,1610612765,203503,1626174,203089,1629004,202688,0021900918,3,1676,1699,0,0,1610612765
115,1610612760,1628983,201568,203500,1629652,101108,1610612765,203503,1626174,203089,1629004,202688,0021900918,3,1708,1708,2,0,1610612760
116,1610612760,1628983,201568,203500,1629652,101108,1610612765,203503,1626174,203089,1629004,202688,0021900918,3,1723,1723,0,0,1610612765
117,1610612760,1628983,201568,203500,1629652,101108,1610612765,203503,1626174,203089,1629004,202688,0021900918,3,1734,1734,0,0,1610612760
118,1610612760,1628983,201568,203500,1629652,101108,1610612765,203503,1626174,203089,1629004,202688,0021900918,3,1754,1754,0,2,1610612765
119,1610612760,1628983,201568,203500,1629652,101108,1610612765,203503,1626174,203089,1629004,202688,0021900918,3,1783,1786,0,0,1610612760
120,1610612760,1628983,201568,203500,1629652,101108,1610612765,203503,1626174,203089,1629004,202688,0021900918,3,1798,1798,0,2,1610612765
121,1610612760,1628983,201568,203500,1629652,101108,1610612765,203503,1626174,203089,1629004,202688,0021900918,3,1817,1821,3,0,1610612760
122,1610612760,101108,1628983,1629652,201568,203457,1610612765,203503,1626174,203089,1629004,202688,0021900918,3,1836,1840,0,0,1610612765
123,1610612760,101108,1628983,1629652,201568,203457,1610612765,203503,1626174,203089,1629004,202688,0021900918,3,1843,1846,0,0,1610612760
124,1610612760,101108,1628983,1629652,201568,203457,1610612765,203503,1626174,203089,1629004,202688,0021900918,3,1851,1854,0,0,1610612765
125,1610612760,101108,1628983,201568,203457,203471,1610612765,1626174,1627748,1629004,202688,204038,0021900918,3,1871,1871,2,0,1610612760
126,1610612760,101108,1628983,201568,203457,203471,1610612765,1626174,1627748,202688,203895,204038,0021900918,3,1886,1886,0,2,1610612765
127,1610612760,101108,1628983,201568,203457,203471,1610612765,1626174,1627748,202688,203895,204038,0021900918,3,1901,1901,2,0,1610612760
128,1610612760,101108,1628983,201568,203457,203471,1610612765,1626174,1627748,202688,203895,204038,0021900918,3,1921,1921,0,0,1610612765
129,1610612760,101108,1628983,201568,203457,203471,1610612765,1626174,1627748,202688,203895,204038,0021900918,3,1937,1940,0,0,1610612760
130,1610612760,1628390,1628983,201568,203457,203471,1610612765,1626174,1627748,1629017,203895,204038,0021900918,3,1955,1958,0,0,1610612765
131,1610612760,1628390,1628983,201568,203457,203471,1610612765,1626174,1627748,1629017,203895,204038,0021900918,3,1966,1969,0,0,1610612760
132,1610612760,1628390,1628983,201568,203457,203471,1610612765,1626174,1627748,1629017,203895,204038,0021900918,3,1977,1984,0,0,1610612765
133,1610612760,1628390,1628983,201568,203457,203471,1610612765,1626174,1627748,1629017,203895,204038,0021900918,3,1995,1999,0,0,1610612760
134,1610612760,1628390,1628983,201568,203457,203471,1610612765,1626174,1627748,1629017,203895,204038,0021900918,3,2007,2010,0,0,1610612765
135,1610612760,1628390,1628983,201568,203457,203471,1610612765,1626174,1627748,1629017,203895,204038,0021900918,3,2026,2026,2,0,1610612760
136,1610612760,1628390,1628983,201568,203457,203471,1610612765,1626174,1627748,1629017,203895,204038,0021900918,3,2038,2049,0,0,1610612765
137,1610612760,1627846,1628390,1629652,203457,203471,1610612765,1627748,1629017,1629635,203895,204038,0021900918,3,2049,2073,1,0,1610612760
138,1610612760,1627846,1628390,1629652,203457,203471,1610612765,1627748,1629017,1629635,203895,204038,0021900918,3,2076,2076,0,2,1610612765
139,1610612760,1627846,1628390,1629652,203457,203471,1610612765,1627748,1629017,1629635,203895,204038,0021900918,3,2081,2081,0,0,1610612760
140,1610612760,1627846,1628390,1629652,203457,203471,1610612765,1627748,1629017,1629635,203895,204038,0021900918,3,2081,2095,0,3,1610612765
141,1610612760,1627846,1628390,1629652,203457,203471,1610612765,1627748,1629017,1629635,203895,204038,0021900918,3,2110,2112,0,0,1610612760
142,1610612760,1627846,1628390,1629652,203457,203471,1610612765,1627748,1629017,1629635,203895,204038,0021900918,3,2116,2119,0,0,1610612765
143,1610612760,1627846,1628390,1629652,203457,203471,1610612765,1627748,1629017,1629635,203895,204038,0021900918,3,2123,2141,1,0,1610612760
144,1610612760,1627846,1628390,1629652,203471,203500,1610612765,1627748,1629017,1629635,203895,204038,0021900918,3,2141,2158,0,0,1610612765
145,1610612760,1627846,1628390,1629652,203471,203500,1610612765,1627748,1629017,1629635,203895,204038,0021900918,3,2160,2160,0,0,1610612760
146,1610612760,1627846,1628390,1629652,203471,203500,1610612765,1627748,1629017,1629635,203895,204038,0021900918,3,2160,2160,0,0,1610612760
147,1610612760,203500,101108,1627846,203471,1628390,1610612765,203503,1626174,202688,204038,203895,0021900918,4,2160,2171,0,0,1610612760
148,1610612760,203500,101108,1627846,203471,1628390,1610612765,203503,1626174,202688,204038,203895,0021900918,4,2189,2189,0,2,1610612765
149,1610612760,203500,101108,1627846,203471,1628390,1610612765,203503,1626174,202688,204038,203895,0021900918,4,2201,2204,0,0,1610612760
150,1610612760,203500,101108,1627846,203471,1628390,1610612765,203503,1626174,202688,204038,203895,0021900918,4,2215,2217,0,0,1610612765
151,1610612760,203500,101108,1627846,203471,1628390,1610612765,203503,1626174,202688,204038,203895,0021900918,4,2222,2222,0,0,1610612760
152,1610612760,203500,101108,1627846,203471,1628390,1610612765,203503,1626174,202688,204038,203895,0021900918,4,2224,2233,0,0,1610612765
153,1610612760,203500,101108,1627846,203471,1628390,1610612765,203503,1626174,202688,204038,203895,0021900918,4,2247,2247,2,0,1610612760
154,1610612760,203500,101108,1627846,203471,1628390,1610612765,203503,1626174,202688,204038,203895,0021900918,4,2261,2267,0,0,1610612765
155,1610612760,203500,101108,1627846,203471,1628390,1610612765,203503,1626174,202688,204038,203895,0021900918,4,2284,2284,0,0,1610612760
156,1610612760,203500,101108,1627846,203471,1628390,1610612765,203503,1626174,202688,204038,203895,0021900918,4,2300,2303,0,0,1610612765
157,1610612760,203500,101108,1627846,203471,1628390,1610612765,203503,1626174,202688,204038,203895,0021900918,4,2311,2311,2,0,1610612760
158,1610612760,203500,101108,1627846,203471,1628390,1610612765,203503,1626174,202688,204038,203895,0021900918,4,2327,2327,0,3,1610612765
159,1610612760,203500,101108,1627846,203471,1628390,1610612765,203503,1626174,202688,204038,203895,0021900918,4,2336,2338,0,0,1610612760
160,1610612760,203500,101108,1627846,203471,1628390,1610612765,203503,1626174,202688,204038,203895,0021900918,4,2350,2353,0,0,1610612765
161,1610612760,203500,101108,1627846,203471,1628390,1610612765,203503,1626174,202688,204038,203895,0021900918,4,2373,2375,0,0,1610612760
162,1610612760,203500,101108,1627846,203471,1628390,1610612765,203503,1626174,202688,204038,203895,0021900918,4,2380,2395,0,0,1610612765
163,1610612760,101108,1627846,1629652,203471,203500,1610612765,203503,1626174,202688,204038,203895,0021900918,4,2403,2403,2,0,1610612760
164,1610612760,101108,1627846,1629652,203471,203500,1610612765,203503,1626174,202688,204038,203895,0021900918,4,2428,2428,0,3,1610612765
165,1610612760,101108,1627846,1629652,203471,203500,1610612765,203503,1626174,202688,204038,203895,0021900918,4,2441,2441,0,0,1610612760
166,1610612760,1628983,1629652,201568,203471,203500,1610612765,203503,1626174,202688,204038,203895,0021900918,4,2457,2468,0,2,1610612765
167,1610612760,1628983,1629652,201568,203471,203500,1610612765,203503,1626174,202688,204038,203895,0021900918,4,2486,2486,2,0,1610612760
168,1610612760,1628983,1629652,201568,203471,203500,1610612765,203503,1626174,202688,204038,203895,0021900918,4,2510,2510,0,3,1610612765
169,1610612760,1628983,1629652,201568,203471,203500,1610612765,203503,1626174,202688,204038,203895,0021900918,4,2524,2527,0,0,1610612760
170,1610612760,1628983,1629652,201568,203471,203500,1610612765,203503,1626174,202688,204038,203895,0021900918,4,2538,2538,0,3,1610612765
171,1610612760,1628983,1629652,201568,203471,203500,1610612765,203503,1626174,202688,204038,203895,0021900918,4,2538,2562,0,0,1610612760
172,1610612760,101108,1628983,201568,203457,203471,1610612765,203503,1626174,202688,204038,203895,0021900918,4,2581,2581,0,2,1610612765
173,1610612760,101108,1628983,201568,203457,203471,1610612765,203503,1626174,202688,204038,203895,0021900918,4,2593,2611,0,0,1610612760
174,1610612760,101108,1628983,201568,203457,203471,1610612765,1626174,1629004,203503,203895,204038,0021900918,4,2613,2613,0,3,1610612765
175,1610612760,101108,1628983,201568,203457,203471,1610612765,1626174,1629004,203503,203895,204038,0021900918,4,2613,2637,0,0,1610612760
176,1610612760,101108,1628983,201568,203457,203471,1610612765,1626174,1629004,203503,203895,204038,0021900918,4,2653,2655,0,0,1610612765
177,1610612760,101108,1628983,201568,203457,203471,1610612765,1626174,1629004,203503,203895,204038,0021900918,4,2663,2663,2,0,1610612760
178,1610612760,101108,1628983,201568,203457,203471,1610612765,1626174,1629004,203503,203895,204038,0021900918,4,2665,2684,0,0,1610612765
179,1610612760,101108,1628983,201568,203471,203500,1610612765,1626174,202688,203503,203895,204038,0021900918,4,2706,2706,2,0,1610612760
180,1610612760,101108,1628983,201568,203471,203500,1610612765,1626174,202688,203503,203895,204038,0021900918,4,2729,2729,0,2,1610612765
181,1610612760,101108,1628983,201568,203471,203500,1610612765,1626174,202688,203503,203895,204038,0021900918,4,2740,2753,0,0,1610612760
182,1610612760,101108,1628983,201568,203471,203500,1610612765,1626174,202688,203503,203895,204038,0021900918,4,2767,2767,0,2,1610612765
183,1610612760,101108,1628983,201568,203471,203500,1610612765,1626174,202688,203503,203895,204038,0021900918,4,2788,2788,2,0,1610612760
184,1610612760,101108,1628983,201568,203471,203500,1610612765,1626174,202688,203503,203895,204038,0021900918,4,2802,2811,0,0,1610612765
185,1610612760,101108,1628983,201568,203471,203500,1610612765,1626174,202688,203503,203895,204038,0021900918,4,2817,2817,0,0,1610612760
186,1610612760,101108,1628983,201568,203471,203500,1610612765,1626174,202688,203503,203895,204038,0021900918,4,2817,2844,0,0,1610612765
187,1610612760,101108,1628983,201568,203471,203500,1610612765,1626174,202688,203503,203895,204038,0021900918,4,2859,2859,3,0,1610612760
188,1610612760,101108,1628983,201568,203471,203500,1610612765,1626174,202688,203503,203895,204038,0021900918,4,2859,2869,0,0,1610612765
189,1610612760,101108,1628983,201568,203471,203500,1610612765,1626174,1629004,202688,203503,203895,0021900918,4,2869,2869,2,0,1610612760
190,1610612760,101108,1628983,201568,203471,203500,1610612765,1626174,1629004,202688,203503,203895,0021900918,4,2869,2872,0,0,1610612765
191,1610612760,101108,1628983,201568,203471,203500,1610612765,1626174,1629004,202688,203503,204038,0021900918,4,2874,2874,1,0,1610612760
