,TEAM_ID_1,TEAM_1_PLAYERS,TEAM_ID_2,TEAM_2_PLAYERS,PERIOD
0,1610612759,[ 201942  200746 1626168 1627749 1627854],1610612762,[ 202711 1626220  203497  204060 1628378],1
1,1610612759,[1627751 1628401 1629022  201988  200752],1610612762,[ 204060  203903 1627777 1628396 1626144],2
2,1610612759,[ 201942  200746 1626168 1627749 1627854],1610612762,[ 202711 1626220  203497  204060 1628378],3
3,1610612759,[1627751 1628401 1629022  201988  200752],1610612762,[ 203497  204060  203903 1627777 1626144],4
