,stint_end,t1_players,t2_pm,t2_points_scored,stint_start,t1_pm,t1_points_scored,t2_id,t1_id,t2_players,margin_per_100,num_poss
0,259,"[202330, 1629023, 202687, 1626179, 1628984]",-10,2,0,10,12,1610612761,1610612766,"[1628384, 1627783, 203382, 1627832, 200768]",47.61904761904761,21.0
1,351,"[202330, 1629023, 202687, 1626179, 1628984]",-10,4,260,10,14,1610612761,1610612766,"[1628384, 1627783, 203382, 1627832, 200768]",40.0,25.0
2,460,"[202330, 1629023, 202687, 1626179, 1628984]",-6,11,352,6,17,1610612761,1610612766,"[1627783, 1627832, 1628384, 1628449, 200768]",18.75,32.0
3,482,"[1626179, 1628970, 1629023, 1630163, 202330]",-3,14,461,3,17,1610612761,1610612766,"[1626181, 1627783, 1627832, 1628449, 200768]",8.823529411764707,34.0
4,537,"[1626179, 1628970, 1630163, 202330, 202687]",-1,16,483,1,17,1610612761,1610612766,"[1626181, 1627783, 1628449, 1630201, 200768]",2.7777777777777777,36.0
5,630,"[1628970, 1628984, 1630163, 202330, 202687]",4,23,538,-4,19,1610612761,1610612766,"[1626181, 1627783, 1628449, 1630201, 200768]",-9.523809523809524,42.0
6,719,"[1628970, 1628984, 1628997, 1630163, 202687]",4,31,631,-4,27,1610612761,1610612766,"[1626181, 1627783, 1628449, 1630201, 200768]",-8.16326530612245,49.0
7,877,"[1628970, 1628984, 1628997, 1630163, 202687]",10,41,720,-10,31,1610612761,1610612766,"[1626181, 1627832, 1628384, 1628449, 1630201]",-16.94915254237288,59.0
8,908,"[202330, 202687, 1628984, 1628997, 1628370]",11,44,878,-11,33,1610612761,1610612766,"[1628384, 1627832, 1628449, 1626181, 1630201]",-17.741935483870968,62.0
9,951,"[1628370, 1628970, 1630163, 202330, 202687]",11,46,909,-11,35,1610612761,1610612766,"[1628384, 1627832, 1628449, 1626181, 1630201]",-16.923076923076923,65.0
10,1017,"[1628370, 1628970, 1629023, 1630163, 202330]",12,51,952,-12,39,1610612761,1610612766,"[1626169, 1626181, 1627783, 1627832, 1628384]",-17.391304347826086,69.0
11,1076,"[1626179, 1628970, 1629023, 1630163, 202330]",12,54,1018,-12,42,1610612761,1610612766,"[1626169, 1626181, 1627783, 1627832, 1628384]",-16.43835616438356,73.0
12,1138,"[1626179, 1628970, 1629023, 1630163, 202330]",12,56,1077,-12,44,1610612761,1610612766,"[1626169, 1627783, 1627832, 1628384, 200768]",-15.584415584415584,77.0
13,1194,"[1626179, 1628970, 1628984, 1629023, 202330]",8,56,1139,-8,48,1610612761,1610612766,"[1626169, 1627783, 1627832, 1628384, 200768]",-9.75609756097561,82.0
14,1264,"[1626179, 1628970, 1628984, 1629023, 1630163]",9,59,1195,-9,50,1610612761,1610612766,"[1626169, 1627832, 1628384, 1629139, 200768]",-10.227272727272728,88.0
15,1366,"[1626179, 1628970, 1628984, 1629023, 1630163]",5,62,1265,-5,57,1610612761,1610612766,"[1626169, 1627832, 1628449, 1629139, 200768]",-5.319148936170213,94.0
16,1439,"[1626179, 1628984, 1629023, 202330, 202687]",5,66,1367,-5,61,1610612761,1610612766,"[1626169, 1628449, 1629139, 1630201, 200768]",-4.9504950495049505,101.0
17,1699,"[1626179, 1628984, 1629023, 202330, 202687]",-4,71,1440,4,75,1610612761,1610612766,"[1626169, 1626181, 1628449, 1630201, 200768]",3.278688524590164,122.0
18,1737,"[202330, 1629023, 202687, 1626179, 1628984]",-3,73,1700,3,76,1610612761,1610612766,"[1628384, 1627783, 1627832, 200768, 1628449]",2.4193548387096775,124.0
19,1881,"[202330, 1629023, 202687, 1626179, 1628984]",-1,79,1738,1,80,1610612761,1610612766,"[1626181, 1627783, 1627832, 1628384, 200768]",0.7462686567164178,134.0
20,1889,"[1626179, 1628970, 1629023, 1630163, 202330]",-1,79,1882,1,80,1610612761,1610612766,"[1626181, 1627783, 1627832, 1628384, 200768]",0.7407407407407408,135.0
21,1907,"[1628970, 1628984, 1629023, 1630163, 202330]",1,81,1890,-1,80,1610612761,1610612766,"[1626181, 1627783, 1627832, 1628384, 200768]",-0.7352941176470588,136.0
22,1970,"[1628970, 1628984, 1629023, 1630163, 202330]",3,83,1908,-3,80,1610612761,1610612766,"[1626169, 1626181, 1627783, 1627832, 200768]",-2.127659574468085,141.0
23,2024,"[1628970, 1628984, 1630163, 202330, 202687]",5,85,1971,-5,80,1610612761,1610612766,"[1626169, 1626181, 1627783, 1627832, 1630201]",-3.4013605442176873,147.0
24,2159,"[1626179, 1628970, 1628984, 1630163, 202687]",1,88,2025,-1,87,1610612761,1610612766,"[1626169, 1626181, 1627783, 1627832, 1630201]",-0.6451612903225806,155.0
25,2300,"[1626179, 1628970, 1628984, 1630163, 202687]",3,94,2160,-3,91,1610612761,1610612766,"[1626169, 1626181, 1628384, 1630201, 200768]",-1.8292682926829267,164.0
26,2377,"[202330, 1629023, 202687, 1626179, 1628984]",0,94,2301,0,94,1610612761,1610612766,"[1628384, 200768, 1628449, 1626181, 1630201]",0.0,169.0
27,2401,"[1626179, 1628970, 1629023, 1630163, 202330]",-2,94,2378,2,96,1610612761,1610612766,"[1628384, 200768, 1628449, 1626181, 1630201]",1.1695906432748537,171.0
28,2435,"[1626179, 1628970, 1629023, 1630163, 202330]",-1,95,2402,1,96,1610612761,1610612766,"[1626181, 1627832, 1628384, 1628449, 200768]",0.5780346820809248,173.0
29,2490,"[1628970, 1628984, 1629023, 1630163, 202330]",3,101,2436,-3,98,1610612761,1610612766,"[1626181, 1627783, 1627832, 1628449, 200768]",-1.694915254237288,177.0
30,2511,"[1626179, 1628970, 1628984, 1629023, 1630163]",4,102,2491,-4,98,1610612761,1610612766,"[1626181, 1627783, 1627832, 1628449, 200768]",-2.247191011235955,178.0
31,2544,"[1626179, 1628970, 1628984, 1629023, 1630163]",4,102,2512,-4,98,1610612761,1610612766,"[1626181, 1627783, 1627832, 1628384, 1628449]",-2.2222222222222223,180.0
32,2664,"[1626179, 1628970, 1628984, 1630163, 202687]",5,104,2545,-5,99,1610612761,1610612766,"[1626181, 1627783, 1627832, 1628384, 1628449]",-2.6881720430107525,186.0
33,2850,"[1626179, 1628970, 1628984, 202330, 202687]",2,112,2665,-2,110,1610612761,1610612766,"[1626181, 1627783, 1627832, 1628384, 1628449]",-1.0101010101010102,198.0
34,2866,"[1626179, 1628984, 1629023, 202330, 202687]",2,112,2851,-2,110,1610612761,1610612766,"[1627783, 1627832, 1628384, 1628449, 200768]",-1.0050251256281406,199.0
35,2872,"[1626179, 1628970, 1628984, 1629023, 202330]",1,114,2867,-1,113,1610612761,1610612766,"[1627783, 1627832, 1628384, 1628449, 200768]",-0.4975124378109453,201.0
36,2876,"[1626179, 1628984, 1629023, 202330, 202687]",1,114,2873,-1,113,1610612761,1610612766,"[1626169, 1627783, 1627832, 1628384, 200768]",-0.4975124378109453,201.0
37,9999999,"[1626179, 1628984, 1629023, 202330, 202687]",3,116,2877,-3,113,1610612761,1610612766,"[1627783, 1627832, 1628384, 1628449, 200768]",-1.477832512315271,203.0
