,TEAM_ID_1,TEAM_1_PLAYERS,TEAM_ID_2,TEAM_2_PLAYERS,PERIOD
0,1610612765,[1630180 1629004  203486  201961 1628372],1610612752,[ 203493  203944  203457 1629628  203901],1
1,1610612765,[1629004 1630191 1630240  203585 1629635],1610612752,[ 203457  202692 1630167 1628373 1630193],2
2,1610612765,[1630180 1629004  203486  201961 1628372],1610612752,[ 203493  203944  203457 1629628  203901],3
3,1610612765,[1630180 1629004  203486 1628372 1629635],1610612752,[ 203457  202692 1630167 1628373 1630193],4
