,TEAM_ID_1,TEAM_1_PLAYERS,TEAM_ID_2,TEAM_2_PLAYERS,PERIOD
0,1610612744,[ 203952  203110 1626172  203145  201939],1610612740,[1627742 1629627 1626195  202339 1628366],1
1,1610612744,[ 203952 1626172 1629308 1628539 1629673],1610612740,[1629627 1628366 1630230  201949 1629637],2
2,1610612744,[ 203952  203110 1626172  203145  201939],1610612740,[1627742 1629627 1626195  202339 1628366],3
3,1610612744,[ 203952 1626172  203145 1629308 1629673],1610612740,[1629627  202339 1630230  201949 1629637],4
