,TEAM_ID_1,TEAM_1_PLAYERS,TEAM_ID_2,TEAM_2_PLAYERS,PERIOD
0,1610612751,[ 201142 1628971  201933  203925  201935],1610612760,[1629652 1629647 1630526 1630581 1628983],1
1,1610612751,[1628975 1627761  201988  200746  201949],1610612760,[1630598  202324 1629026 1630197 1629660],2
2,1610612751,[ 201142 1628971  201933  201935  201988],1610612760,[1629652 1629647 1630526 1630581 1628983],3
3,1610612751,[ 201935 1628975 1627761  201988  200746],1610612760,[1630598 1629026 1630197 1629660 1629676],4
