,t1_players,t2_pm,t2_id,t1_points_scored,stint_start,t1_pm,stint_end,t1_id,t2_points_scored,t2_players,margin_per_100,num_poss
0,"[1630171, 1629731, 201567, 1629636, 1629012]",8,1610612748,13,0,-8,393,1610612739,21,"[202710, 2772, 1628389, 1629130, 203506]",-30.76923076923077,26.0
1,"[1630171, 1629731, 201567, 1629636, 1629012]",12,1610612748,14,394,-12,450,1610612739,26,"[202710, 2772, 1628389, 1629130, 203506]",-40.0,30.0
2,"[1628392, 1629012, 1629731, 1630171, 203521]",12,1610612748,16,451,-12,539,1610612739,28,"[1629639, 201609, 202357, 202710, 2772]",-33.33333333333333,36.0
3,"[1627752, 1628392, 1629012, 1629731, 203521]",11,1610612748,19,540,-11,581,1610612739,30,"[1629639, 201609, 202357, 202710, 2772]",-28.947368421052634,38.0
4,"[1626224, 1627752, 1628392, 1629636, 203521]",9,1610612748,27,582,-9,719,1610612739,36,"[1629639, 201609, 202357, 202710, 2772]",-19.565217391304348,46.0
5,"[1626224, 1627752, 1628392, 1629636, 203521]",5,1610612748,37,720,-5,865,1610612739,42,"[1628389, 1629639, 201609, 202357, 203506]",-8.771929824561402,57.0
6,"[201567, 1629636, 1629012, 1627752, 1626224]",6,1610612748,39,866,-6,945,1610612739,45,"[1628389, 203506, 1629639, 202357, 201609]",-9.67741935483871,62.0
7,"[201567, 1629636, 1629012, 1627752, 1626224]",11,1610612748,39,946,-11,1005,1610612739,50,"[1628389, 1629130, 201609, 202357, 203506]",-16.666666666666664,66.0
8,"[1626224, 1627752, 1629636, 1630171, 201567]",7,1610612748,45,1006,-7,1081,1610612739,52,"[1628389, 1629130, 201609, 202357, 203506]",-9.859154929577464,71.0
9,"[1626224, 1627752, 1629636, 1630171, 201567]",9,1610612748,45,1082,-9,1145,1610612739,54,"[1629130, 1630173, 201609, 202710, 2772]",-12.0,75.0
10,"[1626224, 1627752, 1629636, 1629731, 1630171]",12,1610612748,50,1146,-12,1267,1610612739,62,"[1629130, 1629639, 1630173, 202710, 2772]",-14.457831325301203,83.0
11,"[1629012, 1629636, 1629731, 1630171, 203521]",15,1610612748,50,1268,-15,1302,1610612739,65,"[1629130, 1629639, 1630173, 202710, 2772]",-17.647058823529413,85.0
12,"[1627752, 1629636, 1629731, 1630171, 203521]",11,1610612748,54,1303,-11,1437,1610612739,65,"[1628389, 1629130, 1629639, 202710, 2772]",-11.827956989247312,93.0
13,"[1627752, 1629636, 1629731, 1630171, 203521]",11,1610612748,63,1438,-11,1778,1610612739,74,"[1628389, 1629639, 202710, 203506, 2772]",-9.322033898305085,118.0
14,"[1630171, 1629731, 201567, 1629636, 1629012]",11,1610612748,63,1779,-11,1804,1610612739,74,"[202710, 2772, 1628389, 1629130, 203506]",-9.243697478991598,119.0
15,"[1628392, 1629012, 1629731, 1630171, 203521]",12,1610612748,63,1805,-12,1854,1610612739,75,"[202710, 2772, 1628389, 1629130, 203506]",-9.75609756097561,123.0
16,"[1627752, 1628392, 1629012, 1630171, 203521]",10,1610612748,72,1855,-10,2021,1610612739,82,"[202710, 2772, 1628389, 1629130, 203506]",-7.518796992481203,133.0
17,"[1627752, 1628392, 1629012, 1630171, 203521]",12,1610612748,72,2022,-12,2115,1610612739,84,"[1629130, 1630173, 201609, 202710, 2772]",-8.75912408759124,137.0
18,"[1627752, 1628392, 1629012, 1629636, 201567]",12,1610612748,72,2116,-12,2134,1610612739,84,"[1628389, 1629639, 201609, 202357, 203506]",-8.633093525179856,139.0
19,"[1627752, 1628392, 1629636, 1630171, 201567]",11,1610612748,73,2135,-11,2159,1610612739,84,"[1628389, 1629639, 201609, 202357, 203506]",-7.857142857142857,140.0
20,"[1627752, 1628392, 1629636, 1629731, 1630171]",11,1610612748,78,2160,-11,2331,1610612739,89,"[1628389, 1629639, 201609, 202357, 203506]",-7.142857142857142,154.0
21,"[1630171, 1629731, 201567, 1629636, 1627752]",15,1610612748,78,2332,-15,2466,1610612739,93,"[1628389, 203506, 1629639, 202357, 201609]",-9.202453987730062,163.0
22,"[1627752, 1628392, 1629012, 1629636, 203521]",14,1610612748,84,2467,-14,2549,1610612739,98,"[1628389, 203506, 1629639, 202357, 201609]",-8.284023668639055,169.0
23,"[1627752, 1628392, 1629012, 1629731, 1630171]",16,1610612748,95,2550,-16,2772,1610612739,111,"[1629130, 201609, 202357, 202710, 2772]",-8.791208791208792,182.0
24,"[1627752, 1629012, 1629636, 1629731, 1630171]",18,1610612748,95,2773,-18,2794,1610612739,113,"[1629130, 201609, 202357, 202710, 2772]",-9.836065573770492,183.0
25,"[1627752, 1628392, 1629012, 1629731, 1630171]",16,1610612748,99,2795,-16,2861,1610612739,115,"[1629216, 1629622, 1629639, 202357, 2772]",-8.55614973262032,187.0
26,"[1627752, 1628392, 1629012, 1629731, 1630171]",14,1610612748,101,2862,-14,9999999,1610612739,115,"[1629216, 1629622, 1629639, 1630173, 202357]",-7.446808510638298,188.0
