,team1_id,team1_player1,team1_player2,team1_player3,team1_player4,team1_player5,team2_id,team2_player1,team2_player2,team2_player3,team2_player4,team2_player5,game_id,period,possession_start,possession_end,team1_points,team2_points,possession_team
0,1610612743,203115,200794,203999,203914,1627750,1610612762,204060,202324,203497,1626220,1628378,0021801217,1,0,21,0,2,1610612762
1,1610612743,203115,200794,203999,203914,1627750,1610612762,204060,202324,203497,1626220,1628378,0021801217,1,39,39,2,0,1610612743
2,1610612743,203115,200794,203999,203914,1627750,1610612762,204060,202324,203497,1626220,1628378,0021801217,1,55,57,0,0,1610612762
3,1610612743,203115,200794,203999,203914,1627750,1610612762,204060,202324,203497,1626220,1628378,0021801217,1,74,77,0,0,1610612743
4,1610612743,203115,200794,203999,203914,1627750,1610612762,204060,202324,203497,1626220,1628378,0021801217,1,83,89,0,2,1610612762
5,1610612743,203115,200794,203999,203914,1627750,1610612762,204060,202324,203497,1626220,1628378,0021801217,1,101,102,0,0,1610612743
6,1610612743,203115,200794,203999,203914,1627750,1610612762,204060,202324,203497,1626220,1628378,0021801217,1,113,116,0,0,1610612762
7,1610612743,203115,200794,203999,203914,1627750,1610612762,204060,202324,203497,1626220,1628378,0021801217,1,127,127,2,0,1610612743
8,1610612743,203115,200794,203999,203914,1627750,1610612762,204060,202324,203497,1626220,1628378,0021801217,1,141,141,0,3,1610612762
9,1610612743,203115,200794,203999,203914,1627750,1610612762,204060,202324,203497,1626220,1628378,0021801217,1,162,162,0,0,1610612743
10,1610612743,203115,200794,203999,203914,1627750,1610612762,204060,202324,203497,1626220,1628378,0021801217,1,176,176,0,0,1610612762
11,1610612743,203115,200794,203999,203914,1627750,1610612762,204060,202324,203497,1626220,1628378,0021801217,1,183,183,0,0,1610612743
12,1610612743,203115,200794,203999,203914,1627750,1610612762,204060,202324,203497,1626220,1628378,0021801217,1,193,196,0,0,1610612762
13,1610612743,203115,200794,203999,203914,1627750,1610612762,204060,202324,203497,1626220,1628378,0021801217,1,196,204,2,0,1610612743
14,1610612743,203115,200794,203999,203914,1627750,1610612762,204060,202324,203497,1626220,1628378,0021801217,1,215,215,0,2,1610612762
15,1610612743,203115,200794,203999,203914,1627750,1610612762,204060,202324,203497,1626220,1628378,0021801217,1,225,228,0,0,1610612743
16,1610612743,203115,200794,203999,203914,1627750,1610612762,204060,202324,203497,1626220,1628378,0021801217,1,244,246,0,0,1610612762
17,1610612743,203115,200794,203999,203914,1627750,1610612762,204060,202324,203497,1626220,1628378,0021801217,1,250,250,2,0,1610612743
18,1610612743,203115,200794,203999,203914,1627750,1610612762,204060,202324,203497,1626220,1628378,0021801217,1,263,263,0,2,1610612762
19,1610612743,203115,200794,203999,203914,1627750,1610612762,204060,202324,203497,1626220,1628378,0021801217,1,277,280,0,0,1610612743
20,1610612743,203115,200794,203999,203914,1627750,1610612762,204060,202324,203497,1626220,1628378,0021801217,1,285,285,0,3,1610612762
21,1610612743,203115,200794,203999,203914,1627750,1610612762,204060,202324,203497,1626220,1628378,0021801217,1,305,305,2,0,1610612743
22,1610612743,203115,200794,203999,203914,1627750,1610612762,204060,202324,203497,1626220,1628378,0021801217,1,311,318,0,2,1610612762
23,1610612743,203115,200794,203999,203914,1627750,1610612762,1626220,1628378,203109,203497,204060,0021801217,1,338,343,0,0,1610612743
24,1610612743,203115,200794,203999,203914,1627750,1610612762,1626220,1628378,203109,203497,204060,0021801217,1,349,352,0,0,1610612762
25,1610612743,203115,200794,203999,203914,1627750,1610612762,1626220,1628378,203109,203497,204060,0021801217,1,357,360,0,0,1610612743
26,1610612743,203115,200794,203999,203914,1627750,1610612762,1626220,1628378,203109,203497,204060,0021801217,1,370,370,0,3,1610612762
27,1610612743,1628420,203115,203486,203914,203999,1610612762,1626220,1628378,203109,203497,204060,0021801217,1,385,397,2,0,1610612743
28,1610612743,1628420,203115,203486,203914,203999,1610612762,1626220,1628378,1628960,203109,203497,0021801217,1,415,415,0,0,1610612762
29,1610612743,1628420,203115,203486,203914,203999,1610612762,1626220,1628378,1628960,203109,203497,0021801217,1,432,435,0,0,1610612743
30,1610612743,1628420,203115,203486,203914,203999,1610612762,1626220,1628378,1628960,203109,203497,0021801217,1,442,454,0,0,1610612762
31,1610612743,1627736,1628420,203115,203486,203999,1610612762,1626220,1628378,1628960,203109,203497,0021801217,1,465,465,0,0,1610612743
32,1610612743,1627736,1628420,203115,203486,203999,1610612762,1626220,1628378,1628960,203109,203497,0021801217,1,469,469,0,2,1610612762
33,1610612743,1627736,1628420,203115,203486,203999,1610612762,1626220,1628378,1628960,203109,203497,0021801217,1,484,487,0,0,1610612743
34,1610612743,1627736,1628420,203115,203486,203999,1610612762,1626220,1628378,1628960,203109,203497,0021801217,1,509,509,0,3,1610612762
35,1610612743,1627736,1628420,203115,203486,203999,1610612762,1626220,1628378,1628960,203109,203497,0021801217,1,511,531,0,0,1610612743
36,1610612743,1627736,1628420,1628470,203486,203999,1610612762,1626220,1628378,1628960,203109,203497,0021801217,1,532,550,0,0,1610612762
37,1610612743,1627736,1627750,1628420,1628470,203486,1610612762,1626220,1628378,1628960,203109,203497,0021801217,1,556,556,3,0,1610612743
38,1610612743,1627736,1627750,1628420,1628470,203486,1610612762,1626220,1628378,1628960,203109,203497,0021801217,1,570,573,0,0,1610612762
39,1610612743,1627736,1627750,1628420,1628470,203486,1610612762,1626220,1628378,1628960,203109,203497,0021801217,1,579,582,0,0,1610612743
40,1610612743,1627736,1627750,1628420,1628470,203486,1610612762,1626220,1628378,1628960,203109,203497,0021801217,1,591,591,0,2,1610612762
41,1610612743,1627736,1627750,1628420,1628470,203486,1610612762,1626220,1628378,1628960,203109,203497,0021801217,1,605,605,2,0,1610612743
42,1610612743,1627736,1627750,1628420,1628470,203486,1610612762,1626220,1628378,1628960,203109,203497,0021801217,1,623,623,0,1,1610612762
43,1610612743,1627736,1627750,1628420,1628470,203486,1610612762,1628378,1628960,202324,203109,204060,0021801217,1,641,641,2,0,1610612743
44,1610612743,1627736,1627750,1628420,1628470,203486,1610612762,1628378,1628960,202324,203109,204060,0021801217,1,664,669,0,0,1610612762
45,1610612743,1627736,1627750,1628420,1628470,203486,1610612762,1628378,1628960,202324,203109,204060,0021801217,1,670,684,2,0,1610612743
46,1610612743,1627736,1627750,1628420,1628470,203486,1610612762,1627777,1628960,202324,203109,204060,0021801217,1,701,704,0,0,1610612762
47,1610612743,1627736,1627750,1628420,1628470,203486,1610612762,1627777,1628960,202324,203109,204060,0021801217,1,720,720,0,0,1610612762
48,1610612743,1627750,1628420,203486,1627736,1628470,1610612762,204060,202324,203109,1628960,1627777,0021801217,2,720,741,0,0,1610612743
49,1610612743,1627750,1628420,203486,1627736,1628470,1610612762,204060,202324,203109,1628960,1627777,0021801217,2,746,746,0,0,1610612762
50,1610612743,1627750,1628420,203486,1627736,1628470,1610612762,204060,202324,203109,1628960,1627777,0021801217,2,760,762,0,0,1610612743
51,1610612743,1627750,1628420,203486,1627736,1628470,1610612762,204060,202324,203109,1628960,1627777,0021801217,2,778,778,0,3,1610612762
52,1610612743,1627750,1628420,203486,1627736,1628470,1610612762,204060,202324,203109,1628960,1627777,0021801217,2,790,790,2,0,1610612743
53,1610612743,1627750,1628420,203486,1627736,1628470,1610612762,204060,202324,203109,1628960,1627777,0021801217,2,801,801,0,3,1610612762
54,1610612743,1627750,1628420,203486,1627736,1628470,1610612762,204060,202324,203109,1628960,1627777,0021801217,2,812,814,0,0,1610612743
55,1610612743,1627750,1628420,203486,1627736,1628470,1610612762,204060,202324,203109,1628960,1627777,0021801217,2,817,817,0,0,1610612762
56,1610612743,1627750,1628420,203486,1627736,1628470,1610612762,204060,202324,203109,1628960,1627777,0021801217,2,817,832,0,0,1610612743
57,1610612743,1627750,1628420,203486,1627736,1628470,1610612762,204060,202324,203109,1628960,1627777,0021801217,2,835,842,0,2,1610612762
58,1610612743,1627750,1628420,203486,1627736,1628470,1610612762,204060,202324,203109,1628960,1627777,0021801217,2,844,859,3,0,1610612743
59,1610612743,1627750,1628420,203486,1627736,1628470,1610612762,204060,202324,203109,1628960,1627777,0021801217,2,874,874,0,2,1610612762
60,1610612743,1627750,1628420,203486,1627736,1628470,1610612762,204060,202324,203109,1628960,1627777,0021801217,2,883,883,2,0,1610612743
61,1610612743,1627750,1628420,203486,1627736,1628470,1610612762,204060,202324,203109,1628960,1627777,0021801217,2,896,901,0,0,1610612762
62,1610612743,1627750,1628420,203486,1627736,1628470,1610612762,204060,202324,203109,1628960,1627777,0021801217,2,904,904,3,0,1610612743
63,1610612743,1627750,1628420,203486,1627736,1628470,1610612762,204060,202324,203109,1628960,1627777,0021801217,2,909,922,0,2,1610612762
64,1610612743,1627736,1628420,1628470,203486,203914,1610612762,1626220,1627777,200757,202324,204060,0021801217,2,934,944,2,0,1610612743
65,1610612743,1627736,1628420,1628470,203486,203914,1610612762,1626220,1627777,200757,202324,204060,0021801217,2,953,953,0,0,1610612762
66,1610612743,1627736,1628420,1628470,203486,203914,1610612762,1626220,1627777,200757,202324,204060,0021801217,2,958,958,2,0,1610612743
67,1610612743,1627736,1628420,1628470,203486,203914,1610612762,1626220,1627777,200757,202324,204060,0021801217,2,971,977,0,2,1610612762
68,1610612743,1627736,1628420,1628470,203486,203914,1610612762,1626220,1627777,200757,202324,204060,0021801217,2,990,990,3,0,1610612743
69,1610612743,1627736,1628420,1628470,203486,203914,1610612762,1626220,1627777,200757,202324,204060,0021801217,2,1004,1006,0,0,1610612762
70,1610612743,1627736,1628420,1628470,203486,203914,1610612762,1626220,1627777,200757,202324,204060,0021801217,2,1010,1010,0,0,1610612743
71,1610612743,1627736,1628420,1628470,203486,203914,1610612762,1626220,1627777,1628378,200757,203497,0021801217,2,1021,1021,0,2,1610612762
72,1610612743,1627736,1628420,1628470,203486,203914,1610612762,1626220,1627777,1628378,200757,203497,0021801217,2,1039,1039,2,0,1610612743
73,1610612743,1627736,1628420,1628470,203486,203914,1610612762,1626220,1627777,1628378,200757,203497,0021801217,2,1054,1054,0,3,1610612762
74,1610612743,1627736,1628420,1628470,203486,203914,1610612762,1626220,1627777,1628378,200757,203497,0021801217,2,1070,1083,2,0,1610612743
75,1610612743,1627736,1628420,1628470,203486,203914,1610612762,1626220,1627777,1628378,200757,203497,0021801217,2,1094,1094,0,2,1610612762
76,1610612743,1627736,1628420,1628470,203486,203914,1610612762,1626220,1627777,1628378,200757,203497,0021801217,2,1103,1103,3,0,1610612743
77,1610612743,1627736,1628420,1628470,203486,203914,1610612762,1626220,1627777,1628378,200757,203497,0021801217,2,1115,1115,0,0,1610612762
78,1610612743,1627736,1628420,1628470,203486,203914,1610612762,1626220,1627777,1628378,200757,203497,0021801217,2,1119,1123,1,0,1610612743
79,1610612743,1627736,1628420,203115,203486,203914,1610612762,1626220,1628378,1628960,200757,203497,0021801217,2,1132,1141,0,1,1610612762
80,1610612743,1628420,200794,203115,203914,203999,1610612762,1626220,1628378,200757,203497,204060,0021801217,2,1144,1144,2,0,1610612743
81,1610612743,1628420,200794,203115,203914,203999,1610612762,1626220,1628378,200757,203497,204060,0021801217,2,1157,1157,0,0,1610612762
82,1610612743,1628420,200794,203115,203914,203999,1610612762,1626220,1628378,200757,203497,204060,0021801217,2,1174,1179,0,0,1610612743
83,1610612743,1627750,200794,203115,203914,203999,1610612762,1626220,1628378,200757,203497,204060,0021801217,2,1196,1196,0,3,1610612762
84,1610612743,1627750,200794,203115,203914,203999,1610612762,1626220,1628378,200757,203497,204060,0021801217,2,1216,1216,0,0,1610612743
85,1610612743,1627750,200794,203115,203914,203999,1610612762,1626220,1628378,200757,203497,204060,0021801217,2,1216,1233,0,0,1610612762
86,1610612743,1627750,200794,203115,203914,203999,1610612762,1626220,1628378,200757,203497,204060,0021801217,2,1236,1236,2,0,1610612743
87,1610612743,1627750,200794,203115,203914,203999,1610612762,1626220,1628378,200757,203497,204060,0021801217,2,1254,1254,0,2,1610612762
88,1610612743,1627750,200794,203115,203914,203999,1610612762,1626220,1628378,200757,203497,204060,0021801217,2,1271,1273,0,0,1610612743
89,1610612743,1627750,200794,203115,203914,203999,1610612762,1626220,1628378,200757,203497,204060,0021801217,2,1282,1282,0,0,1610612762
90,1610612743,1627750,200794,203115,203914,203999,1610612762,1626220,1628378,203109,203497,204060,0021801217,2,1294,1296,0,0,1610612743
91,1610612743,1627750,200794,203115,203914,203999,1610612762,1626220,1628378,203109,203497,204060,0021801217,2,1303,1308,0,2,1610612762
92,1610612743,1627736,1627750,200794,203115,203999,1610612762,1626220,1628378,203109,203497,204060,0021801217,2,1325,1327,1,0,1610612743
93,1610612743,1627736,1627750,200794,203115,203486,1610612762,1626220,1628378,203109,203497,204060,0021801217,2,1334,1334,0,2,1610612762
94,1610612743,1627736,1627750,200794,203115,203486,1610612762,1626220,1628378,203109,203497,204060,0021801217,2,1353,1353,3,0,1610612743
95,1610612743,1627736,1627750,200794,203115,203486,1610612762,1626220,1628378,203109,203497,204060,0021801217,2,1368,1371,0,0,1610612762
96,1610612743,1627736,1627750,200794,203115,203486,1610612762,1626220,1628378,203109,203497,204060,0021801217,2,1378,1381,0,0,1610612743
97,1610612743,1627736,1627750,200794,203115,203486,1610612762,1626220,1628378,203109,203497,204060,0021801217,2,1392,1392,0,2,1610612762
98,1610612743,1627736,1627750,200794,203115,203486,1610612762,1626220,1628378,203109,203497,204060,0021801217,2,1407,1407,2,0,1610612743
99,1610612743,1627736,1627750,200794,203115,203486,1610612762,1626220,1628378,203109,203497,204060,0021801217,2,1425,1429,0,0,1610612762
100,1610612743,1627736,1627750,200794,203115,203486,1610612762,1626220,1628378,203109,203497,204060,0021801217,2,1439,1439,3,0,1610612743
101,1610612743,203115,200794,203999,203914,1627750,1610612762,204060,202324,203497,1626220,1628378,0021801217,3,1440,1458,2,0,1610612743
102,1610612743,203115,200794,203999,203914,1627750,1610612762,204060,202324,203497,1626220,1628378,0021801217,3,1486,1486,0,1,1610612762
103,1610612743,203115,200794,203999,203914,1627750,1610612762,204060,202324,203497,1626220,1628378,0021801217,3,1503,1503,2,0,1610612743
104,1610612743,203115,200794,203999,203914,1627750,1610612762,204060,202324,203497,1626220,1628378,0021801217,3,1518,1518,0,2,1610612762
105,1610612743,203115,200794,203999,203914,1627750,1610612762,204060,202324,203497,1626220,1628378,0021801217,3,1535,1538,0,0,1610612743
106,1610612743,203115,200794,203999,203914,1627750,1610612762,204060,202324,203497,1626220,1628378,0021801217,3,1544,1544,0,0,1610612762
107,1610612743,1627750,200794,203115,203486,203914,1610612762,204060,202324,203497,1626220,1628378,0021801217,3,1560,1560,2,0,1610612743
108,1610612743,1627750,200794,203115,203486,203914,1610612762,204060,202324,203497,1626220,1628378,0021801217,3,1574,1577,0,0,1610612762
109,1610612743,1627750,200794,203115,203486,203914,1610612762,204060,202324,203497,1626220,1628378,0021801217,3,1584,1588,0,0,1610612743
110,1610612743,1627750,200794,203115,203486,203914,1610612762,204060,202324,203497,1626220,1628378,0021801217,3,1597,1597,0,2,1610612762
111,1610612743,1627750,200794,203115,203486,203914,1610612762,204060,202324,203497,1626220,1628378,0021801217,3,1622,1632,0,0,1610612743
112,1610612743,1627750,200794,203115,203486,203914,1610612762,204060,202324,203497,1626220,1628378,0021801217,3,1645,1661,0,0,1610612762
113,1610612743,1627736,1627750,200794,203115,203486,1610612762,204060,202324,203497,1626220,1628378,0021801217,3,1668,1672,0,0,1610612743
114,1610612743,1627736,1627750,200794,203115,203486,1610612762,204060,202324,203497,1626220,1628378,0021801217,3,1677,1677,0,3,1610612762
115,1610612743,1627736,1627750,200794,203115,203486,1610612762,204060,202324,203497,1626220,1628378,0021801217,3,1677,1693,2,0,1610612743
116,1610612743,1627736,1627750,200794,203115,203486,1610612762,204060,202324,203497,1626220,1628378,0021801217,3,1705,1709,0,0,1610612762
117,1610612743,1627736,1627750,200794,203115,203486,1610612762,204060,202324,203497,1626220,1628378,0021801217,3,1717,1717,0,0,1610612743
118,1610612743,1627736,1627750,200794,203115,203486,1610612762,204060,202324,203497,1626220,1628378,0021801217,3,1723,1728,0,2,1610612762
119,1610612743,1627736,1627750,200794,203115,203486,1610612762,204060,202324,203497,1626220,1628378,0021801217,3,1744,1744,0,0,1610612743
120,1610612743,1627736,1627750,200794,203115,203486,1610612762,204060,202324,203497,1626220,1628378,0021801217,3,1758,1758,0,2,1610612762
121,1610612743,1627736,1627750,200794,203115,203486,1610612762,204060,202324,203497,1626220,1628378,0021801217,3,1758,1789,2,0,1610612743
122,1610612743,1627736,1627750,200794,203115,203486,1610612762,1626220,1627777,1628378,203109,203497,0021801217,3,1812,1816,0,2,1610612762
123,1610612743,1627736,1627750,200794,203115,203486,1610612762,1626220,1627777,1628378,203109,203497,0021801217,3,1834,1836,0,0,1610612743
124,1610612743,1627736,1627750,200794,203115,203486,1610612762,1626220,1627777,1628378,203109,203497,0021801217,3,1852,1862,0,0,1610612762
125,1610612743,1627736,1627750,1628420,1628470,203486,1610612762,1626220,1627777,1628378,203109,203497,0021801217,3,1870,1870,3,0,1610612743
126,1610612743,1627736,1627750,1628420,1628470,203486,1610612762,1626220,1627777,1628378,203109,203497,0021801217,3,1890,1892,0,0,1610612762
127,1610612743,1627736,1627750,1628420,1628470,203486,1610612762,1626220,1627777,1628378,203109,203497,0021801217,3,1894,1894,2,0,1610612743
128,1610612743,1627736,1627750,1628420,1628470,203486,1610612762,1626220,1627777,1628378,203109,203497,0021801217,3,1909,1909,0,2,1610612762
129,1610612743,1627736,1627750,1628420,1628470,203486,1610612762,1626220,1627777,1628378,203109,203497,0021801217,3,1922,1922,2,0,1610612743
130,1610612743,1627736,1627750,1628420,1628470,203486,1610612762,1626220,1627777,1628378,203109,203497,0021801217,3,1937,1937,0,3,1610612762
131,1610612743,1627736,1627750,1628420,1628470,203486,1610612762,1627777,1628378,203109,203497,204060,0021801217,3,1950,1952,0,0,1610612743
132,1610612743,1627736,1627750,1628420,1628470,203486,1610612762,1627777,1628378,203109,203497,204060,0021801217,3,1962,1962,0,2,1610612762
133,1610612743,1627736,1627750,1628420,1628470,203486,1610612762,1627777,1628378,203109,203497,204060,0021801217,3,1984,1987,0,0,1610612743
134,1610612743,1627736,1627750,1628420,1628470,203486,1610612762,1627777,1628378,203109,203497,204060,0021801217,3,1996,1996,0,2,1610612762
135,1610612743,1627736,1627750,1628420,1628470,203486,1610612762,1627777,1628378,203109,203497,204060,0021801217,3,2013,2016,0,0,1610612743
136,1610612743,1627736,1627750,1628420,1628470,203486,1610612762,1627777,1628378,203109,203497,204060,0021801217,3,2028,2028,0,1,1610612762
137,1610612743,1627736,1627823,1628420,1628470,203486,1610612762,1627777,1628378,202324,203109,204060,0021801217,3,2043,2043,2,0,1610612743
138,1610612743,1627736,1627823,1628420,1628470,203486,1610612762,1627777,1628378,202324,203109,204060,0021801217,3,2057,2057,0,3,1610612762
139,1610612743,1627736,1627823,1628420,1628470,203486,1610612762,1627777,1628378,202324,203109,204060,0021801217,3,2079,2081,1,0,1610612743
140,1610612743,1627736,1627823,1628420,1628470,203486,1610612762,1627777,1628960,202324,203109,204060,0021801217,3,2095,2095,0,2,1610612762
141,1610612743,1627736,1627823,1628420,1628470,203486,1610612762,1627777,1628960,202324,203109,204060,0021801217,3,2113,2113,2,0,1610612743
142,1610612743,1627736,1627823,1628420,1628470,203486,1610612762,1627777,1628960,202324,203109,204060,0021801217,3,2123,2123,0,2,1610612762
143,1610612743,1627736,1627823,1628420,1628470,203486,1610612762,1627777,1628960,202324,203109,204060,0021801217,3,2130,2130,3,0,1610612743
144,1610612743,1627736,1627823,1628420,1628470,203486,1610612762,1627777,1628960,202324,203109,204060,0021801217,3,2153,2155,0,0,1610612762
145,1610612743,1627736,1627823,1628420,1628470,203486,1610612762,1627777,1628960,202324,203109,204060,0021801217,3,2159,2159,2,0,1610612743
146,1610612743,1628420,203486,1627736,1628470,1627823,1610612762,204060,202324,203109,1628960,1627777,0021801217,4,2160,2174,0,0,1610612762
147,1610612743,1628420,203486,1627736,1628470,1627823,1610612762,204060,202324,203109,1628960,1627777,0021801217,4,2186,2186,0,0,1610612743
148,1610612743,1628420,203486,1627736,1628470,1627823,1610612762,204060,202324,203109,1628960,1627777,0021801217,4,2191,2194,0,0,1610612762
149,1610612743,1628420,203486,1627736,1628470,1627823,1610612762,204060,202324,203109,1628960,1627777,0021801217,4,2206,2208,0,0,1610612743
150,1610612743,1628420,203486,1627736,1628470,1627823,1610612762,204060,202324,203109,1628960,1627777,0021801217,4,2219,2222,0,0,1610612762
151,1610612743,1628420,203486,1627736,1628470,1627823,1610612762,204060,202324,203109,1628960,1627777,0021801217,4,2235,2235,2,0,1610612743
152,1610612743,1628420,203486,1627736,1628470,1627823,1610612762,204060,202324,203109,1628960,1627777,0021801217,4,2250,2254,0,1,1610612762
153,1610612743,1627736,1627823,1628420,203486,203999,1610612762,1626220,1627777,202324,203109,204060,0021801217,4,2269,2269,2,0,1610612743
154,1610612743,1627736,1627823,1628420,203486,203999,1610612762,1626220,1627777,202324,203109,204060,0021801217,4,2280,2286,0,3,1610612762
155,1610612743,1627736,1627823,1628420,203486,203999,1610612762,1626220,1627777,202324,203109,204060,0021801217,4,2293,2293,2,0,1610612743
156,1610612743,1627736,1627823,1628420,203486,203999,1610612762,1626220,1627777,202324,203109,204060,0021801217,4,2307,2309,0,2,1610612762
157,1610612743,1627736,1627823,1628420,203486,203999,1610612762,1626220,1627777,202324,203109,204060,0021801217,4,2327,2331,0,0,1610612743
158,1610612743,1627736,1627823,1628420,203486,203999,1610612762,1626220,1627777,202324,203109,204060,0021801217,4,2337,2339,0,0,1610612762
159,1610612743,1627736,1627823,1628420,203486,203999,1610612762,1626220,1627777,202324,203109,204060,0021801217,4,2356,2375,0,0,1610612743
160,1610612743,1627736,1627823,1628420,203486,203999,1610612762,1626220,1628378,200757,203497,204060,0021801217,4,2381,2388,0,1,1610612762
161,1610612743,1627736,1627823,1628420,200794,203486,1610612762,1626220,1627777,1628378,200757,203497,0021801217,4,2405,2408,0,0,1610612743
162,1610612743,1627736,1627823,1628420,200794,203486,1610612762,1626220,1627777,1628378,200757,203497,0021801217,4,2416,2416,0,2,1610612762
163,1610612743,1627750,1628420,200794,203486,203914,1610612762,1626220,1627777,1628378,200757,203497,0021801217,4,2435,2439,0,0,1610612743
164,1610612743,1627750,1628420,200794,203486,203914,1610612762,1626220,1627777,1628378,200757,203497,0021801217,4,2443,2447,0,0,1610612762
165,1610612743,1627750,1628420,200794,203486,203914,1610612762,1626220,1627777,1628378,200757,203497,0021801217,4,2463,2463,3,0,1610612743
166,1610612743,1627750,1628420,200794,203486,203914,1610612762,1626220,1627777,1628378,200757,203497,0021801217,4,2479,2483,0,0,1610612762
167,1610612743,1627750,1628420,200794,203486,203914,1610612762,1626220,1627777,1628378,200757,203497,0021801217,4,2488,2488,1,0,1610612743
168,1610612743,1627750,1628420,200794,203486,203914,1610612762,1626220,1627777,1628378,200757,203497,0021801217,4,2499,2499,0,2,1610612762
169,1610612743,1627750,1628420,200794,203486,203914,1610612762,1626220,1627777,1628378,200757,203497,0021801217,4,2514,2517,0,0,1610612743
170,1610612743,1627750,1628420,200794,203486,203914,1610612762,1626220,1627777,1628378,200757,203497,0021801217,4,2522,2522,0,2,1610612762
171,1610612743,1627750,1628420,200794,203486,203914,1610612762,1626220,1627777,1628378,200757,203497,0021801217,4,2545,2548,0,0,1610612743
172,1610612743,1627750,1628420,200794,203486,203914,1610612762,1626220,1627777,1628378,200757,203497,0021801217,4,2564,2564,0,1,1610612762
173,1610612743,1627750,1628420,200794,203486,203914,1610612762,1626220,1628378,200757,203497,204060,0021801217,4,2583,2583,2,0,1610612743
174,1610612743,1627750,1628420,200794,203486,203914,1610612762,1626220,1628378,200757,203497,204060,0021801217,4,2597,2599,0,2,1610612762
175,1610612743,1627736,1627750,1628420,203486,203914,1610612762,1626220,1628378,200757,203497,204060,0021801217,4,2611,2613,0,0,1610612743
176,1610612743,1627736,1627750,1628420,203486,203914,1610612762,1626220,1628378,200757,203497,204060,0021801217,4,2629,2629,0,2,1610612762
177,1610612743,1627736,1627750,1628420,203486,203914,1610612762,1626220,1628378,200757,203497,204060,0021801217,4,2629,2649,0,0,1610612743
178,1610612743,1627736,1627750,1628470,203486,203914,1610612762,1626220,1628378,200757,203497,204060,0021801217,4,2659,2659,0,3,1610612762
179,1610612743,1627736,1627750,1628470,203486,203914,1610612762,1626220,1628378,200757,203497,204060,0021801217,4,2673,2673,0,0,1610612743
180,1610612743,1627736,1627750,1628470,203486,203914,1610612762,1626220,1628378,200757,203497,204060,0021801217,4,2676,2676,0,2,1610612762
181,1610612743,1627736,1627750,1628470,203486,203914,1610612762,1626220,1628378,200757,203497,204060,0021801217,4,2676,2700,0,0,1610612743
182,1610612743,1627736,1627823,1628420,1628470,203486,1610612762,1626220,1628378,203109,203497,204060,0021801217,4,2713,2749,0,2,1610612762
183,1610612743,1627736,1627823,1628420,1628470,1629020,1610612762,1626220,1628378,203109,203497,204060,0021801217,4,2764,2766,0,0,1610612743
184,1610612743,1627736,1627823,1628420,1628470,1629020,1610612762,1626220,1628378,203109,203497,204060,0021801217,4,2781,2785,0,0,1610612762
185,1610612743,1627736,1627823,1628420,1628470,1629020,1610612762,1626220,1628378,203109,203497,204060,0021801217,4,2789,2789,2,0,1610612743
186,1610612743,1627736,1627823,1628420,1628470,1629020,1610612762,1627777,1628463,1628513,1628960,202327,0021801217,4,2806,2806,0,0,1610612762
187,1610612743,1627736,1627823,1628420,1628470,1629020,1610612762,1627777,1628463,1628513,1628960,202327,0021801217,4,2816,2819,0,0,1610612743
188,1610612743,1627736,1627823,1628420,1628470,1629020,1610612762,1627777,1628463,1628513,1628960,202327,0021801217,4,2820,2820,0,0,1610612762
189,1610612743,1627736,1627823,1628420,1628470,1629020,1610612762,1627777,1628463,1628513,1628960,202327,0021801217,4,2821,2821,2,0,1610612743
190,1610612743,1627736,1627823,1628420,1628470,1629020,1610612762,1627777,1628463,1628513,1628960,202327,0021801217,4,2831,2835,0,0,1610612762
191,1610612743,1627736,1627823,1628420,1628470,1629020,1610612762,1627777,1628463,1628513,1628960,202327,0021801217,4,2841,2841,3,0,1610612743
192,1610612743,1627736,1627823,1628420,1628470,1629020,1610612762,1627777,1628463,1628513,1628960,202327,0021801217,4,2856,2856,0,2,1610612762
193,1610612743,1627736,1627823,1628420,1628470,1629020,1610612762,1627777,1628463,1628513,1628960,202327,0021801217,4,2875,2875,3,0,1610612743
