,t1_points_scored,stint_end,stint_start,t1_id,t1_players,t2_players,t2_id,t2_points_scored,t2_pm,t1_pm,margin_per_100,num_poss
0,15,395,0,1610612745,"[201569, 1630256, 1626174, 1629645, 1630224]","[203952, 203490, 1626172, 1629673, 201939]",1610612744,16,1,-1,-4.0,25.0
1,19,486,396,1610612745,"[201569, 1630256, 1626174, 1629645, 1630224]","[203952, 203490, 1626172, 1629673, 201939]",1610612744,18,-1,1,3.225806451612903,31.0
2,26,628,487,1610612745,"[1626174, 1629645, 1629717, 1629726, 1630231]","[1626172, 1627780, 1627814, 201939, 203952]",1610612744,20,-6,6,14.634146341463413,41.0
3,26,660,629,1610612745,"[1626174, 1629645, 1629717, 1629726, 1630231]","[1627780, 1627814, 201939, 202357, 203952]",1610612744,22,-4,4,9.30232558139535,43.0
4,30,717,661,1610612745,"[1629717, 1629726, 1630231, 1630578, 201569]","[1627780, 1627814, 1629673, 202357, 203952]",1610612744,22,-8,8,17.02127659574468,47.0
5,32,783,718,1610612745,"[1629717, 1629726, 1630231, 1630578, 201569]","[1627780, 1627814, 1629673, 1630228, 202357]",1610612744,26,-6,6,11.320754716981133,53.0
6,32,797,784,1610612745,"[201569, 1629717, 1629726, 1630231, 1630578]","[1629673, 1627814, 202357, 1630228, 1629308]",1610612744,26,-6,6,11.11111111111111,54.0
7,37,893,798,1610612745,"[1629726, 1630231, 1630528, 1630578, 201569]","[1629673, 1627814, 202357, 1630228, 1629308]",1610612744,28,-9,9,14.516129032258066,62.0
8,39,995,894,1610612745,"[1629726, 1630256, 1630528, 1630578, 201569]","[1629673, 1627814, 202357, 1630228, 1629308]",1610612744,31,-8,8,11.76470588235294,68.0
9,40,1049,996,1610612745,"[1629726, 1630256, 1630528, 1630578, 201569]","[1627780, 1629673, 1630228, 202357, 203490]",1610612744,33,-7,7,10.0,70.0
10,44,1117,1050,1610612745,"[1626174, 1629645, 1630224, 1630231, 1630528]","[1627780, 1630228, 201939, 202357, 203490]",1610612744,35,-9,9,12.162162162162163,74.0
11,48,1188,1118,1610612745,"[1626174, 1629645, 1630224, 1630231, 1630528]","[1626172, 1627780, 1630228, 201939, 203952]",1610612744,37,-11,11,13.580246913580247,81.0
12,48,1284,1189,1610612745,"[1626174, 1629645, 1630224, 1630256, 1630528]","[1626172, 1627780, 1630228, 201939, 203952]",1610612744,37,-11,11,12.643678160919542,87.0
13,54,1438,1285,1610612745,"[1626174, 1629645, 1630224, 1630256, 1630528]","[1626172, 1629673, 201939, 203490, 203952]",1610612744,43,-11,11,11.224489795918368,98.0
14,63,1813,1439,1610612745,"[1626174, 1629645, 1630224, 1630256, 201569]","[1626172, 1629673, 201939, 203490, 203952]",1610612744,60,-3,3,2.380952380952381,126.0
15,63,1836,1814,1610612745,"[201569, 1630256, 1626174, 1629645, 1630224]","[203952, 203490, 1626172, 1629673, 201939]",1610612744,62,-1,1,0.78125,128.0
16,71,1989,1837,1610612745,"[201569, 1630256, 1626174, 1629645, 1630224]","[1626172, 1627780, 1627814, 201939, 203952]",1610612744,67,-4,4,2.9197080291970803,137.0
17,74,2082,1990,1610612745,"[1626174, 1629645, 1629717, 1629726, 1630231]","[1626172, 1627780, 1627814, 201939, 203952]",1610612744,71,-3,3,2.097902097902098,143.0
18,76,2158,2083,1610612745,"[1629717, 1629726, 1630231, 1630578, 201569]","[1626172, 1627780, 1627814, 1629673, 203952]",1610612744,76,0,0,0.0,148.0
19,78,2259,2159,1610612745,"[1629717, 1629726, 1630231, 1630578, 201569]","[1627780, 1627814, 1629673, 1630228, 202357]",1610612744,78,0,0,0.0,153.0
20,87,2468,2260,1610612745,"[201569, 1629717, 1629726, 1630231, 1630578]","[201939, 1627814, 1627780, 202357, 1630228]",1610612744,88,1,-1,-0.6060606060606061,165.0
21,95,2552,2469,1610612745,"[1629726, 1630231, 1630528, 1630578, 201569]","[201939, 1627814, 1627780, 202357, 1630228]",1610612744,90,-5,5,2.941176470588235,170.0
22,95,2585,2553,1610612745,"[1626174, 1629645, 1629726, 1630231, 1630528]","[1626172, 1627814, 201939, 203490, 203952]",1610612744,92,-3,3,1.7341040462427744,173.0
23,101,2662,2586,1610612745,"[1626174, 1629645, 1629726, 1630231, 1630528]","[1626172, 1629673, 201939, 203490, 203952]",1610612744,99,-2,2,1.1111111111111112,180.0
24,103,2857,2663,1610612745,"[1626174, 1629645, 1629726, 1630224, 1630231]","[1626172, 1629673, 201939, 203490, 203952]",1610612744,103,0,0,0.0,190.0
25,103,2874,2858,1610612745,"[1626174, 1629645, 1630224, 1630231, 201569]","[1626172, 1629673, 201939, 203490, 203952]",1610612744,103,0,0,0.0,190.0
26,103,2879,2875,1610612745,"[1626174, 1629645, 1629726, 1630224, 201569]","[1626172, 1627780, 1629673, 203490, 203952]",1610612744,105,2,-2,-1.0416666666666665,192.0
27,103,9999999,2880,1610612745,"[1626174, 1629645, 1630231, 1630256, 201569]","[1627814, 1629673, 201939, 203490, 203952]",1610612744,105,2,-2,-1.0362694300518136,193.0
