,TEAM_ID_1,TEAM_1_PLAYERS,TEAM_ID_2,TEAM_2_PLAYERS,PERIOD
0,1610612738,[1628369  202330 1628464 1627759  202689],1610612749,[ 203114  203507  201572  202083 1628978],1
1,1610612738,[1628369  202689  203935  202683 1628400],1610612749,[ 203114  203507  201572  202083 1628978],2
2,1610612738,[1628369  202330 1628464 1627759  202689],1610612749,[ 203114  203507  201572  202083 1628978],3
3,1610612738,[1628369 1627759  203935  202954  202683],1610612749,[ 203507  201572  202083 1628978    2594],4
