,team1_id,team1_player1,team1_player2,team1_player3,team1_player4,team1_player5,team2_id,team2_player1,team2_player2,team2_player3,team2_player4,team2_player5,game_id,period,possession_start,possession_end,team1_points,team2_points,possession_team
0,1610612745,1630256,200782,202326,1627863,203506,1610612766,202330,1629023,203469,1626179,1630163,0022000367,1,0,26,2,0,1610612745
1,1610612745,1630256,200782,202326,1627863,203506,1610612766,202330,1629023,203469,1626179,1630163,0022000367,1,46,50,0,0,1610612766
2,1610612745,1630256,200782,202326,1627863,203506,1610612766,202330,1629023,203469,1626179,1630163,0022000367,1,58,61,0,0,1610612745
3,1610612745,1630256,200782,202326,1627863,203506,1610612766,202330,1629023,203469,1626179,1630163,0022000367,1,77,77,0,0,1610612766
4,1610612745,1630256,200782,202326,1627863,203506,1610612766,202330,1629023,203469,1626179,1630163,0022000367,1,93,93,0,0,1610612745
5,1610612745,1630256,200782,202326,1627863,203506,1610612766,202330,1629023,203469,1626179,1630163,0022000367,1,106,110,0,0,1610612766
6,1610612745,1630256,200782,202326,1627863,203506,1610612766,202330,1629023,203469,1626179,1630163,0022000367,1,115,118,0,0,1610612745
7,1610612745,1630256,200782,202326,1627863,203506,1610612766,202330,1629023,203469,1626179,1630163,0022000367,1,123,123,0,2,1610612766
8,1610612745,1630256,200782,202326,1627863,203506,1610612766,202330,1629023,203469,1626179,1630163,0022000367,1,137,139,0,0,1610612745
9,1610612745,1630256,200782,202326,1627863,203506,1610612766,202330,1629023,203469,1626179,1630163,0022000367,1,148,151,0,0,1610612766
10,1610612745,1630256,200782,202326,1627863,203506,1610612766,202330,1629023,203469,1626179,1630163,0022000367,1,158,158,2,0,1610612745
11,1610612745,1630256,200782,202326,1627863,203506,1610612766,202330,1629023,203469,1626179,1630163,0022000367,1,171,171,0,3,1610612766
12,1610612745,1630256,200782,202326,1627863,203506,1610612766,202330,1629023,203469,1626179,1630163,0022000367,1,188,190,0,0,1610612745
13,1610612745,1630256,200782,202326,1627863,203506,1610612766,202330,1629023,203469,1626179,1630163,0022000367,1,196,208,0,2,1610612766
14,1610612745,1630256,200782,202326,1627863,203506,1610612766,202330,1629023,203469,1626179,1630163,0022000367,1,220,223,0,0,1610612745
15,1610612745,1630256,200782,202326,1627863,203506,1610612766,202330,1629023,203469,1626179,1630163,0022000367,1,229,232,0,0,1610612766
16,1610612745,1630256,200782,202326,1627863,203506,1610612766,202330,1629023,203469,1626179,1630163,0022000367,1,242,242,2,0,1610612745
17,1610612745,1630256,200782,202326,1627863,203506,1610612766,202330,1629023,203469,1626179,1630163,0022000367,1,265,265,0,3,1610612766
18,1610612745,1630256,200782,202326,1627863,203506,1610612766,202330,1629023,203469,1626179,1630163,0022000367,1,284,287,0,0,1610612745
19,1610612745,1630256,200782,202326,1627863,203506,1610612766,202330,1629023,203469,1626179,1630163,0022000367,1,291,291,0,2,1610612766
20,1610612745,1630256,200782,202326,1627863,203506,1610612766,202330,1629023,203469,1626179,1630163,0022000367,1,303,303,3,0,1610612745
21,1610612745,1630256,200782,202326,1627863,203506,1610612766,202330,1629023,203469,1626179,1630163,0022000367,1,319,319,0,3,1610612766
22,1610612745,1630256,200782,202326,1627863,203506,1610612766,202330,1629023,203469,1626179,1630163,0022000367,1,327,327,2,0,1610612745
23,1610612745,1630256,200782,202326,1627863,203506,1610612766,202330,1629023,203469,1626179,1630163,0022000367,1,342,342,0,1,1610612766
24,1610612745,1630256,200782,202326,1627863,203506,1610612766,1626179,1628970,1630163,202330,203469,0022000367,1,354,354,2,0,1610612745
25,1610612745,1630256,200782,202326,1627863,203506,1610612766,1626179,1628970,1630163,202330,203469,0022000367,1,364,364,0,0,1610612766
26,1610612745,1630256,200782,202326,1627863,203506,1610612766,1626179,1628970,1630163,202330,203469,0022000367,1,368,368,0,0,1610612745
27,1610612745,1630256,200782,202326,1627863,203506,1610612766,1626179,1628970,1630163,202330,203469,0022000367,1,374,386,0,0,1610612766
28,1610612745,1627863,1628021,200782,202326,203506,1610612766,1626179,1628370,1628970,202330,203469,0022000367,1,400,402,0,0,1610612745
29,1610612745,1627863,1628021,200782,202326,203506,1610612766,1626179,1628370,1628970,202330,203469,0022000367,1,414,414,0,2,1610612766
30,1610612745,1627863,1628021,200782,202326,203506,1610612766,1626179,1628370,1628970,202330,203469,0022000367,1,429,429,3,0,1610612745
31,1610612745,1627863,1628021,200782,202326,203506,1610612766,1626179,1628370,1628970,202330,203469,0022000367,1,449,449,0,2,1610612766
32,1610612745,1627863,1628021,200782,202326,203506,1610612766,1626179,1628370,1628970,202330,203469,0022000367,1,464,467,0,0,1610612745
33,1610612745,1627863,1628021,200782,202326,203506,1610612766,1626179,1628370,1628970,202330,203469,0022000367,1,471,487,0,3,1610612766
34,1610612745,1627863,1628021,1628425,202326,203506,1610612766,1626179,1628370,1628970,202330,203469,0022000367,1,506,510,0,0,1610612745
35,1610612745,1627863,1628021,1628425,202326,203506,1610612766,1626179,1628370,1628970,202330,203469,0022000367,1,520,523,0,0,1610612766
36,1610612745,1627863,1628021,1628425,202326,203506,1610612766,1626179,1628370,1628970,202330,203469,0022000367,1,526,526,2,0,1610612745
37,1610612745,1627863,1628021,1628425,202326,203506,1610612766,1626179,1628370,1628970,202330,203469,0022000367,1,536,536,0,2,1610612766
38,1610612745,1627863,1628021,1628425,202326,203506,1610612766,1626179,1628370,1628970,202330,203469,0022000367,1,557,557,2,0,1610612745
39,1610612745,1627863,1628021,1628425,202326,203506,1610612766,1626179,1628370,1628970,202330,203469,0022000367,1,575,577,0,0,1610612766
40,1610612745,1627863,1628021,1628425,202326,203506,1610612766,1626179,1628370,1628970,202330,203469,0022000367,1,577,600,0,0,1610612745
41,1610612745,1627863,1628021,1628425,202326,203506,1610612766,1628370,1628970,1628997,1629023,1630163,0022000367,1,608,611,0,0,1610612766
42,1610612745,1627863,1628021,1628425,202326,203506,1610612766,1628370,1628970,1628997,1629023,1630163,0022000367,1,629,652,2,0,1610612745
43,1610612745,1628021,1628425,1630222,1630256,202326,1610612766,1628370,1628970,1628997,1629023,1630163,0022000367,1,665,665,0,0,1610612766
44,1610612745,1628021,1628425,1630222,1630256,202326,1610612766,1628370,1628970,1628997,1629023,1630163,0022000367,1,669,669,1,0,1610612745
45,1610612745,1628021,1628425,1630222,1630256,200782,1610612766,1628370,1628970,1628997,1629023,1630163,0022000367,1,680,680,0,3,1610612766
46,1610612745,1628021,1628425,1630222,1630256,200782,1610612766,1628370,1628970,1628997,1629023,1630163,0022000367,1,693,693,2,0,1610612745
47,1610612745,1628021,1628425,1630222,1630256,200782,1610612766,1628370,1628970,1628997,1629023,1630163,0022000367,1,712,712,0,2,1610612766
48,1610612745,1628021,1628425,1630222,1630256,200782,1610612766,1628370,1628970,1628997,1629023,1630163,0022000367,1,719,719,2,0,1610612745
49,1610612745,1628021,1628425,1630222,1630256,200782,1610612766,1628370,1628970,1628997,1629023,1630163,0022000367,1,720,720,0,2,1610612766
50,1610612745,1628021,1628425,1630222,1630256,200782,1610612766,1628370,1628970,1628997,1629023,1630163,0022000367,1,720,720,0,0,141
51,1610612745,1630256,1628021,1628425,1630222,203463,1610612766,1629023,1630163,1628970,1628370,1628997,0022000367,2,720,741,0,2,1610612766
52,1610612745,1630256,1628021,1628425,1630222,203463,1610612766,1629023,1630163,1628970,1628370,1628997,0022000367,2,754,759,0,0,1610612745
53,1610612745,1630256,1628021,1628425,1630222,203463,1610612766,1629023,1630163,1628970,1628370,1628997,0022000367,2,763,777,0,0,1610612766
54,1610612745,1630256,1628021,1628425,1630222,203463,1610612766,1629023,1630163,1628970,1628370,1628997,0022000367,2,780,780,4,0,1610612745
55,1610612745,1630256,1628021,1628425,1630222,203463,1610612766,1629023,1630163,1628970,1628370,1628997,0022000367,2,783,783,0,0,1610612766
56,1610612745,1630256,1628021,1628425,1630222,203463,1610612766,1629023,1630163,1628970,1628370,1628997,0022000367,2,800,800,0,0,1610612745
57,1610612745,1630256,1628021,1628425,1630222,203463,1610612766,1629023,1630163,1628970,1628370,1628997,0022000367,2,805,805,0,2,1610612766
58,1610612745,1630256,1628021,1628425,1630222,203463,1610612766,1629023,1630163,1628970,1628370,1628997,0022000367,2,816,816,3,0,1610612745
59,1610612745,1630256,1628021,1628425,1630222,203463,1610612766,1629023,1630163,1628970,1628370,1628997,0022000367,2,825,825,0,3,1610612766
60,1610612745,1630256,1628021,1628425,1630222,203463,1610612766,1629023,1630163,1628970,1628370,1628997,0022000367,2,848,848,2,0,1610612745
61,1610612745,1630256,1628021,1628425,1630222,203463,1610612766,1629023,1630163,1628970,1628370,1628997,0022000367,2,861,865,0,0,1610612766
62,1610612745,1630256,1628021,1628425,1630222,203463,1610612766,1629023,1630163,1628970,1628370,1628997,0022000367,2,865,865,0,0,1610612745
63,1610612745,1630256,1628021,1628425,1630222,203463,1610612766,1629023,1630163,1628970,1628370,1628997,0022000367,2,876,880,0,0,1610612766
64,1610612745,1630256,1628021,1628425,1630222,203463,1610612766,1629023,1630163,1628970,1628370,1628997,0022000367,2,885,885,0,0,1610612745
65,1610612745,1630256,1628021,1628425,1630222,203463,1610612766,1629023,1630163,1628970,1628370,1628997,0022000367,2,890,906,0,0,1610612766
66,1610612745,1630256,1628021,1628425,1630222,203463,1610612766,1626179,1628997,1629023,1630163,202330,0022000367,2,927,931,2,0,1610612745
67,1610612745,1630256,1628021,1628425,1630222,203463,1610612766,1626179,1628997,1629023,1630163,202330,0022000367,2,939,941,0,0,1610612766
68,1610612745,1630256,1628021,1628425,1630222,203463,1610612766,1626179,1628997,1629023,1630163,202330,0022000367,2,947,947,3,0,1610612745
69,1610612745,1630256,1628021,1628425,1630222,203463,1610612766,1626179,1628997,1629023,1630163,202330,0022000367,2,962,962,0,3,1610612766
70,1610612745,1630256,1628021,1628425,1630222,203463,1610612766,1626179,1628997,1629023,1630163,202330,0022000367,2,978,978,3,0,1610612745
71,1610612745,1630256,1628021,1628425,1630222,203463,1610612766,1626179,1628997,1629023,1630163,202330,0022000367,2,995,995,0,3,1610612766
72,1610612745,1630256,1628021,1628425,1630222,203463,1610612766,1626179,1628997,1629023,1630163,202330,0022000367,2,1005,1009,0,0,1610612745
73,1610612745,1630256,1628021,1628425,1630222,203463,1610612766,1626179,1628997,1629023,1630163,202330,0022000367,2,1013,1013,0,3,1610612766
74,1610612745,1630256,1628021,1628425,1630222,203463,1610612766,1626179,1628997,1629023,1630163,202330,0022000367,2,1024,1035,3,0,1610612745
75,1610612745,1630256,1628021,1628425,1630222,203463,1610612766,1626179,1628997,1629023,1630163,202330,0022000367,2,1056,1070,0,0,1610612766
76,1610612745,1628021,1628425,1630256,203463,203506,1610612766,1626179,1628370,1628997,202330,203469,0022000367,2,1073,1073,1,0,1610612745
77,1610612745,1627863,1628425,202326,203463,203506,1610612766,1626179,1628370,1628997,202330,203469,0022000367,2,1086,1086,0,2,1610612766
78,1610612745,1627863,1628425,202326,203463,203506,1610612766,1626179,1628370,1628997,202330,203469,0022000367,2,1110,1110,0,0,1610612745
79,1610612745,1627863,1628425,202326,203463,203506,1610612766,1626179,1628370,1628997,202330,203469,0022000367,2,1116,1119,0,0,1610612766
80,1610612745,1627863,1628425,202326,203463,203506,1610612766,1626179,1628370,1628997,202330,203469,0022000367,2,1128,1145,0,0,1610612745
81,1610612745,1627863,1628425,202326,203463,203506,1610612766,1626179,1628370,1628970,202330,203469,0022000367,2,1157,1160,0,0,1610612766
82,1610612745,1627863,1628425,202326,203463,203506,1610612766,1626179,1628370,1628970,202330,203469,0022000367,2,1165,1165,3,0,1610612745
83,1610612745,1627863,1628425,202326,203463,203506,1610612766,1626179,1628370,1628970,202330,203469,0022000367,2,1183,1183,0,0,1610612766
84,1610612745,1627863,1628425,202326,203463,203506,1610612766,1626179,1628370,1628970,202330,203469,0022000367,2,1187,1187,2,0,1610612745
85,1610612745,1627863,1628425,202326,203463,203506,1610612766,1626179,1628370,1628970,202330,203469,0022000367,2,1189,1199,0,2,1610612766
86,1610612745,1627863,1628425,202326,203463,203506,1610612766,1626179,1628970,1630163,202330,203469,0022000367,2,1210,1216,1,0,1610612745
87,1610612745,1627863,1628021,1628425,202326,203506,1610612766,1628970,1628997,1630163,202330,203469,0022000367,2,1222,1222,0,3,1610612766
88,1610612745,1627863,1628021,1628425,202326,203506,1610612766,1628970,1628997,1630163,202330,203469,0022000367,2,1241,1259,2,0,1610612745
89,1610612745,1627863,1628021,1628425,202326,203506,1610612766,1628970,1628997,1630163,202330,203469,0022000367,2,1284,1284,0,3,1610612766
90,1610612745,1627863,1628021,1628425,202326,203506,1610612766,1628970,1628997,1630163,202330,203469,0022000367,2,1297,1300,0,0,1610612745
91,1610612745,1627863,1628021,1628425,202326,203506,1610612766,1628970,1628997,1630163,202330,203469,0022000367,2,1304,1304,0,2,1610612766
92,1610612745,1627863,1628021,1628425,202326,203506,1610612766,1628970,1628997,1630163,202330,203469,0022000367,2,1325,1327,0,0,1610612745
93,1610612745,1627863,1628021,1628425,202326,203506,1610612766,1628970,1628997,1630163,202330,203469,0022000367,2,1334,1339,0,2,1610612766
94,1610612745,1627863,1628021,1628425,202326,203506,1610612766,1628970,1628997,1630163,202330,203469,0022000367,2,1339,1351,2,0,1610612745
95,1610612745,1627863,1628021,1628425,202326,203506,1610612766,1628970,1628997,1630163,202330,203469,0022000367,2,1367,1370,0,0,1610612766
96,1610612745,1627863,1628021,1630256,202326,203506,1610612766,1628970,1628997,1630163,202330,203469,0022000367,2,1394,1394,0,0,1610612745
97,1610612745,1627863,1628021,1630256,202326,203506,1610612766,1628970,1628997,1630163,202330,203469,0022000367,2,1407,1407,0,0,1610612766
98,1610612745,1627863,1628021,1630256,202326,203506,1610612766,1628970,1628997,1630163,202330,203469,0022000367,2,1419,1423,0,0,1610612745
99,1610612745,1627863,1628021,1630256,202326,203506,1610612766,1628970,1628997,1630163,202330,203469,0022000367,2,1436,1436,0,2,1610612766
100,1610612745,1627863,1630256,202326,203463,203506,1610612766,1628970,1628997,1628998,202330,203469,0022000367,2,1438,1438,2,0,1610612745
101,1610612745,1627863,1630256,202326,203463,203506,1610612766,1628970,1628997,1628998,202330,203469,0022000367,2,1440,1440,0,0,1610612745
102,1610612745,1630256,200782,202326,1627863,203506,1610612766,202330,1629023,203469,1626179,1630163,0022000367,3,1440,1452,0,3,1610612766
103,1610612745,1630256,200782,202326,1627863,203506,1610612766,202330,1629023,203469,1626179,1630163,0022000367,3,1466,1466,0,0,1610612745
104,1610612745,1630256,200782,202326,1627863,203506,1610612766,202330,1629023,203469,1626179,1630163,0022000367,3,1472,1495,0,0,1610612766
105,1610612745,1630256,200782,202326,1627863,203506,1610612766,202330,1629023,203469,1626179,1630163,0022000367,3,1497,1497,2,0,1610612745
106,1610612745,1630256,200782,202326,1627863,203506,1610612766,202330,1629023,203469,1626179,1630163,0022000367,3,1508,1510,0,0,1610612766
107,1610612745,1630256,200782,202326,1627863,203506,1610612766,202330,1629023,203469,1626179,1630163,0022000367,3,1519,1523,0,0,1610612745
108,1610612745,1630256,200782,202326,1627863,203506,1610612766,202330,1629023,203469,1626179,1630163,0022000367,3,1529,1529,0,3,1610612766
109,1610612745,1630256,200782,202326,1627863,203506,1610612766,202330,1629023,203469,1626179,1630163,0022000367,3,1553,1553,2,0,1610612745
110,1610612745,1630256,200782,202326,1627863,203506,1610612766,202330,1629023,203469,1626179,1630163,0022000367,3,1562,1564,0,0,1610612766
111,1610612745,1630256,200782,202326,1627863,203506,1610612766,202330,1629023,203469,1626179,1630163,0022000367,3,1577,1577,3,0,1610612745
112,1610612745,1630256,200782,202326,1627863,203506,1610612766,202330,1629023,203469,1626179,1630163,0022000367,3,1598,1600,0,0,1610612766
113,1610612745,1630256,200782,202326,1627863,203506,1610612766,202330,1629023,203469,1626179,1630163,0022000367,3,1606,1609,0,0,1610612745
114,1610612745,1630256,200782,202326,1627863,203506,1610612766,202330,1629023,203469,1626179,1630163,0022000367,3,1612,1612,0,2,1610612766
115,1610612745,1630256,200782,202326,1627863,203506,1610612766,202330,1629023,203469,1626179,1630163,0022000367,3,1628,1635,2,0,1610612745
116,1610612745,1630256,200782,202326,1627863,203506,1610612766,202330,1629023,203469,1626179,1630163,0022000367,3,1653,1656,0,0,1610612766
117,1610612745,1630256,200782,202326,1627863,203506,1610612766,202330,1629023,203469,1626179,1630163,0022000367,3,1658,1662,0,0,1610612745
118,1610612745,1630256,200782,202326,1627863,203506,1610612766,202330,1629023,203469,1626179,1630163,0022000367,3,1665,1665,0,3,1610612766
119,1610612745,1630256,200782,202326,1627863,203506,1610612766,202330,1629023,203469,1626179,1630163,0022000367,3,1684,1687,0,0,1610612745
120,1610612745,1630256,200782,202326,1627863,203506,1610612766,202330,1629023,203469,1626179,1630163,0022000367,3,1693,1693,0,2,1610612766
121,1610612745,1630256,200782,202326,1627863,203506,1610612766,202330,1629023,203469,1626179,1630163,0022000367,3,1693,1716,0,0,1610612745
122,1610612745,1630256,200782,202326,1627863,203506,1610612766,202330,1629023,203469,1626179,1630163,0022000367,3,1734,1734,0,0,1610612766
123,1610612745,1630256,200782,202326,1627863,203506,1610612766,202330,1629023,203469,1626179,1630163,0022000367,3,1734,1755,2,0,1610612745
124,1610612745,1630256,200782,202326,1627863,203506,1610612766,1626179,1628370,1629023,202330,203469,0022000367,3,1770,1772,0,0,1610612766
125,1610612745,1630256,200782,202326,1627863,203506,1610612766,1626179,1628370,1629023,202330,203469,0022000367,3,1781,1785,0,0,1610612745
126,1610612745,1630256,200782,202326,1627863,203506,1610612766,1626179,1628370,1629023,202330,203469,0022000367,3,1788,1788,0,0,1610612766
127,1610612745,1630256,200782,202326,1627863,203506,1610612766,1626179,1628370,1629023,202330,203469,0022000367,3,1799,1799,3,0,1610612745
128,1610612745,1630256,200782,202326,1627863,203506,1610612766,1626179,1628370,1629023,202330,203469,0022000367,3,1823,1826,0,2,1610612766
129,1610612745,1630256,200782,202326,1627863,203506,1610612766,1626179,1628370,1629023,202330,203469,0022000367,3,1850,1850,0,0,1610612745
130,1610612745,1630256,200782,202326,1627863,203506,1610612766,1626179,1628370,1628970,202330,203469,0022000367,3,1869,1876,0,0,1610612766
131,1610612745,1630256,200782,202326,1627863,203506,1610612766,1626179,1628370,1628970,202330,203469,0022000367,3,1894,1898,0,0,1610612745
132,1610612745,1630256,200782,202326,1627863,203506,1610612766,1626179,1628370,1628970,202330,203469,0022000367,3,1901,1901,0,3,1610612766
133,1610612745,1630256,200782,202326,1627863,203506,1610612766,1626179,1628370,1628970,202330,203469,0022000367,3,1902,1924,2,0,1610612745
134,1610612745,1627863,1628021,1628425,200782,203506,1610612766,1628370,1628970,1628997,202330,203469,0022000367,3,1930,1933,0,0,1610612766
135,1610612745,1627863,1628021,1628425,200782,203506,1610612766,1628370,1628970,1628997,202330,203469,0022000367,3,1941,1941,3,0,1610612745
136,1610612745,1627863,1628021,1628425,200782,203506,1610612766,1628370,1628970,1628997,202330,203469,0022000367,3,1967,1983,0,2,1610612766
137,1610612745,1627863,1628021,1628425,200782,203506,1610612766,1628370,1628970,1628997,202330,203469,0022000367,3,2004,2004,2,0,1610612745
138,1610612745,1627863,1628021,1628425,200782,203506,1610612766,1628370,1628970,1628997,202330,203469,0022000367,3,2018,2018,0,3,1610612766
139,1610612745,1627863,1628021,1628425,200782,203506,1610612766,1628370,1628970,1628997,202330,203469,0022000367,3,2038,2038,2,0,1610612745
140,1610612745,1627863,1628021,1628425,200782,203506,1610612766,1628370,1628970,1628997,202330,203469,0022000367,3,2053,2053,0,0,1610612766
141,1610612745,1628021,1628425,1630222,1630256,203463,1610612766,1626179,1628370,1628970,1628997,202687,0022000367,3,2076,2079,0,0,1610612745
142,1610612745,1628021,1628425,1630222,1630256,203463,1610612766,1626179,1628370,1628970,1628997,202687,0022000367,3,2084,2089,0,0,1610612766
143,1610612745,1628021,1628425,1630222,1630256,203463,1610612766,1626179,1628370,1628970,1628997,202687,0022000367,3,2095,2101,2,0,1610612745
144,1610612745,1628021,1628425,1630222,1630256,203463,1610612766,1626179,1628370,1628970,1628997,202687,0022000367,3,2111,2114,0,0,1610612766
145,1610612745,1628021,1628425,1630222,1630256,203463,1610612766,1626179,1628370,1628970,1628997,202687,0022000367,3,2136,2137,2,0,1610612745
146,1610612745,1628021,1628425,1630222,1630256,203463,1610612766,1626179,1628370,1628970,1628997,202687,0022000367,3,2152,2158,0,3,1610612766
147,1610612745,1630256,1628021,1628425,1630222,203463,1610612766,1630163,1628970,1628370,1628997,202687,0022000367,4,2160,2179,0,0,1610612745
148,1610612745,1630256,1628021,1628425,1630222,203463,1610612766,1630163,1628970,1628370,1628997,202687,0022000367,4,2188,2188,0,2,1610612766
149,1610612745,1630256,1628021,1628425,1630222,203463,1610612766,1630163,1628970,1628370,1628997,202687,0022000367,4,2198,2201,0,0,1610612745
150,1610612745,1630256,1628021,1628425,1630222,203463,1610612766,1630163,1628970,1628370,1628997,202687,0022000367,4,2206,2206,0,0,1610612766
151,1610612745,1630256,1628021,1628425,1630222,203463,1610612766,1630163,1628970,1628370,1628997,202687,0022000367,4,2220,2220,0,0,1610612745
152,1610612745,1630256,1628021,1628425,1630222,203463,1610612766,1630163,1628970,1628370,1628997,202687,0022000367,4,2238,2238,0,2,1610612766
153,1610612745,1630256,1628021,1628425,1630222,203463,1610612766,1630163,1628970,1628370,1628997,202687,0022000367,4,2244,2244,0,0,1610612745
154,1610612745,1630256,1628021,1628425,1630222,203463,1610612766,1630163,1628970,1628370,1628997,202687,0022000367,4,2265,2265,0,3,1610612766
155,1610612745,1630256,1628021,1628425,1630222,203463,1610612766,1630163,1628970,1628370,1628997,202687,0022000367,4,2267,2288,0,0,1610612745
156,1610612745,1628021,1628425,1630256,203463,203506,1610612766,1630163,1628970,1628370,1628997,202687,0022000367,4,2301,2301,0,2,1610612766
157,1610612745,1628021,1628425,1630256,203463,203506,1610612766,1630163,1628970,1628370,1628997,202687,0022000367,4,2326,2331,0,0,1610612745
158,1610612745,1628021,1628425,1630256,203463,203506,1610612766,1630163,1628970,1628370,1628997,202687,0022000367,4,2334,2334,0,0,1610612766
159,1610612745,1628021,1628425,1630256,203463,203506,1610612766,1630163,1628970,1628370,1628997,202687,0022000367,4,2341,2351,0,0,1610612745
160,1610612745,1628021,1628425,200782,203463,203506,1610612766,1628370,1628997,1629023,1630163,202687,0022000367,4,2357,2365,0,0,1610612766
161,1610612745,1628021,1628425,200782,203463,203506,1610612766,1628370,1628997,1629023,1630163,202687,0022000367,4,2369,2372,1,0,1610612745
162,1610612745,1628021,1628425,200782,203463,203506,1610612766,1628370,1628997,1629023,1630163,202687,0022000367,4,2388,2394,0,0,1610612766
163,1610612745,1628021,1628425,200782,203463,203506,1610612766,1628370,1628997,1629023,1630163,202687,0022000367,4,2395,2395,0,0,1610612745
164,1610612745,1627863,1628021,1628425,200782,203506,1610612766,1628370,1628997,1629023,1630163,202687,0022000367,4,2408,2411,0,0,1610612766
165,1610612745,1627863,1628021,1628425,200782,203506,1610612766,1628370,1628997,1629023,1630163,202687,0022000367,4,2432,2435,0,0,1610612745
166,1610612745,1627863,1628021,1628425,200782,203506,1610612766,1628370,1628997,1629023,1630163,202687,0022000367,4,2437,2437,0,3,1610612766
167,1610612745,1627863,1628021,1628425,200782,203506,1610612766,1628370,1628997,1629023,1630163,202687,0022000367,4,2442,2468,0,0,1610612745
168,1610612745,1627863,1628021,1628425,200782,203506,1610612766,1628997,1629023,1630163,202330,202687,0022000367,4,2478,2478,0,0,1610612766
169,1610612745,1627863,1628021,1628425,200782,203506,1610612766,1628997,1629023,1630163,202330,202687,0022000367,4,2480,2494,0,0,1610612745
170,1610612745,1627863,1628021,1630256,200782,203506,1610612766,1628997,1629023,1630163,202330,202687,0022000367,4,2495,2517,0,0,1610612766
171,1610612745,1627863,1628021,1630256,200782,203506,1610612766,1626179,1629023,1630163,202330,202687,0022000367,4,2535,2539,0,0,1610612745
172,1610612745,1627863,1628021,1630256,200782,203506,1610612766,1626179,1629023,1630163,202330,202687,0022000367,4,2547,2547,0,3,1610612766
173,1610612745,1627863,1628021,1630256,200782,203506,1610612766,1626179,1629023,1630163,202330,202687,0022000367,4,2562,2567,0,0,1610612745
174,1610612745,1627863,1628021,1630256,200782,203506,1610612766,1626179,1629023,1630163,202330,202687,0022000367,4,2583,2587,0,2,1610612766
175,1610612745,1627863,1628021,1630256,200782,203506,1610612766,1626179,1629023,1630163,202330,202687,0022000367,4,2604,2607,0,0,1610612745
176,1610612745,1627863,1628021,1630256,200782,203506,1610612766,1626179,1629023,1630163,202330,202687,0022000367,4,2609,2609,0,2,1610612766
177,1610612745,1627863,1628021,1630256,200782,203506,1610612766,1626179,1629023,1630163,202330,202687,0022000367,4,2609,2624,3,0,1610612745
178,1610612745,1628021,1629066,1630222,203463,203506,1610612766,1626179,1628970,1630163,202330,202687,0022000367,4,2637,2648,0,2,1610612766
179,1610612745,1628021,1629066,1630222,203463,203506,1610612766,1626179,1628970,1630163,202330,202687,0022000367,4,2662,2665,0,0,1610612745
180,1610612745,1628021,1629066,1630222,203463,203506,1610612766,1626179,1628970,1630163,202330,202687,0022000367,4,2677,2688,0,0,1610612766
181,1610612745,1628021,1628425,1629066,1630222,203463,1610612766,1628370,1628970,1628997,1628998,1630208,0022000367,4,2702,2702,3,0,1610612745
182,1610612745,1628021,1628425,1629066,1630222,203463,1610612766,1628370,1628970,1628997,1628998,1630208,0022000367,4,2720,2720,0,2,1610612766
183,1610612745,1628021,1628425,1629066,1630222,203463,1610612766,1628370,1628970,1628997,1628998,1630208,0022000367,4,2731,2734,0,0,1610612745
184,1610612745,1628021,1628425,1629066,1630222,203463,1610612766,1628370,1628970,1628997,1628998,1630208,0022000367,4,2744,2744,0,0,1610612766
185,1610612745,1628021,1628425,1629066,1630222,203463,1610612766,1628370,1628970,1628997,1628998,1630208,0022000367,4,2746,2746,0,0,1610612745
186,1610612745,1628021,1628425,1629066,1630222,203463,1610612766,1628370,1628970,1628997,1628998,1630208,0022000367,4,2747,2760,0,2,1610612766
187,1610612745,1628021,1628425,1629066,1630222,203463,1610612766,1628370,1628970,1628997,1628998,1630208,0022000367,4,2774,2779,0,0,1610612745
188,1610612745,1628021,1628425,1629066,1630222,203463,1610612766,1628370,1628970,1628997,1628998,1630208,0022000367,4,2788,2788,0,2,1610612766
189,1610612745,1628021,1628425,1629066,1630222,203463,1610612766,1628370,1628970,1628997,1628998,1630208,0022000367,4,2803,2805,0,0,1610612745
190,1610612745,1628021,1628425,1629066,1630222,203463,1610612766,1628370,1628970,1628997,1628998,1630208,0022000367,4,2824,2824,0,2,1610612766
191,1610612745,1628021,1628425,1629066,1630222,203463,1610612766,1628370,1628970,1628997,1628998,1630208,0022000367,4,2830,2836,0,0,1610612745
192,1610612745,1628021,1628425,1629066,1630222,203463,1610612766,1628370,1628970,1628997,1628998,1630208,0022000367,4,2843,2858,0,0,1610612766
193,1610612745,1628021,1628425,1629066,1630222,203463,1610612766,1628370,1628970,1628997,1628998,1630208,0022000367,4,2863,2863,0,0,1610612745
194,1610612745,1628021,1628425,1629066,1630222,203463,1610612766,1628370,1628970,1628997,1628998,1630208,0022000367,4,2863,2863,0,0,1610612745
