,TEAM_ID_1,TEAM_1_PLAYERS,TEAM_ID_2,TEAM_2_PLAYERS,PERIOD
0,1610612741,[1628990  201152 1628436  203897  203107],1610612755,[ 202699  201143  203954 1629003 1627732],1
1,1610612741,[1628990 1628436 1629632 1627853 1627885],1610612755,[ 203954 1627788  203118  203922 1626196],2
2,1610612741,[1628990  201152 1628436  203897  203107],1610612755,[ 202699  201143  203954 1629003 1627732],3
3,1610612741,[1628990 1628436 1629632 1627853 1627885],1610612755,[ 203954 1627788  203118  203922 1626196],4
