,TEAM_ID_1,TEAM_1_PLAYERS,TEAM_ID_2,TEAM_2_PLAYERS,PERIOD
0,1610612752,[ 203493  203944 1629011 1629628  203901],1610612758,[ 203084 1628963 1626158 1627741 1628368],1
1,1610612752,[ 203457  202692 1630193 1628995 1630167],1610612758,[1627741 1630169  202709 1629002  203922],2
2,1610612752,[ 203493  203944 1629011 1629628  203901],1610612758,[ 203084 1628963 1626158 1627741 1628368],3
3,1610612752,[ 203457  202692 1630193 1628995 1630167],1610612758,[1627741 1630169  202709 1629002  203922],4
