,stint_start,t1_points_scored,t2_pm,stint_end,t1_id,t2_points_scored,t1_players,t2_id,t1_pm,t2_players,margin_per_100,num_poss
0,0,12,2,300,1610612760,14,"[1628390, 201568, 203500, 1628983, 101108]",1610612739,-2,"[1626224, 201567, 202684, 1629012, 1629636]",-10.0,20.0
1,301,12,2,333,1610612760,14,"[1628390, 201568, 203500, 1628983, 101108]",1610612739,-2,"[1626224, 201567, 202684, 1629012, 1629636]",-9.090909090909092,22.0
2,334,15,-1,357,1610612760,14,"[1628390, 201568, 203500, 1628983, 101108]",1610612739,1,"[1628035, 1629012, 201567, 202684, 203521]",4.166666666666666,24.0
3,358,19,0,461,1610612760,19,"[101108, 1628390, 1628983, 201568, 203457]",1610612739,0,"[1628035, 1629012, 201567, 202684, 203521]",0.0,31.0
4,462,19,2,504,1610612760,21,"[1628390, 1628983, 201568, 203457, 203471]",1610612739,-2,"[1628035, 1629012, 201567, 202684, 203521]",-6.0606060606060606,33.0
5,505,25,0,612,1610612760,25,"[1628390, 1628983, 201568, 203457, 203471]",1610612739,0,"[1626224, 1628035, 1629636, 202684, 203521]",0.0,42.0
6,613,32,-5,718,1610612760,27,"[1628390, 1628983, 1629647, 203457, 203471]",1610612739,5,"[1626224, 1628035, 1629636, 202684, 203521]",10.416666666666668,48.0
7,719,36,-4,815,1610612760,32,"[101108, 1628977, 1629647, 203457, 203471]",1610612739,4,"[1626224, 1628035, 1629636, 203089, 203957]",7.2727272727272725,55.0
8,816,41,-7,914,1610612760,34,"[101108, 203457, 203471, 1629647, 1628977]",1610612739,7,"[201567, 1629012, 1628035, 203957, 203089]",11.11111111111111,63.0
9,915,46,-9,961,1610612760,37,"[101108, 1628977, 1629647, 203471, 203500]",1610612739,9,"[201567, 1629012, 1628035, 203957, 203089]",13.432835820895523,67.0
10,962,51,-10,1068,1610612760,41,"[101108, 1628977, 1629647, 203471, 203500]",1610612739,10,"[1628035, 1629636, 201567, 203089, 203957]",13.88888888888889,72.0
11,1069,53,-9,1141,1610612760,44,"[1628977, 1628983, 1629647, 203471, 203500]",1610612739,9,"[1626224, 1629636, 201567, 202684, 203957]",11.842105263157894,76.0
12,1142,56,-12,1209,1610612760,44,"[1628977, 1628983, 201568, 203471, 203500]",1610612739,12,"[1626224, 1628035, 1629012, 1629636, 202684]",15.18987341772152,79.0
13,1210,58,-8,1299,1610612760,50,"[1628390, 1628977, 1628983, 201568, 203500]",1610612739,8,"[1626224, 1628035, 1629012, 1629636, 202684]",9.523809523809524,84.0
14,1300,64,-14,1361,1610612760,50,"[1628390, 1628977, 1628983, 201568, 203500]",1610612739,14,"[1626224, 1629012, 1629636, 201567, 202684]",15.730337078651685,89.0
15,1362,64,-13,1429,1610612760,51,"[101108, 1628983, 201568, 203471, 203500]",1610612739,13,"[1626224, 1629012, 1629636, 201567, 202684]",13.978494623655912,93.0
16,1430,64,-11,1439,1610612760,53,"[101108, 1628983, 201568, 203471, 203500]",1610612739,11,"[1626224, 1629012, 201567, 202684, 203957]",11.702127659574469,94.0
17,1440,81,-9,1770,1610612760,72,"[101108, 1628983, 201568, 203471, 203500]",1610612739,9,"[1626224, 1628035, 1629012, 202684, 203957]",7.563025210084033,119.0
18,1771,81,-9,1795,1610612760,72,"[1628390, 201568, 203500, 1628983, 101108]",1610612739,9,"[1626224, 201567, 202684, 1629012, 1629636]",7.5,120.0
19,1796,83,-11,1855,1610612760,72,"[1628390, 201568, 203500, 1628983, 101108]",1610612739,11,"[1628035, 1629012, 201567, 202684, 203521]",8.799999999999999,125.0
20,1856,83,-11,1880,1610612760,72,"[101108, 1628390, 1628983, 201568, 203457]",1610612739,11,"[1628035, 1629012, 201567, 202684, 203521]",8.73015873015873,126.0
21,1881,89,-15,1949,1610612760,74,"[1628390, 1628983, 201568, 203457, 203471]",1610612739,15,"[1628035, 1629012, 201567, 202684, 203521]",11.538461538461538,130.0
22,1950,89,-15,1965,1610612760,74,"[1628390, 1628983, 201568, 203471, 203500]",1610612739,15,"[1628035, 1629012, 201567, 202684, 203521]",11.450381679389313,131.0
23,1966,91,-17,2026,1610612760,74,"[1628390, 1628983, 201568, 203471, 203500]",1610612739,17,"[1626224, 1628035, 1629636, 202684, 203521]",12.686567164179104,134.0
24,2027,91,-17,2048,1610612760,74,"[1628390, 1628983, 1629647, 203471, 203500]",1610612739,17,"[1626224, 1628035, 1629636, 203089, 203957]",12.592592592592592,135.0
25,2049,91,-17,2066,1610612760,74,"[101108, 1628390, 1629647, 203471, 203500]",1610612739,17,"[1626224, 1628035, 1629636, 203089, 203957]",12.5,136.0
26,2067,91,-12,2159,1610612760,79,"[101108, 1628977, 1629647, 203471, 203500]",1610612739,12,"[1626224, 1628035, 1629636, 203089, 203957]",8.275862068965518,145.0
27,2160,96,-11,2282,1610612760,85,"[101108, 1628977, 1629647, 203471, 203488]",1610612739,11,"[1626224, 1628035, 1629636, 203089, 203957]",7.236842105263158,152.0
28,2283,100,-10,2388,1610612760,90,"[101108, 203471, 1629647, 1628977, 203488]",1610612739,10,"[1626224, 1629636, 1628035, 203957, 203089]",6.211180124223603,161.0
29,2389,103,-13,2450,1610612760,90,"[101108, 203471, 1629647, 1628977, 203488]",1610612739,13,"[1626224, 1628035, 1629012, 203089, 203957]",7.878787878787878,165.0
30,2451,107,-14,2575,1610612760,93,"[1628390, 1628983, 1629647, 203471, 203488]",1610612739,14,"[1626224, 1628035, 1629012, 203089, 203957]",8.13953488372093,172.0
31,2576,114,-17,2690,1610612760,97,"[1628390, 1628983, 201568, 203471, 203500]",1610612739,17,"[1626224, 1629012, 1629636, 201567, 202684]",9.392265193370166,181.0
32,2691,115,-17,2728,1610612760,98,"[101108, 1628983, 201568, 203471, 203500]",1610612739,17,"[1626224, 1629012, 1629636, 201567, 202684]",9.239130434782608,184.0
33,2729,116,-16,2775,1610612760,100,"[101108, 1628983, 201568, 203471, 203500]",1610612739,16,"[1627790, 1628035, 1629012, 1629636, 1629731]",8.51063829787234,188.0
34,2776,121,-17,2870,1610612760,104,"[101108, 1628983, 1629647, 203471, 203500]",1610612739,17,"[1627790, 1628035, 1629012, 1629636, 1629731]",8.717948717948717,195.0
35,2871,121,-15,9999999,1610612760,106,"[1627846, 1628977, 1629126, 1629647, 203488]",1610612739,15,"[1627790, 1628035, 1629012, 1629636, 1629731]",7.653061224489796,196.0
