,t1_points_scored,stint_end,t2_pm,t1_players,t2_id,t1_id,t2_players,t2_points_scored,t1_pm,stint_start,margin_per_100,num_poss
0,3,209,3,"[203937, 1628991, 202685, 1628415, 1629630]",1610612755,1610612763,"[202699, 201143, 203954, 1629003, 1627732]",6,-3,0,-20.0,15.0
1,6,284,1,"[203937, 1628991, 202685, 1628415, 1629630]",1610612755,1610612763,"[202699, 201143, 203954, 1629003, 1627732]",7,-1,210,-5.263157894736842,19.0
2,8,355,4,"[1628415, 1629630, 1629634, 202685, 203937]",1610612755,1610612763,"[202699, 201143, 203954, 1629003, 1627732]",12,-4,285,-15.384615384615385,26.0
3,12,409,2,"[1628415, 1629630, 1629634, 202685, 203937]",1610612755,1610612763,"[1627732, 1627788, 201143, 202699, 203954]",14,-2,356,-6.666666666666667,30.0
4,16,496,-1,"[1626145, 1628415, 1629634, 202685, 203937]",1610612755,1610612763,"[1627732, 1627788, 1629680, 201143, 202699]",15,1,410,2.564102564102564,39.0
5,22,655,4,"[1626145, 1628367, 1628415, 1629001, 1629634]",1610612755,1610612763,"[1627732, 1627788, 1629680, 201143, 202699]",26,-4,497,-8.0,50.0
6,25,719,1,"[1626145, 1628367, 1629001, 1629139, 1629634]",1610612755,1610612763,"[1627732, 1627788, 1629680, 203118, 203954]",26,-1,656,-1.7857142857142856,56.0
7,27,843,1,"[1626145, 1628367, 1629001, 1629634, 202685]",1610612755,1610612763,"[1626196, 1627732, 1627788, 203118, 203954]",28,-1,720,-1.5384615384615385,65.0
8,31,968,1,"[1628991, 202685, 1629630, 1629001, 1628367]",1610612755,1610612763,"[202699, 203954, 1629003, 1629680, 1626196]",32,-1,844,-1.3888888888888888,72.0
9,31,990,4,"[1628415, 1628991, 1629630, 202685, 203937]",1610612755,1610612763,"[202699, 203954, 1629003, 1629680, 1626196]",35,-4,969,-5.405405405405405,74.0
10,33,1077,4,"[1628415, 1628991, 1629630, 1629634, 203937]",1610612755,1610612763,"[1626196, 1627732, 1627788, 201143, 202699]",37,-4,991,-5.063291139240507,79.0
11,39,1263,6,"[1628415, 1629139, 1629630, 1629634, 203937]",1610612755,1610612763,"[1627732, 1627788, 1629680, 201143, 202699]",45,-6,1078,-6.741573033707865,89.0
12,42,1399,11,"[1626145, 1629001, 1629139, 1629634, 203937]",1610612755,1610612763,"[1627732, 1627788, 1629680, 201143, 202699]",53,-11,1264,-10.891089108910892,101.0
13,44,1435,14,"[1628367, 1629001, 1629630, 1629634, 202685]",1610612755,1610612763,"[1627732, 1627788, 1629003, 203118, 203954]",58,-14,1400,-13.461538461538462,104.0
14,51,1711,21,"[1628367, 1629001, 1629630, 1629634, 202685]",1610612755,1610612763,"[1627732, 1627788, 1629680, 201143, 203118]",72,-21,1436,-17.073170731707318,123.0
15,53,1755,23,"[203937, 1628991, 202685, 1628415, 1629630]",1610612755,1610612763,"[202699, 201143, 1629003, 1627732, 1629680]",76,-23,1712,-18.11023622047244,127.0
16,53,1825,29,"[203937, 1628991, 202685, 1628415, 1629630]",1610612755,1610612763,"[1627732, 1627788, 1629680, 201143, 202699]",82,-29,1756,-21.96969696969697,132.0
17,59,1967,27,"[1626145, 1628415, 1628991, 1629634, 203937]",1610612755,1610612763,"[1627732, 1627788, 1629680, 201143, 202699]",86,-27,1826,-19.148936170212767,141.0
18,64,2149,33,"[1626145, 1628367, 1628991, 1629001, 1629634]",1610612755,1610612763,"[1627732, 1627788, 1629680, 201143, 202699]",97,-33,1968,-21.428571428571427,154.0
19,66,2158,31,"[1626145, 1628367, 1628991, 1629001, 1629634]",1610612755,1610612763,"[1626196, 1627788, 1629003, 203118, 203658]",97,-31,2150,-20.0,155.0
20,69,2232,28,"[1628367, 1629001, 1629630, 1629634, 202685]",1610612755,1610612763,"[1626196, 1627788, 1629003, 203118, 203658]",97,-28,2159,-17.5,160.0
21,75,2338,22,"[203937, 202685, 1628415, 1629630, 1628367]",1610612755,1610612763,"[1629003, 1629680, 203118, 1626196, 203658]",97,-22,2233,-13.17365269461078,167.0
22,84,2519,18,"[203937, 202685, 1628415, 1629630, 1628367]",1610612755,1610612763,"[1626196, 1629003, 1629680, 201143, 203118]",102,-18,2339,-10.0,180.0
23,88,2615,22,"[203937, 202685, 1628415, 1629630, 1628367]",1610612755,1610612763,"[1627732, 1627788, 1629680, 201143, 202699]",110,-22,2520,-11.702127659574469,188.0
24,94,2710,18,"[203937, 202685, 1628415, 1629630, 1628367]",1610612755,1610612763,"[1626196, 1627732, 1627788, 201143, 202699]",112,-18,2616,-9.278350515463918,194.0
25,107,2865,12,"[1626145, 1629001, 1629139, 1629723, 1629741]",1610612755,1610612763,"[1626196, 1627732, 1627788, 201143, 202699]",119,-12,2711,-5.797101449275362,207.0
26,107,9999999,12,"[1626145, 1629001, 1629139, 1629723, 1629741]",1610612755,1610612763,"[1629015, 1629621, 1629680, 203526, 203658]",119,-12,2866,-5.769230769230769,208.0
