,stint_end,t1_players,t2_pm,t2_points_scored,stint_start,t1_pm,t1_points_scored,t2_id,t1_id,t2_players,margin_per_100,num_poss
0,346,"[1628398, 203076, 203083, 203484, 1627936]",7,18,0,-7,11,1610612746,1610612747,"[202695, 202694, 1627826, 202331, 202704]",-28.000000000000004,25.0
1,549,"[1628398, 203076, 203083, 203484, 1627936]",10,24,347,-10,14,1610612746,1610612747,"[202695, 202694, 1627826, 202331, 202704]",-26.31578947368421,38.0
2,636,"[1627936, 202083, 203076, 203083, 203484]",13,27,550,-13,14,1610612746,1610612747,"[202695, 202694, 1627826, 202331, 202704]",-30.23255813953488,43.0
3,686,"[1626149, 1628398, 202083, 202693, 203484]",11,29,637,-11,18,1610612746,1610612747,"[1627826, 200765, 201587, 201976, 202694]",-23.91304347826087,46.0
4,719,"[1626149, 1628398, 202083, 202693, 203484]",9,29,687,-9,20,1610612746,1610612747,"[1628379, 200765, 201587, 201976, 202326]",-18.75,48.0
5,811,"[1626149, 1628398, 202083, 202693, 203463]",9,33,720,-9,24,1610612746,1610612747,"[1628379, 200765, 201587, 201976, 202326]",-16.666666666666664,54.0
6,867,"[1628398, 202083, 202693, 1626149, 203463]",6,35,812,-6,29,1610612746,1610612747,"[201587, 200765, 201976, 202326, 1628379]",-10.16949152542373,59.0
7,902,"[1626149, 1627936, 1628398, 202693, 203463]",6,35,868,-6,29,1610612746,1610612747,"[201587, 200765, 201976, 202326, 1628379]",-9.67741935483871,62.0
8,960,"[1626149, 1627936, 1628398, 202693, 203463]",10,39,903,-10,29,1610612746,1610612747,"[1628379, 200765, 201587, 202326, 202331]",-15.151515151515152,66.0
9,1001,"[1626149, 1627936, 202693, 203463, 203484]",15,44,961,-15,29,1610612746,1610612747,"[1628379, 200765, 201587, 202326, 202331]",-21.73913043478261,69.0
10,1071,"[1627936, 201188, 202693, 203463, 203484]",20,52,1002,-20,32,1610612746,1610612747,"[1628379, 200765, 201587, 202326, 202331]",-26.666666666666668,75.0
11,1109,"[1627936, 201188, 202693, 203463, 203484]",18,52,1072,-18,34,1610612746,1610612747,"[200765, 201587, 202326, 202331, 202695]",-23.684210526315788,76.0
12,1142,"[1627936, 1628398, 201188, 202083, 203484]",18,52,1110,-18,34,1610612746,1610612747,"[200765, 201587, 202326, 202331, 202695]",-23.376623376623375,77.0
13,1315,"[1627936, 1628398, 201188, 202083, 203484]",24,62,1143,-24,38,1610612746,1610612747,"[201587, 202326, 202331, 202695, 202704]",-26.96629213483146,89.0
14,1381,"[1627936, 1628398, 201188, 202083, 203484]",20,62,1316,-20,42,1610612746,1610612747,"[1627826, 202331, 202694, 202695, 202704]",-21.50537634408602,93.0
15,1437,"[1627936, 1628398, 202083, 203083, 203484]",23,65,1382,-23,42,1610612746,1610612747,"[1627826, 201976, 202694, 202695, 202704]",-23.46938775510204,98.0
16,1788,"[1627936, 1628398, 202083, 203083, 203484]",20,74,1438,-20,54,1610612746,1610612747,"[1627826, 200765, 201976, 202694, 202704]",-16.666666666666664,120.0
17,1912,"[1628398, 203083, 203484, 1627936, 202083]",21,80,1789,-21,59,1610612746,1610612747,"[202695, 202694, 1627826, 202331, 202704]",-16.535433070866144,127.0
18,1976,"[1627936, 202083, 203083, 203463, 203484]",22,82,1913,-22,60,1610612746,1610612747,"[202695, 202694, 1627826, 202331, 202704]",-16.666666666666664,132.0
19,2009,"[1627936, 202083, 203083, 203463, 203484]",24,84,1977,-24,60,1610612746,1610612747,"[1627826, 200765, 201976, 202694, 202695]",-17.77777777777778,135.0
20,2112,"[1628035, 1628398, 202083, 203083, 203463]",20,89,2010,-20,69,1610612746,1610612747,"[1627826, 200765, 201976, 202694, 202695]",-13.88888888888889,144.0
21,2158,"[1628035, 1628398, 202693, 203083, 203463]",21,92,2113,-21,71,1610612746,1610612747,"[1627826, 200765, 201587, 201976, 202694]",-14.285714285714285,147.0
22,2268,"[1626149, 1628035, 1628398, 202693, 203463]",21,94,2159,-21,73,1610612746,1610612747,"[1627826, 1628379, 200765, 201587, 201976]",-13.815789473684212,152.0
23,2341,"[1628398, 202693, 1626149, 203463, 1628035]",18,94,2269,-18,76,1610612746,1610612747,"[201587, 200765, 201976, 202326, 1628379]",-11.538461538461538,156.0
24,2427,"[1628398, 202693, 1626149, 203463, 1628035]",20,98,2342,-20,78,1610612746,1610612747,"[1628379, 200765, 201587, 202326, 202331]",-12.269938650306749,163.0
25,2465,"[1628398, 202693, 1626149, 203463, 1628035]",17,98,2428,-17,81,1610612746,1610612747,"[1628379, 201587, 202326, 202331, 202695]",-10.365853658536585,164.0
26,2634,"[1626149, 1628035, 202083, 202693, 203463]",22,106,2466,-22,84,1610612746,1610612747,"[1628379, 201587, 202326, 202331, 202695]",-12.5,176.0
27,2712,"[1626149, 1628035, 202083, 202693, 203463]",18,108,2635,-18,90,1610612746,1610612747,"[201587, 202326, 202331, 202695, 202704]",-9.89010989010989,182.0
28,2856,"[1626149, 1628035, 1629719, 202693, 203463]",25,118,2713,-25,93,1610612746,1610612747,"[1627812, 1628379, 1629611, 1630187, 201976]",-12.953367875647666,193.0
29,9999999,"[1626149, 1628035, 1628961, 1629719, 203463]",24,118,2857,-24,94,1610612746,1610612747,"[1627812, 1628379, 1629611, 1630187, 201976]",-12.371134020618557,194.0
