,TEAM_ID_1,TEAM_1_PLAYERS,TEAM_ID_2,TEAM_2_PLAYERS,PERIOD
0,1610612749,[ 203114 1626192  201572 1628978  201950],1610612758,[1627741  203084 1626158 1630169 1628368],1
1,1610612749,[ 203114 1628978 1626171  201952 1629670],1610612758,[ 203084  203090 1629056 1626153 1629002],2
2,1610612749,[ 203114 1626192  201572 1628978  201950],1610612758,[1627741  203084 1626158 1630169 1628368],3
3,1610612749,[ 203114 1628978 1626171  201952 1629670],1610612758,[1628368  203090 1629056 1626153 1629002],4
