,stint_start,t1_points_scored,t2_pm,stint_end,t1_id,t2_points_scored,t1_players,t2_id,t1_pm,t2_players,margin_per_100,num_poss
0,0,11,-4,313,1610612749,7,"[203114, 203507, 201572, 202083, 202339]",1610612765,4,"[203503, 201933, 203083, 1629004, 1628971]",18.181818181818183,22.0
1,314,14,-5,391,1610612749,9,"[203114, 203507, 201572, 202083, 202339]",1610612765,5,"[203503, 201933, 203083, 1629004, 1628971]",19.230769230769234,26.0
2,392,14,-2,414,1610612749,12,"[201577, 202083, 202339, 203114, 203507]",1610612765,2,"[1628971, 201933, 203083, 203503, 204038]",7.4074074074074066,27.0
3,415,14,-2,435,1610612749,12,"[1626192, 1628978, 201577, 202339, 203507]",1610612765,2,"[201565, 201933, 203083, 203503, 204038]",6.896551724137931,29.0
4,436,14,-2,465,1610612749,12,"[1626192, 1628978, 201577, 201588, 203507]",1610612765,2,"[201565, 201933, 203083, 203503, 204038]",6.451612903225806,31.0
5,466,14,-2,504,1610612749,12,"[1626192, 1628978, 201577, 201588, 203507]",1610612765,2,"[1629004, 201565, 201933, 203083, 204038]",5.88235294117647,34.0
6,505,16,1,567,1610612749,17,"[101141, 1626192, 1628978, 201577, 201588]",1610612765,-1,"[1629004, 201565, 201933, 203083, 204038]",-2.4390243902439024,41.0
7,568,20,1,657,1610612749,21,"[101141, 1626192, 1628978, 201577, 201588]",1610612765,-1,"[1629004, 201565, 202693, 203083, 204038]",-2.1739130434782608,46.0
8,658,22,2,716,1610612749,24,"[101141, 1626192, 1628978, 201577, 201588]",1610612765,-2,"[1626174, 1629004, 201565, 202693, 204038]",-4.0,50.0
9,717,29,-3,828,1610612749,26,"[101141, 201577, 201588, 203114, 2594]",1610612765,3,"[1626174, 1629004, 201565, 202693, 204038]",5.172413793103448,58.0
10,829,31,-3,915,1610612749,28,"[203114, 203507, 202339, 101141, 2594]",1610612765,3,"[203503, 204038, 201565, 202693, 1626174]",4.761904761904762,63.0
11,916,36,-8,962,1610612749,28,"[1628391, 202339, 203114, 203507, 2594]",1610612765,8,"[203503, 204038, 201565, 202693, 1626174]",12.121212121212121,66.0
12,963,39,-11,1010,1610612749,28,"[1628391, 202339, 203114, 203507, 2594]",1610612765,11,"[1626174, 1628971, 1629004, 202693, 203503]",16.176470588235293,68.0
13,1011,42,-12,1059,1610612749,30,"[1628391, 202339, 203114, 203507, 2594]",1610612765,12,"[1628971, 1629004, 201933, 203083, 203503]",16.901408450704224,71.0
14,1060,44,-9,1107,1610612749,35,"[1628391, 201572, 202083, 202339, 2594]",1610612765,9,"[1628971, 1629004, 201933, 203083, 204038]",11.842105263157894,76.0
15,1108,44,-7,1123,1610612749,37,"[201572, 202083, 202339, 203507, 2594]",1610612765,7,"[1628971, 1629004, 201933, 203083, 204038]",9.090909090909092,77.0
16,1124,46,-9,1200,1610612749,37,"[1628978, 201572, 202083, 202339, 203507]",1610612765,9,"[1628971, 1629004, 201933, 203083, 204038]",10.843373493975903,83.0
17,1201,53,-14,1309,1610612749,39,"[1628978, 201572, 201588, 202083, 203507]",1610612765,14,"[1628971, 1629004, 201565, 201933, 203083]",15.730337078651685,89.0
18,1310,59,-11,1438,1610612749,48,"[101141, 1628978, 201572, 201588, 202083]",1610612765,11,"[1629004, 201565, 201933, 203083, 204038]",11.11111111111111,99.0
19,1439,70,-13,1711,1610612749,57,"[101141, 1628978, 201572, 201588, 203114]",1610612765,13,"[1629004, 201565, 201933, 203083, 204038]",10.569105691056912,123.0
20,1712,70,-9,1797,1610612749,61,"[203114, 203507, 201572, 202083, 202339]",1610612765,9,"[203503, 201933, 203083, 1628971, 204038]",7.03125,128.0
21,1798,72,-8,1845,1610612749,64,"[203114, 203507, 201572, 202083, 202339]",1610612765,8,"[201565, 201933, 203083, 203503, 204038]",6.0606060606060606,132.0
22,1846,80,-10,1927,1610612749,70,"[1626192, 1628978, 201577, 202339, 203507]",1610612765,10,"[1629004, 201565, 201933, 203083, 204038]",7.246376811594203,138.0
23,1928,80,-10,1951,1610612749,70,"[1626192, 1628978, 201577, 201588, 203507]",1610612765,10,"[1629004, 201565, 201933, 203083, 204038]",7.092198581560284,141.0
24,1952,85,-13,2040,1610612749,72,"[1626192, 1628978, 201577, 201588, 203507]",1610612765,13,"[1629004, 201565, 202693, 203083, 204038]",8.843537414965986,147.0
25,2041,88,-16,2092,1610612749,72,"[101141, 1626192, 1628978, 201577, 201588]",1610612765,16,"[1629004, 201565, 202693, 203083, 204038]",10.526315789473683,152.0
26,2093,90,-18,2118,1610612749,72,"[101141, 1626192, 1628978, 201577, 201588]",1610612765,18,"[1626174, 1629004, 201565, 202693, 203503]",11.688311688311687,154.0
27,2119,92,-20,2158,1610612749,72,"[101141, 1628978, 201577, 203114, 2594]",1610612765,20,"[1626174, 1629004, 201565, 202693, 203503]",12.82051282051282,156.0
28,2159,97,-19,2323,1610612749,78,"[101141, 201577, 201588, 203114, 2594]",1610612765,19,"[1626174, 1629004, 201565, 202693, 203503]",11.242603550295858,169.0
29,2324,103,-21,2390,1610612749,82,"[203114, 202339, 101141, 2594, 1628391]",1610612765,21,"[203503, 201933, 204038, 201565, 202693]",12.0,175.0
30,2391,109,-22,2538,1610612749,87,"[1628391, 202339, 203114, 203507, 2594]",1610612765,22,"[203503, 201933, 204038, 201565, 202693]",12.021857923497267,183.0
31,2539,117,-24,2718,1610612749,93,"[1626192, 1628391, 202339, 203507, 2594]",1610612765,24,"[1628971, 201933, 203083, 203503, 204038]",12.307692307692308,195.0
32,2719,127,-24,2877,1610612749,103,"[1626192, 1628391, 1628978, 201577, 2594]",1610612765,24,"[1626174, 1628971, 1629004, 203083, 204038]",11.650485436893204,206.0
33,2878,127,-24,9999999,1610612749,103,"[1626192, 1628391, 1628978, 201577, 2594]",1610612765,24,"[1626174, 1627748, 1629635, 204025, 204038]",11.594202898550725,207.0
