,TEAM_ID_1,TEAM_1_PLAYERS,TEAM_ID_2,TEAM_2_PLAYERS,PERIOD
0,1610612748,[1629130  203482 1629644 1629134  202710],1610612740,[1628404 1627742  203500  202339 1628366],1
1,1610612748,[1629130  201609 1630173 1629639    2738],1610612740,[1628404 1629740 1629638 1629637 1630184],2
2,1610612748,[1629130  203482 1629644 1629134  202710],1610612740,[1628404 1627742  203500  202339 1628366],3
3,1610612748,[1629130  201609 1630173 1629639    2738],1610612740,[1628404 1629740 1629638 1629637 1630184],4
