,team1_id,team1_player1,team1_player2,team1_player3,team1_player4,team1_player5,team2_id,team2_player1,team2_player2,team2_player3,team2_player4,team2_player5,game_id,period,possession_start,possession_end,team1_points,team2_points,possession_team
0,1610612754,1627734,203933,1626167,1628988,203087,1610612752,202694,203944,201959,1629628,1628373,0021900331,1,0,23,2,0,1610612754
1,1610612754,1627734,203933,1626167,1628988,203087,1610612752,202694,203944,201959,1629628,1628373,0021900331,1,37,37,0,2,1610612752
2,1610612754,1627734,203933,1626167,1628988,203087,1610612752,202694,203944,201959,1629628,1628373,0021900331,1,55,55,0,0,1610612754
3,1610612754,1627734,203933,1626167,1628988,203087,1610612752,202694,203944,201959,1629628,1628373,0021900331,1,66,66,0,2,1610612752
4,1610612754,1627734,203933,1626167,1628988,203087,1610612752,202694,203944,201959,1629628,1628373,0021900331,1,92,93,1,0,1610612754
5,1610612754,1627734,203933,1626167,1628988,203087,1610612752,202694,203944,201959,1629628,1628373,0021900331,1,108,108,0,2,1610612752
6,1610612754,1627734,203933,1626167,1628988,203087,1610612752,202694,203944,201959,1629628,1628373,0021900331,1,126,128,0,0,1610612754
7,1610612754,1627734,203933,1626167,1628988,203087,1610612752,202694,203944,201959,1629628,1628373,0021900331,1,135,137,0,0,1610612752
8,1610612754,1627734,203933,1626167,1628988,203087,1610612752,202694,203944,201959,1629628,1628373,0021900331,1,145,145,2,0,1610612754
9,1610612754,1627734,203933,1626167,1628988,203087,1610612752,202694,203944,201959,1629628,1628373,0021900331,1,161,161,0,2,1610612752
10,1610612754,1627734,203933,1626167,1628988,203087,1610612752,202694,203944,201959,1629628,1628373,0021900331,1,175,175,2,0,1610612754
11,1610612754,1627734,203933,1626167,1628988,203087,1610612752,202694,203944,201959,1629628,1628373,0021900331,1,189,189,0,2,1610612752
12,1610612754,1627734,203933,1626167,1628988,203087,1610612752,202694,203944,201959,1629628,1628373,0021900331,1,204,206,0,0,1610612754
13,1610612754,1627734,203933,1626167,1628988,203087,1610612752,202694,203944,201959,1629628,1628373,0021900331,1,223,223,0,2,1610612752
14,1610612754,1627734,203933,1626167,1628988,203087,1610612752,202694,203944,201959,1629628,1628373,0021900331,1,240,242,0,0,1610612754
15,1610612754,1627734,203933,1626167,1628988,203087,1610612752,202694,203944,201959,1629628,1628373,0021900331,1,250,250,0,2,1610612752
16,1610612754,1627734,203933,1626167,1628988,203087,1610612752,202694,203944,201959,1629628,1628373,0021900331,1,260,265,0,0,1610612754
17,1610612754,1627734,203933,1626167,1628988,203087,1610612752,202694,203944,201959,1629628,1628373,0021900331,1,280,280,0,1,1610612752
18,1610612754,1627734,203933,1626167,1628988,203087,1610612752,202694,203944,201959,1629628,1628373,0021900331,1,300,300,2,0,1610612754
19,1610612754,1627734,203933,1626167,1628988,203087,1610612752,202694,203944,201959,1629628,1628373,0021900331,1,306,318,0,0,1610612752
20,1610612754,1627734,203933,1626167,1628988,203087,1610612752,202694,203944,201959,1629628,1628373,0021900331,1,325,325,2,0,1610612754
21,1610612754,1627734,203933,1626167,1628988,203087,1610612752,202694,203944,201959,1629628,1628373,0021900331,1,334,334,0,2,1610612752
22,1610612754,1627734,203933,1626167,1628988,203087,1610612752,202694,203944,201959,1629628,1628373,0021900331,1,344,344,2,0,1610612754
23,1610612754,1627734,203933,1626167,1628988,203087,1610612752,202694,203944,201959,1629628,1628373,0021900331,1,356,358,0,0,1610612752
24,1610612754,1627734,203933,1626167,1628988,203087,1610612752,202694,203944,201959,1629628,1628373,0021900331,1,373,375,0,0,1610612754
25,1610612754,1627734,203933,1626167,1628988,203087,1610612752,202694,203944,201959,1629628,1628373,0021900331,1,388,390,0,0,1610612752
26,1610612754,1627734,203933,1626167,1628988,203087,1610612752,202694,203944,201959,1629628,1628373,0021900331,1,397,399,2,0,1610612754
27,1610612754,1627734,203933,1626167,1628988,203087,1610612752,202694,203944,201959,1629628,1628373,0021900331,1,407,413,0,2,1610612752
28,1610612754,1626167,1628988,203087,203200,203933,1610612752,1628372,1629011,1629628,202694,203944,0021900331,1,428,428,2,0,1610612754
29,1610612754,1626167,1628988,203087,203200,203933,1610612752,1628372,1629011,1629628,202694,203944,0021900331,1,444,444,0,3,1610612752
30,1610612754,1626167,1628988,203087,203200,203933,1610612752,1628372,1629011,1629628,202694,203944,0021900331,1,459,467,2,0,1610612754
31,1610612754,1626167,1628988,203087,203200,203933,1610612752,1628372,1629011,1629628,202694,203944,0021900331,1,483,483,0,0,1610612752
32,1610612754,1626167,1628988,203087,203200,203933,1610612752,1628372,1629011,1629628,202694,203944,0021900331,1,489,489,2,0,1610612754
33,1610612754,1626167,1628988,203087,203200,203933,1610612752,1628372,1629011,1629628,202694,203944,0021900331,1,499,499,0,2,1610612752
34,1610612754,1626167,203087,203200,203933,204456,1610612752,1628372,1628995,1629011,1629628,203944,0021900331,1,511,513,0,0,1610612754
35,1610612754,1626167,203087,203200,203933,204456,1610612752,1628372,1628995,1629011,1629628,203944,0021900331,1,519,521,0,0,1610612752
36,1610612754,1626167,203087,203200,203933,204456,1610612752,1628372,1628995,1629011,1629628,203944,0021900331,1,525,525,2,0,1610612754
37,1610612754,1626167,203087,203200,203933,204456,1610612752,1628372,1628995,1629011,1629628,203944,0021900331,1,539,557,0,0,1610612752
38,1610612754,1626167,203087,203200,203933,204456,1610612752,1626171,1628372,1628995,1629011,1629628,0021900331,1,563,565,0,0,1610612754
39,1610612754,1626167,203087,203200,203933,204456,1610612752,1626171,1628372,1628995,1629011,1629628,0021900331,1,573,575,0,0,1610612752
40,1610612754,1626167,203087,203200,203933,204456,1610612752,1626171,1628372,1628995,1629011,1629628,0021900331,1,588,588,2,0,1610612754
41,1610612754,1626167,203087,203200,203933,204456,1610612752,1626171,1628372,1628995,1629011,1629628,0021900331,1,595,595,0,0,1610612752
42,1610612754,1627734,203200,203926,203933,204456,1610612752,1626171,1628372,1628422,1628995,1629011,0021900331,1,611,611,2,0,1610612754
43,1610612754,1627734,203200,203926,203933,204456,1610612752,1626171,1628372,1628422,1628995,1629011,0021900331,1,622,622,0,0,1610612752
44,1610612754,1627734,203200,203926,203933,204456,1610612752,1626171,1628372,1628422,1628995,1629011,0021900331,1,624,626,2,0,1610612754
45,1610612754,1627734,203200,203926,203933,204456,1610612752,1626171,1628372,1628422,1628995,1629011,0021900331,1,635,643,0,3,1610612752
46,1610612754,1627734,1629048,203200,203926,204456,1610612752,1626171,1628372,1628422,1628995,1629011,0021900331,1,660,660,3,0,1610612754
47,1610612754,1627734,1629048,203200,203926,204456,1610612752,1626171,1628372,1628422,1628995,1629011,0021900331,1,672,679,0,0,1610612752
48,1610612754,1627734,1629048,203200,203926,204456,1610612752,1626171,1628372,1628422,1628995,1629011,0021900331,1,684,686,0,0,1610612754
49,1610612754,1627734,1629048,203200,203926,204456,1610612752,1626171,1628372,1628422,1628995,1629011,0021900331,1,691,693,0,0,1610612752
50,1610612754,1627734,1629048,203200,203926,204456,1610612752,1626171,1628372,1628422,1628995,1629011,0021900331,1,712,714,0,0,1610612754
51,1610612754,1627734,1629048,203200,203926,204456,1610612752,1626171,1628372,1628422,1628995,1629011,0021900331,1,720,720,0,0,1610612754
52,1610612754,1627734,203200,204456,203926,1629048,1610612752,1629011,1628995,1626171,1628422,203901,0021900331,2,720,734,0,2,1610612752
53,1610612754,1627734,203200,204456,203926,1629048,1610612752,1629011,1628995,1626171,1628422,203901,0021900331,2,757,757,0,0,1610612754
54,1610612754,1627734,203200,204456,203926,1629048,1610612752,1629011,1628995,1626171,1628422,203901,0021900331,2,760,760,0,2,1610612752
55,1610612754,1627734,203200,204456,203926,1629048,1610612752,1629011,1628995,1626171,1628422,203901,0021900331,2,775,777,0,0,1610612754
56,1610612754,1627734,203200,204456,203926,1629048,1610612752,1629011,1628995,1626171,1628422,203901,0021900331,2,782,782,0,3,1610612752
57,1610612754,1627734,203200,204456,203926,1629048,1610612752,1629011,1628995,1626171,1628422,203901,0021900331,2,796,796,0,0,1610612754
58,1610612754,1627734,203200,204456,203926,1629048,1610612752,1629011,1628995,1626171,1628422,203901,0021900331,2,802,804,0,0,1610612752
59,1610612754,1627734,203200,204456,203926,1629048,1610612752,1629011,1628995,1626171,1628422,203901,0021900331,2,814,814,2,0,1610612754
60,1610612754,1627734,203200,204456,203926,1629048,1610612752,1629011,1628995,1626171,1628422,203901,0021900331,2,831,836,0,2,1610612752
61,1610612754,1627734,203200,204456,203926,1629048,1610612752,1629011,1628995,1626171,1628422,203901,0021900331,2,852,852,2,0,1610612754
62,1610612754,1627734,203200,204456,203926,1629048,1610612752,1629011,1628995,1626171,1628422,203901,0021900331,2,865,867,0,0,1610612752
63,1610612754,1627734,203200,204456,203926,1629048,1610612752,1629011,1628995,1626171,1628422,203901,0021900331,2,873,873,4,0,1610612754
64,1610612754,1627734,203200,204456,203926,1629048,1610612752,1629011,1628995,1626171,1628422,203901,0021900331,2,894,896,0,0,1610612752
65,1610612754,1627734,203200,204456,203926,1629048,1610612752,1629011,1628995,1626171,1628422,203901,0021900331,2,905,905,0,0,1610612754
66,1610612754,1627734,203200,204456,203926,1629048,1610612752,1629011,1628995,1626171,1628422,203901,0021900331,2,914,914,0,3,1610612752
67,1610612754,1627734,203200,204456,203926,1629048,1610612752,1629011,1628995,1626171,1628422,203901,0021900331,2,930,930,2,0,1610612754
68,1610612754,1627734,203200,204456,203926,1629048,1610612752,1629011,1628995,1626171,1628422,203901,0021900331,2,938,945,0,2,1610612752
69,1610612754,1627734,203200,203926,203933,204456,1610612752,1626171,1628422,1628995,203901,203944,0021900331,2,966,966,2,0,1610612754
70,1610612754,1627734,203200,203926,203933,204456,1610612752,1626171,1628422,1628995,203901,203944,0021900331,2,986,988,0,0,1610612752
71,1610612754,1627734,203200,203926,203933,204456,1610612752,1626171,1628422,1628995,203901,203944,0021900331,2,1000,1002,0,0,1610612754
72,1610612754,1627734,203200,203926,203933,204456,1610612752,1626171,1628422,1628995,203901,203944,0021900331,2,1008,1008,0,2,1610612752
73,1610612754,1627734,203200,203926,203933,204456,1610612752,1626171,1628422,202694,203901,203944,0021900331,2,1021,1023,0,0,1610612754
74,1610612754,1627734,203200,203926,203933,204456,1610612752,1626171,1628422,202694,203901,203944,0021900331,2,1029,1029,0,2,1610612752
75,1610612754,1627734,203200,203926,203933,204456,1610612752,1626171,1628422,202694,203901,203944,0021900331,2,1045,1045,2,0,1610612754
76,1610612754,1627734,203087,203926,203933,204456,1610612752,1626171,1628373,1628422,202694,203944,0021900331,2,1053,1055,0,0,1610612752
77,1610612754,1627734,203087,203926,203933,204456,1610612752,1626171,1628373,1628422,202694,203944,0021900331,2,1063,1063,2,0,1610612754
78,1610612754,1627734,203087,203926,203933,204456,1610612752,1626171,1628373,1628422,202694,203944,0021900331,2,1075,1075,0,2,1610612752
79,1610612754,1627734,203087,203926,203933,204456,1610612752,1626171,1628373,1628422,202694,203944,0021900331,2,1087,1101,0,0,1610612754
80,1610612754,1626167,1628988,203087,203926,203933,1610612752,1626171,1628373,1629628,202694,203944,0021900331,2,1115,1120,0,0,1610612752
81,1610612754,1626167,1628988,203087,203926,203933,1610612752,1626171,1628373,1629628,202694,203944,0021900331,2,1128,1128,0,0,1610612754
82,1610612754,1626167,1628988,203087,203926,203933,1610612752,1626171,1628373,1629628,202694,203944,0021900331,2,1138,1140,0,0,1610612752
83,1610612754,1626167,1628988,203087,203926,203933,1610612752,1626171,1628373,1629628,202694,203944,0021900331,2,1149,1151,0,0,1610612754
84,1610612754,1626167,1628988,203087,203926,203933,1610612752,1626171,1628373,1629628,202694,203944,0021900331,2,1156,1158,0,0,1610612752
85,1610612754,1626167,1628988,203087,203926,203933,1610612752,1628373,1629011,1629628,202694,203944,0021900331,2,1181,1181,3,0,1610612754
86,1610612754,1626167,1628988,203087,203926,203933,1610612752,1628373,1629011,1629628,202694,203944,0021900331,2,1191,1191,0,3,1610612752
87,1610612754,1626167,1628988,203087,203926,203933,1610612752,1628373,1629011,1629628,202694,203944,0021900331,2,1191,1205,0,0,1610612754
88,1610612754,1626167,1628988,203087,203926,203933,1610612752,1628373,1629011,1629628,202694,203944,0021900331,2,1213,1213,0,2,1610612752
89,1610612754,1626167,1628988,203087,203926,203933,1610612752,1628373,1629011,1629628,202694,203944,0021900331,2,1227,1241,3,0,1610612754
90,1610612754,1626167,1627734,1628988,203087,203933,1610612752,1628373,1629011,1629628,202694,203944,0021900331,2,1257,1257,0,2,1610612752
91,1610612754,1626167,1627734,1628988,203087,203933,1610612752,1628373,1629011,1629628,202694,203944,0021900331,2,1277,1277,2,0,1610612754
92,1610612754,1626167,1627734,1628988,203087,203933,1610612752,1628373,1629011,1629628,202694,203944,0021900331,2,1296,1300,0,2,1610612752
93,1610612754,1626167,1627734,1628988,203087,203933,1610612752,1628373,1629011,1629628,202694,203944,0021900331,2,1320,1320,2,0,1610612754
94,1610612754,1626167,1627734,1628988,203087,203933,1610612752,1628373,1629011,1629628,202694,203944,0021900331,2,1331,1331,0,0,1610612752
95,1610612754,1626167,1627734,1628988,203087,203933,1610612752,1628373,1629011,1629628,202694,203944,0021900331,2,1341,1341,3,0,1610612754
96,1610612754,1626167,1627734,1628988,203087,203933,1610612752,1628373,1629011,1629628,202694,203944,0021900331,2,1359,1359,0,2,1610612752
97,1610612754,1626167,1628988,203087,203200,203933,1610612752,1628373,1629011,1629628,202694,203944,0021900331,2,1370,1372,0,0,1610612754
98,1610612754,1626167,1628988,203087,203200,203933,1610612752,1628373,1629011,1629628,202694,203944,0021900331,2,1387,1389,0,0,1610612752
99,1610612754,1626167,1628988,203087,203200,203933,1610612752,1628373,1629011,1629628,202694,203944,0021900331,2,1396,1396,2,0,1610612754
100,1610612754,1626167,1628988,203087,203200,203933,1610612752,1628373,1629011,1629628,202694,203944,0021900331,2,1404,1404,0,0,1610612752
101,1610612754,1626167,1628988,203087,203200,203933,1610612752,1626171,1628373,1629011,1629628,202694,0021900331,2,1411,1411,3,0,1610612754
102,1610612754,1626167,1628988,203087,203200,203933,1610612752,1626171,1628373,1629011,1629628,202694,0021900331,2,1433,1433,0,2,1610612752
103,1610612754,1626167,1628988,203087,203200,203933,1610612752,1626171,1628373,1629011,1629628,202694,0021900331,2,1439,1439,0,0,1610612752
104,1610612754,1627734,203933,1626167,1628988,203087,1610612752,202694,203944,201959,1629628,1628373,0021900331,3,1440,1451,0,2,1610612752
105,1610612754,1627734,203933,1626167,1628988,203087,1610612752,202694,203944,201959,1629628,1628373,0021900331,3,1464,1466,0,0,1610612754
106,1610612754,1627734,203933,1626167,1628988,203087,1610612752,202694,203944,201959,1629628,1628373,0021900331,3,1481,1482,0,0,1610612752
107,1610612754,1627734,203933,1626167,1628988,203087,1610612752,202694,203944,201959,1629628,1628373,0021900331,3,1493,1495,0,0,1610612754
108,1610612754,1627734,203933,1626167,1628988,203087,1610612752,202694,203944,201959,1629628,1628373,0021900331,3,1509,1509,0,2,1610612752
109,1610612754,1627734,203933,1626167,1628988,203087,1610612752,202694,203944,201959,1629628,1628373,0021900331,3,1529,1529,3,0,1610612754
110,1610612754,1627734,203933,1626167,1628988,203087,1610612752,202694,203944,201959,1629628,1628373,0021900331,3,1544,1544,0,2,1610612752
111,1610612754,1627734,203933,1626167,1628988,203087,1610612752,202694,203944,201959,1629628,1628373,0021900331,3,1562,1564,0,0,1610612754
112,1610612754,1627734,203933,1626167,1628988,203087,1610612752,202694,203944,201959,1629628,1628373,0021900331,3,1567,1567,0,0,1610612752
113,1610612754,1627734,203933,1626167,1628988,203087,1610612752,202694,203944,201959,1629628,1628373,0021900331,3,1568,1568,2,0,1610612754
114,1610612754,1627734,203933,1626167,1628988,203087,1610612752,202694,203944,201959,1629628,1628373,0021900331,3,1579,1581,0,0,1610612752
115,1610612754,1627734,203933,1626167,1628988,203087,1610612752,202694,203944,201959,1629628,1628373,0021900331,3,1593,1593,3,0,1610612754
116,1610612754,1627734,203933,1626167,1628988,203087,1610612752,202694,203944,201959,1629628,1628373,0021900331,3,1609,1609,0,3,1610612752
117,1610612754,1627734,203933,1626167,1628988,203087,1610612752,202694,203944,201959,1629628,1628373,0021900331,3,1626,1626,0,0,1610612754
118,1610612754,1627734,203933,1626167,1628988,203087,1610612752,202694,203944,201959,1629628,1628373,0021900331,3,1632,1647,0,0,1610612752
119,1610612754,1627734,203933,1626167,1628988,203087,1610612752,202694,203944,201959,1629628,1628373,0021900331,3,1658,1664,0,0,1610612754
120,1610612754,1627734,203933,1626167,1628988,203087,1610612752,202694,203944,201959,1629628,1628373,0021900331,3,1670,1672,0,0,1610612752
121,1610612754,1627734,203933,1626167,1628988,203087,1610612752,202694,203944,201959,1629628,1628373,0021900331,3,1678,1680,0,0,1610612754
122,1610612754,1627734,203933,1626167,1628988,203087,1610612752,202694,203944,201959,1629628,1628373,0021900331,3,1695,1695,0,0,1610612752
123,1610612754,1627734,203933,1626167,1628988,203087,1610612752,202694,203944,201959,1629628,1628373,0021900331,3,1706,1707,0,0,1610612754
124,1610612754,1627734,203933,1626167,1628988,203087,1610612752,202694,203944,201959,1629628,1628373,0021900331,3,1719,1721,0,0,1610612752
125,1610612754,1627734,203933,1626167,1628988,203087,1610612752,202694,203944,201959,1629628,1628373,0021900331,3,1743,1744,0,0,1610612754
126,1610612754,1627734,203933,1626167,1628988,203087,1610612752,202694,203944,201959,1629628,1628373,0021900331,3,1757,1757,0,2,1610612752
127,1610612754,1627734,203933,1626167,1628988,203087,1610612752,202694,203944,201959,1629628,1628373,0021900331,3,1772,1772,2,0,1610612754
128,1610612754,1627734,203933,1626167,1628988,203087,1610612752,202694,203944,201959,1629628,1628373,0021900331,3,1774,1792,0,3,1610612752
129,1610612754,1627734,203933,1626167,1628988,203087,1610612752,1628372,1629011,1629628,202694,203944,0021900331,3,1813,1815,0,0,1610612754
130,1610612754,1627734,203933,1626167,1628988,203087,1610612752,1628372,1629011,1629628,202694,203944,0021900331,3,1819,1821,0,0,1610612752
131,1610612754,1627734,203933,1626167,1628988,203087,1610612752,1628372,1629011,1629628,202694,203944,0021900331,3,1836,1836,0,0,1610612754
132,1610612754,1626167,1628988,203087,203200,203933,1610612752,1628372,1628995,1629011,1629628,202694,0021900331,3,1857,1859,0,0,1610612752
133,1610612754,1626167,1628988,203087,203200,203933,1610612752,1628372,1628995,1629011,1629628,202694,0021900331,3,1872,1874,0,0,1610612754
134,1610612754,1626167,1628988,203087,203200,203933,1610612752,1628372,1628995,1629011,1629628,202694,0021900331,3,1881,1881,0,3,1610612752
135,1610612754,1626167,1628988,203087,203200,203933,1610612752,1628372,1628995,1629011,1629628,202694,0021900331,3,1906,1908,0,0,1610612754
136,1610612754,1626167,1628988,203087,203200,203933,1610612752,1628372,1628995,1629011,1629628,202694,0021900331,3,1921,1923,0,1,1610612752
137,1610612754,1626167,203087,203200,203933,204456,1610612752,1628372,1628995,1629011,1629628,202694,0021900331,3,1937,1939,0,0,1610612754
138,1610612754,1626167,203087,203200,203933,204456,1610612752,1628372,1628995,1629011,1629628,202694,0021900331,3,1953,1953,0,0,1610612752
139,1610612754,1626167,203087,203200,203933,204456,1610612752,1626171,1628372,1628422,1628995,1629011,0021900331,3,1959,1973,3,0,1610612754
140,1610612754,1626167,203087,203200,203933,204456,1610612752,1626171,1628372,1628422,1628995,1629011,0021900331,3,1982,1984,0,0,1610612752
141,1610612754,1626167,203087,203200,203933,204456,1610612752,1626171,1628372,1628422,1628995,1629011,0021900331,3,1995,1995,0,0,1610612754
142,1610612754,1626167,203087,203200,203933,204456,1610612752,1626171,1628372,1628422,1628995,1629011,0021900331,3,2000,2002,0,0,1610612752
143,1610612754,1626167,203087,203200,203933,204456,1610612752,1626171,1628372,1628422,1628995,1629011,0021900331,3,2008,2016,3,0,1610612754
144,1610612754,1627734,203200,203926,203933,204456,1610612752,1626171,1628372,1628422,1628995,1629011,0021900331,3,2034,2046,0,0,1610612752
145,1610612754,1627734,203200,203926,203933,204456,1610612752,1626171,1628372,1628422,1628995,1629011,0021900331,3,2067,2067,2,0,1610612754
146,1610612754,1627734,203200,203926,203933,204456,1610612752,1626171,1628372,1628422,1628995,1629011,0021900331,3,2076,2076,0,3,1610612752
147,1610612754,1627734,203200,203926,203933,204456,1610612752,1626171,1628372,1628422,1628995,1629011,0021900331,3,2091,2091,3,0,1610612754
148,1610612754,1627734,203200,203926,203933,204456,1610612752,1626171,1628372,1628422,1628995,1629011,0021900331,3,2104,2104,0,0,1610612752
149,1610612754,1627734,203200,203926,203933,204456,1610612752,1626171,1628372,1628422,1628995,1629011,0021900331,3,2109,2109,2,0,1610612754
150,1610612754,1627734,203200,203926,203933,204456,1610612752,1626171,1628372,1628422,1628995,1629011,0021900331,3,2110,2125,0,0,1610612752
151,1610612754,1627734,203200,203926,203933,204456,1610612752,1626171,1628372,1628422,1628995,1629011,0021900331,3,2145,2147,0,0,1610612754
152,1610612754,1627734,203200,203926,203933,204456,1610612752,1626171,1628372,1628422,1628995,1629011,0021900331,3,2160,2160,0,0,1610612754
153,1610612754,1627734,203200,204456,203926,1629048,1610612752,203944,1629628,1626171,1628422,203901,0021900331,4,2160,2176,3,0,1610612754
154,1610612754,1627734,203200,204456,203926,1629048,1610612752,203944,1629628,1626171,1628422,203901,0021900331,4,2192,2194,0,0,1610612752
155,1610612754,1627734,203200,204456,203926,1629048,1610612752,203944,1629628,1626171,1628422,203901,0021900331,4,2209,2209,0,0,1610612754
156,1610612754,1627734,203200,204456,203926,1629048,1610612752,203944,1629628,1626171,1628422,203901,0021900331,4,2211,2211,0,1,1610612752
157,1610612754,1627734,203200,204456,203926,1629048,1610612752,203944,1629628,1626171,1628422,203901,0021900331,4,2225,2225,0,0,1610612754
158,1610612754,1627734,203200,204456,203926,1629048,1610612752,203944,1629628,1626171,1628422,203901,0021900331,4,2239,2239,0,3,1610612752
159,1610612754,1627734,203200,204456,203926,1629048,1610612752,203944,1629628,1626171,1628422,203901,0021900331,4,2249,2249,0,0,1610612754
160,1610612754,1627734,203200,204456,203926,1629048,1610612752,203944,1629628,1626171,1628422,203901,0021900331,4,2262,2262,0,0,1610612752
161,1610612754,1627734,203200,204456,203926,1629048,1610612752,203944,1629628,1626171,1628422,203901,0021900331,4,2275,2277,0,0,1610612754
162,1610612754,1627734,203200,204456,203926,1629048,1610612752,203944,1629628,1626171,1628422,203901,0021900331,4,2282,2292,0,0,1610612752
163,1610612754,1627734,203200,204456,203926,1629048,1610612752,203944,1629628,1626171,1628422,203901,0021900331,4,2306,2308,0,0,1610612754
164,1610612754,1627734,203200,204456,203926,1629048,1610612752,203944,1629628,1626171,1628422,203901,0021900331,4,2311,2313,0,0,1610612752
165,1610612754,1627734,203200,204456,203926,1629048,1610612752,203944,1629628,1626171,1628422,203901,0021900331,4,2327,2329,2,0,1610612754
166,1610612754,1627734,203200,204456,203926,1629048,1610612752,1626171,1629628,202694,203901,203944,0021900331,4,2349,2349,0,3,1610612752
167,1610612754,1627734,203200,204456,203926,1629048,1610612752,1626171,1629628,202694,203901,203944,0021900331,4,2366,2367,0,0,1610612754
168,1610612754,1627734,203200,204456,203926,1629048,1610612752,1626171,1629628,202694,203901,203944,0021900331,4,2378,2378,0,2,1610612752
169,1610612754,1627734,203200,204456,203926,1629048,1610612752,1626171,1629628,202694,203901,203944,0021900331,4,2378,2383,0,0,1610612754
170,1610612754,1627734,203087,203926,203933,204456,1610612752,1629628,201959,202694,203901,203944,0021900331,4,2385,2385,0,2,1610612752
171,1610612754,1627734,203087,203926,203933,204456,1610612752,1629628,201959,202694,203901,203944,0021900331,4,2400,2400,2,0,1610612754
172,1610612754,1627734,203087,203926,203933,204456,1610612752,1629628,201959,202694,203901,203944,0021900331,4,2413,2432,0,3,1610612752
173,1610612754,1627734,203087,203926,203933,204456,1610612752,1629628,201959,202694,203901,203944,0021900331,4,2449,2449,2,0,1610612754
174,1610612754,1627734,203087,203926,203933,204456,1610612752,1629628,201959,202694,203901,203944,0021900331,4,2467,2472,0,2,1610612752
175,1610612754,1627734,203087,203926,203933,204456,1610612752,1629628,201959,202694,203901,203944,0021900331,4,2489,2494,0,0,1610612754
176,1610612754,1627734,203087,203926,203933,204456,1610612752,1629628,201959,202694,203901,203944,0021900331,4,2507,2507,0,1,1610612752
177,1610612754,1626167,1627734,1628988,203087,203926,1610612752,1629628,201959,202694,203901,203944,0021900331,4,2520,2520,3,0,1610612754
178,1610612754,1626167,1627734,1628988,203087,203926,1610612752,1629628,201959,202694,203901,203944,0021900331,4,2539,2541,0,0,1610612752
179,1610612754,1626167,1627734,1628988,203087,203926,1610612752,1629628,201959,202694,203901,203944,0021900331,4,2563,2563,3,0,1610612754
180,1610612754,1626167,1627734,1628988,203087,203933,1610612752,1629011,1629628,202694,203901,203944,0021900331,4,2575,2575,0,2,1610612752
181,1610612754,1626167,1627734,1628988,203087,203933,1610612752,1629011,1629628,202694,203901,203944,0021900331,4,2600,2601,0,0,1610612754
182,1610612754,1626167,1627734,1628988,203087,203933,1610612752,1629011,1629628,202694,203901,203944,0021900331,4,2617,2618,0,0,1610612752
183,1610612754,1626167,1627734,1628988,203087,203933,1610612752,1629011,1629628,202694,203901,203944,0021900331,4,2618,2643,0,0,1610612754
184,1610612754,1626167,1627734,1628988,203087,203933,1610612752,1629011,1629628,202694,203901,203944,0021900331,4,2664,2692,0,0,1610612752
185,1610612754,1626167,1627734,1628988,203087,203933,1610612752,1629011,1629628,202694,203901,203944,0021900331,4,2709,2711,0,0,1610612754
186,1610612754,1626167,1627734,1628988,203087,203933,1610612752,1629011,1629628,202694,203901,203944,0021900331,4,2725,2727,0,0,1610612752
187,1610612754,1626167,1627734,1628988,203087,203933,1610612752,1629011,1629628,202694,203901,203944,0021900331,4,2741,2747,0,0,1610612754
188,1610612754,1626167,1627734,1628988,203087,203933,1610612752,1629011,1629628,202694,203901,203944,0021900331,4,2752,2754,0,0,1610612752
189,1610612754,1626167,1627734,1628988,203087,203933,1610612752,1629011,1629628,202694,203901,203944,0021900331,4,2758,2758,0,0,1610612754
190,1610612754,1626167,1627734,1628988,203087,203933,1610612752,1629011,1629628,202694,203901,203944,0021900331,4,2765,2781,0,2,1610612752
191,1610612754,1626167,1627734,1628988,203087,203933,1610612752,1629011,1629628,202694,203901,203944,0021900331,4,2793,2795,0,0,1610612754
192,1610612754,1626167,1627734,1628988,203087,203933,1610612752,1629011,1629628,202694,203901,203944,0021900331,4,2808,2815,0,0,1610612752
193,1610612754,1626167,1627734,1628988,203087,203933,1610612752,1629011,1629628,202694,203901,203944,0021900331,4,2828,2837,0,0,1610612754
194,1610612754,1626167,1627734,1628988,203087,203933,1610612752,1629011,1629628,202694,203901,203944,0021900331,4,2848,2850,0,0,1610612752
195,1610612754,1626167,1627734,1628988,203087,203933,1610612752,1629011,1629628,202694,203901,203944,0021900331,4,2856,2875,0,0,1610612754
196,1610612754,1626167,1627734,1628988,203087,203933,1610612752,1629011,1629628,202694,203901,203944,0021900331,4,2878,2880,0,1,1610612752
