,t1_pm,t2_pm,stint_start,t2_points_scored,t2_players,t2_id,t1_id,t1_players,stint_end,t1_points_scored,margin_per_100,num_poss
0,9,-9,0,7,"[1629067, 1629021, 1628418, 203078, 203526]",1610612764,1610612765,"[203924, 201933, 203486, 1626153, 1630165]",337,16,36.0,25.0
1,8,-8,338,14,"[1629067, 1629021, 1628418, 203078, 203526]",1610612764,1610612765,"[203924, 201933, 203486, 1626153, 1630165]",455,22,25.0,32.0
2,12,-12,456,17,"[1629067, 1629021, 1628418, 203078, 203526]",1610612764,1610612765,"[1626153, 1628367, 1630165, 201933, 203486]",548,29,31.57894736842105,38.0
3,10,-10,549,23,"[1628418, 1628972, 1629021, 1630166, 203526]",1610612764,1610612765,"[1628367, 1629004, 1629635, 201565, 203486]",719,33,19.607843137254903,51.0
4,15,-15,720,23,"[1628972, 1629010, 1630166, 201577, 202397]",1610612764,1610612765,"[1626143, 1628367, 1629004, 1629635, 201565]",854,38,24.193548387096776,62.0
5,15,-15,855,27,"[1630166, 1628972, 201577, 202397, 1629010]",1610612764,1610612765,"[1628367, 1629004, 201565, 1629635, 1626143]",931,42,21.73913043478261,69.0
6,19,-19,932,27,"[1629010, 1629067, 1630166, 201577, 202397]",1610612764,1610612765,"[1628367, 1629004, 201565, 1629635, 1626143]",960,46,26.38888888888889,72.0
7,21,-21,961,27,"[1628418, 1629010, 1629067, 1630166, 202397]",1610612764,1610612765,"[1628367, 1629004, 201565, 1629635, 1626143]",1023,48,27.631578947368425,76.0
8,21,-21,1024,30,"[1628418, 1629067, 1630166, 203078, 203526]",1610612764,1610612765,"[1628367, 1629004, 201565, 1629635, 1626143]",1167,51,25.0,84.0
9,21,-21,1168,30,"[1628418, 1629067, 1630166, 203078, 203526]",1610612764,1610612765,"[1626143, 1628367, 1630180, 201565, 201933]",1249,51,23.595505617977526,89.0
10,23,-23,1250,35,"[1628418, 1629067, 1630166, 203078, 203526]",1610612764,1610612765,"[1630165, 1630180, 201933, 203486, 203924]",1436,58,22.115384615384613,104.0
11,19,-19,1437,45,"[1628418, 1629021, 1629067, 203078, 203526]",1610612764,1610612765,"[1630165, 1630180, 201933, 203486, 203924]",1739,64,15.702479338842975,121.0
12,20,-20,1740,47,"[1629067, 1629021, 1628418, 203526, 1629010]",1610612764,1610612765,"[203924, 201933, 203486, 1626153, 1630165]",1843,67,15.384615384615385,130.0
13,18,-18,1844,49,"[1628418, 1629010, 1629021, 1630166, 203526]",1610612764,1610612765,"[203924, 201933, 203486, 1626153, 1630165]",1905,67,13.533834586466165,133.0
14,18,-18,1906,49,"[1628418, 1629010, 1629021, 1630166, 202397]",1610612764,1610612765,"[1626143, 1626153, 201565, 201933, 203924]",1944,67,13.23529411764706,136.0
15,21,-21,1945,57,"[1628418, 1628972, 1629021, 1630166, 202397]",1610612764,1610612765,"[1626143, 1626153, 201565, 201933, 203924]",2093,78,14.482758620689657,145.0
16,18,-18,2094,60,"[1628418, 1628972, 1629067, 1630166, 202397]",1610612764,1610612765,"[1626143, 1626153, 201565, 201933, 203924]",2159,78,12.080536912751679,149.0
17,25,-25,2160,64,"[1628972, 1629067, 1630166, 201577, 202397]",1610612764,1610612765,"[1626143, 1628367, 1629635, 201565, 203924]",2448,89,14.534883720930234,172.0
18,23,-23,2449,72,"[1629067, 1630166, 1628972, 201577, 202397]",1610612764,1610612765,"[1628367, 201565, 1629635, 1626143, 1629058]",2580,95,12.637362637362637,182.0
19,21,-21,2581,76,"[1628972, 1629067, 1630166, 1630216, 201577]",1610612764,1610612765,"[1628367, 201565, 1629635, 1626143, 1629058]",2710,97,10.9375,192.0
20,12,-12,2711,85,"[1628972, 1629021, 1630166, 1630216, 1630264]",1610612764,1610612765,"[1628367, 1629058, 1630180, 1630191, 1630240]",2860,97,5.9405940594059405,202.0
21,11,-11,2861,86,"[1628972, 1629021, 1630166, 1630216, 1630264]",1610612764,1610612765,"[1629058, 1630180, 1630191, 1630240, 203585]",9999999,97,5.41871921182266,203.0
