,team1_id,team1_player1,team1_player2,team1_player3,team1_player4,team1_player5,team2_id,team2_player1,team2_player2,team2_player3,team2_player4,team2_player5,game_id,period,possession_start,possession_end,team1_points,team2_points,possession_team
0,1610612738,202330,1628369,1628464,1627759,203935,1610612741,1627739,1628374,1628976,203897,203107,0021900529,1,0,22,0,0,1610612741
1,1610612738,202330,1628369,1628464,1627759,203935,1610612741,1627739,1628374,1628976,203897,203107,0021900529,1,28,28,0,0,1610612738
2,1610612738,202330,1628369,1628464,1627759,203935,1610612741,1627739,1628374,1628976,203897,203107,0021900529,1,34,34,0,3,1610612741
3,1610612738,202330,1628369,1628464,1627759,203935,1610612741,1627739,1628374,1628976,203897,203107,0021900529,1,54,69,0,0,1610612738
4,1610612738,202330,1628369,1628464,1627759,203935,1610612741,1627739,1628374,1628976,203897,203107,0021900529,1,76,78,0,0,1610612741
5,1610612738,202330,1628369,1628464,1627759,203935,1610612741,1627739,1628374,1628976,203897,203107,0021900529,1,86,89,0,0,1610612738
6,1610612738,202330,1628369,1628464,1627759,203935,1610612741,1627739,1628374,1628976,203897,203107,0021900529,1,94,94,0,2,1610612741
7,1610612738,202330,1628369,1628464,1627759,203935,1610612741,1627739,1628374,1628976,203897,203107,0021900529,1,119,119,0,0,1610612738
8,1610612738,202330,1628369,1628464,1627759,203935,1610612741,1627739,1628374,1628976,203897,203107,0021900529,1,131,134,0,0,1610612741
9,1610612738,202330,1628369,1628464,1627759,203935,1610612741,1627739,1628374,1628976,203897,203107,0021900529,1,140,142,0,0,1610612738
10,1610612738,202330,1628369,1628464,1627759,203935,1610612741,1627739,1628374,1628976,203897,203107,0021900529,1,151,151,0,0,1610612741
11,1610612738,202330,1628369,1628464,1627759,203935,1610612741,1627739,1628374,1628976,203897,203107,0021900529,1,151,161,2,0,1610612738
12,1610612738,202330,1628369,1628464,1627759,203935,1610612741,1627739,1628374,1628976,203897,203107,0021900529,1,175,175,0,3,1610612741
13,1610612738,202330,1628369,1628464,1627759,203935,1610612741,1627739,1628374,1628976,203897,203107,0021900529,1,188,188,0,0,1610612738
14,1610612738,202330,1628369,1628464,1627759,203935,1610612741,1627739,1628374,1628976,203897,203107,0021900529,1,189,189,0,2,1610612741
15,1610612738,202330,1628369,1628464,1627759,203935,1610612741,1627739,1628374,1628976,203897,203107,0021900529,1,204,204,0,0,1610612738
16,1610612738,202330,1628369,1628464,1627759,203935,1610612741,1627739,1628374,1628976,203897,203107,0021900529,1,227,234,0,0,1610612741
17,1610612738,202330,1628369,1628464,1627759,203935,1610612741,1627739,1628374,1628976,203897,203107,0021900529,1,239,239,2,0,1610612738
18,1610612738,202330,1628369,1628464,1627759,203935,1610612741,1627739,1628374,1628976,203897,203107,0021900529,1,255,255,0,3,1610612741
19,1610612738,202330,1628369,1628464,1627759,203935,1610612741,1627739,1628374,1628976,203897,203107,0021900529,1,283,283,2,0,1610612738
20,1610612738,202330,1628369,1628464,1627759,203935,1610612741,1627739,1628374,1628976,203897,203107,0021900529,1,308,308,0,2,1610612741
21,1610612738,202330,1628369,1628464,1627759,203935,1610612741,1627739,1628374,1628976,203897,203107,0021900529,1,329,331,0,0,1610612738
22,1610612738,202330,1628369,1628464,1627759,203935,1610612741,1627739,1628374,1628976,203897,203107,0021900529,1,341,341,0,3,1610612741
23,1610612738,202330,1628369,1628464,1627759,203935,1610612741,1627739,1628374,1628976,203897,203107,0021900529,1,360,360,2,0,1610612738
24,1610612738,202330,1628369,1628464,1627759,203935,1610612741,1627739,1628374,1628976,203897,203107,0021900529,1,375,375,0,0,1610612741
25,1610612738,202330,1628369,1628464,1627759,203935,1610612741,1627739,1628374,1628976,203897,203107,0021900529,1,382,382,3,0,1610612738
26,1610612738,202330,1628369,1628464,1627759,203935,1610612741,1627739,1628374,1628976,203897,203107,0021900529,1,384,406,0,3,1610612741
27,1610612738,1627759,1628369,202330,202683,202954,1610612741,1628374,1628976,1629632,201152,203897,0021900529,1,423,423,0,0,1610612738
28,1610612738,1627759,1628369,202330,202683,202954,1610612741,1628374,1628976,1629632,201152,203897,0021900529,1,427,429,0,0,1610612741
29,1610612738,1627759,1628369,202330,202683,202954,1610612741,1628374,1628976,1629632,201152,203897,0021900529,1,433,433,2,0,1610612738
30,1610612738,1627759,1628369,202330,202683,202954,1610612741,1628374,1628976,1629632,201152,203897,0021900529,1,450,453,0,0,1610612741
31,1610612738,1627759,1628400,202330,202683,202954,1610612741,1628374,1629632,1629655,201152,203897,0021900529,1,467,467,2,0,1610612738
32,1610612738,1627759,1628400,202330,202683,202954,1610612741,1628374,1629632,1629655,201152,203897,0021900529,1,474,474,0,2,1610612741
33,1610612738,1627759,1628400,202330,202683,202954,1610612741,1628374,1629632,1629655,201152,203897,0021900529,1,487,487,2,0,1610612738
34,1610612738,1627759,1628400,202330,202683,202954,1610612741,1628374,1629632,1629655,201152,203897,0021900529,1,501,505,0,0,1610612741
35,1610612738,1627759,1628400,202330,202683,202954,1610612741,1628374,1629632,1629655,201152,203897,0021900529,1,514,514,2,0,1610612738
36,1610612738,1627759,1628400,202330,202683,202954,1610612741,1628374,1629632,1629655,201152,203897,0021900529,1,535,536,0,0,1610612741
37,1610612738,1627759,1628400,202330,202683,202954,1610612741,1627739,1629632,1629655,201152,203107,0021900529,1,536,560,0,0,1610612738
38,1610612738,1627759,1628400,202330,202683,202954,1610612741,1627739,1629632,1629655,201152,203107,0021900529,1,564,572,0,0,1610612741
39,1610612738,1627759,1628400,202330,202683,202954,1610612741,1627739,1629632,1629655,201152,203107,0021900529,1,587,587,2,0,1610612738
40,1610612738,1627759,1628400,202330,202683,202954,1610612741,1627739,1629632,1629655,201152,203107,0021900529,1,598,603,0,0,1610612741
41,1610612738,1627759,1628400,202330,202683,202954,1610612741,1627739,1629632,1629655,201152,203107,0021900529,1,608,608,3,0,1610612738
42,1610612738,1628400,1629750,202330,202683,202954,1610612741,1627739,1629632,1629655,201152,203107,0021900529,1,622,622,0,3,1610612741
43,1610612738,1628400,1629750,202330,202683,202954,1610612741,1627739,1629632,1629655,201152,203107,0021900529,1,638,646,0,0,1610612738
44,1610612738,1628400,1629750,202330,202683,202954,1610612741,1627739,1629632,1629655,201152,203107,0021900529,1,646,652,0,2,1610612741
45,1610612738,1628400,1629750,202330,202683,202954,1610612741,1627739,1629632,1629655,201152,203107,0021900529,1,665,665,2,0,1610612738
46,1610612738,1628400,1629750,202330,202683,202954,1610612741,1627739,1629632,1629655,201152,203107,0021900529,1,681,681,0,0,1610612741
47,1610612738,1628400,1629750,202330,202683,202954,1610612741,1627739,1629632,1629655,201152,203107,0021900529,1,683,683,2,0,1610612738
48,1610612738,1628369,1628400,1629750,202683,202954,1610612741,1627739,1629632,1629655,201152,203107,0021900529,1,698,705,0,0,1610612741
49,1610612738,1628369,1628400,1629750,202683,202954,1610612741,1627739,1629632,1629655,201152,203107,0021900529,1,718,718,2,0,1610612738
50,1610612738,1628369,202683,202954,1628400,1629750,1610612741,1627739,203107,1629632,201152,1629655,0021900529,2,720,737,0,0,1610612738
51,1610612738,1628369,202683,202954,1628400,1629750,1610612741,1627739,203107,1629632,201152,1629655,0021900529,2,748,748,0,3,1610612741
52,1610612738,1628369,202683,202954,1628400,1629750,1610612741,1627739,203107,1629632,201152,1629655,0021900529,2,774,778,0,0,1610612738
53,1610612738,1628369,202683,202954,1628400,1629750,1610612741,1627739,203107,1629632,201152,1629655,0021900529,2,796,796,0,2,1610612741
54,1610612738,1628369,202683,202954,1628400,1629750,1610612741,1627739,203107,1629632,201152,1629655,0021900529,2,816,816,2,0,1610612738
55,1610612738,1628369,202683,202954,1628400,1629750,1610612741,1627739,203107,1629632,201152,1629655,0021900529,2,834,851,0,1,1610612741
56,1610612738,1628369,1628400,202683,202954,203935,1610612741,1627739,203107,1629632,201152,1629655,0021900529,2,866,866,2,0,1610612738
57,1610612738,1628369,1628400,202683,202954,203935,1610612741,1627739,203107,1629632,201152,1629655,0021900529,2,878,878,0,3,1610612741
58,1610612738,1628369,1628400,202683,202954,203935,1610612741,1627739,203107,1629632,201152,1629655,0021900529,2,891,891,2,0,1610612738
59,1610612738,1628369,1628464,1629684,202954,203935,1610612741,1628374,1629632,1629655,201152,203897,0021900529,2,903,903,0,0,1610612741
60,1610612738,1628369,1628464,1629684,202954,203935,1610612741,1628374,1628976,1629632,201152,203897,0021900529,2,916,916,0,0,1610612738
61,1610612738,1628369,1628464,1629684,202954,203935,1610612741,1628374,1628976,1629632,201152,203897,0021900529,2,917,919,0,0,1610612741
62,1610612738,1628369,1628464,1629684,202954,203935,1610612741,1628374,1628976,1629632,201152,203897,0021900529,2,941,944,0,0,1610612738
63,1610612738,1628369,1628464,1629684,202954,203935,1610612741,1628374,1628976,1629632,201152,203897,0021900529,2,947,947,0,3,1610612741
64,1610612738,1628369,1628464,1629684,202954,203935,1610612741,1628374,1628976,1629632,201152,203897,0021900529,2,970,977,0,0,1610612738
65,1610612738,1627759,1628369,1628464,1629684,203935,1610612741,1628374,1628976,1629632,201152,203897,0021900529,2,999,1001,0,0,1610612741
66,1610612738,1627759,1628369,1628464,1629684,203935,1610612741,1628374,1628976,1629632,201152,203897,0021900529,2,1015,1015,2,0,1610612738
67,1610612738,1627759,1628369,1628464,1629684,203935,1610612741,1628374,1628976,1629632,201152,203897,0021900529,2,1039,1041,0,0,1610612741
68,1610612738,1627759,1628369,1628464,1629684,203935,1610612741,1628374,1628976,1629632,201152,203897,0021900529,2,1045,1061,0,0,1610612738
69,1610612738,1627759,1628369,1628464,1629684,203935,1610612741,1628374,1628976,1629632,201152,203897,0021900529,2,1068,1068,0,2,1610612741
70,1610612738,1627759,1628464,1629684,202330,203935,1610612741,1627739,1628374,1628976,201152,203897,0021900529,2,1081,1081,3,0,1610612738
71,1610612738,1627759,1628464,1629684,202330,203935,1610612741,1627739,1628374,1628976,201152,203897,0021900529,2,1098,1098,0,0,1610612741
72,1610612738,1627759,1628464,1629684,202330,203935,1610612741,1627739,1628374,1628976,201152,203897,0021900529,2,1105,1107,2,0,1610612738
73,1610612738,1627759,1628464,1629684,202330,203935,1610612741,1627739,1628374,1628976,203107,203897,0021900529,2,1123,1123,0,2,1610612741
74,1610612738,1627759,1628464,1629684,202330,203935,1610612741,1627739,1628374,1628976,203107,203897,0021900529,2,1133,1133,3,0,1610612738
75,1610612738,1627759,1628464,1629684,202330,203935,1610612741,1627739,1628374,1628976,203107,203897,0021900529,2,1155,1155,0,0,1610612741
76,1610612738,1627759,1628464,1629684,202330,203935,1610612741,1627739,1628374,1628976,203107,203897,0021900529,2,1162,1162,3,0,1610612738
77,1610612738,1627759,1628464,1629684,202330,203935,1610612741,1627739,1628374,1628976,203107,203897,0021900529,2,1162,1195,0,0,1610612741
78,1610612738,1627759,1628464,1629684,202330,203935,1610612741,1627739,1628374,1628976,203107,203897,0021900529,2,1215,1216,0,0,1610612738
79,1610612738,1627759,1628464,1629684,202330,203935,1610612741,1627739,1628374,1628976,203107,203897,0021900529,2,1230,1235,0,0,1610612741
80,1610612738,1627759,1628464,1629684,202330,203935,1610612741,1627739,1628374,1628976,203107,203897,0021900529,2,1241,1241,0,0,1610612738
81,1610612738,1627759,1628464,1629684,202330,203935,1610612741,1627739,1628374,1628976,203107,203897,0021900529,2,1242,1242,0,1,1610612741
82,1610612738,1627759,1629684,202330,202683,203935,1610612741,1627739,1628374,1628976,203107,203897,0021900529,2,1254,1264,0,0,1610612738
83,1610612738,1627759,1629684,202330,202683,203935,1610612741,1627739,1628374,1628976,203107,203897,0021900529,2,1270,1273,0,0,1610612741
84,1610612738,1627759,1629684,202330,202683,203935,1610612741,1627739,1628374,1628976,203107,203897,0021900529,2,1291,1294,2,0,1610612738
85,1610612738,1627759,1629684,202330,202683,203935,1610612741,1627739,1628374,1628976,203107,203897,0021900529,2,1307,1308,0,0,1610612741
86,1610612738,1627759,1629684,202330,202683,203935,1610612741,1627739,1628374,1628976,203107,203897,0021900529,2,1314,1314,0,0,1610612738
87,1610612738,1627759,1629684,202330,202683,203935,1610612741,1627739,1628374,1628976,203107,203897,0021900529,2,1329,1329,0,3,1610612741
88,1610612738,1627759,1629684,202330,202683,203935,1610612741,1627739,1628374,1628976,203107,203897,0021900529,2,1355,1357,0,0,1610612738
89,1610612738,1627759,1629684,202330,202683,203935,1610612741,1627739,1628374,1628976,203107,203897,0021900529,2,1366,1366,0,2,1610612741
90,1610612738,1627759,1629684,202330,202683,203935,1610612741,1627739,1628374,1628976,203107,203897,0021900529,2,1366,1380,2,0,1610612738
91,1610612738,1627759,1628369,202330,202683,203935,1610612741,1627739,1628374,1628976,203107,203897,0021900529,2,1399,1399,0,2,1610612741
92,1610612738,1627759,1628369,202330,202683,203935,1610612741,1627739,1628374,1628976,203107,203897,0021900529,2,1411,1412,2,0,1610612738
93,1610612738,1627759,1628369,202330,202683,203935,1610612741,1627739,1628374,1628976,203107,203897,0021900529,2,1435,1440,0,0,1610612741
94,1610612738,202330,1628369,1628464,1627759,203935,1610612741,1627739,1628374,1628976,203897,203107,0021900529,3,1440,1458,0,0,1610612738
95,1610612738,202330,1628369,1628464,1627759,203935,1610612741,1627739,1628374,1628976,203897,203107,0021900529,3,1470,1472,0,0,1610612741
96,1610612738,202330,1628369,1628464,1627759,203935,1610612741,1627739,1628374,1628976,203897,203107,0021900529,3,1485,1485,0,0,1610612738
97,1610612738,202330,1628369,1628464,1627759,203935,1610612741,1627739,1628374,1628976,203897,203107,0021900529,3,1496,1496,0,1,1610612741
98,1610612738,202330,1628369,1628464,1627759,203935,1610612741,1627739,1628374,1628976,203897,203107,0021900529,3,1507,1510,0,0,1610612738
99,1610612738,202330,1628369,1628464,1627759,203935,1610612741,1627739,1628374,1628976,203897,203107,0021900529,3,1530,1534,0,0,1610612741
100,1610612738,202330,1628369,1628464,1627759,203935,1610612741,1627739,1628374,1628976,203897,203107,0021900529,3,1539,1539,2,0,1610612738
101,1610612738,202330,1628369,1628464,1627759,203935,1610612741,1627739,1628374,1628976,203897,203107,0021900529,3,1558,1560,0,0,1610612741
102,1610612738,202330,1628369,1628464,1627759,203935,1610612741,1627739,1628374,1628976,203897,203107,0021900529,3,1576,1576,3,0,1610612738
103,1610612738,202330,1628369,1628464,1627759,203935,1610612741,1627739,1628374,1628976,203897,203107,0021900529,3,1595,1595,0,2,1610612741
104,1610612738,202330,1628369,1628464,1627759,203935,1610612741,1627739,1628374,1628976,203897,203107,0021900529,3,1613,1616,0,0,1610612738
105,1610612738,202330,1628369,1628464,1627759,203935,1610612741,1627739,1628374,1628976,203897,203107,0021900529,3,1637,1638,0,0,1610612741
106,1610612738,202330,1628369,1628464,1627759,203935,1610612741,1627739,1628374,1628976,203897,203107,0021900529,3,1657,1657,2,0,1610612738
107,1610612738,202330,1628369,1628464,1627759,203935,1610612741,1627739,1628374,1628976,203897,203107,0021900529,3,1657,1668,0,0,1610612741
108,1610612738,202330,1628369,1628464,1627759,203935,1610612741,1627739,1628374,1628976,203897,203107,0021900529,3,1679,1681,0,0,1610612738
109,1610612738,202330,1628369,1628464,1627759,203935,1610612741,1627739,1628374,1628976,203897,203107,0021900529,3,1694,1694,0,2,1610612741
110,1610612738,202330,1628369,1628464,1627759,203935,1610612741,1627739,1628374,1628976,203897,203107,0021900529,3,1716,1716,2,0,1610612738
111,1610612738,202330,1628369,1628464,1627759,203935,1610612741,1627739,1628374,1628976,203897,203107,0021900529,3,1724,1724,0,3,1610612741
112,1610612738,202330,1628369,1628464,1627759,203935,1610612741,1627739,1628374,1628976,203897,203107,0021900529,3,1743,1745,0,0,1610612738
113,1610612738,202330,1628369,1628464,1627759,203935,1610612741,1627739,1628374,1628976,203897,203107,0021900529,3,1753,1753,0,2,1610612741
114,1610612738,202330,1628369,1628464,1627759,203935,1610612741,1627739,1628374,1628976,203897,203107,0021900529,3,1768,1770,0,0,1610612738
115,1610612738,202330,1628369,1628464,1627759,203935,1610612741,1627739,1628374,1628976,203897,203107,0021900529,3,1771,1782,0,0,1610612741
116,1610612738,1627759,1628369,202330,202683,203935,1610612741,1627739,1628374,1628976,203897,203107,0021900529,3,1796,1796,3,0,1610612738
117,1610612738,1627759,1628369,202330,202683,203935,1610612741,1627739,1628374,1628976,203897,203107,0021900529,3,1814,1814,0,2,1610612741
118,1610612738,1627759,1628369,202330,202683,203935,1610612741,1627739,1628374,1628976,203897,203107,0021900529,3,1839,1841,0,0,1610612738
119,1610612738,1627759,1628369,202330,202683,203935,1610612741,1627739,1628374,1628976,203897,203107,0021900529,3,1844,1850,0,2,1610612741
120,1610612738,1627759,1628369,202330,202683,203935,1610612741,1627739,1628374,1628976,203897,203107,0021900529,3,1868,1868,2,0,1610612738
121,1610612738,1627759,1628369,202330,202683,203935,1610612741,1627739,1628374,1628976,203897,203107,0021900529,3,1887,1891,0,0,1610612741
122,1610612738,1627759,1628369,202330,202683,203935,1610612741,1627739,1628374,1628976,203897,203107,0021900529,3,1896,1896,3,0,1610612738
123,1610612738,1627759,1628369,202330,202683,203935,1610612741,1627739,1628374,1628976,203897,203107,0021900529,3,1910,1917,0,0,1610612741
124,1610612738,1627759,1628369,202330,202683,203935,1610612741,1627739,1628374,1628976,203897,203107,0021900529,3,1918,1918,2,0,1610612738
125,1610612738,1627759,1628369,202330,202683,203935,1610612741,1627739,1628374,1628976,203897,203107,0021900529,3,1928,1928,0,2,1610612741
126,1610612738,1628369,1629750,202330,202683,202954,1610612741,1628374,1629632,1629655,201152,203897,0021900529,3,1947,1947,1,0,1610612738
127,1610612738,1629684,1629750,202330,202683,202954,1610612741,1628374,1629632,1629655,201152,203897,0021900529,3,1956,1958,0,0,1610612741
128,1610612738,1629684,1629750,202330,202683,202954,1610612741,1628374,1629632,1629655,201152,203897,0021900529,3,1970,1974,0,0,1610612738
129,1610612738,1629684,1629750,202330,202683,202954,1610612741,1628374,1629632,1629655,201152,203897,0021900529,3,1976,1976,0,2,1610612741
130,1610612738,1629684,1629750,202330,202683,202954,1610612741,1628374,1629632,1629655,201152,203897,0021900529,3,1988,2007,0,0,1610612738
131,1610612738,1629684,1629750,202330,202683,202954,1610612741,1628374,1629632,1629655,201152,203897,0021900529,3,2007,2009,0,1,1610612741
132,1610612738,1629684,1629750,202330,202683,202954,1610612741,1628374,1629632,1629655,201152,203897,0021900529,3,2023,2023,3,0,1610612738
133,1610612738,1628369,1629684,1629750,202683,202954,1610612741,1628374,1628976,1629632,201152,203897,0021900529,3,2036,2039,0,0,1610612741
134,1610612738,1628369,1629684,1629750,202683,202954,1610612741,1628374,1628976,1629632,201152,203897,0021900529,3,2053,2053,3,0,1610612738
135,1610612738,1628369,1629684,1629750,202683,202954,1610612741,1627739,1628976,1629632,201152,203107,0021900529,3,2070,2070,0,0,1610612741
136,1610612738,1628369,1629684,1629750,202683,202954,1610612741,1627739,1628976,1629632,201152,203107,0021900529,3,2075,2075,2,0,1610612738
137,1610612738,1628369,1629684,1629750,202683,202954,1610612741,1627739,1628976,1629632,201152,203107,0021900529,3,2075,2094,0,0,1610612741
138,1610612738,1628369,1629684,1629750,202683,202954,1610612741,1627739,1628976,1629632,201152,203107,0021900529,3,2113,2115,0,0,1610612738
139,1610612738,1628369,1629684,1629750,202683,202954,1610612741,1627739,1628976,1629632,201152,203107,0021900529,3,2130,2130,0,0,1610612741
140,1610612738,1628369,1629684,1629750,202683,202954,1610612741,1627739,1628976,1629632,201152,203107,0021900529,3,2148,2148,0,0,1610612738
141,1610612738,1628369,1629684,1629750,202683,202954,1610612741,1627739,1628976,1629632,201152,203107,0021900529,3,2153,2153,0,2,1610612741
142,1610612738,1628369,1629684,1629750,202683,202954,1610612741,1627739,1628976,1629632,201152,203107,0021900529,3,2160,2160,2,0,1610612738
143,1610612738,1628369,202683,202954,1629750,1629684,1610612741,1627739,1628976,203107,1629632,201152,0021900529,4,2160,2170,0,2,1610612741
144,1610612738,1628369,202683,202954,1629750,1629684,1610612741,1627739,1628976,203107,1629632,201152,0021900529,4,2195,2195,2,0,1610612738
145,1610612738,1628369,202683,202954,1629750,1629684,1610612741,1627739,1628976,203107,1629632,201152,0021900529,4,2212,2228,0,2,1610612741
146,1610612738,1628369,202683,202954,1629750,1629684,1610612741,1627739,1628976,203107,1629632,201152,0021900529,4,2247,2247,2,0,1610612738
147,1610612738,1628369,202683,202954,1629750,1629684,1610612741,1627739,1628976,203107,1629632,201152,0021900529,4,2260,2260,0,0,1610612741
148,1610612738,1628369,202683,202954,1629750,1629684,1610612741,1627739,1628976,203107,1629632,201152,0021900529,4,2264,2264,2,0,1610612738
149,1610612738,1628369,202683,202954,1629750,1629684,1610612741,1627739,1628976,203107,1629632,201152,0021900529,4,2277,2291,0,0,1610612741
150,1610612738,1628369,1628464,1629684,1629750,202954,1610612741,1627739,1628976,203107,1629632,201152,0021900529,4,2295,2295,2,0,1610612738
151,1610612738,1628369,1628464,1629684,1629750,202954,1610612741,1627739,1628976,203107,1629632,201152,0021900529,4,2295,2308,0,3,1610612741
152,1610612738,1628369,1629684,1629750,202683,202954,1610612741,1627739,1629655,201152,203107,203897,0021900529,4,2325,2325,0,0,1610612738
153,1610612738,1628369,1629684,1629750,202683,202954,1610612741,1627739,1629655,201152,203107,203897,0021900529,4,2331,2331,0,2,1610612741
154,1610612738,1628369,1629684,1629750,202683,202954,1610612741,1627739,1629655,201152,203107,203897,0021900529,4,2354,2358,2,0,1610612738
155,1610612738,1628369,1629684,1629750,202683,202954,1610612741,1627739,1629655,201152,203107,203897,0021900529,4,2366,2366,0,3,1610612741
156,1610612738,1627759,1628369,202683,202954,203935,1610612741,1627739,1629655,201152,203107,203897,0021900529,4,2381,2381,0,0,1610612738
157,1610612738,1627759,1628369,202683,202954,203935,1610612741,1627739,1629655,201152,203107,203897,0021900529,4,2384,2384,0,2,1610612741
158,1610612738,1627759,1628369,202683,202954,203935,1610612741,1627739,1629655,201152,203107,203897,0021900529,4,2384,2398,0,0,1610612738
159,1610612738,1627759,1628369,202683,202954,203935,1610612741,1627739,1629655,201152,203107,203897,0021900529,4,2409,2409,0,3,1610612741
160,1610612738,1627759,1628369,202683,202954,203935,1610612741,1627739,1629655,201152,203107,203897,0021900529,4,2435,2437,0,0,1610612738
161,1610612738,1627759,1628369,202683,202954,203935,1610612741,1627739,1629655,201152,203107,203897,0021900529,4,2439,2439,0,2,1610612741
162,1610612738,1627759,1628369,202683,202954,203935,1610612741,1627739,1629655,201152,203107,203897,0021900529,4,2454,2454,0,0,1610612738
163,1610612738,1627759,1628369,202683,202954,203935,1610612741,1627739,1629655,201152,203107,203897,0021900529,4,2467,2467,0,0,1610612741
164,1610612738,1627759,1628369,202683,202954,203935,1610612741,1627739,1629655,201152,203107,203897,0021900529,4,2467,2487,0,0,1610612738
165,1610612738,1627759,1628464,1629684,202330,203935,1610612741,1627739,1629655,201152,203107,203897,0021900529,4,2490,2492,0,0,1610612741
166,1610612738,1627759,1628464,1629684,202330,203935,1610612741,1627739,1629655,201152,203107,203897,0021900529,4,2503,2503,0,0,1610612738
167,1610612738,1627759,1628464,1629684,202330,203935,1610612741,1627739,1629655,201152,203107,203897,0021900529,4,2510,2510,0,0,1610612741
168,1610612738,1627759,1628464,1629684,202330,203935,1610612741,1627739,1628976,201152,203107,203897,0021900529,4,2520,2520,3,0,1610612738
169,1610612738,1627759,1628464,1629684,202330,203935,1610612741,1627739,1628976,201152,203107,203897,0021900529,4,2543,2545,0,0,1610612741
170,1610612738,1627759,1628464,1629684,202330,203935,1610612741,1627739,1628976,201152,203107,203897,0021900529,4,2547,2547,0,0,1610612738
171,1610612738,1627759,1628464,1629684,202330,203935,1610612741,1627739,1628976,201152,203107,203897,0021900529,4,2552,2554,0,0,1610612741
172,1610612738,1627759,1628464,1629684,202330,203935,1610612741,1627739,1628976,201152,203107,203897,0021900529,4,2575,2582,0,0,1610612738
173,1610612738,1627759,1628464,1629684,202330,203935,1610612741,1627739,1628976,201152,203107,203897,0021900529,4,2589,2589,0,0,1610612741
174,1610612738,1627759,1628369,1628464,202330,203935,1610612741,1627739,1628374,1628976,203107,203897,0021900529,4,2600,2634,1,0,1610612738
175,1610612738,1627759,1628369,1628464,202330,203935,1610612741,1627739,1628976,201152,203107,203897,0021900529,4,2656,2656,0,2,1610612741
176,1610612738,1627759,1628369,1628464,202330,203935,1610612741,1627739,1628976,201152,203107,203897,0021900529,4,2676,2676,0,0,1610612738
177,1610612738,1627759,1628369,1628464,202330,203935,1610612741,1627739,1628976,201152,203107,203897,0021900529,4,2680,2680,0,2,1610612741
178,1610612738,1627759,1628369,1628464,202330,203935,1610612741,1627739,1628976,201152,203107,203897,0021900529,4,2694,2703,2,0,1610612738
179,1610612738,1627759,1628369,1628464,202330,203935,1610612741,1627739,1628976,201152,203107,203897,0021900529,4,2719,2723,0,0,1610612741
180,1610612738,1627759,1628369,1628464,202330,203935,1610612741,1627739,1628976,201152,203107,203897,0021900529,4,2731,2731,2,0,1610612738
181,1610612738,1627759,1628369,1628464,202330,203935,1610612741,1627739,1628976,201152,203107,203897,0021900529,4,2749,2752,0,3,1610612741
182,1610612738,1627759,1628369,1628464,202330,203935,1610612741,1627739,1628976,201152,203107,203897,0021900529,4,2770,2770,2,0,1610612738
183,1610612738,1627759,1628369,1628464,202330,203935,1610612741,1627739,1628976,201152,203107,203897,0021900529,4,2789,2789,0,2,1610612741
184,1610612738,1627759,1628369,1628464,202330,203935,1610612741,1627739,1628976,201152,203107,203897,0021900529,4,2814,2814,3,0,1610612738
185,1610612738,1627759,1628369,1628464,202330,203935,1610612741,1627739,1628976,201152,203107,203897,0021900529,4,2822,2825,0,0,1610612741
186,1610612738,1627759,1628369,1628464,202330,203935,1610612741,1627739,1628976,201152,203107,203897,0021900529,4,2843,2843,0,0,1610612738
187,1610612738,1627759,1628369,1628464,202330,203935,1610612741,1627739,1628976,201152,203107,203897,0021900529,4,2848,2850,0,0,1610612741
188,1610612738,1627759,1628369,1628464,202330,203935,1610612741,1627739,1628976,201152,203107,203897,0021900529,4,2853,2853,2,0,1610612738
189,1610612738,1627759,1628369,1628464,202330,203935,1610612741,1627739,1628976,201152,203107,203897,0021900529,4,2861,2861,0,3,1610612741
190,1610612738,1627759,1628369,1628464,202330,203935,1610612741,1627739,1628976,201152,203107,203897,0021900529,4,2862,2862,1,0,1610612738
191,1610612738,1627759,1628369,1629684,202330,203935,1610612741,1627739,1628976,201152,203107,203897,0021900529,4,2876,2880,0,0,1610612741
