,stint_end,t1_players,t2_pm,t2_points_scored,stint_start,t1_pm,t1_points_scored,t2_id,t1_id,t2_players,margin_per_100,num_poss
0,282,"[201980, 202699, 203118, 203552, 1627732]",-7,7,0,7,14,1610612746,1610612755,"[202695, 202694, 1627826, 202331, 202704]",43.75,16.0
1,318,"[201980, 202699, 203118, 203552, 1627732]",-5,9,283,5,14,1610612746,1610612755,"[202695, 202694, 1627826, 202331, 202704]",27.77777777777778,18.0
2,491,"[1627732, 1629680, 202699, 203118, 203552]",-3,18,319,3,21,1610612746,1610612755,"[202695, 202694, 1627826, 202331, 202704]",10.0,30.0
3,616,"[1627732, 1629680, 202699, 203118, 203552]",-2,23,492,2,25,1610612746,1610612755,"[202331, 202335, 202694, 202695, 202704]",5.263157894736842,38.0
4,629,"[1627732, 1629003, 1629680, 202699, 2730]",-3,23,617,3,26,1610612746,1610612755,"[201587, 202335, 202694, 202695, 202704]",7.6923076923076925,39.0
5,719,"[1627732, 1629003, 1629680, 202699, 2730]",-1,29,630,1,30,1610612746,1610612755,"[1627826, 1629611, 201587, 202694, 202695]",2.127659574468085,47.0
6,898,"[1627788, 1629003, 1629680, 202699, 2730]",-3,34,720,3,37,1610612746,1610612755,"[1627826, 1628379, 1629611, 201587, 202695]",5.084745762711865,59.0
7,952,"[201980, 1629680, 1629003, 2730, 1627788]",-3,36,899,3,39,1610612746,1610612755,"[1627826, 202331, 201587, 1629611, 1628379]",4.6875,64.0
8,1095,"[201980, 1629680, 1629003, 2730, 1627788]",2,48,953,-2,46,1610612746,1610612755,"[1627826, 1629611, 201587, 202331, 202704]",-2.73972602739726,73.0
9,1200,"[1629003, 1629680, 201980, 203118, 203552]",0,53,1096,0,53,1610612746,1610612755,"[1627826, 1629611, 201587, 202331, 202704]",0.0,80.0
10,1438,"[1627732, 201980, 202699, 203118, 203552]",5,65,1201,-5,60,1610612746,1610612755,"[201587, 202331, 202694, 202695, 202704]",-5.319148936170213,94.0
11,1585,"[1627732, 201980, 202699, 203118, 203552]",10,72,1439,-10,62,1610612746,1610612755,"[1629611, 201587, 202331, 202694, 202695]",-9.615384615384617,104.0
12,1695,"[201980, 202699, 203118, 203552, 1627732]",11,75,1586,-11,64,1610612746,1610612755,"[202695, 202694, 1627826, 202331, 202704]",-9.821428571428571,112.0
13,1788,"[1627732, 201980, 202699, 203552, 2730]",12,81,1696,-12,69,1610612746,1610612755,"[201587, 202331, 202694, 202695, 202704]",-10.0,120.0
14,1874,"[1627732, 1627788, 1629003, 202699, 2730]",10,83,1789,-10,73,1610612746,1610612755,"[201587, 202331, 202694, 202695, 202704]",-7.874015748031496,127.0
15,1956,"[1627732, 1629003, 1629680, 202699, 2730]",14,89,1875,-14,75,1610612746,1610612755,"[201587, 202331, 202694, 202695, 202704]",-10.606060606060606,132.0
16,1995,"[1627732, 1629003, 1629680, 203118, 2730]",13,90,1957,-13,77,1610612746,1610612755,"[1629611, 201587, 202694, 202695, 202704]",-9.701492537313433,134.0
17,2120,"[1627732, 1629003, 1629680, 203118, 2730]",14,97,1996,-14,83,1610612746,1610612755,"[1629611, 201587, 202335, 202694, 202695]",-9.859154929577464,142.0
18,2152,"[1629003, 1629680, 1630178, 203118, 2730]",14,97,2121,-14,83,1610612746,1610612755,"[1629611, 201587, 202335, 202694, 202695]",-9.722222222222223,144.0
19,2244,"[1629003, 1629680, 1630178, 203118, 2730]",12,99,2153,-12,87,1610612746,1610612755,"[1629611, 201587, 202331, 202335, 202695]",-7.9470198675496695,151.0
20,2327,"[202699, 1629680, 1629003, 2730, 1630178]",14,103,2245,-14,89,1610612746,1610612755,"[1627826, 202331, 202704, 201587, 1629611]",-8.974358974358974,156.0
21,2377,"[1629003, 1629680, 201980, 202699, 203552]",17,106,2328,-17,89,1610612746,1610612755,"[1627826, 202331, 202704, 201587, 1629611]",-10.559006211180124,161.0
22,2434,"[1627732, 1627788, 201980, 202699, 203552]",18,110,2378,-18,92,1610612746,1610612755,"[1627826, 202331, 202704, 201587, 1629611]",-10.909090909090908,165.0
23,2496,"[1627788, 201980, 202699, 203118, 203552]",13,110,2435,-13,97,1610612746,1610612755,"[1627826, 202331, 202704, 201587, 1629611]",-7.647058823529412,170.0
24,2649,"[1629680, 201980, 202699, 203118, 203552]",16,117,2497,-16,101,1610612746,1610612755,"[1627826, 1629611, 201587, 202331, 202695]",-8.98876404494382,178.0
25,2713,"[1629680, 201980, 202699, 203118, 203552]",15,119,2650,-15,104,1610612746,1610612755,"[1629611, 201587, 202331, 202694, 202695]",-8.241758241758241,182.0
26,2871,"[1627788, 1629680, 1630178, 1630194, 203118]",10,122,2714,-10,112,1610612746,1610612755,"[1629611, 201587, 202331, 202694, 202695]",-5.2356020942408374,191.0
27,9999999,"[1627788, 1629730, 1630178, 1630194, 1630198]",10,122,2872,-10,112,1610612746,1610612755,"[1628379, 1629599, 1629611, 1630187, 202335]",-5.208333333333334,192.0
