,team1_id,team1_player1,team1_player2,team1_player3,team1_player4,team1_player5,team2_id,team2_player1,team2_player2,team2_player3,team2_player4,team2_player5,game_id,period,possession_start,possession_end,team1_points,team2_points,possession_team
0,1610612754,203933,1627734,1626167,203087,1628988,1610612766,1628970,1629023,202687,1628984,1626179,0021900539,1,0,26,3,0,1610612754
1,1610612754,203933,1627734,1626167,203087,1628988,1610612766,1628970,1629023,202687,1628984,1626179,0021900539,1,46,46,0,2,1610612766
2,1610612754,203933,1627734,1626167,203087,1628988,1610612766,1628970,1629023,202687,1628984,1626179,0021900539,1,64,66,0,0,1610612754
3,1610612754,203933,1627734,1626167,203087,1628988,1610612766,1628970,1629023,202687,1628984,1626179,0021900539,1,73,76,0,0,1610612766
4,1610612754,203933,1627734,1626167,203087,1628988,1610612766,1628970,1629023,202687,1628984,1626179,0021900539,1,84,87,0,0,1610612754
5,1610612754,203933,1627734,1626167,203087,1628988,1610612766,1628970,1629023,202687,1628984,1626179,0021900539,1,100,103,0,0,1610612766
6,1610612754,203933,1627734,1626167,203087,1628988,1610612766,1628970,1629023,202687,1628984,1626179,0021900539,1,114,117,0,0,1610612754
7,1610612754,203933,1627734,1626167,203087,1628988,1610612766,1628970,1629023,202687,1628984,1626179,0021900539,1,124,127,0,0,1610612766
8,1610612754,203933,1627734,1626167,203087,1628988,1610612766,1628970,1629023,202687,1628984,1626179,0021900539,1,132,132,3,0,1610612754
9,1610612754,203933,1627734,1626167,203087,1628988,1610612766,1628970,1629023,202687,1628984,1626179,0021900539,1,144,144,0,2,1610612766
10,1610612754,203933,1627734,1626167,203087,1628988,1610612766,1628970,1629023,202687,1628984,1626179,0021900539,1,162,163,0,0,1610612754
11,1610612754,203933,1627734,1626167,203087,1628988,1610612766,1628970,1629023,202687,1628984,1626179,0021900539,1,172,172,0,0,1610612766
12,1610612754,203933,1627734,1626167,203087,1628988,1610612766,1628970,1629023,202687,1628984,1626179,0021900539,1,177,177,2,0,1610612754
13,1610612754,203933,1627734,1626167,203087,1628988,1610612766,1628970,1629023,202687,1628984,1626179,0021900539,1,188,188,0,3,1610612766
14,1610612754,203933,1627734,1626167,203087,1628988,1610612766,1628970,1629023,202687,1628984,1626179,0021900539,1,213,213,2,0,1610612754
15,1610612754,203933,1627734,1626167,203087,1628988,1610612766,1628970,1629023,202687,1628984,1626179,0021900539,1,229,229,0,2,1610612766
16,1610612754,203933,1627734,1626167,203087,1628988,1610612766,1628970,1629023,202687,1628984,1626179,0021900539,1,249,249,2,0,1610612754
17,1610612754,203933,1627734,1626167,203087,1628988,1610612766,1628970,1629023,202687,1628984,1626179,0021900539,1,262,265,0,0,1610612766
18,1610612754,203933,1627734,1626167,203087,1628988,1610612766,1628970,1629023,202687,1628984,1626179,0021900539,1,280,280,0,0,1610612754
19,1610612754,203933,1627734,1626167,203087,1628988,1610612766,1628370,1628407,1628984,1629023,202687,0021900539,1,299,336,0,0,1610612766
20,1610612754,203933,1627734,1626167,203087,1628988,1610612766,1628370,1628407,1628984,1629023,202687,0021900539,1,346,346,0,0,1610612754
21,1610612754,203933,1627734,1626167,203087,1628988,1610612766,1628370,1628407,1628984,1629023,203469,0021900539,1,361,361,0,3,1610612766
22,1610612754,203933,1627734,1626167,203087,1628988,1610612766,1628370,1628407,1628984,1629023,203469,0021900539,1,377,379,0,0,1610612754
23,1610612754,203933,1627734,1626167,203087,1628988,1610612766,1628370,1628407,1628984,1629023,203469,0021900539,1,390,393,0,0,1610612766
24,1610612754,203933,1627734,1626167,203087,1628988,1610612766,1628370,1628407,1628984,1629023,203469,0021900539,1,402,402,2,0,1610612754
25,1610612754,203933,1627734,1626167,203087,1628988,1610612766,1628370,1628407,1628984,1629023,203469,0021900539,1,416,416,0,3,1610612766
26,1610612754,203933,1627734,1626167,203087,1628988,1610612766,1628370,1628407,1628984,1629023,203469,0021900539,1,434,440,0,0,1610612754
27,1610612754,203933,1627734,1626167,203087,1628988,1610612766,1628370,1628407,1628984,1629023,203469,0021900539,1,452,452,0,2,1610612766
28,1610612754,203933,1627734,1626167,203087,1628988,1610612766,1628370,1628407,1628984,1629023,203469,0021900539,1,470,473,0,0,1610612754
29,1610612754,203933,1627734,1626167,203087,1628988,1610612766,1628370,1628407,1628984,1629023,203469,0021900539,1,480,480,0,0,1610612766
30,1610612754,203933,1627734,1626167,203087,1628988,1610612766,1628370,1628407,1628984,1629023,203469,0021900539,1,493,493,2,0,1610612754
31,1610612754,203933,1627734,1626167,203087,1628988,1610612766,1628370,1628407,1628984,1629023,203469,0021900539,1,493,506,0,2,1610612766
32,1610612754,203933,1627734,1626167,203087,1628988,1610612766,1628370,1628407,1628984,1629023,203469,0021900539,1,516,543,2,0,1610612754
33,1610612754,1626167,1628410,203200,203933,204456,1610612766,1626179,1628370,1628407,1628970,203469,0021900539,1,559,573,0,0,1610612766
34,1610612754,1628410,1629048,203200,203933,204456,1610612766,1626179,1628370,1628407,1628970,203469,0021900539,1,580,580,2,0,1610612754
35,1610612754,1628410,1629048,203200,203933,204456,1610612766,1626179,1628370,1628407,1628970,203469,0021900539,1,596,602,0,3,1610612766
36,1610612754,1628410,1629048,203200,203933,204456,1610612766,1626179,1628370,1628407,1628970,203469,0021900539,1,615,617,0,0,1610612754
37,1610612754,1628410,1629048,203200,203933,204456,1610612766,1626179,1628370,1628407,1628970,203469,0021900539,1,623,630,0,2,1610612766
38,1610612754,1628410,1629048,203200,203933,204456,1610612766,1626179,1628370,1628407,1628970,203469,0021900539,1,641,641,0,0,1610612754
39,1610612754,1628410,1629048,203200,203926,204456,1610612766,1626179,1628370,1628407,1628970,203469,0021900539,1,651,651,0,2,1610612766
40,1610612754,1628410,1629048,203200,203926,204456,1610612766,1626179,1628370,1628407,1628970,203469,0021900539,1,663,668,2,0,1610612754
41,1610612754,1628410,1629048,203200,203926,204456,1610612766,1626179,1628370,1628407,1628970,203469,0021900539,1,677,677,0,3,1610612766
42,1610612754,1628410,1629048,203200,203926,204456,1610612766,1626179,1628370,1628407,1628970,203469,0021900539,1,689,689,3,0,1610612754
43,1610612754,1628410,1629048,203200,203926,204456,1610612766,1626179,1628370,1628407,1628970,203469,0021900539,1,710,714,0,0,1610612766
44,1610612754,1628410,1629048,203200,203926,204456,1610612766,1626179,1628370,1628407,1628970,203469,0021900539,1,719,719,2,0,1610612754
45,1610612754,1627734,203200,204456,1628410,203926,1610612766,1628970,202687,1626179,1628370,1628998,0021900539,2,720,753,0,0,1610612766
46,1610612754,1627734,203200,204456,1628410,203926,1610612766,1628970,202687,1626179,1628370,1628998,0021900539,2,776,779,0,0,1610612754
47,1610612754,1627734,203200,204456,1628410,203926,1610612766,1628970,202687,1626179,1628370,1628998,0021900539,2,782,788,0,3,1610612766
48,1610612754,1627734,203200,204456,1628410,203926,1610612766,1628970,202687,1626179,1628370,1628998,0021900539,2,801,801,3,0,1610612754
49,1610612754,1627734,203200,204456,1628410,203926,1610612766,1628970,202687,1626179,1628370,1628998,0021900539,2,820,822,0,0,1610612766
50,1610612754,1627734,203200,204456,1628410,203926,1610612766,1628970,202687,1626179,1628370,1628998,0021900539,2,833,833,2,0,1610612754
51,1610612754,1627734,203200,204456,1628410,203926,1610612766,1628970,202687,1626179,1628370,1628998,0021900539,2,847,850,0,0,1610612766
52,1610612754,1627734,203200,204456,1628410,203926,1610612766,1628970,202687,1626179,1628370,1628998,0021900539,2,866,893,0,0,1610612754
53,1610612754,1627734,203200,204456,1628410,203926,1610612766,1626179,1628970,1628984,1628998,202687,0021900539,2,897,897,0,0,1610612766
54,1610612754,1627734,203200,204456,1628410,203926,1610612766,1626179,1628970,1628984,1628998,202687,0021900539,2,909,912,0,0,1610612754
55,1610612754,1627734,203200,204456,1628410,203926,1610612766,1626179,1628970,1628984,1628998,202687,0021900539,2,923,925,0,0,1610612766
56,1610612754,1627734,203200,204456,1628410,203926,1610612766,1626179,1628970,1628984,1628998,202687,0021900539,2,936,936,3,0,1610612754
57,1610612754,1627734,203200,204456,1628410,203926,1610612766,1626179,1628970,1628984,1628998,202687,0021900539,2,952,953,0,0,1610612766
58,1610612754,1627734,203200,204456,1628410,203926,1610612766,1626179,1628970,1628984,1628998,202687,0021900539,2,967,970,0,0,1610612754
59,1610612754,1627734,203200,204456,1628410,203926,1610612766,1626179,1628970,1628984,1628998,202687,0021900539,2,984,1003,0,0,1610612766
60,1610612754,1626167,1627734,1628410,203926,204456,1610612766,1626179,1628984,1628998,1629023,202687,0021900539,2,1020,1023,1,0,1610612754
61,1610612754,1626167,1627734,1628410,203926,204456,1610612766,1626179,1628984,1628998,1629023,202687,0021900539,2,1035,1035,0,2,1610612766
62,1610612754,1626167,1627734,1628410,203926,204456,1610612766,1626179,1628984,1628998,1629023,202687,0021900539,2,1050,1054,0,0,1610612754
63,1610612754,1626167,1627734,1628410,203926,204456,1610612766,1626179,1628984,1628998,1629023,202687,0021900539,2,1073,1075,0,2,1610612766
64,1610612754,1626167,1627734,1628410,203926,204456,1610612766,1626179,1628984,1628998,1629023,202687,0021900539,2,1091,1094,0,0,1610612754
65,1610612754,1626167,1627734,1628410,203926,204456,1610612766,1626179,1628984,1628998,1629023,202687,0021900539,2,1104,1107,0,0,1610612766
66,1610612754,1626167,1627734,1628410,203926,204456,1610612766,1626179,1628984,1628998,1629023,202687,0021900539,2,1113,1113,2,0,1610612754
67,1610612754,1626167,1627734,1628410,203926,204456,1610612766,1626179,1628984,1628998,1629023,202687,0021900539,2,1125,1127,0,0,1610612766
68,1610612754,1626167,1627734,1628410,203926,204456,1610612766,1626179,1628984,1628998,1629023,202687,0021900539,2,1141,1142,0,0,1610612754
69,1610612754,1626167,1627734,1628410,203926,204456,1610612766,1626179,1628984,1628998,1629023,202687,0021900539,2,1149,1149,0,2,1610612766
70,1610612754,1626167,1627734,1628410,203926,204456,1610612766,1626179,1628984,1628998,1629023,202687,0021900539,2,1151,1175,0,0,1610612754
71,1610612754,1626167,1627734,1628988,203087,203933,1610612766,1628370,1628970,1628984,1629023,203469,0021900539,2,1188,1191,0,0,1610612766
72,1610612754,1626167,1627734,1628988,203087,203933,1610612766,1628370,1628970,1628984,1629023,203469,0021900539,2,1197,1212,0,0,1610612754
73,1610612754,1626167,1627734,1628988,203087,203933,1610612766,1628370,1628970,1628984,1629023,203469,0021900539,2,1222,1224,0,0,1610612766
74,1610612754,1626167,1627734,1628988,203087,203933,1610612766,1628370,1628970,1628984,1629023,203469,0021900539,2,1228,1237,0,0,1610612754
75,1610612754,1626167,1627734,1628988,203087,203933,1610612766,1628370,1628970,1628984,1629023,203469,0021900539,2,1242,1242,0,0,1610612766
76,1610612754,1626167,1627734,1628988,203087,203933,1610612766,1628370,1628970,1628984,1629023,203469,0021900539,2,1251,1251,2,0,1610612754
77,1610612754,1626167,1627734,1628988,203087,203933,1610612766,1628370,1628970,1628984,1629023,203469,0021900539,2,1268,1274,0,0,1610612766
78,1610612754,1626167,1627734,1628988,203087,203933,1610612766,1628370,1628970,1628984,1629023,203469,0021900539,2,1282,1297,2,0,1610612754
79,1610612754,1626167,1627734,1628988,203087,203933,1610612766,1626179,1628970,1628984,1629023,203469,0021900539,2,1317,1320,0,0,1610612766
80,1610612754,1626167,1627734,1628988,203087,203933,1610612766,1626179,1628970,1628984,1629023,203469,0021900539,2,1329,1332,0,0,1610612754
81,1610612754,1626167,1627734,1628988,203087,203933,1610612766,1626179,1628970,1628984,1629023,203469,0021900539,2,1346,1349,0,2,1610612766
82,1610612754,1626167,1627734,1628988,203087,203933,1610612766,1626179,1628970,1628984,1629023,203469,0021900539,2,1369,1373,0,0,1610612754
83,1610612754,1626167,1628988,203087,203933,203960,1610612766,1626179,1628970,1628984,1629023,203469,0021900539,2,1387,1387,0,2,1610612766
84,1610612754,1626167,1628988,203087,203933,203960,1610612766,1626179,1628970,1628984,1629023,203469,0021900539,2,1399,1402,0,0,1610612754
85,1610612754,1626167,1628988,203087,203933,203960,1610612766,1626179,1628970,1628984,1629023,203469,0021900539,2,1408,1410,0,2,1610612766
86,1610612754,1626167,1628988,203087,203933,203960,1610612766,1626179,1628970,1628984,1629023,203469,0021900539,2,1429,1431,0,0,1610612754
87,1610612754,1626167,1628988,203087,203933,203960,1610612766,1626179,1628970,1628984,1629023,203469,0021900539,2,1440,1440,0,0,1610612754
88,1610612754,203933,1627734,1626167,203087,1628988,1610612766,1628970,1629023,202687,1628984,1626179,0021900539,3,1440,1464,0,1,1610612766
89,1610612754,203933,1627734,1626167,203087,1628988,1610612766,1628970,1629023,202687,1628984,1626179,0021900539,3,1475,1477,0,0,1610612754
90,1610612754,203933,1627734,1626167,203087,1628988,1610612766,1628970,1629023,202687,1628984,1626179,0021900539,3,1480,1480,0,0,1610612766
91,1610612754,203933,1627734,1626167,203087,1628988,1610612766,1628970,1629023,202687,1628984,1626179,0021900539,3,1501,1508,0,0,1610612754
92,1610612754,203933,1627734,1626167,203087,1628988,1610612766,1628970,1629023,202687,1628984,1626179,0021900539,3,1520,1520,0,0,1610612766
93,1610612754,203933,1627734,1626167,203087,1628988,1610612766,1628970,1629023,202687,1628984,1626179,0021900539,3,1524,1524,2,0,1610612754
94,1610612754,203933,1627734,1626167,203087,1628988,1610612766,1628970,1629023,202687,1628984,1626179,0021900539,3,1539,1539,0,2,1610612766
95,1610612754,203933,1627734,1626167,203087,1628988,1610612766,1628970,1629023,202687,1628984,1626179,0021900539,3,1558,1558,3,0,1610612754
96,1610612754,203933,1627734,1626167,203087,1628988,1610612766,1628970,1629023,202687,1628984,1626179,0021900539,3,1573,1573,0,0,1610612766
97,1610612754,203933,1627734,1626167,203087,1628988,1610612766,1628970,1629023,202687,1628984,1626179,0021900539,3,1575,1575,2,0,1610612754
98,1610612754,203933,1627734,1626167,203087,1628988,1610612766,1628970,1629023,202687,1628984,1626179,0021900539,3,1587,1587,0,3,1610612766
99,1610612754,203933,1627734,1626167,203087,1628988,1610612766,1628970,1629023,202687,1628984,1626179,0021900539,3,1606,1606,2,0,1610612754
100,1610612754,203933,1627734,1626167,203087,1628988,1610612766,1628970,1629023,202687,1628984,1626179,0021900539,3,1621,1627,0,0,1610612766
101,1610612754,203933,1627734,1626167,203087,1628988,1610612766,1628970,1629023,202687,1628984,1626179,0021900539,3,1632,1632,2,0,1610612754
102,1610612754,203933,1627734,1626167,203087,1628988,1610612766,1628970,1629023,202687,1628984,1626179,0021900539,3,1632,1647,0,0,1610612766
103,1610612754,203933,1627734,1626167,203087,1628988,1610612766,1628970,1629023,202687,1628984,1626179,0021900539,3,1648,1666,0,0,1610612754
104,1610612754,203933,1627734,1626167,203087,1628988,1610612766,1628970,1629023,202687,1628984,1626179,0021900539,3,1670,1674,0,0,1610612766
105,1610612754,203933,1627734,1626167,203087,1628988,1610612766,1628970,1629023,202687,1628984,1626179,0021900539,3,1684,1688,0,0,1610612754
106,1610612754,203933,1627734,1626167,203087,1628988,1610612766,1628970,1629023,202687,1628984,1626179,0021900539,3,1699,1699,0,2,1610612766
107,1610612754,203933,1627734,1626167,203087,1628988,1610612766,1628970,1629023,202687,1628984,1626179,0021900539,3,1714,1718,2,0,1610612754
108,1610612754,203933,1627734,1626167,203087,1628988,1610612766,1626179,1628407,1628984,1629023,203469,0021900539,3,1733,1735,0,0,1610612766
109,1610612754,203933,1627734,1626167,203087,1628988,1610612766,1626179,1628407,1628984,1629023,203469,0021900539,3,1746,1746,2,0,1610612754
110,1610612754,203933,1627734,1626167,203087,1628988,1610612766,1626179,1628407,1628984,1629023,203469,0021900539,3,1766,1769,0,0,1610612766
111,1610612754,203933,1627734,1626167,203087,1628988,1610612766,1626179,1628407,1628984,1629023,203469,0021900539,3,1775,1775,2,0,1610612754
112,1610612754,203933,1627734,1626167,203087,1628988,1610612766,1626179,1628407,1628984,1629023,203469,0021900539,3,1797,1797,0,2,1610612766
113,1610612754,203933,1627734,1626167,203087,1628988,1610612766,1626179,1628407,1628984,1629023,203469,0021900539,3,1816,1816,2,0,1610612754
114,1610612754,203933,1627734,1626167,203087,1628988,1610612766,1626179,1628407,1628984,1629023,203469,0021900539,3,1831,1831,0,0,1610612766
115,1610612754,203933,1627734,1626167,203087,1628988,1610612766,1626179,1628407,1628984,1629023,203469,0021900539,3,1831,1831,2,0,1610612754
116,1610612754,203933,1627734,1626167,203087,1628988,1610612766,1628370,1628407,1628984,1629023,203469,0021900539,3,1851,1851,0,2,1610612766
117,1610612754,203933,1627734,1626167,203087,1628988,1610612766,1628370,1628407,1628984,1629023,203469,0021900539,3,1864,1864,3,0,1610612754
118,1610612754,203933,1627734,1626167,203087,1628988,1610612766,1628370,1628407,1628984,1629023,203469,0021900539,3,1885,1885,0,0,1610612766
119,1610612754,1626167,1628988,203087,203200,203933,1610612766,1628370,1628407,1628984,1629023,203469,0021900539,3,1899,1901,0,0,1610612754
120,1610612754,1626167,1628988,203087,203200,203933,1610612766,1628370,1628407,1628984,1629023,203469,0021900539,3,1909,1911,0,0,1610612766
121,1610612754,1626167,1628988,203087,203200,203933,1610612766,1628370,1628407,1628984,1629023,203469,0021900539,3,1922,1924,2,0,1610612754
122,1610612754,1626167,1628988,203087,203200,203933,1610612766,1628370,1628407,1628984,1629023,203469,0021900539,3,1940,1943,0,0,1610612766
123,1610612754,1626167,1628988,203087,203200,203933,1610612766,1628370,1628407,1628984,1629023,203469,0021900539,3,1950,1964,2,0,1610612754
124,1610612754,1626167,1628988,203087,203200,203933,1610612766,1628370,1628407,1628984,1629023,203469,0021900539,3,1967,1981,0,3,1610612766
125,1610612754,1626167,1628988,203087,203200,203926,1610612766,1626179,1628370,1628407,1628970,203469,0021900539,3,2002,2002,3,0,1610612754
126,1610612754,1626167,1628988,203087,203200,203926,1610612766,1626179,1628370,1628407,1628970,203469,0021900539,3,2017,2017,0,3,1610612766
127,1610612754,1626167,1628410,203200,203926,204456,1610612766,1626179,1628370,1628407,1628970,203469,0021900539,3,2032,2032,2,0,1610612754
128,1610612754,1626167,1628410,203200,203926,204456,1610612766,1626179,1628370,1628407,1628970,203469,0021900539,3,2054,2056,0,0,1610612766
129,1610612754,1626167,1628410,203200,203926,204456,1610612766,1626179,1628370,1628407,1628970,203469,0021900539,3,2069,2069,2,0,1610612754
130,1610612754,1626167,1628410,203200,203926,204456,1610612766,1626179,1628370,1628407,1628970,203469,0021900539,3,2088,2088,0,3,1610612766
131,1610612754,1626167,1628410,203200,203926,204456,1610612766,1626179,1628370,1628407,1628970,203469,0021900539,3,2111,2111,0,0,1610612754
132,1610612754,1626167,1628410,203200,203926,204456,1610612766,1626179,1628370,1628407,1628970,203469,0021900539,3,2132,2134,0,0,1610612766
133,1610612754,1626167,1628410,203200,203926,204456,1610612766,1626179,1628370,1628407,1628970,203469,0021900539,3,2153,2153,2,0,1610612754
134,1610612754,1626167,1628410,203200,203926,204456,1610612766,1626179,1628370,1628407,1628970,203469,0021900539,3,2160,2160,0,0,1610612754
135,1610612754,1627734,203200,204456,1628410,203926,1610612766,1628970,202687,1626179,1628407,1628998,0021900539,4,2160,2170,0,0,1610612754
136,1610612754,1627734,203200,204456,1628410,203926,1610612766,1628970,202687,1626179,1628407,1628998,0021900539,4,2183,2183,0,2,1610612766
137,1610612754,1627734,203200,204456,1628410,203926,1610612766,1628970,202687,1626179,1628407,1628998,0021900539,4,2201,2201,0,0,1610612754
138,1610612754,1627734,203200,204456,1628410,203926,1610612766,1628970,202687,1626179,1628407,1628998,0021900539,4,2216,2219,0,0,1610612766
139,1610612754,1627734,203200,204456,1628410,203926,1610612766,1628970,202687,1626179,1628407,1628998,0021900539,4,2237,2237,3,0,1610612754
140,1610612754,1627734,203200,204456,1628410,203926,1610612766,1628970,202687,1626179,1628407,1628998,0021900539,4,2254,2254,0,2,1610612766
141,1610612754,1627734,203200,204456,1628410,203926,1610612766,1628970,202687,1626179,1628407,1628998,0021900539,4,2267,2267,0,0,1610612754
142,1610612754,1627734,203200,204456,1628410,203926,1610612766,1628970,202687,1626179,1628407,1628998,0021900539,4,2270,2275,0,2,1610612766
143,1610612754,1627734,203200,204456,1628410,203926,1610612766,1628970,202687,1626179,1628407,1628998,0021900539,4,2275,2286,2,0,1610612754
144,1610612754,1627734,203200,204456,1628410,203926,1610612766,1628970,202687,1626179,1628407,1628998,0021900539,4,2295,2309,0,4,1610612766
145,1610612754,1627734,203200,204456,1628410,203926,1610612766,1628970,202687,1626179,1628407,1628998,0021900539,4,2311,2334,0,0,1610612754
146,1610612754,1627734,1628410,203926,203933,204456,1610612766,1628970,202687,1626179,1628407,1628998,0021900539,4,2351,2351,0,2,1610612766
147,1610612754,1627734,1628410,203926,203933,204456,1610612766,1628970,202687,1626179,1628407,1628998,0021900539,4,2366,2366,3,0,1610612754
148,1610612754,1627734,203087,203926,203933,204456,1610612766,1628970,202687,1626179,1628407,1628998,0021900539,4,2379,2379,0,2,1610612766
149,1610612754,1627734,203087,203926,203933,204456,1610612766,1628970,202687,1626179,1628407,1628998,0021900539,4,2399,2399,2,0,1610612754
150,1610612754,1627734,203087,203926,203933,204456,1610612766,1628970,202687,1626179,1628407,1628998,0021900539,4,2420,2420,0,0,1610612766
151,1610612754,1627734,203087,203926,203933,204456,1610612766,1628970,202687,1626179,1628407,1628998,0021900539,4,2438,2438,2,0,1610612754
152,1610612754,1627734,203087,203926,203933,204456,1610612766,1628970,202687,1626179,1628407,1628998,0021900539,4,2451,2454,0,0,1610612766
153,1610612754,1627734,203087,203926,203933,204456,1610612766,1628970,202687,1626179,1628407,1628998,0021900539,4,2467,2467,2,0,1610612754
154,1610612754,1627734,203087,203926,203933,204456,1610612766,1628970,202687,1626179,1628407,1628998,0021900539,4,2469,2479,0,2,1610612766
155,1610612754,1626167,203087,203926,203933,204456,1610612766,1626179,1628984,1628998,1629023,203469,0021900539,4,2497,2497,3,0,1610612754
156,1610612754,1626167,203087,203926,203933,204456,1610612766,1626179,1628984,1628998,1629023,203469,0021900539,4,2511,2511,0,2,1610612766
157,1610612754,1626167,203087,203926,203933,204456,1610612766,1626179,1628984,1628998,1629023,203469,0021900539,4,2527,2527,2,0,1610612754
158,1610612754,1626167,203087,203926,203933,204456,1610612766,1626179,1628984,1628998,1629023,203469,0021900539,4,2539,2544,0,2,1610612766
159,1610612754,1626167,203087,203926,203933,204456,1610612766,1626179,1628984,1628998,1629023,203469,0021900539,4,2561,2561,3,0,1610612754
160,1610612754,1626167,1627734,203087,203933,204456,1610612766,1626179,1628984,1628998,1629023,203469,0021900539,4,2571,2573,0,2,1610612766
161,1610612754,1626167,1627734,203087,203933,204456,1610612766,1626179,1628984,1628998,1629023,203469,0021900539,4,2590,2595,2,0,1610612754
162,1610612754,1626167,1627734,203087,203933,204456,1610612766,1626179,1628984,1628998,1629023,203469,0021900539,4,2605,2605,0,1,1610612766
163,1610612754,1626167,1627734,203087,203933,204456,1610612766,1626179,1628970,1628984,1629023,203469,0021900539,4,2605,2629,0,0,1610612754
164,1610612754,1626167,1627734,203087,203933,204456,1610612766,1626179,1628970,1628984,1629023,203469,0021900539,4,2633,2633,0,2,1610612766
165,1610612754,1626167,1627734,203087,203933,204456,1610612766,1626179,1628970,1628984,1629023,203469,0021900539,4,2655,2655,0,0,1610612754
166,1610612754,1626167,1627734,203087,203933,204456,1610612766,1626179,1628970,1628984,1629023,203469,0021900539,4,2664,2664,0,2,1610612766
167,1610612754,1626167,1627734,1628988,203087,203933,1610612766,1626179,1628970,1628984,1629023,203469,0021900539,4,2683,2683,3,0,1610612754
168,1610612754,1626167,1627734,1628988,203087,203933,1610612766,1626179,1628970,1628984,1629023,203469,0021900539,4,2702,2702,0,3,1610612766
169,1610612754,1626167,1627734,1628988,203087,203933,1610612766,1626179,1628970,1628984,1629023,203469,0021900539,4,2729,2736,1,0,1610612754
170,1610612754,1626167,1627734,1628988,203087,203933,1610612766,1626179,1628970,1628984,1629023,203469,0021900539,4,2739,2746,0,3,1610612766
171,1610612754,1626167,1627734,1628988,203087,203933,1610612766,1626179,1628970,1628984,1629023,203469,0021900539,4,2768,2768,2,0,1610612754
172,1610612754,1626167,1627734,1628988,203087,203933,1610612766,1626179,1628970,1628984,1629023,203469,0021900539,4,2778,2778,0,2,1610612766
173,1610612754,1626167,1627734,1628988,203087,203933,1610612766,1626179,1628970,1628984,1628998,1629023,0021900539,4,2784,2784,3,0,1610612754
174,1610612754,1626167,1627734,1628988,203087,203933,1610612766,1626179,1628970,1628984,1628998,1629023,0021900539,4,2797,2797,0,2,1610612766
175,1610612754,1626167,1627734,1628988,203087,203933,1610612766,1626179,1628970,1628984,1628998,1629023,0021900539,4,2815,2819,1,0,1610612754
176,1610612754,1626167,1627734,1628988,203087,203933,1610612766,1626179,1628970,1628984,1628998,1629023,0021900539,4,2822,2822,0,2,1610612766
177,1610612754,1626167,1627734,1628988,203087,203933,1610612766,1626179,1628970,1628984,1628998,1629023,0021900539,4,2843,2843,2,0,1610612754
178,1610612754,1626167,1627734,1628988,203087,203933,1610612766,1626179,1628970,1628984,1628998,1629023,0021900539,4,2851,2855,0,0,1610612766
179,1610612754,1626167,1627734,1628988,203087,203933,1610612766,1626179,1628970,1628984,1628998,1629023,0021900539,4,2877,2877,0,0,1610612754
180,1610612754,1626167,1627734,1628988,203087,203933,1610612766,1626179,1628970,1628984,1628998,1629023,0021900539,4,2880,2880,0,0,1610612754
