,team1_id,team1_player1,team1_player2,team1_player3,team1_player4,team1_player5,team2_id,team2_player1,team2_player2,team2_player3,team2_player4,team2_player5,game_id,period,possession_start,possession_end,team1_points,team2_points,possession_team
0,1610612738,1628369,201143,1629057,1627759,203935,1610612753,1630532,1628976,1628964,1630175,1630591,0022100110,1,0,19,0,2,1610612753
1,1610612738,1628369,201143,1629057,1627759,203935,1610612753,1630532,1628976,1628964,1630175,1630591,0022100110,1,39,39,2,0,1610612738
2,1610612738,1628369,201143,1629057,1627759,203935,1610612753,1630532,1628976,1628964,1630175,1630591,0022100110,1,48,52,0,0,1610612753
3,1610612738,1628369,201143,1629057,1627759,203935,1610612753,1630532,1628976,1628964,1630175,1630591,0022100110,1,69,73,0,0,1610612738
4,1610612738,1628369,201143,1629057,1627759,203935,1610612753,1630532,1628976,1628964,1630175,1630591,0022100110,1,79,79,0,2,1610612753
5,1610612738,1628369,201143,1629057,1627759,203935,1610612753,1630532,1628976,1628964,1630175,1630591,0022100110,1,92,96,0,0,1610612738
6,1610612738,1628369,201143,1629057,1627759,203935,1610612753,1630532,1628976,1628964,1630175,1630591,0022100110,1,113,113,0,2,1610612753
7,1610612738,1628369,201143,1629057,1627759,203935,1610612753,1630532,1628976,1628964,1630175,1630591,0022100110,1,131,131,2,0,1610612738
8,1610612738,1628369,201143,1629057,1627759,203935,1610612753,1630532,1628976,1628964,1630175,1630591,0022100110,1,156,156,0,0,1610612753
9,1610612738,1628369,201143,1629057,1627759,203935,1610612753,1630532,1628976,1628964,1630175,1630591,0022100110,1,165,165,0,0,1610612738
10,1610612738,1628369,201143,1629057,1627759,203935,1610612753,1630532,1628976,1628964,1630175,1630591,0022100110,1,169,169,0,2,1610612753
11,1610612738,1628369,201143,1629057,1627759,203935,1610612753,1630532,1628976,1628964,1630175,1630591,0022100110,1,180,180,2,0,1610612738
12,1610612738,1628369,201143,1629057,1627759,203935,1610612753,1630532,1628976,1628964,1630175,1630591,0022100110,1,190,190,0,3,1610612753
13,1610612738,1628369,201143,1629057,1627759,203935,1610612753,1630532,1628976,1628964,1630175,1630591,0022100110,1,215,215,3,0,1610612738
14,1610612738,1628369,201143,1629057,1627759,203935,1610612753,1630532,1628976,1628964,1630175,1630591,0022100110,1,227,227,0,3,1610612753
15,1610612738,1628369,201143,1629057,1627759,203935,1610612753,1630532,1628976,1628964,1630175,1630591,0022100110,1,244,244,2,0,1610612738
16,1610612738,1628369,201143,1629057,1627759,203935,1610612753,1630532,1628976,1628964,1630175,1630591,0022100110,1,262,275,0,2,1610612753
17,1610612738,1628369,201143,1629057,1627759,203935,1610612753,1630532,1628976,1628964,1630175,1630591,0022100110,1,281,281,0,0,1610612738
18,1610612738,1628369,201143,1629057,1627759,203935,1610612753,1630532,1628976,1628964,1630175,1630591,0022100110,1,293,293,0,0,1610612753
19,1610612738,1628369,201143,1629057,1627759,203935,1610612753,1630532,1628976,1628964,1630175,1630591,0022100110,1,301,316,2,0,1610612738
20,1610612738,1627759,1628369,1629057,1629684,203935,1610612753,1628976,1629643,1630175,1630532,203082,0022100110,1,328,340,0,2,1610612753
21,1610612738,1627759,1628369,1629057,1629684,203935,1610612753,1628976,1629643,1630175,1630532,203082,0022100110,1,352,355,0,0,1610612738
22,1610612738,1627759,1628369,1629057,1629684,203935,1610612753,1628976,1629643,1630175,1630532,203082,0022100110,1,359,362,0,0,1610612753
23,1610612738,1627759,1628369,1629057,1629684,203935,1610612753,1628976,1629643,1630175,1630532,203082,0022100110,1,364,364,2,0,1610612738
24,1610612738,1627759,1628369,1629057,1629684,203935,1610612753,1628976,1629643,1630175,1630532,203082,0022100110,1,383,396,0,0,1610612753
25,1610612738,1626196,1627759,1629057,1629684,203471,1610612753,1628976,1629643,1630175,1630532,203082,0022100110,1,402,402,2,0,1610612738
26,1610612738,1626196,1627759,1629057,1629684,203471,1610612753,1628976,1629643,1630175,1630532,203082,0022100110,1,417,420,0,0,1610612753
27,1610612738,1626196,1627759,1629057,1629684,203471,1610612753,1628976,1629643,1630175,1630532,203082,0022100110,1,434,434,3,0,1610612738
28,1610612738,1626196,1627759,1629057,1629684,203471,1610612753,1628976,1629643,1630175,1630532,203082,0022100110,1,453,453,0,2,1610612753
29,1610612738,1626196,1627759,1629057,1629684,203471,1610612753,1628976,1629643,1630175,1630532,203082,0022100110,1,477,477,2,0,1610612738
30,1610612738,1626196,1627759,1629057,1629684,203471,1610612753,1628976,1629643,1630175,1630532,203082,0022100110,1,496,496,0,2,1610612753
31,1610612738,1626196,1627759,1629057,1629684,203471,1610612753,1628976,1629643,1630175,1630532,203082,0022100110,1,508,527,0,0,1610612738
32,1610612738,1626196,1627759,1629057,1629684,203471,1610612753,1628976,1629643,1630175,1630532,203082,0022100110,1,537,537,0,2,1610612753
33,1610612738,1626196,1627759,1629057,1629684,203471,1610612753,1628976,1629643,1630175,1630532,203082,0022100110,1,563,567,0,0,1610612738
34,1610612738,1626196,1627759,1629057,1629684,203471,1610612753,1628976,1629643,1630175,1630532,203082,0022100110,1,578,578,0,2,1610612753
35,1610612738,1626196,1629641,1629684,201143,203471,1610612753,1628964,1629643,1630175,1630181,203082,0022100110,1,586,586,3,0,1610612738
36,1610612738,1626196,1629641,1629684,201143,203471,1610612753,1628964,1629643,1630175,1630181,203082,0022100110,1,604,607,0,0,1610612753
37,1610612738,1626196,1629641,1629684,201143,203471,1610612753,1628964,1629643,1630175,1630181,203082,0022100110,1,612,626,1,0,1610612738
38,1610612738,1626196,1629641,1629684,201143,203471,1610612753,1628964,1629643,1630181,1630591,203082,0022100110,1,646,651,0,0,1610612753
39,1610612738,1626196,1629641,1629684,201143,203471,1610612753,1628964,1629643,1630181,1630591,203082,0022100110,1,655,659,0,0,1610612738
40,1610612738,1626196,1629641,1629684,201143,203471,1610612753,1628964,1629643,1630181,1630591,203082,0022100110,1,663,663,0,2,1610612753
41,1610612738,1626196,1629641,1629684,201143,203471,1610612753,1628964,1629643,1630181,1630591,203082,0022100110,1,677,680,0,0,1610612738
42,1610612738,1626196,1629641,1629684,201143,203471,1610612753,1628964,1629643,1630181,1630591,203082,0022100110,1,684,687,0,0,1610612753
43,1610612738,1626196,1629641,1629684,201143,203471,1610612753,1628964,1629643,1630181,1630591,203082,0022100110,1,693,696,0,0,1610612738
44,1610612738,1626196,1629641,1629684,201143,203471,1610612753,1628964,1629643,1630181,1630591,203082,0022100110,1,718,720,0,0,1610612753
45,1610612738,1628369,201143,203471,1626196,1629641,1610612753,1628976,1628964,1630591,203082,1630181,0022100110,2,720,749,0,0,1610612738
46,1610612738,1628369,201143,203471,1626196,1629641,1610612753,1628976,1628964,1630591,203082,1630181,0022100110,2,755,759,0,0,1610612753
47,1610612738,1628369,201143,203471,1626196,1629641,1610612753,1628976,1628964,1630591,203082,1630181,0022100110,2,764,770,0,0,1610612738
48,1610612738,1628369,201143,203471,1626196,1629641,1610612753,1628976,1628964,1630591,203082,1630181,0022100110,2,773,773,0,3,1610612753
49,1610612738,1628369,201143,203471,1626196,1629641,1610612753,1628976,1628964,1630591,203082,1630181,0022100110,2,791,791,0,0,1610612738
50,1610612738,1628369,201143,203471,1626196,1629641,1610612753,1628976,1628964,1630591,203082,1630181,0022100110,2,804,809,0,0,1610612753
51,1610612738,1628369,201143,203471,1626196,1629641,1610612753,1628976,1628964,1630591,203082,1630181,0022100110,2,816,816,3,0,1610612738
52,1610612738,1628369,201143,203471,1626196,1629641,1610612753,1628976,1628964,1630591,203082,1630181,0022100110,2,833,836,0,0,1610612753
53,1610612738,1628369,201143,203471,1626196,1629641,1610612753,1628976,1628964,1630591,203082,1630181,0022100110,2,841,841,2,0,1610612738
54,1610612738,1628369,201143,203471,1626196,1629641,1610612753,1628976,1628964,1630591,203082,1630181,0022100110,2,842,856,0,2,1610612753
55,1610612738,1628369,1629641,1630202,201143,203935,1610612753,1628976,1628964,1630591,203082,1630181,0022100110,2,869,871,0,0,1610612738
56,1610612738,1628369,1629641,1630202,201143,203935,1610612753,1628976,1628964,1630591,203082,1630181,0022100110,2,881,881,0,0,1610612753
57,1610612738,1628369,1629641,1630202,201143,203935,1610612753,1628976,1628964,1630591,203082,1630181,0022100110,2,897,900,0,0,1610612738
58,1610612738,1628369,1629641,1630202,201143,203935,1610612753,1628976,1628964,1630591,203082,1630181,0022100110,2,911,911,0,3,1610612753
59,1610612738,1628369,1629641,1630202,201143,203935,1610612753,1628976,1628964,1630591,203082,1630181,0022100110,2,921,926,0,0,1610612738
60,1610612738,1628369,1629641,1630202,201143,203935,1610612753,1628976,1628964,1630591,203082,1630181,0022100110,2,936,936,0,3,1610612753
61,1610612738,1628369,1629641,1630202,201143,203935,1610612753,1628976,1628964,1630591,203082,1630181,0022100110,2,937,950,0,0,1610612738
62,1610612738,1627759,1628369,1629057,1630202,203935,1610612753,1628964,1628976,1630181,1630532,1630591,0022100110,2,953,962,0,0,1610612753
63,1610612738,1627759,1628369,1629057,1630202,203935,1610612753,1628964,1628976,1630181,1630532,1630591,0022100110,2,976,976,2,0,1610612738
64,1610612738,1627759,1628369,1629057,1630202,203935,1610612753,1628964,1628976,1630181,1630532,1630591,0022100110,2,995,1003,0,0,1610612753
65,1610612738,1627759,1628369,1629057,1630202,203935,1610612753,1628964,1628976,1630181,1630532,1630591,0022100110,2,1008,1010,0,0,1610612738
66,1610612738,1627759,1628369,1629057,1630202,203935,1610612753,1628964,1628976,1630181,1630532,1630591,0022100110,2,1015,1016,0,0,1610612753
67,1610612738,1627759,1628369,1629057,1630202,203935,1610612753,1628964,1628976,1630181,1630532,1630591,0022100110,2,1030,1033,1,0,1610612738
68,1610612738,1627759,1628369,1629057,1630202,203935,1610612753,1628964,1628976,1630175,1630532,1630591,0022100110,2,1042,1058,0,0,1610612753
69,1610612738,1627759,1628369,1629057,1630202,203935,1610612753,1628964,1628976,1630175,1630532,1630591,0022100110,2,1065,1082,0,0,1610612738
70,1610612738,1627759,1628369,1629057,1630202,203935,1610612753,1628964,1628976,1630175,1630532,1630591,0022100110,2,1091,1093,0,0,1610612753
71,1610612738,1627759,1628369,1629057,1630202,203935,1610612753,1628964,1628976,1630175,1630532,1630591,0022100110,2,1109,1109,2,0,1610612738
72,1610612738,1627759,1628369,1629057,1630202,203935,1610612753,1628964,1628976,1630175,1630532,1630591,0022100110,2,1134,1134,0,2,1610612753
73,1610612738,1627759,1628369,1629057,1630202,203935,1610612753,1628964,1628976,1630175,1630532,1630591,0022100110,2,1148,1151,0,0,1610612738
74,1610612738,1627759,1628369,1629057,1630202,203935,1610612753,1628964,1628976,1630175,1630532,1630591,0022100110,2,1158,1163,0,0,1610612753
75,1610612738,1627759,1628369,1629057,1630202,203935,1610612753,1628964,1628976,1630175,1630532,1630591,0022100110,2,1169,1169,0,0,1610612738
76,1610612738,1627759,1628369,1629057,1630202,203935,1610612753,1628964,1628976,1630175,1630532,1630591,0022100110,2,1180,1194,0,3,1610612753
77,1610612738,1627759,1628369,1629057,1630202,203935,1610612753,1628964,1628976,1630175,1630532,203082,0022100110,2,1206,1206,3,0,1610612738
78,1610612738,1627759,1628369,1629057,1630202,203935,1610612753,1628964,1628976,1630175,1630532,203082,0022100110,2,1217,1217,0,2,1610612753
79,1610612738,1627759,1628369,1629057,1630202,203935,1610612753,1628964,1628976,1630175,1630532,203082,0022100110,2,1231,1235,0,0,1610612738
80,1610612738,1627759,1628369,1629057,1630202,203935,1610612753,1628964,1628976,1630175,1630532,203082,0022100110,2,1256,1256,0,0,1610612753
81,1610612738,1627759,1628369,1629057,1630202,203935,1610612753,1628964,1628976,1630175,1630532,203082,0022100110,2,1269,1269,3,0,1610612738
82,1610612738,1627759,1628369,1629057,1630202,203935,1610612753,1628964,1628976,1630175,1630532,203082,0022100110,2,1274,1287,0,0,1610612753
83,1610612738,1627759,1628369,201143,203471,203935,1610612753,1629021,1629643,1630175,1630532,203082,0022100110,2,1287,1325,0,0,1610612738
84,1610612738,1627759,1628369,201143,203471,203935,1610612753,1629021,1629643,1630175,1630532,203082,0022100110,2,1337,1341,0,0,1610612753
85,1610612738,1627759,1628369,201143,203471,203935,1610612753,1629021,1629643,1630175,1630532,203082,0022100110,2,1352,1356,0,0,1610612738
86,1610612738,1627759,1628369,201143,203471,203935,1610612753,1629021,1629643,1630175,1630532,203082,0022100110,2,1364,1367,0,0,1610612753
87,1610612738,1627759,1628369,201143,203471,203935,1610612753,1629021,1629643,1630175,1630532,203082,0022100110,2,1376,1384,0,0,1610612738
88,1610612738,1627759,1628369,201143,203471,203935,1610612753,1629021,1629643,1630175,1630532,203082,0022100110,2,1406,1406,0,0,1610612753
89,1610612738,1627759,1628369,201143,203471,203935,1610612753,1629021,1629643,1630175,1630532,203082,0022100110,2,1412,1412,2,0,1610612738
90,1610612738,1627759,1628369,201143,203471,203935,1610612753,1629021,1629643,1630175,1630532,203082,0022100110,2,1427,1440,0,0,1610612753
91,1610612738,1628369,201143,1629057,1627759,203935,1610612753,1630532,1628976,1628964,1630175,1630591,0022100110,3,1440,1452,0,0,1610612738
92,1610612738,1628369,201143,1629057,1627759,203935,1610612753,1630532,1628976,1628964,1630175,1630591,0022100110,3,1452,1475,0,0,1610612753
93,1610612738,1628369,201143,1629057,1627759,203935,1610612753,1630532,1628976,1628964,1630175,1630591,0022100110,3,1481,1484,0,0,1610612738
94,1610612738,1628369,201143,1629057,1627759,203935,1610612753,1630532,1628976,1628964,1630175,1630591,0022100110,3,1489,1502,0,0,1610612753
95,1610612738,1628369,201143,1629057,1627759,203935,1610612753,1630532,1628976,1628964,1630175,1630591,0022100110,3,1508,1508,2,0,1610612738
96,1610612738,1628369,201143,1629057,1627759,203935,1610612753,1630532,1628976,1628964,1630175,1630591,0022100110,3,1524,1527,0,0,1610612753
97,1610612738,1628369,201143,1629057,1627759,203935,1610612753,1630532,1628976,1628964,1630175,1630591,0022100110,3,1531,1531,3,0,1610612738
98,1610612738,1628369,201143,1629057,1627759,203935,1610612753,1630532,1628976,1628964,1630175,1630591,0022100110,3,1545,1548,0,0,1610612753
99,1610612738,1628369,201143,1629057,1627759,203935,1610612753,1630532,1628976,1628964,1630175,1630591,0022100110,3,1558,1558,2,0,1610612738
100,1610612738,1628369,201143,1629057,1627759,203935,1610612753,1630532,1628976,1628964,1630175,1630591,0022100110,3,1575,1578,0,0,1610612753
101,1610612738,1628369,201143,1629057,1627759,203935,1610612753,1630532,1628976,1628964,1630175,1630591,0022100110,3,1582,1582,0,0,1610612738
102,1610612738,1628369,201143,1629057,1627759,203935,1610612753,1630532,1628976,1628964,1630175,1630591,0022100110,3,1606,1608,0,0,1610612753
103,1610612738,1628369,201143,1629057,1627759,203935,1610612753,1630532,1628976,1628964,1630175,1630591,0022100110,3,1619,1619,2,0,1610612738
104,1610612738,1628369,201143,1629057,1627759,203935,1610612753,1630532,1628976,1628964,1630175,1630591,0022100110,3,1637,1637,0,0,1610612753
105,1610612738,1628369,201143,1629057,1627759,203935,1610612753,1630532,1628976,1628964,1630175,1630591,0022100110,3,1639,1646,0,0,1610612738
106,1610612738,1628369,201143,1629057,1627759,203935,1610612753,1630532,1628976,1628964,1630175,1630591,0022100110,3,1655,1658,0,0,1610612753
107,1610612738,1628369,201143,1629057,1627759,203935,1610612753,1630532,1628976,1628964,1630175,1630591,0022100110,3,1668,1668,2,0,1610612738
108,1610612738,1628369,201143,1629057,1627759,203935,1610612753,1630532,1628976,1628964,1630175,1630591,0022100110,3,1668,1690,0,0,1610612753
109,1610612738,1628369,201143,1629057,1627759,203935,1610612753,1630532,1628976,1628964,1630175,1630591,0022100110,3,1712,1722,0,0,1610612738
110,1610612738,1628369,201143,1629057,1627759,203935,1610612753,1630532,1628976,1628964,1630175,1630591,0022100110,3,1744,1747,0,0,1610612753
111,1610612738,1628369,201143,1629057,1627759,203935,1610612753,1630532,1628976,1628964,1630175,1630591,0022100110,3,1755,1755,3,0,1610612738
112,1610612738,1628369,201143,1629057,1627759,203935,1610612753,1630532,1628976,1628964,1630175,1630591,0022100110,3,1781,1784,0,0,1610612753
113,1610612738,1628369,201143,1629057,1627759,203935,1610612753,1630532,1628976,1628964,1630175,1630591,0022100110,3,1789,1789,2,0,1610612738
114,1610612738,1628369,201143,1629057,1627759,203935,1610612753,1630532,1628976,1628964,1630175,1630591,0022100110,3,1801,1801,0,1,1610612753
115,1610612738,1627759,1629057,1629641,203471,203935,1610612753,1628964,1628976,1630175,1630532,203082,0022100110,3,1815,1815,2,0,1610612738
116,1610612738,1627759,1629057,1629641,203471,203935,1610612753,1628964,1628976,1630175,1630532,203082,0022100110,3,1827,1827,0,3,1610612753
117,1610612738,1627759,1629057,1629641,203471,203935,1610612753,1628964,1628976,1630175,1630532,203082,0022100110,3,1849,1852,0,0,1610612738
118,1610612738,1627759,1629057,1629641,203471,203935,1610612753,1628964,1628976,1630175,1630532,203082,0022100110,3,1863,1881,0,0,1610612753
119,1610612738,1626196,1629057,1629641,203471,203935,1610612753,1628964,1629643,1630175,1630532,203082,0022100110,3,1881,1904,3,0,1610612738
120,1610612738,1626196,1629057,1629641,203471,203935,1610612753,1628964,1629643,1630175,1630532,203082,0022100110,3,1929,1932,0,0,1610612753
121,1610612738,1626196,1629057,1629641,203471,203935,1610612753,1628964,1629643,1630175,1630532,203082,0022100110,3,1938,1944,2,0,1610612738
122,1610612738,1626196,1629057,1629641,203471,203935,1610612753,1628964,1629643,1630175,1630532,203082,0022100110,3,1946,1965,0,0,1610612753
123,1610612738,1626196,1629057,1629641,203471,203935,1610612753,1629021,1629643,1630175,1630181,203082,0022100110,3,1977,1977,2,0,1610612738
124,1610612738,1626196,1629057,1629641,203471,203935,1610612753,1629021,1629643,1630175,1630181,203082,0022100110,3,2000,2000,0,2,1610612753
125,1610612738,1626196,1629641,201143,203471,203935,1610612753,1629021,1629643,1630175,1630181,203082,0022100110,3,2019,2019,2,0,1610612738
126,1610612738,1626196,1629641,201143,203471,203935,1610612753,1629021,1629643,1630175,1630181,203082,0022100110,3,2036,2040,0,0,1610612753
127,1610612738,1626196,1629641,201143,203471,203935,1610612753,1629021,1629643,1630175,1630181,203082,0022100110,3,2044,2044,2,0,1610612738
128,1610612738,1626196,1629641,201143,203471,203935,1610612753,1629021,1629643,1630175,1630181,203082,0022100110,3,2065,2065,0,2,1610612753
129,1610612738,1626196,1629641,201143,203471,203935,1610612753,1629021,1629643,1630175,1630181,203082,0022100110,3,2083,2083,2,0,1610612738
130,1610612738,1626196,1629641,201143,203471,203935,1610612753,1629021,1629643,1630175,1630181,203082,0022100110,3,2100,2100,0,0,1610612753
131,1610612738,1626196,1629641,201143,203471,203935,1610612753,1629021,1629643,1630175,1630181,203082,0022100110,3,2101,2101,0,0,1610612738
132,1610612738,1626196,1629641,201143,203471,203935,1610612753,1629021,1629643,1630175,1630181,203082,0022100110,3,2113,2117,0,0,1610612753
133,1610612738,1626196,1629641,201143,203471,203935,1610612753,1629021,1629643,1630175,1630181,203082,0022100110,3,2130,2130,0,0,1610612738
134,1610612738,1626196,1629641,201143,203471,203935,1610612753,1629021,1629643,1630175,1630181,203082,0022100110,3,2134,2134,0,0,1610612753
135,1610612738,1626196,1629641,201143,203471,203935,1610612753,1629021,1629643,1630175,1630181,203082,0022100110,3,2151,2151,0,0,1610612738
136,1610612738,1626196,1629641,201143,203471,203935,1610612753,1629021,1629643,1630175,1630181,203082,0022100110,3,2157,2157,0,2,1610612753
137,1610612738,1628369,201143,203471,1626196,1629641,1610612753,1628976,1628964,1630591,203082,1630181,0022100110,4,2160,2191,0,0,1610612753
138,1610612738,1628369,201143,203471,1626196,1629641,1610612753,1628976,1628964,1630591,203082,1630181,0022100110,4,2191,2191,2,0,1610612738
139,1610612738,1628369,201143,203471,1626196,1629641,1610612753,1628976,1628964,1630591,203082,1630181,0022100110,4,2199,2201,0,1,1610612753
140,1610612738,1628369,201143,203471,1626196,1629641,1610612753,1628976,1628964,1630591,203082,1630181,0022100110,4,2214,2214,3,0,1610612738
141,1610612738,1628369,201143,203471,1626196,1629641,1610612753,1628976,1628964,1630591,203082,1630181,0022100110,4,2223,2223,0,0,1610612753
142,1610612738,1628369,201143,203471,1626196,1629641,1610612753,1628976,1628964,1630591,203082,1630181,0022100110,4,2248,2248,0,0,1610612738
143,1610612738,1628369,201143,203471,1626196,1629641,1610612753,1628976,1628964,1630591,203082,1630181,0022100110,4,2266,2269,0,0,1610612753
144,1610612738,1628369,201143,203471,1626196,1629641,1610612753,1628976,1628964,1630591,203082,1630181,0022100110,4,2272,2272,0,0,1610612738
145,1610612738,1628369,201143,203471,1626196,1629641,1610612753,1628976,1628964,1630591,203082,1630181,0022100110,4,2285,2285,0,2,1610612753
146,1610612738,1628369,201143,203471,1626196,1629641,1610612753,1628976,1628964,1630591,203082,1630181,0022100110,4,2308,2311,0,0,1610612738
147,1610612738,1628369,201143,203471,1626196,1629641,1610612753,1628976,1628964,1630591,203082,1630181,0022100110,4,2315,2317,0,2,1610612753
148,1610612738,1626196,1627759,1628369,201143,203471,1610612753,1628976,1628964,1630591,203082,1630181,0022100110,4,2327,2329,1,0,1610612738
149,1610612738,1626196,1627759,1628369,201143,203471,1610612753,1628976,1628964,1630591,203082,1630181,0022100110,4,2344,2344,0,0,1610612753
150,1610612738,1626196,1627759,1628369,201143,203471,1610612753,1628976,1628964,1630591,203082,1630181,0022100110,4,2349,2349,2,0,1610612738
151,1610612738,1626196,1627759,1628369,201143,203471,1610612753,1628976,1628964,1630591,203082,1630181,0022100110,4,2366,2369,0,0,1610612753
152,1610612738,1626196,1627759,1628369,201143,203471,1610612753,1628976,1628964,1630591,203082,1630181,0022100110,4,2381,2384,0,0,1610612738
153,1610612738,1626196,1627759,1628369,201143,203471,1610612753,1628976,1628964,1630591,203082,1630181,0022100110,4,2392,2397,0,0,1610612753
154,1610612738,1626196,1627759,1628369,201143,203471,1610612753,1628976,1628964,1630591,203082,1630181,0022100110,4,2400,2402,1,0,1610612738
155,1610612738,1626196,1627759,1628369,1629057,203471,1610612753,1628976,1629643,1630175,1630532,203082,0022100110,4,2414,2414,0,2,1610612753
156,1610612738,1626196,1627759,1628369,1629057,203471,1610612753,1628976,1629643,1630175,1630532,203082,0022100110,4,2438,2460,0,0,1610612738
157,1610612738,1626196,1627759,1628369,1629057,203471,1610612753,1628976,1629643,1630175,1630532,203082,0022100110,4,2466,2475,0,2,1610612753
158,1610612738,1626196,1627759,1628369,1629057,203471,1610612753,1628976,1629643,1630175,1630532,203082,0022100110,4,2496,2508,0,0,1610612738
159,1610612738,1627759,1628369,1629057,203471,203935,1610612753,1628976,1629643,1630175,1630532,203082,0022100110,4,2519,2519,0,2,1610612753
160,1610612738,1627759,1628369,1629057,203471,203935,1610612753,1628976,1629643,1630175,1630532,203082,0022100110,4,2542,2545,0,0,1610612738
161,1610612738,1627759,1628369,1629057,203471,203935,1610612753,1628976,1629643,1630175,1630532,203082,0022100110,4,2549,2560,0,2,1610612753
162,1610612738,1627759,1628369,1629057,203471,203935,1610612753,1628976,1629643,1630175,1630532,203082,0022100110,4,2560,2603,0,0,1610612738
163,1610612738,1627759,1628369,1629057,203471,203935,1610612753,1628976,1629643,1630175,1630532,203082,0022100110,4,2612,2616,0,0,1610612753
164,1610612738,1627759,1628369,1629057,203471,203935,1610612753,1628976,1629643,1630175,1630532,203082,0022100110,4,2628,2631,0,0,1610612738
165,1610612738,1627759,1628369,1629057,203471,203935,1610612753,1628964,1628976,1630175,1630181,1630532,0022100110,4,2641,2641,0,1,1610612753
166,1610612738,1627759,1628369,1629057,203471,203935,1610612753,1628964,1628976,1630175,1630181,1630532,0022100110,4,2654,2654,1,0,1610612738
167,1610612738,1627759,1628369,1629057,203471,203935,1610612753,1628539,1628976,1630175,1630181,1630532,0022100110,4,2664,2668,0,0,1610612753
168,1610612738,1627759,1628369,1629057,203471,203935,1610612753,1628539,1628976,1630175,1630181,1630532,0022100110,4,2678,2678,2,0,1610612738
169,1610612738,1627759,1628369,1629057,203471,203935,1610612753,1628539,1628976,1630175,1630181,1630532,0022100110,4,2693,2698,0,0,1610612753
170,1610612738,1627759,1628369,1629057,203471,203935,1610612753,1628539,1628976,1630175,1630181,1630532,0022100110,4,2707,2707,0,0,1610612738
171,1610612738,1627759,1628369,1629057,203471,203935,1610612753,1628539,1628976,1630175,1630181,1630532,0022100110,4,2708,2708,0,0,1610612753
172,1610612738,1627759,1628369,1629057,203471,203935,1610612753,1628539,1629021,1629649,1630175,1630181,0022100110,4,2722,2722,2,0,1610612738
173,1610612738,1627759,1628369,1629057,203471,203935,1610612753,1628539,1629021,1629649,1630175,1630181,0022100110,4,2731,2731,0,0,1610612753
174,1610612738,1627759,1628369,1629057,203471,203935,1610612753,1628539,1629021,1629649,1630175,1630181,0022100110,4,2731,2734,0,0,1610612738
175,1610612738,1628981,1630174,1630202,203471,203935,1610612753,1628539,1629021,1629649,1630175,1630181,0022100110,4,2750,2752,0,0,1610612753
176,1610612738,1628981,1630174,1630202,203471,203935,1610612753,1628539,1629021,1629649,1630175,1630181,0022100110,4,2761,2761,3,0,1610612738
177,1610612738,1628981,1630174,1630202,203471,203935,1610612753,1628539,1629021,1629649,1630175,1630181,0022100110,4,2762,2781,0,1,1610612753
178,1610612738,1627823,1628981,1629641,1630174,1630202,1610612753,1628539,1629021,1629649,1630175,1630181,0022100110,4,2781,2781,0,0,1610612738
179,1610612738,1627823,1628981,1629641,1630174,1630202,1610612753,1628539,1629021,1629649,1630175,1630181,0022100110,4,2788,2792,0,0,1610612753
180,1610612738,1627823,1628981,1629641,1630174,1630202,1610612753,1628539,1629021,1629649,1630175,1630181,0022100110,4,2805,2809,0,0,1610612738
181,1610612738,1627823,1628981,1629641,1630174,1630202,1610612753,1628539,1629021,1629649,1630175,1630181,0022100110,4,2814,2814,0,3,1610612753
182,1610612738,1627823,1628981,1629641,1630174,1630202,1610612753,1628539,1629021,1629649,1630175,1630181,0022100110,4,2832,2834,0,0,1610612738
183,1610612738,1627823,1628981,1629641,1630174,1630202,1610612753,1628539,1629021,1629649,1630175,1630181,0022100110,4,2839,2839,0,3,1610612753
184,1610612738,1627823,1628981,1629641,1630174,1630202,1610612753,1628539,1629021,1629649,1630175,1630181,0022100110,4,2860,2863,0,0,1610612738
185,1610612738,1627823,1628981,1629641,1630174,1630202,1610612753,1628539,1629021,1629649,1630175,1630181,0022100110,4,2870,2870,0,2,1610612753
