,team1_id,team1_player1,team1_player2,team1_player3,team1_player4,team1_player5,team2_id,team2_player1,team2_player2,team2_player3,team2_player4,team2_player5,game_id,period,possession_start,possession_end,team1_points,team2_points,possession_team
0,1610612749,203114,101141,201572,202083,201588,1610612764,1629067,1629060,1628418,203078,1629620,0011900051,1,0,23,3,0,1610612749
1,1610612749,203114,101141,201572,202083,201588,1610612764,1629067,1629060,1628418,203078,1629620,0011900051,1,32,35,0,0,1610612764
2,1610612749,203114,101141,201572,202083,201588,1610612764,1629067,1629060,1628418,203078,1629620,0011900051,1,43,43,0,0,1610612749
3,1610612749,203114,101141,201572,202083,201588,1610612764,1629067,1629060,1628418,203078,1629620,0011900051,1,45,45,0,0,1610612764
4,1610612749,203114,101141,201572,202083,201588,1610612764,1629067,1629060,1628418,203078,1629620,0011900051,1,63,63,0,0,1610612749
5,1610612749,203114,101141,201572,202083,201588,1610612764,1629067,1629060,1628418,203078,1629620,0011900051,1,77,80,0,0,1610612764
6,1610612749,203114,101141,201572,202083,201588,1610612764,1629067,1629060,1628418,203078,1629620,0011900051,1,88,88,2,0,1610612749
7,1610612749,203114,101141,201572,202083,201588,1610612764,1629067,1629060,1628418,203078,1629620,0011900051,1,104,104,0,2,1610612764
8,1610612749,203114,101141,201572,202083,201588,1610612764,1629067,1629060,1628418,203078,1629620,0011900051,1,115,115,0,0,1610612749
9,1610612749,203114,101141,201572,202083,201588,1610612764,1629067,1629060,1628418,203078,1629620,0011900051,1,129,134,0,0,1610612764
10,1610612749,203114,101141,201572,202083,201588,1610612764,1629067,1629060,1628418,203078,1629620,0011900051,1,139,139,3,0,1610612749
11,1610612749,203114,101141,201572,202083,201588,1610612764,1629067,1629060,1628418,203078,1629620,0011900051,1,150,166,0,0,1610612764
12,1610612749,203114,101141,201572,202083,201588,1610612764,1629067,1629060,1628418,203078,1629620,0011900051,1,182,186,2,0,1610612749
13,1610612749,203114,101141,201572,202083,201588,1610612764,1629067,1629060,1628418,203078,1629620,0011900051,1,196,196,0,3,1610612764
14,1610612749,203114,101141,201572,202083,201588,1610612764,1629067,1629060,1628418,203078,1629620,0011900051,1,214,223,0,0,1610612749
15,1610612749,203114,101141,201572,202083,201588,1610612764,1629067,1629060,1628418,203078,1629620,0011900051,1,228,231,0,0,1610612764
16,1610612749,203114,101141,201572,202083,201588,1610612764,1629067,1629060,1628418,203078,1629620,0011900051,1,236,244,3,0,1610612749
17,1610612749,203114,101141,201572,202083,201588,1610612764,1629067,1629060,1628418,203078,1629620,0011900051,1,246,266,0,0,1610612764
18,1610612749,203114,101141,201572,202083,201588,1610612764,1629067,1629060,1628418,203078,1629620,0011900051,1,272,277,0,0,1610612749
19,1610612749,203114,101141,201572,202083,201588,1610612764,1629067,1629060,1628418,203078,1629620,0011900051,1,281,288,0,0,1610612764
20,1610612749,203114,101141,201572,202083,201588,1610612764,1629067,1629060,1628418,203078,1629620,0011900051,1,294,294,2,0,1610612749
21,1610612749,203114,101141,201572,202083,201588,1610612764,1629067,1629060,1628418,203078,1629620,0011900051,1,309,309,0,3,1610612764
22,1610612749,203114,101141,201572,202083,201588,1610612764,1629067,1629060,1628418,203078,1629620,0011900051,1,331,334,0,0,1610612749
23,1610612749,203114,101141,201572,202083,201588,1610612764,1629067,1629060,1628418,203078,1629620,0011900051,1,336,349,0,2,1610612764
24,1610612749,101141,201572,201588,203114,2594,1610612764,1629067,1629060,1628418,203078,1629620,0011900051,1,363,366,0,0,1610612749
25,1610612749,101141,201572,201588,203114,2594,1610612764,1629067,1629060,1628418,203078,1629620,0011900051,1,367,369,0,0,1610612764
26,1610612749,201572,201588,203114,203648,2594,1610612764,1629067,1629060,1628418,203078,1629620,0011900051,1,386,388,0,0,1610612749
27,1610612749,201572,201588,203114,203648,2594,1610612764,1629067,1629060,1628418,203078,1629620,0011900051,1,392,394,0,0,1610612764
28,1610612749,201572,201588,203114,203648,2594,1610612764,1629067,1629060,1628418,203078,1629620,0011900051,1,413,413,2,0,1610612749
29,1610612749,201572,201588,203114,203648,2594,1610612764,1629067,1629060,1628418,203078,1629620,0011900051,1,413,429,0,0,1610612764
30,1610612749,1627733,1628412,1628978,203648,2594,1610612764,1628418,1629060,1629620,202722,203078,0011900051,1,430,430,0,0,1610612749
31,1610612749,1627733,1628412,1628978,203648,2594,1610612764,1628418,1629060,1629620,202722,203078,0011900051,1,439,439,0,0,1610612764
32,1610612749,1627733,1628412,1628978,203648,2594,1610612764,1628418,1629060,1629620,202722,203078,0011900051,1,451,451,0,0,1610612749
33,1610612749,1627733,1628412,1628978,203648,2594,1610612764,1628418,1629060,1629620,202722,203078,0011900051,1,464,476,0,0,1610612764
34,1610612749,1627733,1628412,1628978,203648,2594,1610612764,1628418,1629060,1629620,202722,203078,0011900051,1,482,484,0,0,1610612749
35,1610612749,1627733,1628412,1628978,203648,2594,1610612764,1628418,1629060,1629620,202722,203078,0011900051,1,493,493,0,3,1610612764
36,1610612749,1627733,1628412,1628978,203648,2594,1610612764,1628418,1629060,1629620,202722,203078,0011900051,1,511,512,0,0,1610612749
37,1610612749,1627733,1628412,1628978,203648,2594,1610612764,1628418,1629060,1629620,202722,203078,0011900051,1,524,524,0,3,1610612764
38,1610612749,1627733,1628412,1628978,203648,2594,1610612764,1628418,1629060,1629620,202722,203078,0011900051,1,542,542,3,0,1610612749
39,1610612749,1627733,1628412,1628978,203648,2594,1610612764,1628418,1629060,1629620,202722,203078,0011900051,1,560,563,0,1,1610612764
40,1610612749,1627733,1628412,1628978,203648,2594,1610612764,1628418,1629060,1629185,1629678,202722,0011900051,1,570,570,0,0,1610612749
41,1610612749,1627733,1628412,1628978,203648,2594,1610612764,1629021,1629060,1629185,1629678,202722,0011900051,1,585,585,0,0,1610612764
42,1610612749,1627733,1628412,1628978,203648,2594,1610612764,1629021,1629060,1629185,1629678,202722,0011900051,1,585,600,2,0,1610612749
43,1610612749,1627733,1628412,1628978,203648,2594,1610612764,1626147,1629021,1629185,1629678,202722,0011900051,1,607,607,0,3,1610612764
44,1610612749,1627733,1628412,1628978,203648,2594,1610612764,1626147,1629021,1629185,1629678,202722,0011900051,1,621,621,0,0,1610612749
45,1610612749,1627733,1628412,1628978,202083,203648,1610612764,1626147,1629021,1629185,1629678,202722,0011900051,1,630,630,0,3,1610612764
46,1610612749,1627733,1628412,1628978,202083,203648,1610612764,1626147,1629021,1629185,1629678,202722,0011900051,1,643,643,2,0,1610612749
47,1610612749,1627733,1628412,1628978,202083,203648,1610612764,1626147,1629021,1629185,1629678,202722,0011900051,1,653,655,0,1,1610612764
48,1610612749,1627733,1628412,1628978,202083,203648,1610612764,1626147,1629021,1629185,1629678,202722,0011900051,1,673,676,0,0,1610612749
49,1610612749,1627733,1628412,1628978,202083,203648,1610612764,1626147,1629021,1629185,1629678,202722,0011900051,1,686,686,0,2,1610612764
50,1610612749,1627733,1628412,1628978,202083,203648,1610612764,1626147,1629021,1629185,1629678,202722,0011900051,1,692,694,1,0,1610612749
51,1610612749,1627733,1628412,1628978,202083,203648,1610612764,1626147,1629021,1629185,1629678,202722,0011900051,1,709,712,0,0,1610612764
52,1610612749,1627733,1628412,1628978,202083,203648,1610612764,1626147,1629021,1629185,1629678,202722,0011900051,1,717,717,2,0,1610612749
53,1610612749,1627733,1628412,1628978,202083,203648,1610612764,1626147,1629021,1629185,1629678,202722,0011900051,1,720,720,0,0,1610612749
54,1610612749,203114,201572,202083,201588,1628425,1610612764,202722,1629185,1629678,1629021,1626147,0011900051,2,720,730,0,0,1610612764
55,1610612749,203114,201572,202083,201588,1628425,1610612764,202722,1629185,1629678,1629021,1626147,0011900051,2,745,745,2,0,1610612749
56,1610612749,203114,201572,202083,201588,1628425,1610612764,202722,1629185,1629678,1629021,1626147,0011900051,2,753,753,0,2,1610612764
57,1610612749,203114,201572,202083,201588,1628425,1610612764,202722,1629185,1629678,1629021,1626147,0011900051,2,766,771,0,0,1610612749
58,1610612749,203114,201572,202083,201588,1628425,1610612764,202722,1629185,1629678,1629021,1626147,0011900051,2,777,783,0,3,1610612764
59,1610612749,203114,201572,202083,201588,1628425,1610612764,202722,1629185,1629678,1629021,1626147,0011900051,2,800,800,3,0,1610612749
60,1610612749,203114,201572,202083,201588,1628425,1610612764,202722,1629185,1629678,1629021,1626147,0011900051,2,807,810,0,0,1610612764
61,1610612749,203114,201572,202083,201588,1628425,1610612764,202722,1629185,1629678,1629021,1626147,0011900051,2,831,831,0,0,1610612749
62,1610612749,203114,201572,202083,201588,1628425,1610612764,202722,1629185,1629678,1629021,1626147,0011900051,2,836,836,0,2,1610612764
63,1610612749,203114,201572,202083,201588,1628425,1610612764,202722,1629185,1629678,1629021,1626147,0011900051,2,847,851,0,0,1610612749
64,1610612749,203114,201572,202083,201588,1628425,1610612764,202722,1629185,1629678,1629021,1626147,0011900051,2,854,857,0,0,1610612764
65,1610612749,203114,201572,202083,201588,1628425,1610612764,202722,1629185,1629678,1629021,1626147,0011900051,2,867,869,0,0,1610612749
66,1610612749,203114,201572,202083,201588,1628425,1610612764,202722,1629185,1629678,1629021,1626147,0011900051,2,881,883,0,0,1610612764
67,1610612749,203114,201572,202083,201588,1628425,1610612764,202722,1629185,1629678,1629021,1626147,0011900051,2,890,904,0,0,1610612749
68,1610612749,203114,201572,202083,201588,1628425,1610612764,202722,1629185,1629678,1629021,1626147,0011900051,2,909,912,0,0,1610612764
69,1610612749,203114,201572,202083,201588,1628425,1610612764,202722,1629185,1629678,1629021,1626147,0011900051,2,919,919,0,0,1610612749
70,1610612749,203114,201572,202083,201588,1628425,1610612764,202722,1629185,1629678,1629021,1626147,0011900051,2,932,935,0,0,1610612764
71,1610612749,203114,201572,202083,201588,1628425,1610612764,202722,1629185,1629678,1629021,1626147,0011900051,2,946,950,0,0,1610612749
72,1610612749,203114,201572,202083,201588,1628425,1610612764,202722,1629185,1629678,1629021,1626147,0011900051,2,957,957,0,3,1610612764
73,1610612749,203114,201572,202083,201588,1628425,1610612764,1628418,1629021,1629185,202722,203078,0011900051,2,970,974,0,0,1610612749
74,1610612749,203114,201572,202083,201588,1628425,1610612764,1628418,1629021,1629185,202722,203078,0011900051,2,991,991,0,3,1610612764
75,1610612749,203114,201572,202083,201588,1628425,1610612764,1628418,1629021,1629185,202722,203078,0011900051,2,991,991,0,3,1610612764
76,1610612749,203114,201572,202083,201588,1628425,1610612764,1628418,1629021,1629185,202722,203078,0011900051,2,1003,1005,0,0,1610612749
77,1610612749,203114,201572,202083,201588,1628425,1610612764,1628418,1629021,1629185,202722,203078,0011900051,2,1010,1012,0,0,1610612764
78,1610612749,203114,201572,202083,201588,1628425,1610612764,1628418,1629021,1629185,202722,203078,0011900051,2,1033,1033,0,0,1610612749
79,1610612749,203114,201572,202083,201588,1628425,1610612764,1628418,1629021,1629185,202722,203078,0011900051,2,1050,1052,0,0,1610612764
80,1610612749,203114,201572,202083,201588,1628425,1610612764,1628418,1629021,1629185,202722,203078,0011900051,2,1057,1057,2,0,1610612749
81,1610612749,203114,201572,202083,201588,1628425,1610612764,1628418,1629021,1629185,202722,203078,0011900051,2,1068,1068,0,2,1610612764
82,1610612749,203114,201572,202083,201588,1628425,1610612764,1628418,1629021,1629185,202722,203078,0011900051,2,1083,1086,0,0,1610612749
83,1610612749,203114,201572,202083,201588,1628425,1610612764,1628418,1629021,1629185,202722,203078,0011900051,2,1096,1096,0,0,1610612764
84,1610612749,203114,201572,202083,201588,1628425,1610612764,1628418,1629021,1629185,202722,203078,0011900051,2,1096,1116,0,0,1610612749
85,1610612749,101141,1628978,201572,203114,2594,1610612764,1628418,1629060,1629067,1629620,203078,0011900051,2,1134,1136,0,0,1610612764
86,1610612749,101141,1628978,201572,203114,2594,1610612764,1628418,1629060,1629067,1629620,203078,0011900051,2,1144,1144,2,0,1610612749
87,1610612749,101141,1627733,1628425,1628978,2594,1610612764,1628418,1629060,1629067,1629620,203078,0011900051,2,1161,1161,0,2,1610612764
88,1610612749,101141,1627733,1628425,1628978,2594,1610612764,1628418,1629060,1629067,1629620,203078,0011900051,2,1177,1177,2,0,1610612749
89,1610612749,101141,1627733,1628425,1628978,2594,1610612764,1628418,1629060,1629067,1629620,203078,0011900051,2,1188,1188,0,0,1610612764
90,1610612749,101141,1627733,1628425,1628978,2594,1610612764,1628418,1629060,1629067,1629620,203078,0011900051,2,1192,1192,2,0,1610612749
91,1610612749,101141,1627733,1628425,1628978,2594,1610612764,1628418,1629060,1629067,1629620,203078,0011900051,2,1210,1214,0,0,1610612764
92,1610612749,101141,1627733,1628425,1628978,2594,1610612764,1628418,1629060,1629067,1629620,203078,0011900051,2,1223,1226,0,0,1610612749
93,1610612749,101141,1627733,1628425,1628978,2594,1610612764,1628418,1629060,1629067,1629620,203078,0011900051,2,1230,1232,0,1,1610612764
94,1610612749,101141,1627733,1628425,1628978,2594,1610612764,1628418,1629060,1629067,1629620,203078,0011900051,2,1241,1241,2,0,1610612749
95,1610612749,101141,1627733,1628425,1628978,2594,1610612764,1628418,1629060,1629067,1629620,203078,0011900051,2,1262,1264,0,0,1610612764
96,1610612749,101141,1627733,1628425,1628978,2594,1610612764,1628418,1629060,1629067,1629620,203078,0011900051,2,1274,1282,3,0,1610612749
97,1610612749,101141,1627733,1628425,1628978,2594,1610612764,1628418,1629060,1629067,1629620,203078,0011900051,2,1296,1296,0,4,1610612764
98,1610612749,101141,1627733,1628425,1628978,2594,1610612764,1628418,1629060,1629067,1629620,203078,0011900051,2,1304,1304,2,0,1610612749
99,1610612749,101141,1627733,1628425,1628978,2594,1610612764,1628418,1629060,1629067,1629620,203078,0011900051,2,1315,1318,0,0,1610612764
100,1610612749,101141,1627733,1628425,1628978,2594,1610612764,1628418,1629060,1629067,1629620,203078,0011900051,2,1328,1341,3,0,1610612749
101,1610612749,101141,1627733,1628425,1628978,2594,1610612764,1628418,1629060,1629067,1629620,203078,0011900051,2,1356,1356,0,2,1610612764
102,1610612749,101141,1627733,1628425,1628978,2594,1610612764,1628418,1629060,1629067,1629620,203078,0011900051,2,1370,1370,2,0,1610612749
103,1610612749,101141,1628425,1628978,203648,2594,1610612764,1628418,1629067,1629620,1629678,203078,0011900051,2,1384,1388,0,0,1610612764
104,1610612749,101141,1628425,1628978,203648,2594,1610612764,1628418,1629067,1629620,1629678,203078,0011900051,2,1396,1396,3,0,1610612749
105,1610612749,101141,1628425,1628978,203648,2594,1610612764,1628418,1629067,1629620,1629678,203078,0011900051,2,1409,1414,0,0,1610612764
106,1610612749,101141,1628425,1628978,203648,2594,1610612764,1628418,1629067,1629620,1629678,203078,0011900051,2,1418,1419,0,0,1610612749
107,1610612749,101141,1628425,1628978,203648,2594,1610612764,1628418,1629067,1629620,1629678,203078,0011900051,2,1440,1440,0,2,1610612764
108,1610612749,101141,1628425,1628978,203648,2594,1610612764,1628418,1629067,1629620,1629678,203078,0011900051,2,1440,1440,0,0,1610612764
109,1610612749,203114,101141,201572,202083,201588,1610612764,1629067,1629060,1628418,203078,1629185,0011900051,3,1440,1452,0,0,1610612764
110,1610612749,203114,101141,201572,202083,201588,1610612764,1629067,1629060,1628418,203078,1629185,0011900051,3,1466,1466,3,0,1610612749
111,1610612749,203114,101141,201572,202083,201588,1610612764,1629067,1629060,1628418,203078,1629185,0011900051,3,1482,1482,0,2,1610612764
112,1610612749,203114,101141,201572,202083,201588,1610612764,1629067,1629060,1628418,203078,1629185,0011900051,3,1497,1499,0,0,1610612749
113,1610612749,203114,101141,201572,202083,201588,1610612764,1629067,1629060,1628418,203078,1629185,0011900051,3,1505,1514,0,2,1610612764
114,1610612749,203114,101141,201572,202083,201588,1610612764,1629067,1629060,1628418,203078,1629185,0011900051,3,1539,1541,0,0,1610612749
115,1610612749,203114,101141,201572,202083,201588,1610612764,1629067,1629060,1628418,203078,1629185,0011900051,3,1549,1563,0,0,1610612764
116,1610612749,203114,101141,201572,202083,201588,1610612764,1629067,1629060,1628418,203078,1629185,0011900051,3,1574,1574,2,0,1610612749
117,1610612749,203114,101141,201572,202083,201588,1610612764,1629067,1629060,1628418,203078,1629185,0011900051,3,1593,1593,0,0,1610612764
118,1610612749,203114,101141,201572,202083,201588,1610612764,1629067,1629060,1628418,203078,1629185,0011900051,3,1612,1612,2,0,1610612749
119,1610612749,203114,101141,201572,202083,201588,1610612764,1629067,1629060,1628418,203078,1629185,0011900051,3,1623,1623,0,3,1610612764
120,1610612749,203114,101141,201572,202083,201588,1610612764,1629067,1629060,1628418,203078,1629185,0011900051,3,1643,1647,0,0,1610612749
121,1610612749,203114,101141,201572,202083,201588,1610612764,1629067,1629060,1628418,203078,1629185,0011900051,3,1651,1655,0,0,1610612764
122,1610612749,203114,101141,201572,202083,201588,1610612764,1629067,1629060,1628418,203078,1629185,0011900051,3,1660,1671,3,0,1610612749
123,1610612749,203114,101141,201572,202083,201588,1610612764,1628418,1629060,1629185,1629678,203078,0011900051,3,1686,1688,0,1,1610612764
124,1610612749,203114,101141,201572,202083,201588,1610612764,1628418,1629060,1629185,1629678,203078,0011900051,3,1700,1710,0,0,1610612749
125,1610612749,203114,101141,201572,202083,201588,1610612764,1628418,1629060,1629185,1629678,203078,0011900051,3,1714,1725,0,2,1610612764
126,1610612749,203114,101141,201572,202083,201588,1610612764,1628418,1629060,1629185,1629678,203078,0011900051,3,1736,1736,0,0,1610612749
127,1610612749,203114,101141,201572,202083,201588,1610612764,1628418,1629060,1629185,1629678,203078,0011900051,3,1740,1740,0,2,1610612764
128,1610612749,203114,101141,201572,202083,201588,1610612764,1628418,1629060,1629185,1629678,203078,0011900051,3,1753,1756,0,0,1610612749
129,1610612749,203114,101141,201572,202083,201588,1610612764,1628418,1629060,1629185,1629678,203078,0011900051,3,1760,1760,0,0,1610612764
130,1610612749,101141,201572,201588,203114,2594,1610612764,1628418,1629060,1629185,1629678,203078,0011900051,3,1774,1774,3,0,1610612749
131,1610612749,101141,201572,201588,203114,2594,1610612764,1628418,1629060,1629185,1629678,203078,0011900051,3,1783,1795,0,0,1610612764
132,1610612749,101141,201572,201588,203114,2594,1610612764,1628418,1629060,1629185,1629678,203078,0011900051,3,1796,1804,0,0,1610612749
133,1610612749,101141,201572,201588,203114,2594,1610612764,1628418,1629060,1629185,1629678,1629726,0011900051,3,1819,1821,0,0,1610612764
134,1610612749,101141,201572,201588,203114,2594,1610612764,1628418,1629060,1629185,1629678,1629726,0011900051,3,1827,1827,3,0,1610612749
135,1610612749,101141,201572,201588,203114,2594,1610612764,1628418,1629060,1629185,1629678,1629726,0011900051,3,1842,1842,0,3,1610612764
136,1610612749,101141,201572,201588,203114,2594,1610612764,1628418,1629060,1629185,1629678,1629726,0011900051,3,1855,1855,2,0,1610612749
137,1610612749,1627733,1628425,203114,203648,2594,1610612764,1628418,1629060,1629185,1629678,1629726,0011900051,3,1870,1870,0,0,1610612764
138,1610612749,1627733,1628425,203114,203648,2594,1610612764,1628418,1629060,1629185,1629678,1629726,0011900051,3,1874,1874,2,0,1610612749
139,1610612749,1627733,1628425,1628978,203648,2594,1610612764,1628418,1629060,1629185,1629678,1629726,0011900051,3,1885,1885,0,0,1610612764
140,1610612749,1627733,1628425,1628978,203648,2594,1610612764,1628418,1629060,1629185,1629678,1629726,0011900051,3,1895,1895,3,0,1610612749
141,1610612749,1627733,1628425,1628978,203648,2594,1610612764,1628418,1629060,1629185,1629678,1629726,0011900051,3,1901,1901,0,0,1610612764
142,1610612749,1627733,1628425,1628978,203648,2594,1610612764,1628418,1629060,1629185,1629678,1629726,0011900051,3,1921,1925,0,0,1610612749
143,1610612749,1627733,1628425,1628978,203648,2594,1610612764,1628418,1629060,1629185,1629678,1629726,0011900051,3,1930,1930,0,3,1610612764
144,1610612749,1627733,1628425,1628978,203648,2594,1610612764,1628418,1629060,1629185,1629678,1629726,0011900051,3,1941,1941,2,0,1610612749
145,1610612749,1627733,1628425,1628978,203648,2594,1610612764,1628418,1629060,1629185,1629678,1629726,0011900051,3,1952,1952,0,0,1610612764
146,1610612749,1627733,1628425,1628978,203648,2594,1610612764,1628418,1629060,1629185,1629678,1629726,0011900051,3,1967,1967,2,0,1610612749
147,1610612749,1627733,1628425,1628978,203648,2594,1610612764,1628418,1629060,1629185,1629678,1629726,0011900051,3,1973,1980,0,2,1610612764
148,1610612749,1627733,1628425,1628978,203648,2594,1610612764,1629021,1629185,1629678,1629726,202722,0011900051,3,1999,2007,0,0,1610612749
149,1610612749,1627733,1628425,1628978,203648,2594,1610612764,1629021,1629185,1629678,1629726,202722,0011900051,3,2023,2023,0,3,1610612764
150,1610612749,1627733,1628425,1628978,203648,2594,1610612764,1629021,1629185,1629678,1629726,202722,0011900051,3,2039,2042,0,0,1610612749
151,1610612749,1627733,1628425,1628978,203648,2594,1610612764,1629021,1629185,1629678,1629726,202722,0011900051,3,2049,2056,0,3,1610612764
152,1610612749,1627733,1628425,1628978,203648,2594,1610612764,1629021,1629185,1629678,1629726,202722,0011900051,3,2075,2075,0,0,1610612749
153,1610612749,1627733,1628425,1628978,203648,2594,1610612764,1629021,1629185,1629678,1629726,202722,0011900051,3,2084,2084,0,3,1610612764
154,1610612749,1627733,1628425,1628978,203648,2594,1610612764,1629021,1629185,1629678,1629726,202722,0011900051,3,2105,2105,2,0,1610612749
155,1610612749,1627733,1628425,1628978,203648,2594,1610612764,1629021,1629595,1629678,1629726,202722,0011900051,3,2116,2116,0,0,1610612764
156,1610612749,1627733,1628425,1628978,203648,2594,1610612764,1629021,1629595,1629678,1629726,202722,0011900051,3,2129,2131,0,0,1610612749
157,1610612749,1627733,1628425,1628978,203648,2594,1610612764,1629021,1629595,1629678,1629726,202722,0011900051,3,2148,2148,0,2,1610612764
158,1610612749,1627733,1628425,1628978,203648,2594,1610612764,1629021,1629595,1629678,1629726,202722,0011900051,3,2153,2153,0,0,1610612749
159,1610612749,1627733,1628425,1628978,203648,2594,1610612764,1629021,1629595,1629678,1629726,202722,0011900051,3,2157,2158,0,0,1610612764
160,1610612749,1627733,1628425,1628978,203648,2594,1610612764,1629021,1629595,1629678,1629726,202722,0011900051,3,2160,2160,0,0,1610612764
161,1610612749,203114,201572,202083,201588,1628978,1610612764,1629060,202722,1629021,1629726,1629595,0011900051,4,2160,2182,0,0,1610612749
162,1610612749,203114,201572,202083,201588,1628978,1610612764,1629060,202722,1629021,1629726,1629595,0011900051,4,2197,2197,0,0,1610612764
163,1610612749,203114,201572,202083,201588,1628978,1610612764,1629060,202722,1629021,1629726,1629595,0011900051,4,2201,2202,0,0,1610612749
164,1610612749,203114,201572,202083,201588,1628978,1610612764,1629060,202722,1629021,1629726,1629595,0011900051,4,2224,2227,0,0,1610612764
165,1610612749,203114,201572,202083,201588,1628978,1610612764,1629060,202722,1629021,1629726,1629595,0011900051,4,2230,2230,0,0,1610612749
166,1610612749,203114,201572,202083,201588,1628978,1610612764,1629060,202722,1629021,1629726,1629595,0011900051,4,2236,2236,0,0,1610612764
167,1610612749,203114,201572,202083,201588,1628978,1610612764,1629060,202722,1629021,1629726,1629595,0011900051,4,2256,2256,0,0,1610612749
168,1610612749,203114,201572,202083,201588,1628978,1610612764,1629060,202722,1629021,1629726,1629595,0011900051,4,2258,2260,0,0,1610612764
169,1610612749,203114,201572,202083,201588,1628978,1610612764,1629060,202722,1629021,1629726,1629595,0011900051,4,2272,2272,2,0,1610612749
170,1610612749,203114,201572,202083,201588,1628978,1610612764,1629060,202722,1629021,1629726,1629595,0011900051,4,2281,2285,0,0,1610612764
171,1610612749,203114,201572,202083,201588,1628978,1610612764,1629060,202722,1629021,1629726,1629595,0011900051,4,2286,2286,0,0,1610612749
172,1610612749,203114,201572,202083,201588,1628978,1610612764,1629060,202722,1629021,1629726,1629595,0011900051,4,2295,2297,0,0,1610612764
173,1610612749,203114,201572,202083,201588,1628978,1610612764,1629060,202722,1629021,1629726,1629595,0011900051,4,2301,2301,2,0,1610612749
174,1610612749,203114,201572,202083,201588,1628978,1610612764,1629060,202722,1629021,1629726,1629595,0011900051,4,2313,2313,0,3,1610612764
175,1610612749,203114,201572,202083,201588,1628978,1610612764,1629060,202722,1629021,1629726,1629595,0011900051,4,2324,2324,2,0,1610612749
176,1610612749,203114,201572,202083,201588,1628978,1610612764,1629060,202722,1629021,1629726,1629595,0011900051,4,2342,2342,0,2,1610612764
177,1610612749,203114,201572,202083,201588,1628978,1610612764,1629060,202722,1629021,1629726,1629595,0011900051,4,2358,2358,2,0,1610612749
178,1610612749,203114,201572,202083,201588,1628978,1610612764,1629060,202722,1629021,1629726,1629595,0011900051,4,2375,2382,0,2,1610612764
179,1610612749,203114,201572,202083,201588,1628978,1610612764,1629060,202722,1629021,1629726,1629595,0011900051,4,2388,2388,0,0,1610612749
180,1610612749,203114,201572,202083,201588,1628978,1610612764,1629060,202722,1629021,1629726,1629595,0011900051,4,2392,2399,0,2,1610612764
181,1610612749,1628425,201572,201588,202083,203114,1610612764,1629021,1629595,1629678,1629726,202722,0011900051,4,2414,2414,0,0,1610612749
182,1610612749,1628425,201572,201588,202083,203114,1610612764,1629021,1629595,1629678,1629726,202722,0011900051,4,2414,2428,0,0,1610612764
183,1610612749,1628425,201572,201588,202083,203114,1610612764,1629021,1629595,1629678,1629726,202722,0011900051,4,2428,2441,2,0,1610612749
184,1610612749,1628425,201572,201588,202083,203114,1610612764,1629021,1629595,1629678,1629726,202722,0011900051,4,2454,2454,0,3,1610612764
185,1610612749,1628425,201572,201588,202083,203114,1610612764,1629021,1629595,1629678,1629726,202722,0011900051,4,2469,2469,2,0,1610612749
186,1610612749,1628425,201572,201588,202083,203114,1610612764,1629021,1629595,1629678,1629726,202722,0011900051,4,2483,2483,0,0,1610612764
187,1610612749,1628425,201572,201588,202083,203114,1610612764,1629021,1629595,1629678,1629726,202722,0011900051,4,2483,2503,2,0,1610612749
188,1610612749,1627733,1628412,1628425,201588,203648,1610612764,1629021,1629185,1629595,1629678,1629726,0011900051,4,2517,2517,0,3,1610612764
189,1610612749,1627733,1628412,1628425,201588,203648,1610612764,1629021,1629185,1629595,1629678,1629726,0011900051,4,2530,2530,2,0,1610612749
190,1610612749,1627733,1628412,1628425,201588,203648,1610612764,1629021,1629185,1629595,1629678,1629726,0011900051,4,2534,2534,0,2,1610612764
191,1610612749,1627733,1628412,1628425,1628978,203648,1610612764,1629021,1629185,1629595,1629678,1629726,0011900051,4,2543,2543,0,0,1610612749
192,1610612749,1627733,1628412,1628425,1628978,203648,1610612764,1629021,1629185,1629595,1629678,1629726,0011900051,4,2552,2555,0,0,1610612764
193,1610612749,1627733,1628412,1628425,1628978,203648,1610612764,1629021,1629185,1629595,1629678,1629726,0011900051,4,2568,2571,0,0,1610612749
194,1610612749,1627733,1628412,1628425,1628978,203648,1610612764,1629021,1629185,1629595,1629678,1629726,0011900051,4,2579,2582,0,0,1610612764
195,1610612749,1627733,1628412,1628425,1628978,203648,1610612764,1629021,1629185,1629595,1629678,1629726,0011900051,4,2586,2586,2,0,1610612749
196,1610612749,1627733,1628412,1628425,1628978,203648,1610612764,1629021,1629185,1629595,1629678,1629726,0011900051,4,2605,2608,0,0,1610612764
197,1610612749,1627733,1628412,1628425,1628978,203648,1610612764,1629021,1629185,1629595,1629678,1629726,0011900051,4,2613,2613,0,0,1610612749
198,1610612749,1627733,1628412,1628425,1628978,203648,1610612764,1629021,1629185,1629595,1629678,1629726,0011900051,4,2627,2631,0,0,1610612764
199,1610612749,1627733,1628412,1628425,1628978,203648,1610612764,1629021,1629185,1629595,1629678,1629726,0011900051,4,2638,2638,3,0,1610612749
200,1610612749,1627733,1628412,1628425,1628978,203648,1610612764,1629021,1629185,1629595,1629678,1629726,0011900051,4,2654,2654,0,0,1610612764
201,1610612749,1627733,1628412,1628425,1628978,203648,1610612764,1629021,1629185,1629595,1629678,1629726,0011900051,4,2666,2666,0,0,1610612749
202,1610612749,1627733,1628412,1628425,1628978,203648,1610612764,1629021,1629185,1629595,1629678,1629726,0011900051,4,2669,2669,0,1,1610612764
203,1610612749,1627733,1628412,1628425,1628978,203648,1610612764,1629021,1629185,1629595,1629678,1629726,0011900051,4,2685,2685,2,0,1610612749
204,1610612749,1627733,1628412,1628425,1628978,203648,1610612764,1629021,1629185,1629595,1629678,1629726,0011900051,4,2706,2706,0,3,1610612764
205,1610612749,1627733,1628412,1628425,1628978,203648,1610612764,1629021,1629185,1629595,1629678,1629726,0011900051,4,2730,2732,0,0,1610612749
206,1610612749,1627733,1628412,1628425,1628978,203648,1610612764,1629021,1629185,1629595,1629678,1629726,0011900051,4,2740,2740,0,0,1610612764
207,1610612749,1627733,1628412,1628425,1628978,203648,1610612764,1629021,1629185,1629595,1629678,1629726,0011900051,4,2740,2755,2,0,1610612749
208,1610612749,1627733,1628412,1628425,1628978,203648,1610612764,1629021,1629185,1629595,1629678,1629726,0011900051,4,2772,2772,0,2,1610612764
209,1610612749,1627733,1628412,1628425,1628978,203648,1610612764,1629021,1629185,1629595,1629678,1629726,0011900051,4,2779,2779,2,0,1610612749
210,1610612749,1627733,1628412,1628425,1628978,203648,1610612764,1629021,1629185,1629595,1629678,1629726,0011900051,4,2797,2797,0,0,1610612764
211,1610612749,1627733,1628412,1628425,1628978,203648,1610612764,1629021,1629185,1629595,1629678,1629726,0011900051,4,2814,2814,0,0,1610612749
212,1610612749,1627733,1628412,1628425,1628978,203648,1610612764,1629021,1629185,1629595,1629678,1629726,0011900051,4,2821,2821,0,0,1610612764
213,1610612749,1627733,1628412,1628425,1628978,203648,1610612764,1629021,1629185,1629595,1629678,1629726,0011900051,4,2821,2837,2,0,1610612749
214,1610612749,1627733,1628412,1628425,1628978,203648,1610612764,1629021,1629185,1629595,1629678,1629726,0011900051,4,2845,2845,0,2,1610612764
215,1610612749,1627733,1628412,1628425,1628978,203648,1610612764,1629021,1629185,1629595,1629678,1629726,0011900051,4,2862,2864,2,0,1610612749
216,1610612749,1627733,1628412,1628425,1628978,203648,1610612764,1629021,1629185,1629595,1629678,1629726,0011900051,4,2871,2876,0,0,1610612764
