,TEAM_ID_1,TEAM_1_PLAYERS,TEAM_ID_2,TEAM_2_PLAYERS,PERIOD
0,1610612747,[  2544 203076   2730 201980 203484],1610612743,[ 203924  200794  203999  203914 1627750],1
1,1610612747,[   2544 1628398 1627936  201580  202693],1610612743,[1627750 1628470 1628420 1629008  203486],2
2,1610612747,[  2544 203076   2730 201980 203484],1610612743,[ 203924  200794  203999  203914 1627750],3
3,1610612747,[   2544  201980 1628398 1627936  202693],1610612743,[1627750 1628470 1628420 1629008  203486],4
