,TEAM_ID_1,TEAM_1_PLAYERS,TEAM_ID_2,TEAM_2_PLAYERS,PERIOD
0,1610612738,[1628369  202694  203382  203935  202681],1610612765,[ 203493  201933  203083 1628379  202704],1
1,1610612738,[1628369  202330 1628464 1627759 1626179],1610612765,[ 202720  101181  204038 1628971 1626169],2
2,1610612738,[1628369  202694  203382  203935  202681],1610612765,[ 203493  201933  203083 1628379  202704],3
3,1610612738,[ 203935  202330 1628464 1627759 1626179],1610612765,[ 203083  101181  204038 1628971 1626169],4
