,team1_id,team1_player1,team1_player2,team1_player3,team1_player4,team1_player5,team2_id,team2_player1,team2_player2,team2_player3,team2_player4,team2_player5,game_id,period,possession_start,possession_end,team1_points,team2_points,possession_team
0,1610612753,1630532,1628976,201577,203914,1630591,1610612739,1628374,1630596,1628386,1630171,1629636,0022100295,1,0,20,0,0,1610612739
1,1610612753,1630532,1628976,201577,203914,1630591,1610612739,1628374,1630596,1628386,1630171,1629636,0022100295,1,28,32,0,0,1610612753
2,1610612753,1630532,1628976,201577,203914,1630591,1610612739,1628374,1630596,1628386,1630171,1629636,0022100295,1,38,38,0,0,1610612739
3,1610612753,1630532,1628976,201577,203914,1630591,1610612739,1628374,1630596,1628386,1630171,1629636,0022100295,1,44,44,3,0,1610612753
4,1610612753,1630532,1628976,201577,203914,1630591,1610612739,1628374,1630596,1628386,1630171,1629636,0022100295,1,70,72,0,0,1610612739
5,1610612753,1630532,1628976,201577,203914,1630591,1610612739,1628374,1630596,1628386,1630171,1629636,0022100295,1,78,78,0,0,1610612753
6,1610612753,1630532,1628976,201577,203914,1630591,1610612739,1628374,1630596,1628386,1630171,1629636,0022100295,1,83,83,0,2,1610612739
7,1610612753,1630532,1628976,201577,203914,1630591,1610612739,1628374,1630596,1628386,1630171,1629636,0022100295,1,103,106,0,0,1610612753
8,1610612753,1630532,1628976,201577,203914,1630591,1610612739,1628374,1630596,1628386,1630171,1629636,0022100295,1,123,123,0,2,1610612739
9,1610612753,1630532,1628976,201577,203914,1630591,1610612739,1628374,1630596,1628386,1630171,1629636,0022100295,1,148,151,0,0,1610612753
10,1610612753,1630532,1628976,201577,203914,1630591,1610612739,1628374,1630596,1628386,1630171,1629636,0022100295,1,170,170,0,2,1610612739
11,1610612753,1630532,1628976,201577,203914,1630591,1610612739,1628374,1630596,1628386,1630171,1629636,0022100295,1,186,186,2,0,1610612753
12,1610612753,1630532,1628976,201577,203914,1630591,1610612739,1628374,1630596,1628386,1630171,1629636,0022100295,1,198,198,0,2,1610612739
13,1610612753,1630532,1628976,201577,203914,1630591,1610612739,1628374,1630596,1628386,1630171,1629636,0022100295,1,213,214,0,0,1610612753
14,1610612753,1630532,1628976,201577,203914,1630591,1610612739,1628374,1630596,1628386,1630171,1629636,0022100295,1,219,249,0,0,1610612739
15,1610612753,1630532,1628976,201577,203914,1630591,1610612739,1628374,1630596,1628386,1630171,1629636,0022100295,1,264,264,2,0,1610612753
16,1610612753,1630532,1628976,201577,203914,1630591,1610612739,1628374,1630596,1628386,1630171,1629636,0022100295,1,286,289,0,2,1610612739
17,1610612753,1630532,1628976,201577,203914,1630591,1610612739,1628374,1630596,1628386,1630171,1629636,0022100295,1,305,316,2,0,1610612753
18,1610612753,1630532,1628976,201577,203914,1630591,1610612739,1628374,1628386,1629636,1630171,201567,0022100295,1,335,335,0,2,1610612739
19,1610612753,1630532,1628976,201577,203914,1630591,1610612739,1628374,1628386,1629636,1630171,201567,0022100295,1,350,350,0,0,1610612753
20,1610612753,1628976,1630591,201577,203082,203914,1610612739,1628374,1628386,1629636,1630171,201567,0022100295,1,369,374,0,0,1610612739
21,1610612753,1628976,1630591,201577,203082,203914,1610612739,1628374,1628386,1629636,1630171,201567,0022100295,1,383,383,2,0,1610612753
22,1610612753,1628976,1630591,201577,203082,203914,1610612739,1628374,1628386,1629636,1630171,201567,0022100295,1,395,395,0,2,1610612739
23,1610612753,1628976,1630591,201577,203082,203914,1610612739,1628374,1628386,1629636,1630171,201567,0022100295,1,412,412,2,0,1610612753
24,1610612753,1628976,1630591,201577,203082,203914,1610612739,1628374,1628386,1629636,1630171,201567,0022100295,1,424,424,0,2,1610612739
25,1610612753,1628976,1630591,201577,203082,203914,1610612739,1628374,1628386,1629636,1630171,201567,0022100295,1,452,452,3,0,1610612753
26,1610612753,1628976,1630591,201577,203082,203914,1610612739,1628374,1628386,1629636,1630171,201567,0022100295,1,473,473,0,2,1610612739
27,1610612753,1628976,1630591,201577,203082,203914,1610612739,1628374,1628386,1629636,1630171,201567,0022100295,1,493,494,0,0,1610612753
28,1610612753,1628976,1630591,201577,203082,203914,1610612739,1628374,1628386,1629636,1630171,201567,0022100295,1,496,496,0,0,1610612739
29,1610612753,1628976,1630591,201577,203082,203914,1610612739,1628374,1628386,1629636,1630171,201567,0022100295,1,496,497,0,0,1610612753
30,1610612753,1628976,1630591,201577,203082,203914,1610612739,1628374,1628386,1629636,1630171,201567,0022100295,1,510,510,0,2,1610612739
31,1610612753,1628976,1630591,201577,203082,203914,1610612739,1628374,1628386,1629636,1630171,201567,0022100295,1,514,518,0,0,1610612753
32,1610612753,1629021,1629643,1630591,203082,203914,1610612739,1626224,1630171,1630596,201567,201937,0022100295,1,535,538,0,0,1610612739
33,1610612753,1629021,1629643,1630591,203082,203914,1610612739,1626224,1630171,1630596,201567,201937,0022100295,1,542,542,2,0,1610612753
34,1610612753,1629021,1629643,1630591,203082,203914,1610612739,1626224,1630171,1630596,201567,201937,0022100295,1,549,555,0,2,1610612739
35,1610612753,1629021,1629643,1630591,203082,203914,1610612739,1626224,1630171,1630596,201567,201937,0022100295,1,569,581,2,0,1610612753
36,1610612753,1629021,1629643,1630181,1630532,203082,1610612739,1626224,1630205,1630596,201567,201937,0022100295,1,595,597,0,0,1610612739
37,1610612753,1629021,1629643,1630181,1630532,203082,1610612739,1626224,1630205,1630596,201567,201937,0022100295,1,610,613,0,0,1610612753
38,1610612753,1629021,1629643,1630181,1630532,203082,1610612739,1626224,1630205,1630596,201567,201937,0022100295,1,626,631,0,1,1610612739
39,1610612753,1629021,1629643,1630181,1630532,203082,1610612739,1626224,1630205,1630596,201567,201937,0022100295,1,643,643,2,0,1610612753
40,1610612753,1629021,1629643,1630181,1630532,203082,1610612739,1626224,1630205,1630596,201567,201937,0022100295,1,657,657,0,0,1610612739
41,1610612753,1629021,1629643,1630181,1630532,203082,1610612739,1626224,1630205,1630596,201567,201937,0022100295,1,666,669,0,0,1610612753
42,1610612753,1629021,1629643,1630181,1630532,203082,1610612739,1626224,1630205,1630596,201567,201937,0022100295,1,671,671,0,2,1610612739
43,1610612753,1629021,1629643,1630181,1630532,203082,1610612739,1626224,1630205,1630596,201567,201937,0022100295,1,689,695,0,0,1610612753
44,1610612753,1629021,1629643,1630181,1630532,203082,1610612739,1626224,1630205,1630596,201567,201937,0022100295,1,695,695,0,2,1610612739
45,1610612753,1629021,1629643,1630181,1630532,203082,1610612739,1626224,1630205,1630596,201567,201937,0022100295,1,711,719,0,0,1610612753
46,1610612753,1629021,1629643,1630181,1630532,203082,1610612739,1626224,1628386,1630171,1630205,1630596,0022100295,1,720,740,0,0,1610612753
47,1610612753,1630532,203082,1629021,1629643,1630181,1610612739,1630596,201567,201937,1626224,1630205,0022100295,2,759,761,0,0,1610612739
48,1610612753,1630532,203082,1629021,1629643,1630181,1610612739,1630596,201567,201937,1626224,1630205,0022100295,2,776,776,3,0,1610612753
49,1610612753,1630532,203082,1629021,1629643,1630181,1610612739,1630596,201567,201937,1626224,1630205,0022100295,2,794,794,0,0,1610612739
50,1610612753,1630532,203082,1629021,1629643,1630181,1610612739,1630596,201567,201937,1626224,1630205,0022100295,2,809,818,0,0,1610612753
51,1610612753,1630532,203082,1629021,1629643,1630181,1610612739,1630596,201567,201937,1626224,1630205,0022100295,2,827,827,0,3,1610612739
52,1610612753,1630532,203082,1629021,1629643,1630181,1610612739,1630596,201567,201937,1626224,1630205,0022100295,2,836,848,0,0,1610612753
53,1610612753,1630532,203082,1629021,1629643,1630181,1610612739,1626224,1628374,1630205,1630596,201937,0022100295,2,855,881,0,0,1610612739
54,1610612753,1630532,203082,1629021,1629643,1630181,1610612739,1626224,1628374,1630205,1630596,201937,0022100295,2,884,884,2,0,1610612753
55,1610612753,1630532,203082,1629021,1629643,1630181,1610612739,1626224,1628374,1630205,1630596,201937,0022100295,2,906,906,0,2,1610612739
56,1610612753,1630532,203082,1629021,1629643,1630181,1610612739,1626224,1628374,1630205,1630596,201937,0022100295,2,921,923,0,0,1610612753
57,1610612753,1630532,203082,1629021,1629643,1630181,1610612739,1626224,1628374,1630205,1630596,201937,0022100295,2,929,929,0,0,1610612739
58,1610612753,1630532,203082,1629021,1629643,1630181,1610612739,1626224,1628374,1630205,1630596,201937,0022100295,2,938,938,3,0,1610612753
59,1610612753,1630532,203082,1629021,1629643,1630181,1610612739,1626224,1628374,1630205,1630596,201937,0022100295,2,953,956,0,0,1610612739
60,1610612753,1630532,203082,1629021,1629643,1630181,1610612739,1626224,1628374,1630205,1630596,201937,0022100295,2,963,963,3,0,1610612753
61,1610612753,1630532,203082,1629021,1629643,1630181,1610612739,1626224,1628374,1630205,1630596,201937,0022100295,2,989,989,0,3,1610612739
62,1610612753,1630532,203082,1629021,1629643,1630181,1610612739,1626224,1628374,1630205,1630596,201937,0022100295,2,1010,1010,2,0,1610612753
63,1610612753,1630532,203082,1629021,1629643,1630181,1610612739,1626224,1628374,1630205,1630596,201937,0022100295,2,1021,1023,0,0,1610612739
64,1610612753,1630532,203082,1629021,1629643,1630181,1610612739,1626224,1628374,1630205,1630596,201937,0022100295,2,1023,1040,0,0,1610612753
65,1610612753,1628539,1628976,1630591,201577,203914,1610612739,1626224,1628374,1628386,1629636,1630171,0022100295,2,1050,1050,0,0,1610612739
66,1610612753,1628539,1628976,1630591,201577,203914,1610612739,1626224,1628374,1628386,1629636,1630171,0022100295,2,1056,1056,2,0,1610612753
67,1610612753,1628539,1628976,1630591,201577,203914,1610612739,1626224,1628374,1628386,1629636,1630171,0022100295,2,1083,1083,0,2,1610612739
68,1610612753,1628539,1628976,1630591,201577,203914,1610612739,1626224,1628374,1628386,1629636,1630171,0022100295,2,1102,1106,0,0,1610612753
69,1610612753,1628539,1628976,1630591,201577,203914,1610612739,1626224,1628374,1628386,1629636,1630171,0022100295,2,1107,1107,0,2,1610612739
70,1610612753,1628539,1628976,1630591,201577,203914,1610612739,1626224,1628374,1628386,1629636,1630171,0022100295,2,1124,1124,0,0,1610612753
71,1610612753,1628539,1628976,1630591,201577,203914,1610612739,1628374,1628386,1629636,1630171,201567,0022100295,2,1133,1135,0,0,1610612739
72,1610612753,1628539,1628976,1630591,201577,203914,1610612739,1628374,1628386,1629636,1630171,201567,0022100295,2,1138,1138,0,0,1610612753
73,1610612753,1628539,1628976,1630591,201577,203914,1610612739,1628374,1628386,1629636,1630171,201567,0022100295,2,1150,1150,0,0,1610612739
74,1610612753,1628539,1628976,1630591,201577,203914,1610612739,1628374,1628386,1629636,1630171,201567,0022100295,2,1155,1155,2,0,1610612753
75,1610612753,1628539,1628976,1630591,201577,203914,1610612739,1628374,1628386,1629636,1630171,201567,0022100295,2,1163,1166,0,0,1610612739
76,1610612753,1628539,1628976,1630591,201577,203914,1610612739,1628374,1628386,1629636,1630171,201567,0022100295,2,1170,1173,0,0,1610612753
77,1610612753,1628539,1628976,1630591,201577,203914,1610612739,1628374,1628386,1629636,1630171,201567,0022100295,2,1189,1189,0,3,1610612739
78,1610612753,1628539,1628976,1630591,201577,203914,1610612739,1628374,1628386,1629636,1630171,201567,0022100295,2,1210,1210,2,0,1610612753
79,1610612753,1628539,1628976,1630591,201577,203914,1610612739,1628374,1628386,1629636,1630171,201567,0022100295,2,1224,1229,0,2,1610612739
80,1610612753,1628539,1628976,1630591,201577,203914,1610612739,1628374,1628386,1629636,1630171,201567,0022100295,2,1241,1243,0,0,1610612753
81,1610612753,1628539,1628976,1630591,201577,203914,1610612739,1628374,1628386,1629636,1630171,201567,0022100295,2,1253,1257,0,0,1610612739
82,1610612753,1628539,1628976,1630591,201577,203914,1610612739,1628374,1628386,1629636,1630171,201567,0022100295,2,1267,1270,0,0,1610612753
83,1610612753,1628539,1628976,1630591,201577,203914,1610612739,1628374,1628386,1629636,1630171,201567,0022100295,2,1278,1278,0,2,1610612739
84,1610612753,1628539,1628976,1630591,201577,203914,1610612739,1628374,1628386,1629636,1630171,201567,0022100295,2,1279,1300,2,0,1610612753
85,1610612753,1628976,1630532,1630591,201577,203914,1610612739,1626224,1628386,1629636,1630596,201937,0022100295,2,1315,1318,0,0,1610612739
86,1610612753,1628976,1630532,1630591,201577,203914,1610612739,1626224,1628386,1629636,1630596,201937,0022100295,2,1335,1338,0,0,1610612753
87,1610612753,1628976,1630532,1630591,201577,203914,1610612739,1626224,1628386,1629636,1630596,201937,0022100295,2,1344,1346,0,0,1610612739
88,1610612753,1628976,1630532,1630591,201577,203914,1610612739,1626224,1628386,1629636,1630596,201937,0022100295,2,1351,1351,2,0,1610612753
89,1610612753,1628976,1630532,1630591,201577,203914,1610612739,1626224,1628386,1629636,1630596,201937,0022100295,2,1369,1375,0,0,1610612739
90,1610612753,1628976,1630532,1630591,201577,203914,1610612739,1626224,1628386,1629636,1630596,201937,0022100295,2,1380,1380,0,0,1610612753
91,1610612753,1628976,1630532,1630591,201577,203914,1610612739,1626224,1628386,1629636,1630596,201937,0022100295,2,1382,1382,0,3,1610612739
92,1610612753,1628976,1630532,1630591,201577,203914,1610612739,1626224,1628386,1629636,1630596,201937,0022100295,2,1390,1391,0,0,1610612753
93,1610612753,1628976,1630532,1630591,201577,203914,1610612739,1626224,1628386,1629636,1630596,201937,0022100295,2,1396,1396,0,2,1610612739
94,1610612753,1628976,1630532,1630591,201577,203914,1610612739,1626224,1628386,1629636,1630596,201937,0022100295,2,1402,1402,2,0,1610612753
95,1610612753,1628976,1630532,1630591,201577,203914,1610612739,1626224,1628386,1629636,1630596,201937,0022100295,2,1416,1416,0,3,1610612739
96,1610612753,1628976,1630532,1630591,201577,203914,1610612739,1626224,1628386,1629636,1630596,201937,0022100295,2,1438,1439,2,0,1610612753
97,1610612753,1628976,1630532,1630591,201577,203914,1610612739,1626224,1628386,1629636,1630596,201937,0022100295,2,1440,1440,0,0,1610612753
98,1610612753,1630532,1628976,201577,203914,1630591,1610612739,1628374,1630596,1628386,1630171,1629636,0022100295,3,1440,1462,0,0,1610612753
99,1610612753,1630532,1628976,201577,203914,1630591,1610612739,1628374,1630596,1628386,1630171,1629636,0022100295,3,1476,1476,0,2,1610612739
100,1610612753,1630532,1628976,201577,203914,1630591,1610612739,1628374,1630596,1628386,1630171,1629636,0022100295,3,1495,1497,0,0,1610612753
101,1610612753,1630532,1628976,201577,203914,1630591,1610612739,1628374,1630596,1628386,1630171,1629636,0022100295,3,1507,1507,0,3,1610612739
102,1610612753,1630532,1628976,201577,203914,1630591,1610612739,1628374,1630596,1628386,1630171,1629636,0022100295,3,1521,1521,1,0,1610612753
103,1610612753,1630532,1628976,201577,203914,1630591,1610612739,1628374,1630596,1628386,1630171,1629636,0022100295,3,1545,1550,0,0,1610612739
104,1610612753,1630532,1628976,201577,203914,1630591,1610612739,1628374,1630596,1628386,1630171,1629636,0022100295,3,1554,1557,0,0,1610612753
105,1610612753,1630532,1628976,201577,203914,1630591,1610612739,1628374,1630596,1628386,1630171,1629636,0022100295,3,1560,1560,0,0,1610612739
106,1610612753,1630532,1628976,201577,203914,1630591,1610612739,1628374,1630596,1628386,1630171,1629636,0022100295,3,1568,1570,0,0,1610612753
107,1610612753,1630532,1628976,201577,203914,1630591,1610612739,1628374,1630596,1628386,1630171,1629636,0022100295,3,1596,1596,0,3,1610612739
108,1610612753,1630532,1628976,201577,203914,1630591,1610612739,1628374,1630596,1628386,1630171,1629636,0022100295,3,1621,1621,2,0,1610612753
109,1610612753,1630532,1628976,201577,203914,1630591,1610612739,1628374,1630596,1628386,1630171,1629636,0022100295,3,1638,1638,0,3,1610612739
110,1610612753,1630532,1628976,201577,203914,1630591,1610612739,1628374,1630596,1628386,1630171,1629636,0022100295,3,1647,1656,0,0,1610612753
111,1610612753,1630532,1628976,201577,203914,1630591,1610612739,1628374,1630596,1628386,1630171,1629636,0022100295,3,1665,1674,0,0,1610612739
112,1610612753,1630532,1628976,201577,203914,1630591,1610612739,1628374,1630596,1628386,1630171,1629636,0022100295,3,1694,1694,3,0,1610612753
113,1610612753,1630532,1628976,201577,203914,1630591,1610612739,1628374,1630596,1628386,1630171,1629636,0022100295,3,1694,1712,0,0,1610612739
114,1610612753,1630532,1628976,201577,203914,1630591,1610612739,1628374,1630596,1628386,1630171,1629636,0022100295,3,1717,1719,0,0,1610612753
115,1610612753,1630532,1628976,201577,203914,1630591,1610612739,1628374,1628386,1629636,1630596,201937,0022100295,3,1733,1733,0,3,1610612739
116,1610612753,1630532,1628976,201577,203914,1630591,1610612739,1628374,1628386,1629636,1630596,201937,0022100295,3,1754,1754,2,0,1610612753
117,1610612753,1630532,1628976,201577,203914,1630591,1610612739,1628374,1628386,1629636,1630596,201937,0022100295,3,1763,1763,0,0,1610612739
118,1610612753,1630532,1628976,201577,203914,1630591,1610612739,1628374,1628386,1629636,1630596,201937,0022100295,3,1779,1779,2,0,1610612753
119,1610612753,1630532,1628976,201577,203914,1630591,1610612739,1626224,1628374,1628386,1629636,201937,0022100295,3,1803,1805,0,0,1610612739
120,1610612753,1630532,1628976,201577,203914,1630591,1610612739,1626224,1628374,1628386,1629636,201937,0022100295,3,1811,1811,3,0,1610612753
121,1610612753,1630532,1628976,201577,203914,1630591,1610612739,1626224,1628374,1628386,1629636,201937,0022100295,3,1822,1826,0,0,1610612739
122,1610612753,1630532,1628976,201577,203914,1630591,1610612739,1626224,1628374,1628386,1629636,201937,0022100295,3,1834,1836,0,0,1610612753
123,1610612753,1630532,1628976,201577,203914,1630591,1610612739,1626224,1628374,1628386,1629636,201937,0022100295,3,1850,1850,0,3,1610612739
124,1610612753,1630532,1628976,201577,203914,1630591,1610612739,1626224,1628374,1628386,1629636,201937,0022100295,3,1878,1878,2,0,1610612753
125,1610612753,1630532,1628976,201577,203914,1630591,1610612739,1626224,1628374,1628386,1629636,201937,0022100295,3,1893,1896,0,2,1610612739
126,1610612753,1628976,1629643,1630591,201577,203914,1610612739,1626224,1628386,1629636,201567,201937,0022100295,3,1902,1903,0,0,1610612753
127,1610612753,1628976,1629643,1630591,201577,203914,1610612739,1626224,1628386,1629636,201567,201937,0022100295,3,1909,1923,0,0,1610612739
128,1610612753,1628976,1629643,1630181,201577,203914,1610612739,1626224,1628386,1629636,201567,201937,0022100295,3,1924,1940,2,0,1610612753
129,1610612753,1628976,1629643,1630181,201577,203914,1610612739,1626224,1628386,1629636,201567,201937,0022100295,3,1948,1948,0,3,1610612739
130,1610612753,1628976,1629643,1630181,201577,203914,1610612739,1626224,1628386,1629636,201567,201937,0022100295,3,1968,1985,0,0,1610612753
131,1610612753,1628976,1629643,1630181,201577,203914,1610612739,1626224,1628386,1629636,201567,201937,0022100295,3,1992,1992,0,2,1610612739
132,1610612753,1628976,1629643,1630181,201577,203914,1610612739,1626224,1628386,1629636,201567,201937,0022100295,3,2003,2012,0,0,1610612753
133,1610612753,1628539,1629021,1629643,1630181,1630532,1610612739,1626224,1629636,1630596,201567,201937,0022100295,3,2035,2038,0,0,1610612739
134,1610612753,1628539,1629021,1629643,1630181,1630532,1610612739,1626224,1629636,1630596,201567,201937,0022100295,3,2052,2057,0,0,1610612753
135,1610612753,1628539,1629021,1629643,1630181,1630532,1610612739,1626224,1629636,1630596,201567,201937,0022100295,3,2061,2077,0,0,1610612739
136,1610612753,1628539,1629021,1629643,1630181,1630532,1610612739,1626224,1629636,1630596,201567,201937,0022100295,3,2092,2095,0,0,1610612753
137,1610612753,1628539,1629021,1629643,1630181,1630532,1610612739,1626224,1629636,1630596,201567,201937,0022100295,3,2114,2117,0,0,1610612739
138,1610612753,1628539,1629021,1629643,1630181,1630532,1610612739,1626224,1629636,1630596,201567,201937,0022100295,3,2127,2131,0,0,1610612753
139,1610612753,1628539,1629021,1629643,1630181,1630532,1610612739,1626224,1629636,1630596,201567,201937,0022100295,3,2147,2150,0,0,1610612739
140,1610612753,1628539,1629021,1629643,1630181,1630532,1610612739,1626224,1629636,1630596,201567,201937,0022100295,3,2156,2156,3,0,1610612753
141,1610612753,1628539,1629021,1629643,1630181,1630532,1610612739,1626224,1629636,1630596,201567,201937,0022100295,3,2160,2160,0,0,1610612753
142,1610612753,1630532,1629021,1629643,1630181,1628539,1610612739,1628386,1630171,201567,201937,1626224,0022100295,4,2160,2177,0,3,1610612739
143,1610612753,1630532,1629021,1629643,1630181,1628539,1610612739,1628386,1630171,201567,201937,1626224,0022100295,4,2192,2195,0,0,1610612753
144,1610612753,1630532,1629021,1629643,1630181,1628539,1610612739,1628386,1630171,201567,201937,1626224,0022100295,4,2202,2204,0,0,1610612739
145,1610612753,1630532,1629021,1629643,1630181,1628539,1610612739,1628386,1630171,201567,201937,1626224,0022100295,4,2212,2212,1,0,1610612753
146,1610612753,1630532,1629021,1629643,1630181,1628539,1610612739,1628386,1630171,201567,201937,1626224,0022100295,4,2226,2232,0,0,1610612739
147,1610612753,1630532,1629021,1629643,1630181,1628539,1610612739,1628386,1630171,201567,201937,1626224,0022100295,4,2240,2246,0,0,1610612753
148,1610612753,1630532,1629021,1629643,1630181,1628539,1610612739,1628386,1630171,201567,201937,1626224,0022100295,4,2250,2252,0,0,1610612739
149,1610612753,1630532,1629021,1629643,1630181,1628539,1610612739,1628386,1630171,201567,201937,1626224,0022100295,4,2253,2263,0,0,1610612753
150,1610612753,1630532,1629021,1629643,1630181,1628539,1610612739,1628386,1630171,201567,201937,1626224,0022100295,4,2277,2280,0,0,1610612739
151,1610612753,1630532,1629021,1629643,1630181,1628539,1610612739,1628386,1630171,201567,201937,1626224,0022100295,4,2280,2292,3,0,1610612753
152,1610612753,1628539,1629021,1629643,1630181,1630591,1610612739,1628386,1630171,201567,201937,1626224,0022100295,4,2314,2317,0,0,1610612739
153,1610612753,1628539,1629021,1629643,1630181,1630591,1610612739,1628386,1630171,201567,201937,1626224,0022100295,4,2324,2328,0,0,1610612753
154,1610612753,1628539,1629021,1629643,1630181,1630591,1610612739,1628386,1630171,201567,201937,1626224,0022100295,4,2334,2334,0,2,1610612739
155,1610612753,1628539,1629021,1629643,1630181,1630591,1610612739,1628386,1630171,201567,201937,1626224,0022100295,4,2348,2351,0,0,1610612753
156,1610612753,1628539,1628976,1630181,1630591,201577,1610612739,1628374,1628386,1629636,1630171,1630596,0022100295,4,2372,2374,0,0,1610612739
157,1610612753,1628539,1628976,1630181,1630591,201577,1610612739,1628374,1628386,1629636,1630171,1630596,0022100295,4,2375,2377,0,0,1610612753
158,1610612753,1628539,1628976,1630181,1630591,201577,1610612739,1628374,1628386,1629636,1630171,1630596,0022100295,4,2394,2396,0,0,1610612739
159,1610612753,1628539,1628976,1630181,1630591,201577,1610612739,1628374,1628386,1629636,1630171,1630596,0022100295,4,2410,2410,2,0,1610612753
160,1610612753,1628539,1628976,1630181,1630591,201577,1610612739,1628374,1628386,1629636,1630171,1630596,0022100295,4,2411,2432,0,2,1610612739
161,1610612753,1628539,1628976,1630181,1630591,201577,1610612739,1628374,1628386,1629636,1630171,1630596,0022100295,4,2455,2458,0,0,1610612753
162,1610612753,1628539,1628976,1630181,1630591,201577,1610612739,1628374,1628386,1629636,1630171,1630596,0022100295,4,2476,2476,0,3,1610612739
163,1610612753,1628539,1628976,1630181,1630591,201577,1610612739,1628374,1628386,1629636,1630171,1630596,0022100295,4,2504,2505,0,0,1610612753
164,1610612753,1628539,1628976,1630181,1630591,201577,1610612739,1628374,1628386,1629636,1630171,1630596,0022100295,4,2518,2518,0,3,1610612739
165,1610612753,1628539,1628976,1630181,1630591,201577,1610612739,1628374,1628386,1629636,1630171,1630596,0022100295,4,2519,2538,0,0,1610612753
166,1610612753,1628976,1630532,1630591,201577,203914,1610612739,1628374,1629636,1630171,1630596,201937,0022100295,4,2557,2559,0,0,1610612739
167,1610612753,1628976,1630532,1630591,201577,203914,1610612739,1628374,1629636,1630171,1630596,201937,0022100295,4,2571,2571,2,0,1610612753
168,1610612753,1628976,1630532,1630591,201577,203914,1610612739,1628374,1629636,1630171,1630596,201937,0022100295,4,2592,2595,0,0,1610612739
169,1610612753,1628976,1630181,1630532,201577,203914,1610612739,1628374,1628386,1629636,1630596,201937,0022100295,4,2610,2610,0,0,1610612753
170,1610612753,1628976,1630181,1630532,201577,203914,1610612739,1628374,1628386,1629636,1630596,201937,0022100295,4,2623,2625,0,0,1610612739
171,1610612753,1628976,1630181,1630532,201577,203914,1610612739,1628374,1628386,1629636,1630596,201937,0022100295,4,2627,2627,2,0,1610612753
172,1610612753,1628976,1630181,1630532,201577,203914,1610612739,1628374,1628386,1629636,1630596,201937,0022100295,4,2637,2650,0,0,1610612739
173,1610612753,1628976,1630181,1630532,201577,203914,1610612739,1628374,1628386,1629636,1630596,201937,0022100295,4,2662,2665,0,0,1610612753
174,1610612753,1628976,1630181,1630532,201577,203914,1610612739,1628374,1628386,1629636,1630596,201937,0022100295,4,2674,2674,0,0,1610612739
175,1610612753,1628976,1630181,1630532,201577,203914,1610612739,1628374,1628386,1629636,1630596,201937,0022100295,4,2679,2700,0,0,1610612753
176,1610612753,1628976,1630181,1630532,201577,203914,1610612739,1628374,1628386,1629636,1630596,201937,0022100295,4,2719,2719,0,3,1610612739
177,1610612753,1628976,1630181,1630532,201577,203914,1610612739,1628374,1628386,1629636,1630596,201937,0022100295,4,2734,2737,0,0,1610612753
178,1610612753,1628976,1630181,1630532,201577,203914,1610612739,1628374,1628386,1629636,1630596,201937,0022100295,4,2738,2738,0,2,1610612739
179,1610612753,1628976,1629021,1630532,1630591,203914,1610612739,1628374,1628386,1629636,1630596,201937,0022100295,4,2750,2750,2,0,1610612753
180,1610612753,1628976,1629021,1630532,1630591,203914,1610612739,1628374,1628386,1629636,1630596,201937,0022100295,4,2751,2760,0,0,1610612739
181,1610612753,1629021,1629643,1630532,1630591,203914,1610612739,1628374,1628386,1629636,1630596,201937,0022100295,4,2760,2760,2,0,1610612753
182,1610612753,1629021,1629643,1630532,1630591,203914,1610612739,1628374,1628386,1629636,1630596,201937,0022100295,4,2776,2776,0,2,1610612739
183,1610612753,1629021,1629643,1630532,1630591,203914,1610612739,1628374,1628386,1629636,1630596,201937,0022100295,4,2790,2790,2,0,1610612753
184,1610612753,1629021,1629643,1630532,1630591,203914,1610612739,1628374,1628386,1629636,1630171,1630596,0022100295,4,2808,2808,0,2,1610612739
185,1610612753,1629021,1629643,1630532,1630591,203914,1610612739,1628374,1628386,1629636,1630171,1630596,0022100295,4,2815,2815,1,0,1610612753
186,1610612753,1629021,1629643,1630532,1630591,203914,1610612739,1628374,1628386,1629636,1630171,1630596,0022100295,4,2826,2826,0,2,1610612739
187,1610612753,1629021,1629643,1630532,1630591,203914,1610612739,1628374,1628386,1629636,1630171,1630596,0022100295,4,2833,2833,2,0,1610612753
188,1610612753,1629021,1629643,1630532,1630591,203914,1610612739,1628374,1628386,1629636,1630171,1630596,0022100295,4,2836,2836,0,0,1610612739
189,1610612753,1629021,1629643,1630532,1630591,203914,1610612739,1628374,1628386,1629636,1630171,1630596,0022100295,4,2841,2841,2,0,1610612753
190,1610612753,1629021,1629643,1630181,1630532,203914,1610612739,1628374,1628386,1629636,1630596,201937,0022100295,4,2862,2862,0,3,1610612739
191,1610612753,1629021,1629643,1630181,1630532,203914,1610612739,1628374,1628386,1629636,1630596,201937,0022100295,4,2873,2880,2,0,1610612753
