,t1_points_scored,stint_end,t2_pm,t1_players,t2_id,t1_id,t2_players,t2_points_scored,t1_pm,stint_start,margin_per_100,num_poss
0,14,340,-5,"[2544, 203076, 201580, 201980, 202340]",1610612759,1610612747,"[201942, 200746, 1626168, 1627854, 1627749]",9,5,0,22.727272727272727,22.0
1,16,406,-5,"[2544, 203076, 201580, 201980, 202340]",1610612759,1610612747,"[201942, 200746, 1626168, 1627854, 1627749]",11,5,341,17.857142857142858,28.0
2,18,432,-7,"[1628398, 201980, 202340, 203076, 2544]",1610612759,1610612747,"[1626168, 1628401, 200746, 201942, 201988]",11,7,407,23.333333333333332,30.0
3,18,480,-5,"[1628398, 201980, 202340, 203076, 2544]",1610612759,1610612747,"[1628401, 200746, 200752, 201960, 201988]",13,5,433,15.151515151515152,33.0
4,24,566,-7,"[1628398, 202340, 203076, 203484, 2544]",1610612759,1610612747,"[1628401, 200746, 200752, 201960, 201988]",17,7,481,17.5,40.0
5,26,719,-1,"[1627936, 1628398, 202340, 203076, 203484]",1610612759,1610612747,"[1627751, 1628401, 200752, 201960, 201988]",25,1,567,1.8867924528301887,53.0
6,26,864,4,"[1627936, 1628398, 203076, 203484, 203584]",1610612759,1610612747,"[1627751, 1628401, 200752, 201960, 201988]",30,-4,720,-6.451612903225806,62.0
7,30,951,0,"[2544, 203484, 1627936, 203584, 2730]",1610612759,1610612747,"[1627749, 201988, 200752, 1627751, 201158]",30,0,865,0.0,66.0
8,30,1011,1,"[2544, 203484, 1627936, 203584, 2730]",1610612759,1610612747,"[1627749, 1627751, 1627854, 201158, 201942]",31,-1,952,-1.4285714285714286,70.0
9,34,1043,-3,"[1626188, 203484, 203584, 2544, 2730]",1610612759,1610612747,"[1627749, 1627751, 1627854, 201158, 201942]",31,3,1012,4.10958904109589,73.0
10,34,1056,-3,"[1626188, 203484, 203584, 2544, 2730]",1610612759,1610612747,"[1627749, 1627854, 200746, 201158, 201942]",31,3,1044,4.054054054054054,74.0
11,37,1118,-3,"[1626188, 201980, 203584, 2544, 2730]",1610612759,1610612747,"[1627749, 1627854, 200746, 201158, 201942]",34,3,1057,3.8461538461538463,78.0
12,43,1197,-7,"[1626188, 201980, 203584, 2544, 2730]",1610612759,1610612747,"[1627854, 1628401, 200746, 201158, 201942]",36,7,1119,8.433734939759036,83.0
13,43,1244,-4,"[1626188, 201980, 202340, 203076, 2730]",1610612759,1610612747,"[1627854, 1628401, 200746, 201158, 201942]",39,4,1198,4.651162790697675,86.0
14,46,1293,-5,"[1626188, 201980, 202340, 203076, 2730]",1610612759,1610612747,"[1628401, 200746, 200752, 201158, 201942]",41,5,1245,5.4945054945054945,91.0
15,53,1439,-10,"[1628398, 201980, 202340, 203076, 2544]",1610612759,1610612747,"[1628401, 200746, 200752, 201942, 201988]",43,10,1294,9.803921568627452,102.0
16,68,1749,-15,"[1628398, 202340, 203076, 203484, 2544]",1610612759,1610612747,"[1628401, 200746, 200752, 201942, 201988]",53,15,1440,11.811023622047244,127.0
17,68,1764,-12,"[2544, 203076, 201580, 201980, 202340]",1610612759,1610612747,"[201942, 200746, 1626168, 1627854, 1627749]",56,12,1750,9.30232558139535,129.0
18,68,1769,-9,"[201580, 202340, 203076, 203484, 2544]",1610612759,1610612747,"[201942, 200746, 1626168, 1627854, 1627749]",59,9,1765,6.923076923076923,130.0
19,70,1819,-11,"[1628398, 202340, 203076, 203484, 2544]",1610612759,1610612747,"[201942, 200746, 1626168, 1627854, 1627749]",59,11,1770,8.270676691729323,133.0
20,71,1920,-8,"[1628398, 202340, 203076, 203484, 2544]",1610612759,1610612747,"[1626168, 1627854, 1628401, 200746, 201942]",63,8,1820,5.755395683453238,139.0
21,71,1946,-8,"[1628398, 202340, 203076, 203484, 2544]",1610612759,1610612747,"[1627854, 1628401, 200746, 200752, 201942]",63,8,1921,5.673758865248227,141.0
22,77,2094,-10,"[1627936, 1628398, 202340, 203076, 203484]",1610612759,1610612747,"[1627854, 1628401, 200746, 200752, 201942]",67,10,1947,6.622516556291391,151.0
23,77,2156,-8,"[1627936, 1628398, 202340, 203076, 203484]",1610612759,1610612747,"[1627751, 1628401, 200752, 201942, 201988]",69,8,2095,5.128205128205128,156.0
24,77,2159,-8,"[1627936, 1628398, 203076, 203484, 203584]",1610612759,1610612747,"[1627751, 1628401, 200752, 201158, 201988]",69,8,2157,5.095541401273886,157.0
25,83,2321,-7,"[1627936, 1628398, 203484, 203584, 2730]",1610612759,1610612747,"[1627751, 1628401, 200752, 201158, 201988]",76,7,2160,4.216867469879518,166.0
26,83,2406,-5,"[2544, 203484, 1627936, 203584, 2730]",1610612759,1610612747,"[201988, 1628401, 200752, 1627751, 201158]",78,5,2322,2.8735632183908044,174.0
27,85,2454,-4,"[1627936, 201980, 203584, 2544, 2730]",1610612759,1610612747,"[1627749, 1627751, 200752, 201158, 201988]",81,4,2407,2.2598870056497176,177.0
28,87,2479,-6,"[1627936, 201980, 202340, 2544, 2730]",1610612759,1610612747,"[1627749, 1627751, 200752, 201158, 201988]",81,6,2455,3.3707865168539324,178.0
29,87,2505,-4,"[1627936, 201980, 202340, 203076, 2730]",1610612759,1610612747,"[1626168, 1627749, 1627751, 1627854, 201158]",83,4,2480,2.209944751381215,181.0
30,87,2551,-2,"[1627936, 201980, 202340, 203076, 2730]",1610612759,1610612747,"[1627749, 1627751, 1627854, 200746, 201942]",85,2,2506,1.092896174863388,183.0
31,90,2649,0,"[1627936, 203076, 203484, 2544, 2730]",1610612759,1610612747,"[1627749, 1627751, 1627854, 200746, 201942]",90,0,2552,0.0,189.0
32,99,2774,-7,"[1627936, 203076, 203484, 2544, 2730]",1610612759,1610612747,"[1627749, 1627854, 200746, 200752, 201942]",92,7,2650,3.571428571428571,196.0
33,103,2868,-7,"[201980, 203076, 203484, 2544, 2730]",1610612759,1610612747,"[1627749, 1627854, 200746, 200752, 201942]",96,7,2775,3.3980582524271843,206.0
34,103,9999999,-7,"[201980, 203076, 203484, 2544, 2730]",1610612759,1610612747,"[1627854, 1628401, 200746, 200752, 201942]",96,7,2869,3.3816425120772946,207.0
