,TEAM_ID_1,TEAM_1_PLAYERS,TEAM_ID_2,TEAM_2_PLAYERS,PERIOD
0,1610612737,[1629631 1628381  203991  203992 1629027],1610612763,[1628415  203937  202685 1628960 1629630],1
1,1610612737,[1629631  203991  203992  203524  200765],1610612763,[1628415  202685 1628960 1629634 1626145],2
2,1610612737,[1629631 1628381  203991  203992 1629027],1610612763,[1628415  203937  202685 1628960 1629630],3
3,1610612737,[1629631  203991 1629629  203524  200765],1610612763,[1628415  202685 1628960 1629634 1626145],4
