,team1_id,team1_player1,team1_player2,team1_player3,team1_player4,team1_player5,team2_id,team2_player1,team2_player2,team2_player3,team2_player4,team2_player5,game_id,period,possession_start,possession_end,team1_points,team2_points,possession_team
0,1610612743,203924,200794,203999,203914,1627750,1610612747,2544,203076,201580,201980,203484,0041900312,1,0,16,0,0,1610612743
1,1610612743,203924,200794,203999,203914,1627750,1610612747,2544,203076,201580,201980,203484,0041900312,1,29,46,0,3,1610612747
2,1610612743,203924,200794,203999,203914,1627750,1610612747,2544,203076,201580,201980,203484,0041900312,1,72,72,0,0,1610612743
3,1610612743,203924,200794,203999,203914,1627750,1610612747,2544,203076,201580,201980,203484,0041900312,1,87,89,0,0,1610612747
4,1610612743,203924,200794,203999,203914,1627750,1610612747,2544,203076,201580,201980,203484,0041900312,1,105,105,0,0,1610612743
5,1610612743,203924,200794,203999,203914,1627750,1610612747,2544,203076,201580,201980,203484,0041900312,1,111,111,0,0,1610612747
6,1610612743,203924,200794,203999,203914,1627750,1610612747,2544,203076,201580,201980,203484,0041900312,1,117,126,0,0,1610612743
7,1610612743,203924,200794,203999,203914,1627750,1610612747,2544,203076,201580,201980,203484,0041900312,1,133,134,0,0,1610612747
8,1610612743,203924,200794,203999,203914,1627750,1610612747,2544,203076,201580,201980,203484,0041900312,1,141,141,0,0,1610612743
9,1610612743,203924,200794,203999,203914,1627750,1610612747,2544,203076,201580,201980,203484,0041900312,1,153,154,0,0,1610612747
10,1610612743,203924,200794,203999,203914,1627750,1610612747,2544,203076,201580,201980,203484,0041900312,1,154,177,0,0,1610612743
11,1610612743,203924,200794,203999,203914,1627750,1610612747,2544,203076,201580,201980,203484,0041900312,1,182,183,0,0,1610612747
12,1610612743,203924,200794,203999,203914,1627750,1610612747,2544,203076,201580,201980,203484,0041900312,1,196,196,2,0,1610612743
13,1610612743,203924,200794,203999,203914,1627750,1610612747,2544,203076,201580,201980,203484,0041900312,1,204,217,0,2,1610612747
14,1610612743,203924,200794,203999,203914,1627750,1610612747,2544,203076,201580,201980,203484,0041900312,1,232,232,2,0,1610612743
15,1610612743,203924,200794,203999,203914,1627750,1610612747,2544,203076,201580,201980,203484,0041900312,1,240,240,0,2,1610612747
16,1610612743,203924,200794,203999,203914,1627750,1610612747,2544,203076,201580,201980,203484,0041900312,1,262,262,3,0,1610612743
17,1610612743,203924,200794,203999,203914,1627750,1610612747,2544,203076,201580,201980,203484,0041900312,1,279,283,0,0,1610612747
18,1610612743,203924,200794,203999,203914,1627750,1610612747,2544,203076,201580,201980,203484,0041900312,1,289,294,3,0,1610612743
19,1610612743,203924,200794,203999,203914,1627750,1610612747,2544,203076,201580,201980,203484,0041900312,1,309,309,0,0,1610612747
20,1610612743,203924,200794,203999,203914,1627750,1610612747,2544,203076,201580,201980,203484,0041900312,1,310,310,0,0,1610612743
21,1610612743,203924,200794,203999,203914,1627750,1610612747,2544,203076,201580,201980,203484,0041900312,1,310,324,0,0,1610612747
22,1610612743,203924,200794,203999,203914,1627750,1610612747,2544,203076,201580,201980,203484,0041900312,1,331,332,0,0,1610612743
23,1610612743,203924,200794,203999,203914,1627750,1610612747,2544,203076,201580,201980,203484,0041900312,1,337,347,0,0,1610612747
24,1610612743,203924,200794,203999,203914,1627750,1610612747,2544,203076,201580,201980,203484,0041900312,1,355,355,2,0,1610612743
25,1610612743,203924,200794,203999,203914,1627750,1610612747,2544,203076,201580,201980,203484,0041900312,1,368,388,0,3,1610612747
26,1610612743,1627750,1628470,200794,203914,203999,1610612747,2544,203076,201580,201980,203484,0041900312,1,395,420,0,0,1610612743
27,1610612743,1627750,1628470,200794,203914,203999,1610612747,1628398,201980,203076,203484,2544,0041900312,1,424,424,0,2,1610612747
28,1610612743,1627750,1628470,200794,203914,203999,1610612747,1628398,201980,203076,203484,2544,0041900312,1,432,433,0,0,1610612743
29,1610612743,1627750,1628470,200794,203914,203999,1610612747,1628398,201980,203076,203484,2544,0041900312,1,434,434,0,0,1610612747
30,1610612743,1627750,1628470,200794,203914,203999,1610612747,1628398,200765,201980,203076,203484,0041900312,1,445,445,0,0,1610612743
31,1610612743,1627750,1628470,200794,203914,203999,1610612747,1628398,200765,201980,203076,203484,0041900312,1,450,450,0,2,1610612747
32,1610612743,1627750,1628470,200794,203914,203999,1610612747,1628398,200765,201980,203076,203484,0041900312,1,450,472,2,0,1610612743
33,1610612743,1627750,1628470,1629008,203914,203999,1610612747,1628398,200765,201980,203076,203484,0041900312,1,490,490,0,2,1610612747
34,1610612743,1627750,1628470,1629008,203914,203999,1610612747,1627936,1628398,200765,203076,203484,0041900312,1,509,509,0,0,1610612743
35,1610612743,1628420,1628470,1629008,203914,203999,1610612747,1627936,1628398,200765,203076,203484,0041900312,1,532,532,0,2,1610612747
36,1610612743,1628420,1628470,1629008,203914,203999,1610612747,1627936,1628398,200765,203076,203484,0041900312,1,541,541,1,0,1610612743
37,1610612743,1628420,1628470,1629008,203914,203999,1610612747,1627936,1628398,200765,203076,203484,0041900312,1,552,552,0,2,1610612747
38,1610612743,1628420,1628470,1629008,203914,203999,1610612747,1627936,1628398,200765,203076,203484,0041900312,1,572,573,0,0,1610612743
39,1610612743,1628420,1628470,1629008,203914,203999,1610612747,1627936,1628398,200765,203076,203484,0041900312,1,586,586,0,2,1610612747
40,1610612743,1628420,1628470,1629008,203914,203999,1610612747,1627936,1628398,200765,203076,203484,0041900312,1,600,601,0,0,1610612743
41,1610612743,1628420,1628470,1629008,203914,203999,1610612747,1627936,1628398,200765,203076,203484,0041900312,1,616,616,0,3,1610612747
42,1610612743,1628420,1628470,1629008,203914,203999,1610612747,1627936,1628398,200765,203076,203484,0041900312,1,616,629,2,0,1610612743
43,1610612743,1627750,1628420,1628470,1629008,203999,1610612747,1627936,1628398,200765,203076,2544,0041900312,1,640,640,0,2,1610612747
44,1610612743,1627750,1628420,1628470,1629008,203999,1610612747,1627936,1628398,200765,203076,2544,0041900312,1,661,663,0,0,1610612743
45,1610612743,1627750,1628420,1628470,1629008,203999,1610612747,1627936,1628398,200765,203076,2544,0041900312,1,666,671,0,0,1610612747
46,1610612743,1627750,1628420,1628470,1629008,203999,1610612747,1627936,1628398,200765,203076,2544,0041900312,1,695,695,2,0,1610612743
47,1610612743,1627750,1628420,1628470,1629008,203999,1610612747,1627936,1628398,200765,203076,2544,0041900312,1,716,716,0,2,1610612747
48,1610612743,1627750,1628420,1628470,1629008,203999,1610612747,1627936,1628398,200765,203076,2544,0041900312,1,720,720,2,0,1610612743
49,1610612743,1627750,1628420,1628470,1629008,203999,1610612747,1627936,1628398,200765,203076,2544,0041900312,1,720,720,0,0,167
50,1610612743,1627750,1628470,1629008,1628420,203486,1610612747,2544,1628398,200765,1627936,202693,0041900312,2,720,741,0,2,1610612747
51,1610612743,1627750,1628470,1629008,1628420,203486,1610612747,2544,1628398,200765,1627936,202693,0041900312,2,760,760,2,0,1610612743
52,1610612743,1627750,1628470,1629008,1628420,203486,1610612747,2544,1628398,200765,1627936,202693,0041900312,2,777,777,0,2,1610612747
53,1610612743,1627750,1628470,1629008,1628420,203486,1610612747,2544,1628398,200765,1627936,202693,0041900312,2,804,804,3,0,1610612743
54,1610612743,1627750,1628470,1629008,1628420,203486,1610612747,2544,1628398,200765,1627936,202693,0041900312,2,808,808,0,2,1610612747
55,1610612743,1627750,1628470,1629008,1628420,203486,1610612747,2544,1628398,200765,1627936,202693,0041900312,2,828,828,2,0,1610612743
56,1610612743,1627750,1628470,1629008,1628420,203486,1610612747,2544,1628398,200765,1627936,202693,0041900312,2,837,837,0,0,1610612747
57,1610612743,1627750,1628470,1629008,1628420,203486,1610612747,2544,1628398,200765,1627936,202693,0041900312,2,848,848,0,0,1610612743
58,1610612743,1627750,1628470,1629008,1628420,203486,1610612747,1627936,1628398,201980,202693,2544,0041900312,2,867,868,0,0,1610612747
59,1610612743,1627750,1628470,1629008,1628420,203486,1610612747,1627936,1628398,201980,202693,2544,0041900312,2,874,875,0,0,1610612743
60,1610612743,1627750,1628470,1629008,1628420,203486,1610612747,1627936,1628398,201980,202693,2544,0041900312,2,882,882,0,0,1610612747
61,1610612743,1627750,1628470,1629008,1628420,203486,1610612747,1627936,1628398,201980,202693,2544,0041900312,2,895,895,3,0,1610612743
62,1610612743,1627750,1628470,1629008,1628420,203486,1610612747,1627936,1628398,201980,202693,2544,0041900312,2,897,912,0,0,1610612747
63,1610612743,1627750,1628470,1629008,1628420,203486,1610612747,1627936,1628398,201980,202693,2544,0041900312,2,917,918,2,0,1610612743
64,1610612743,1627750,1628470,1629008,1628420,203486,1610612747,1627936,1628398,201980,202693,2544,0041900312,2,942,942,0,3,1610612747
65,1610612743,1627750,1628470,1629008,1628420,203486,1610612747,1627936,1628398,201980,202693,2544,0041900312,2,959,965,2,0,1610612743
66,1610612743,1627750,1628470,1629008,1628420,203486,1610612747,1627936,1628398,201980,202693,2544,0041900312,2,977,977,0,3,1610612747
67,1610612743,1627750,1628470,1629008,1628420,203486,1610612747,1627936,1628398,201980,202693,2544,0041900312,2,988,988,1,0,1610612743
68,1610612743,1627750,1628470,1629008,1628420,203486,1610612747,1627936,1628398,201980,202693,2544,0041900312,2,1005,1005,0,0,1610612747
69,1610612743,1627750,1628470,1629008,1628420,203486,1610612747,1627936,1628398,201980,202693,2544,0041900312,2,1006,1024,0,0,1610612743
70,1610612743,1628420,1629008,203914,203924,203999,1610612747,1627936,200765,201980,203076,2730,0041900312,2,1038,1039,0,0,1610612747
71,1610612743,1628420,1629008,203914,203924,203999,1610612747,1627936,200765,201980,203076,2730,0041900312,2,1041,1041,0,0,1610612743
72,1610612743,1628420,1629008,203914,203924,203999,1610612747,1627936,200765,201980,203076,2730,0041900312,2,1053,1055,0,0,1610612747
73,1610612743,1628420,1629008,203914,203924,203999,1610612747,1627936,200765,201980,203076,2730,0041900312,2,1064,1065,0,0,1610612743
74,1610612743,1628420,1629008,203914,203924,203999,1610612747,1627936,200765,201980,203076,2730,0041900312,2,1086,1086,0,3,1610612747
75,1610612743,1628420,1629008,203914,203924,203999,1610612747,1627936,200765,201980,203076,2730,0041900312,2,1086,1100,0,1,1610612743
76,1610612743,1628420,1629008,203914,203924,203999,1610612747,1627936,200765,201980,203076,2730,0041900312,2,1104,1104,0,2,1610612747
77,1610612743,1628420,1629008,203914,203924,203999,1610612747,1627936,200765,201980,203076,2730,0041900312,2,1113,1124,0,0,1610612743
78,1610612743,1627750,1629008,203914,203924,203999,1610612747,1627936,200765,201980,203076,2730,0041900312,2,1137,1137,0,0,1610612747
79,1610612743,1627750,1629008,203914,203924,203999,1610612747,1627936,200765,201980,203076,2730,0041900312,2,1144,1150,0,0,1610612743
80,1610612743,1627750,1629008,203914,203924,203999,1610612747,1627936,200765,201980,203076,2730,0041900312,2,1151,1163,0,2,1610612747
81,1610612743,1627750,1629008,203914,203924,203999,1610612747,1627936,200765,201980,203076,2730,0041900312,2,1179,1179,0,0,1610612743
82,1610612743,1627750,1629008,203914,203924,203999,1610612747,1627936,200765,201980,203076,2730,0041900312,2,1196,1196,0,3,1610612747
83,1610612743,1627750,1629008,203914,203924,203999,1610612747,1627936,200765,201980,203076,2730,0041900312,2,1207,1207,2,0,1610612743
84,1610612743,1627750,200794,203914,203924,203999,1610612747,1627936,200765,203076,203484,2730,0041900312,2,1222,1222,0,0,1610612747
85,1610612743,1627750,200794,203914,203924,203999,1610612747,1627936,200765,203076,203484,2730,0041900312,2,1232,1233,0,0,1610612743
86,1610612743,1627750,200794,203914,203924,203999,1610612747,1627936,200765,203076,203484,2730,0041900312,2,1237,1237,0,0,1610612747
87,1610612743,1627750,200794,203914,203924,203999,1610612747,1627936,200765,203076,203484,2730,0041900312,2,1248,1248,2,0,1610612743
88,1610612743,1627750,200794,203914,203924,203999,1610612747,1627936,200765,203076,203484,2730,0041900312,2,1254,1267,0,3,1610612747
89,1610612743,1627750,200794,203914,203924,203999,1610612747,1627936,200765,203076,203484,2730,0041900312,2,1269,1286,4,0,1610612743
90,1610612743,1627750,200794,203914,203924,203999,1610612747,1627936,200765,203076,203484,2730,0041900312,2,1288,1304,1,0,1610612747
91,1610612743,1627750,200794,203914,203924,203999,1610612747,1627936,203076,203484,2544,2730,0041900312,2,1307,1307,0,0,1610612743
92,1610612743,1627750,200794,203914,203924,203999,1610612747,1627936,203076,203484,2544,2730,0041900312,2,1310,1312,0,0,1610612747
93,1610612743,1627750,200794,203914,203924,203999,1610612747,1627936,203076,203484,2544,2730,0041900312,2,1319,1319,0,0,1610612743
94,1610612743,1627750,200794,203914,203924,203999,1610612747,1627936,203076,203484,2544,2730,0041900312,2,1333,1347,0,1,1610612747
95,1610612743,1627750,200794,203914,203924,203999,1610612747,1627936,203076,203484,2544,2730,0041900312,2,1364,1364,2,0,1610612743
96,1610612743,1627750,200794,203914,203924,203999,1610612747,1627936,201980,203076,2544,2730,0041900312,2,1381,1382,0,0,1610612747
97,1610612743,1627750,200794,203914,203924,203999,1610612747,1627936,201980,203076,2544,2730,0041900312,2,1395,1395,0,0,1610612743
98,1610612743,1627750,200794,203914,203924,203999,1610612747,1627936,201980,203076,2544,2730,0041900312,2,1398,1398,0,2,1610612747
99,1610612743,1627750,200794,203914,203924,203999,1610612747,1627936,201980,203076,2544,2730,0041900312,2,1406,1407,1,0,1610612743
100,1610612743,1627750,1628470,200794,203486,203914,1610612747,1627936,201980,203076,2544,2730,0041900312,2,1427,1427,0,2,1610612747
101,1610612743,1627750,1629008,200794,203914,203999,1610612747,1627936,201980,202693,203076,2544,0041900312,2,1432,1432,2,0,1610612743
102,1610612743,1627750,1628470,200794,203914,203999,1610612747,1627936,201980,202693,203076,2544,0041900312,2,1440,1440,0,0,1610612743
103,1610612743,203924,200794,203999,203914,1627750,1610612747,2544,203076,201580,201980,203484,0041900312,3,1440,1453,0,0,1610612747
104,1610612743,203924,200794,203999,203914,1627750,1610612747,2544,203076,201580,201980,203484,0041900312,3,1476,1477,0,0,1610612743
105,1610612743,203924,200794,203999,203914,1627750,1610612747,2544,203076,201580,201980,203484,0041900312,3,1483,1484,0,0,1610612747
106,1610612743,203924,200794,203999,203914,1627750,1610612747,2544,203076,201580,201980,203484,0041900312,3,1497,1497,2,0,1610612743
107,1610612743,203924,200794,203999,203914,1627750,1610612747,2544,203076,201580,201980,203484,0041900312,3,1512,1512,0,3,1610612747
108,1610612743,203924,200794,203999,203914,1627750,1610612747,2544,203076,201580,201980,203484,0041900312,3,1517,1517,0,0,1610612743
109,1610612743,203924,200794,203999,203914,1627750,1610612747,2544,203076,201580,201980,203484,0041900312,3,1534,1535,0,0,1610612747
110,1610612743,203924,200794,203999,203914,1627750,1610612747,2544,203076,201580,201980,203484,0041900312,3,1558,1559,0,0,1610612743
111,1610612743,203924,200794,203999,203914,1627750,1610612747,2544,203076,201580,201980,203484,0041900312,3,1571,1571,0,2,1610612747
112,1610612743,203924,200794,203999,203914,1627750,1610612747,2544,203076,201580,201980,203484,0041900312,3,1584,1594,2,0,1610612743
113,1610612743,203924,200794,203999,203914,1627750,1610612747,2544,203076,201580,201980,203484,0041900312,3,1604,1604,0,0,1610612747
114,1610612743,203924,200794,203999,203914,1627750,1610612747,2544,203076,201580,201980,203484,0041900312,3,1612,1613,0,0,1610612743
115,1610612743,203924,200794,203999,203914,1627750,1610612747,2544,203076,201580,201980,203484,0041900312,3,1623,1623,0,2,1610612747
116,1610612743,203924,200794,203999,203914,1627750,1610612747,2544,203076,201580,201980,203484,0041900312,3,1637,1638,0,0,1610612743
117,1610612743,203924,200794,203999,203914,1627750,1610612747,2544,203076,201580,201980,203484,0041900312,3,1650,1650,0,0,1610612747
118,1610612743,203924,200794,203999,203914,1627750,1610612747,2544,203076,201580,201980,203484,0041900312,3,1656,1657,0,0,1610612743
119,1610612743,203924,200794,203999,203914,1627750,1610612747,2544,203076,201580,201980,203484,0041900312,3,1668,1668,0,3,1610612747
120,1610612743,203924,200794,203999,203914,1627750,1610612747,2544,203076,201580,201980,203484,0041900312,3,1669,1688,2,0,1610612743
121,1610612743,203924,200794,203999,203914,1627750,1610612747,2544,203076,201580,201980,203484,0041900312,3,1704,1708,0,0,1610612747
122,1610612743,203924,200794,203999,203914,1627750,1610612747,2544,203076,201580,201980,203484,0041900312,3,1715,1715,2,0,1610612743
123,1610612743,203924,200794,203999,203914,1627750,1610612747,2544,203076,201580,201980,203484,0041900312,3,1737,1738,0,0,1610612747
124,1610612743,203924,200794,203999,203914,1627750,1610612747,2544,203076,201580,201980,203484,0041900312,3,1749,1749,2,0,1610612743
125,1610612743,203924,200794,203999,203914,1627750,1610612747,2544,203076,201580,201980,203484,0041900312,3,1750,1772,0,2,1610612747
126,1610612743,203924,200794,203999,203914,1627750,1610612747,1628398,201980,203076,203484,2544,0041900312,3,1786,1786,0,0,1610612743
127,1610612743,1627750,1628470,200794,203914,203999,1610612747,1628398,201980,203076,203484,2544,0041900312,3,1806,1807,0,0,1610612747
128,1610612743,1627750,1628470,200794,203914,203999,1610612747,1628398,201980,203076,203484,2544,0041900312,3,1826,1826,3,0,1610612743
129,1610612743,1627750,1628470,200794,203914,203999,1610612747,1628398,201980,203076,203484,2544,0041900312,3,1844,1844,0,2,1610612747
130,1610612743,1627750,1628470,200794,203914,203999,1610612747,1628398,201980,203076,203484,2544,0041900312,3,1868,1868,2,0,1610612743
131,1610612743,1627750,1628470,200794,203914,203999,1610612747,1628398,201980,203076,203484,2544,0041900312,3,1884,1887,0,0,1610612747
132,1610612743,1627750,1628420,1628470,200794,203999,1610612747,1628398,200765,201980,203076,203484,0041900312,3,1894,1903,3,0,1610612743
133,1610612743,1627750,1628420,1628470,200794,203999,1610612747,1627936,1628398,200765,203076,203484,0041900312,3,1908,1912,0,2,1610612747
134,1610612743,1627750,1628420,1628470,1629008,203999,1610612747,1627936,1628398,200765,203076,203484,0041900312,3,1933,1933,2,0,1610612743
135,1610612743,1627750,1628420,1628470,1629008,203999,1610612747,1627936,1628398,200765,203076,203484,0041900312,3,1943,1943,0,0,1610612747
136,1610612743,1627750,1628420,1628470,1629008,203999,1610612747,1627936,1628398,200765,203076,203484,0041900312,3,1957,1958,0,0,1610612743
137,1610612743,1627750,1628420,1628470,1629008,203999,1610612747,1627936,1628398,200765,203076,203484,0041900312,3,1973,1973,0,2,1610612747
138,1610612743,1627750,1628420,1628470,1629008,203999,1610612747,1627936,1628398,200765,203076,203484,0041900312,3,1983,1984,0,0,1610612743
139,1610612743,1627750,1628420,1628470,1629008,203999,1610612747,1627936,1628398,200765,203076,203484,0041900312,3,1992,2004,0,0,1610612747
140,1610612743,1627750,1628420,1628470,1629008,203999,1610612747,1627936,1628398,200765,203076,203484,0041900312,3,2012,2012,3,0,1610612743
141,1610612743,1627750,1628420,1628470,1629008,203999,1610612747,1627936,1628398,200765,203076,203484,0041900312,3,2029,2030,0,0,1610612747
142,1610612743,1627750,1628420,1628470,1629008,203999,1610612747,1627936,1628398,200765,203076,203484,0041900312,3,2034,2034,2,0,1610612743
143,1610612743,1628408,1628420,1628470,1629008,203999,1610612747,1627936,1628398,200765,203076,2544,0041900312,3,2055,2055,0,2,1610612747
144,1610612743,1628408,1628420,1628470,1629008,203999,1610612747,1627936,1628398,200765,203076,2544,0041900312,3,2081,2081,0,0,1610612743
145,1610612743,1628408,1628420,1628470,1629008,203999,1610612747,1627936,1628398,200765,203076,2544,0041900312,3,2083,2083,0,2,1610612747
146,1610612743,1627750,1628408,1628470,1629008,203999,1610612747,1627936,1628398,200765,203076,2544,0041900312,3,2093,2096,0,0,1610612743
147,1610612743,1627750,1628408,1628470,1629008,203999,1610612747,1627936,1628398,200765,203076,2544,0041900312,3,2102,2104,0,0,1610612747
148,1610612743,1627750,1628408,1628470,1629008,203999,1610612747,1627936,1628398,200765,203076,2544,0041900312,3,2120,2120,3,0,1610612743
149,1610612743,1627750,1628408,1628470,1629008,203999,1610612747,1627936,1628398,200765,203076,2544,0041900312,3,2135,2135,0,0,1610612747
150,1610612743,1627750,1628408,1628470,1629008,203999,1610612747,1627936,1628398,200765,203076,2544,0041900312,3,2152,2153,0,0,1610612743
151,1610612743,1627750,1628408,1628470,1629008,203999,1610612747,1627936,1628398,200765,203076,2544,0041900312,3,2159,2159,0,0,1610612747
152,1610612743,1627750,1628408,1628470,1629008,203999,1610612747,1627936,1628398,200765,203076,2544,0041900312,3,2160,2160,0,0,1610612747
153,1610612743,1627750,1628470,1629008,203486,1628408,1610612747,2544,1628398,200765,1627936,202693,0041900312,4,2160,2178,0,0,1610612743
154,1610612743,1627750,1628470,1629008,203486,1628408,1610612747,2544,1628398,200765,1627936,202693,0041900312,4,2193,2194,0,0,1610612747
155,1610612743,1627750,1628470,1629008,203486,1628408,1610612747,2544,1628398,200765,1627936,202693,0041900312,4,2210,2217,2,0,1610612743
156,1610612743,1627750,1628470,1629008,203486,1628408,1610612747,2544,1628398,200765,1627936,202693,0041900312,4,2227,2236,0,0,1610612747
157,1610612743,1627750,1628470,1629008,203486,1628408,1610612747,2544,1628398,200765,1627936,202693,0041900312,4,2249,2250,0,0,1610612743
158,1610612743,1627750,1628470,1629008,203486,1628408,1610612747,2544,1628398,200765,1627936,202693,0041900312,4,2274,2275,0,0,1610612747
159,1610612743,1627750,1628470,1629008,203486,1628408,1610612747,2544,1628398,200765,1627936,202693,0041900312,4,2282,2282,2,0,1610612743
160,1610612743,1627750,1628470,1629008,203486,1628408,1610612747,1627936,1628398,201980,202693,2544,0041900312,4,2298,2312,0,4,1610612747
161,1610612743,1627750,1628470,1629008,203486,1628408,1610612747,1627936,1628398,201980,202693,2544,0041900312,4,2330,2330,2,0,1610612743
162,1610612743,1627750,1628470,1629008,203486,1628408,1610612747,1627936,1628398,201980,202693,2544,0041900312,4,2343,2343,0,0,1610612747
163,1610612743,1627750,1628408,1628470,200794,203486,1610612747,1628398,201980,202693,203484,2544,0041900312,4,2367,2367,0,0,1610612743
164,1610612743,1627750,1628408,1628470,200794,203486,1610612747,1628398,201980,202693,203484,2544,0041900312,4,2389,2390,0,0,1610612747
165,1610612743,1627750,1628408,1628470,200794,203486,1610612747,1628398,201980,202693,203484,2544,0041900312,4,2396,2396,1,0,1610612743
166,1610612743,1627750,1628408,1628470,200794,203999,1610612747,201980,203076,203484,2544,2730,0041900312,4,2420,2422,0,0,1610612747
167,1610612743,1627750,1628408,1628470,200794,203999,1610612747,201980,203076,203484,2544,2730,0041900312,4,2422,2434,2,0,1610612743
168,1610612743,1627750,1628408,1628470,200794,203999,1610612747,200765,201980,203076,203484,2730,0041900312,4,2441,2441,0,3,1610612747
169,1610612743,1627750,1628408,1628470,200794,203999,1610612747,200765,201980,203076,203484,2730,0041900312,4,2457,2458,0,0,1610612743
170,1610612743,1627750,1628408,1628470,200794,203999,1610612747,200765,201980,203076,203484,2730,0041900312,4,2476,2476,0,3,1610612747
171,1610612743,1627750,1628408,1628470,200794,203999,1610612747,200765,201980,203076,203484,2730,0041900312,4,2500,2500,2,0,1610612743
172,1610612743,1627750,1628408,200794,203924,203999,1610612747,200765,201980,203076,203484,2730,0041900312,4,2523,2540,0,3,1610612747
173,1610612743,1627750,1628408,200794,203924,203999,1610612747,200765,203076,203484,2544,2730,0041900312,4,2559,2559,2,0,1610612743
174,1610612743,1627750,1628408,200794,203924,203999,1610612747,1627936,203076,203484,2544,2730,0041900312,4,2581,2581,0,2,1610612747
175,1610612743,1627750,1628408,200794,203924,203999,1610612747,1627936,203076,203484,2544,2730,0041900312,4,2593,2593,1,0,1610612743
176,1610612743,1627750,1628408,200794,203924,203999,1610612747,1627936,203076,203484,2544,2730,0041900312,4,2614,2614,0,0,1610612747
177,1610612743,1627750,1628408,200794,203924,203999,1610612747,1627936,203076,203484,2544,2730,0041900312,4,2631,2631,0,0,1610612743
178,1610612743,1627750,1628408,200794,203924,203999,1610612747,1627936,203076,203484,2544,2730,0041900312,4,2646,2647,0,0,1610612747
179,1610612743,1627750,1628408,200794,203924,203999,1610612747,1627936,203076,203484,2544,2730,0041900312,4,2657,2658,0,0,1610612743
180,1610612743,1627750,1628408,200794,203924,203999,1610612747,1627936,203076,203484,2544,2730,0041900312,4,2666,2667,0,0,1610612747
181,1610612743,1627750,1628408,200794,203924,203999,1610612747,1627936,203076,203484,2544,2730,0041900312,4,2672,2672,0,0,1610612743
182,1610612743,1627750,1628408,200794,203924,203999,1610612747,1627936,203076,203484,2544,2730,0041900312,4,2697,2697,0,3,1610612747
183,1610612743,1627750,1628408,200794,203924,203999,1610612747,1627936,203076,203484,2544,2730,0041900312,4,2697,2718,2,0,1610612743
184,1610612743,1627750,1628408,200794,203924,203999,1610612747,1627936,203076,203484,2544,2730,0041900312,4,2744,2744,0,0,1610612747
185,1610612743,1627750,1628408,200794,203924,203999,1610612747,1627936,203076,203484,2544,2730,0041900312,4,2759,2759,2,0,1610612743
186,1610612743,1627750,1628408,200794,203924,203999,1610612747,1627936,200765,203076,203484,2544,0041900312,4,2774,2775,0,0,1610612747
187,1610612743,1627750,1628408,200794,203924,203999,1610612747,1627936,200765,203076,203484,2544,0041900312,4,2788,2789,0,0,1610612743
188,1610612743,1627750,1628408,200794,203924,203999,1610612747,1627936,200765,203076,203484,2544,0041900312,4,2804,2804,0,0,1610612747
189,1610612743,1627750,1628408,200794,203924,203999,1610612747,1627936,200765,203076,203484,2544,0041900312,4,2816,2816,3,0,1610612743
190,1610612743,1627750,1628408,200794,203924,203999,1610612747,1627936,200765,203076,203484,2544,0041900312,4,2816,2825,0,0,1610612747
191,1610612743,1627750,1628408,200794,203924,203999,1610612747,1627936,201980,203076,203484,2544,0041900312,4,2848,2849,2,0,1610612743
192,1610612743,1627750,1628408,200794,203924,203999,1610612747,1627936,201980,203076,203484,2544,0041900312,4,2854,2854,0,2,1610612747
193,1610612743,1627750,1628408,200794,203924,203999,1610612747,1627936,201980,203076,203484,2544,0041900312,4,2854,2860,2,0,1610612743
194,1610612743,1627750,1628408,200794,203924,203999,1610612747,1627936,201980,203076,203484,2544,0041900312,4,2860,2880,0,3,1610612747
195,1610612743,1627750,1628408,203486,203924,203999,1610612747,200765,201980,203076,203484,2544,0041900312,4,2880,2880,0,0,708
