,team1_id,team1_player1,team1_player2,team1_player3,team1_player4,team1_player5,team2_id,team2_player1,team2_player2,team2_player3,team2_player4,team2_player5,game_id,period,possession_start,possession_end,team1_points,team2_points,possession_team
0,1610612761,1628384,1627783,201188,1627832,200768,1610612738,1628369,1627759,1628464,203935,202689,0041900213,1,0,13,3,0,1610612761
1,1610612761,1628384,1627783,201188,1627832,200768,1610612738,1628369,1627759,1628464,203935,202689,0041900213,1,27,35,0,0,1610612738
2,1610612761,1628384,1627783,201188,1627832,200768,1610612738,1628369,1627759,1628464,203935,202689,0041900213,1,42,42,2,0,1610612761
3,1610612761,1628384,1627783,201188,1627832,200768,1610612738,1628369,1627759,1628464,203935,202689,0041900213,1,59,59,0,2,1610612738
4,1610612761,1628384,1627783,201188,1627832,200768,1610612738,1628369,1627759,1628464,203935,202689,0041900213,1,73,76,0,0,1610612761
5,1610612761,1628384,1627783,201188,1627832,200768,1610612738,1628369,1627759,1628464,203935,202689,0041900213,1,84,88,0,0,1610612738
6,1610612761,1628384,1627783,201188,1627832,200768,1610612738,1628369,1627759,1628464,203935,202689,0041900213,1,89,89,2,0,1610612761
7,1610612761,1628384,1627783,201188,1627832,200768,1610612738,1628369,1627759,1628464,203935,202689,0041900213,1,89,111,0,0,1610612738
8,1610612761,1628384,1627783,201188,1627832,200768,1610612738,1628369,1627759,1628464,203935,202689,0041900213,1,113,116,0,0,1610612761
9,1610612761,1628384,1627783,201188,1627832,200768,1610612738,1628369,1627759,1628464,203935,202689,0041900213,1,129,131,0,0,1610612738
10,1610612761,1628384,1627783,201188,1627832,200768,1610612738,1628369,1627759,1628464,203935,202689,0041900213,1,144,147,0,0,1610612761
11,1610612761,1628384,1627783,201188,1627832,200768,1610612738,1628369,1627759,1628464,203935,202689,0041900213,1,151,151,0,1,1610612738
12,1610612761,1628384,1627783,201188,1627832,200768,1610612738,1628369,1627759,1628464,203935,202689,0041900213,1,165,165,3,0,1610612761
13,1610612761,1628384,1627783,201188,1627832,200768,1610612738,1628369,1627759,1628464,203935,202689,0041900213,1,177,177,0,2,1610612738
14,1610612761,1628384,1627783,201188,1627832,200768,1610612738,1628369,1627759,1628464,203935,202689,0041900213,1,186,188,0,0,1610612761
15,1610612761,1628384,1627783,201188,1627832,200768,1610612738,1628369,1627759,1628464,203935,202689,0041900213,1,196,201,0,2,1610612738
16,1610612761,1628384,1627783,201188,1627832,200768,1610612738,1628369,1627759,1628464,203935,202689,0041900213,1,214,219,0,0,1610612761
17,1610612761,1628384,1627783,201188,1627832,200768,1610612738,1628369,1627759,1628464,203935,202689,0041900213,1,223,234,0,0,1610612738
18,1610612761,1628384,1627783,201188,1627832,200768,1610612738,1628369,1627759,1628464,203935,202689,0041900213,1,241,241,2,0,1610612761
19,1610612761,1628384,1627783,201188,1627832,200768,1610612738,1628369,1627759,1628464,203935,202689,0041900213,1,256,256,0,3,1610612738
20,1610612761,1628384,1627783,201188,1627832,200768,1610612738,1628369,1627759,1628464,203935,202689,0041900213,1,278,278,2,0,1610612761
21,1610612761,1628384,1627783,201188,1627832,200768,1610612738,1628369,1627759,1628464,203935,202689,0041900213,1,300,303,0,2,1610612738
22,1610612761,1628384,1627783,201188,1627832,200768,1610612738,1628369,1627759,1628464,203935,202689,0041900213,1,315,316,0,0,1610612761
23,1610612761,1628384,1627783,201188,1627832,200768,1610612738,1628369,1627759,1628464,203935,202689,0041900213,1,322,325,0,0,1610612738
24,1610612761,1628384,1627783,201188,1627832,200768,1610612738,1628369,1627759,1628464,203935,202689,0041900213,1,329,332,0,0,1610612761
25,1610612761,1628384,1627783,201188,1627832,200768,1610612738,1628369,1627759,1628464,203935,202689,0041900213,1,335,335,0,2,1610612738
26,1610612761,1626181,1627832,1628384,200768,201188,1610612738,1627759,1628400,1628464,202689,203935,0041900213,1,353,353,2,0,1610612761
27,1610612761,1626181,1627832,1628384,200768,201188,1610612738,1627759,1628400,1628464,202689,203935,0041900213,1,368,368,0,2,1610612738
28,1610612761,1626181,1627832,1628384,200768,201188,1610612738,1627759,1628400,1628464,202689,203935,0041900213,1,376,378,0,0,1610612761
29,1610612761,1626181,1627832,1628384,200768,201188,1610612738,1627759,1628400,1628464,202689,203935,0041900213,1,393,395,0,1,1610612738
30,1610612761,1626181,1627832,1628384,200768,201586,1610612738,1627759,1628400,1628464,202689,203935,0041900213,1,410,410,2,0,1610612761
31,1610612761,1626181,1627832,1628384,200768,201586,1610612738,1627759,1628400,1628464,202689,203935,0041900213,1,421,421,0,2,1610612738
32,1610612761,1626181,1627832,1628384,200768,201586,1610612738,1627759,1628400,1628464,202689,203935,0041900213,1,429,456,1,0,1610612761
33,1610612761,1626181,1627832,1628384,200768,201586,1610612738,1627759,1628400,1628464,202689,203935,0041900213,1,467,467,0,0,1610612738
34,1610612761,1626181,1627832,1628384,200768,201586,1610612738,1627759,1628400,1628464,202689,203935,0041900213,1,468,470,1,0,1610612761
35,1610612761,1626181,1627832,1628384,200768,201586,1610612738,1627759,1628369,1628400,1629057,202689,0041900213,1,488,488,0,2,1610612738
36,1610612761,1626181,1627832,1628384,200768,201586,1610612738,1627759,1628369,1628400,1629057,202689,0041900213,1,502,502,3,0,1610612761
37,1610612761,1626181,1627832,1628384,200768,201586,1610612738,1627759,1628369,1628400,1629057,202689,0041900213,1,518,518,0,3,1610612738
38,1610612761,1626181,1627832,1628384,200768,201586,1610612738,1627759,1628369,1628400,1629057,202689,0041900213,1,530,532,0,0,1610612761
39,1610612761,1626181,1627832,1628384,200768,201586,1610612738,1627759,1628369,1628400,1629057,202689,0041900213,1,540,540,0,1,1610612738
40,1610612761,1626181,1627783,1627832,1628384,201586,1610612738,1627759,1628369,1628400,1629057,202689,0041900213,1,553,553,2,0,1610612761
41,1610612761,1626181,1627783,1627832,1628384,201586,1610612738,1627759,1628369,1628400,1629057,202689,0041900213,1,562,562,0,0,1610612738
42,1610612761,1626181,1627783,1627832,1628384,201586,1610612738,1627759,1628369,1628400,1629057,202689,0041900213,1,562,589,0,0,1610612761
43,1610612761,1626181,1627783,1627832,1628384,201586,1610612738,1628369,1629057,1629684,202689,202954,0041900213,1,608,617,0,3,1610612738
44,1610612761,1626181,1627783,1627832,1628384,201586,1610612738,1628369,1629057,1629684,202689,202954,0041900213,1,631,631,0,0,1610612761
45,1610612761,1627783,1627832,1628384,200768,201586,1610612738,1628369,1629057,1629684,202689,202954,0041900213,1,646,648,0,0,1610612738
46,1610612761,1627783,1627832,1628384,200768,201586,1610612738,1628369,1629057,1629684,202689,202954,0041900213,1,655,658,0,0,1610612761
47,1610612761,1627783,1627832,1628384,200768,201586,1610612738,1628369,1629057,1629684,202689,202954,0041900213,1,670,670,0,2,1610612738
48,1610612761,1627783,1627832,1628384,200768,201586,1610612738,1628369,1629057,1629684,202689,202954,0041900213,1,687,690,3,0,1610612761
49,1610612761,1627783,1627832,1628384,200768,201586,1610612738,1628369,1629057,1629684,202689,202954,0041900213,1,710,711,0,0,1610612738
50,1610612761,1627783,1627832,1628384,200768,201586,1610612738,1628369,1629057,1629684,202689,202954,0041900213,1,714,714,0,0,1610612761
51,1610612761,1627783,1627832,1628384,200768,201586,1610612738,1627759,1628369,1629684,202689,202954,0041900213,1,720,720,0,3,1610612738
52,1610612761,1627783,1627832,1628384,200768,201586,1610612738,1627759,1628369,1629684,202689,202954,0041900213,1,720,720,0,0,185
53,1610612761,1628384,1627783,200768,201586,1629744,1610612738,1628369,1627759,1629057,202954,1629684,0041900213,2,720,741,0,0,1610612738
54,1610612761,1628384,1627783,200768,201586,1629744,1610612738,1628369,1627759,1629057,202954,1629684,0041900213,2,755,757,0,0,1610612761
55,1610612761,1628384,1627783,200768,201586,1629744,1610612738,1628369,1627759,1629057,202954,1629684,0041900213,2,766,766,0,2,1610612738
56,1610612761,1628384,1627783,200768,201586,1629744,1610612738,1628369,1627759,1629057,202954,1629684,0041900213,2,789,789,3,0,1610612761
57,1610612761,1628384,1627783,200768,201586,1629744,1610612738,1628369,1627759,1629057,202954,1629684,0041900213,2,811,811,0,0,1610612738
58,1610612761,1628384,1627783,200768,201586,1629744,1610612738,1628369,1627759,1629057,202954,1629684,0041900213,2,820,822,0,0,1610612761
59,1610612761,1628384,1627783,200768,201586,1629744,1610612738,1628369,1627759,1629057,202954,1629684,0041900213,2,835,838,0,0,1610612738
60,1610612761,1628384,1627783,200768,201586,1629744,1610612738,1628369,1627759,1629057,202954,1629684,0041900213,2,844,847,0,0,1610612761
61,1610612761,1628384,1627783,200768,201586,1629744,1610612738,1628369,1627759,1629057,202954,1629684,0041900213,2,858,859,0,0,1610612738
62,1610612761,1628384,1627783,200768,201586,1629744,1610612738,1628369,1627759,1629057,202954,1629684,0041900213,2,867,870,0,0,1610612761
63,1610612761,1628384,1627783,200768,201586,1629744,1610612738,1628369,1627759,1629057,202954,1629684,0041900213,2,884,884,0,0,1610612738
64,1610612761,1628384,1627783,200768,201586,1629744,1610612738,1628369,1627759,1629057,202954,1629684,0041900213,2,886,886,2,0,1610612761
65,1610612761,1627783,1627832,1629744,200768,201586,1610612738,1627759,1628369,1629057,1629684,203935,0041900213,2,909,909,0,3,1610612738
66,1610612761,1627783,1627832,1629744,200768,201586,1610612738,1627759,1628369,1629057,1629684,203935,0041900213,2,920,920,0,0,1610612761
67,1610612761,1627783,1627832,1629744,200768,201586,1610612738,1627759,1628369,1629057,1629684,203935,0041900213,2,938,941,0,0,1610612738
68,1610612761,1627783,1627832,1629744,200768,201586,1610612738,1627759,1628369,1629057,1629684,203935,0041900213,2,949,949,2,0,1610612761
69,1610612761,1627783,1627832,1629744,200768,201586,1610612738,1627759,1628369,1629057,1629684,203935,0041900213,2,971,974,0,0,1610612738
70,1610612761,1627783,1627832,1629744,200768,201586,1610612738,1627759,1628369,1629057,1629684,203935,0041900213,2,976,976,0,0,1610612761
71,1610612761,1627783,1627832,1629744,200768,201586,1610612738,1627759,1628369,1629057,1629684,203935,0041900213,2,976,999,0,0,1610612738
72,1610612761,1627783,1627832,1629744,200768,201586,1610612738,1627759,1628369,1628464,1629684,203935,0041900213,2,1003,1003,2,0,1610612761
73,1610612761,1627783,1627832,1629744,200768,201586,1610612738,1627759,1628369,1628464,1629684,203935,0041900213,2,1021,1023,0,0,1610612738
74,1610612761,1627783,1627832,1629744,200768,201586,1610612738,1627759,1628369,1628464,1629684,203935,0041900213,2,1029,1031,0,0,1610612761
75,1610612761,1627783,1627832,1629744,200768,201586,1610612738,1627759,1628369,1628464,1629684,203935,0041900213,2,1038,1038,0,0,1610612738
76,1610612761,1627832,1628384,1629744,200768,201586,1610612738,1627759,1628369,1628464,1629684,203935,0041900213,2,1052,1052,0,0,1610612761
77,1610612761,1627832,1628384,1629744,200768,201586,1610612738,1627759,1628369,1628464,1629684,203935,0041900213,2,1062,1062,0,2,1610612738
78,1610612761,1627832,1628384,1629744,200768,201586,1610612738,1627759,1628369,1628464,1629684,203935,0041900213,2,1063,1077,0,0,1610612761
79,1610612761,1626181,1627832,1628384,200768,201586,1610612738,1627759,1628464,1629684,202689,203935,0041900213,2,1094,1098,0,0,1610612738
80,1610612761,1626181,1627832,1628384,200768,201586,1610612738,1627759,1628464,1629684,202689,203935,0041900213,2,1104,1104,0,0,1610612761
81,1610612761,1626181,1627832,1628384,200768,201586,1610612738,1627759,1628464,1629684,202689,203935,0041900213,2,1112,1112,0,2,1610612738
82,1610612761,1626181,1627832,1628384,200768,201586,1610612738,1627759,1628464,1629684,202689,203935,0041900213,2,1127,1131,0,0,1610612761
83,1610612761,1626181,1627832,1628384,200768,201586,1610612738,1627759,1628464,1629684,202689,203935,0041900213,2,1151,1151,0,2,1610612738
84,1610612761,1626181,1627832,1628384,200768,201586,1610612738,1627759,1628464,1629684,202689,203935,0041900213,2,1151,1173,0,0,1610612761
85,1610612761,1626181,1627832,1628384,200768,201188,1610612738,1627759,1628464,1629684,202689,203935,0041900213,2,1173,1190,0,3,1610612738
86,1610612761,1626181,1627832,1628384,200768,201188,1610612738,1627759,1628464,1629684,202689,203935,0041900213,2,1206,1209,2,0,1610612761
87,1610612761,1626181,1627832,1628384,200768,201188,1610612738,1628369,1628400,1628464,202689,203935,0041900213,2,1224,1227,0,0,1610612738
88,1610612761,1626181,1627832,1628384,200768,201188,1610612738,1628369,1628400,1628464,202689,203935,0041900213,2,1243,1248,2,0,1610612761
89,1610612761,1626181,1627832,1628384,200768,201188,1610612738,1628369,1628400,1628464,202689,203935,0041900213,2,1273,1273,0,3,1610612738
90,1610612761,1626181,1627832,1628384,200768,201188,1610612738,1628369,1628400,1628464,202689,203935,0041900213,2,1287,1287,3,0,1610612761
91,1610612761,1626181,1627832,1628384,200768,201188,1610612738,1628369,1628400,1628464,202689,203935,0041900213,2,1303,1303,0,2,1610612738
92,1610612761,1626181,1627832,1628384,200768,201188,1610612738,1628369,1628400,1628464,202689,203935,0041900213,2,1320,1322,0,0,1610612761
93,1610612761,1626181,1627832,1628384,200768,201188,1610612738,1628369,1628400,1628464,202689,203935,0041900213,2,1334,1334,0,0,1610612738
94,1610612761,1626181,1627832,1628384,200768,201188,1610612738,1628369,1628400,1628464,202689,203935,0041900213,2,1338,1338,3,0,1610612761
95,1610612761,1626181,1627832,1628384,200768,201188,1610612738,1628369,1628400,1628464,202689,203935,0041900213,2,1353,1355,0,0,1610612738
96,1610612761,1626181,1627832,1628384,200768,201188,1610612738,1628369,1628400,1628464,202689,203935,0041900213,2,1359,1370,0,0,1610612761
97,1610612761,1626181,1627832,1628384,200768,201188,1610612738,1627759,1628369,1628464,202689,203935,0041900213,2,1386,1388,0,0,1610612738
98,1610612761,1626181,1627832,1628384,200768,201188,1610612738,1627759,1628369,1628464,202689,203935,0041900213,2,1391,1396,0,0,1610612761
99,1610612761,1626181,1627832,1628384,200768,201188,1610612738,1627759,1628369,1628464,202689,203935,0041900213,2,1405,1405,0,2,1610612738
100,1610612761,1626181,1627832,1628384,200768,201188,1610612738,1627759,1628369,1628464,202689,203935,0041900213,2,1413,1414,0,0,1610612761
101,1610612761,1626181,1627832,1628384,200768,201188,1610612738,1627759,1628369,1628464,202689,203935,0041900213,2,1438,1438,0,3,1610612738
102,1610612761,1626181,1627832,1628384,200768,201188,1610612738,1627759,1628369,1628464,202689,203935,0041900213,2,1440,1440,0,0,1610612738
103,1610612761,1628384,1627783,201188,1627832,200768,1610612738,1628369,1627759,1628464,203935,202689,0041900213,3,1440,1463,0,0,1610612738
104,1610612761,1628384,1627783,201188,1627832,200768,1610612738,1628369,1627759,1628464,203935,202689,0041900213,3,1472,1472,2,0,1610612761
105,1610612761,1628384,1627783,201188,1627832,200768,1610612738,1628369,1627759,1628464,203935,202689,0041900213,3,1492,1496,0,0,1610612738
106,1610612761,1628384,1627783,201188,1627832,200768,1610612738,1628369,1627759,1628464,203935,202689,0041900213,3,1508,1524,2,0,1610612761
107,1610612761,1628384,1627783,201188,1627832,200768,1610612738,1628369,1627759,1628464,203935,202689,0041900213,3,1541,1543,0,0,1610612738
108,1610612761,1628384,1627783,201188,1627832,200768,1610612738,1628369,1627759,1628464,203935,202689,0041900213,3,1549,1558,0,0,1610612761
109,1610612761,1628384,1627783,201188,1627832,200768,1610612738,1628369,1627759,1628464,203935,202689,0041900213,3,1572,1572,0,3,1610612738
110,1610612761,1628384,1627783,201188,1627832,200768,1610612738,1628369,1627759,1628464,203935,202689,0041900213,3,1585,1585,2,0,1610612761
111,1610612761,1628384,1627783,201188,1627832,200768,1610612738,1628369,1627759,1628464,203935,202689,0041900213,3,1600,1600,0,0,1610612738
112,1610612761,1628384,1627783,201188,1627832,200768,1610612738,1628369,1627759,1628464,203935,202689,0041900213,3,1616,1620,0,0,1610612761
113,1610612761,1628384,1627783,201188,1627832,200768,1610612738,1628369,1627759,1628464,203935,202689,0041900213,3,1627,1627,0,1,1610612738
114,1610612761,1628384,1627783,201188,1627832,200768,1610612738,1628369,1627759,1628464,203935,202689,0041900213,3,1639,1649,0,0,1610612761
115,1610612761,1628384,1627783,201188,1627832,200768,1610612738,1628369,1627759,1628464,203935,202689,0041900213,3,1659,1661,0,0,1610612738
116,1610612761,1628384,1627783,201188,1627832,200768,1610612738,1628369,1627759,1628464,203935,202689,0041900213,3,1665,1665,2,0,1610612761
117,1610612761,1628384,1627783,201188,1627832,200768,1610612738,1628369,1627759,1628464,203935,202689,0041900213,3,1665,1682,0,0,1610612738
118,1610612761,1628384,1627783,201188,1627832,200768,1610612738,1628369,1627759,1628464,203935,202689,0041900213,3,1685,1688,0,0,1610612761
119,1610612761,1628384,1627783,201188,1627832,200768,1610612738,1628369,1627759,1628464,203935,202689,0041900213,3,1700,1702,0,0,1610612738
120,1610612761,1628384,1627783,201188,1627832,200768,1610612738,1628369,1627759,1628464,203935,202689,0041900213,3,1718,1718,0,0,1610612761
121,1610612761,1628384,1627783,201188,1627832,200768,1610612738,1628369,1627759,1628464,203935,202689,0041900213,3,1732,1735,0,0,1610612738
122,1610612761,1628384,1627783,201188,1627832,200768,1610612738,1628369,1627759,1628464,203935,202689,0041900213,3,1739,1739,2,0,1610612761
123,1610612761,1628384,1627783,201188,1627832,200768,1610612738,1628369,1627759,1628464,203935,202689,0041900213,3,1753,1755,0,0,1610612738
124,1610612761,1628384,1627783,201188,1627832,200768,1610612738,1628369,1627759,1628464,203935,202689,0041900213,3,1770,1770,0,0,1610612761
125,1610612761,1628384,1627783,201188,1627832,200768,1610612738,1628369,1627759,1628464,203935,202689,0041900213,3,1779,1779,0,0,1610612738
126,1610612761,1628384,1627783,201188,1627832,200768,1610612738,1628369,1627759,1628464,203935,202689,0041900213,3,1796,1796,3,0,1610612761
127,1610612761,1628384,1627783,201188,1627832,200768,1610612738,1628369,1627759,1628464,203935,202689,0041900213,3,1825,1825,0,2,1610612738
128,1610612761,1628384,1627783,201188,1627832,200768,1610612738,1628369,1627759,1628464,203935,202689,0041900213,3,1846,1849,0,0,1610612761
129,1610612761,1628384,1627783,201188,1627832,200768,1610612738,1628369,1627759,1628464,203935,202689,0041900213,3,1856,1859,0,1,1610612738
130,1610612761,1627783,1627832,1628384,200768,201586,1610612738,1627759,1628369,202683,202954,203935,0041900213,3,1876,1876,3,0,1610612761
131,1610612761,1627783,1627832,1628384,200768,201586,1610612738,1627759,1628369,202683,202954,203935,0041900213,3,1895,1895,0,2,1610612738
132,1610612761,1627783,1627832,1628384,200768,201586,1610612738,1627759,1628369,202683,202954,203935,0041900213,3,1907,1907,2,0,1610612761
133,1610612761,1627783,1627832,1628384,200768,201586,1610612738,1627759,1628369,202683,202954,203935,0041900213,3,1921,1921,0,0,1610612738
134,1610612761,1627783,1627832,1628384,200768,201586,1610612738,1627759,1628369,202683,202954,203935,0041900213,3,1926,1926,0,0,1610612761
135,1610612761,1627783,1627832,1628384,200768,201586,1610612738,1627759,1628369,202683,202954,203935,0041900213,3,1932,1934,0,0,1610612738
136,1610612761,1627783,1627832,1628384,200768,201586,1610612738,1627759,1628369,202683,202954,203935,0041900213,3,1940,1940,3,0,1610612761
137,1610612761,1627783,1627832,1628384,200768,201586,1610612738,1627759,1628369,202683,202954,203935,0041900213,3,1968,1971,0,2,1610612738
138,1610612761,1627783,1627832,1628384,200768,201586,1610612738,1627759,1628369,202683,202954,203935,0041900213,3,1985,1985,2,0,1610612761
139,1610612761,1627783,1627832,1628384,200768,201586,1610612738,1627759,1628369,202683,202954,203935,0041900213,3,1999,2014,0,0,1610612738
140,1610612761,1627783,1627832,1628384,200768,201586,1610612738,1628369,1629684,202683,202689,202954,0041900213,3,2023,2023,2,0,1610612761
141,1610612761,1627783,1627832,1628384,200768,201586,1610612738,1628369,1629684,202683,202689,202954,0041900213,3,2042,2042,0,3,1610612738
142,1610612761,1627783,1627832,1628384,200768,201586,1610612738,1628369,1629684,202683,202689,202954,0041900213,3,2061,2061,2,0,1610612761
143,1610612761,1627783,1627832,1628384,200768,201586,1610612738,1628369,1629684,202683,202689,202954,0041900213,3,2075,2075,0,3,1610612738
144,1610612761,1627783,1627832,1628384,200768,201586,1610612738,1628369,1629684,202683,202689,202954,0041900213,3,2092,2092,0,0,1610612761
145,1610612761,1627783,1627832,1628384,200768,201586,1610612738,1628369,1629684,202683,202689,202954,0041900213,3,2100,2106,0,2,1610612738
146,1610612761,1627783,1627832,1628384,200768,201586,1610612738,1628369,1629057,1629684,202689,202954,0041900213,3,2106,2110,0,1,1610612738
147,1610612761,1627783,1627832,1628384,200768,201586,1610612738,1628369,1629057,1629684,202689,202954,0041900213,3,2132,2132,2,0,1610612761
148,1610612761,1627783,1627832,1628384,200768,201586,1610612738,1628369,1629057,1629684,202689,202954,0041900213,3,2155,2155,0,3,1610612738
149,1610612761,1627783,1627832,1628384,200768,201586,1610612738,1628369,1629057,1629684,202689,202954,0041900213,3,2160,2160,0,0,1610612738
150,1610612761,1628384,1627783,1627832,200768,201586,1610612738,1627759,202689,1629057,202954,1629684,0041900213,4,2160,2179,3,0,1610612761
151,1610612761,1628384,1627783,1627832,200768,201586,1610612738,1627759,202689,1629057,202954,1629684,0041900213,4,2197,2200,0,0,1610612738
152,1610612761,1628384,1627783,1627832,200768,201586,1610612738,1627759,202689,1629057,202954,1629684,0041900213,4,2210,2210,3,0,1610612761
153,1610612761,1628384,1627783,1627832,200768,201586,1610612738,1627759,202689,1629057,202954,1629684,0041900213,4,2232,2232,0,0,1610612738
154,1610612761,1628384,1627783,1627832,200768,201586,1610612738,1627759,202689,1629057,202954,1629684,0041900213,4,2244,2255,1,0,1610612761
155,1610612761,1628384,1627783,1627832,200768,201586,1610612738,1627759,1629057,1629684,202689,203935,0041900213,4,2276,2276,0,0,1610612738
156,1610612761,1628384,1627783,1627832,200768,201586,1610612738,1627759,1629057,1629684,202689,203935,0041900213,4,2278,2278,0,0,1610612761
157,1610612761,1628384,1627783,1627832,200768,201586,1610612738,1627759,1629057,1629684,202689,203935,0041900213,4,2293,2293,0,3,1610612738
158,1610612761,1628384,1627783,1627832,200768,201586,1610612738,1627759,1629057,1629684,202689,203935,0041900213,4,2313,2313,2,0,1610612761
159,1610612761,1628384,1627783,1627832,200768,201586,1610612738,1627759,1629057,1629684,202689,203935,0041900213,4,2333,2333,0,2,1610612738
160,1610612761,1628384,1627783,1627832,200768,201586,1610612738,1627759,1629057,1629684,202689,203935,0041900213,4,2347,2348,0,0,1610612761
161,1610612761,1628384,1627783,1627832,200768,201586,1610612738,1627759,1629057,1629684,202689,203935,0041900213,4,2357,2357,0,2,1610612738
162,1610612761,1628384,1627783,1627832,200768,201586,1610612738,1627759,1629057,1629684,202689,203935,0041900213,4,2369,2381,0,0,1610612761
163,1610612761,1626181,1627783,1628384,200768,201586,1610612738,1627759,1629057,1629684,202689,203935,0041900213,4,2402,2402,0,2,1610612738
164,1610612761,1626181,1627783,1628384,200768,201586,1610612738,1627759,1629057,1629684,202689,203935,0041900213,4,2414,2417,2,0,1610612761
165,1610612761,1626181,1627783,1628384,200768,201188,1610612738,1627759,1628369,1628464,1629684,203935,0041900213,4,2428,2439,0,0,1610612738
166,1610612761,1626181,1627783,1628384,200768,201188,1610612738,1627759,1628369,1628464,1629684,203935,0041900213,4,2445,2445,3,0,1610612761
167,1610612761,1626181,1627783,1628384,200768,201188,1610612738,1627759,1628369,1628464,1629684,203935,0041900213,4,2464,2464,0,2,1610612738
168,1610612761,1626181,1627783,1628384,200768,201188,1610612738,1627759,1628369,1628464,202689,203935,0041900213,4,2479,2491,3,0,1610612761
169,1610612761,1626181,1627783,1628384,200768,201188,1610612738,1627759,1628369,1628464,202689,203935,0041900213,4,2512,2515,0,0,1610612738
170,1610612761,1626181,1627783,1628384,200768,201188,1610612738,1627759,1628369,1628464,202689,203935,0041900213,4,2523,2523,2,0,1610612761
171,1610612761,1626181,1627783,1628384,200768,201188,1610612738,1627759,1628369,1628464,202689,203935,0041900213,4,2548,2548,0,0,1610612738
172,1610612761,1626181,1627783,1628384,200768,201188,1610612738,1627759,1628369,1628464,202689,203935,0041900213,4,2562,2565,0,0,1610612761
173,1610612761,1626181,1627783,1628384,200768,201188,1610612738,1627759,1628369,1628464,202689,203935,0041900213,4,2573,2573,0,2,1610612738
174,1610612761,1626181,1627783,1628384,200768,201188,1610612738,1627759,1628369,1628464,202689,203935,0041900213,4,2590,2593,0,0,1610612761
175,1610612761,1626181,1627783,1628384,200768,201188,1610612738,1627759,1628369,1628464,202689,203935,0041900213,4,2609,2609,0,2,1610612738
176,1610612761,1626181,1627783,1628384,200768,201188,1610612738,1627759,1628369,1628464,202689,203935,0041900213,4,2631,2647,0,0,1610612761
177,1610612761,1627783,1627832,1628384,200768,201188,1610612738,1627759,1628369,1628464,202689,203935,0041900213,4,2653,2664,0,2,1610612738
178,1610612761,1627783,1627832,1628384,200768,201188,1610612738,1627759,1628369,1628464,202689,203935,0041900213,4,2691,2691,0,0,1610612761
179,1610612761,1627783,1627832,1628384,200768,201188,1610612738,1627759,1628369,1628464,202689,203935,0041900213,4,2698,2698,0,2,1610612738
180,1610612761,1627783,1627832,1628384,200768,201188,1610612738,1627759,1628369,1628464,202689,203935,0041900213,4,2718,2721,0,0,1610612761
181,1610612761,1627783,1627832,1628384,200768,201188,1610612738,1627759,1628369,1628464,202689,203935,0041900213,4,2743,2743,0,0,1610612738
182,1610612761,1627783,1627832,1628384,200768,201188,1610612738,1627759,1628369,1628464,202689,203935,0041900213,4,2761,2761,2,0,1610612761
183,1610612761,1627783,1627832,1628384,200768,201188,1610612738,1627759,1628369,1628464,202689,203935,0041900213,4,2776,2779,0,2,1610612738
184,1610612761,1627783,1627832,1628384,200768,201188,1610612738,1627759,1628369,1628464,202689,203935,0041900213,4,2789,2792,0,0,1610612761
185,1610612761,1627783,1627832,1628384,200768,201188,1610612738,1627759,1628369,1628464,202689,203935,0041900213,4,2806,2808,0,0,1610612738
186,1610612761,1627783,1627832,1628384,200768,201188,1610612738,1627759,1628369,1628464,202689,203935,0041900213,4,2819,2819,2,0,1610612761
187,1610612761,1627783,1627832,1628384,200768,201188,1610612738,1627759,1628369,1628464,202689,203935,0041900213,4,2838,2841,0,0,1610612738
188,1610612761,1627783,1627832,1628384,200768,201188,1610612738,1627759,1628369,1628464,202689,203935,0041900213,4,2845,2859,2,0,1610612761
189,1610612761,1627783,1627832,1628384,200768,201188,1610612738,1627759,1628369,1628464,202689,203935,0041900213,4,2880,2880,0,2,1610612738
190,1610612761,1627783,1627832,1628384,200768,201188,1610612738,1627759,1628369,1628464,202689,203935,0041900213,4,2880,2880,3,0,1610612761
191,1610612761,1627783,1627832,1628384,200768,201188,1610612738,1627759,1628369,1628464,1629605,203935,0041900213,4,2880,2880,0,0,603
