,stint_start,t1_points_scored,t2_pm,stint_end,t1_id,t2_points_scored,t1_players,t2_id,t1_pm,t2_players,margin_per_100,num_poss
0,0,11,4,427,1610612757,15,"[2772, 2546, 202355, 203468, 1629018]",1610612754,-4,"[203933, 1627734, 1626167, 203506, 1627763]",-14.285714285714285,28.0
1,428,13,4,475,1610612757,17,"[2772, 2546, 202355, 203468, 1629018]",1610612754,-4,"[203933, 1627734, 1626167, 203506, 1627763]",-12.5,32.0
2,476,18,3,552,1610612757,21,"[2772, 2546, 202355, 203468, 1629018]",1610612754,-3,"[1626167, 1627763, 203200, 203506, 203933]",-7.6923076923076925,39.0
3,553,22,6,685,1610612757,28,"[1629014, 1629018, 202355, 203468, 2546]",1610612754,-6,"[1626167, 1627763, 203200, 203933, 204456]",-12.5,48.0
4,686,24,4,711,1610612757,28,"[1628403, 1629014, 1629117, 1629642, 203468]",1610612754,-4,"[1629048, 203200, 203926, 203933, 204456]",-8.16326530612245,49.0
5,712,29,1,803,1610612757,30,"[1628403, 1629014, 1629018, 1629117, 1629642]",1610612754,-1,"[1629048, 203200, 203926, 203933, 204456]",-1.8518518518518516,54.0
6,804,29,1,818,1610612757,30,"[1629018, 1629014, 1628403, 1629642, 1629117]",1610612754,-1,"[1627734, 203200, 204456, 203926, 203960]",-1.8181818181818181,55.0
7,819,31,2,928,1610612757,33,"[1629018, 1629014, 1628403, 1629642, 1629117]",1610612754,-2,"[1626167, 203200, 203926, 203960, 204456]",-3.225806451612903,62.0
8,929,31,2,932,1610612757,33,"[1629018, 1629014, 1628403, 1629642, 1629117]",1610612754,-2,"[1629048, 203200, 203926, 203960, 204456]",-3.1746031746031744,63.0
9,933,35,0,1064,1610612757,35,"[1628403, 1629014, 1629018, 2546, 2772]",1610612754,0,"[1629048, 203200, 203926, 203960, 204456]",0.0,71.0
10,1065,37,0,1124,1610612757,37,"[1628403, 1629014, 1629018, 2546, 2772]",1610612754,0,"[1627763, 1629048, 203200, 203926, 203933]",0.0,74.0
11,1125,42,-2,1282,1610612757,40,"[1629014, 1629018, 202355, 2546, 2772]",1610612754,2,"[1626167, 1627763, 1628988, 203506, 203933]",2.4096385542168677,83.0
12,1283,49,-6,1436,1610612757,43,"[1629018, 202355, 203468, 2546, 2772]",1610612754,6,"[1626167, 1627763, 1628988, 203506, 203933]",6.521739130434782,92.0
13,1437,70,-6,1871,1610612757,64,"[1629014, 202355, 203468, 2546, 2772]",1610612754,6,"[1626167, 1627763, 1628988, 203506, 203933]",4.8,125.0
14,1872,70,-4,1939,1610612757,66,"[2772, 2546, 202355, 203468, 1629018]",1610612754,4,"[203933, 1627734, 1626167, 203506, 1627763]",3.10077519379845,129.0
15,1940,72,-5,1978,1610612757,67,"[1629014, 202355, 203468, 2546, 2772]",1610612754,5,"[1626167, 1627763, 1628988, 203200, 203933]",3.816793893129771,131.0
16,1979,72,-3,2005,1610612757,69,"[1629014, 1629642, 202355, 203468, 2772]",1610612754,3,"[1626167, 1627763, 1628988, 203200, 203933]",2.2556390977443606,133.0
17,2006,75,-2,2091,1610612757,73,"[1629014, 1629642, 202355, 203468, 2772]",1610612754,2,"[1626167, 1627763, 1628988, 203200, 204456]",1.4388489208633095,139.0
18,2092,75,0,2104,1610612757,75,"[1629014, 1629018, 1629642, 202355, 203468]",1610612754,0,"[1626167, 1627763, 1628988, 203200, 204456]",0.0,140.0
19,2105,75,3,2157,1610612757,78,"[1628403, 1629014, 1629018, 1629642, 203468]",1610612754,-3,"[1626167, 1627763, 1628988, 203200, 204456]",-2.097902097902098,143.0
20,2158,76,6,2262,1610612757,82,"[1628403, 1629014, 1629018, 1629642, 2772]",1610612754,-6,"[1626167, 1627763, 1628988, 203200, 204456]",-3.896103896103896,154.0
21,2263,80,8,2366,1610612757,88,"[2772, 1629018, 1629014, 1628403, 1629642]",1610612754,-8,"[1627734, 203200, 204456, 203926, 1628988]",-4.968944099378882,161.0
22,2367,89,10,2612,1610612757,99,"[1628403, 1629014, 1629018, 203468, 2546]",1610612754,-10,"[1627734, 203200, 204456, 203926, 1628988]",-5.747126436781609,174.0
23,2613,100,3,2870,1610612757,103,"[1629018, 202355, 203468, 2546, 2772]",1610612754,-3,"[1627734, 1627763, 203200, 203933, 204456]",-1.5625,192.0
24,2871,100,6,9999999,1610612757,106,"[1629018, 202355, 203468, 2546, 2772]",1610612754,-6,"[1626167, 1627734, 1627763, 203506, 203933]",-3.0927835051546393,194.0
