,TEAM_ID_1,TEAM_1_PLAYERS,TEAM_ID_2,TEAM_2_PLAYERS,PERIOD
0,1610612745,[203463 200782 203991 203085 201935],1610612763,[ 203937 1628991  202685 1628415 1629630],1
1,1610612745,[ 203463  203085 1627863  201569 1628392],1610612763,[1628991 1628415 1629630 1628960  203524],2
2,1610612745,[203463 200782 203991 203085 201935],1610612763,[ 203937 1628991  202685 1628415 1629630],3
3,1610612745,[ 203463  200782  203085 1627863  201569],1610612763,[1628991 1628415 1629630 1628960  203524],4
