,team1_id,team1_player1,team1_player2,team1_player3,team1_player4,team1_player5,team2_id,team2_player1,team2_player2,team2_player3,team2_player4,team2_player5,game_id,period,possession_start,possession_end,team1_points,team2_points,possession_team
0,1610612759,201942,200746,1626168,1627749,1627854,1610612746,202695,203090,1627826,202331,201976,0021900750,1,0,13,2,0,1610612759
1,1610612759,201942,200746,1626168,1627749,1627854,1610612746,202695,203090,1627826,202331,201976,0021900750,1,31,31,0,3,1610612746
2,1610612759,201942,200746,1626168,1627749,1627854,1610612746,202695,203090,1627826,202331,201976,0021900750,1,47,49,0,0,1610612759
3,1610612759,201942,200746,1626168,1627749,1627854,1610612746,202695,203090,1627826,202331,201976,0021900750,1,56,56,0,0,1610612746
4,1610612759,201942,200746,1626168,1627749,1627854,1610612746,202695,203090,1627826,202331,201976,0021900750,1,60,60,2,0,1610612759
5,1610612759,201942,200746,1626168,1627749,1627854,1610612746,202695,203090,1627826,202331,201976,0021900750,1,69,69,0,0,1610612746
6,1610612759,201942,200746,1626168,1627749,1627854,1610612746,202695,203090,1627826,202331,201976,0021900750,1,83,87,0,0,1610612759
7,1610612759,201942,200746,1626168,1627749,1627854,1610612746,202695,203090,1627826,202331,201976,0021900750,1,93,110,0,0,1610612746
8,1610612759,201942,200746,1626168,1627749,1627854,1610612746,202695,203090,1627826,202331,201976,0021900750,1,119,121,0,0,1610612759
9,1610612759,201942,200746,1626168,1627749,1627854,1610612746,202695,203090,1627826,202331,201976,0021900750,1,125,130,0,0,1610612746
10,1610612759,201942,200746,1626168,1627749,1627854,1610612746,202695,203090,1627826,202331,201976,0021900750,1,135,139,0,0,1610612759
11,1610612759,201942,200746,1626168,1627749,1627854,1610612746,202695,203090,1627826,202331,201976,0021900750,1,148,148,0,3,1610612746
12,1610612759,201942,200746,1626168,1627749,1627854,1610612746,202695,203090,1627826,202331,201976,0021900750,1,166,168,0,0,1610612759
13,1610612759,201942,200746,1626168,1627749,1627854,1610612746,202695,203090,1627826,202331,201976,0021900750,1,186,186,0,2,1610612746
14,1610612759,201942,200746,1626168,1627749,1627854,1610612746,202695,203090,1627826,202331,201976,0021900750,1,205,205,2,0,1610612759
15,1610612759,201942,200746,1626168,1627749,1627854,1610612746,202695,203090,1627826,202331,201976,0021900750,1,227,228,0,0,1610612746
16,1610612759,201942,200746,1626168,1627749,1627854,1610612746,202695,203090,1627826,202331,201976,0021900750,1,234,234,3,0,1610612759
17,1610612759,201942,200746,1626168,1627749,1627854,1610612746,202695,203090,1627826,202331,201976,0021900750,1,243,243,0,3,1610612746
18,1610612759,201942,200746,1626168,1627749,1627854,1610612746,202695,203090,1627826,202331,201976,0021900750,1,255,258,0,0,1610612759
19,1610612759,201942,200746,1626168,1627749,1627854,1610612746,202695,203090,1627826,202331,201976,0021900750,1,262,271,0,0,1610612746
20,1610612759,201942,200746,1626168,1627749,1627854,1610612746,202695,203090,1627826,202331,201976,0021900750,1,284,284,3,0,1610612759
21,1610612759,201942,200746,1626168,1627749,1627854,1610612746,202695,203090,1627826,202331,201976,0021900750,1,305,305,0,3,1610612746
22,1610612759,201942,200746,1626168,1627749,1627854,1610612746,202695,203090,1627826,202331,201976,0021900750,1,319,319,2,0,1610612759
23,1610612759,201942,200746,1626168,1627749,1627854,1610612746,202695,203090,1627826,202331,201976,0021900750,1,335,337,0,0,1610612746
24,1610612759,201942,200746,1626168,1627749,1627854,1610612746,202695,203090,1627826,202331,201976,0021900750,1,342,342,3,0,1610612759
25,1610612759,201942,200746,1626168,1627749,1627854,1610612746,202695,203090,1627826,202331,201976,0021900750,1,361,361,0,0,1610612746
26,1610612759,201942,200746,1626168,1627749,1627854,1610612746,202695,203090,1627826,202331,201976,0021900750,1,361,384,2,0,1610612759
27,1610612759,201942,200746,1626168,1627749,1627854,1610612746,202695,203090,1627826,202331,201976,0021900750,1,398,398,0,3,1610612746
28,1610612759,201942,200746,1626168,1627749,1627854,1610612746,202695,203090,1627826,202331,201976,0021900750,1,425,425,3,0,1610612759
29,1610612759,201942,200746,1626168,1627749,1627854,1610612746,202695,203090,1627826,202331,201976,0021900750,1,446,448,0,0,1610612746
30,1610612759,201942,200746,1626168,1627749,1627854,1610612746,202695,203090,1627826,202331,201976,0021900750,1,453,455,0,0,1610612759
31,1610612759,201942,200746,1626168,1627749,1627854,1610612746,202695,203090,1627826,202331,201976,0021900750,1,464,464,0,3,1610612746
32,1610612759,201942,200746,1626168,1627749,1627854,1610612746,202695,203090,1627826,202331,201976,0021900750,1,479,479,2,0,1610612759
33,1610612759,1626168,1628401,200746,201942,201988,1610612746,101150,1627826,1629013,202695,203210,0021900750,1,489,489,0,2,1610612746
34,1610612759,1626168,1628401,200746,201942,201988,1610612746,101150,1627826,1629013,202695,203210,0021900750,1,511,511,3,0,1610612759
35,1610612759,1626168,1628401,200746,201942,201988,1610612746,101150,1627826,1629013,202695,203210,0021900750,1,518,518,0,3,1610612746
36,1610612759,1626168,1628401,200746,201942,201988,1610612746,101150,1627826,1629013,202695,203210,0021900750,1,532,532,2,0,1610612759
37,1610612759,1626168,1628401,200746,201942,201988,1610612746,101150,1627826,1629013,202695,203210,0021900750,1,540,550,0,0,1610612746
38,1610612759,1626168,1628401,1629022,200746,201988,1610612746,101150,1626149,1629013,203210,203585,0021900750,1,565,565,3,0,1610612759
39,1610612759,1626168,1628401,1629022,200746,201988,1610612746,101150,1626149,1629013,203210,203585,0021900750,1,576,579,0,0,1610612746
40,1610612759,1626168,1628401,1629022,200746,201988,1610612746,101150,1626149,1629013,203210,203585,0021900750,1,590,590,3,0,1610612759
41,1610612759,1626168,1628401,1629022,200746,201988,1610612746,101150,1626149,1629013,203210,203585,0021900750,1,607,609,0,0,1610612746
42,1610612759,1626168,1628401,1629022,200746,201988,1610612746,101150,1626149,1629013,203210,203585,0021900750,1,625,625,2,0,1610612759
43,1610612759,1626168,1628401,1629022,200746,201988,1610612746,101150,1626149,1629013,203210,203585,0021900750,1,634,642,0,0,1610612746
44,1610612759,1628401,1629022,200746,200752,201988,1610612746,101150,1626149,1629013,203210,203585,0021900750,1,661,663,0,0,1610612759
45,1610612759,1628401,1629022,200746,200752,201988,1610612746,101150,1626149,1629013,203210,203585,0021900750,1,674,674,0,2,1610612746
46,1610612759,1628401,1629022,200746,200752,201988,1610612746,101150,1626149,1629013,203210,203585,0021900750,1,692,692,2,0,1610612759
47,1610612759,1628401,1629022,200746,200752,201988,1610612746,101150,1626149,1629013,203210,203585,0021900750,1,710,710,0,2,1610612746
48,1610612759,1628401,1629022,200746,200752,201988,1610612746,101150,1626149,1629013,203210,203585,0021900750,1,718,720,0,0,1610612759
49,1610612759,1628401,201988,1629022,200752,1627751,1610612746,203210,101150,1629013,1626149,203585,0021900750,2,720,734,0,0,1610612746
50,1610612759,1628401,201988,1629022,200752,1627751,1610612746,203210,101150,1629013,1626149,203585,0021900750,2,742,746,0,0,1610612759
51,1610612759,1628401,201988,1629022,200752,1627751,1610612746,203210,101150,1629013,1626149,203585,0021900750,2,763,768,0,0,1610612746
52,1610612759,1628401,201988,1629022,200752,1627751,1610612746,203210,101150,1629013,1626149,203585,0021900750,2,785,785,0,0,1610612759
53,1610612759,1628401,201988,1629022,200752,1627751,1610612746,203210,101150,1629013,1626149,203585,0021900750,2,800,800,0,0,1610612746
54,1610612759,1628401,201988,1629022,200752,1627751,1610612746,203210,101150,1629013,1626149,203585,0021900750,2,808,815,3,0,1610612759
55,1610612759,1628401,201988,1629022,200752,1627751,1610612746,203210,101150,1629013,1626149,203585,0021900750,2,823,823,0,2,1610612746
56,1610612759,1628401,201988,1629022,200752,1627751,1610612746,203210,101150,1629013,1626149,203585,0021900750,2,834,834,3,0,1610612759
57,1610612759,1628401,201988,1629022,200752,1627751,1610612746,203210,101150,1629013,1626149,203585,0021900750,2,846,846,0,3,1610612746
58,1610612759,1628401,201988,1629022,200752,1627751,1610612746,203210,101150,1629013,1626149,203585,0021900750,2,861,861,2,0,1610612759
59,1610612759,1628401,201988,1629022,200752,1627751,1610612746,203210,101150,1629013,1626149,203585,0021900750,2,873,874,0,0,1610612746
60,1610612759,1628401,201988,1629022,200752,1627751,1610612746,203210,101150,1629013,1626149,203585,0021900750,2,883,885,0,0,1610612759
61,1610612759,1628401,201988,1629022,200752,1627751,1610612746,203210,101150,1629013,1626149,203585,0021900750,2,896,896,0,0,1610612746
62,1610612759,1628401,201988,1629022,200752,1627751,1610612746,203210,101150,1629013,1626149,203585,0021900750,2,908,908,2,0,1610612759
63,1610612759,1628401,201988,1629022,200752,1627751,1610612746,203210,101150,1629013,1626149,203585,0021900750,2,909,926,0,0,1610612746
64,1610612759,1628401,201988,1629022,200752,1627751,1610612746,101150,1626149,1629013,202331,203210,0021900750,2,930,932,0,0,1610612759
65,1610612759,1628401,201988,1629022,200752,1627751,1610612746,101150,1626149,1629013,202331,203210,0021900750,2,943,947,0,0,1610612746
66,1610612759,1628401,201988,1629022,200752,1627751,1610612746,101150,1626149,1629013,202331,203210,0021900750,2,951,954,0,0,1610612759
67,1610612759,1628401,201988,1629022,200752,1627751,1610612746,101150,1626149,1629013,202331,203210,0021900750,2,961,961,0,2,1610612746
68,1610612759,1628401,201988,1629022,200752,1627751,1610612746,101150,1626149,1629013,202331,203210,0021900750,2,961,975,0,0,1610612759
69,1610612759,1627749,1627751,200752,201942,201988,1610612746,1626149,1629013,201976,202331,202695,0021900750,2,983,983,0,2,1610612746
70,1610612759,1627749,1627751,200752,201942,201988,1610612746,1626149,1629013,201976,202331,202695,0021900750,2,1006,1009,0,0,1610612759
71,1610612759,1627749,1627751,200752,201942,201988,1610612746,1626149,1629013,201976,202331,202695,0021900750,2,1016,1016,0,2,1610612746
72,1610612759,1627749,1627751,200752,201942,201988,1610612746,1626149,1629013,201976,202331,202695,0021900750,2,1029,1029,2,0,1610612759
73,1610612759,1627749,1627751,200752,201942,201988,1610612746,1626149,1629013,201976,202331,202695,0021900750,2,1040,1050,0,0,1610612746
74,1610612759,1626168,1627749,1627751,1627854,201942,1610612746,1626149,1629013,201976,202331,202695,0021900750,2,1056,1056,0,0,1610612759
75,1610612759,1626168,1627749,1627751,1627854,201942,1610612746,1626149,1629013,201976,202331,202695,0021900750,2,1061,1061,0,2,1610612746
76,1610612759,1626168,1627749,1627751,1627854,201942,1610612746,1626149,1629013,201976,202331,202695,0021900750,2,1076,1090,2,0,1610612759
77,1610612759,1626168,1627749,1627751,1627854,201942,1610612746,1626149,1629013,201976,202331,202695,0021900750,2,1098,1098,0,0,1610612746
78,1610612759,1626168,1627749,1627854,200746,201942,1610612746,1626149,1629013,201976,202331,202695,0021900750,2,1106,1108,0,0,1610612759
79,1610612759,1626168,1627749,1627854,200746,201942,1610612746,1626149,1629013,201976,202331,202695,0021900750,2,1113,1113,0,2,1610612746
80,1610612759,1626168,1627749,1627854,200746,201942,1610612746,1626149,1629013,201976,202331,202695,0021900750,2,1128,1130,0,0,1610612759
81,1610612759,1626168,1627749,1627854,200746,201942,1610612746,1626149,1629013,201976,202331,202695,0021900750,2,1147,1147,0,2,1610612746
82,1610612759,1626168,1627749,1627854,200746,201942,1610612746,1626149,1629013,201976,202331,202695,0021900750,2,1154,1168,2,0,1610612759
83,1610612759,1626168,1627749,1627854,200746,201942,1610612746,1626149,201976,202331,202695,203090,0021900750,2,1184,1184,0,0,1610612746
84,1610612759,1626168,1627749,1627854,200746,201942,1610612746,1626149,201976,202331,202695,203090,0021900750,2,1195,1197,0,0,1610612759
85,1610612759,1626168,1627749,1627854,200746,201942,1610612746,1626149,201976,202331,202695,203090,0021900750,2,1202,1202,0,0,1610612746
86,1610612759,1626168,1627749,1627854,200746,201942,1610612746,1627826,201976,202331,202695,203090,0021900750,2,1222,1223,0,0,1610612759
87,1610612759,1626168,1627749,1627854,200746,201942,1610612746,1627826,201976,202331,202695,203090,0021900750,2,1234,1237,0,0,1610612746
88,1610612759,1626168,1627749,1627854,200746,201942,1610612746,1627826,201976,202331,202695,203090,0021900750,2,1248,1248,2,0,1610612759
89,1610612759,1626168,1627749,1627854,200746,201942,1610612746,1627826,201976,202331,202695,203090,0021900750,2,1260,1260,0,1,1610612746
90,1610612759,1626168,1627749,1627854,200746,201942,1610612746,1627826,201976,202331,202695,203090,0021900750,2,1286,1290,0,0,1610612759
91,1610612759,1626168,1627749,1627854,200746,201942,1610612746,1627826,201976,202331,202695,203090,0021900750,2,1301,1301,0,2,1610612746
92,1610612759,1626168,1627749,1627854,200746,201942,1610612746,1627826,201976,202331,202695,203090,0021900750,2,1322,1324,0,0,1610612759
93,1610612759,1626168,1627749,1627854,200746,201942,1610612746,1627826,201976,202331,202695,203090,0021900750,2,1332,1334,0,0,1610612746
94,1610612759,1626168,1627749,1627854,200746,201942,1610612746,1627826,201976,202331,202695,203090,0021900750,2,1344,1344,2,0,1610612759
95,1610612759,1626168,1627749,1627854,200746,201942,1610612746,1627826,201976,202331,202695,203090,0021900750,2,1351,1351,0,2,1610612746
96,1610612759,1626168,1627749,1627854,200746,201942,1610612746,1627826,201976,202331,202695,203090,0021900750,2,1373,1376,0,0,1610612759
97,1610612759,1626168,1627749,1627854,200746,201942,1610612746,1627826,201976,202331,202695,203090,0021900750,2,1385,1385,0,3,1610612746
98,1610612759,1626168,1627749,1627854,200746,201942,1610612746,1627826,1629013,201976,202695,203090,0021900750,2,1397,1400,2,0,1610612759
99,1610612759,1626168,1627749,1627854,200746,201942,1610612746,1627826,1629013,201976,202695,203090,0021900750,2,1406,1406,0,0,1610612746
100,1610612759,1626168,1627749,1627854,200746,201942,1610612746,1627826,1629013,202695,203090,203585,0021900750,2,1429,1439,2,0,1610612759
101,1610612759,201942,200746,1626168,1627749,1627854,1610612746,202695,203090,1627826,202331,201976,0021900750,3,1440,1452,0,0,1610612746
102,1610612759,201942,200746,1626168,1627749,1627854,1610612746,202695,203090,1627826,202331,201976,0021900750,3,1475,1477,0,0,1610612759
103,1610612759,201942,200746,1626168,1627749,1627854,1610612746,202695,203090,1627826,202331,201976,0021900750,3,1483,1483,0,3,1610612746
104,1610612759,201942,200746,1626168,1627749,1627854,1610612746,202695,203090,1627826,202331,201976,0021900750,3,1502,1512,0,0,1610612759
105,1610612759,201942,200746,1626168,1627749,1627854,1610612746,202695,203090,1627826,202331,201976,0021900750,3,1515,1515,0,2,1610612746
106,1610612759,201942,200746,1626168,1627749,1627854,1610612746,202695,203090,1627826,202331,201976,0021900750,3,1515,1524,0,0,1610612759
107,1610612759,201942,200746,1626168,1627749,1627854,1610612746,202695,203090,1627826,202331,201976,0021900750,3,1534,1534,0,0,1610612746
108,1610612759,201942,200746,1626168,1627749,1627854,1610612746,202695,203090,1627826,202331,201976,0021900750,3,1540,1543,0,0,1610612759
109,1610612759,201942,200746,1626168,1627749,1627854,1610612746,202695,203090,1627826,202331,201976,0021900750,3,1548,1548,0,0,1610612746
110,1610612759,201942,200746,1626168,1627749,1627854,1610612746,202695,203090,1627826,202331,201976,0021900750,3,1557,1557,0,0,1610612759
111,1610612759,201942,200746,1626168,1627749,1627854,1610612746,202695,203090,1627826,202331,201976,0021900750,3,1569,1573,0,0,1610612746
112,1610612759,201942,200746,1626168,1627749,1627854,1610612746,202695,203090,1627826,202331,201976,0021900750,3,1576,1594,0,0,1610612759
113,1610612759,201942,200746,1626168,1627749,1627854,1610612746,202695,203090,1627826,202331,201976,0021900750,3,1610,1610,0,2,1610612746
114,1610612759,201942,200746,1626168,1627749,1627854,1610612746,202695,203090,1627826,202331,201976,0021900750,3,1632,1632,2,0,1610612759
115,1610612759,201942,200746,1626168,1627749,1627854,1610612746,202695,203090,1627826,202331,201976,0021900750,3,1645,1645,0,2,1610612746
116,1610612759,201942,200746,1626168,1627749,1627854,1610612746,202695,203090,1627826,202331,201976,0021900750,3,1663,1665,0,0,1610612759
117,1610612759,201942,200746,1626168,1627749,1627854,1610612746,202695,203090,1627826,202331,201976,0021900750,3,1670,1670,0,2,1610612746
118,1610612759,201942,200746,1626168,1627749,1627854,1610612746,202695,203090,1627826,202331,201976,0021900750,3,1697,1697,0,0,1610612759
119,1610612759,201942,200746,1626168,1627749,1627854,1610612746,202695,203090,1627826,202331,201976,0021900750,3,1697,1697,0,0,1610612759
120,1610612759,1626168,1628401,200746,201942,201988,1610612746,202695,203090,1627826,202331,201976,0021900750,3,1710,1713,0,0,1610612746
121,1610612759,1626168,1628401,200746,201942,201988,1610612746,202695,203090,1627826,202331,201976,0021900750,3,1724,1727,0,0,1610612759
122,1610612759,1626168,1628401,200746,201942,201988,1610612746,202695,203090,1627826,202331,201976,0021900750,3,1730,1730,0,3,1610612746
123,1610612759,1626168,1627751,1628401,201942,201988,1610612746,202695,203090,1627826,202331,201976,0021900750,3,1745,1748,0,0,1610612759
124,1610612759,1626168,1627751,1628401,201942,201988,1610612746,202695,203090,1627826,202331,201976,0021900750,3,1753,1756,0,0,1610612746
125,1610612759,1626168,1627751,1628401,201942,201988,1610612746,202695,203090,1627826,202331,201976,0021900750,3,1761,1761,2,0,1610612759
126,1610612759,1626168,1627751,1628401,201942,201988,1610612746,202695,203090,1627826,202331,201976,0021900750,3,1786,1789,0,0,1610612746
127,1610612759,1626168,1627751,1628401,201942,201988,1610612746,202695,203090,1627826,202331,201976,0021900750,3,1792,1798,0,0,1610612759
128,1610612759,1626168,1627751,1628401,201942,201988,1610612746,101150,1627826,202331,202695,203090,0021900750,3,1798,1805,0,4,1610612746
129,1610612759,1626168,1627751,1628401,201942,201988,1610612746,101150,1627826,1629013,202695,203090,0021900750,3,1820,1820,2,0,1610612759
130,1610612759,1626168,1627751,1628401,201942,201988,1610612746,101150,1627826,1629013,202695,203090,0021900750,3,1843,1846,0,0,1610612746
131,1610612759,1626168,1627751,1628401,201942,201988,1610612746,101150,1627826,1629013,202695,203090,0021900750,3,1849,1849,1,0,1610612759
132,1610612759,1626168,1627751,1628401,201942,201988,1610612746,101150,1627826,1629013,202695,203090,0021900750,3,1861,1864,0,0,1610612746
133,1610612759,1626168,1627751,1628401,201942,201988,1610612746,101150,1627826,1629013,202695,203090,0021900750,3,1868,1870,0,0,1610612759
134,1610612759,1626168,1627751,1628401,201942,201988,1610612746,101150,1627826,1629013,202695,203090,0021900750,3,1874,1883,0,0,1610612746
135,1610612759,1626168,1627751,1628401,201942,201988,1610612746,101150,1627826,1629013,202695,203090,0021900750,3,1885,1885,0,0,1610612759
136,1610612759,1626168,1627751,1628401,201942,201988,1610612746,101150,1627826,1629013,202695,203090,0021900750,3,1890,1894,0,0,1610612746
137,1610612759,1626168,1627751,1628401,201942,201988,1610612746,101150,1627826,1629013,202695,203090,0021900750,3,1896,1896,3,0,1610612759
138,1610612759,1626168,1627751,1628401,201942,201988,1610612746,101150,1627826,1629013,202695,203090,0021900750,3,1914,1914,0,2,1610612746
139,1610612759,1626168,1627751,1628401,201942,201988,1610612746,101150,1627826,1629013,202695,203090,0021900750,3,1933,1939,2,0,1610612759
140,1610612759,1626168,1627751,1628401,201942,201988,1610612746,101150,1627826,1629013,202695,203090,0021900750,3,1956,1956,0,2,1610612746
141,1610612759,1627751,1628401,200752,201942,201988,1610612746,101150,1627826,1629013,203210,203585,0021900750,3,1969,1971,0,0,1610612759
142,1610612759,1627751,1628401,200752,201942,201988,1610612746,101150,1627826,1629013,203210,203585,0021900750,3,1976,1979,0,0,1610612746
143,1610612759,1627751,1628401,200752,201942,201988,1610612746,101150,1627826,1629013,203210,203585,0021900750,3,1989,1989,3,0,1610612759
144,1610612759,1627751,1628401,200752,201942,201988,1610612746,101150,1627826,1629013,203210,203585,0021900750,3,2007,2007,0,2,1610612746
145,1610612759,1627751,1628401,200752,201942,201988,1610612746,101150,1627826,1629013,203210,203585,0021900750,3,2024,2031,0,0,1610612759
146,1610612759,1627751,1628401,200752,201942,201988,1610612746,101150,1627826,1629013,203210,203585,0021900750,3,2031,2031,0,2,1610612746
147,1610612759,1627751,1628401,200752,201942,201988,1610612746,101150,1627826,1629013,203210,203585,0021900750,3,2044,2048,2,0,1610612759
148,1610612759,1627751,1628401,1629022,200752,201988,1610612746,101150,1626149,1629013,203210,203585,0021900750,3,2060,2064,0,0,1610612746
149,1610612759,1627751,1628401,1629022,200752,201988,1610612746,101150,1626149,1629013,203210,203585,0021900750,3,2077,2077,2,0,1610612759
150,1610612759,1627751,1628401,1629022,200752,201988,1610612746,101150,1626149,1629013,203210,203585,0021900750,3,2092,2092,0,2,1610612746
151,1610612759,1627751,1628401,1629022,200752,201988,1610612746,101150,1626149,1629013,203210,203585,0021900750,3,2108,2110,0,0,1610612759
152,1610612759,1627751,1628401,1629022,200752,201988,1610612746,101150,1626149,1629013,203210,203585,0021900750,3,2129,2129,0,3,1610612746
153,1610612759,1627751,1628401,1629022,200752,201988,1610612746,101150,1626149,1629013,203210,203585,0021900750,3,2151,2153,0,0,1610612759
154,1610612759,1627751,1628401,1629022,200752,201988,1610612746,101150,1626149,1629013,203210,203585,0021900750,3,2159,2160,0,0,1610612746
155,1610612759,1628401,201988,1629022,200752,1627751,1610612746,203210,101150,1629013,1626149,203585,0021900750,4,2160,2184,0,0,1610612759
156,1610612759,1628401,201988,1629022,200752,1627751,1610612746,203210,101150,1629013,1626149,203585,0021900750,4,2190,2192,0,0,1610612746
157,1610612759,1628401,201988,1629022,200752,1627751,1610612746,203210,101150,1629013,1626149,203585,0021900750,4,2205,2208,0,0,1610612759
158,1610612759,1628401,201988,1629022,200752,1627751,1610612746,203210,101150,1629013,1626149,203585,0021900750,4,2212,2212,0,0,1610612746
159,1610612759,1628401,1629022,200746,200752,201988,1610612746,203210,101150,1629013,1626149,203585,0021900750,4,2229,2232,0,0,1610612759
160,1610612759,1628401,1629022,200746,200752,201988,1610612746,203210,101150,1629013,1626149,203585,0021900750,4,2239,2241,0,0,1610612746
161,1610612759,1628401,1629022,200746,200752,201988,1610612746,203210,101150,1629013,1626149,203585,0021900750,4,2259,2259,2,0,1610612759
162,1610612759,1628401,1629022,200746,200752,201988,1610612746,203210,101150,1629013,1626149,203585,0021900750,4,2285,2289,0,0,1610612746
163,1610612759,1628401,1629022,200746,200752,201988,1610612746,203210,101150,1629013,1626149,203585,0021900750,4,2294,2294,2,0,1610612759
164,1610612759,1628401,1629022,200746,200752,201988,1610612746,203210,101150,1629013,1626149,203585,0021900750,4,2309,2311,0,0,1610612746
165,1610612759,1628401,1629022,200746,200752,201988,1610612746,203210,101150,1629013,1626149,203585,0021900750,4,2321,2330,2,0,1610612759
166,1610612759,1627749,1627854,1629022,200746,200752,1610612746,101150,1626149,1629013,202331,203210,0021900750,4,2345,2347,0,0,1610612746
167,1610612759,1627749,1627854,1629022,200746,200752,1610612746,101150,1626149,1629013,202331,203210,0021900750,4,2360,2363,0,0,1610612759
168,1610612759,1627749,1627854,1629022,200746,200752,1610612746,101150,1626149,1629013,202331,203210,0021900750,4,2377,2380,0,2,1610612746
169,1610612759,1627749,1627854,1629022,200746,200752,1610612746,101150,1626149,1629013,202331,203210,0021900750,4,2400,2400,3,0,1610612759
170,1610612759,1627749,1627854,1629022,200746,200752,1610612746,101150,1626149,1629013,202331,203210,0021900750,4,2418,2418,0,2,1610612746
171,1610612759,1627749,1627854,1629022,200746,200752,1610612746,101150,1626149,1629013,202331,203210,0021900750,4,2439,2441,0,0,1610612759
172,1610612759,1627749,1627854,1629022,200746,200752,1610612746,101150,1626149,1629013,202331,203210,0021900750,4,2448,2450,0,0,1610612746
173,1610612759,1627749,1627854,1629022,200746,200752,1610612746,101150,1626149,1629013,202331,203210,0021900750,4,2450,2464,2,0,1610612759
174,1610612759,1627749,1627854,1629022,200746,201942,1610612746,101150,1626149,1629013,202331,203210,0021900750,4,2476,2476,0,2,1610612746
175,1610612759,1627749,1627854,1629022,200746,201942,1610612746,101150,1626149,1629013,202331,203210,0021900750,4,2491,2494,0,0,1610612759
176,1610612759,1627749,1627854,1629022,200746,201942,1610612746,101150,1626149,1629013,202331,203210,0021900750,4,2511,2511,0,2,1610612746
177,1610612759,1627749,1627854,1629022,200746,201942,1610612746,101150,1626149,1629013,202331,202695,0021900750,4,2525,2531,0,0,1610612759
178,1610612759,1627749,1627854,1629022,200746,201942,1610612746,101150,1626149,1629013,202331,202695,0021900750,4,2532,2532,0,2,1610612746
179,1610612759,1627749,1627854,1629022,200746,201942,1610612746,101150,1626149,1629013,202331,202695,0021900750,4,2551,2551,2,0,1610612759
180,1610612759,1627749,1627854,1629022,200746,201942,1610612746,101150,1626149,1629013,202331,202695,0021900750,4,2570,2572,0,0,1610612746
181,1610612759,1627749,1627854,1629022,200746,201942,1610612746,101150,1626149,1629013,202331,202695,0021900750,4,2581,2581,2,0,1610612759
182,1610612759,1627749,1627854,1629022,200746,201942,1610612746,101150,1626149,1629013,202331,202695,0021900750,4,2581,2597,0,0,1610612746
183,1610612759,1628401,1629022,200746,201942,201988,1610612746,101150,1626149,201976,202331,202695,0021900750,4,2603,2603,2,0,1610612759
184,1610612759,1628401,1629022,200746,201942,201988,1610612746,101150,1626149,201976,202331,202695,0021900750,4,2618,2618,0,2,1610612746
185,1610612759,1628401,1629022,200746,201942,201988,1610612746,101150,1626149,201976,202331,202695,0021900750,4,2634,2637,0,0,1610612759
186,1610612759,1628401,1629022,200746,201942,201988,1610612746,101150,1626149,201976,202331,202695,0021900750,4,2645,2647,0,0,1610612746
187,1610612759,1628401,1629022,200746,201942,201988,1610612746,101150,1626149,201976,202331,202695,0021900750,4,2668,2671,0,0,1610612759
188,1610612759,1628401,1629022,200746,201942,201988,1610612746,101150,1626149,201976,202331,202695,0021900750,4,2676,2679,0,0,1610612746
189,1610612759,1628401,1629022,200746,201942,201988,1610612746,101150,1626149,201976,202331,202695,0021900750,4,2694,2696,3,0,1610612759
190,1610612759,1628401,1629022,200746,201942,201988,1610612746,1626149,1629013,201976,202331,202695,0021900750,4,2720,2720,0,2,1610612746
191,1610612759,1628401,1629022,200746,201942,201988,1610612746,1626149,1629013,201976,202331,202695,0021900750,4,2739,2742,0,0,1610612759
192,1610612759,1628401,1629022,200746,201942,201988,1610612746,1626149,1629013,201976,202331,202695,0021900750,4,2753,2753,0,3,1610612746
193,1610612759,1628401,1629022,200746,201942,201988,1610612746,1626149,1629013,201976,202331,202695,0021900750,4,2781,2783,0,0,1610612759
194,1610612759,1628401,1629022,200746,201942,201988,1610612746,1626149,1629013,201976,202331,202695,0021900750,4,2785,2785,0,2,1610612746
195,1610612759,1628401,1629022,200746,201942,201988,1610612746,1626149,1629013,201976,202331,202695,0021900750,4,2799,2810,0,0,1610612759
196,1610612759,1628401,1629022,200746,201942,201988,1610612746,1626149,1629013,201976,202331,202695,0021900750,4,2810,2837,0,0,1610612746
197,1610612759,1628401,1629022,200746,201942,201988,1610612746,1626149,1629013,201976,202331,202695,0021900750,4,2848,2851,0,0,1610612759
198,1610612759,1628401,1629022,200746,201942,201988,1610612746,1626149,1629013,201976,202331,202695,0021900750,4,2867,2867,0,2,1610612746
199,1610612759,1628401,1629022,200746,201942,201988,1610612746,1626149,1629013,201976,202331,202695,0021900750,4,2867,2878,3,0,1610612759
200,1610612759,1627854,1628401,200746,201942,201988,1610612746,1629013,201976,202331,202695,203090,0021900750,4,2879,2879,0,2,1610612746
201,1610612759,1627854,1628401,1629022,201942,201988,1610612746,101150,201976,202331,202695,203090,0021900750,4,2880,2880,0,0,1610612746
