,stint_end,t1_players,t2_pm,t2_points_scored,stint_start,t1_pm,t1_points_scored,t2_id,t1_id,t2_players,margin_per_100,num_poss
0,381,"[1628398, 202693, 1627745, 203484, 203471]",-7,11,0,7,18,1610612758,1610612747,"[203084, 1628963, 1626158, 1627741, 1628368]",28.000000000000004,25.0
1,482,"[1628398, 202693, 1627745, 203484, 203471]",-12,13,382,12,25,1610612758,1610612747,"[203084, 1628963, 1626158, 1627741, 1628368]",37.5,32.0
2,539,"[1626149, 1628398, 202693, 203471, 203484]",-14,13,483,14,27,1610612758,1610612747,"[1627741, 1628368, 1628963, 202357, 203084]",40.0,35.0
3,718,"[1626149, 1628398, 1629659, 202083, 203471]",-8,23,540,8,31,1610612758,1610612747,"[1627741, 1628963, 1629610, 202357, 202709]",16.666666666666664,48.0
4,849,"[1626149, 1628035, 1629659, 201162, 202083]",-8,27,719,8,35,1610612758,1610612747,"[1626158, 1629610, 202357, 202709, 203084]",13.793103448275861,58.0
5,998,"[1626149, 1629659, 202083, 201162, 1628035]",-4,37,850,4,41,1610612758,1610612747,"[1626158, 1628368, 202357, 202709, 1629610]",5.88235294117647,68.0
6,1076,"[1626149, 1629659, 202083, 201162, 1628035]",0,43,999,0,43,1610612758,1610612747,"[1627741, 1628368, 1628963, 202709, 203084]",0.0,73.0
7,1218,"[1627745, 1628398, 1629659, 202693, 203471]",-1,52,1077,1,53,1610612758,1610612747,"[1627741, 1628368, 1628963, 202709, 203084]",1.2195121951219512,82.0
8,1301,"[1627745, 1628398, 202693, 203471, 203484]",-1,54,1219,1,55,1610612758,1610612747,"[1627741, 1628368, 1628963, 202709, 203084]",1.1235955056179776,89.0
9,1431,"[1626149, 1628398, 202693, 203471, 203484]",1,61,1302,-1,60,1610612758,1610612747,"[1626158, 1627741, 1628368, 202709, 203084]",-1.0204081632653061,98.0
10,1439,"[1626149, 1628398, 202693, 203471, 203484]",0,61,1432,0,61,1610612758,1610612747,"[1626158, 1627741, 1628368, 202357, 202709]",0.0,99.0
11,1717,"[1626149, 202083, 202693, 203471, 203484]",3,73,1440,-3,70,1610612758,1610612747,"[1626158, 1627741, 1628368, 202357, 202709]",-2.564102564102564,117.0
12,1796,"[1628398, 202693, 1627745, 203484, 203471]",1,75,1718,-1,74,1610612758,1610612747,"[203084, 1628963, 1626158, 1627741, 1628368]",-0.819672131147541,122.0
13,1975,"[1626149, 1628398, 202693, 203471, 203484]",-1,79,1797,1,80,1610612758,1610612747,"[1626158, 1627741, 1628368, 202357, 203084]",0.7575757575757576,132.0
14,2002,"[1626149, 1628398, 202693, 203471, 203484]",-1,79,1976,1,80,1610612758,1610612747,"[1626158, 1627741, 202357, 202709, 203084]",0.7462686567164178,134.0
15,2016,"[1626149, 1628398, 1629659, 202083, 203471]",-3,79,2003,3,82,1610612758,1610612747,"[1627741, 1628368, 1628963, 202357, 202709]",2.2222222222222223,135.0
16,2102,"[1626149, 1628035, 1628398, 1629659, 202083]",-1,85,2017,1,86,1610612758,1610612747,"[1627741, 1628368, 1628963, 202357, 202709]",0.7092198581560284,141.0
17,2154,"[1626149, 1628035, 1629659, 201162, 202083]",1,87,2103,-1,86,1610612758,1610612747,"[1627741, 1628368, 1628963, 202357, 202709]",-0.6944444444444444,144.0
18,2399,"[1626149, 1628035, 1629659, 201162, 202083]",3,98,2155,-3,95,1610612758,1610612747,"[1628368, 1628963, 202357, 202709, 203084]",-1.910828025477707,157.0
19,2431,"[1626149, 1629659, 202083, 201162, 1628035]",3,100,2400,-3,97,1610612758,1610612747,"[203084, 1628963, 1627741, 202357, 202709]",-1.8867924528301887,159.0
20,2512,"[1628035, 1628398, 201162, 202693, 203471]",8,108,2432,-8,100,1610612758,1610612747,"[1627741, 1628368, 1628963, 202357, 202709]",-4.848484848484849,165.0
21,2635,"[1626149, 1628035, 1628398, 202693, 203471]",5,113,2513,-5,108,1610612758,1610612747,"[1627741, 1628368, 1628963, 202357, 202709]",-2.9069767441860463,172.0
22,2829,"[1626149, 1628398, 1629659, 203471, 203484]",-1,117,2636,1,118,1610612758,1610612747,"[1626158, 1627741, 1628368, 202709, 203084]",0.5434782608695652,184.0
23,2878,"[1626149, 1628398, 202693, 203471, 203484]",1,121,2830,-1,120,1610612758,1610612747,"[1626158, 1627741, 1628368, 202709, 203084]",-0.5319148936170213,188.0
24,9999999,"[1626149, 1628398, 202693, 203471, 203484]",3,123,2879,-3,120,1610612758,1610612747,"[1626158, 1627741, 202357, 202709, 203084]",-1.5789473684210527,190.0
