,TEAM_ID_1,TEAM_1_PLAYERS,TEAM_ID_2,TEAM_2_PLAYERS,PERIOD
0,1610612753,[],1610612740,[1627742 1629627  203500 1629638  202339],1
1,1610612753,[],1610612740,[1629627 1628404  200755 1630184 1629637],2
2,1610612753,[],1610612740,[1627742 1629627  203500 1629638  202339],3
3,1610612753,[],1610612740,[1628404  200755 1629637],4
