,stint_start,t1_points_scored,t2_pm,stint_end,t1_id,t2_points_scored,t1_players,t2_id,t1_pm,t2_players,margin_per_100,num_poss
0,0,9,3,250,1610612757,12,"[2546, 1628380, 203994, 203468, 203081]",1610612738,-3,"[202330, 1628369, 1628464, 1627759, 202689]",-20.0,15.0
1,251,11,5,346,1610612757,16,"[2546, 1628380, 203994, 203468, 203081]",1610612738,-5,"[202330, 1628369, 1628464, 1627759, 202689]",-22.727272727272727,22.0
2,347,13,9,413,1610612757,22,"[1626209, 203081, 203468, 203994, 2546]",1610612738,-9,"[202330, 1628369, 1628464, 1627759, 202689]",-34.61538461538461,26.0
3,414,15,11,455,1610612757,26,"[1626209, 203081, 203468, 203994, 2546]",1610612738,-11,"[1627759, 202330, 202683, 202954, 203935]",-36.666666666666664,30.0
4,456,20,9,554,1610612757,29,"[1626209, 202355, 203081, 203468, 2546]",1610612738,-9,"[1627759, 202330, 202683, 202954, 203935]",-25.71428571428571,35.0
5,555,22,11,650,1610612757,33,"[1626209, 1628380, 1629018, 202355, 203081]",1610612738,-11,"[1627759, 202330, 202683, 202954, 203935]",-25.581395348837212,43.0
6,651,24,13,694,1610612757,37,"[1626209, 1628380, 1629018, 202355, 203081]",1610612738,-13,"[1627759, 1628369, 1629684, 202683, 203935]",-28.26086956521739,46.0
7,695,24,13,716,1610612757,37,"[1626209, 1629018, 202355, 203081, 2546]",1610612738,-13,"[1628369, 1629684, 202683, 202689, 203935]",-27.659574468085108,47.0
8,717,24,15,813,1610612757,39,"[1626209, 1629018, 203081, 203468, 2546]",1610612738,-15,"[1628369, 1628464, 1629684, 202689, 203935]",-28.30188679245283,53.0
9,814,27,20,957,1610612757,47,"[2546, 203994, 203468, 1626209, 1629018]",1610612738,-20,"[1628369, 1628464, 202689, 203935, 1629684]",-32.78688524590164,61.0
10,958,32,22,1095,1610612757,54,"[2546, 203994, 203468, 1626209, 1629018]",1610612738,-22,"[1628369, 1628400, 202683, 202689, 203935]",-30.985915492957744,71.0
11,1096,36,22,1234,1610612757,58,"[1629018, 203081, 203468, 203994, 2546]",1610612738,-22,"[1628369, 1628400, 202330, 202683, 202689]",-27.500000000000004,80.0
12,1235,38,22,1296,1610612757,60,"[1629018, 203081, 203468, 203994, 2546]",1610612738,-22,"[1627759, 1628400, 1628464, 202330, 203935]",-25.882352941176475,85.0
13,1297,46,19,1428,1610612757,65,"[1629018, 203081, 203468, 203994, 2546]",1610612738,-19,"[1627759, 1628369, 1628464, 202330, 203935]",-20.652173913043477,92.0
14,1429,46,21,1438,1610612757,67,"[1629018, 203081, 203468, 203994, 2546]",1610612738,-21,"[1627759, 1628369, 202330, 202683, 203935]",-22.58064516129032,93.0
15,1439,48,19,1439,1610612757,67,"[1629018, 203081, 203468, 203994, 2546]",1610612738,-19,"[1627759, 1628369, 1629684, 202330, 203935]",-20.212765957446805,94.0
16,1440,60,18,1696,1610612757,78,"[1626209, 1629018, 203081, 203994, 2546]",1610612738,-18,"[1627759, 1628369, 1629684, 202330, 203935]",-16.216216216216218,111.0
17,1697,67,16,1827,1610612757,83,"[2546, 1628380, 203994, 203468, 203081]",1610612738,-16,"[202330, 1628369, 1628464, 1627759, 202689]",-13.675213675213676,117.0
18,1828,70,17,1887,1610612757,87,"[2546, 1628380, 203994, 203468, 203081]",1610612738,-17,"[1627759, 1628369, 1628464, 202330, 203935]",-13.934426229508196,122.0
19,1888,72,15,1906,1610612757,87,"[1628380, 1629018, 203081, 203468, 203994]",1610612738,-15,"[1627759, 1628464, 1629684, 202330, 203935]",-12.096774193548388,124.0
20,1907,77,12,1987,1610612757,89,"[1628380, 1629018, 203081, 203468, 203994]",1610612738,-12,"[1628464, 1629684, 202330, 202689, 203935]",-9.230769230769232,130.0
21,1988,82,10,2072,1610612757,92,"[1628380, 1629018, 202355, 203081, 203468]",1610612738,-10,"[1629684, 202330, 202683, 202689, 203935]",-7.2992700729927,137.0
22,2073,86,6,2126,1610612757,92,"[1628380, 1629018, 202355, 203081, 2546]",1610612738,-6,"[1628369, 1628400, 202683, 202689, 203935]",-4.25531914893617,141.0
23,2127,86,8,2157,1610612757,94,"[1628380, 1629018, 202355, 203081, 2546]",1610612738,-8,"[1628369, 1628400, 1628464, 202689, 203935]",-5.633802816901409,142.0
24,2158,103,-2,2394,1610612757,101,"[1628380, 1629018, 202355, 203081, 2546]",1610612738,2,"[1627759, 1628369, 1628464, 202689, 203935]",1.2738853503184715,157.0
25,2395,103,-2,2405,1610612757,101,"[1628380, 203468, 203081, 202355, 1629018]",1610612738,2,"[1628369, 1628464, 1627759, 203935, 202954]",1.2658227848101267,158.0
26,2406,108,1,2543,1610612757,109,"[1628380, 203468, 203081, 202355, 1629018]",1610612738,-1,"[1627759, 1628369, 1628464, 202330, 202954]",-0.5988023952095809,167.0
27,2544,109,0,2560,1610612757,109,"[1628380, 203468, 203081, 202355, 1629018]",1610612738,0,"[1627759, 1628369, 202330, 202683, 202954]",0.0,168.0
28,2561,109,3,2638,1610612757,112,"[1628380, 203468, 203081, 202355, 1629018]",1610612738,-3,"[1627759, 1628369, 202330, 202683, 203935]",-1.7241379310344827,174.0
29,2639,113,3,2696,1610612757,116,"[1628380, 1629018, 203081, 203468, 203994]",1610612738,-3,"[1627759, 1628369, 202330, 202683, 203935]",-1.6853932584269662,178.0
30,2697,124,4,2879,1610612757,128,"[1629018, 203081, 203468, 203994, 2546]",1610612738,-4,"[1627759, 1628369, 202330, 202683, 203935]",-2.072538860103627,193.0
31,2880,124,4,9999999,1610612757,128,"[1629018, 203081, 203468, 203994, 2546]",1610612738,-4,"[1627759, 1628369, 1628464, 202330, 203935]",-2.0618556701030926,194.0
