,team1_id,team1_player1,team1_player2,team1_player3,team1_player4,team1_player5,team2_id,team2_player1,team2_player2,team2_player3,team2_player4,team2_player5,game_id,period,possession_start,possession_end,team1_points,team2_points,possession_team
0,1610612748,1629130,2617,203482,1629639,1629134,1610612754,203200,1628993,203960,1628410,1627763,0021901316,1,0,25,0,0,1610612748
1,1610612748,1629130,2617,203482,1629639,1629134,1610612754,203200,1628993,203960,1628410,1627763,0021901316,1,36,36,0,3,1610612754
2,1610612748,1629130,2617,203482,1629639,1629134,1610612754,203200,1628993,203960,1628410,1627763,0021901316,1,47,60,0,0,1610612748
3,1610612748,1629130,2617,203482,1629639,1629134,1610612754,203200,1628993,203960,1628410,1627763,0021901316,1,69,71,0,0,1610612754
4,1610612748,1629130,2617,203482,1629639,1629134,1610612754,203200,1628993,203960,1628410,1627763,0021901316,1,82,82,0,0,1610612748
5,1610612748,1629130,2617,203482,1629639,1629134,1610612754,203200,1628993,203960,1628410,1627763,0021901316,1,92,96,0,0,1610612754
6,1610612748,1629130,2617,203482,1629639,1629134,1610612754,203200,1628993,203960,1628410,1627763,0021901316,1,112,116,0,0,1610612748
7,1610612748,1629130,2617,203482,1629639,1629134,1610612754,203200,1628993,203960,1628410,1627763,0021901316,1,136,143,0,2,1610612754
8,1610612748,1629130,2617,203482,1629639,1629134,1610612754,203200,1628993,203960,1628410,1627763,0021901316,1,151,151,3,0,1610612748
9,1610612748,1629130,2617,203482,1629639,1629134,1610612754,203200,1628993,203960,1628410,1627763,0021901316,1,167,171,0,0,1610612754
10,1610612748,1629130,2617,203482,1629639,1629134,1610612754,203200,1628993,203960,1628410,1627763,0021901316,1,180,185,0,0,1610612748
11,1610612748,1629130,2617,203482,1629639,1629134,1610612754,203200,1628993,203960,1628410,1627763,0021901316,1,189,192,0,0,1610612754
12,1610612748,1629130,2617,203482,1629639,1629134,1610612754,203200,1628993,203960,1628410,1627763,0021901316,1,208,211,0,0,1610612748
13,1610612748,1629130,2617,203482,1629639,1629134,1610612754,203200,1628993,203960,1628410,1627763,0021901316,1,215,217,0,1,1610612754
14,1610612748,1629130,2617,203482,1629639,1629134,1610612754,203200,1628993,203960,1628410,1627763,0021901316,1,225,225,2,0,1610612748
15,1610612748,1629130,2617,203482,1629639,1629134,1610612754,203200,1628993,203960,1628410,1627763,0021901316,1,235,253,0,0,1610612754
16,1610612748,1629130,2617,203482,1629639,1629134,1610612754,203200,1628993,203960,1628410,1627763,0021901316,1,267,267,2,0,1610612748
17,1610612748,1629130,2617,203482,1629639,1629134,1610612754,203200,1628993,203960,1628410,1627763,0021901316,1,281,281,0,2,1610612754
18,1610612748,1629130,2617,203482,1629639,1629134,1610612754,203200,1628993,203960,1628410,1627763,0021901316,1,299,301,0,0,1610612748
19,1610612748,1629130,2617,203482,1629639,1629134,1610612754,203200,1628993,203960,1628410,1627763,0021901316,1,315,315,0,2,1610612754
20,1610612748,1629130,2617,203482,1629639,1629134,1610612754,203200,1628993,203960,1628410,1627763,0021901316,1,323,339,0,0,1610612748
21,1610612748,1629130,2617,203482,1629639,1629134,1610612754,203200,1628993,203960,1628410,1627763,0021901316,1,351,351,0,3,1610612754
22,1610612748,1629130,2617,203482,1629639,1629134,1610612754,203200,1628993,203960,1628410,1627763,0021901316,1,365,365,0,0,1610612748
23,1610612748,1629130,2617,203482,1629639,1629134,1610612754,203200,1628993,203960,1628410,1627763,0021901316,1,370,374,0,0,1610612754
24,1610612748,1629130,2617,203482,1629639,1629134,1610612754,203200,1628993,203960,1628410,1627763,0021901316,1,390,393,0,0,1610612748
25,1610612748,1629130,2617,203482,1629639,1629134,1610612754,203200,1628993,203960,1628410,1627763,0021901316,1,402,406,0,0,1610612754
26,1610612748,1629130,2617,203482,1629639,1629134,1610612754,203200,1628993,203960,1628410,1627763,0021901316,1,417,420,0,0,1610612748
27,1610612748,1629130,2617,203482,1629639,1629134,1610612754,203200,1628993,203960,1628410,1627763,0021901316,1,437,437,0,3,1610612754
28,1610612748,1629130,2617,203482,1629639,1629134,1610612754,203200,1628993,203960,1628410,1627763,0021901316,1,446,476,0,0,1610612748
29,1610612748,1627884,1629639,203482,203524,2617,1610612754,1627763,1628410,1628993,1629048,203200,0021901316,1,491,494,0,0,1610612754
30,1610612748,1627884,1629639,203482,203524,2617,1610612754,1627763,1628410,1628993,1629048,203200,0021901316,1,505,507,0,0,1610612748
31,1610612748,1627884,1629639,1629735,203086,203524,1610612754,1628988,1628993,1629048,203926,204456,0021901316,1,520,525,0,2,1610612754
32,1610612748,1627884,1629639,1629735,203086,203524,1610612754,1628988,1628993,1629048,203926,204456,0021901316,1,540,549,0,0,1610612748
33,1610612748,1627884,1629639,1629735,203086,203524,1610612754,1628988,1628993,1629048,203926,204456,0021901316,1,551,551,0,3,1610612754
34,1610612748,1627884,1629639,1629735,203086,203524,1610612754,1628988,1628993,1629048,203926,204456,0021901316,1,567,567,2,0,1610612748
35,1610612748,1627884,1629639,1629735,203086,203524,1610612754,1628988,1628993,1629048,203926,204456,0021901316,1,586,594,0,2,1610612754
36,1610612748,1627884,1629134,1629735,203086,203524,1610612754,1628388,1628988,1629048,203926,204456,0021901316,1,607,614,2,0,1610612748
37,1610612748,1627884,1629134,1629735,203086,203524,1610612754,1628388,1628988,1629048,203926,204456,0021901316,1,627,627,0,3,1610612754
38,1610612748,1627884,1629134,1629735,203086,203524,1610612754,1628388,1628988,1629048,203926,204456,0021901316,1,639,641,0,0,1610612748
39,1610612748,1627884,1629134,1629735,203086,203524,1610612754,1628388,1628988,1629048,203926,204456,0021901316,1,651,653,0,0,1610612754
40,1610612748,1627884,1629134,1629735,203086,203524,1610612754,1628388,1628988,1629048,203926,204456,0021901316,1,661,664,0,0,1610612748
41,1610612748,1627884,1629134,1629735,203086,203524,1610612754,1628388,1628988,1629048,203926,204456,0021901316,1,668,668,0,2,1610612754
42,1610612748,1627884,1629134,1629735,203086,203524,1610612754,1628388,1628988,1629048,203926,204456,0021901316,1,680,680,2,0,1610612748
43,1610612748,1627884,1629134,1629735,203086,203524,1610612754,1628388,1628988,1629048,203926,204456,0021901316,1,691,691,0,0,1610612754
44,1610612748,1627884,1629134,1629735,203086,203524,1610612754,1628388,1628988,1629048,203926,204456,0021901316,1,703,705,0,0,1610612748
45,1610612748,1627884,1629134,1629735,203086,203524,1610612754,1628388,1628988,1629048,203926,204456,0021901316,1,718,718,0,0,1610612748
46,1610612748,1629134,203524,1627884,203086,1629735,1610612754,1629048,204456,1628988,203926,1628388,0021901316,2,720,734,0,2,1610612754
47,1610612748,1629134,203524,1627884,203086,1629735,1610612754,1629048,204456,1628988,203926,1628388,0021901316,2,746,748,2,0,1610612748
48,1610612748,1629134,203524,1627884,203086,1629735,1610612754,1629048,204456,1628988,203926,1628388,0021901316,2,759,759,0,0,1610612754
49,1610612748,1629134,203524,1627884,203086,1629735,1610612754,1629048,204456,1628988,203926,1628388,0021901316,2,777,777,0,0,1610612748
50,1610612748,1629134,203524,1627884,203086,1629735,1610612754,1629048,204456,1628988,203926,1628388,0021901316,2,783,789,0,2,1610612754
51,1610612748,1629134,203524,1627884,203086,1629735,1610612754,1629048,204456,1628988,203926,1628388,0021901316,2,789,798,3,0,1610612748
52,1610612748,1629134,203524,1627884,203086,1629735,1610612754,1629048,204456,1628988,203926,1628388,0021901316,2,819,819,0,2,1610612754
53,1610612748,1629134,203524,1627884,203086,1629735,1610612754,1629048,204456,1628988,203926,1628388,0021901316,2,829,831,0,0,1610612748
54,1610612748,1629134,203524,1627884,203086,1629735,1610612754,1629048,204456,1628988,203926,1628388,0021901316,2,846,846,0,3,1610612754
55,1610612748,1629134,203524,1627884,203086,1629735,1610612754,1629048,204456,1628988,203926,1628388,0021901316,2,857,857,0,0,1610612748
56,1610612748,1629134,203524,1627884,203086,1629735,1610612754,1629048,204456,1628988,203926,1628388,0021901316,2,873,873,0,2,1610612754
57,1610612748,1629134,203524,1627884,203086,1629735,1610612754,1629048,204456,1628988,203926,1628388,0021901316,2,881,885,3,0,1610612748
58,1610612748,1629134,203524,1627884,203086,1629735,1610612754,1629048,204456,1628988,203926,1628388,0021901316,2,899,899,0,0,1610612754
59,1610612748,1629134,203524,1627884,203086,1629735,1610612754,1629048,204456,1628988,203926,1628388,0021901316,2,902,904,2,0,1610612748
60,1610612748,1629134,203524,1627884,203086,1629735,1610612754,1629048,204456,1628988,203926,1628388,0021901316,2,911,916,0,0,1610612754
61,1610612748,1629134,203524,1627884,203086,1629735,1610612754,1629048,204456,1628988,203926,1628388,0021901316,2,923,923,2,0,1610612748
62,1610612748,1629134,203524,1627884,203086,1629735,1610612754,1629048,204456,1628988,203926,1628388,0021901316,2,932,932,0,0,1610612754
63,1610612748,1629134,203524,1627884,203086,1629735,1610612754,1629048,204456,1628988,203926,1628388,0021901316,2,937,942,0,0,1610612748
64,1610612748,1629134,203524,1627884,203086,1629735,1610612754,1629048,204456,1628988,203926,1628388,0021901316,2,953,960,0,2,1610612754
65,1610612748,1629134,203524,1627884,203086,1629735,1610612754,1627763,1628388,1628410,1629048,203926,0021901316,2,965,970,2,0,1610612748
66,1610612748,1629134,203524,1627884,203086,1629735,1610612754,1627763,1628410,1628993,203926,203960,0021901316,2,983,986,0,0,1610612754
67,1610612748,1629134,203524,1627884,203086,1629735,1610612754,1627763,1628410,1628993,203926,203960,0021901316,2,997,997,0,0,1610612748
68,1610612748,1629134,203524,1627884,203086,1629735,1610612754,1627763,1628410,1628993,203926,203960,0021901316,2,997,1010,0,0,1610612754
69,1610612748,1627884,1629639,1629735,203086,203524,1610612754,1627763,1628410,1628993,203200,203960,0021901316,2,1016,1021,0,0,1610612748
70,1610612748,1627884,1629639,1629735,203086,203524,1610612754,1627763,1628410,1628993,203200,203960,0021901316,2,1036,1036,0,3,1610612754
71,1610612748,1627884,1629639,1629735,203086,203524,1610612754,1627763,1628410,1628993,203200,203960,0021901316,2,1054,1057,0,0,1610612748
72,1610612748,1627884,1629639,1629735,203086,203524,1610612754,1627763,1628410,1628993,203200,203960,0021901316,2,1066,1066,0,3,1610612754
73,1610612748,1627884,1629639,1629735,203086,203524,1610612754,1627763,1628410,1628993,203200,203960,0021901316,2,1082,1082,2,0,1610612748
74,1610612748,1629130,1629639,1629735,203086,203524,1610612754,1627763,1628410,1628993,203200,203960,0021901316,2,1098,1098,0,2,1610612754
75,1610612748,1629130,1629639,1629735,203086,203524,1610612754,1627763,1628410,1628993,203200,203960,0021901316,2,1111,1111,2,0,1610612748
76,1610612748,1629130,1629639,1629735,203086,203524,1610612754,1627763,1628410,1628993,203200,203960,0021901316,2,1129,1129,0,2,1610612754
77,1610612748,1629130,1629639,1629735,203086,203524,1610612754,1627763,1628410,1628993,203200,203960,0021901316,2,1145,1145,2,0,1610612748
78,1610612748,1629130,1629639,1629735,203086,203524,1610612754,1627763,1628410,1628993,203200,203960,0021901316,2,1163,1166,0,0,1610612754
79,1610612748,1629130,1629639,1629735,203086,203524,1610612754,1627763,1628410,1628993,203200,203960,0021901316,2,1185,1185,2,0,1610612748
80,1610612748,1629130,1629639,1629735,203086,203524,1610612754,1627763,1628410,1628993,203200,203960,0021901316,2,1191,1207,0,0,1610612754
81,1610612748,1629130,1629639,203086,203524,2617,1610612754,1627763,1628410,1628993,203200,203960,0021901316,2,1212,1212,3,0,1610612748
82,1610612748,1629130,1629639,203086,203524,2617,1610612754,1627763,1628410,1628993,203200,203960,0021901316,2,1225,1225,0,0,1610612754
83,1610612748,1629130,1629639,203086,203524,2617,1610612754,1627763,1628410,1628993,203200,203960,0021901316,2,1237,1237,0,0,1610612748
84,1610612748,1629130,1629639,203086,203524,2617,1610612754,1627763,1628410,1628993,203200,203960,0021901316,2,1246,1252,0,0,1610612754
85,1610612748,1629130,1629639,203086,203524,2617,1610612754,1627763,1628410,1628993,203200,203960,0021901316,2,1265,1269,0,0,1610612748
86,1610612748,1629130,1629639,203086,203524,2617,1610612754,1627763,1628410,1628993,203200,203960,0021901316,2,1278,1281,0,0,1610612754
87,1610612748,1629130,1629639,203086,203524,2617,1610612754,1627763,1628410,1628993,203200,203960,0021901316,2,1284,1284,0,0,1610612748
88,1610612748,1629130,1629639,203086,203524,2617,1610612754,1627763,1628410,1628993,203200,203960,0021901316,2,1299,1299,0,0,1610612754
89,1610612748,1629130,1629639,203086,203524,2617,1610612754,1627763,1628410,1628993,203200,203960,0021901316,2,1315,1323,0,0,1610612748
90,1610612748,1629130,1629639,203086,203524,2617,1610612754,1627763,1628410,1628993,203200,203960,0021901316,2,1328,1328,0,2,1610612754
91,1610612748,1629130,1629639,203086,203524,2617,1610612754,1627763,1628410,1628993,203200,203960,0021901316,2,1345,1348,0,0,1610612748
92,1610612748,1629130,1629639,203086,203524,2617,1610612754,1627763,1628410,1628993,203200,203960,0021901316,2,1354,1354,0,2,1610612754
93,1610612748,1629130,1629639,203086,203524,2617,1610612754,1627763,1628410,1628993,203200,203960,0021901316,2,1379,1379,3,0,1610612748
94,1610612748,1629130,1629639,203086,203524,2617,1610612754,1627763,1628410,1628993,203200,203960,0021901316,2,1388,1394,0,3,1610612754
95,1610612748,1629130,1629639,203086,203524,2617,1610612754,1627763,1628410,1628993,203200,203960,0021901316,2,1413,1413,3,0,1610612748
96,1610612748,1629130,1629639,203086,203524,2617,1610612754,1627763,1628410,1628993,203200,203960,0021901316,2,1436,1439,0,0,1610612754
97,1610612748,2617,203482,1629639,1629134,203524,1610612754,203200,1628993,203960,1628410,1627763,0021901316,3,1440,1463,0,0,1610612754
98,1610612748,2617,203482,1629639,1629134,203524,1610612754,203200,1628993,203960,1628410,1627763,0021901316,3,1478,1480,0,0,1610612748
99,1610612748,2617,203482,1629639,1629134,203524,1610612754,203200,1628993,203960,1628410,1627763,0021901316,3,1484,1484,0,0,1610612754
100,1610612748,2617,203482,1629639,1629134,203524,1610612754,203200,1628993,203960,1628410,1627763,0021901316,3,1502,1504,0,0,1610612748
101,1610612748,2617,203482,1629639,1629134,203524,1610612754,203200,1628993,203960,1628410,1627763,0021901316,3,1511,1519,0,2,1610612754
102,1610612748,2617,203482,1629639,1629134,203524,1610612754,203200,1628993,203960,1628410,1627763,0021901316,3,1534,1534,0,0,1610612748
103,1610612748,2617,203482,1629639,1629134,203524,1610612754,203200,1628993,203960,1628410,1627763,0021901316,3,1537,1537,0,3,1610612754
104,1610612748,2617,203482,1629639,1629134,203524,1610612754,203200,1628993,203960,1628410,1627763,0021901316,3,1549,1559,0,0,1610612748
105,1610612748,2617,203482,1629639,1629134,203524,1610612754,203200,1628993,203960,1628410,1627763,0021901316,3,1569,1573,0,3,1610612754
106,1610612748,2617,203482,1629639,1629134,203524,1610612754,203200,1628993,203960,1628410,1627763,0021901316,3,1590,1592,0,0,1610612748
107,1610612748,2617,203482,1629639,1629134,203524,1610612754,203200,1628993,203960,1628410,1627763,0021901316,3,1605,1607,0,0,1610612754
108,1610612748,2617,203482,1629639,1629134,203524,1610612754,203200,1628993,203960,1628410,1627763,0021901316,3,1614,1614,3,0,1610612748
109,1610612748,2617,203482,1629639,1629134,203524,1610612754,203200,1628993,203960,1628410,1627763,0021901316,3,1624,1633,0,0,1610612754
110,1610612748,2617,203482,1629639,1629134,203524,1610612754,203200,1628993,203960,1628410,1627763,0021901316,3,1636,1636,3,0,1610612748
111,1610612748,2617,203482,1629639,1629134,203524,1610612754,203200,1628993,203960,1628410,1627763,0021901316,3,1660,1660,0,0,1610612754
112,1610612748,2617,203482,1629639,1629134,203524,1610612754,203200,1628993,203960,1628410,1627763,0021901316,3,1674,1674,2,0,1610612748
113,1610612748,2617,203482,1629639,1629134,203524,1610612754,203200,1628993,203960,1628410,1627763,0021901316,3,1691,1691,0,3,1610612754
114,1610612748,2617,203482,1629639,1629134,203524,1610612754,203200,1628993,203960,1628410,1627763,0021901316,3,1700,1700,0,0,1610612748
115,1610612748,2617,203482,1629639,1629134,203524,1610612754,203200,1628993,203960,1628410,1627763,0021901316,3,1717,1729,0,0,1610612754
116,1610612748,2617,203482,1629639,1629134,203524,1610612754,203200,1628993,203960,1628410,1627763,0021901316,3,1737,1737,0,0,1610612748
117,1610612748,2617,203482,1629639,1629134,203524,1610612754,203200,1628993,203960,1628410,1627763,0021901316,3,1737,1750,0,2,1610612754
118,1610612748,2617,203482,1629639,1629134,203524,1610612754,203200,1628993,203960,1628410,1627763,0021901316,3,1768,1784,0,0,1610612748
119,1610612748,1627884,1629639,203482,203524,2617,1610612754,203200,1628993,203960,1628410,1627763,0021901316,3,1784,1784,0,0,1610612754
120,1610612748,1627884,1629639,203482,203524,2617,1610612754,203200,1628993,203960,1628410,1627763,0021901316,3,1793,1816,0,0,1610612748
121,1610612748,1627884,1629639,203482,203524,2617,1610612754,1627763,1628988,1628993,203200,203960,0021901316,3,1824,1824,0,0,1610612754
122,1610612748,1627884,1629639,203482,203524,2617,1610612754,1627763,1628988,1628993,203200,203960,0021901316,3,1830,1830,3,0,1610612748
123,1610612748,1627884,1629639,203482,203524,2617,1610612754,1627763,1628988,1628993,203200,203960,0021901316,3,1840,1840,0,3,1610612754
124,1610612748,1627884,1629639,203482,203524,2617,1610612754,1627763,1628988,1628993,203200,203960,0021901316,3,1852,1852,2,0,1610612748
125,1610612748,1627884,1629639,203482,203524,2617,1610612754,1627763,1628988,1628993,203200,203960,0021901316,3,1872,1872,0,0,1610612754
126,1610612748,1627884,1629639,203482,203524,2617,1610612754,1627763,1628988,1628993,203200,203960,0021901316,3,1892,1892,2,0,1610612748
127,1610612748,1627884,1629639,203482,203524,2617,1610612754,1627763,1628988,1628993,203200,203960,0021901316,3,1905,1905,0,0,1610612754
128,1610612748,1627884,1629639,203482,203524,2617,1610612754,1627763,1628988,1628993,203200,203960,0021901316,3,1920,1920,3,0,1610612748
129,1610612748,1627884,1629639,203482,203524,2617,1610612754,1627763,1628988,1628993,203200,203960,0021901316,3,1921,1945,0,2,1610612754
130,1610612748,1627884,1629639,203482,203524,2617,1610612754,1628988,1628993,1629048,203926,204456,0021901316,3,1962,1962,3,0,1610612748
131,1610612748,1627884,1629639,203482,203524,2617,1610612754,1628988,1628993,1629048,203926,204456,0021901316,3,1990,1990,0,2,1610612754
132,1610612748,1627884,1629639,203482,203524,2617,1610612754,1628988,1628993,1629048,203926,204456,0021901316,3,1997,2001,0,0,1610612748
133,1610612748,1627884,1629639,203482,203524,2617,1610612754,1628988,1628993,1629048,203926,204456,0021901316,3,2007,2007,0,2,1610612754
134,1610612748,1627884,1629639,203482,203524,2617,1610612754,1628988,1628993,1629048,203926,204456,0021901316,3,2026,2031,3,0,1610612748
135,1610612748,1627884,1629639,203482,203524,2617,1610612754,1628988,1628993,1629048,203926,204456,0021901316,3,2055,2058,0,0,1610612754
136,1610612748,1627884,1629639,203482,203524,2617,1610612754,1628988,1628993,1629048,203926,204456,0021901316,3,2065,2067,0,0,1610612748
137,1610612748,1627884,1629639,203482,203524,2617,1610612754,1628988,1628993,1629048,203926,204456,0021901316,3,2078,2079,0,0,1610612754
138,1610612748,1627884,1629639,203482,203524,2617,1610612754,1628988,1628993,1629048,203926,204456,0021901316,3,2087,2087,0,0,1610612748
139,1610612748,1627884,1629134,203086,203524,2617,1610612754,1628388,1628988,1629048,203926,204456,0021901316,3,2095,2095,0,0,1610612754
140,1610612748,1627884,1629134,203086,203524,2617,1610612754,1628388,1628988,1629048,203926,204456,0021901316,3,2095,2117,0,0,1610612748
141,1610612748,1629134,1629735,203086,203482,203524,1610612754,1628388,1628988,1629048,203926,204456,0021901316,3,2121,2121,0,2,1610612754
142,1610612748,1629134,1629735,203086,203482,203524,1610612754,1628388,1628988,1629048,203926,204456,0021901316,3,2133,2133,2,0,1610612748
143,1610612748,1629134,1629735,203086,203482,203524,1610612754,1628388,1628988,1629048,203926,204456,0021901316,3,2152,2152,0,2,1610612754
144,1610612748,1629134,1629735,203086,203482,203524,1610612754,1628388,1628988,1629048,203926,204456,0021901316,3,2160,2160,0,0,1610612754
145,1610612748,1629134,203524,203086,1629735,1629734,1610612754,1629048,204456,1628988,203926,1628388,0021901316,4,2160,2171,0,0,1610612748
146,1610612748,1629134,203524,203086,1629735,1629734,1610612754,1629048,204456,1628988,203926,1628388,0021901316,4,2174,2174,0,2,1610612754
147,1610612748,1629134,203524,203086,1629735,1629734,1610612754,1629048,204456,1628988,203926,1628388,0021901316,4,2174,2193,0,0,1610612748
148,1610612748,1629134,203524,203086,1629735,1629734,1610612754,1629048,204456,1628988,203926,1628388,0021901316,4,2206,2206,0,2,1610612754
149,1610612748,1629134,203524,203086,1629735,1629734,1610612754,1629048,204456,1628988,203926,1628388,0021901316,4,2218,2218,0,0,1610612748
150,1610612748,1629134,203524,203086,1629735,1629734,1610612754,1629048,204456,1628988,203926,1628388,0021901316,4,2222,2226,0,0,1610612754
151,1610612748,1629134,203524,203086,1629735,1629734,1610612754,1629048,204456,1628988,203926,1628388,0021901316,4,2233,2240,0,0,1610612748
152,1610612748,1629134,203524,203086,1629735,1629734,1610612754,1629048,204456,1628988,203926,1628388,0021901316,4,2246,2249,0,0,1610612754
153,1610612748,1629134,203524,203086,1629735,1629734,1610612754,1629048,204456,1628988,203926,1628388,0021901316,4,2260,2263,0,0,1610612748
154,1610612748,1629134,203524,203086,1629735,1629734,1610612754,1629048,204456,1628988,203926,1628388,0021901316,4,2272,2274,0,0,1610612754
155,1610612748,1629134,203524,203086,1629735,1629734,1610612754,1629048,204456,1628988,203926,1628388,0021901316,4,2279,2279,3,0,1610612748
156,1610612748,1629134,203524,203086,1629735,1629734,1610612754,1629048,204456,1628988,203926,1628388,0021901316,4,2289,2289,0,0,1610612754
157,1610612748,1629134,203524,203086,1629735,1629734,1610612754,1628988,1628993,1629048,203926,204456,0021901316,4,2299,2299,0,0,1610612748
158,1610612748,1629134,203524,203086,1629735,1629734,1610612754,1628988,1628993,1629048,203926,204456,0021901316,4,2317,2317,0,3,1610612754
159,1610612748,1629134,203524,203086,1629735,1629734,1610612754,1628988,1628993,1629048,203926,204456,0021901316,4,2339,2339,2,0,1610612748
160,1610612748,1629134,203524,203086,1629735,1629734,1610612754,1628988,1628993,1629048,203926,204456,0021901316,4,2348,2358,0,0,1610612754
161,1610612748,1629134,203524,203086,1629735,1629734,1610612754,1628988,1628993,1629048,203926,204456,0021901316,4,2364,2364,0,0,1610612748
162,1610612748,1629134,203524,203086,1629735,1629734,1610612754,1628988,1628993,1629048,203926,204456,0021901316,4,2369,2370,0,0,1610612754
163,1610612748,1629134,203524,203086,1629735,1629734,1610612754,1628988,1628993,1629048,203926,204456,0021901316,4,2379,2379,2,0,1610612748
164,1610612748,1629134,203524,203086,1629735,1629734,1610612754,1628988,1628993,1629048,203926,204456,0021901316,4,2380,2392,0,0,1610612754
165,1610612748,1629134,203524,203086,1629735,1629734,1610612754,1628388,1628410,1628993,203926,204456,0021901316,4,2401,2401,3,0,1610612748
166,1610612748,1629134,203524,203086,1629735,1629734,1610612754,1628388,1628410,1628993,203926,204456,0021901316,4,2419,2424,0,0,1610612754
167,1610612748,1629134,203524,203086,1629735,1629734,1610612754,1628388,1628410,1628993,203926,204456,0021901316,4,2428,2431,0,0,1610612748
168,1610612748,1629134,203524,203086,1629735,1629734,1610612754,1628388,1628410,1628993,203926,204456,0021901316,4,2434,2434,0,2,1610612754
169,1610612748,1629134,203524,203086,1629735,1629734,1610612754,1628388,1628410,1628993,203926,204456,0021901316,4,2445,2447,0,0,1610612748
170,1610612748,1629134,203524,203086,1629735,1629734,1610612754,1628388,1628410,1628993,203926,204456,0021901316,4,2453,2457,0,0,1610612754
171,1610612748,1629134,203524,203086,1629735,1629734,1610612754,1628388,1628410,1628993,203926,204456,0021901316,4,2463,2466,0,0,1610612748
172,1610612748,1629134,203524,203086,1629735,1629734,1610612754,1628388,1628410,1628993,203926,204456,0021901316,4,2474,2482,0,2,1610612754
173,1610612748,1629134,203524,203086,1629735,1629734,1610612754,1628388,1628410,1628993,203926,204456,0021901316,4,2500,2500,2,0,1610612748
174,1610612748,1629134,203524,203086,1629735,1629734,1610612754,1628388,1628410,1628993,203926,204456,0021901316,4,2518,2520,0,0,1610612754
175,1610612748,1629134,203524,203086,1629735,1629734,1610612754,1628388,1628410,1628993,203926,204456,0021901316,4,2523,2523,2,0,1610612748
176,1610612748,1629134,203524,203086,1629735,1629734,1610612754,1628388,1628410,1628993,203926,204456,0021901316,4,2535,2537,0,0,1610612754
177,1610612748,1629134,203524,203086,1629735,1629734,1610612754,1628388,1628410,1628993,203926,204456,0021901316,4,2546,2546,0,0,1610612748
178,1610612748,1629134,203524,203086,1629735,1629734,1610612754,1628388,1628410,1628993,203926,204456,0021901316,4,2551,2551,0,0,1610612754
179,1610612748,1629134,203524,203086,1629735,1629734,1610612754,1628388,1628410,1628993,203926,204456,0021901316,4,2567,2570,0,0,1610612748
180,1610612748,1629134,203524,203086,1629735,1629734,1610612754,1628388,1628410,1628993,203926,204456,0021901316,4,2570,2579,0,3,1610612754
181,1610612748,1629134,203524,203086,1629735,1629734,1610612754,1628388,1628410,1628993,203926,204456,0021901316,4,2593,2593,0,0,1610612748
182,1610612748,1629134,203524,203086,1629735,1629734,1610612754,1628388,1628410,1628993,203926,204456,0021901316,4,2603,2603,0,2,1610612754
183,1610612748,1629134,203524,203086,1629735,1629734,1610612754,1628388,1628410,1628993,203926,204456,0021901316,4,2618,2620,0,0,1610612748
184,1610612748,1629134,203524,203086,1629735,1629734,1610612754,1628388,1628410,1628993,203926,204456,0021901316,4,2628,2630,0,0,1610612754
185,1610612748,1629134,203524,203086,1629735,1629734,1610612754,1628388,1628410,1628993,203926,204456,0021901316,4,2642,2644,1,0,1610612748
186,1610612748,1629134,203524,203086,1629735,1629734,1610612754,1628388,1628410,1628993,203926,204456,0021901316,4,2663,2663,0,3,1610612754
187,1610612748,1629134,203524,203086,1629735,1629734,1610612754,1628388,1628410,1628993,203926,204456,0021901316,4,2674,2678,0,0,1610612748
188,1610612748,1629134,203524,203086,1629735,1629734,1610612754,1628388,1628410,1628993,203926,204456,0021901316,4,2681,2681,0,2,1610612754
189,1610612748,1629134,203524,203086,1629735,1629734,1610612754,1628388,1628410,1628993,203926,204456,0021901316,4,2694,2694,3,0,1610612748
190,1610612748,1629134,203524,203086,1629735,1629734,1610612754,1628388,1628410,1628993,203926,204456,0021901316,4,2709,2715,0,0,1610612754
191,1610612748,1629134,203524,203086,1629735,1629734,1610612754,1628388,1628410,1628993,203926,204456,0021901316,4,2728,2744,0,0,1610612748
192,1610612748,1629134,203524,203086,1629735,1629734,1610612754,1628388,1628410,1628993,203926,204456,0021901316,4,2744,2768,0,0,1610612754
193,1610612748,1629134,203524,203086,1629735,1629734,1610612754,1628388,1628410,1628513,1628968,1628993,0021901316,4,2785,2788,0,0,1610612748
194,1610612748,1629134,203524,203086,1629735,1629734,1610612754,1628388,1628410,1628513,1628968,1628993,0021901316,4,2805,2805,0,0,1610612754
195,1610612748,1629134,203524,203086,1629735,1629734,1610612754,1628388,1628410,1628513,1628968,1628993,0021901316,4,2816,2821,0,0,1610612748
196,1610612748,1629134,203524,203086,1629735,1629734,1610612754,1628388,1628410,1628513,1628968,1628993,0021901316,4,2821,2821,0,2,1610612754
197,1610612748,1629134,203524,203086,1629735,1629734,1610612754,1628388,1628410,1628513,1628968,1628993,0021901316,4,2838,2838,1,0,1610612748
198,1610612748,1629134,203524,203086,1629735,1629734,1610612754,1628388,1628410,1628513,1628968,1628993,0021901316,4,2845,2845,0,2,1610612754
199,1610612748,1629134,203524,203086,1629735,1629734,1610612754,1628388,1628410,1628513,1628968,1628993,0021901316,4,2856,2858,3,0,1610612748
