,stint_end,t1_players,t2_pm,t2_points_scored,stint_start,t1_pm,t1_points_scored,t2_id,t1_id,t2_players,margin_per_100,num_poss
0,287,"[202711, 1626220, 203497, 1628378, 201144]",11,13,0,-11,2,1610612756,1610612762,"[1628969, 203109, 1629028, 1626164, 101108]",-55.00000000000001,20.0
1,440,"[202711, 1626220, 203497, 1628378, 201144]",7,15,288,-7,8,1610612756,1610612762,"[1628969, 203109, 1629028, 1626164, 101108]",-22.58064516129032,31.0
2,506,"[1626220, 1628378, 202324, 202711, 204060]",6,17,441,-6,11,1610612756,1610612762,"[1628969, 203109, 1629028, 1626164, 101108]",-15.384615384615385,39.0
3,559,"[1626220, 1628378, 202324, 202711, 204060]",5,19,507,-5,14,1610612756,1610612762,"[1626164, 1626166, 1628969, 1629028, 203109]",-11.904761904761903,42.0
4,595,"[1626220, 1628378, 202324, 203903, 204060]",6,20,560,-6,14,1610612756,1610612762,"[1626164, 1626166, 1629661, 203109, 203967]",-13.333333333333334,45.0
5,711,"[1627777, 201144, 203497, 203903, 204060]",-1,20,596,1,21,1610612756,1610612762,"[1626164, 1626166, 1629661, 203109, 203967]",1.9607843137254901,51.0
6,716,"[1627777, 201144, 203497, 203903, 204060]",-1,20,712,1,21,1610612756,1610612762,"[1626164, 1626166, 1628470, 1629661, 203967]",1.9230769230769231,52.0
7,805,"[1627777, 201144, 203497, 203903, 204060]",-3,20,717,3,23,1610612756,1610612762,"[101108, 1626164, 1628470, 1629661, 203967]",5.172413793103448,58.0
8,924,"[203497, 201144, 204060, 203903, 1627777]",1,26,806,-1,25,1610612756,1610612762,"[101108, 1629661, 203967, 1628470, 1628975]",-1.5151515151515151,66.0
9,939,"[203497, 201144, 204060, 203903, 1627777]",3,28,925,-3,25,1610612756,1610612762,"[101108, 1628470, 1628975, 1629028, 1629661]",-4.477611940298507,67.0
10,1036,"[203497, 201144, 204060, 203903, 1627777]",7,32,940,-7,25,1610612756,1610612762,"[101108, 1628969, 1628975, 1629028, 1629661]",-9.333333333333334,75.0
11,1147,"[1628378, 202324, 202711, 203903, 204060]",7,36,1037,-7,29,1610612756,1610612762,"[101108, 1628969, 1628975, 1629661, 203967]",-8.641975308641975,81.0
12,1201,"[1628378, 202324, 202711, 203903, 204060]",7,38,1148,-7,31,1610612756,1610612762,"[101108, 1626164, 1628969, 1629661, 203967]",-8.235294117647058,85.0
13,1327,"[1626220, 1628378, 202324, 202711, 203903]",9,43,1202,-9,34,1610612756,1610612762,"[1626164, 1626166, 1628969, 1629028, 203109]",-9.473684210526317,95.0
14,1430,"[1626220, 1628378, 201144, 202711, 203497]",11,49,1328,-11,38,1610612756,1610612762,"[1626164, 1626166, 1628969, 1629028, 203109]",-10.784313725490197,102.0
15,1439,"[1626220, 1628378, 201144, 202711, 203497]",13,51,1431,-13,38,1610612756,1610612762,"[101108, 1626164, 1629028, 1629661, 203109]",-12.62135922330097,103.0
16,1487,"[1628378, 201144, 202711, 203497, 204060]",6,51,1440,-6,45,1610612756,1610612762,"[101108, 1626164, 1629028, 1629661, 203109]",-5.607476635514018,107.0
17,1612,"[202711, 1626220, 203497, 1628378, 201144]",7,56,1488,-7,49,1610612756,1610612762,"[1628969, 203109, 1629028, 1626164, 101108]",-6.0344827586206895,116.0
18,1745,"[202711, 1626220, 203497, 1628378, 201144]",6,60,1613,-6,54,1610612756,1610612762,"[101108, 1626164, 1629028, 1629661, 203109]",-4.8,125.0
19,1878,"[1628378, 201144, 202711, 203497, 204060]",7,66,1746,-7,59,1610612756,1610612762,"[101108, 1626164, 1629028, 1629661, 203109]",-5.223880597014925,134.0
20,1981,"[1628378, 202324, 202711, 203903, 204060]",7,72,1879,-7,65,1610612756,1610612762,"[101108, 1626164, 1629028, 1629661, 203109]",-5.0,140.0
21,2040,"[1628378, 202324, 202711, 203903, 204060]",4,72,1982,-4,68,1610612756,1610612762,"[1626164, 1626166, 1629661, 203109, 203967]",-2.7777777777777777,144.0
22,2112,"[1627777, 201144, 203497, 203903, 204060]",1,75,2041,-1,74,1610612756,1610612762,"[1626164, 1626166, 1629661, 203109, 203967]",-0.6711409395973155,149.0
23,2159,"[1627777, 201144, 203497, 203903, 204060]",1,77,2113,-1,76,1610612756,1610612762,"[101108, 1626164, 1628470, 1629028, 1629661]",-0.6578947368421052,152.0
24,2269,"[1627777, 201144, 202324, 203903, 204060]",-2,79,2160,2,81,1610612756,1610612762,"[101108, 1626164, 1628470, 1629028, 1629661]",1.257861635220126,159.0
25,2328,"[201144, 202324, 204060, 203903, 1627777]",3,84,2270,-3,81,1610612756,1610612762,"[1628969, 1629028, 101108, 1628470, 1628975]",-1.8404907975460123,163.0
26,2397,"[1626220, 1627777, 201144, 202324, 203903]",-2,84,2329,2,86,1610612756,1610612762,"[1628969, 1629028, 101108, 1628470, 1628975]",1.1976047904191618,167.0
27,2541,"[1626220, 1628378, 202711, 203497, 203903]",-2,89,2398,2,91,1610612756,1610612762,"[1628969, 1629028, 101108, 1628470, 1628975]",1.1235955056179776,178.0
28,2625,"[1626220, 1628378, 202711, 203497, 203903]",2,95,2542,-2,93,1610612756,1610612762,"[101108, 1626164, 1629028, 1629661, 203109]",-1.092896174863388,183.0
29,2869,"[1626220, 1628378, 202711, 203497, 204060]",3,102,2626,-3,99,1610612756,1610612762,"[101108, 1626164, 1629028, 1629661, 203109]",-1.5384615384615385,195.0
30,3155,"[1626220, 1628378, 201144, 202711, 203497]",4,114,2870,-4,110,1610612756,1610612762,"[101108, 1626164, 1629028, 1629661, 203109]",-1.8867924528301887,212.0
31,3163,"[202711, 1626220, 203497, 1628378, 201144]",2,114,3156,-2,112,1610612756,1610612762,"[203109, 1629028, 1626164, 101108, 1629661]",-0.9389671361502347,213.0
32,3169,"[202711, 1626220, 203497, 1628378, 201144]",2,114,3164,-2,112,1610612756,1610612762,"[101108, 1626164, 1628470, 1629661, 203109]",-0.9389671361502347,213.0
33,3172,"[1626220, 1628378, 201144, 202324, 203497]",2,115,3170,-2,113,1610612756,1610612762,"[101108, 1626164, 1628470, 1629661, 203109]",-0.9302325581395349,215.0
34,3178,"[1628378, 201144, 202324, 203497, 204060]",4,117,3173,-4,113,1610612756,1610612762,"[101108, 1626164, 1629028, 203109, 203967]",-1.8518518518518516,216.0
35,9999999,"[1626220, 1628378, 201144, 202711, 203497]",4,117,3179,-4,113,1610612756,1610612762,"[101108, 1626164, 1628470, 1629661, 203109]",-1.8433179723502304,217.0
