,TEAM_ID_1,TEAM_1_PLAYERS,TEAM_ID_2,TEAM_2_PLAYERS,PERIOD
0,1610612745,[1630256 1626174 1628464 1630224 1629645],1610612763,[1628415 1628991  203500 1630217 1629630],1
1,1610612745,[1630224 1630578 1627863  201571 1630231],1610612763,[1628415 1628991 1629634 1626145 1630533],2
2,1610612745,[1630256 1626174 1628464 1630224 1629645],1610612763,[1628415 1628991  203500 1630217 1629630],3
3,1610612745,[1630578 1627863  201571 1630231 1629726],1610612763,[1628415 1628991 1629634 1626145 1630533],4
