,TEAM_ID_1,TEAM_1_PLAYERS,TEAM_ID_2,TEAM_2_PLAYERS,PERIOD
0,1610612763,[ 203109 1628991  202685 1628415 1626145],1610612762,[ 202711 1626220  203497  204060 1628378],1
1,1610612763,[ 202685 1628415 1626145  203998 1629741],1610612762,[ 204060 1628378  201145 1627777  202334],2
2,1610612763,[ 203109 1628991  202685 1628415 1626145],1610612762,[ 202711 1626220  203497  204060 1628378],3
3,1610612763,[ 202685 1628415 1626145  203524 1629741],1610612762,[ 204060 1628378  201145 1627777  202334],4
