,TEAM_ID_1,TEAM_1_PLAYERS,TEAM_ID_2,TEAM_2_PLAYERS,PERIOD
0,1610612740,[203121 203524 203076 201950 204025],1610612749,[ 203114  203507  201572 1627763  202339],1
1,1610612740,[ 203524  201950  202734 1627767 1628402],1610612749,[ 203507  202339  201588 1627748  203503],2
2,1610612740,[ 203121  203524  201950  204025 1626143],1610612749,[ 203114  203507  201572 1627763  202339],3
3,1610612740,[ 203524  203076  201950  202734 1628402],1610612749,[ 203507  202339  201588 1627748  203503],4
