,t1_players,stint_end,stint_start,t1_id,t2_points_scored,t2_pm,t1_pm,t2_id,t2_players,t1_points_scored,margin_per_100,num_poss
0,"[203932, 201145, 203999, 203115, 1630538]",440,0,1610612743,15,-11,11,1610612738,"[1628369, 201143, 1629057, 1627759, 203935]",26,33.33333333333333,33.0
1,"[203932, 201145, 203999, 203115, 1630538]",444,441,1610612743,16,-10,10,1610612738,"[1628369, 201143, 1629057, 1627759, 203935]",26,29.411764705882355,34.0
2,"[1630192, 1630267, 203115, 203932, 203999]",557,445,1610612743,23,-5,5,1610612738,"[1627759, 1628369, 1629057, 1629684, 203935]",28,11.904761904761903,42.0
3,"[1630192, 1630267, 203115, 203932, 203999]",578,558,1610612743,23,-7,7,1610612738,"[1627759, 1628401, 1629057, 1629684, 203935]",30,15.909090909090908,44.0
4,"[1627854, 1630192, 1630267, 203932, 203999]",584,579,1610612743,23,-7,7,1610612738,"[1628369, 1628401, 1629684, 1630202, 201143]",30,15.555555555555555,45.0
5,"[1627854, 1630192, 1630267, 203085, 203999]",718,585,1610612743,30,-2,2,1610612738,"[1628369, 1628401, 1629684, 1630202, 201143]",32,3.7037037037037033,54.0
6,"[1627854, 1630192, 1630267, 203085, 203210]",909,719,1610612743,37,0,0,1610612738,"[1628369, 1628401, 1629684, 1630202, 201143]",37,0.0,66.0
7,"[1630192, 1630267, 1627854, 203085, 203210]",993,910,1610612743,39,0,0,1610612738,"[1628369, 201143, 1629684, 1628401, 1630202]",39,0.0,71.0
8,"[1630192, 1630267, 1627854, 203085, 203210]",1044,994,1610612743,41,-1,1,1610612738,"[1627759, 1628401, 1629057, 1629684, 203935]",42,1.3513513513513513,74.0
9,"[1630192, 1630267, 201145, 203085, 203999]",1111,1045,1610612743,44,-1,1,1610612738,"[1627759, 1628401, 1629057, 1629684, 203935]",45,1.282051282051282,78.0
10,"[1630192, 1630267, 201145, 203115, 203999]",1149,1112,1610612743,44,-5,5,1610612738,"[1627759, 1628401, 1629057, 1629684, 203935]",49,6.172839506172839,81.0
11,"[1630538, 201145, 203115, 203932, 203999]",1348,1150,1610612743,48,-7,7,1610612738,"[1627759, 1628369, 1629057, 1629684, 203935]",55,7.216494845360824,97.0
12,"[1630538, 201145, 203115, 203932, 203999]",1406,1349,1610612743,49,-10,10,1610612738,"[1627759, 1628369, 1629057, 201143, 203935]",59,9.900990099009901,101.0
13,"[1630267, 201145, 203115, 203932, 203999]",1413,1407,1610612743,51,-8,8,1610612738,"[1627759, 1628369, 1629057, 201143, 203935]",59,7.8431372549019605,102.0
14,"[1628432, 201145, 203115, 203932, 203999]",1438,1414,1610612743,51,-9,9,1610612738,"[1627759, 1628369, 1629057, 1629684, 203935]",60,8.653846153846153,104.0
15,"[1628432, 201145, 203115, 203932, 203999]",1840,1439,1610612743,67,2,-2,1610612738,"[1627759, 1628369, 1629057, 201143, 203935]",65,-1.5151515151515151,132.0
16,"[203932, 201145, 203999, 203115, 1630538]",2034,1841,1610612743,76,2,-2,1610612738,"[1628369, 201143, 1629057, 1627759, 203935]",74,-1.3888888888888888,144.0
17,"[1630192, 1630267, 203115, 203932, 203999]",2055,2035,1610612743,76,2,-2,1610612738,"[1628369, 1628401, 1629057, 1629684, 203935]",74,-1.36986301369863,146.0
18,"[1630192, 1630267, 203085, 203210, 203932]",2156,2056,1610612743,76,-3,3,1610612738,"[1627759, 1628401, 1629057, 1629684, 203935]",79,1.9607843137254901,153.0
19,"[1627854, 1630192, 1630267, 203085, 203210]",2233,2157,1610612743,78,-5,5,1610612738,"[1627759, 1628401, 1629684, 1630202, 201143]",83,3.1446540880503147,159.0
20,"[1630192, 1630267, 1627854, 203085, 203210]",2373,2234,1610612743,84,-4,4,1610612738,"[201143, 1627759, 1629684, 1628401, 1630202]",88,2.366863905325444,169.0
21,"[1630192, 1630267, 1627854, 203085, 203210]",2440,2374,1610612743,89,-1,1,1610612738,"[1627759, 1628401, 1630202, 201143, 203935]",90,0.5780346820809248,173.0
22,"[1630192, 1630267, 203085, 203210, 203932]",2854,2441,1610612743,104,5,-5,1610612738,"[1627759, 1628369, 1628401, 1629057, 203935]",99,-2.4875621890547266,201.0
23,"[1630192, 1630267, 203115, 203932, 203999]",2859,2855,1610612743,106,6,-6,1610612738,"[1627759, 1628369, 1628401, 1629057, 203935]",100,-2.955665024630542,203.0
24,"[1628432, 1630192, 1630267, 203115, 203932]",2871,2860,1610612743,108,8,-8,1610612738,"[1627759, 1628369, 1628401, 1629057, 203935]",100,-3.9215686274509802,204.0
25,"[1630192, 1630267, 203115, 203932, 203999]",9999999,2872,1610612743,108,6,-6,1610612738,"[1627759, 1628369, 1628401, 1629057, 203935]",102,-2.9268292682926833,205.0
