,team1_id,team1_player1,team1_player2,team1_player3,team1_player4,team1_player5,team2_id,team2_player1,team2_player2,team2_player3,team2_player4,team2_player5,game_id,period,possession_start,possession_end,team1_points,team2_points,possession_team
0,1610612748,202710,2772,1628389,1629130,1629134,1610612750,1629006,1630183,1626157,1630162,201937,0022000852,1,0,20,0,2,1610612750
1,1610612748,202710,2772,1628389,1629130,1629134,1610612750,1629006,1630183,1626157,1630162,201937,0022000852,1,35,35,2,0,1610612748
2,1610612748,202710,2772,1628389,1629130,1629134,1610612750,1629006,1630183,1626157,1630162,201937,0022000852,1,48,48,0,2,1610612750
3,1610612748,202710,2772,1628389,1629130,1629134,1610612750,1629006,1630183,1626157,1630162,201937,0022000852,1,64,64,2,0,1610612748
4,1610612748,202710,2772,1628389,1629130,1629134,1610612750,1629006,1630183,1626157,1630162,201937,0022000852,1,83,83,0,0,1610612750
5,1610612748,202710,2772,1628389,1629130,1629134,1610612750,1629006,1630183,1626157,1630162,201937,0022000852,1,86,86,3,0,1610612748
6,1610612748,202710,2772,1628389,1629130,1629134,1610612750,1629006,1630183,1626157,1630162,201937,0022000852,1,106,113,0,0,1610612750
7,1610612748,202710,2772,1628389,1629130,1629134,1610612750,1629006,1630183,1626157,1630162,201937,0022000852,1,130,141,0,0,1610612748
8,1610612748,202710,2772,1628389,1629130,1629134,1610612750,1629006,1630183,1626157,1630162,201937,0022000852,1,160,162,0,0,1610612750
9,1610612748,202710,2772,1628389,1629130,1629134,1610612750,1629006,1630183,1626157,1630162,201937,0022000852,1,171,173,0,0,1610612748
10,1610612748,202710,2772,1628389,1629130,1629134,1610612750,1629006,1630183,1626157,1630162,201937,0022000852,1,180,183,0,0,1610612750
11,1610612748,202710,2772,1628389,1629130,1629134,1610612750,1629006,1630183,1626157,1630162,201937,0022000852,1,193,193,2,0,1610612748
12,1610612748,202710,2772,1628389,1629130,1629134,1610612750,1629006,1630183,1626157,1630162,201937,0022000852,1,214,214,0,0,1610612750
13,1610612748,202710,2772,1628389,1629130,1629134,1610612750,1629006,1630183,1626157,1630162,201937,0022000852,1,219,219,2,0,1610612748
14,1610612748,202710,2772,1628389,1629130,1629134,1610612750,1626156,1626157,1629006,1630162,201937,0022000852,1,237,240,0,0,1610612750
15,1610612748,202710,2772,1628389,1629130,1629134,1610612750,1626156,1626157,1629006,1630162,201937,0022000852,1,248,248,2,0,1610612748
16,1610612748,202710,2772,1628389,1629130,1629134,1610612750,1626156,1626157,1629006,1630162,201937,0022000852,1,262,262,0,2,1610612750
17,1610612748,202710,2772,1628389,1629130,1629134,1610612750,1626156,1626157,1629006,1630162,201937,0022000852,1,278,278,2,0,1610612748
18,1610612748,202710,2772,1628389,1629130,1629134,1610612750,1626156,1626157,1629006,1630162,201937,0022000852,1,279,302,0,3,1610612750
19,1610612748,202710,2772,1628389,1629130,1629134,1610612750,1626156,1626157,1629006,1630162,201937,0022000852,1,319,319,2,0,1610612748
20,1610612748,202710,2772,1628389,1629130,1629134,1610612750,1626156,1626157,1629006,1630162,201937,0022000852,1,330,330,0,3,1610612750
21,1610612748,202710,2772,1628389,1629130,1629134,1610612750,1626156,1626157,1629006,1630162,201937,0022000852,1,352,352,3,0,1610612748
22,1610612748,202710,2772,1628389,1629130,1629134,1610612750,1626156,1626157,1629006,1630162,201937,0022000852,1,362,362,0,3,1610612750
23,1610612748,202710,2772,1628389,1629130,1629134,1610612750,1626156,1626157,1629006,1630162,201937,0022000852,1,381,381,0,0,1610612748
24,1610612748,1628389,1629130,1629134,201609,2772,1610612750,1626156,1626157,1627774,1629006,201937,0022000852,1,394,394,0,0,1610612750
25,1610612748,1628389,1629130,1629134,201609,2772,1610612750,1626156,1626157,1627774,1629006,201937,0022000852,1,406,409,0,0,1610612748
26,1610612748,1628389,1629130,1629134,201609,2772,1610612750,1626156,1626157,1627774,1629006,201937,0022000852,1,417,421,0,0,1610612750
27,1610612748,1628389,1629130,1629134,201609,2772,1610612750,1626156,1626157,1627774,1629006,201937,0022000852,1,431,438,3,0,1610612748
28,1610612748,1628389,1629130,1629134,201609,2772,1610612750,1626156,1626157,1627774,1629006,201937,0022000852,1,465,465,0,3,1610612750
29,1610612748,1628389,1629130,1629134,201609,2772,1610612750,1626156,1626157,1627774,1629006,201937,0022000852,1,467,485,3,0,1610612748
30,1610612748,1628389,1629134,1629639,201609,2772,1610612750,1626156,1626157,1627774,1629162,1630183,0022000852,1,494,505,0,0,1610612750
31,1610612748,1628389,1629134,1629639,201609,2772,1610612750,1626156,1626157,1627774,1629162,1630183,0022000852,1,512,512,2,0,1610612748
32,1610612748,1628389,1629134,1629639,201609,2772,1610612750,1626156,1626157,1627774,1629162,1630183,0022000852,1,521,521,0,3,1610612750
33,1610612748,1628389,1629134,1629639,201609,2772,1610612750,1626156,1626157,1627774,1629162,1630183,0022000852,1,536,538,0,0,1610612748
34,1610612748,1628389,1629134,1629639,201609,2772,1610612750,1626156,1626157,1627774,1629162,1630183,0022000852,1,552,566,0,2,1610612750
35,1610612748,1628389,1629134,1629639,201609,2772,1610612750,1626156,1627774,1629162,1629675,1630183,0022000852,1,576,576,1,0,1610612748
36,1610612748,1629639,1630173,201609,202710,2772,1610612750,1626156,1627774,1627823,1629162,1629675,0022000852,1,585,585,0,0,1610612750
37,1610612748,1629639,1630173,201609,202357,202710,1610612750,1626156,1627774,1627823,1629162,1629675,0022000852,1,596,598,0,0,1610612748
38,1610612748,1629639,1630173,201609,202357,202710,1610612750,1626156,1627774,1627823,1629162,1629675,0022000852,1,604,604,0,2,1610612750
39,1610612748,1629639,1630173,201609,202357,202710,1610612750,1626156,1627774,1627823,1629162,1629675,0022000852,1,615,615,2,0,1610612748
40,1610612748,1629639,1630173,201609,202357,202710,1610612750,1626156,1627774,1627823,1629162,1629675,0022000852,1,626,628,0,0,1610612750
41,1610612748,1629639,1630173,201609,202357,202710,1610612750,1626156,1627774,1627823,1629162,1629675,0022000852,1,640,640,3,0,1610612748
42,1610612748,1629639,1630173,201609,202357,202710,1610612750,1626156,1627774,1627823,1629162,1629675,0022000852,1,657,660,0,1,1610612750
43,1610612748,1629639,1630173,201609,202357,202710,1610612750,1626156,1627823,1629020,1629162,1629675,0022000852,1,676,678,1,0,1610612748
44,1610612748,1629639,1630173,201609,202357,202710,1610612750,1626156,1627823,1629020,1629162,1629675,0022000852,1,682,682,0,0,1610612750
45,1610612748,1629639,1630173,201609,202357,202710,1610612750,1626156,1627823,1629020,1629162,1629675,0022000852,1,695,695,0,0,1610612748
46,1610612748,1629639,1630173,201609,202357,202710,1610612750,1626156,1627823,1629020,1629162,1629675,0022000852,1,699,699,0,0,1610612750
47,1610612748,1629639,1630173,201609,202357,202710,1610612750,1626156,1627823,1629020,1629162,1629675,0022000852,1,703,703,2,0,1610612748
48,1610612748,1629639,1630173,201609,202357,202710,1610612750,1626156,1627823,1629020,1629162,1629675,0022000852,1,716,718,0,0,1610612750
49,1610612748,1629639,1630173,201609,202357,202710,1610612750,1626156,1627823,1629020,1629162,1629675,0022000852,1,720,720,0,0,1610612750
50,1610612748,202710,201609,1629639,1630173,202357,1610612750,1630162,1629162,1629675,1627823,1629020,0022000852,2,720,734,0,0,1610612748
51,1610612748,202710,201609,1629639,1630173,202357,1610612750,1630162,1629162,1629675,1627823,1629020,0022000852,2,743,756,0,3,1610612750
52,1610612748,202710,201609,1629639,1630173,202357,1610612750,1630162,1629162,1629675,1627823,1629020,0022000852,2,773,776,0,0,1610612748
53,1610612748,202710,201609,1629639,1630173,202357,1610612750,1630162,1629162,1629675,1627823,1629020,0022000852,2,786,786,0,2,1610612750
54,1610612748,202710,201609,1629639,1630173,202357,1610612750,1630162,1629162,1629675,1627823,1629020,0022000852,2,812,814,0,0,1610612748
55,1610612748,202710,201609,1629639,1630173,202357,1610612750,1630162,1629162,1629675,1627823,1629020,0022000852,2,815,815,0,1,1610612750
56,1610612748,202710,201609,1629639,1630173,202357,1610612750,1630162,1629162,1629675,1627823,1629020,0022000852,2,831,835,0,0,1610612748
57,1610612748,202710,201609,1629639,1630173,202357,1610612750,1630162,1629162,1629675,1627823,1629020,0022000852,2,846,846,0,0,1610612750
58,1610612748,202710,201609,1629639,1630173,202357,1610612750,1630162,1629162,1629675,1627823,1629020,0022000852,2,849,849,0,0,1610612748
59,1610612748,202710,201609,1629639,1630173,202357,1610612750,1630162,1629162,1629675,1627823,1629020,0022000852,2,852,856,0,2,1610612750
60,1610612748,202710,201609,1629639,1630173,202357,1610612750,1630162,1629162,1629675,1627823,1629020,0022000852,2,873,873,2,0,1610612748
61,1610612748,202710,201609,1629639,1630173,202357,1610612750,1630162,1629162,1629675,1627823,1629020,0022000852,2,884,899,0,3,1610612750
62,1610612748,202710,201609,1629639,1630173,202357,1610612750,1630162,1629162,1629675,1627823,1629020,0022000852,2,924,926,0,0,1610612748
63,1610612748,202710,201609,1629639,1630173,202357,1610612750,1630162,1629162,1629675,1627823,1629020,0022000852,2,931,931,0,2,1610612750
64,1610612748,202710,201609,1629639,1630173,202357,1610612750,1630162,1629162,1629675,1627823,1629020,0022000852,2,931,949,2,0,1610612748
65,1610612748,1628389,1629130,1629639,202710,2772,1610612750,1630162,1629162,1629675,1627823,1629020,0022000852,2,972,972,0,2,1610612750
66,1610612748,1628389,1629130,1629639,202710,2772,1610612750,1630162,1629162,1629675,1627823,1629020,0022000852,2,984,999,0,0,1610612748
67,1610612748,1628389,1629130,1629639,202710,2772,1610612750,1630162,1629162,1629675,1627823,1629020,0022000852,2,1020,1021,0,0,1610612750
68,1610612748,1628389,1629130,1629639,202710,2772,1610612750,1626157,1627823,1629020,1629162,1630162,0022000852,2,1032,1032,0,0,1610612748
69,1610612748,1628389,1629130,1629639,202710,2772,1610612750,1626157,1627823,1629020,1629162,1630162,0022000852,2,1038,1038,0,3,1610612750
70,1610612748,1628389,1629130,1629639,202710,2772,1610612750,1626157,1627823,1629020,1629162,1630162,0022000852,2,1057,1060,0,0,1610612748
71,1610612748,1628389,1629130,1629639,202710,2772,1610612750,1626157,1627823,1629020,1630162,201937,0022000852,2,1080,1088,0,2,1610612750
72,1610612748,1628389,1629130,1629639,202710,2772,1610612750,1626157,1627823,1629020,1630162,201937,0022000852,2,1088,1103,3,0,1610612748
73,1610612748,1628389,1629130,1629639,202710,2772,1610612750,1626157,1627823,1629020,1630162,201937,0022000852,2,1122,1123,0,0,1610612750
74,1610612748,1628389,1629130,1629639,202710,2772,1610612750,1626157,1627823,1629020,1630162,201937,0022000852,2,1127,1127,1,0,1610612748
75,1610612748,1628389,1629130,1629134,202710,2772,1610612750,1627823,1629020,1629675,1630162,201937,0022000852,2,1135,1137,0,0,1610612750
76,1610612748,1628389,1629130,1629134,202710,2772,1610612750,1627823,1629020,1629675,1630162,201937,0022000852,2,1158,1158,2,0,1610612748
77,1610612748,1628389,1629130,1629134,202710,2772,1610612750,1627823,1629020,1629675,1630162,201937,0022000852,2,1165,1175,0,0,1610612750
78,1610612748,1628389,1629130,1629134,1629639,2772,1610612750,1626156,1627823,1629006,1629675,201937,0022000852,2,1179,1179,2,0,1610612748
79,1610612748,1628389,1629130,1629134,1629639,2772,1610612750,1626156,1627823,1629006,1629675,201937,0022000852,2,1196,1196,0,2,1610612750
80,1610612748,1628389,1629130,1629134,1629639,2772,1610612750,1626156,1627823,1629006,1629675,201937,0022000852,2,1215,1215,0,0,1610612748
81,1610612748,1628389,1629130,1629134,1629639,2772,1610612750,1626156,1627823,1629006,1629675,201937,0022000852,2,1221,1221,0,3,1610612750
82,1610612748,1628389,1629130,1629134,1629639,2772,1610612750,1626156,1627823,1629006,1629675,201937,0022000852,2,1248,1251,0,0,1610612748
83,1610612748,1628389,1629130,1629134,1629639,2772,1610612750,1626156,1627823,1629006,1629675,201937,0022000852,2,1258,1258,0,2,1610612750
84,1610612748,1628389,1629130,1629134,1629639,2772,1610612750,1626156,1627823,1629006,1629675,201937,0022000852,2,1273,1273,3,0,1610612748
85,1610612748,1628389,1629130,1629134,1629639,2772,1610612750,1626156,1627823,1629006,1629675,201937,0022000852,2,1285,1287,0,0,1610612750
86,1610612748,1628389,1629130,1629134,1629639,2772,1610612750,1626156,1627823,1629006,1629675,201937,0022000852,2,1298,1301,0,0,1610612748
87,1610612748,1628389,1629130,1629134,1629639,2772,1610612750,1626156,1627823,1629006,1629675,201937,0022000852,2,1308,1310,0,3,1610612750
88,1610612748,1628389,1629134,1629622,202710,2772,1610612750,1626156,1629006,1629020,1629675,201937,0022000852,2,1327,1327,3,0,1610612748
89,1610612748,1628389,1629134,1629622,202710,2772,1610612750,1626156,1629006,1629020,1629675,201937,0022000852,2,1345,1345,0,2,1610612750
90,1610612748,1628389,1629134,1629622,202710,2772,1610612750,1626156,1629006,1629020,1629675,201937,0022000852,2,1360,1360,3,0,1610612748
91,1610612748,1628389,1629134,1629622,202710,2772,1610612750,1626156,1629006,1629020,1629675,201937,0022000852,2,1377,1386,0,3,1610612750
92,1610612748,1629134,1629622,1630173,202710,2772,1610612750,1626156,1629006,1629020,1629675,201937,0022000852,2,1404,1404,3,0,1610612748
93,1610612748,1629134,1629622,1630173,202710,2772,1610612750,1626156,1629006,1629020,1629675,201937,0022000852,2,1412,1412,0,0,1610612750
94,1610612748,1629134,1629622,1630173,202710,2772,1610612750,1626156,1629006,1629020,1629675,201937,0022000852,2,1437,1439,0,0,1610612748
95,1610612748,202710,2772,1628389,1629130,1629134,1610612750,1629006,1630183,1626157,1630162,201937,0022000852,3,1440,1457,0,0,1610612748
96,1610612748,202710,2772,1628389,1629130,1629134,1610612750,1629006,1630183,1626157,1630162,201937,0022000852,3,1468,1473,0,1,1610612750
97,1610612748,202710,2772,1628389,1629130,1629134,1610612750,1629006,1630183,1626157,1630162,201937,0022000852,3,1488,1488,2,0,1610612748
98,1610612748,202710,2772,1628389,1629130,1629134,1610612750,1629006,1630183,1626157,1630162,201937,0022000852,3,1513,1513,0,0,1610612750
99,1610612748,202710,2772,1628389,1629130,1629134,1610612750,1629006,1630183,1626157,1630162,201937,0022000852,3,1516,1516,3,0,1610612748
100,1610612748,202710,2772,1628389,1629130,1629134,1610612750,1629006,1630183,1626157,1630162,201937,0022000852,3,1527,1530,0,0,1610612750
101,1610612748,202710,2772,1628389,1629130,1629134,1610612750,1629006,1630183,1626157,1630162,201937,0022000852,3,1540,1565,0,0,1610612748
102,1610612748,202710,2772,1628389,1629130,1629134,1610612750,1629006,1630183,1626157,1630162,201937,0022000852,3,1576,1578,0,0,1610612750
103,1610612748,202710,2772,1628389,1629130,1629134,1610612750,1629006,1630183,1626157,1630162,201937,0022000852,3,1584,1594,2,0,1610612748
104,1610612748,202710,2772,1628389,1629130,1629134,1610612750,1629006,1630183,1626157,1630162,201937,0022000852,3,1613,1613,0,3,1610612750
105,1610612748,202710,2772,1628389,1629130,1629134,1610612750,1629006,1630183,1626157,1630162,201937,0022000852,3,1623,1625,0,0,1610612748
106,1610612748,202710,2772,1628389,1629130,1629134,1610612750,1629006,1630183,1626157,1630162,201937,0022000852,3,1632,1632,0,3,1610612750
107,1610612748,202710,2772,1628389,1629130,1629134,1610612750,1629006,1630183,1626157,1630162,201937,0022000852,3,1649,1652,0,0,1610612748
108,1610612748,202710,2772,1628389,1629130,1629134,1610612750,1629006,1630183,1626157,1630162,201937,0022000852,3,1657,1674,0,0,1610612750
109,1610612748,202710,2772,1628389,1629130,1629134,1610612750,1629006,1630183,1626157,1630162,201937,0022000852,3,1686,1686,3,0,1610612748
110,1610612748,202710,2772,1628389,1629130,1629134,1610612750,1629006,1630183,1626157,1630162,201937,0022000852,3,1703,1705,0,1,1610612750
111,1610612748,202710,2772,1628389,1629130,1629134,1610612750,1629006,1630183,1626157,1630162,201937,0022000852,3,1723,1723,2,0,1610612748
112,1610612748,202710,2772,1628389,1629130,1629134,1610612750,1629006,1630183,1626157,1630162,201937,0022000852,3,1737,1737,0,3,1610612750
113,1610612748,202710,2772,1628389,1629130,1629134,1610612750,1629006,1630183,1626157,1630162,201937,0022000852,3,1752,1752,2,0,1610612748
114,1610612748,202710,2772,1628389,1629130,1629134,1610612750,1629006,1630183,1626157,1630162,201937,0022000852,3,1771,1774,0,1,1610612750
115,1610612748,202710,2772,1628389,1629130,1629134,1610612750,1629006,1630183,1626157,1630162,201937,0022000852,3,1780,1780,0,0,1610612748
116,1610612748,202710,2772,1628389,1629130,1629134,1610612750,1629006,1630183,1626157,1630162,201937,0022000852,3,1782,1782,0,3,1610612750
117,1610612748,202710,2772,1628389,1629130,1629134,1610612750,1629006,1630183,1626157,1630162,201937,0022000852,3,1806,1806,2,0,1610612748
118,1610612748,202710,2772,1628389,1629130,1629134,1610612750,1629006,1630183,1626157,1630162,201937,0022000852,3,1833,1833,0,3,1610612750
119,1610612748,202710,2772,1628389,1629130,1629134,1610612750,1629006,1630183,1626157,1630162,201937,0022000852,3,1849,1849,0,0,1610612748
120,1610612748,1629130,1630173,201609,202710,2772,1610612750,1629006,1630183,1626157,1630162,201937,0022000852,3,1859,1861,0,2,1610612750
121,1610612748,1629130,1630173,201609,202710,2772,1610612750,1626156,1626157,1629006,1630183,201937,0022000852,3,1866,1868,1,0,1610612748
122,1610612748,1629130,1630173,201609,202710,2772,1610612750,1626156,1626157,1629006,1630183,201937,0022000852,3,1880,1880,0,2,1610612750
123,1610612748,1629130,1630173,201609,202710,2772,1610612750,1626156,1626157,1629006,1630183,201937,0022000852,3,1902,1902,2,0,1610612748
124,1610612748,1629130,1630173,201609,202710,2772,1610612750,1626156,1626157,1629006,1630183,201937,0022000852,3,1914,1914,0,0,1610612750
125,1610612748,1629130,1630173,201609,202710,2772,1610612750,1626156,1629006,1629675,1630183,201937,0022000852,3,1923,1923,0,0,1610612748
126,1610612748,1629130,1630173,201609,202710,2772,1610612750,1626156,1629006,1629675,1630183,201937,0022000852,3,1932,1934,0,0,1610612750
127,1610612748,1629130,1630173,201609,202710,2772,1610612750,1626156,1629006,1629675,1630183,201937,0022000852,3,1940,1945,3,0,1610612748
128,1610612748,1629130,1630173,201609,202710,2772,1610612750,1626156,1629006,1629675,1630183,201937,0022000852,3,1965,1965,0,2,1610612750
129,1610612748,1629130,1630173,201609,202710,2772,1610612750,1626156,1629006,1629675,1630183,201937,0022000852,3,1987,1989,0,0,1610612748
130,1610612748,1629130,1630173,201609,202710,2772,1610612750,1626156,1629006,1629675,1630183,201937,0022000852,3,1993,1998,0,0,1610612750
131,1610612748,1629130,1630173,201609,202710,2772,1610612750,1626156,1629006,1629675,1630183,201937,0022000852,3,2006,2010,0,0,1610612748
132,1610612748,1629130,1630173,201609,202710,2772,1610612750,1626156,1629006,1629675,1630183,201937,0022000852,3,2024,2024,0,0,1610612750
133,1610612748,1629130,1630173,201609,202710,2772,1610612750,1626156,1629006,1629675,1630183,201937,0022000852,3,2028,2028,2,0,1610612748
134,1610612748,1629130,1630173,201609,202710,2772,1610612750,1626156,1629006,1629675,1630183,201937,0022000852,3,2045,2053,1,0,1610612750
135,1610612748,1629622,1629639,1630173,201609,202710,1610612750,1626156,1627823,1629020,1629162,1629675,0022000852,3,2058,2058,2,0,1610612748
136,1610612748,1629622,1629639,1630173,201609,202710,1610612750,1626156,1627823,1629020,1629162,1629675,0022000852,3,2069,2069,0,0,1610612750
137,1610612748,1629622,1629639,1630173,201609,202710,1610612750,1626156,1627823,1629020,1629162,1629675,0022000852,3,2082,2087,0,0,1610612748
138,1610612748,1629622,1629639,1630173,201609,202710,1610612750,1626156,1627823,1629020,1629162,1629675,0022000852,3,2100,2100,0,0,1610612750
139,1610612748,1629622,1629639,1630173,201609,202710,1610612750,1626156,1627823,1629020,1629162,1629675,0022000852,3,2100,2109,0,0,1610612748
140,1610612748,1629622,1629639,1630173,201609,202710,1610612750,1626156,1627823,1629020,1629162,1629675,0022000852,3,2130,2130,0,3,1610612750
141,1610612748,1629622,1629639,1630173,201609,202710,1610612750,1626156,1627823,1629020,1629162,1629675,0022000852,3,2132,2132,2,0,1610612748
142,1610612748,1629622,1629639,1630173,201609,202710,1610612750,1626156,1627823,1629020,1629162,1629675,0022000852,3,2152,2155,0,0,1610612750
143,1610612748,1629622,1629639,1630173,201609,202710,1610612750,1626156,1627823,1629020,1629162,1629675,0022000852,3,2160,2160,3,0,1610612748
144,1610612748,1629622,1629639,1630173,201609,202710,1610612750,1626156,1627823,1629020,1629162,1629675,0022000852,3,2160,2160,0,0,518
145,1610612748,201609,1629639,1630173,1629622,1629216,1610612750,1626156,1629162,1629675,1627823,1629020,0022000852,4,2160,2173,0,2,1610612750
146,1610612748,201609,1629639,1630173,1629622,1629216,1610612750,1626156,1629162,1629675,1627823,1629020,0022000852,4,2195,2195,3,0,1610612748
147,1610612748,201609,1629639,1630173,1629622,1629216,1610612750,1626156,1629162,1629675,1627823,1629020,0022000852,4,2206,2213,0,0,1610612750
148,1610612748,201609,1629639,1630173,1629622,1629216,1610612750,1626156,1629162,1629675,1627823,1629020,0022000852,4,2216,2220,0,0,1610612748
149,1610612748,201609,1629639,1630173,1629622,1629216,1610612750,1626156,1629162,1629675,1627823,1629020,0022000852,4,2230,2235,0,2,1610612750
150,1610612748,201609,1629639,1630173,1629622,1629216,1610612750,1626156,1629162,1629675,1627823,1629020,0022000852,4,2248,2250,0,0,1610612748
151,1610612748,201609,1629639,1630173,1629622,1629216,1610612750,1626156,1629162,1629675,1627823,1629020,0022000852,4,2258,2258,0,0,1610612750
152,1610612748,201609,1629639,1630173,1629622,1629216,1610612750,1626156,1629162,1629675,1627823,1629020,0022000852,4,2268,2268,0,0,1610612748
153,1610612748,201609,1629639,1630173,1629622,1629216,1610612750,1626156,1629162,1629675,1627823,1629020,0022000852,4,2278,2280,0,2,1610612750
154,1610612748,201609,1629639,1630173,1629622,1629216,1610612750,1626156,1629162,1629675,1627823,1629020,0022000852,4,2291,2294,0,0,1610612748
155,1610612748,201609,1629639,1630173,1629622,1629216,1610612750,1626156,1629162,1629675,1627823,1629020,0022000852,4,2305,2317,0,2,1610612750
156,1610612748,1628389,1629216,1629622,1629639,201609,1610612750,1627823,1629020,1629162,1629675,1630162,0022000852,4,2326,2337,0,0,1610612748
157,1610612748,1628389,1629216,1629622,1629639,201609,1610612750,1627823,1629020,1629162,1629675,1630162,0022000852,4,2359,2360,0,0,1610612750
158,1610612748,1628389,1629216,1629622,1629639,201609,1610612750,1627823,1629020,1629162,1629675,1630162,0022000852,4,2367,2367,0,0,1610612748
159,1610612748,1628389,1629216,1629639,201609,2772,1610612750,1626157,1627823,1629020,1629162,1630162,0022000852,4,2381,2381,0,3,1610612750
160,1610612748,1628389,1629216,1629639,201609,2772,1610612750,1626157,1627823,1629020,1629162,1630162,0022000852,4,2383,2400,0,0,1610612748
161,1610612748,1628389,1629130,1629639,202710,2772,1610612750,1626157,1627823,1629020,1630162,201937,0022000852,4,2410,2410,0,2,1610612750
162,1610612748,1628389,1629130,1629639,202710,2772,1610612750,1626157,1627823,1629020,1630162,201937,0022000852,4,2428,2428,3,0,1610612748
163,1610612748,1628389,1629130,1629639,202710,2772,1610612750,1626157,1627823,1629020,1630162,201937,0022000852,4,2445,2445,0,2,1610612750
164,1610612748,1628389,1629130,1629639,202710,2772,1610612750,1626157,1627823,1629020,1630162,201937,0022000852,4,2463,2465,0,0,1610612748
165,1610612748,1628389,1629130,1629639,202710,2772,1610612750,1626157,1627823,1629020,1630162,201937,0022000852,4,2477,2477,0,3,1610612750
166,1610612748,1628389,1629130,1629639,202710,2772,1610612750,1626157,1627823,1629020,1630162,201937,0022000852,4,2491,2504,1,0,1610612748
167,1610612748,1628389,1629130,1629639,202710,2772,1610612750,1626157,1627823,1629006,1630162,201937,0022000852,4,2527,2527,0,0,1610612750
168,1610612748,1628389,1629130,1629639,202710,2772,1610612750,1626157,1627823,1629006,1630162,201937,0022000852,4,2537,2538,0,0,1610612748
169,1610612748,1628389,1629130,1629639,202710,2772,1610612750,1626157,1627823,1629006,1630162,201937,0022000852,4,2540,2540,0,2,1610612750
170,1610612748,1628389,1629130,1629639,202710,2772,1610612750,1626157,1627823,1629006,1630162,201937,0022000852,4,2555,2555,2,0,1610612748
171,1610612748,1628389,1629130,1629639,202710,2772,1610612750,1626157,1627823,1629006,1630162,201937,0022000852,4,2575,2575,0,2,1610612750
172,1610612748,1628389,1629130,1629639,202710,2772,1610612750,1626157,1627823,1629006,1630162,201937,0022000852,4,2593,2597,0,0,1610612748
173,1610612748,1628389,1629130,1629639,202710,2772,1610612750,1626157,1627823,1629006,1630162,201937,0022000852,4,2607,2607,0,2,1610612750
174,1610612748,1628389,1629130,1629639,202710,2772,1610612750,1626157,1627823,1629006,1630162,201937,0022000852,4,2608,2620,3,0,1610612748
175,1610612748,1628389,1629130,201609,202710,2772,1610612750,1626157,1627823,1629006,1630162,201937,0022000852,4,2641,2648,0,0,1610612750
176,1610612748,1628389,1629130,201609,202710,2772,1610612750,1626157,1627823,1629006,1630162,201937,0022000852,4,2659,2659,0,0,1610612748
177,1610612748,1628389,1629130,201609,202710,2772,1610612750,1626157,1627823,1629006,1630162,201937,0022000852,4,2669,2669,0,1,1610612750
178,1610612748,1628389,1629130,201609,202710,2772,1610612750,1626156,1626157,1629020,1630162,201937,0022000852,4,2686,2686,2,0,1610612748
179,1610612748,1628389,1629130,201609,202710,2772,1610612750,1626156,1626157,1629020,1630162,201937,0022000852,4,2700,2700,0,0,1610612750
180,1610612748,1628389,1629130,201609,202710,2772,1610612750,1626156,1626157,1629020,1630162,201937,0022000852,4,2708,2709,0,0,1610612748
181,1610612748,1628389,1629130,201609,202710,2772,1610612750,1626156,1626157,1629020,1630162,201937,0022000852,4,2733,2733,0,0,1610612750
182,1610612748,1628389,1629130,201609,202710,2772,1610612750,1626156,1626157,1629020,1630162,201937,0022000852,4,2751,2751,0,0,1610612748
183,1610612748,1628389,1629130,201609,202710,2772,1610612750,1626156,1626157,1629020,1630162,201937,0022000852,4,2756,2759,0,0,1610612750
184,1610612748,1628389,1629130,201609,202710,2772,1610612750,1626156,1626157,1629020,1630162,201937,0022000852,4,2764,2769,2,0,1610612748
185,1610612748,1628389,1629130,201609,202710,2772,1610612750,1626156,1629020,1629675,1630162,201937,0022000852,4,2785,2788,0,2,1610612750
186,1610612748,1628389,1629130,201609,202710,2772,1610612750,1626156,1629020,1629675,1630162,201937,0022000852,4,2797,2797,2,0,1610612748
187,1610612748,1628389,1629130,201609,202710,2772,1610612750,1626156,1629020,1629675,1630162,201937,0022000852,4,2814,2814,0,2,1610612750
188,1610612748,1628389,1629130,201609,202710,2772,1610612750,1626156,1629020,1629675,1630162,201937,0022000852,4,2825,2827,0,0,1610612748
189,1610612748,1628389,1629130,201609,202710,2772,1610612750,1626156,1629020,1629675,1630162,201937,0022000852,4,2850,2850,0,0,1610612750
190,1610612748,1628389,1629130,201609,202710,2772,1610612750,1626156,1629020,1629675,1630162,201937,0022000852,4,2861,2864,0,0,1610612748
191,1610612748,1628389,1629130,201609,202710,2772,1610612750,1626156,1629020,1629675,1630162,201937,0022000852,4,2870,2870,0,2,1610612750
192,1610612748,1628389,1629130,201609,202710,2772,1610612750,1626156,1629020,1629675,1630162,201937,0022000852,4,2870,2875,0,0,1610612748
193,1610612748,1629130,1629639,201609,202710,2772,1610612750,1626156,1629020,1630162,1630183,201937,0022000852,4,2876,2876,0,0,1610612750
194,1610612748,1629130,1629639,201609,202710,2772,1610612750,1626156,1629020,1630162,1630183,201937,0022000852,4,2877,2880,0,0,1610612748
