,TEAM_ID_1,TEAM_1_PLAYERS,TEAM_ID_2,TEAM_2_PLAYERS,PERIOD
0,1610612738,[1628369  202684 1628464 1627759  203935],1610612765,[ 203924  201933  203486 1628367 1630165],1
1,1610612738,[1628369 1630202  201952 1629057 1628400],1610612765,[ 201565 1626153 1630180 1629635 1626143],2
2,1610612738,[1628369  202684 1628464 1627759  203935],1610612765,[ 203924  201933  203486 1628367 1630165],3
3,1610612738,[1628369 1630202  201952 1629057 1628400],1610612765,[ 201565 1630191 1630180 1629635 1629004],4
