,team1_id,team1_player1,team1_player2,team1_player3,team1_player4,team1_player5,team2_id,team2_player1,team2_player2,team2_player3,team2_player4,team2_player5,game_id,period,possession_start,possession_end,team1_points,team2_points,possession_team
0,1610612739,1630596,1628374,1628386,1630205,1629636,1610612744,203952,203110,1626172,202691,201939,0022100604,1,0,25,2,0,1610612739
1,1610612739,1630596,1628374,1628386,1630205,1629636,1610612744,1626172,1629308,201939,202691,203952,0022100604,1,40,40,0,2,1610612744
2,1610612739,1630596,1628374,1628386,1630205,1629636,1610612744,1626172,1629308,201939,202691,203952,0022100604,1,49,49,1,0,1610612739
3,1610612739,1630596,1628374,1628386,1630205,1629636,1610612744,1626172,1629308,201939,202691,203952,0022100604,1,59,61,0,0,1610612744
4,1610612739,1630596,1628374,1628386,1630205,1629636,1610612744,1626172,1629308,201939,202691,203952,0022100604,1,67,80,0,0,1610612739
5,1610612739,1630596,1628374,1628386,1630205,1629636,1610612744,1626172,1629308,201939,202691,203952,0022100604,1,88,88,0,0,1610612744
6,1610612739,1630596,1628374,1628386,1630205,1629636,1610612744,1626172,1629308,201939,202691,203952,0022100604,1,94,97,0,0,1610612739
7,1610612739,1630596,1628374,1628386,1630205,1629636,1610612744,1626172,1629308,201939,202691,203952,0022100604,1,106,106,0,0,1610612744
8,1610612739,1630596,1628374,1628386,1630205,1629636,1610612744,1626172,1629308,201939,202691,203952,0022100604,1,111,111,2,0,1610612739
9,1610612739,1630596,1628374,1628386,1630205,1629636,1610612744,1626172,1629308,201939,202691,203952,0022100604,1,121,121,0,2,1610612744
10,1610612739,1630596,1628374,1628386,1630205,1629636,1610612744,1626172,1629308,201939,202691,203952,0022100604,1,137,142,3,0,1610612739
11,1610612739,1630596,1628374,1628386,1630205,1629636,1610612744,1626172,1629308,201939,202691,203952,0022100604,1,161,163,0,0,1610612744
12,1610612739,1630596,1628374,1628386,1630205,1629636,1610612744,1626172,1629308,201939,202691,203952,0022100604,1,178,178,0,0,1610612739
13,1610612739,1630596,1628374,1628386,1630205,1629636,1610612744,1626172,1629308,201939,202691,203952,0022100604,1,184,184,0,3,1610612744
14,1610612739,1630596,1628374,1628386,1630205,1629636,1610612744,1626172,1629308,201939,202691,203952,0022100604,1,204,220,0,0,1610612739
15,1610612739,1630596,1628374,1628386,1630205,1629636,1610612744,1626172,1629308,201939,202691,203952,0022100604,1,228,238,0,0,1610612744
16,1610612739,1630596,1628374,1628386,1630205,1629636,1610612744,1626172,1629308,201939,202691,203952,0022100604,1,244,244,2,0,1610612739
17,1610612739,1630596,1628374,1628386,1630205,1629636,1610612744,1626172,1629308,201939,202691,203952,0022100604,1,263,263,0,2,1610612744
18,1610612739,1630596,1628374,1628386,1630205,1629636,1610612744,1626172,1629308,1629673,201939,203952,0022100604,1,276,276,0,0,1610612739
19,1610612739,1630596,1628374,1628386,1630205,1629636,1610612744,1626172,1629308,1629673,201939,203952,0022100604,1,286,288,0,0,1610612744
20,1610612739,1630596,1628374,1628386,1630205,1629636,1610612744,1626172,1629308,1629673,201939,203952,0022100604,1,307,307,3,0,1610612739
21,1610612739,1630596,1628374,1628386,1630205,1629636,1610612744,1626172,1629308,1629673,201939,203952,0022100604,1,328,337,0,2,1610612744
22,1610612739,1630596,1628374,1628386,1630205,1629636,1610612744,1626172,1629308,1629673,201939,203952,0022100604,1,344,362,2,0,1610612739
23,1610612739,1626224,1628374,1628386,1629636,201567,1610612744,1626172,1629673,201939,203952,2738,0022100604,1,382,382,0,3,1610612744
24,1610612739,1626224,1628374,1628386,1629636,201567,1610612744,1626172,1629673,201939,203952,2738,0022100604,1,399,404,0,0,1610612739
25,1610612739,1626224,1628374,1628386,1629636,201567,1610612744,1626172,1629673,201939,203952,2738,0022100604,1,414,420,0,3,1610612744
26,1610612739,1626224,1628374,1628386,1629636,201567,1610612744,1626172,1629673,201939,203952,2738,0022100604,1,429,431,0,0,1610612739
27,1610612739,1626224,1628374,1628386,1629636,201567,1610612744,1626172,1629673,201939,203952,2738,0022100604,1,437,437,0,3,1610612744
28,1610612739,1626224,1628374,1628386,1629636,201567,1610612744,1626172,1629673,201939,203952,2738,0022100604,1,451,451,0,0,1610612739
29,1610612739,1626224,1628374,1628386,1629636,201567,1610612744,1626172,1629673,201939,203952,2738,0022100604,1,471,476,0,2,1610612744
30,1610612739,1626224,1628374,1628386,1629636,201567,1610612744,1626172,1629673,201939,203952,2738,0022100604,1,478,494,0,0,1610612739
31,1610612739,1626224,1629685,1630596,200765,201567,1610612744,1629673,201939,202357,203952,2738,0022100604,1,506,509,0,0,1610612744
32,1610612739,1626224,1629685,1630596,200765,201567,1610612744,1629673,201939,202357,203952,2738,0022100604,1,514,516,0,0,1610612739
33,1610612739,1626224,1629685,1630596,200765,201567,1610612744,1629673,201939,202357,203952,2738,0022100604,1,524,526,0,0,1610612744
34,1610612739,1626224,1629685,1630596,200765,201567,1610612744,1629673,201939,202357,203952,2738,0022100604,1,536,538,0,0,1610612739
35,1610612739,1626224,1629685,1630596,200765,201567,1610612744,1629673,201939,202357,203952,2738,0022100604,1,559,559,0,2,1610612744
36,1610612739,1626224,1629685,1630596,200765,201567,1610612744,1627780,1629673,202357,203490,2738,0022100604,1,575,575,0,0,1610612739
37,1610612739,1626224,1629685,1630596,200765,201567,1610612744,1627780,1629673,202357,203490,2738,0022100604,1,591,594,0,0,1610612744
38,1610612739,1626224,1629685,1630596,200765,201567,1610612744,1627780,1629673,202357,203490,2738,0022100604,1,609,609,2,0,1610612739
39,1610612739,1626224,1629685,1630596,200765,201567,1610612744,1627780,1629673,202357,203490,2738,0022100604,1,623,626,0,0,1610612744
40,1610612739,1626224,1629685,1630596,200765,201567,1610612744,1627780,1629673,202357,203490,2738,0022100604,1,628,628,0,0,1610612739
41,1610612739,1626224,1629685,1630596,200765,201567,1610612744,1627780,1629673,202357,203490,2738,0022100604,1,633,635,0,0,1610612744
42,1610612739,1626224,1629685,1630596,200765,201567,1610612744,1627780,1629673,202357,203490,2738,0022100604,1,650,655,2,0,1610612739
43,1610612739,1626224,1629685,1630596,200765,201567,1610612744,1627780,1629673,202357,203490,2738,0022100604,1,671,673,0,0,1610612744
44,1610612739,1626224,1629685,1630596,200765,201567,1610612744,1627780,1629673,202357,203490,2738,0022100604,1,685,685,2,0,1610612739
45,1610612739,1626224,1629685,1630596,200765,201567,1610612744,1627780,1629673,202357,203490,2738,0022100604,1,690,693,0,0,1610612744
46,1610612739,1626224,1629685,1630596,200765,201567,1610612744,1627780,1629673,202357,203490,2738,0022100604,1,710,717,0,0,1610612739
47,1610612739,1626224,1629685,1630596,200765,201567,1610612744,1626172,1627780,1629308,203952,2738,0022100604,1,720,720,0,0,1610612739
48,1610612739,1630596,1626224,201567,200765,1629685,1610612744,201939,2738,202357,1627780,203490,0022100604,2,720,747,0,0,1610612744
49,1610612739,1630596,1626224,201567,200765,1629685,1610612744,201939,2738,202357,1627780,203490,0022100604,2,760,760,2,0,1610612739
50,1610612739,1630596,1626224,201567,200765,1629685,1610612744,201939,2738,202357,1627780,203490,0022100604,2,770,776,0,3,1610612744
51,1610612739,1630596,1626224,201567,200765,1629685,1610612744,201939,2738,202357,1627780,203490,0022100604,2,797,797,3,0,1610612739
52,1610612739,1630596,1626224,201567,200765,1629685,1610612744,201939,2738,202357,1627780,203490,0022100604,2,809,811,0,0,1610612744
53,1610612739,1630596,1626224,201567,200765,1629685,1610612744,201939,2738,202357,1627780,203490,0022100604,2,813,834,0,0,1610612739
54,1610612739,1630596,1626224,201567,200765,1629685,1610612744,201939,2738,202357,1627780,203490,0022100604,2,846,853,0,4,1610612744
55,1610612739,1630596,1626224,201567,200765,1629685,1610612744,201939,2738,202357,1627780,203490,0022100604,2,872,873,2,0,1610612739
56,1610612739,1630596,1626224,201567,200765,1629685,1610612744,201939,2738,202357,1627780,203490,0022100604,2,886,888,0,0,1610612744
57,1610612739,1630596,1626224,201567,200765,1629685,1610612744,201939,2738,202357,1627780,203490,0022100604,2,897,909,0,0,1610612739
58,1610612739,1630596,1626224,201567,200765,1629685,1610612744,201939,2738,202357,1627780,203490,0022100604,2,912,912,0,2,1610612744
59,1610612739,1630596,1626224,201567,200765,1629685,1610612744,201939,2738,202357,1627780,203490,0022100604,2,932,934,0,0,1610612739
60,1610612739,1630596,1626224,201567,200765,1629685,1610612744,201939,2738,202357,1627780,203490,0022100604,2,949,949,0,2,1610612744
61,1610612739,1630596,1626224,201567,200765,1629685,1610612744,201939,2738,202357,1627780,203490,0022100604,2,949,963,2,0,1610612739
62,1610612739,1628374,1628386,1629636,1630205,200765,1610612744,1626172,1627780,1629308,201939,203952,0022100604,2,985,987,0,0,1610612744
63,1610612739,1628374,1628386,1629636,1630205,200765,1610612744,1626172,1627780,1629308,201939,203952,0022100604,2,997,997,2,0,1610612739
64,1610612739,1628374,1628386,1629636,1630205,200765,1610612744,1626172,1627780,1629308,201939,203952,0022100604,2,1015,1015,0,2,1610612744
65,1610612739,1628374,1628386,1629636,1630205,200765,1610612744,1626172,1627780,1629308,201939,203952,0022100604,2,1027,1029,0,0,1610612739
66,1610612739,1628374,1628386,1629636,1630205,200765,1610612744,1626172,1627780,1629308,201939,203952,0022100604,2,1036,1036,0,2,1610612744
67,1610612739,1628374,1628386,1629636,1630205,200765,1610612744,1626172,1627780,1629308,201939,203952,0022100604,2,1052,1054,0,0,1610612739
68,1610612739,1628374,1628386,1629636,1630205,200765,1610612744,1626172,1627780,1629308,201939,203952,0022100604,2,1060,1060,0,2,1610612744
69,1610612739,1628374,1628386,1629636,1630205,200765,1610612744,1626172,1627780,1629308,201939,203952,0022100604,2,1081,1084,0,0,1610612739
70,1610612739,1628374,1628386,1629636,1630205,200765,1610612744,1626172,1627780,1629308,201939,203952,0022100604,2,1090,1092,0,0,1610612744
71,1610612739,1628374,1628386,1629636,1630205,200765,1610612744,1626172,1627780,1629308,201939,203952,0022100604,2,1097,1097,3,0,1610612739
72,1610612739,1626224,1628374,1628386,1629636,1630205,1610612744,1626172,1629308,1629673,203490,203952,0022100604,2,1122,1132,0,0,1610612744
73,1610612739,1626224,1628374,1628386,1629636,1630205,1610612744,1626172,1629308,1629673,203490,203952,0022100604,2,1133,1133,2,0,1610612739
74,1610612739,1626224,1628374,1628386,1629636,1630205,1610612744,1626172,1629308,1629673,203490,203952,0022100604,2,1144,1146,0,0,1610612744
75,1610612739,1626224,1628374,1628386,1629636,1630205,1610612744,1626172,1629308,1629673,203490,203952,0022100604,2,1151,1153,0,0,1610612739
76,1610612739,1626224,1628374,1628386,1629636,1630205,1610612744,1626172,1629308,1629673,203490,203952,0022100604,2,1158,1160,0,0,1610612744
77,1610612739,1626224,1628374,1628386,1629636,1630205,1610612744,1626172,1629308,1629673,203490,203952,0022100604,2,1169,1171,0,0,1610612739
78,1610612739,1626224,1628374,1628386,1629636,1630205,1610612744,1626172,1629308,1629673,203490,203952,0022100604,2,1177,1183,0,3,1610612744
79,1610612739,1626224,1628374,1628386,1629636,1630205,1610612744,1626172,1629673,202691,203490,203952,0022100604,2,1207,1207,0,0,1610612739
80,1610612739,1626224,1628374,1628386,1629636,1630205,1610612744,1626172,1629673,202691,203490,203952,0022100604,2,1226,1229,0,0,1610612744
81,1610612739,1626224,1628374,1628386,1629636,1630205,1610612744,1626172,1629673,202691,203490,203952,0022100604,2,1241,1241,0,0,1610612739
82,1610612739,1626224,1628374,1628386,1629636,1630205,1610612744,1626172,1629673,202691,203490,203952,0022100604,2,1248,1264,0,2,1610612744
83,1610612739,1626224,1628374,1628386,1629636,1630205,1610612744,1626172,1629673,202691,203490,203952,0022100604,2,1281,1284,0,0,1610612739
84,1610612739,1626224,1628374,1628386,1629636,1630205,1610612744,1626172,1629673,202691,203490,203952,0022100604,2,1292,1292,0,0,1610612744
85,1610612739,1626224,1628374,1628386,1629636,1630205,1610612744,1626172,201939,202691,203490,203952,0022100604,2,1307,1307,2,0,1610612739
86,1610612739,1626224,1628374,1628386,1629636,1630205,1610612744,1626172,201939,202691,203490,203952,0022100604,2,1318,1320,0,0,1610612744
87,1610612739,1626224,1628374,1628386,1629636,1630205,1610612744,1626172,201939,202691,203490,203952,0022100604,2,1328,1330,0,0,1610612739
88,1610612739,1626224,1628374,1628386,1629636,1630205,1610612744,1626172,201939,202691,203490,203952,0022100604,2,1342,1344,0,0,1610612744
89,1610612739,1626224,1628374,1628386,1629636,1630205,1610612744,1626172,201939,202691,203490,203952,0022100604,2,1349,1349,2,0,1610612739
90,1610612739,1626224,1628374,1628386,1629636,1630205,1610612744,1626172,201939,202691,203490,203952,0022100604,2,1362,1362,0,3,1610612744
91,1610612739,1626224,1628374,1628386,1629636,1630205,1610612744,1626172,201939,202691,203490,203952,0022100604,2,1382,1382,2,0,1610612739
92,1610612739,1626224,1628374,1628386,1629636,1630205,1610612744,1626172,201939,202691,203490,203952,0022100604,2,1390,1390,0,2,1610612744
93,1610612739,1626224,1628374,1628386,1629636,1630205,1610612744,1626172,201939,202691,203490,203952,0022100604,2,1403,1403,2,0,1610612739
94,1610612739,1626224,1628374,1628386,1629636,1630205,1610612744,1626172,201939,202691,203490,203952,0022100604,2,1410,1413,0,0,1610612744
95,1610612739,1626224,1628374,1628386,1629636,1630205,1610612744,1626172,201939,202691,203490,203952,0022100604,2,1435,1435,1,0,1610612739
96,1610612739,1626224,1628374,1628386,1629636,1630205,1610612744,1626172,201939,202691,203490,203952,0022100604,2,1438,1440,0,0,1610612739
97,1610612739,1630596,1628374,1628386,1630205,1629636,1610612744,203952,1626172,202691,201939,1629308,0022100604,3,1440,1454,0,2,1610612744
98,1610612739,1630596,1628374,1628386,1630205,1629636,1610612744,203952,1626172,202691,201939,1629308,0022100604,3,1469,1488,0,0,1610612739
99,1610612739,1630596,1628374,1628386,1630205,1629636,1610612744,203952,1626172,202691,201939,1629308,0022100604,3,1498,1498,0,2,1610612744
100,1610612739,1630596,1628374,1628386,1630205,1629636,1610612744,203952,1626172,202691,201939,1629308,0022100604,3,1523,1534,2,0,1610612739
101,1610612739,1630596,1628374,1628386,1630205,1629636,1610612744,203952,1626172,202691,201939,1629308,0022100604,3,1548,1548,0,0,1610612744
102,1610612739,1630596,1628374,1628386,1630205,1629636,1610612744,203952,1626172,202691,201939,1629308,0022100604,3,1567,1569,0,0,1610612739
103,1610612739,1630596,1628374,1628386,1630205,1629636,1610612744,203952,1626172,202691,201939,1629308,0022100604,3,1585,1585,0,2,1610612744
104,1610612739,1630596,1628374,1628386,1630205,1629636,1610612744,203952,1626172,202691,201939,1629308,0022100604,3,1606,1606,0,0,1610612739
105,1610612739,1630596,1628374,1628386,1630205,1629636,1610612744,203952,1626172,202691,201939,1629308,0022100604,3,1610,1610,0,3,1610612744
106,1610612739,1630596,1628374,1628386,1630205,1629636,1610612744,203952,1626172,202691,201939,1629308,0022100604,3,1612,1635,2,0,1610612739
107,1610612739,1630596,1628374,1628386,1630205,1629636,1610612744,203952,1626172,202691,201939,1629308,0022100604,3,1650,1657,0,0,1610612744
108,1610612739,1630596,1628374,1628386,1630205,1629636,1610612744,203952,1626172,202691,201939,1629308,0022100604,3,1659,1674,2,0,1610612739
109,1610612739,1630596,1628374,1628386,1630205,1629636,1610612744,203952,1626172,202691,201939,1629308,0022100604,3,1691,1691,0,2,1610612744
110,1610612739,1630596,1628374,1628386,1630205,1629636,1610612744,1626172,1629308,1629673,201939,203952,0022100604,3,1695,1695,0,0,1610612739
111,1610612739,1630596,1628374,1628386,1630205,1629636,1610612744,1626172,1629308,1629673,201939,203952,0022100604,3,1710,1726,0,0,1610612744
112,1610612739,1630596,1628374,1628386,1630205,1629636,1610612744,1626172,1629308,1629673,201939,203952,0022100604,3,1735,1735,0,0,1610612739
113,1610612739,1630596,1628374,1628386,1630205,1629636,1610612744,1626172,1629308,1629673,201939,203952,0022100604,3,1744,1744,0,2,1610612744
114,1610612739,1630596,1628374,1628386,1630205,1629636,1610612744,1626172,1629308,1629673,201939,203952,0022100604,3,1759,1759,3,0,1610612739
115,1610612739,1630596,1628374,1628386,1630205,1629636,1610612744,1626172,1629308,1629673,201939,203952,0022100604,3,1781,1783,0,2,1610612744
116,1610612739,1626224,1628386,1629636,200765,201567,1610612744,1626172,1629673,201939,203952,2738,0022100604,3,1796,1796,0,0,1610612739
117,1610612739,1626224,1628386,1629636,200765,201567,1610612744,1626172,1629673,201939,203952,2738,0022100604,3,1800,1800,0,3,1610612744
118,1610612739,1626224,1628386,1629636,200765,201567,1610612744,1626172,1629673,201939,203952,2738,0022100604,3,1827,1827,0,0,1610612739
119,1610612739,1626224,1628386,1629636,200765,201567,1610612744,1626172,1629673,201939,203952,2738,0022100604,3,1836,1836,0,0,1610612744
120,1610612739,1626224,1628386,1629636,200765,201567,1610612744,1626172,1629673,201939,203952,2738,0022100604,3,1840,1842,0,0,1610612739
121,1610612739,1626224,1628386,1629636,200765,201567,1610612744,1626172,1629673,201939,203952,2738,0022100604,3,1852,1866,0,2,1610612744
122,1610612739,1626224,1628386,1629636,200765,201567,1610612744,1626172,1629673,201939,203952,2738,0022100604,3,1880,1882,0,0,1610612739
123,1610612739,1626224,1628386,1629636,200765,201567,1610612744,1626172,1629673,201939,203952,2738,0022100604,3,1899,1899,0,0,1610612744
124,1610612739,1626224,1628386,1629636,200765,201567,1610612744,1626172,1629673,201939,203952,2738,0022100604,3,1904,1907,0,0,1610612739
125,1610612739,1626224,1629636,1630596,200765,201567,1610612744,1627780,1629673,201939,203490,2738,0022100604,3,1922,1929,0,2,1610612744
126,1610612739,1626224,1629636,1630596,200765,201567,1610612744,1627780,1629673,201939,203490,2738,0022100604,3,1943,1943,0,0,1610612739
127,1610612739,1626224,1629636,1630596,200765,201567,1610612744,1627780,1629673,201939,203490,2738,0022100604,3,1963,1963,0,2,1610612744
128,1610612739,1626224,1629636,1630596,200765,201567,1610612744,1627780,1629673,201939,203490,2738,0022100604,3,1983,1983,0,0,1610612739
129,1610612739,1626224,1629636,1630596,200765,201567,1610612744,1627780,1629673,201939,203490,2738,0022100604,3,1988,1988,0,2,1610612744
130,1610612739,1626224,1629636,1630596,200765,201567,1610612744,1627780,1629673,201939,203490,2738,0022100604,3,2000,2000,0,0,1610612739
131,1610612739,1626224,1629636,1630596,200765,201567,1610612744,1627780,1629673,201939,203490,2738,0022100604,3,2005,2010,0,2,1610612744
132,1610612739,1626224,1629636,1630596,200765,201567,1610612744,1627780,1629673,201939,203490,2738,0022100604,3,2022,2022,1,0,1610612739
133,1610612739,1629636,1629685,1630205,1630596,200765,1610612744,1627780,1629673,202357,203490,2738,0022100604,3,2032,2032,0,0,1610612744
134,1610612739,1629636,1629685,1630205,1630596,200765,1610612744,1627780,1629673,202357,203490,2738,0022100604,3,2039,2042,0,0,1610612739
135,1610612739,1629636,1629685,1630205,1630596,200765,1610612744,1627780,1629673,202357,203490,2738,0022100604,3,2044,2054,0,0,1610612744
136,1610612739,1629636,1629685,1630205,1630596,200765,1610612744,1627780,1629673,202357,203490,2738,0022100604,3,2061,2061,2,0,1610612739
137,1610612739,1629636,1629685,1630205,1630596,200765,1610612744,1627780,1629673,202357,203490,2738,0022100604,3,2088,2088,0,0,1610612744
138,1610612739,1628374,1629685,1630205,1630596,200765,1610612744,1627780,1629673,202357,203490,2738,0022100604,3,2109,2111,0,0,1610612739
139,1610612739,1628374,1629685,1630205,1630596,200765,1610612744,1627780,1629673,202357,203490,2738,0022100604,3,2127,2128,0,0,1610612744
140,1610612739,1628374,1629685,1630205,1630596,200765,1610612744,1627780,1629673,202357,203490,2738,0022100604,3,2138,2138,2,0,1610612739
141,1610612739,1628374,1629685,1630205,1630596,200765,1610612744,1627780,1629673,202357,203490,2738,0022100604,3,2159,2159,0,0,1610612744
142,1610612739,1628374,1629685,1630205,1630596,200765,1610612744,1627780,1629673,202357,203490,2738,0022100604,3,2159,2160,0,0,1610612744
143,1610612739,1630596,1628374,1630205,200765,1629685,1610612744,201939,2738,202357,1627780,203490,0022100604,4,2160,2187,0,0,1610612739
144,1610612739,1630596,1628374,1630205,200765,1629685,1610612744,201939,2738,202357,1627780,203490,0022100604,4,2206,2206,0,2,1610612744
145,1610612739,1630596,1628374,1630205,200765,1629685,1610612744,201939,2738,202357,1627780,203490,0022100604,4,2224,2226,0,0,1610612739
146,1610612739,1630596,1628374,1630205,200765,1629685,1610612744,201939,2738,202357,1627780,203490,0022100604,4,2230,2232,0,0,1610612744
147,1610612739,1630596,1628374,1630205,200765,1629685,1610612744,201939,2738,202357,1627780,203490,0022100604,4,2241,2245,3,0,1610612739
148,1610612739,1630596,1628374,1630205,200765,1629685,1610612744,201939,2738,202357,1627780,203490,0022100604,4,2267,2267,0,2,1610612744
149,1610612739,1630596,1628374,1630205,200765,1629685,1610612744,201939,2738,202357,1627780,203490,0022100604,4,2292,2301,2,0,1610612739
150,1610612739,1630596,1628374,1630205,200765,1629685,1610612744,1627780,201939,202691,203490,2738,0022100604,4,2310,2312,0,0,1610612744
151,1610612739,1630596,1628374,1630205,200765,1629685,1610612744,1627780,201939,202691,203490,2738,0022100604,4,2318,2320,0,0,1610612739
152,1610612739,1630596,1628374,1630205,200765,1629685,1610612744,1627780,201939,202691,203490,2738,0022100604,4,2343,2345,0,0,1610612744
153,1610612739,1630596,1628374,1630205,200765,1629685,1610612744,1627780,201939,202691,203490,2738,0022100604,4,2360,2360,2,0,1610612739
154,1610612739,1630596,1628374,1630205,200765,1629685,1610612744,1627780,201939,202691,203490,2738,0022100604,4,2376,2399,0,0,1610612744
155,1610612739,1630596,1628374,1630205,200765,1629685,1610612744,1627780,201939,202691,203952,2738,0022100604,4,2402,2408,3,0,1610612739
156,1610612739,1630596,1628374,1630205,200765,1629685,1610612744,1627780,201939,202691,203952,2738,0022100604,4,2431,2431,0,2,1610612744
157,1610612739,1630596,1628374,1630205,200765,1629685,1610612744,1627780,201939,202691,203952,2738,0022100604,4,2455,2458,0,0,1610612739
158,1610612739,1630596,1628374,1630205,200765,1629685,1610612744,1627780,201939,202691,203952,2738,0022100604,4,2472,2475,0,0,1610612744
159,1610612739,1630596,1628374,1630205,200765,1629685,1610612744,1627780,201939,202691,203952,2738,0022100604,4,2493,2493,2,0,1610612739
160,1610612739,1630596,1628374,1630205,200765,1629685,1610612744,1627780,201939,202691,203952,2738,0022100604,4,2508,2510,0,0,1610612744
161,1610612739,1630596,1628374,1630205,200765,1629685,1610612744,1627780,201939,202691,203952,2738,0022100604,4,2524,2533,3,0,1610612739
162,1610612739,1628386,1629636,1630205,1630596,200765,1610612744,1626172,1627780,1629673,202691,203952,0022100604,4,2535,2548,0,0,1610612744
163,1610612739,1628386,1629636,1630205,1630596,200765,1610612744,1626172,1629308,1629673,202691,203952,0022100604,4,2566,2568,0,0,1610612739
164,1610612739,1628386,1629636,1630205,1630596,200765,1610612744,1626172,1629308,1629673,202691,203952,0022100604,4,2590,2590,0,2,1610612744
165,1610612739,1628386,1629636,1630205,1630596,200765,1610612744,1626172,1629308,1629673,202691,203952,0022100604,4,2614,2614,2,0,1610612739
166,1610612739,1628386,1629636,1630205,1630596,200765,1610612744,1626172,1629308,1629673,202691,203952,0022100604,4,2620,2637,0,0,1610612744
167,1610612739,1628386,1629636,1630205,1630596,200765,1610612744,1626172,1629308,1629673,202691,203952,0022100604,4,2644,2648,0,0,1610612739
168,1610612739,1628386,1629636,1630205,1630596,200765,1610612744,1626172,1629308,1629673,202691,203952,0022100604,4,2655,2655,0,3,1610612744
169,1610612739,1628386,1629636,1630205,1630596,200765,1610612744,1626172,1629308,1629673,202691,203952,0022100604,4,2676,2676,0,0,1610612739
170,1610612739,1628386,1629636,1630205,1630596,200765,1610612744,1626172,1629308,1629673,202691,203952,0022100604,4,2682,2682,0,0,1610612744
171,1610612739,1628386,1629636,1630205,1630596,200765,1610612744,1626172,1629308,1629673,202691,203952,0022100604,4,2685,2691,2,0,1610612739
172,1610612739,1628386,1629636,1630205,1630596,200765,1610612744,1626172,1629308,1629673,202691,203952,0022100604,4,2712,2718,0,0,1610612744
173,1610612739,1628386,1629636,1630205,1630596,200765,1610612744,1626172,1629308,1629673,201939,203952,0022100604,4,2735,2738,1,0,1610612739
174,1610612739,1628386,1629636,1630205,1630596,200765,1610612744,1626172,1629673,201939,203952,2738,0022100604,4,2745,2752,0,2,1610612744
175,1610612739,1628386,1629636,1630205,1630596,200765,1610612744,1626172,1629673,201939,203952,2738,0022100604,4,2767,2767,0,0,1610612739
176,1610612739,1628386,1629636,1630205,1630596,200765,1610612744,1626172,1629673,201939,203952,2738,0022100604,4,2779,2781,0,0,1610612744
177,1610612739,1628386,1629636,1630205,1630596,200765,1610612744,1626172,1629673,201939,203952,2738,0022100604,4,2787,2787,2,0,1610612739
178,1610612739,1628386,1629636,1630205,1630596,200765,1610612744,1626172,1629673,201939,203952,2738,0022100604,4,2801,2813,0,0,1610612744
179,1610612739,1628386,1629636,1630205,1630596,200765,1610612744,1626172,1629673,201939,203952,2738,0022100604,4,2826,2828,0,0,1610612739
180,1610612739,1628386,1629636,1630205,1630596,200765,1610612744,1626172,1629673,201939,203952,2738,0022100604,4,2831,2831,0,2,1610612744
181,1610612739,1628386,1629636,1630205,1630596,200765,1610612744,1626172,1629673,201939,203952,2738,0022100604,4,2849,2849,0,0,1610612739
182,1610612739,1628386,1629636,1630205,1630596,200765,1610612744,1626172,1629673,201939,203952,2738,0022100604,4,2866,2866,0,2,1610612744
