,team1_id,team1_player1,team1_player2,team1_player3,team1_player4,team1_player5,team2_id,team2_player1,team2_player2,team2_player3,team2_player4,team2_player5,game_id,period,possession_start,possession_end,team1_points,team2_points,possession_team
0,1610612762,202711,1626220,203497,1628378,201144,1610612757,1627884,203496,203994,203468,203081,0022000020,1,0,16,0,2,1610612757
1,1610612762,202711,1626220,203497,1628378,201144,1610612757,1627884,203496,203994,203468,203081,0022000020,1,30,32,0,0,1610612762
2,1610612762,202711,1626220,203497,1628378,201144,1610612757,1627884,203496,203994,203468,203081,0022000020,1,39,41,0,0,1610612757
3,1610612762,202711,1626220,203497,1628378,201144,1610612757,1627884,203496,203994,203468,203081,0022000020,1,47,47,0,0,1610612762
4,1610612762,202711,1626220,203497,1628378,201144,1610612757,1627884,203496,203994,203468,203081,0022000020,1,47,74,0,0,1610612757
5,1610612762,202711,1626220,203497,1628378,201144,1610612757,1627884,203496,203994,203468,203081,0022000020,1,81,90,2,0,1610612762
6,1610612762,202711,1626220,203497,1628378,201144,1610612757,1627884,203496,203994,203468,203081,0022000020,1,107,107,0,3,1610612757
7,1610612762,202711,1626220,203497,1628378,201144,1610612757,1627884,203496,203994,203468,203081,0022000020,1,124,124,2,0,1610612762
8,1610612762,202711,1626220,203497,1628378,201144,1610612757,1627884,203496,203994,203468,203081,0022000020,1,135,135,0,3,1610612757
9,1610612762,202711,1626220,203497,1628378,201144,1610612757,1627884,203496,203994,203468,203081,0022000020,1,150,156,0,0,1610612762
10,1610612762,202711,1626220,203497,1628378,201144,1610612757,1627884,203496,203994,203468,203081,0022000020,1,168,168,0,2,1610612757
11,1610612762,202711,1626220,203497,1628378,201144,1610612757,1627884,203496,203994,203468,203081,0022000020,1,187,187,2,0,1610612762
12,1610612762,202711,1626220,203497,1628378,201144,1610612757,1627884,203496,203994,203468,203081,0022000020,1,205,207,0,0,1610612757
13,1610612762,202711,1626220,203497,1628378,201144,1610612757,1627884,203496,203994,203468,203081,0022000020,1,211,213,0,0,1610612762
14,1610612762,202711,1626220,203497,1628378,201144,1610612757,1627884,203496,203994,203468,203081,0022000020,1,223,231,0,0,1610612757
15,1610612762,202711,1626220,203497,1628378,201144,1610612757,1627884,203496,203994,203468,203081,0022000020,1,236,236,0,0,1610612762
16,1610612762,202711,1626220,203497,1628378,201144,1610612757,1627884,203496,203994,203468,203081,0022000020,1,241,241,0,3,1610612757
17,1610612762,202711,1626220,203497,1628378,201144,1610612757,1627884,203496,203994,203468,203081,0022000020,1,242,254,3,0,1610612762
18,1610612762,202711,1626220,203497,1628378,201144,1610612757,1627884,203496,203994,203468,203081,0022000020,1,269,271,0,0,1610612757
19,1610612762,202711,1626220,203497,1628378,201144,1610612757,1627884,203496,203994,203468,203081,0022000020,1,278,283,2,0,1610612762
20,1610612762,202711,1626220,203497,1628378,201144,1610612757,1627884,203496,203994,203468,203081,0022000020,1,283,292,0,3,1610612757
21,1610612762,202711,1626220,203497,1628378,201144,1610612757,1627884,203496,203994,203468,203081,0022000020,1,317,319,0,0,1610612762
22,1610612762,202711,1626220,203497,1628378,201144,1610612757,1627884,203496,203994,203468,203081,0022000020,1,321,321,0,1,1610612757
23,1610612762,1626220,1628378,202324,202711,204060,1610612757,1627884,203496,203994,203468,203081,0022000020,1,335,335,3,0,1610612762
24,1610612762,1626220,1628378,202324,202711,204060,1610612757,1627884,203496,203994,203468,203081,0022000020,1,346,349,0,0,1610612757
25,1610612762,1626220,1628378,202324,202711,204060,1610612757,1627884,203496,203994,203468,203081,0022000020,1,363,365,0,0,1610612762
26,1610612762,1626220,1628378,202324,202711,204060,1610612757,1627884,203496,203994,203468,203081,0022000020,1,371,373,0,0,1610612757
27,1610612762,1626220,1628378,202324,202711,204060,1610612757,1627884,203496,203994,203468,203081,0022000020,1,384,385,0,0,1610612762
28,1610612762,1626220,1628378,202324,202711,204060,1610612757,1627884,203496,203994,203468,203081,0022000020,1,392,400,0,0,1610612757
29,1610612762,1628378,202324,202711,203903,204060,1610612757,1627884,203496,203994,203468,203081,0022000020,1,406,406,3,0,1610612762
30,1610612762,1628378,202324,202711,203903,204060,1610612757,1627884,203496,203994,203468,203081,0022000020,1,431,432,0,0,1610612757
31,1610612762,1628378,202324,202711,203903,204060,1610612757,1627884,203496,203994,203468,203081,0022000020,1,434,448,2,0,1610612762
32,1610612762,1628378,202324,202711,203903,204060,1610612757,1627884,1629018,202683,203081,2546,0022000020,1,468,472,0,2,1610612757
33,1610612762,1628378,202324,202711,203903,204060,1610612757,1627884,1629018,202683,203081,2546,0022000020,1,480,480,3,0,1610612762
34,1610612762,1628378,202324,202711,203903,204060,1610612757,1627884,1629018,202683,203081,2546,0022000020,1,499,501,0,0,1610612757
35,1610612762,1628378,202324,202711,203903,204060,1610612757,1627884,1629018,202683,203081,2546,0022000020,1,508,508,3,0,1610612762
36,1610612762,1628378,202324,202711,203903,204060,1610612757,1627884,1629018,202683,203081,2546,0022000020,1,526,529,0,0,1610612757
37,1610612762,1628378,202324,202711,203903,204060,1610612757,1627884,1629018,202683,203081,2546,0022000020,1,531,534,0,0,1610612762
38,1610612762,1628378,202324,202711,203903,204060,1610612757,1627884,1629018,202683,203081,2546,0022000020,1,539,539,0,1,1610612757
39,1610612762,1627777,201144,202324,203903,204060,1610612757,1629018,202683,203081,203918,2546,0022000020,1,551,553,0,0,1610612762
40,1610612762,1627777,201144,202324,203903,204060,1610612757,1629018,202683,203081,203918,2546,0022000020,1,562,565,0,0,1610612757
41,1610612762,1627777,201144,202324,203903,204060,1610612757,1629018,202683,203081,203918,2546,0022000020,1,571,572,0,0,1610612762
42,1610612762,1627777,201144,202324,203903,204060,1610612757,1629018,202683,203081,203918,2546,0022000020,1,575,578,0,0,1610612757
43,1610612762,1627777,201144,202324,203903,204060,1610612757,1629018,202683,203081,203918,2546,0022000020,1,589,589,3,0,1610612762
44,1610612762,1627777,201144,202324,203903,204060,1610612757,1629018,202683,203081,203918,2546,0022000020,1,613,613,0,2,1610612757
45,1610612762,1627777,201144,202324,203903,204060,1610612757,1629018,202683,203081,203918,2546,0022000020,1,631,635,2,0,1610612762
46,1610612762,1627777,201144,202324,203903,204060,1610612757,1629018,202683,203081,203918,2546,0022000020,1,642,642,0,0,1610612757
47,1610612762,1627777,201144,203497,203903,204060,1610612757,1629018,202683,203081,203918,2546,0022000020,1,658,658,2,0,1610612762
48,1610612762,1627777,201144,203497,203903,204060,1610612757,1629018,202683,203081,203918,2546,0022000020,1,679,681,0,0,1610612757
49,1610612762,1627777,201144,203497,203903,204060,1610612757,1629018,202683,203081,203918,2546,0022000020,1,687,689,0,0,1610612762
50,1610612762,1627777,201144,203497,203903,204060,1610612757,1629018,202683,203081,203918,2546,0022000020,1,711,711,0,3,1610612757
51,1610612762,1627777,201144,203497,203903,204060,1610612757,1629018,202683,203081,203918,2546,0022000020,1,720,720,0,0,1610612762
52,1610612762,202711,203497,201144,204060,203903,1610612757,203468,1629018,2546,202683,203918,0022000020,2,720,733,0,0,1610612762
53,1610612762,202711,203497,201144,204060,203903,1610612757,203468,1629018,2546,202683,203918,0022000020,2,744,754,0,0,1610612757
54,1610612762,202711,203497,201144,204060,203903,1610612757,203468,1629018,2546,202683,203918,0022000020,2,766,766,2,0,1610612762
55,1610612762,202711,203497,201144,204060,203903,1610612757,203468,1629018,2546,202683,203918,0022000020,2,780,780,0,2,1610612757
56,1610612762,202711,203497,201144,204060,203903,1610612757,203468,1629018,2546,202683,203918,0022000020,2,803,804,0,0,1610612762
57,1610612762,202711,203497,201144,204060,203903,1610612757,203468,1629018,2546,202683,203918,0022000020,2,813,813,0,2,1610612757
58,1610612762,202711,203497,201144,204060,203903,1610612757,203468,1629018,2546,202683,203918,0022000020,2,834,834,3,0,1610612762
59,1610612762,202711,203497,201144,204060,203903,1610612757,203468,1629018,2546,202683,203918,0022000020,2,855,857,0,0,1610612757
60,1610612762,202711,203497,201144,204060,203903,1610612757,203468,1629018,2546,202683,203918,0022000020,2,860,860,2,0,1610612762
61,1610612762,202711,203497,201144,204060,203903,1610612757,203468,1629018,2546,202683,203918,0022000020,2,872,875,0,0,1610612757
62,1610612762,202711,203497,201144,204060,203903,1610612757,203468,1629018,2546,202683,203918,0022000020,2,885,885,3,0,1610612762
63,1610612762,202711,203497,201144,204060,203903,1610612757,203468,1629018,2546,202683,203918,0022000020,2,888,907,0,2,1610612757
64,1610612762,202711,203497,201144,204060,203903,1610612757,1629018,202683,203468,203496,2546,0022000020,2,928,933,2,0,1610612762
65,1610612762,202711,203497,201144,204060,203903,1610612757,1629018,202683,203468,203496,2546,0022000020,2,933,949,0,0,1610612757
66,1610612762,202711,203497,201144,204060,203903,1610612757,1629018,202683,203468,203496,2546,0022000020,2,962,962,3,0,1610612762
67,1610612762,202711,203497,201144,204060,203903,1610612757,1629018,202683,203468,203496,2546,0022000020,2,976,979,0,0,1610612757
68,1610612762,202711,203497,201144,204060,203903,1610612757,1629018,202683,203468,203496,2546,0022000020,2,983,985,0,0,1610612762
69,1610612762,202711,203497,201144,204060,203903,1610612757,1629018,202683,203468,203496,2546,0022000020,2,991,991,0,2,1610612757
70,1610612762,1626220,1628378,202324,202711,203903,1610612757,203081,203468,203496,203994,2546,0022000020,2,1004,1020,2,0,1610612762
71,1610612762,1626220,1628378,202324,202711,203903,1610612757,1627884,203081,203468,203496,203994,0022000020,2,1033,1033,0,0,1610612757
72,1610612762,1626220,1628378,202324,202711,203903,1610612757,1627884,203081,203468,203496,203994,0022000020,2,1049,1049,3,0,1610612762
73,1610612762,1626220,1628378,202324,202711,203903,1610612757,1627884,203081,203468,203496,203994,0022000020,2,1051,1067,0,0,1610612757
74,1610612762,1626220,1628378,202324,202711,203903,1610612757,1627884,203081,203468,203496,203994,0022000020,2,1080,1083,0,0,1610612762
75,1610612762,1626220,1628378,202324,202711,203903,1610612757,1627884,203081,203468,203496,203994,0022000020,2,1093,1094,0,0,1610612757
76,1610612762,1626220,1628378,202324,202711,203903,1610612757,1627884,203081,203468,203496,203994,0022000020,2,1104,1104,0,0,1610612762
77,1610612762,1626220,1628378,202324,202711,203903,1610612757,1627884,203081,203468,203496,203994,0022000020,2,1117,1119,0,0,1610612757
78,1610612762,1626220,1628378,202324,202711,203903,1610612757,1627884,203081,203468,203496,203994,0022000020,2,1127,1127,2,0,1610612762
79,1610612762,1626220,1628378,202324,202711,203903,1610612757,1627884,203081,203468,203496,203994,0022000020,2,1145,1145,0,2,1610612757
80,1610612762,1626220,1628378,202324,202711,203903,1610612757,1627884,203081,203468,203496,203994,0022000020,2,1165,1167,0,0,1610612762
81,1610612762,1626220,1628378,202324,202711,203903,1610612757,1627884,203081,203468,203496,203994,0022000020,2,1175,1178,0,0,1610612757
82,1610612762,1626220,1628378,202324,202711,203903,1610612757,1627884,203081,203468,203496,203994,0022000020,2,1188,1201,0,0,1610612762
83,1610612762,1626220,1628378,201144,203497,204060,1610612757,1627884,203081,203468,203496,203994,0022000020,2,1215,1215,0,2,1610612757
84,1610612762,1626220,1628378,201144,203497,204060,1610612757,1627884,203081,203468,203496,203994,0022000020,2,1228,1233,0,0,1610612762
85,1610612762,1626220,1628378,201144,203497,204060,1610612757,1627884,203081,203468,203496,203994,0022000020,2,1240,1244,0,0,1610612757
86,1610612762,1626220,1628378,201144,203497,204060,1610612757,1627884,203081,203468,203496,203994,0022000020,2,1257,1259,0,0,1610612762
87,1610612762,1626220,1628378,201144,203497,204060,1610612757,1627884,203081,203468,203496,203994,0022000020,2,1274,1274,0,3,1610612757
88,1610612762,1626220,1628378,201144,203497,204060,1610612757,1627884,203081,203468,203496,203994,0022000020,2,1285,1295,3,0,1610612762
89,1610612762,1626220,1628378,201144,203497,204060,1610612757,1627884,203081,203468,203496,203994,0022000020,2,1309,1309,0,0,1610612757
90,1610612762,1626220,1628378,201144,203497,204060,1610612757,1627884,203081,203468,203496,203994,0022000020,2,1319,1319,3,0,1610612762
91,1610612762,1626220,1628378,201144,203497,204060,1610612757,1627884,203081,203468,203496,203994,0022000020,2,1338,1338,0,2,1610612757
92,1610612762,1626220,1628378,201144,203497,204060,1610612757,1627884,203081,203468,203496,203994,0022000020,2,1353,1353,2,0,1610612762
93,1610612762,1626220,1628378,201144,203497,204060,1610612757,1627884,203081,203468,203496,203994,0022000020,2,1362,1365,0,0,1610612757
94,1610612762,1626220,1628378,201144,203497,204060,1610612757,1627884,203081,203468,203496,203994,0022000020,2,1371,1371,3,0,1610612762
95,1610612762,1626220,1628378,201144,203497,204060,1610612757,1627884,203081,203468,203496,203994,0022000020,2,1383,1385,0,0,1610612757
96,1610612762,1626220,1628378,201144,203497,204060,1610612757,1627884,203081,203468,203496,203994,0022000020,2,1389,1392,0,0,1610612762
97,1610612762,1626220,1628378,201144,203497,204060,1610612757,1627884,203081,203468,203496,203994,0022000020,2,1408,1411,0,0,1610612757
98,1610612762,1626220,1628378,201144,203497,204060,1610612757,1627884,203081,203468,203496,203994,0022000020,2,1422,1422,0,0,1610612762
99,1610612762,1627885,1628378,1629671,202324,204060,1610612757,1627884,203081,203468,203496,203994,0022000020,2,1438,1438,0,2,1610612757
100,1610612762,1628378,201144,202324,202711,204060,1610612757,1627884,203081,203468,203496,203994,0022000020,2,1440,1440,0,0,1610612757
101,1610612762,202711,1626220,203497,1628378,201144,1610612757,1627884,203496,203994,203468,203081,0022000020,3,1440,1466,0,0,1610612762
102,1610612762,202711,1626220,203497,1628378,201144,1610612757,1627884,203496,203994,203468,203081,0022000020,3,1480,1483,0,0,1610612757
103,1610612762,202711,1626220,203497,1628378,201144,1610612757,1627884,203496,203994,203468,203081,0022000020,3,1488,1494,2,0,1610612762
104,1610612762,202711,1626220,203497,1628378,201144,1610612757,1627884,203496,203994,203468,203081,0022000020,3,1504,1504,0,0,1610612757
105,1610612762,202711,1626220,203497,1628378,201144,1610612757,1627884,203496,203994,203468,203081,0022000020,3,1520,1523,0,0,1610612762
106,1610612762,202711,1626220,203497,1628378,201144,1610612757,1627884,203496,203994,203468,203081,0022000020,3,1537,1537,0,2,1610612757
107,1610612762,202711,1626220,203497,1628378,201144,1610612757,1627884,203496,203994,203468,203081,0022000020,3,1553,1553,3,0,1610612762
108,1610612762,202711,1626220,203497,1628378,201144,1610612757,1627884,203496,203994,203468,203081,0022000020,3,1572,1572,0,2,1610612757
109,1610612762,202711,1626220,203497,1628378,201144,1610612757,1627884,203496,203994,203468,203081,0022000020,3,1593,1593,2,0,1610612762
110,1610612762,202711,1626220,203497,1628378,201144,1610612757,1627884,203496,203994,203468,203081,0022000020,3,1607,1607,0,0,1610612757
111,1610612762,202711,1626220,203497,1628378,201144,1610612757,1627884,203496,203994,203468,203081,0022000020,3,1624,1626,0,0,1610612762
112,1610612762,202711,1626220,203497,1628378,201144,1610612757,1627884,203496,203994,203468,203081,0022000020,3,1635,1635,0,2,1610612757
113,1610612762,202711,1626220,203497,1628378,201144,1610612757,1627884,203496,203994,203468,203081,0022000020,3,1647,1649,0,0,1610612762
114,1610612762,202711,1626220,203497,1628378,201144,1610612757,1627884,203496,203994,203468,203081,0022000020,3,1660,1663,0,0,1610612757
115,1610612762,202711,1626220,203497,1628378,201144,1610612757,1627884,203496,203994,203468,203081,0022000020,3,1675,1675,3,0,1610612762
116,1610612762,202711,1626220,203497,1628378,201144,1610612757,1627884,203496,203994,203468,203081,0022000020,3,1690,1690,0,2,1610612757
117,1610612762,202711,1626220,203497,1628378,201144,1610612757,1627884,203496,203994,203468,203081,0022000020,3,1704,1704,3,0,1610612762
118,1610612762,202711,1626220,203497,1628378,201144,1610612757,1627884,203496,203994,203468,203081,0022000020,3,1715,1717,0,0,1610612757
119,1610612762,202711,1626220,203497,1628378,201144,1610612757,1627884,203496,203994,203468,203081,0022000020,3,1726,1726,3,0,1610612762
120,1610612762,1626220,1628378,202711,203497,204060,1610612757,1627884,203496,203994,203468,203081,0022000020,3,1735,1737,0,0,1610612757
121,1610612762,1626220,1628378,202711,203497,204060,1610612757,1627884,203496,203994,203468,203081,0022000020,3,1739,1739,2,0,1610612762
122,1610612762,1626220,1628378,202324,202711,204060,1610612757,1627884,203081,203468,203994,2546,0022000020,3,1755,1755,0,3,1610612757
123,1610612762,1626220,1628378,202324,202711,204060,1610612757,1627884,203081,203468,203994,2546,0022000020,3,1771,1778,0,0,1610612762
124,1610612762,1626220,1628378,202324,202711,204060,1610612757,1627884,203081,203468,203994,2546,0022000020,3,1782,1795,0,0,1610612757
125,1610612762,1626220,1628378,202324,202711,204060,1610612757,1627884,203081,203468,203994,2546,0022000020,3,1813,1813,0,0,1610612762
126,1610612762,1626220,1628378,202324,202711,204060,1610612757,1627884,203081,203468,203994,2546,0022000020,3,1826,1838,0,0,1610612757
127,1610612762,1626220,1628378,202324,202711,204060,1610612757,1627884,203081,203468,203994,2546,0022000020,3,1838,1838,0,0,1610612762
128,1610612762,1626220,1628378,202324,202711,204060,1610612757,1627884,203081,203468,203994,2546,0022000020,3,1849,1849,0,2,1610612757
129,1610612762,1626220,1628378,202324,202711,204060,1610612757,1627884,203081,203468,203994,2546,0022000020,3,1868,1870,0,0,1610612762
130,1610612762,1626220,1628378,202324,202711,204060,1610612757,1627884,203081,203468,203994,2546,0022000020,3,1881,1881,0,2,1610612757
131,1610612762,1626220,1628378,202324,202711,204060,1610612757,1627884,203081,203468,203994,2546,0022000020,3,1883,1903,2,0,1610612762
132,1610612762,1626220,1628378,202324,202711,204060,1610612757,1627884,1629018,202683,203081,2546,0022000020,3,1919,1919,0,3,1610612757
133,1610612762,1626220,1628378,202324,202711,204060,1610612757,1627884,1629018,202683,203081,2546,0022000020,3,1938,1938,2,0,1610612762
134,1610612762,1626220,1628378,202324,202711,204060,1610612757,1627884,1629018,202683,203081,2546,0022000020,3,1962,1962,0,2,1610612757
135,1610612762,1626220,1628378,202324,202711,204060,1610612757,1627884,1629018,202683,203081,2546,0022000020,3,1983,1983,2,0,1610612762
136,1610612762,1626220,1628378,202324,202711,204060,1610612757,1627884,1629018,202683,203081,2546,0022000020,3,2000,2010,0,2,1610612757
137,1610612762,1626220,201144,203497,203903,204060,1610612757,1629018,202683,203081,203918,2546,0022000020,3,2021,2021,2,0,1610612762
138,1610612762,1626220,201144,203497,203903,204060,1610612757,1629018,202683,203081,203918,2546,0022000020,3,2036,2036,0,2,1610612757
139,1610612762,1627777,201144,203497,203903,204060,1610612757,1629018,202683,203081,203918,2546,0022000020,3,2052,2052,3,0,1610612762
140,1610612762,1627777,201144,203497,203903,204060,1610612757,1629018,202683,203081,203918,2546,0022000020,3,2068,2070,0,0,1610612757
141,1610612762,1627777,201144,203497,203903,204060,1610612757,1629018,202683,203081,203918,2546,0022000020,3,2077,2080,0,0,1610612762
142,1610612762,1627777,201144,203497,203903,204060,1610612757,1629018,202683,203081,203918,2546,0022000020,3,2098,2101,0,0,1610612757
143,1610612762,1627777,201144,203497,203903,204060,1610612757,1629018,202683,203081,203918,2546,0022000020,3,2105,2107,0,0,1610612762
144,1610612762,1627777,201144,203497,203903,204060,1610612757,1629018,202683,203081,203918,2546,0022000020,3,2114,2114,0,0,1610612757
145,1610612762,1627777,201144,203497,203903,204060,1610612757,1629018,202683,203081,203918,2546,0022000020,3,2125,2126,0,0,1610612762
146,1610612762,1627777,201144,203497,203903,204060,1610612757,1629018,202683,203081,203918,2546,0022000020,3,2129,2135,0,0,1610612757
147,1610612762,1627777,201144,203497,203903,204060,1610612757,1629018,202683,203081,203918,2546,0022000020,3,2155,2160,0,0,1610612757
148,1610612762,202711,203497,201144,203903,1627777,1610612757,203468,1629018,2546,202683,203918,0022000020,4,2160,2179,0,2,1610612757
149,1610612762,202711,203497,201144,203903,1627777,1610612757,203468,1629018,2546,202683,203918,0022000020,4,2193,2193,2,0,1610612762
150,1610612762,202711,203497,201144,203903,1627777,1610612757,203468,1629018,2546,202683,203918,0022000020,4,2214,2218,0,0,1610612757
151,1610612762,202711,203497,201144,203903,1627777,1610612757,203468,1629018,2546,202683,203918,0022000020,4,2225,2225,0,0,1610612762
152,1610612762,202711,203497,201144,203903,1627777,1610612757,203468,1629018,2546,202683,203918,0022000020,4,2237,2238,0,0,1610612757
153,1610612762,202711,203497,201144,203903,1627777,1610612757,203468,1629018,2546,202683,203918,0022000020,4,2247,2247,0,0,1610612762
154,1610612762,202711,203497,201144,203903,1627777,1610612757,203468,1629018,2546,202683,203918,0022000020,4,2247,2261,0,0,1610612757
155,1610612762,202711,203497,201144,203903,1627777,1610612757,203468,1629018,2546,202683,203918,0022000020,4,2278,2282,0,0,1610612762
156,1610612762,202711,203497,201144,203903,1627777,1610612757,203468,1629018,2546,202683,203918,0022000020,4,2287,2290,0,0,1610612757
157,1610612762,202711,203497,201144,203903,1627777,1610612757,203468,1629018,2546,202683,203918,0022000020,4,2299,2299,3,0,1610612762
158,1610612762,202711,203497,201144,203903,1627777,1610612757,203468,1629018,2546,202683,203918,0022000020,4,2325,2325,0,2,1610612757
159,1610612762,202711,203497,201144,203903,1627777,1610612757,203468,1629018,2546,202683,203918,0022000020,4,2337,2342,0,0,1610612762
160,1610612762,202711,203497,201144,203903,1627777,1610612757,203468,1629018,2546,202683,203918,0022000020,4,2346,2351,0,2,1610612757
161,1610612762,202711,203497,201144,203903,1627777,1610612757,203468,1629018,2546,202683,203918,0022000020,4,2362,2362,0,0,1610612762
162,1610612762,202711,203497,201144,203903,1627777,1610612757,203468,1629018,2546,202683,203918,0022000020,4,2366,2370,0,2,1610612757
163,1610612762,1626220,1628378,202324,203903,204060,1610612757,203468,1629018,2546,202683,203918,0022000020,4,2386,2390,0,0,1610612762
164,1610612762,1626220,1628378,202324,203903,204060,1610612757,203468,1629018,2546,202683,203918,0022000020,4,2394,2394,0,3,1610612757
165,1610612762,1626220,1628378,202324,203903,204060,1610612757,203468,1629018,2546,202683,203918,0022000020,4,2396,2416,2,0,1610612762
166,1610612762,1626220,1628378,202324,203903,204060,1610612757,203468,1629018,2546,202683,203918,0022000020,4,2436,2436,0,2,1610612757
167,1610612762,1626220,1628378,202324,203903,204060,1610612757,203468,1629018,2546,202683,203918,0022000020,4,2437,2453,0,0,1610612762
168,1610612762,1626220,1628378,202324,203903,204060,1610612757,203468,1629018,2546,202683,203918,0022000020,4,2458,2458,0,3,1610612757
169,1610612762,1626220,1628378,202324,203903,204060,1610612757,203468,1629018,2546,202683,203918,0022000020,4,2474,2474,3,0,1610612762
170,1610612762,1628378,202324,202711,203903,204060,1610612757,203468,1629018,2546,202683,203918,0022000020,4,2481,2481,0,2,1610612757
171,1610612762,1628378,202324,202711,203903,204060,1610612757,1629018,202683,203081,203468,2546,0022000020,4,2495,2495,2,0,1610612762
172,1610612762,1628378,202324,202711,203903,204060,1610612757,1629018,202683,203081,203468,2546,0022000020,4,2504,2504,0,2,1610612757
173,1610612762,1628378,202324,202711,203903,204060,1610612757,1629018,202683,203081,203468,2546,0022000020,4,2518,2520,0,0,1610612762
174,1610612762,1628378,202324,202711,203903,204060,1610612757,1629018,202683,203081,203468,2546,0022000020,4,2530,2533,0,0,1610612757
175,1610612762,1628378,202324,202711,203903,204060,1610612757,1629018,202683,203081,203468,2546,0022000020,4,2533,2544,4,0,1610612762
176,1610612762,1626220,1628378,202711,203497,204060,1610612757,1629018,202683,203081,203468,2546,0022000020,4,2560,2563,0,0,1610612757
177,1610612762,1626220,1628378,202711,203497,204060,1610612757,1629018,202683,203081,203468,2546,0022000020,4,2566,2566,0,0,1610612762
178,1610612762,1626220,1628378,202711,203497,204060,1610612757,1629018,202683,203081,203468,2546,0022000020,4,2577,2577,0,2,1610612757
179,1610612762,1626220,1628378,202711,203497,204060,1610612757,1629018,202683,203081,203468,2546,0022000020,4,2601,2613,0,0,1610612762
180,1610612762,1626220,1628378,202711,203497,204060,1610612757,1629018,202683,203081,203468,2546,0022000020,4,2613,2634,0,0,1610612757
181,1610612762,1626220,1628378,201144,202711,203497,1610612757,1628385,1629018,1629604,1629833,202683,0022000020,4,2644,2654,0,0,1610612762
182,1610612762,1626220,1628378,201144,202711,203497,1610612757,1628385,1629018,1629604,1629833,202683,0022000020,4,2665,2665,0,0,1610612757
183,1610612762,1626220,1628962,1629671,201144,202711,1610612757,1628385,1629018,1629604,1629833,202683,0022000020,4,2678,2691,2,0,1610612762
184,1610612762,1628962,1629671,1629752,1630190,201144,1610612757,1628385,1629018,1629604,1629833,202683,0022000020,4,2705,2705,0,3,1610612757
185,1610612762,1628962,1629671,1629752,1630190,201144,1610612757,1628385,1629018,1629604,1629833,202683,0022000020,4,2713,2727,0,0,1610612762
186,1610612762,1627885,1628962,1629671,1629752,1630190,1610612757,1628385,1629018,1629604,1629833,202683,0022000020,4,2736,2737,0,0,1610612757
187,1610612762,1627885,1628962,1629671,1629752,1630190,1610612757,1628385,1629018,1629604,1629833,202683,0022000020,4,2737,2740,1,0,1610612762
188,1610612762,1627885,1628962,1629671,1629752,1630190,1610612757,1628385,1629018,1629604,1629833,202683,0022000020,4,2755,2757,0,0,1610612757
189,1610612762,1627885,1628962,1629671,1629752,1630190,1610612757,1628385,1629018,1629604,1629833,202683,0022000020,4,2766,2773,3,0,1610612762
190,1610612762,1627885,1628962,1629671,1629752,1630190,1610612757,1628385,1629018,1629604,1629833,202683,0022000020,4,2785,2785,0,3,1610612757
191,1610612762,1627885,1628962,1629671,1629752,1630190,1610612757,1628385,1629018,1629604,1629833,202683,0022000020,4,2807,2810,0,0,1610612762
192,1610612762,1627885,1628962,1629671,1629752,1630190,1610612757,1628385,1629018,1629604,1629833,202683,0022000020,4,2819,2823,0,0,1610612757
193,1610612762,1627885,1628962,1629671,1629752,1630190,1610612757,1628385,1629018,1629604,1629833,202683,0022000020,4,2827,2827,2,0,1610612762
194,1610612762,1627885,1628962,1629671,1629752,1630190,1610612757,1628385,1629018,1629604,1629833,202683,0022000020,4,2841,2841,0,2,1610612757
195,1610612762,1627885,1628962,1629671,1629752,1630190,1610612757,1628385,1629018,1629604,1629833,202683,0022000020,4,2857,2857,2,0,1610612762
196,1610612762,1627885,1628962,1629671,1629752,1630190,1610612757,1628385,1629018,1629604,1629833,202683,0022000020,4,2872,2876,0,2,1610612757
