,team1_id,team1_player1,team1_player2,team1_player3,team1_player4,team1_player5,team2_id,team2_player1,team2_player2,team2_player3,team2_player4,team2_player5,game_id,period,possession_start,possession_end,team1_points,team2_points,possession_team
0,1610612753,203516,203932,202696,203095,1628365,1610612748,202710,1627884,1628389,1629130,1629134,0021900919,1,0,26,0,0,1610612748
1,1610612753,203516,203932,202696,203095,1628365,1610612748,202710,1627884,1628389,1629130,1629134,0021900919,1,39,39,0,0,1610612753
2,1610612753,203516,203932,202696,203095,1628365,1610612748,202710,1627884,1628389,1629130,1629134,0021900919,1,57,59,0,0,1610612748
3,1610612753,203516,203932,202696,203095,1628365,1610612748,202710,1627884,1628389,1629130,1629134,0021900919,1,64,64,2,0,1610612753
4,1610612753,203516,203932,202696,203095,1628365,1610612748,202710,1627884,1628389,1629130,1629134,0021900919,1,83,86,0,0,1610612748
5,1610612753,203516,203932,202696,203095,1628365,1610612748,202710,1627884,1628389,1629130,1629134,0021900919,1,91,91,2,0,1610612753
6,1610612753,203516,203932,202696,203095,1628365,1610612748,202710,1627884,1628389,1629130,1629134,0021900919,1,104,104,0,0,1610612748
7,1610612753,203516,203932,202696,203095,1628365,1610612748,202710,1627884,1628389,1629130,1629134,0021900919,1,108,108,2,0,1610612753
8,1610612753,203516,203932,202696,203095,1628365,1610612748,202710,1627884,1628389,1629130,1629134,0021900919,1,122,122,0,2,1610612748
9,1610612753,203516,203932,202696,203095,1628365,1610612748,202710,1627884,1628389,1629130,1629134,0021900919,1,138,138,0,0,1610612753
10,1610612753,203516,203932,202696,203095,1628365,1610612748,202710,1627884,1628389,1629130,1629134,0021900919,1,140,140,0,2,1610612748
11,1610612753,203516,203932,202696,203095,1628365,1610612748,202710,1627884,1628389,1629130,1629134,0021900919,1,143,164,2,0,1610612753
12,1610612753,203516,203932,202696,203095,1628365,1610612748,202710,1627884,1628389,1629130,1629134,0021900919,1,184,184,0,2,1610612748
13,1610612753,203516,203932,202696,203095,1628365,1610612748,202710,1627884,1628389,1629130,1629134,0021900919,1,204,207,0,0,1610612753
14,1610612753,203516,203932,202696,203095,1628365,1610612748,202710,1627884,1628389,1629130,1629134,0021900919,1,211,214,0,2,1610612748
15,1610612753,203516,203932,202696,203095,1628365,1610612748,202710,1627884,1628389,1629130,1629134,0021900919,1,235,243,0,0,1610612753
16,1610612753,203516,203932,202696,203095,1628365,1610612748,202710,1627884,1628389,1629130,1629134,0021900919,1,247,247,0,3,1610612748
17,1610612753,203516,203932,202696,203095,1628365,1610612748,202710,1627884,1628389,1629130,1629134,0021900919,1,264,264,2,0,1610612753
18,1610612753,203516,203932,202696,203095,1628365,1610612748,202710,1627884,1628389,1629130,1629134,0021900919,1,279,280,0,0,1610612748
19,1610612753,203516,203932,202696,203095,1628365,1610612748,202710,1627884,1628389,1629130,1629134,0021900919,1,285,287,0,0,1610612753
20,1610612753,203516,203932,202696,203095,1628365,1610612748,202710,1627884,1628389,1629130,1629134,0021900919,1,296,296,0,2,1610612748
21,1610612753,203516,203932,202696,203095,1628365,1610612748,202710,1627884,1628389,1629130,1629134,0021900919,1,310,310,2,0,1610612753
22,1610612753,203516,203932,202696,203095,1628365,1610612748,202710,1627884,1628389,1629130,1629134,0021900919,1,326,329,0,0,1610612748
23,1610612753,203516,203932,202696,203095,1628365,1610612748,202710,1627884,1628389,1629130,1629134,0021900919,1,334,336,0,0,1610612753
24,1610612753,203516,203932,202696,203095,1628365,1610612748,202710,1627884,1628389,1629130,1629134,0021900919,1,344,344,0,3,1610612748
25,1610612753,203516,203932,202696,203095,1628365,1610612748,202710,1627884,1628389,1629130,1629134,0021900919,1,360,360,2,0,1610612753
26,1610612753,1628365,202696,203082,203095,203932,1610612748,1627884,1628389,1629134,201609,202710,0021900919,1,379,382,0,1,1610612748
27,1610612753,1628365,202696,203082,203095,203932,1610612748,1627884,1628389,1629134,201609,202710,0021900919,1,396,410,2,0,1610612753
28,1610612753,1628365,202696,203082,203095,203932,1610612748,1627884,1628389,1629134,201609,202710,0021900919,1,417,417,0,3,1610612748
29,1610612753,1628365,202696,203082,203095,203932,1610612748,1627884,1628389,1629134,201609,202710,0021900919,1,433,433,2,0,1610612753
30,1610612753,1628365,202696,203082,203095,203932,1610612748,1627884,1628389,1629134,201609,202710,0021900919,1,452,452,0,2,1610612748
31,1610612753,1628365,202696,203082,203095,203932,1610612748,1627884,1628389,1629134,201609,202710,0021900919,1,464,466,0,0,1610612753
32,1610612753,1628365,202696,203082,203095,203932,1610612748,1627884,1628389,1629134,201609,202710,0021900919,1,486,489,0,0,1610612748
33,1610612753,1628365,202696,203082,203095,203932,1610612748,1627884,1628389,1629134,201609,202710,0021900919,1,497,497,3,0,1610612753
34,1610612753,1628365,202696,203082,203095,203932,1610612748,1627884,1628389,1629134,201609,202710,0021900919,1,499,514,0,0,1610612748
35,1610612753,201571,202696,203082,203487,203932,1610612748,1628389,1629134,201609,202710,203109,0021900919,1,530,530,2,0,1610612753
36,1610612753,201571,202696,203082,203487,203932,1610612748,1628389,1629134,201609,202710,203109,0021900919,1,540,558,0,0,1610612748
37,1610612753,201571,203082,203487,203516,203932,1610612748,1629134,201609,202710,203109,2738,0021900919,1,560,560,0,0,1610612753
38,1610612753,201571,203082,203487,203516,203932,1610612748,1629134,201609,202710,203109,2738,0021900919,1,563,563,0,2,1610612748
39,1610612753,201571,203082,203487,203516,203932,1610612748,1629134,201609,202710,203109,2738,0021900919,1,587,587,0,0,1610612753
40,1610612753,201571,203082,203487,203516,203932,1610612748,1629134,201609,202710,203109,2738,0021900919,1,587,594,0,0,1610612748
41,1610612753,1628964,201571,203082,203487,203516,1610612748,1629134,201609,203109,203482,2738,0021900919,1,609,609,3,0,1610612753
42,1610612753,1628964,201571,203082,203487,203516,1610612748,1629134,201609,203109,203482,2738,0021900919,1,617,620,0,0,1610612748
43,1610612753,1628964,201571,203082,203487,203516,1610612748,1629134,201609,203109,203482,2738,0021900919,1,630,634,0,0,1610612753
44,1610612753,1628964,201571,203082,203487,203516,1610612748,1629134,201609,203109,203482,2738,0021900919,1,641,641,0,3,1610612748
45,1610612753,1628964,201571,203082,203487,203516,1610612748,1629134,201609,203109,203482,2738,0021900919,1,657,659,0,0,1610612753
46,1610612753,1628964,201571,203082,203487,203516,1610612748,1629134,201609,203109,203482,2738,0021900919,1,672,674,0,0,1610612748
47,1610612753,1628964,201571,203082,203487,203516,1610612748,1629134,201609,203109,203482,2738,0021900919,1,683,683,0,0,1610612753
48,1610612753,1628964,201571,203082,203487,203516,1610612748,1629130,201609,203109,203482,2738,0021900919,1,699,699,0,3,1610612748
49,1610612753,1628964,201571,203082,203487,203516,1610612748,1629130,201609,203109,203482,2738,0021900919,1,717,717,0,0,1610612753
50,1610612753,203932,203082,203487,201571,1628964,1610612748,1629130,201609,203109,2738,203482,0021900919,2,720,750,2,0,1610612753
51,1610612753,203932,203082,203487,201571,1628964,1610612748,1629130,201609,203109,2738,203482,0021900919,2,770,773,0,0,1610612748
52,1610612753,203932,203082,203487,201571,1628964,1610612748,1629130,201609,203109,2738,203482,0021900919,2,778,782,3,0,1610612753
53,1610612753,203932,203082,203487,201571,1628964,1610612748,1629130,201609,203109,2738,203482,0021900919,2,795,802,0,0,1610612748
54,1610612753,203932,203082,203487,201571,1628964,1610612748,1629130,201609,203109,2738,203482,0021900919,2,812,814,0,0,1610612753
55,1610612753,203932,203082,203487,201571,1628964,1610612748,1629130,201609,203109,2738,203482,0021900919,2,822,822,0,3,1610612748
56,1610612753,203932,203082,203487,201571,1628964,1610612748,1629130,201609,203109,2738,203482,0021900919,2,838,838,0,0,1610612753
57,1610612753,203932,203082,203487,201571,1628964,1610612748,1629130,201609,203109,2738,203482,0021900919,2,844,844,0,3,1610612748
58,1610612753,203932,203082,203487,201571,1628964,1610612748,1629130,201609,203109,2738,203482,0021900919,2,845,866,0,0,1610612753
59,1610612753,203932,203082,203487,201571,1628964,1610612748,1629130,201609,203109,2738,203482,0021900919,2,874,874,0,0,1610612748
60,1610612753,203932,203082,203487,201571,1628964,1610612748,1629130,201609,203109,2738,203482,0021900919,2,880,887,0,0,1610612753
61,1610612753,203932,203082,203487,201571,1628964,1610612748,1629130,201609,203109,2738,203482,0021900919,2,890,890,0,2,1610612748
62,1610612753,203932,203082,203487,201571,1628964,1610612748,1629130,201609,203109,2738,203482,0021900919,2,911,914,0,0,1610612753
63,1610612753,203932,203082,203487,201571,1628964,1610612748,1629130,201609,203109,2738,203482,0021900919,2,929,945,0,0,1610612748
64,1610612753,201571,202696,203082,203487,203932,1610612748,1629130,201609,203109,2738,203482,0021900919,2,954,956,2,0,1610612753
65,1610612753,201571,202696,203082,203487,203932,1610612748,1629130,201609,203109,2738,203482,0021900919,2,972,972,0,0,1610612748
66,1610612753,201571,202696,203082,203487,203516,1610612748,1629130,201609,203109,2738,203482,0021900919,2,987,987,2,0,1610612753
67,1610612753,201571,202696,203082,203487,203516,1610612748,1629130,201609,203109,2738,203482,0021900919,2,1010,1010,0,3,1610612748
68,1610612753,201571,202696,203082,203487,203516,1610612748,1629130,201609,203109,2738,203482,0021900919,2,1026,1028,0,0,1610612753
69,1610612753,201571,202696,203082,203487,203516,1610612748,1629130,201609,203109,2738,203482,0021900919,2,1035,1035,0,3,1610612748
70,1610612753,201571,202696,203082,203487,203516,1610612748,1629130,201609,203109,2738,203482,0021900919,2,1057,1057,0,0,1610612753
71,1610612753,1628365,202696,203082,203095,203516,1610612748,1628389,1629130,201609,202710,203109,0021900919,2,1070,1070,0,3,1610612748
72,1610612753,1628365,202696,203082,203095,203516,1610612748,1628389,1629130,201609,202710,203109,0021900919,2,1091,1093,0,0,1610612753
73,1610612753,1628365,202696,203082,203095,203516,1610612748,1628389,1629130,201609,202710,203109,0021900919,2,1103,1103,0,3,1610612748
74,1610612753,1628365,202696,203082,203095,203516,1610612748,1628389,1629130,201609,202710,203109,0021900919,2,1105,1121,2,0,1610612753
75,1610612753,1628365,202696,203082,203095,203516,1610612748,1628389,1629130,201609,202710,203109,0021900919,2,1137,1140,0,0,1610612748
76,1610612753,1628365,202696,203082,203095,203516,1610612748,1628389,1629130,201609,202710,203109,0021900919,2,1157,1157,2,0,1610612753
77,1610612753,1628365,202696,203082,203095,203516,1610612748,1628389,1629130,201609,202710,203109,0021900919,2,1174,1174,0,3,1610612748
78,1610612753,1628365,202696,203082,203095,203516,1610612748,1628389,1629130,201609,202710,203109,0021900919,2,1187,1187,0,0,1610612753
79,1610612753,1628365,202696,203082,203095,203516,1610612748,1628389,1629130,201609,202710,203109,0021900919,2,1188,1188,0,0,1610612748
80,1610612753,1628365,202696,203095,203516,203932,1610612748,1628389,1629130,1629134,202710,203109,0021900919,2,1202,1202,3,0,1610612753
81,1610612753,1628365,202696,203095,203516,203932,1610612748,1628389,1629130,1629134,202710,203109,0021900919,2,1216,1216,0,3,1610612748
82,1610612753,1628365,202696,203095,203516,203932,1610612748,1628389,1629130,1629134,202710,203109,0021900919,2,1231,1231,3,0,1610612753
83,1610612753,1628365,202696,203095,203516,203932,1610612748,1628389,1629130,1629134,202710,203109,0021900919,2,1251,1254,0,0,1610612748
84,1610612753,1628365,202696,203095,203516,203932,1610612748,1628389,1629130,1629134,202710,203109,0021900919,2,1261,1264,0,0,1610612753
85,1610612753,1628365,202696,203095,203516,203932,1610612748,1628389,1629130,1629134,202710,203109,0021900919,2,1269,1286,0,0,1610612748
86,1610612753,1628365,202696,203082,203095,203932,1610612748,1628389,1629130,1629134,202710,203109,0021900919,2,1297,1297,2,0,1610612753
87,1610612753,1628365,202696,203082,203095,203932,1610612748,1628389,1629130,1629134,202710,203109,0021900919,2,1319,1319,0,0,1610612748
88,1610612753,1628365,202696,203082,203095,203932,1610612748,1628389,1629130,1629134,202710,203109,0021900919,2,1327,1327,3,0,1610612753
89,1610612753,1628365,202696,203082,203095,203932,1610612748,1628389,1629130,1629134,202710,203109,0021900919,2,1331,1348,0,2,1610612748
90,1610612753,1628365,202696,203082,203095,203932,1610612748,1627884,1628389,1629134,202710,203109,0021900919,2,1366,1366,3,0,1610612753
91,1610612753,1628365,202696,203082,203095,203932,1610612748,1627884,1628389,1629134,202710,203109,0021900919,2,1388,1400,0,0,1610612748
92,1610612753,1628365,202696,203082,203095,203932,1610612748,1627884,1628389,1629134,202710,203109,0021900919,2,1407,1407,2,0,1610612753
93,1610612753,1628365,202696,203082,203095,203932,1610612748,1627884,1628389,1629134,202710,203109,0021900919,2,1419,1419,0,2,1610612748
94,1610612753,1628365,202696,203082,203095,203932,1610612748,1627884,1628389,202710,203109,2738,0021900919,2,1436,1440,0,0,1610612748
95,1610612753,203516,203932,202696,203095,1628365,1610612748,202710,1627884,1628389,1629130,1629134,0021900919,3,1440,1460,2,0,1610612753
96,1610612753,203516,203932,202696,203095,1628365,1610612748,202710,1627884,1628389,1629130,1629134,0021900919,3,1487,1490,0,1,1610612748
97,1610612753,203516,203932,202696,203095,1628365,1610612748,202710,1627884,1628389,1629130,1629134,0021900919,3,1500,1500,2,0,1610612753
98,1610612753,203516,203932,202696,203095,1628365,1610612748,202710,1627884,1628389,1629130,1629134,0021900919,3,1521,1535,0,3,1610612748
99,1610612753,203516,203932,202696,203095,1628365,1610612748,202710,1627884,1628389,1629130,1629134,0021900919,3,1560,1563,0,0,1610612753
100,1610612753,203516,203932,202696,203095,1628365,1610612748,202710,1627884,1628389,1629130,1629134,0021900919,3,1563,1570,0,3,1610612748
101,1610612753,203516,203932,202696,203095,1628365,1610612748,202710,1627884,1628389,1629130,1629134,0021900919,3,1590,1590,2,0,1610612753
102,1610612753,203516,203932,202696,203095,1628365,1610612748,202710,1627884,1628389,1629130,1629134,0021900919,3,1594,1594,0,0,1610612748
103,1610612753,203516,203932,202696,203095,1628365,1610612748,202710,1627884,1628389,1629130,1629134,0021900919,3,1596,1596,2,0,1610612753
104,1610612753,203516,203932,202696,203095,1628365,1610612748,202710,1627884,1628389,1629130,1629134,0021900919,3,1615,1631,0,2,1610612748
105,1610612753,203516,203932,202696,203095,1628365,1610612748,202710,1627884,1628389,1629130,1629134,0021900919,3,1653,1653,3,0,1610612753
106,1610612753,203516,203932,202696,203095,1628365,1610612748,202710,1627884,1628389,1629130,1629134,0021900919,3,1668,1668,0,2,1610612748
107,1610612753,203516,203932,202696,203095,1628365,1610612748,202710,1627884,1628389,1629130,1629134,0021900919,3,1684,1686,0,0,1610612753
108,1610612753,203516,203932,202696,203095,1628365,1610612748,202710,1627884,1628389,1629130,1629134,0021900919,3,1691,1692,0,0,1610612748
109,1610612753,203516,203932,202696,203095,1628365,1610612748,202710,1627884,1628389,1629130,1629134,0021900919,3,1699,1701,0,0,1610612753
110,1610612753,203516,203932,202696,203095,1628365,1610612748,202710,1627884,1628389,1629130,1629134,0021900919,3,1713,1715,0,0,1610612748
111,1610612753,203516,203932,202696,203095,1628365,1610612748,202710,1627884,1628389,1629130,1629134,0021900919,3,1722,1722,3,0,1610612753
112,1610612753,203516,203932,202696,203095,1628365,1610612748,202710,1627884,1628389,1629130,1629134,0021900919,3,1742,1742,0,2,1610612748
113,1610612753,203516,203932,202696,203095,1628365,1610612748,202710,1627884,1628389,1629130,1629134,0021900919,3,1758,1758,2,0,1610612753
114,1610612753,203516,203932,202696,203095,1628365,1610612748,202710,1627884,1628389,1629130,1629134,0021900919,3,1772,1774,0,0,1610612748
115,1610612753,203516,203932,202696,203095,1628365,1610612748,202710,1627884,1628389,1629130,1629134,0021900919,3,1785,1788,0,0,1610612753
116,1610612753,203516,203932,202696,203095,1628365,1610612748,202710,1627884,1628389,1629130,1629134,0021900919,3,1794,1794,0,2,1610612748
117,1610612753,203516,203932,202696,203095,1628365,1610612748,202710,1627884,1628389,1629130,1629134,0021900919,3,1803,1803,2,0,1610612753
118,1610612753,203516,203932,202696,203095,1628365,1610612748,202710,1627884,1628389,1629130,1629134,0021900919,3,1812,1822,0,0,1610612748
119,1610612753,1628365,202696,203082,203095,203932,1610612748,1627884,1628389,1629134,201609,202710,0021900919,3,1838,1838,3,0,1610612753
120,1610612753,1628365,202696,203082,203095,203932,1610612748,1627884,1628389,1629134,201609,202710,0021900919,3,1856,1856,0,0,1610612748
121,1610612753,1628365,202696,203082,203095,203932,1610612748,1627884,1628389,1629134,201609,202710,0021900919,3,1860,1860,0,0,1610612753
122,1610612753,1628365,202696,203082,203095,203932,1610612748,1627884,1628389,1629134,201609,202710,0021900919,3,1880,1882,0,0,1610612748
123,1610612753,1628365,202696,203082,203095,203932,1610612748,1627884,1628389,1629134,201609,202710,0021900919,3,1888,1892,0,0,1610612753
124,1610612753,1628365,202696,203082,203095,203932,1610612748,1627884,1628389,1629134,201609,202710,0021900919,3,1896,1896,0,0,1610612748
125,1610612753,1628365,202696,203082,203095,203932,1610612748,1627884,1628389,201609,202710,203109,0021900919,3,1906,1913,0,0,1610612753
126,1610612753,1628365,202696,203082,203095,203932,1610612748,1627884,1628389,201609,202710,203109,0021900919,3,1931,1931,0,2,1610612748
127,1610612753,201571,202696,203082,203487,203932,1610612748,1627884,201609,202710,203109,203482,0021900919,3,1953,1954,3,0,1610612753
128,1610612753,201571,202696,203082,203487,203932,1610612748,1627884,201609,202710,203109,203482,0021900919,3,1965,1965,0,3,1610612748
129,1610612753,201571,202696,203082,203487,203932,1610612748,1627884,201609,202710,203109,203482,0021900919,3,1980,1980,3,0,1610612753
130,1610612753,201571,202696,203082,203487,203932,1610612748,1627884,201609,202710,203109,203482,0021900919,3,1998,1998,0,3,1610612748
131,1610612753,201571,202696,203082,203487,203932,1610612748,1627884,201609,202710,203109,203482,0021900919,3,2022,2022,2,0,1610612753
132,1610612753,201571,202696,203082,203487,203932,1610612748,1627884,201609,202710,203109,203482,0021900919,3,2035,2036,0,0,1610612748
133,1610612753,201571,202696,203082,203487,203932,1610612748,1627884,201609,202710,203109,203482,0021900919,3,2042,2045,0,0,1610612753
134,1610612753,201571,202696,203082,203487,203932,1610612748,1627884,201609,202710,203109,203482,0021900919,3,2057,2057,0,3,1610612748
135,1610612753,1628964,201571,203082,203487,203516,1610612748,1629130,201609,203109,203482,2738,0021900919,3,2078,2078,0,0,1610612753
136,1610612753,1628964,201571,203082,203487,203516,1610612748,1629130,201609,203109,203482,2738,0021900919,3,2084,2087,0,0,1610612748
137,1610612753,1628964,201571,203082,203487,203516,1610612748,1629130,201609,203109,203482,2738,0021900919,3,2102,2104,0,0,1610612753
138,1610612753,1628964,201571,203082,203487,203516,1610612748,1629130,201609,203109,203482,2738,0021900919,3,2112,2120,0,2,1610612748
139,1610612753,1628964,201571,203082,203487,203516,1610612748,1629130,201609,203109,203482,2738,0021900919,3,2131,2131,0,0,1610612753
140,1610612753,1628964,201571,203082,203487,203516,1610612748,1629130,201609,203109,203482,2738,0021900919,3,2154,2155,0,0,1610612748
141,1610612753,1628964,201571,203082,203487,203516,1610612748,1629130,201609,203109,203482,2738,0021900919,3,2159,2160,0,0,1610612748
142,1610612753,203516,202696,203082,203487,201571,1610612748,1629130,201609,203109,2738,203482,0021900919,4,2160,2184,0,3,1610612748
143,1610612753,203516,202696,203082,203487,201571,1610612748,1629130,201609,203109,2738,203482,0021900919,4,2205,2220,2,0,1610612753
144,1610612753,203516,202696,203082,203487,201571,1610612748,1629130,201609,203109,2738,203482,0021900919,4,2229,2245,0,0,1610612748
145,1610612753,203516,202696,203082,203487,201571,1610612748,1629130,201609,203109,2738,203482,0021900919,4,2258,2258,2,0,1610612753
146,1610612753,203516,202696,203082,203487,201571,1610612748,1629130,201609,203109,2738,203482,0021900919,4,2266,2275,0,0,1610612748
147,1610612753,203516,202696,203082,203487,201571,1610612748,1629130,201609,203109,2738,203482,0021900919,4,2283,2283,2,0,1610612753
148,1610612753,203516,202696,203082,203487,201571,1610612748,1629130,201609,203109,2738,203482,0021900919,4,2298,2301,0,0,1610612748
149,1610612753,203516,202696,203082,203487,201571,1610612748,1629130,201609,203109,2738,203482,0021900919,4,2315,2315,3,0,1610612753
150,1610612753,203516,202696,203082,203487,201571,1610612748,1629130,201609,203109,2738,203482,0021900919,4,2328,2328,0,3,1610612748
151,1610612753,203516,202696,203082,203487,201571,1610612748,1629130,201609,203109,2738,203482,0021900919,4,2346,2346,4,0,1610612753
152,1610612753,203516,202696,203082,203487,201571,1610612748,1629130,201609,203109,2738,203482,0021900919,4,2360,2360,0,2,1610612748
153,1610612753,203516,202696,203082,203487,201571,1610612748,1629130,201609,203109,2738,203482,0021900919,4,2386,2388,0,0,1610612753
154,1610612753,203516,202696,203082,203487,201571,1610612748,1629130,201609,203109,2738,203482,0021900919,4,2394,2394,0,2,1610612748
155,1610612753,203516,202696,203082,203487,201571,1610612748,1629130,201609,203109,2738,203482,0021900919,4,2408,2408,0,0,1610612753
156,1610612753,1628365,202696,203082,203095,203516,1610612748,1629130,201609,203109,2738,203482,0021900919,4,2420,2422,0,0,1610612748
157,1610612753,1628365,202696,203082,203095,203516,1610612748,1629130,201609,203109,2738,203482,0021900919,4,2429,2431,0,0,1610612753
158,1610612753,1628365,202696,203082,203095,203516,1610612748,1629130,201609,203109,2738,203482,0021900919,4,2440,2440,0,2,1610612748
159,1610612753,1628365,202696,203082,203095,203516,1610612748,1629130,201609,203109,2738,203482,0021900919,4,2452,2452,2,0,1610612753
160,1610612753,1628365,202696,203082,203095,203932,1610612748,1629130,201609,202710,203109,203482,0021900919,4,2463,2466,0,1,1610612748
161,1610612753,1628365,202696,203082,203095,203932,1610612748,1628389,1629130,201609,202710,203109,0021900919,4,2480,2480,2,0,1610612753
162,1610612753,1628365,202696,203082,203095,203932,1610612748,1628389,1629130,201609,202710,203109,0021900919,4,2503,2509,0,0,1610612748
163,1610612753,1628365,202696,203082,203095,203932,1610612748,1628389,1629130,201609,202710,203109,0021900919,4,2524,2529,0,0,1610612753
164,1610612753,1628365,202696,203082,203095,203932,1610612748,1628389,1629130,201609,202710,203109,0021900919,4,2538,2538,0,2,1610612748
165,1610612753,1628365,202696,203082,203095,203932,1610612748,1628389,1629130,201609,202710,203109,0021900919,4,2556,2556,3,0,1610612753
166,1610612753,1628365,202696,203082,203095,203932,1610612748,1628389,1629130,201609,202710,203109,0021900919,4,2574,2574,0,2,1610612748
167,1610612753,1628365,202696,203082,203095,203932,1610612748,1628389,1629130,201609,202710,203109,0021900919,4,2574,2574,0,2,1610612748
168,1610612753,1628365,202696,203082,203095,203932,1610612748,1628389,1629130,201609,202710,203109,0021900919,4,2590,2590,2,0,1610612753
169,1610612753,1628365,202696,203082,203095,203932,1610612748,1628389,1629130,201609,202710,203109,0021900919,4,2608,2611,0,2,1610612748
170,1610612753,1628365,202696,203082,203095,203932,1610612748,1628389,1629130,201609,202710,203109,0021900919,4,2626,2626,0,0,1610612753
171,1610612753,1628365,202696,203082,203095,203932,1610612748,1628389,1629130,201609,202710,203109,0021900919,4,2631,2631,0,3,1610612748
172,1610612753,1628365,202696,203082,203095,203932,1610612748,1628389,1629130,201609,202710,203109,0021900919,4,2631,2647,0,0,1610612753
173,1610612753,1628365,202696,203082,203095,203932,1610612748,1628389,1629130,201609,202710,203109,0021900919,4,2659,2659,0,3,1610612748
174,1610612753,1628365,202696,203082,203095,203932,1610612748,1628389,1629130,201609,202710,203109,0021900919,4,2684,2684,2,0,1610612753
175,1610612753,1628365,202696,203082,203095,203932,1610612748,1628389,1629130,201609,202710,203109,0021900919,4,2685,2697,0,0,1610612748
176,1610612753,1628365,202696,203082,203095,203932,1610612748,1628389,1629130,201609,202710,203109,0021900919,4,2711,2712,0,0,1610612753
177,1610612753,1628365,202696,203082,203095,203932,1610612748,1628389,1629130,201609,202710,203109,0021900919,4,2727,2738,0,3,1610612748
178,1610612753,1628365,202696,203082,203095,203932,1610612748,1628389,1629130,201609,202710,203109,0021900919,4,2765,2768,3,0,1610612753
179,1610612753,1628365,202696,203082,203095,203932,1610612748,1628389,1629130,201609,202710,203109,0021900919,4,2791,2794,0,0,1610612748
180,1610612753,1628365,202696,203082,203095,203932,1610612748,1628389,1629130,201609,202710,203109,0021900919,4,2800,2803,0,0,1610612753
181,1610612753,1628365,202696,203082,203095,203932,1610612748,1628389,1629130,201609,202710,203109,0021900919,4,2818,2838,0,0,1610612748
182,1610612753,1628365,202696,203082,203095,203932,1610612748,1628389,1629130,201609,202710,203109,0021900919,4,2840,2848,2,0,1610612753
183,1610612753,1628365,202696,203082,203095,203932,1610612748,1627884,1628389,202710,203109,2738,0021900919,4,2855,2871,0,0,1610612748
184,1610612753,1628365,202696,203095,203487,203932,1610612748,1628389,1629130,201609,202710,203109,0021900919,4,2871,2879,0,0,1610612753
