,team1_id,team1_player1,team1_player2,team1_player3,team1_player4,team1_player5,team2_id,team2_player1,team2_player2,team2_player3,team2_player4,team2_player5,game_id,period,possession_start,possession_end,team1_points,team2_points,possession_team
0,1610612741,1627739,1628374,1628976,203897,203107,1610612765,203503,202693,203083,1628379,1628971,0021900432,1,0,20,0,0,1610612765
1,1610612741,1627739,1628374,1628976,203897,203107,1610612765,203503,202693,203083,1628379,1628971,0021900432,1,26,26,3,0,1610612741
2,1610612741,1627739,1628374,1628976,203897,203107,1610612765,203503,202693,203083,1628379,1628971,0021900432,1,43,47,0,0,1610612765
3,1610612741,1627739,1628374,1628976,203897,203107,1610612765,203503,202693,203083,1628379,1628971,0021900432,1,63,63,2,0,1610612741
4,1610612741,1627739,1628374,1628976,203897,203107,1610612765,203503,202693,203083,1628379,1628971,0021900432,1,77,77,0,0,1610612765
5,1610612741,1627739,1628374,1628976,203897,203107,1610612765,203503,202693,203083,1628379,1628971,0021900432,1,86,86,2,0,1610612741
6,1610612741,1627739,1628374,1628976,203897,203107,1610612765,203503,202693,203083,1628379,1628971,0021900432,1,102,102,0,2,1610612765
7,1610612741,1627739,1628374,1628976,203897,203107,1610612765,203503,202693,203083,1628379,1628971,0021900432,1,120,120,3,0,1610612741
8,1610612741,1627739,1628374,1628976,203897,203107,1610612765,203503,202693,203083,1628379,1628971,0021900432,1,132,132,0,3,1610612765
9,1610612741,1627739,1628374,1628976,203897,203107,1610612765,203503,202693,203083,1628379,1628971,0021900432,1,147,149,0,0,1610612741
10,1610612741,1627739,1628374,1628976,203897,203107,1610612765,203503,202693,203083,1628379,1628971,0021900432,1,159,159,0,2,1610612765
11,1610612741,1627739,1628374,1628976,203897,203107,1610612765,203503,202693,203083,1628379,1628971,0021900432,1,168,168,0,0,1610612741
12,1610612741,1627739,1628374,1628976,203897,203107,1610612765,203503,202693,203083,1628379,1628971,0021900432,1,172,172,0,2,1610612765
13,1610612741,1627739,1628374,1628976,203897,203107,1610612765,203503,202693,203083,1628379,1628971,0021900432,1,185,188,0,0,1610612741
14,1610612741,1627739,1628374,1628976,203897,203107,1610612765,203503,202693,203083,1628379,1628971,0021900432,1,202,202,0,3,1610612765
15,1610612741,1627739,1628374,1628976,203897,203107,1610612765,203503,202693,203083,1628379,1628971,0021900432,1,216,216,3,0,1610612741
16,1610612741,1627739,1628374,1628976,203897,203107,1610612765,203503,202693,203083,1628379,1628971,0021900432,1,228,228,0,0,1610612765
17,1610612741,1627739,1628374,1628976,203897,203107,1610612765,203503,202693,203083,1628379,1628971,0021900432,1,239,241,0,0,1610612741
18,1610612741,1627739,1628374,1628976,203897,203107,1610612765,203503,202693,203083,1628379,1628971,0021900432,1,255,255,0,2,1610612765
19,1610612741,1627739,1628374,1628976,203897,203107,1610612765,203503,202693,203083,1628379,1628971,0021900432,1,272,275,0,0,1610612741
20,1610612741,1627739,1628374,1628976,203897,203107,1610612765,203503,202693,203083,1628379,1628971,0021900432,1,287,302,0,1,1610612765
21,1610612741,1627739,1628374,1628976,203897,203107,1610612765,203503,202693,203083,1628379,1628971,0021900432,1,312,321,0,0,1610612741
22,1610612741,1627739,1628374,1628976,203897,203107,1610612765,203503,202693,203083,1628379,1628971,0021900432,1,321,330,0,0,1610612765
23,1610612741,1627739,1628374,1628976,203897,203107,1610612765,203503,202693,203083,1628379,1628971,0021900432,1,338,338,0,0,1610612741
24,1610612741,1627739,1628374,1628976,203897,203107,1610612765,203503,202693,203083,1628379,1628971,0021900432,1,347,347,0,0,1610612765
25,1610612741,1627739,1628374,1628976,203897,203107,1610612765,203503,202693,203083,1628379,1628971,0021900432,1,353,355,0,0,1610612741
26,1610612741,1627739,1628374,1628976,203897,203107,1610612765,203503,202693,203083,1628379,1628971,0021900432,1,360,360,0,2,1610612765
27,1610612741,1627739,1628374,1628976,203897,203107,1610612765,203503,202693,203083,1628379,1628971,0021900432,1,377,377,2,0,1610612741
28,1610612741,1627739,1628374,1628976,203897,203107,1610612765,203503,202693,203083,1628379,1628971,0021900432,1,395,395,0,2,1610612765
29,1610612741,1627739,1628374,1628976,203897,203107,1610612765,203503,202693,203083,1628379,1628971,0021900432,1,406,406,2,0,1610612741
30,1610612741,1627739,1628374,1628976,203897,203107,1610612765,203503,202693,203083,1628379,1628971,0021900432,1,421,424,0,0,1610612765
31,1610612741,1627739,1628374,1628976,203897,203107,1610612765,203503,202693,203083,1628379,1628971,0021900432,1,426,429,0,0,1610612741
32,1610612741,1628374,1628976,1629632,203107,203897,1610612765,1628379,1628971,202693,203083,204038,0021900432,1,446,446,0,2,1610612765
33,1610612741,1628374,1628976,1629632,203107,203897,1610612765,1628379,1628971,202693,203083,204038,0021900432,1,460,460,1,0,1610612741
34,1610612741,1628374,1629632,1629655,203107,203897,1610612765,1628379,1628971,202693,203083,204038,0021900432,1,478,481,0,0,1610612765
35,1610612741,1628374,1629632,1629655,203107,203897,1610612765,1628379,1628971,202693,203083,204038,0021900432,1,482,482,3,0,1610612741
36,1610612741,1628374,1629632,1629655,203107,203897,1610612765,1628379,1628971,202693,203083,204038,0021900432,1,487,487,0,0,1610612765
37,1610612741,1629632,1629655,201152,203107,203897,1610612765,1628379,1628971,202693,203083,204038,0021900432,1,497,500,0,0,1610612741
38,1610612741,1629632,1629655,201152,203107,203897,1610612765,1628379,1628971,202693,203083,204038,0021900432,1,509,514,0,0,1610612765
39,1610612741,1629632,1629655,201152,203107,203897,1610612765,1628379,1628971,202693,203083,204038,0021900432,1,529,529,2,0,1610612741
40,1610612741,1629632,1629655,201152,203107,203897,1610612765,1629004,202693,203083,204025,204038,0021900432,1,549,549,0,3,1610612765
41,1610612741,1629632,1629655,201152,203107,203897,1610612765,1629004,202693,203083,204025,204038,0021900432,1,569,573,0,0,1610612741
42,1610612741,1629632,1629655,201152,203107,203897,1610612765,1629004,202693,203083,204025,204038,0021900432,1,580,582,0,0,1610612765
43,1610612741,1629632,1629655,201152,203107,203897,1610612765,1629004,202693,203083,204025,204038,0021900432,1,588,588,0,0,1610612741
44,1610612741,1629632,1629655,201152,203107,203897,1610612765,1629004,202693,203083,204025,204038,0021900432,1,593,593,0,2,1610612765
45,1610612741,1629632,1629655,201152,203107,203897,1610612765,1629004,202693,203083,204025,204038,0021900432,1,602,603,0,0,1610612741
46,1610612741,1629632,1629655,201152,203107,203897,1610612765,1629004,202693,203083,204025,204038,0021900432,1,607,610,0,0,1610612765
47,1610612741,1629632,1629655,201152,203107,203897,1610612765,1629004,202693,203083,204025,204038,0021900432,1,615,615,0,0,1610612741
48,1610612741,1629632,1629655,201152,203107,203897,1610612765,1629004,202693,203083,204025,204038,0021900432,1,630,634,0,0,1610612765
49,1610612741,1629632,1629655,201152,203107,203897,1610612765,1629004,202693,203083,204025,204038,0021900432,1,641,641,0,0,1610612741
50,1610612741,1627756,1627853,1629632,1629655,201152,1610612765,1627748,1629004,203083,204025,204038,0021900432,1,655,661,0,0,1610612765
51,1610612741,1627756,1627853,1629632,1629655,201152,1610612765,1627748,1629004,203083,204025,204038,0021900432,1,672,672,2,0,1610612741
52,1610612741,1627756,1627853,1629632,1629655,201152,1610612765,1627748,1629004,203083,204025,204038,0021900432,1,687,687,0,2,1610612765
53,1610612741,1627756,1627853,1629632,1629655,201152,1610612765,1627748,1629004,203083,204025,204038,0021900432,1,696,696,0,0,1610612741
54,1610612741,1627756,1627853,1629632,1629655,201152,1610612765,1627748,1629004,203083,204025,204038,0021900432,1,716,719,0,0,1610612765
55,1610612741,1629632,1629655,201152,1627756,1627853,1610612765,203503,204038,1629004,204025,1627748,0021900432,2,720,739,0,0,1610612741
56,1610612741,1629632,1629655,201152,1627756,1627853,1610612765,203503,204038,1629004,204025,1627748,0021900432,2,752,752,0,0,1610612765
57,1610612741,1629632,1629655,201152,1627756,1627853,1610612765,203503,204038,1629004,204025,1627748,0021900432,2,771,771,2,0,1610612741
58,1610612741,1629632,1629655,201152,1627756,1627853,1610612765,203503,204038,1629004,204025,1627748,0021900432,2,784,785,0,0,1610612765
59,1610612741,1629632,1629655,201152,1627756,1627853,1610612765,203503,204038,1629004,204025,1627748,0021900432,2,791,795,3,0,1610612741
60,1610612741,1629632,1629655,201152,1627756,1627853,1610612765,203503,204038,1629004,204025,1627748,0021900432,2,813,813,0,2,1610612765
61,1610612741,1629632,1629655,201152,1627756,1627853,1610612765,203503,204038,1629004,204025,1627748,0021900432,2,813,841,0,0,1610612741
62,1610612741,1629632,1629655,201152,1627756,1627853,1610612765,203503,204038,1629004,204025,1627748,0021900432,2,841,861,0,2,1610612765
63,1610612741,1627756,1627853,1628976,1629632,201152,1610612765,203503,204038,1629004,204025,1627748,0021900432,2,880,884,0,0,1610612741
64,1610612741,1627756,1627853,1628976,1629632,201152,1610612765,203503,204038,1629004,204025,1627748,0021900432,2,893,893,0,3,1610612765
65,1610612741,1627756,1627853,1628976,1629632,201152,1610612765,203503,204038,1629004,204025,1627748,0021900432,2,908,908,3,0,1610612741
66,1610612741,1627756,1627853,1628976,1629632,201152,1610612765,203503,204038,1629004,204025,1627748,0021900432,2,924,925,0,0,1610612765
67,1610612741,1627756,1627853,1628976,1629632,201152,1610612765,203503,204038,1629004,204025,1627748,0021900432,2,947,947,2,0,1610612741
68,1610612741,1627756,1627853,1628976,1629632,201152,1610612765,203503,204038,1629004,204025,1627748,0021900432,2,968,968,0,3,1610612765
69,1610612741,1627756,1627853,1628976,1629632,201152,1610612765,203503,204038,1629004,204025,1627748,0021900432,2,979,979,0,0,1610612741
70,1610612741,1627756,1627853,1628976,1629632,201152,1610612765,203503,204038,1629004,204025,1627748,0021900432,2,985,989,0,2,1610612765
71,1610612741,1627756,1627853,1628976,1629632,201152,1610612765,203503,204038,1629004,204025,1627748,0021900432,2,996,996,0,0,1610612741
72,1610612741,1627756,1627853,1628976,1629632,201152,1610612765,203503,204038,1629004,204025,1627748,0021900432,2,999,999,0,2,1610612765
73,1610612741,1627739,1628976,201152,203107,203897,1610612765,203503,204038,1629004,204025,1627748,0021900432,2,1013,1013,2,0,1610612741
74,1610612741,1627739,1628976,201152,203107,203897,1610612765,203503,204038,1629004,204025,1627748,0021900432,2,1021,1035,0,2,1610612765
75,1610612741,1627739,1628976,201152,203107,203897,1610612765,1627748,1628379,1628971,202693,204025,0021900432,2,1044,1044,3,0,1610612741
76,1610612741,1627739,1628976,201152,203107,203897,1610612765,1627748,1628379,1628971,202693,204025,0021900432,2,1062,1066,0,0,1610612765
77,1610612741,1627739,1628976,201152,203107,203897,1610612765,1627748,1628379,1628971,202693,204025,0021900432,2,1076,1076,3,0,1610612741
78,1610612741,1627739,1628976,201152,203107,203897,1610612765,1627748,1628379,1628971,202693,204025,0021900432,2,1104,1106,0,0,1610612765
79,1610612741,1627739,1628976,201152,203107,203897,1610612765,1627748,1628379,1628971,202693,204025,0021900432,2,1110,1110,2,0,1610612741
80,1610612741,1627739,1628976,201152,203107,203897,1610612765,1627748,1628379,1628971,202693,204025,0021900432,2,1137,1139,0,0,1610612765
81,1610612741,1627739,1628976,201152,203107,203897,1610612765,1627748,1628379,1628971,202693,204025,0021900432,2,1142,1162,0,0,1610612741
82,1610612741,1627739,1628374,201152,203107,203897,1610612765,1628379,1628971,202693,203083,204025,0021900432,2,1165,1165,0,2,1610612765
83,1610612741,1627739,1628374,201152,203107,203897,1610612765,1628379,1628971,202693,203083,204025,0021900432,2,1193,1193,0,0,1610612741
84,1610612741,1627739,1628374,201152,203107,203897,1610612765,1628379,1628971,202693,203083,204025,0021900432,2,1193,1215,0,2,1610612765
85,1610612741,1627739,1628374,201152,203107,203897,1610612765,1628379,1628971,202693,203083,204025,0021900432,2,1237,1241,2,0,1610612741
86,1610612741,1627739,1628374,201152,203107,203897,1610612765,1628379,1628971,202693,203083,204025,0021900432,2,1261,1262,0,0,1610612765
87,1610612741,1627739,1628374,201152,203107,203897,1610612765,1628379,1628971,202693,203083,204025,0021900432,2,1273,1273,2,0,1610612741
88,1610612741,1627739,1628374,201152,203107,203897,1610612765,1628379,1628971,202693,203083,204025,0021900432,2,1280,1290,0,0,1610612765
89,1610612741,1627739,1628374,201152,203107,203897,1610612765,1628379,1628971,202693,203083,203503,0021900432,2,1308,1310,0,0,1610612741
90,1610612741,1627739,1628374,201152,203107,203897,1610612765,1628379,1628971,202693,203083,203503,0021900432,2,1316,1316,0,2,1610612765
91,1610612741,1627739,1628374,201152,203107,203897,1610612765,1628379,1628971,202693,203083,203503,0021900432,2,1325,1329,0,0,1610612741
92,1610612741,1627739,1628374,201152,203107,203897,1610612765,1628379,1628971,202693,203083,203503,0021900432,2,1342,1344,0,0,1610612765
93,1610612741,1627739,1628374,201152,203107,203897,1610612765,1628379,1628971,202693,203083,203503,0021900432,2,1349,1349,2,0,1610612741
94,1610612741,1627739,1628374,201152,203107,203897,1610612765,1628379,1628971,202693,203083,203503,0021900432,2,1361,1361,0,3,1610612765
95,1610612741,1627739,1628374,201152,203107,203897,1610612765,1628379,1628971,202693,203083,203503,0021900432,2,1376,1379,0,0,1610612741
96,1610612741,1627739,1628374,201152,203107,203897,1610612765,1628379,1628971,202693,203083,203503,0021900432,2,1383,1383,0,0,1610612765
97,1610612741,1627739,1628374,201152,203107,203897,1610612765,1628379,1628971,202693,203083,203503,0021900432,2,1388,1388,0,0,1610612741
98,1610612741,1627739,1628374,201152,203107,203897,1610612765,1628379,1628971,202693,203083,203503,0021900432,2,1407,1407,0,3,1610612765
99,1610612741,1627739,1628374,201152,203107,203897,1610612765,1628379,1628971,202693,203083,203503,0021900432,2,1428,1428,2,0,1610612741
100,1610612741,1627739,1628374,201152,203107,203897,1610612765,1628379,1628971,202693,203083,203503,0021900432,2,1434,1439,0,3,1610612765
101,1610612741,1627739,1628374,1628976,203897,203107,1610612765,203503,202693,203083,1628379,1628971,0021900432,3,1440,1465,0,0,1610612741
102,1610612741,1627739,1628374,1628976,203897,203107,1610612765,203503,202693,203083,1628379,1628971,0021900432,3,1486,1486,0,0,1610612765
103,1610612741,1627739,1628374,1628976,203897,203107,1610612765,203503,202693,203083,1628379,1628971,0021900432,3,1493,1493,0,0,1610612741
104,1610612741,1627739,1628374,1628976,203897,203107,1610612765,203503,202693,203083,1628379,1628971,0021900432,3,1498,1500,0,0,1610612765
105,1610612741,1627739,1628374,1628976,203897,203107,1610612765,203503,202693,203083,1628379,1628971,0021900432,3,1506,1506,2,0,1610612741
106,1610612741,1627739,1628374,1628976,203897,203107,1610612765,203503,202693,203083,1628379,1628971,0021900432,3,1526,1526,0,0,1610612765
107,1610612741,1627739,1628374,1628976,203897,203107,1610612765,203503,202693,203083,1628379,1628971,0021900432,3,1527,1536,0,0,1610612741
108,1610612741,1627739,1628374,1628976,203897,203107,1610612765,203503,202693,203083,1628379,1628971,0021900432,3,1553,1553,0,3,1610612765
109,1610612741,1627739,1628374,1628976,203897,203107,1610612765,203503,202693,203083,1628379,1628971,0021900432,3,1566,1566,3,0,1610612741
110,1610612741,1627739,1628374,1628976,203897,203107,1610612765,203503,202693,203083,1628379,1628971,0021900432,3,1595,1595,0,3,1610612765
111,1610612741,1627739,1628374,1628976,203897,203107,1610612765,203503,202693,203083,1628379,1628971,0021900432,3,1608,1608,2,0,1610612741
112,1610612741,1627739,1628374,1628976,203897,203107,1610612765,203503,202693,203083,1628379,1628971,0021900432,3,1616,1616,0,0,1610612765
113,1610612741,1627739,1628374,1628976,203897,203107,1610612765,203503,202693,203083,1628379,1628971,0021900432,3,1624,1624,3,0,1610612741
114,1610612741,1627739,1628374,1628976,203897,203107,1610612765,203503,202693,203083,1628379,1628971,0021900432,3,1642,1647,0,0,1610612765
115,1610612741,1627739,1628374,1628976,203897,203107,1610612765,203503,202693,203083,1628379,1628971,0021900432,3,1650,1650,1,0,1610612741
116,1610612741,1627739,1628374,1628976,203897,203107,1610612765,203503,202693,203083,1628379,1628971,0021900432,3,1659,1662,0,0,1610612765
117,1610612741,1627739,1628374,1628976,203897,203107,1610612765,203503,202693,203083,1628379,1628971,0021900432,3,1666,1666,2,0,1610612741
118,1610612741,1627739,1628374,1628976,203897,203107,1610612765,203503,202693,203083,1628379,1628971,0021900432,3,1666,1692,0,0,1610612765
119,1610612741,1627739,1628374,1628976,203897,203107,1610612765,203503,202693,203083,1628379,1628971,0021900432,3,1695,1695,2,0,1610612741
120,1610612741,1627739,1628374,1628976,203897,203107,1610612765,203503,202693,203083,1628379,1628971,0021900432,3,1706,1708,0,3,1610612765
121,1610612741,1627739,1628374,1628976,203897,203107,1610612765,203503,202693,203083,1628379,1628971,0021900432,3,1726,1735,0,0,1610612741
122,1610612741,1627739,1628374,1628976,203897,203107,1610612765,203503,202693,203083,1628379,1628971,0021900432,3,1752,1758,0,0,1610612765
123,1610612741,1627739,1628374,1628976,203897,203107,1610612765,203503,202693,203083,1628379,1628971,0021900432,3,1758,1758,0,0,1610612741
124,1610612741,1627739,1628374,1628976,203897,203107,1610612765,203503,202693,203083,1628379,1628971,0021900432,3,1769,1769,0,0,1610612765
125,1610612741,1627739,1628374,1628976,203897,203107,1610612765,203503,202693,203083,1628379,1628971,0021900432,3,1779,1779,3,0,1610612741
126,1610612741,1627739,1628374,1628976,203897,203107,1610612765,203503,202693,203083,1628379,1628971,0021900432,3,1792,1792,0,0,1610612765
127,1610612741,1627739,1628374,1628976,203897,203107,1610612765,203503,202693,203083,1628379,1628971,0021900432,3,1796,1796,2,0,1610612741
128,1610612741,1627739,1628374,1628976,203897,203107,1610612765,203503,202693,203083,1628379,1628971,0021900432,3,1806,1808,0,3,1610612765
129,1610612741,1627739,1628374,1628976,203897,203107,1610612765,1628379,1628971,203083,203503,204038,0021900432,3,1825,1828,0,0,1610612741
130,1610612741,1627739,1628374,1628976,203897,203107,1610612765,1628379,1628971,203083,203503,204038,0021900432,3,1837,1843,0,0,1610612765
131,1610612741,1627739,1628374,1628976,203897,203107,1610612765,1628379,1628971,203083,203503,204038,0021900432,3,1846,1846,2,0,1610612741
132,1610612741,1627739,1628374,1628976,203897,203107,1610612765,1628379,1628971,203083,203503,204038,0021900432,3,1867,1881,0,2,1610612765
133,1610612741,1627739,1628374,1628976,203897,203107,1610612765,1628379,1628971,203083,203503,204038,0021900432,3,1895,1895,3,0,1610612741
134,1610612741,1627739,1628374,1628976,203897,203107,1610612765,1628379,1628971,203083,203503,204038,0021900432,3,1918,1920,0,0,1610612765
135,1610612741,1627739,1628374,1628976,203897,203107,1610612765,1628379,1628971,203083,203503,204038,0021900432,3,1927,1930,0,0,1610612741
136,1610612741,1627739,1628374,1629632,1629655,203897,1610612765,1627748,1628379,203503,204025,204038,0021900432,3,1951,1952,0,0,1610612765
137,1610612741,1627739,1628374,1629632,1629655,203897,1610612765,1627748,1628379,203503,204025,204038,0021900432,3,1957,1957,3,0,1610612741
138,1610612741,1627739,1628374,1629632,1629655,203897,1610612765,1627748,1628379,203503,204025,204038,0021900432,3,1975,1975,0,3,1610612765
139,1610612741,1627739,1629632,1629655,201152,203897,1610612765,1627748,1629004,202693,204025,204038,0021900432,3,1990,1990,2,0,1610612741
140,1610612741,1627739,1629632,1629655,201152,203897,1610612765,1627748,1629004,202693,204025,204038,0021900432,3,2013,2013,0,3,1610612765
141,1610612741,1627739,1627756,1629632,1629655,201152,1610612765,1627748,1629004,202693,204025,204038,0021900432,3,2035,2035,3,0,1610612741
142,1610612741,1627739,1627756,1629632,1629655,201152,1610612765,1627748,1629004,202693,204025,204038,0021900432,3,2062,2062,0,2,1610612765
143,1610612741,1627739,1627756,1629632,1629655,201152,1610612765,1627748,1629004,202693,204025,204038,0021900432,3,2085,2090,2,0,1610612741
144,1610612741,1627739,1627756,1629632,1629655,201152,1610612765,1627748,1629004,202693,204025,204038,0021900432,3,2109,2109,0,2,1610612765
145,1610612741,1627739,1627756,1629632,1629655,201152,1610612765,1627748,1629004,202693,204025,204038,0021900432,3,2121,2121,3,0,1610612741
146,1610612741,1627739,1627756,1629632,1629655,201152,1610612765,1627748,1629004,202693,204025,204038,0021900432,3,2128,2128,0,0,1610612765
147,1610612741,1627739,1627756,1629632,1629655,201152,1610612765,1627748,1629004,202693,204025,204038,0021900432,3,2128,2128,2,0,1610612741
148,1610612741,1627739,1627756,1629632,1629655,201152,1610612765,1627748,1629004,202693,204025,204038,0021900432,3,2151,2151,0,3,1610612765
149,1610612741,1627739,1627756,1629632,1629655,201152,1610612765,1627748,1629004,202693,204025,204038,0021900432,3,2152,2152,0,0,1610612741
150,1610612741,1627739,1627756,1629632,1629655,201152,1610612765,1627748,1629004,202693,204025,204038,0021900432,3,2160,2160,0,3,1610612765
151,1610612741,1627739,1627756,1629632,1629655,201152,1610612765,1627748,1629004,202693,204025,204038,0021900432,3,2160,2160,0,0,450
152,1610612741,203107,1629632,1629655,201152,1627756,1610612765,202693,203083,1628971,1629004,204025,0021900432,4,2160,2177,0,0,1610612765
153,1610612741,203107,1629632,1629655,201152,1627756,1610612765,202693,203083,1628971,1629004,204025,0021900432,4,2189,2199,3,0,1610612741
154,1610612741,203107,1629632,1629655,201152,1627756,1610612765,202693,203083,1628971,1629004,204025,0021900432,4,2213,2228,0,2,1610612765
155,1610612741,203107,1629632,1629655,201152,1627756,1610612765,202693,203083,1628971,1629004,204025,0021900432,4,2253,2255,0,0,1610612741
156,1610612741,203107,1629632,1629655,201152,1627756,1610612765,202693,203083,1628971,1629004,204025,0021900432,4,2270,2285,0,0,1610612765
157,1610612741,203107,1629632,1629655,201152,1627756,1610612765,202693,203083,1628971,1629004,204025,0021900432,4,2292,2295,0,0,1610612741
158,1610612741,203107,1629632,1629655,201152,1627756,1610612765,202693,203083,1628971,1629004,204025,0021900432,4,2304,2304,0,3,1610612765
159,1610612741,203107,1629632,1629655,201152,1627756,1610612765,202693,203083,1628971,1629004,204025,0021900432,4,2319,2323,0,0,1610612741
160,1610612741,203107,1629632,1629655,201152,1627756,1610612765,202693,203083,1628971,1629004,204025,0021900432,4,2330,2330,0,2,1610612765
161,1610612741,203107,1629632,1629655,201152,1627756,1610612765,202693,203083,1628971,1629004,204025,0021900432,4,2330,2347,0,0,1610612741
162,1610612741,1628976,1629632,201152,203107,203897,1610612765,1628971,202693,203083,203503,204025,0021900432,4,2352,2352,0,0,1610612765
163,1610612741,1628976,1629632,201152,203107,203897,1610612765,1628971,202693,203083,203503,204025,0021900432,4,2367,2377,0,0,1610612741
164,1610612741,1628976,1629632,201152,203107,203897,1610612765,1628971,202693,203083,203503,204025,0021900432,4,2393,2396,0,0,1610612765
165,1610612741,1628976,1629632,201152,203107,203897,1610612765,1628971,202693,203083,203503,204025,0021900432,4,2407,2416,3,0,1610612741
166,1610612741,1627739,1628976,201152,203107,203897,1610612765,1628971,202693,203083,203503,204025,0021900432,4,2446,2448,0,0,1610612765
167,1610612741,1627739,1628976,201152,203107,203897,1610612765,1628971,202693,203083,203503,204025,0021900432,4,2469,2472,0,0,1610612741
168,1610612741,1627739,1628976,201152,203107,203897,1610612765,1628971,202693,203083,203503,204025,0021900432,4,2476,2476,0,0,1610612765
169,1610612741,1627739,1628976,201152,203107,203897,1610612765,1628971,202693,203083,203503,204025,0021900432,4,2478,2490,0,0,1610612741
170,1610612741,1627739,1628374,1628976,203107,203897,1610612765,1628379,1628971,203083,203503,204025,0021900432,4,2490,2519,0,0,1610612765
171,1610612741,1627739,1628374,1628976,203107,203897,1610612765,1628379,1628971,203083,203503,204025,0021900432,4,2524,2524,2,0,1610612741
172,1610612741,1627739,1628374,1628976,203107,203897,1610612765,1628379,1628971,203083,203503,204025,0021900432,4,2540,2540,0,3,1610612765
173,1610612741,1627739,1628374,1628976,203107,203897,1610612765,1628379,1628971,203083,203503,204025,0021900432,4,2563,2563,0,0,1610612741
174,1610612741,1627739,1628374,1628976,203107,203897,1610612765,1628379,1628971,203083,203503,204025,0021900432,4,2573,2573,0,0,1610612765
175,1610612741,1627739,1628374,1628976,203107,203897,1610612765,1628379,1628971,203083,203503,204025,0021900432,4,2573,2597,2,0,1610612741
176,1610612741,1627739,1628374,1628976,203107,203897,1610612765,1628379,1628971,203083,203503,204025,0021900432,4,2610,2613,0,0,1610612765
177,1610612741,1627739,1628374,1628976,203107,203897,1610612765,1628379,1628971,203083,203503,204025,0021900432,4,2618,2641,3,0,1610612741
178,1610612741,1627739,1628374,1628976,203107,203897,1610612765,1628379,1628971,202693,203083,204025,0021900432,4,2668,2671,0,0,1610612765
179,1610612741,1627739,1628374,1628976,203107,203897,1610612765,1628379,1628971,202693,203083,204025,0021900432,4,2689,2692,2,0,1610612741
180,1610612741,1627739,1628374,1628976,203107,203897,1610612765,1628379,1628971,202693,203083,204025,0021900432,4,2692,2706,0,0,1610612765
181,1610612741,1627739,1628374,1628976,203107,203897,1610612765,1628379,202693,203083,203503,204025,0021900432,4,2716,2716,0,0,1610612741
182,1610612741,1627739,1628374,1628976,203107,203897,1610612765,1628379,202693,203083,203503,204025,0021900432,4,2731,2745,0,2,1610612765
183,1610612741,1627739,1628374,1628976,203107,203897,1610612765,1628379,202693,203083,203503,204025,0021900432,4,2756,2756,3,0,1610612741
184,1610612741,1627739,1628374,1628976,203107,203897,1610612765,1628379,202693,203083,203503,204025,0021900432,4,2776,2777,0,0,1610612765
185,1610612741,1627739,1628374,1628976,203107,203897,1610612765,1628379,202693,203083,203503,204025,0021900432,4,2795,2795,2,0,1610612741
186,1610612741,1627739,1628374,1628976,203107,203897,1610612765,1628379,202693,203083,203503,204025,0021900432,4,2802,2802,0,3,1610612765
187,1610612741,1627739,1628374,1628976,203107,203897,1610612765,1628379,202693,203083,203503,204025,0021900432,4,2819,2819,0,0,1610612741
188,1610612741,1627739,1628374,1628976,203107,203897,1610612765,1628379,202693,203083,203503,204025,0021900432,4,2826,2826,0,0,1610612765
189,1610612741,1627739,1628374,1628976,203107,203897,1610612765,1628379,202693,203083,203503,204025,0021900432,4,2826,2826,2,0,1610612741
190,1610612741,1627739,1628374,1628976,203107,203897,1610612765,1628379,202693,203083,203503,204025,0021900432,4,2826,2834,0,3,1610612765
191,1610612741,1627739,1628374,1628976,203107,203897,1610612765,1628379,202693,203083,203503,204025,0021900432,4,2838,2838,2,0,1610612741
192,1610612741,1627739,1628374,1628976,203107,203897,1610612765,1628379,202693,203083,203503,204025,0021900432,4,2838,2840,0,0,1610612765
193,1610612741,1627739,1628374,1628976,203107,203897,1610612765,1628379,202693,203083,203503,204025,0021900432,4,2842,2842,2,0,1610612741
194,1610612741,1627739,1628374,1628976,203107,203897,1610612765,1628379,202693,203083,203503,204025,0021900432,4,2850,2851,0,0,1610612765
195,1610612741,1627739,1628374,1628976,203107,203897,1610612765,1628379,202693,203083,203503,204025,0021900432,4,2875,2875,0,0,1610612741
