,TEAM_ID_1,TEAM_1_PLAYERS,TEAM_ID_2,TEAM_2_PLAYERS,PERIOD
0,1610612763,[ 203937 1628991  203500 1630217 1629630],1610612750,[1630162 1629020 1626157 1626156  201976],1
1,1610612763,[ 203937 1628991 1629634 1626145 1629723],1610612750,[1626156 1627736 1630183 1629675 1627752],2
2,1610612763,[ 203937 1628991  203500 1630217 1629630],1610612750,[1630162 1629020 1626157 1626156  201976],3
3,1610612763,[1630533 1630214 1626145 1629723 1630583],1610612750,[1627736 1630183 1629675 1627752 1629162],4
