,team1_id,team1_player1,team1_player2,team1_player3,team1_player4,team1_player5,team2_id,team2_player1,team2_player2,team2_player3,team2_player4,team2_player5,game_id,period,possession_start,possession_end,team1_points,team2_points,possession_team
0,1610612763,203937,1628991,203500,1630217,1629630,1610612750,1630162,1629020,1626157,1626156,201976,0022100245,1,0,21,0,0,1610612763
1,1610612763,203937,1628991,203500,1630217,1629630,1610612750,1630162,1629020,1626157,1626156,201976,0022100245,1,33,35,0,2,1610612750
2,1610612763,203937,1628991,203500,1630217,1629630,1610612750,1630162,1629020,1626157,1626156,201976,0022100245,1,49,52,0,0,1610612763
3,1610612763,203937,1628991,203500,1630217,1629630,1610612750,1630162,1629020,1626157,1626156,201976,0022100245,1,60,60,0,3,1610612750
4,1610612763,203937,1628991,203500,1630217,1629630,1610612750,1630162,1629020,1626157,1626156,201976,0022100245,1,73,73,2,0,1610612763
5,1610612763,203937,1628991,203500,1630217,1629630,1610612750,1630162,1629020,1626157,1626156,201976,0022100245,1,88,88,0,2,1610612750
6,1610612763,203937,1628991,203500,1630217,1629630,1610612750,1630162,1629020,1626157,1626156,201976,0022100245,1,101,101,3,0,1610612763
7,1610612763,203937,1628991,203500,1630217,1629630,1610612750,1630162,1629020,1626157,1626156,201976,0022100245,1,112,112,0,3,1610612750
8,1610612763,203937,1628991,203500,1630217,1629630,1610612750,1630162,1629020,1626157,1626156,201976,0022100245,1,129,129,2,0,1610612763
9,1610612763,203937,1628991,203500,1630217,1629630,1610612750,1630162,1629020,1626157,1626156,201976,0022100245,1,154,169,0,2,1610612750
10,1610612763,203937,1628991,203500,1630217,1629630,1610612750,1630162,1629020,1626157,1626156,201976,0022100245,1,169,184,0,0,1610612763
11,1610612763,203937,1628991,203500,1630217,1629630,1610612750,1630162,1629020,1626157,1626156,201976,0022100245,1,195,210,0,0,1610612750
12,1610612763,203937,1628991,203500,1630217,1629630,1610612750,1630162,1629020,1626157,1626156,201976,0022100245,1,216,227,3,0,1610612763
13,1610612763,203937,1628991,203500,1630217,1629630,1610612750,1630162,1629020,1626157,1626156,201976,0022100245,1,242,242,0,2,1610612750
14,1610612763,203937,1628991,203500,1630217,1629630,1610612750,1630162,1629020,1626157,1626156,201976,0022100245,1,251,262,0,0,1610612763
15,1610612763,203937,1628991,203500,1630217,1629630,1610612750,1630162,1629020,1626157,1626156,201976,0022100245,1,269,274,0,0,1610612750
16,1610612763,203937,1628991,203500,1630217,1629630,1610612750,1630162,1629020,1626157,1626156,201976,0022100245,1,274,274,0,0,1610612763
17,1610612763,203937,1628991,203500,1630217,1629630,1610612750,1630162,1629020,1626157,1626156,201976,0022100245,1,274,274,0,3,1610612750
18,1610612763,203937,1628991,203500,1630217,1629630,1610612750,1630162,1629020,1626157,1626156,201976,0022100245,1,274,297,0,0,1610612763
19,1610612763,203937,1628991,203500,1630217,1629630,1610612750,1630162,1629020,1626157,1626156,201976,0022100245,1,302,311,0,2,1610612750
20,1610612763,203937,1628991,203500,1630217,1629630,1610612750,1630162,1629020,1626157,1626156,201976,0022100245,1,328,328,3,0,1610612763
21,1610612763,203937,1628991,203500,1630217,1629630,1610612750,1630162,1629020,1626157,1626156,201976,0022100245,1,349,351,0,0,1610612750
22,1610612763,203937,1628991,203500,1630217,1629630,1610612750,1630162,1629020,1626157,1626156,201976,0022100245,1,352,352,2,0,1610612763
23,1610612763,203937,1628991,203500,1630217,1629630,1610612750,1630162,1629020,1626157,1626156,201976,0022100245,1,371,371,0,0,1610612750
24,1610612763,1628991,1629630,1630217,1630533,203500,1610612750,1626157,1627736,1629020,1630162,201976,0022100245,1,383,383,0,0,1610612763
25,1610612763,1628991,1629630,1630217,1630533,203500,1610612750,1626157,1627736,1629020,1630162,201976,0022100245,1,387,387,0,3,1610612750
26,1610612763,1628991,1629630,1630217,1630533,203500,1610612750,1626157,1627736,1629020,1630162,201976,0022100245,1,416,418,0,0,1610612763
27,1610612763,1628991,1629630,1630217,1630533,203500,1610612750,1626157,1627736,1629020,1630162,201976,0022100245,1,429,429,0,3,1610612750
28,1610612763,1628991,1629630,1630217,1630533,203500,1610612750,1626157,1627736,1629020,1630162,201976,0022100245,1,444,444,3,0,1610612763
29,1610612763,1629630,1629634,1630214,1630217,1630533,1610612750,1626157,1627736,1630162,1630183,201976,0022100245,1,461,461,0,3,1610612750
30,1610612763,1629630,1629634,1630214,1630217,1630533,1610612750,1626157,1627736,1630162,1630183,201976,0022100245,1,480,480,2,0,1610612763
31,1610612763,1629630,1629634,1630214,1630217,1630533,1610612750,1626157,1627736,1630162,1630183,201976,0022100245,1,489,491,0,0,1610612750
32,1610612763,1629630,1629634,1630214,1630217,1630533,1610612750,1626157,1627736,1630162,1630183,201976,0022100245,1,491,507,0,0,1610612763
33,1610612763,1629630,1629634,1630214,1630217,1630533,1610612750,1626157,1627736,1630162,1630183,201976,0022100245,1,513,513,0,0,1610612750
34,1610612763,1629630,1629634,1630214,1630217,1630533,1610612750,1626157,1627736,1630162,1630183,201976,0022100245,1,519,522,0,0,1610612763
35,1610612763,1629630,1629634,1630214,1630217,1630533,1610612750,1626157,1627736,1630162,1630183,201976,0022100245,1,531,544,0,3,1610612750
36,1610612763,1626145,1629630,1629634,1630214,1630533,1610612750,1626156,1627736,1629675,1630162,1630183,0022100245,1,554,568,0,0,1610612763
37,1610612763,1626145,1629634,1629723,1630214,1630533,1610612750,1626156,1627736,1629675,1630162,1630183,0022100245,1,571,584,0,2,1610612750
38,1610612763,1626145,1629634,1629723,1630214,1630533,1610612750,1626156,1627736,1629675,1630162,1630183,0022100245,1,604,604,0,0,1610612763
39,1610612763,1626145,1629634,1629723,1630214,1630533,1610612750,1626156,1627736,1629675,1630162,1630183,0022100245,1,608,608,0,2,1610612750
40,1610612763,1626145,1629634,1629723,1630214,1630533,1610612750,1626156,1627736,1629675,1630162,1630183,0022100245,1,629,634,3,0,1610612763
41,1610612763,1626145,1629634,1629723,1630214,1630533,1610612750,1626156,1627736,1629675,1630162,1630183,0022100245,1,647,652,0,2,1610612750
42,1610612763,1626145,1629634,1629723,1630214,203937,1610612750,1626156,1627736,1629675,1630162,1630183,0022100245,1,673,674,0,0,1610612763
43,1610612763,1626145,1629634,1629723,1630214,203937,1610612750,1626156,1627736,1629675,1630162,1630183,0022100245,1,684,684,0,3,1610612750
44,1610612763,1626145,1629634,1629723,1630214,203937,1610612750,1626156,1627736,1629675,1630162,1630183,0022100245,1,695,701,0,0,1610612763
45,1610612763,1626145,1629634,1629723,1630214,203937,1610612750,1626156,1627736,1629675,1630162,1630183,0022100245,1,720,720,0,0,1610612750
46,1610612763,203937,1628991,1629634,1626145,1629723,1610612750,1626156,1627736,1630183,1629675,1627752,0022100245,2,720,735,0,0,1610612750
47,1610612763,203937,1628991,1629634,1626145,1629723,1610612750,1626156,1627736,1630183,1629675,1627752,0022100245,2,742,756,0,0,1610612763
48,1610612763,203937,1628991,1629634,1626145,1629723,1610612750,1626156,1627736,1630183,1629675,1627752,0022100245,2,762,762,0,3,1610612750
49,1610612763,203937,1628991,1629634,1626145,1629723,1610612750,1626156,1627736,1630183,1629675,1627752,0022100245,2,778,778,0,0,1610612763
50,1610612763,203937,1628991,1629634,1626145,1629723,1610612750,1626156,1627736,1630183,1629675,1627752,0022100245,2,781,781,0,2,1610612750
51,1610612763,203937,1628991,1629634,1626145,1629723,1610612750,1626156,1627736,1630183,1629675,1627752,0022100245,2,781,804,0,0,1610612763
52,1610612763,203937,1628991,1629634,1626145,1629723,1610612750,1626156,1627736,1630183,1629675,1627752,0022100245,2,822,822,0,2,1610612750
53,1610612763,203937,1628991,1629634,1626145,1629723,1610612750,1626156,1627736,1630183,1629675,1627752,0022100245,2,837,837,2,0,1610612763
54,1610612763,203937,1628991,1629634,1626145,1629723,1610612750,1626156,1627736,1630183,1629675,1627752,0022100245,2,849,849,0,0,1610612750
55,1610612763,203937,1628991,1629634,1626145,1629723,1610612750,1626156,1627736,1630183,1629675,1627752,0022100245,2,854,868,1,0,1610612763
56,1610612763,203937,1628991,1629634,1626145,1629723,1610612750,1626156,1627736,1630183,1629675,1627752,0022100245,2,874,883,0,0,1610612750
57,1610612763,203937,1628991,1629634,1626145,1629723,1610612750,1626156,1627736,1630183,1629675,1627752,0022100245,2,892,892,3,0,1610612763
58,1610612763,203937,1628991,1629634,1626145,1629723,1610612750,1626156,1627736,1630183,1629675,1627752,0022100245,2,902,902,0,2,1610612750
59,1610612763,203937,1628991,1629634,1626145,1629723,1610612750,1626156,1627736,1630183,1629675,1627752,0022100245,2,919,924,1,0,1610612763
60,1610612763,1626145,1628991,1629723,203500,203937,1610612750,1626156,1627736,1627752,1629020,1629675,0022100245,2,938,942,0,0,1610612750
61,1610612763,1626145,1628991,1629723,203500,203937,1610612750,1626156,1627736,1627752,1629020,1629675,0022100245,2,953,953,0,0,1610612763
62,1610612763,1626145,1628991,1629723,203500,203937,1610612750,1626156,1627736,1627752,1629020,1629675,0022100245,2,954,954,0,0,1610612750
63,1610612763,1626145,1628991,1629723,203500,203937,1610612750,1626156,1626157,1627736,1627752,1629020,0022100245,2,957,957,1,0,1610612763
64,1610612763,1626145,1628991,1629630,203500,203937,1610612750,1626156,1626157,1627736,1627752,1629020,0022100245,2,972,972,0,3,1610612750
65,1610612763,1626145,1628991,1629630,203500,203937,1610612750,1626156,1626157,1627736,1627752,1629020,0022100245,2,994,997,0,0,1610612763
66,1610612763,1626145,1628991,1629630,203500,203937,1610612750,1626156,1626157,1627736,1627752,1629020,0022100245,2,1002,1002,0,3,1610612750
67,1610612763,1626145,1628991,1629630,203500,203937,1610612750,1626156,1626157,1627736,1627752,1629020,0022100245,2,1002,1024,2,0,1610612763
68,1610612763,1628991,1629630,1630217,1630533,203500,1610612750,1626157,1627736,1627752,1629020,201976,0022100245,2,1036,1036,0,1,1610612750
69,1610612763,1628991,1629630,1630217,1630533,203500,1610612750,1626157,1627752,1629020,1630162,201976,0022100245,2,1048,1055,0,0,1610612763
70,1610612763,1628991,1629630,1630217,1630533,203500,1610612750,1626157,1627752,1629020,1630162,201976,0022100245,2,1067,1067,0,3,1610612750
71,1610612763,1628991,1629630,1630217,1630533,203500,1610612750,1626157,1627752,1629020,1630162,201976,0022100245,2,1078,1078,1,0,1610612763
72,1610612763,1629630,1629634,1630217,1630533,203500,1610612750,1626157,1627752,1629020,1630162,201976,0022100245,2,1091,1094,0,0,1610612750
73,1610612763,1629630,1629634,1630217,1630533,203500,1610612750,1626157,1627752,1629020,1630162,201976,0022100245,2,1098,1098,0,0,1610612763
74,1610612763,1629630,1629634,1630217,1630533,203500,1610612750,1626157,1627752,1629020,1630162,201976,0022100245,2,1110,1110,0,2,1610612750
75,1610612763,1629630,1629634,1630217,1630533,203500,1610612750,1626157,1627752,1629020,1630162,201976,0022100245,2,1128,1128,2,0,1610612763
76,1610612763,1629630,1629634,1630217,1630533,203500,1610612750,1626157,1627752,1629020,1630162,201976,0022100245,2,1146,1146,0,2,1610612750
77,1610612763,1629630,1629634,1630217,1630533,203500,1610612750,1626157,1627752,1629020,1630162,201976,0022100245,2,1156,1156,1,0,1610612763
78,1610612763,1629630,1629634,1630217,1630533,203500,1610612750,1627752,1629020,1629675,1630162,201976,0022100245,2,1179,1183,0,0,1610612750
79,1610612763,1629630,1629634,1630217,1630533,203500,1610612750,1626156,1629020,1629675,1630162,201976,0022100245,2,1200,1200,3,0,1610612763
80,1610612763,1629630,1629634,1630217,1630533,203500,1610612750,1626156,1629020,1629675,1630162,201976,0022100245,2,1201,1220,0,0,1610612750
81,1610612763,1629630,1629634,1630217,1630533,203500,1610612750,1626156,1629020,1629675,1630162,201976,0022100245,2,1237,1240,0,0,1610612763
82,1610612763,1629630,1629634,1630217,1630533,203500,1610612750,1626156,1629020,1629675,1630162,201976,0022100245,2,1249,1251,0,1,1610612750
83,1610612763,1626145,1628991,1629630,1630217,203937,1610612750,1626156,1629020,1629675,1630162,201976,0022100245,2,1259,1259,1,0,1610612763
84,1610612763,1626145,1628991,1629630,1630217,203937,1610612750,1626156,1629020,1629675,1630162,201976,0022100245,2,1276,1276,0,2,1610612750
85,1610612763,1626145,1628991,1629630,1630217,203937,1610612750,1626156,1629020,1629675,1630162,201976,0022100245,2,1294,1305,0,0,1610612763
86,1610612763,1626145,1628991,1629630,1630217,203937,1610612750,1626156,1629020,1629675,1630162,201976,0022100245,2,1321,1324,0,0,1610612750
87,1610612763,1626145,1628991,1629630,1630217,203937,1610612750,1626156,1629020,1629675,1630162,201976,0022100245,2,1326,1329,0,0,1610612763
88,1610612763,1626145,1628991,1629630,1630217,203937,1610612750,1626156,1629020,1629675,1630162,201976,0022100245,2,1330,1330,0,2,1610612750
89,1610612763,1626145,1628991,1629630,1630217,203937,1610612750,1626156,1629020,1629675,1630162,201976,0022100245,2,1350,1350,0,0,1610612763
90,1610612763,1626145,1628991,1629630,1630217,203937,1610612750,1626156,1629020,1629675,1630162,201976,0022100245,2,1368,1372,0,2,1610612750
91,1610612763,1626145,1628991,1629630,1630217,203937,1610612750,1626156,1629020,1629675,1630162,201976,0022100245,2,1384,1384,0,0,1610612763
92,1610612763,1626145,1628991,1629630,1630217,203937,1610612750,1626156,1629020,1629675,1630162,201976,0022100245,2,1387,1387,0,2,1610612750
93,1610612763,1626145,1628991,1629630,1630217,203937,1610612750,1626156,1629020,1629675,1630162,201976,0022100245,2,1410,1410,2,0,1610612763
94,1610612763,1626145,1628991,1629630,1630217,203937,1610612750,1626156,1629020,1629675,1630162,201976,0022100245,2,1434,1439,0,0,1610612750
95,1610612763,1626145,1628991,1629630,1630217,203937,1610612750,1626156,1629020,1629675,1630162,201976,0022100245,2,1440,1440,0,0,1610612750
96,1610612763,203937,1628991,203500,1630217,1629630,1610612750,1630162,1629020,1626157,1626156,201976,0022100245,3,1440,1463,0,2,1610612750
97,1610612763,203937,1628991,203500,1630217,1629630,1610612750,1630162,1629020,1626157,1626156,201976,0022100245,3,1479,1479,2,0,1610612763
98,1610612763,203937,1628991,203500,1630217,1629630,1610612750,1630162,1629020,1626157,1626156,201976,0022100245,3,1489,1492,0,0,1610612750
99,1610612763,203937,1628991,203500,1630217,1629630,1610612750,1630162,1629020,1626157,1626156,201976,0022100245,3,1508,1508,3,0,1610612763
100,1610612763,203937,1628991,203500,1630217,1629630,1610612750,1630162,1629020,1626157,1626156,201976,0022100245,3,1527,1529,0,0,1610612750
101,1610612763,203937,1628991,203500,1630217,1629630,1610612750,1630162,1629020,1626157,1626156,201976,0022100245,3,1534,1534,2,0,1610612763
102,1610612763,203937,1628991,203500,1630217,1629630,1610612750,1630162,1629020,1626157,1626156,201976,0022100245,3,1544,1557,0,2,1610612750
103,1610612763,203937,1628991,203500,1630217,1629630,1610612750,1630162,1629020,1626157,1626156,201976,0022100245,3,1577,1577,0,0,1610612763
104,1610612763,203937,1628991,203500,1630217,1629630,1610612750,1630162,1629020,1626157,1626156,201976,0022100245,3,1581,1584,0,1,1610612750
105,1610612763,203937,1628991,203500,1630217,1629630,1610612750,1630162,1629020,1626157,1626156,201976,0022100245,3,1594,1594,2,0,1610612763
106,1610612763,203937,1628991,203500,1630217,1629630,1610612750,1630162,1629020,1626157,1626156,201976,0022100245,3,1611,1611,0,3,1610612750
107,1610612763,203937,1628991,203500,1630217,1629630,1610612750,1630162,1629020,1626157,1626156,201976,0022100245,3,1637,1639,0,0,1610612763
108,1610612763,203937,1628991,203500,1630217,1629630,1610612750,1630162,1629020,1626157,1626156,201976,0022100245,3,1639,1656,0,2,1610612750
109,1610612763,203937,1628991,203500,1630217,1629630,1610612750,1630162,1629020,1626157,1626156,201976,0022100245,3,1671,1671,0,0,1610612763
110,1610612763,203937,1628991,203500,1630217,1629630,1610612750,1630162,1629020,1626157,1626156,201976,0022100245,3,1677,1677,0,3,1610612750
111,1610612763,203937,1628991,203500,1630217,1629630,1610612750,1630162,1629020,1626157,1626156,201976,0022100245,3,1694,1697,0,0,1610612763
112,1610612763,203937,1628991,203500,1630217,1629630,1610612750,1630162,1629020,1626157,1626156,201976,0022100245,3,1697,1697,0,2,1610612750
113,1610612763,203937,1628991,203500,1630217,1629630,1610612750,1630162,1629020,1626157,1626156,201976,0022100245,3,1714,1714,0,0,1610612763
114,1610612763,203937,1628991,203500,1630217,1629630,1610612750,1630162,1629020,1626157,1626156,201976,0022100245,3,1731,1731,0,3,1610612750
115,1610612763,203937,1628991,203500,1630217,1629630,1610612750,1630162,1629020,1626157,1626156,201976,0022100245,3,1737,1750,2,0,1610612763
116,1610612763,1628991,1629630,1629634,1630217,1630533,1610612750,1630162,1629020,1626157,1626156,201976,0022100245,3,1763,1763,0,3,1610612750
117,1610612763,1628991,1629630,1629634,1630217,1630533,1610612750,1630162,1629020,1626157,1626156,201976,0022100245,3,1776,1792,0,0,1610612763
118,1610612763,1628991,1629630,1629634,1630217,1630533,1610612750,1630162,1629020,1626157,1626156,201976,0022100245,3,1795,1795,0,3,1610612750
119,1610612763,1628991,1629630,1629634,1630217,1630533,1610612750,1630162,1629020,1626157,1626156,201976,0022100245,3,1795,1806,2,0,1610612763
120,1610612763,1628991,1629630,1629634,1630217,1630533,1610612750,1626156,1626157,1627736,1629020,1630162,0022100245,3,1826,1844,0,2,1610612750
121,1610612763,1628991,1629630,1629634,1630217,1630533,1610612750,1626156,1626157,1627736,1629020,1630162,0022100245,3,1866,1869,0,0,1610612763
122,1610612763,1628991,1629630,1629634,1630217,1630533,1610612750,1626156,1626157,1627736,1629020,1630162,0022100245,3,1869,1869,0,2,1610612750
123,1610612763,1628991,1629630,1629634,1630217,1630533,1610612750,1626156,1626157,1627736,1629020,1630162,0022100245,3,1878,1878,2,0,1610612763
124,1610612763,1628991,1629630,1629634,1630217,1630533,1610612750,1626156,1626157,1627736,1629020,1630183,0022100245,3,1889,1889,0,0,1610612750
125,1610612763,1628991,1629630,1629634,1630217,1630533,1610612750,1626156,1626157,1627736,1629020,1630183,0022100245,3,1893,1893,0,0,1610612763
126,1610612763,1628991,1629630,1629634,1630217,1630533,1610612750,1626156,1626157,1627736,1629020,1630183,0022100245,3,1897,1897,0,2,1610612750
127,1610612763,1628991,1629630,1629634,1630217,1630533,1610612750,1626156,1626157,1627736,1629020,1630183,0022100245,3,1916,1916,2,0,1610612763
128,1610612763,1628991,1629630,1629634,1630217,1630533,1610612750,1626156,1626157,1627736,1629020,1630183,0022100245,3,1940,1940,0,0,1610612750
129,1610612763,1628991,1629630,1629634,1630217,1630533,1610612750,1626156,1626157,1627736,1629020,1630183,0022100245,3,1954,1959,2,0,1610612763
130,1610612763,1628991,1629630,1629634,1630217,1630533,1610612750,1626156,1626157,1627736,1629020,1630183,0022100245,3,1967,1967,0,0,1610612750
131,1610612763,1628991,1629630,1629634,1630217,1630533,1610612750,1626157,1627736,1627752,1629162,1630183,0022100245,3,1974,1974,2,0,1610612763
132,1610612763,1628991,1629630,1629634,1630217,1630533,1610612750,1626157,1627736,1627752,1629162,1630183,0022100245,3,1994,1998,0,0,1610612750
133,1610612763,1626145,1629634,1629723,1630214,1630533,1610612750,1626157,1627736,1627752,1629162,1630183,0022100245,3,1998,2012,0,0,1610612763
134,1610612763,1626145,1629634,1629723,1630214,1630533,1610612750,1626157,1627736,1627752,1629162,1630183,0022100245,3,2018,2018,0,2,1610612750
135,1610612763,1626145,1629634,1629723,1630214,1630533,1610612750,1626157,1627736,1627752,1629162,1630183,0022100245,3,2037,2042,0,0,1610612763
136,1610612763,1626145,1629634,1629723,1630214,1630533,1610612750,1626157,1627736,1627752,1629162,1630183,0022100245,3,2050,2050,0,2,1610612750
137,1610612763,1626145,1629634,1629723,1630214,1630533,1610612750,1626157,1627736,1627752,1629162,1630183,0022100245,3,2065,2068,0,0,1610612763
138,1610612763,1626145,1629634,1629723,1630214,1630533,1610612750,1626157,1627736,1627752,1629162,1630183,0022100245,3,2074,2074,0,3,1610612750
139,1610612763,1626145,1629634,1629723,1630214,1630533,1610612750,1626157,1627736,1627752,1629162,1630183,0022100245,3,2096,2096,2,0,1610612763
140,1610612763,1626145,1629634,1629723,1630214,1630533,1610612750,1626157,1627736,1627752,1629162,1630183,0022100245,3,2120,2122,0,2,1610612750
141,1610612763,1626145,1629634,1629723,1630214,1630533,1610612750,1626157,1627736,1627752,1629162,1630183,0022100245,3,2127,2127,3,0,1610612763
142,1610612763,1626145,1629634,1629723,1630214,1630533,1610612750,1627736,1627752,1629162,1629675,1630183,0022100245,3,2136,2136,0,2,1610612750
143,1610612763,1626145,1629634,1629723,1630214,1630533,1610612750,1627736,1627752,1629162,1629675,1630183,0022100245,3,2157,2157,2,0,1610612763
144,1610612763,1626145,1629634,1629723,1630214,1630533,1610612750,1627736,1627752,1629162,1629675,1630183,0022100245,3,2160,2160,0,0,1610612763
145,1610612763,1630533,1630214,1626145,1629723,1630583,1610612750,1627736,1630183,1629675,1627752,1629162,0022100245,4,2160,2186,0,0,1610612763
146,1610612763,1630533,1630214,1626145,1629723,1630583,1610612750,1627736,1630183,1629675,1627752,1629162,0022100245,4,2201,2201,0,0,1610612750
147,1610612763,1630533,1630214,1626145,1629723,1630583,1610612750,1627736,1630183,1629675,1627752,1629162,0022100245,4,2201,2216,2,0,1610612763
148,1610612763,1630533,1630214,1626145,1629723,1630583,1610612750,1627736,1630183,1629675,1627752,1629162,0022100245,4,2234,2243,0,0,1610612750
149,1610612763,1630533,1630214,1626145,1629723,1630583,1610612750,1627736,1630183,1629675,1627752,1629162,0022100245,4,2257,2257,3,0,1610612763
150,1610612763,1630533,1630214,1626145,1629723,1630583,1610612750,1627736,1630183,1629675,1627752,1629162,0022100245,4,2273,2278,0,2,1610612750
151,1610612763,1630533,1630214,1626145,1629723,1630583,1610612750,1627736,1630183,1629675,1627752,1629162,0022100245,4,2292,2292,2,0,1610612763
152,1610612763,1630533,1630214,1626145,1629723,1630583,1610612750,1627736,1630183,1629675,1627752,1629162,0022100245,4,2305,2305,0,3,1610612750
153,1610612763,1630533,1630214,1626145,1629723,1630583,1610612750,1627736,1630183,1629675,1627752,1629162,0022100245,4,2321,2323,2,0,1610612763
154,1610612763,1630533,1630214,1626145,1629723,1630583,1610612750,1627736,1630183,1629675,1627752,1629162,0022100245,4,2341,2343,0,0,1610612750
155,1610612763,1630533,1630214,1626145,1629723,1630583,1610612750,1627736,1630183,1629675,1627752,1629162,0022100245,4,2345,2345,2,0,1610612763
156,1610612763,1630533,1630214,1626145,1629723,1630583,1610612750,1627736,1630183,1629675,1627752,1629162,0022100245,4,2345,2356,0,0,1610612750
157,1610612763,1630533,1630214,1626145,1629723,1630583,1610612750,1627736,1627752,1629162,1630183,1630233,0022100245,4,2380,2380,0,0,1610612763
158,1610612763,1630533,1630214,1626145,1629723,1630583,1610612750,1627736,1627752,1629162,1630183,1630233,0022100245,4,2394,2396,0,0,1610612750
159,1610612763,1630533,1630214,1626145,1629723,1630583,1610612750,1627736,1627752,1629162,1630183,1630233,0022100245,4,2408,2408,2,0,1610612763
160,1610612763,1629633,1629723,1630214,1630533,1630583,1610612750,1627752,1627774,1629162,1629669,1630233,0022100245,4,2427,2427,0,2,1610612750
161,1610612763,1629633,1629723,1630214,1630533,1630583,1610612750,1627752,1627774,1629162,1629669,1630233,0022100245,4,2428,2447,0,0,1610612763
162,1610612763,1629633,1629723,1630214,1630533,1630583,1610612750,1627752,1627774,1629162,1629669,1630233,0022100245,4,2457,2457,0,0,1610612750
163,1610612763,1629633,1629723,1630214,1630533,1630583,1610612750,1627752,1627774,1629162,1629669,1630233,0022100245,4,2459,2459,2,0,1610612763
164,1610612763,1629633,1629723,1630214,1630533,1630583,1610612750,1627752,1627774,1629162,1629669,1630233,0022100245,4,2467,2471,0,0,1610612750
165,1610612763,1629633,1629681,1629723,1630214,1630583,1610612750,1627774,1629162,1629669,1630195,1630233,0022100245,4,2485,2488,0,0,1610612763
166,1610612763,1629633,1629681,1629723,1630214,1630583,1610612750,1627774,1629162,1629669,1630195,1630233,0022100245,4,2493,2493,0,0,1610612750
167,1610612763,1629633,1629681,1629723,1630214,1630583,1610612750,1627774,1629162,1629669,1630195,1630233,0022100245,4,2499,2499,0,0,1610612763
168,1610612763,1629633,1629681,1629723,1630214,1630583,1610612750,1627774,1629162,1629669,1630195,1630233,0022100245,4,2499,2519,0,0,1610612750
169,1610612763,1629633,1629681,1629723,1630214,1630583,1610612750,1627774,1629162,1629669,1630195,1630233,0022100245,4,2523,2526,0,0,1610612763
170,1610612763,1629633,1629681,1629723,1630214,1630583,1610612750,1627774,1629162,1629669,1630195,1630233,0022100245,4,2529,2529,0,2,1610612750
171,1610612763,1629633,1629681,1629723,1630214,1630583,1610612750,1627774,1629162,1629669,1630195,1630233,0022100245,4,2530,2565,0,0,1610612763
172,1610612763,1629633,1629681,1629723,1630214,1630583,1610612750,1627774,1629162,1629669,1630195,1630233,0022100245,4,2571,2571,0,0,1610612750
173,1610612763,1629633,1629681,1629723,1630214,1630583,1610612750,1627774,1629162,1629669,1630195,1630233,0022100245,4,2576,2581,0,0,1610612763
174,1610612763,1629633,1629681,1629723,1630214,1630583,1610612750,1627774,1629162,1629669,1630195,1630233,0022100245,4,2593,2597,0,0,1610612750
175,1610612763,1629633,1629681,1629723,1630214,1630583,1610612750,1627774,1629162,1629669,1630195,1630233,0022100245,4,2606,2612,3,0,1610612763
176,1610612763,1629633,1629681,1629723,1630214,1630583,1610612750,1627774,1629162,1629669,1630195,1630233,0022100245,4,2625,2625,0,2,1610612750
177,1610612763,1629633,1629681,1629723,1630214,1630583,1610612750,1627774,1629162,1629669,1630195,1630233,0022100245,4,2642,2644,0,0,1610612763
178,1610612763,1629633,1629681,1629723,1630214,1630583,1610612750,1627774,1629162,1629669,1630195,1630233,0022100245,4,2661,2666,0,0,1610612750
179,1610612763,1629633,1629681,1629723,1630214,1630583,1610612750,1627774,1629162,1629669,1630195,1630233,0022100245,4,2668,2668,2,0,1610612763
180,1610612763,1629633,1629681,1629723,1630214,1630583,1610612750,1627774,1629162,1629669,1630195,1630233,0022100245,4,2682,2682,0,2,1610612750
181,1610612763,1629633,1629681,1629723,1630214,1630583,1610612750,1627774,1629162,1629669,1630195,1630233,0022100245,4,2697,2700,0,0,1610612763
182,1610612763,1629633,1629681,1629723,1630214,1630583,1610612750,1627774,1629162,1629669,1630195,1630233,0022100245,4,2706,2711,0,0,1610612750
183,1610612763,1629633,1629681,1629723,1630214,1630583,1610612750,1627774,1629162,1629669,1630195,1630233,0022100245,4,2718,2718,2,0,1610612763
184,1610612763,1629633,1629681,1629723,1630214,1630583,1610612750,1627774,1629162,1629669,1630195,1630233,0022100245,4,2730,2730,0,2,1610612750
185,1610612763,1629633,1629681,1629723,1630214,1630583,1610612750,1627774,1629162,1629669,1630195,1630233,0022100245,4,2740,2748,0,0,1610612763
186,1610612763,1629633,1629681,1629723,1630214,1630583,1610612750,1627774,1629162,1629669,1630195,1630233,0022100245,4,2751,2751,0,2,1610612750
187,1610612763,1629633,1629681,1629723,1630214,1630583,1610612750,1627774,1629162,1629669,1630195,1630233,0022100245,4,2769,2773,0,0,1610612763
188,1610612763,1629633,1629681,1629723,1630214,1630583,1610612750,1627774,1629162,1629669,1630195,1630233,0022100245,4,2779,2789,0,2,1610612750
189,1610612763,1629633,1629681,1629723,1630214,1630583,1610612750,1627774,1629162,1629669,1630195,1630233,0022100245,4,2799,2799,2,0,1610612763
190,1610612763,1629633,1629681,1629723,1630214,1630583,1610612750,1627774,1629162,1629669,1630195,1630233,0022100245,4,2810,2810,0,3,1610612750
191,1610612763,1629633,1629681,1629723,1630214,1630583,1610612750,1627774,1629162,1629669,1630195,1630233,0022100245,4,2830,2830,0,0,1610612763
192,1610612763,1629633,1629681,1629723,1630214,1630583,1610612750,1627774,1629162,1629669,1630195,1630233,0022100245,4,2853,2853,0,3,1610612750
193,1610612763,1629633,1629681,1629723,1630214,1630583,1610612750,1627774,1629162,1629669,1630195,1630233,0022100245,4,2864,2880,0,0,1610612763
