,TEAM_ID_1,TEAM_1_PLAYERS,TEAM_ID_2,TEAM_2_PLAYERS,PERIOD
0,1610612759,[1629640  203926 1627751 1628966 1628401],1610612763,[ 203937 1628991  203500 1630217 1629630],1
1,1610612759,[1627751 1628401 1630170 1629022 1627854],1610612763,[ 203937 1628991 1629634 1626145 1630270],2
2,1610612759,[1629640  203926 1627751 1628966 1628401],1610612763,[ 203937 1628991  203500 1630217 1629630],3
3,1610612759,[1627751 1628966 1628401 1630170 1627854],1610612763,[ 203937  203500 1630217 1630583 1626145],4
