,TEAM_ID_1,TEAM_1_PLAYERS,TEAM_ID_2,TEAM_2_PLAYERS,PERIOD
0,1610612753,[1628407  202329  202696  203095  203487],1610612740,[],1
1,1610612753,[ 202329  203095  203487  203082 1628964],1610612740,[],2
2,1610612753,[1628407  202329  202696  203095  203487],1610612740,[],3
3,1610612753,[ 202329  203095  203487  203082 1628964],1610612740,[],4
