,t1_points_scored,stint_end,stint_start,t1_id,t1_players,t2_players,t2_id,t2_points_scored,t2_pm,t1_pm,margin_per_100,num_poss
0,16,402,0,1610612760,"[1629647, 1630598, 1629676, 1630581, 1630544]","[1629656, 203944, 1629011, 203095, 202689]",1610612752,18,2,-2,-6.896551724137931,29.0
1,21,589,403,1610612760,"[1629647, 1630598, 1629676, 1630581, 1630544]","[1629656, 203944, 1629011, 203095, 202689]",1610612752,29,8,-8,-19.51219512195122,41.0
2,25,626,590,1610612760,"[1629647, 1629676, 1630177, 1630544, 1630598]","[1629656, 203944, 1629011, 203095, 202689]",1610612752,29,4,-4,-8.88888888888889,45.0
3,29,716,627,1610612760,"[1629026, 1630177, 1630197, 1630598, 202324]","[1629656, 201959, 202692, 203095, 203944]",1610612752,31,2,-2,-4.081632653061225,49.0
4,31,816,717,1610612760,"[1629026, 1629660, 1630177, 1630197, 202324]","[1629629, 201959, 202692, 203095, 203944]",1610612752,34,3,-3,-5.555555555555555,54.0
5,35,887,817,1610612760,"[1630177, 202324, 1630197, 1629026, 1629660]","[202692, 201959, 1629629, 1630193, 1630167]",1610612752,38,3,-3,-5.172413793103448,58.0
6,35,903,888,1610612760,"[1629026, 1629660, 1630197, 1630581, 202324]","[202692, 201959, 1629629, 1630193, 1630167]",1610612752,38,3,-3,-5.084745762711865,59.0
7,37,941,904,1610612760,"[1629026, 1629660, 1630197, 1630249, 1630581]","[202692, 201959, 1629629, 1630193, 1630167]",1610612752,38,1,-1,-1.6129032258064515,62.0
8,39,1002,942,1610612760,"[1629026, 1629660, 1630197, 1630249, 1630581]","[1629011, 1629629, 1630167, 1630193, 202692]",1610612752,40,1,-1,-1.5151515151515151,66.0
9,41,1041,1003,1610612760,"[1629026, 1629660, 1630197, 1630249, 1630581]","[1629011, 1629656, 1630167, 202692, 203095]",1610612752,40,-1,1,1.4492753623188406,69.0
10,46,1138,1042,1610612760,"[1629660, 1630197, 1630249, 1630581, 202324]","[1629011, 1629656, 202692, 203095, 203944]",1610612752,42,-4,4,5.333333333333334,75.0
11,46,1187,1139,1610612760,"[1629647, 1629660, 1630197, 1630581, 202324]","[1629011, 1629656, 202689, 203095, 203944]",1610612752,48,2,-2,-2.5,80.0
12,49,1301,1188,1610612760,"[1629647, 1629660, 1630197, 1630544, 202324]","[1629011, 1629656, 202689, 203095, 203944]",1610612752,53,4,-4,-4.545454545454546,88.0
13,57,1353,1302,1610612760,"[1629647, 1629676, 1630544, 1630581, 1630598]","[1629011, 1629656, 202689, 203095, 203944]",1610612752,56,-1,1,1.0752688172043012,93.0
14,61,1438,1354,1610612760,"[1629026, 1629647, 1630544, 1630581, 1630598]","[1629011, 1629656, 202689, 203095, 203944]",1610612752,62,1,-1,-0.9708737864077669,103.0
15,68,1699,1439,1610612760,"[1629026, 1629647, 1630581, 1630598, 202324]","[1629011, 1629656, 202689, 203095, 203944]",1610612752,79,11,-11,-9.166666666666666,120.0
16,78,1836,1700,1610612760,"[1629647, 1630598, 1629676, 1630581, 1630544]","[1629656, 203944, 1629011, 203095, 202689]",1610612752,83,5,-5,-3.8461538461538463,130.0
17,80,1877,1837,1610612760,"[1629647, 1630197, 1630581, 1630598, 202324]","[1629656, 203944, 1629011, 203095, 202689]",1610612752,85,5,-5,-3.7593984962406015,133.0
18,89,1997,1878,1610612760,"[1629647, 1630197, 1630581, 1630598, 202324]","[1629011, 1630193, 202689, 203095, 203944]",1610612752,87,-2,2,1.4184397163120568,141.0
19,91,2159,1998,1610612760,"[1629026, 1629647, 1630197, 1630581, 202324]","[1630193, 201959, 202689, 203095, 203944]",1610612752,94,3,-3,-2.0,150.0
20,94,2223,2160,1610612760,"[1629026, 1629660, 1630197, 1630249, 1630598]","[1630193, 201959, 202692, 203095, 203944]",1610612752,96,2,-2,-1.3071895424836601,153.0
21,94,2233,2224,1610612760,"[1630598, 1630581, 1630197, 1629026, 1629660]","[203095, 202692, 201959, 1630193, 1630167]",1610612752,96,2,-2,-1.2987012987012987,154.0
22,97,2317,2234,1610612760,"[1630598, 1630581, 1630197, 1629026, 1629660]","[1629011, 1630167, 1630193, 202692, 203095]",1610612752,100,3,-3,-1.875,160.0
23,97,2339,2318,1610612760,"[1630598, 1630581, 1630197, 1629026, 1629660]","[1629011, 1629656, 1630167, 1630193, 202692]",1610612752,100,3,-3,-1.8633540372670807,161.0
24,102,2447,2340,1610612760,"[1629026, 1629660, 1629676, 1630544, 1630598]","[1629011, 1629656, 1630167, 1630193, 202692]",1610612752,102,0,0,0.0,167.0
25,104,2518,2448,1610612760,"[1629647, 1629660, 1629676, 1630544, 1630598]","[1629011, 1629656, 1630193, 202692, 203944]",1610612752,104,0,0,0.0,171.0
26,104,2548,2519,1610612760,"[1629026, 1629647, 1629660, 1629676, 1630544]","[1629011, 1629629, 1629656, 202692, 203944]",1610612752,104,0,0,0.0,172.0
27,106,2554,2549,1610612760,"[1629026, 1629647, 1629660, 1629676, 1630544]","[1629011, 1629629, 202692, 203095, 203944]",1610612752,104,-2,2,1.1560693641618496,173.0
28,106,2583,2555,1610612760,"[1629026, 1629647, 1629676, 1630544, 1630581]","[1629011, 1629629, 202692, 203095, 203944]",1610612752,106,0,0,0.0,175.0
29,106,2671,2584,1610612760,"[1629647, 1629676, 1630544, 1630581, 1630598]","[1629011, 1629629, 202692, 203095, 203944]",1610612752,110,4,-4,-2.2222222222222223,180.0
30,106,2691,2672,1610612760,"[1629647, 1629676, 1630544, 1630581, 1630598]","[1629656, 201959, 202692, 203095, 203944]",1610612752,110,4,-4,-2.209944751381215,181.0
31,106,2768,2692,1610612760,"[1629026, 1629647, 1630581, 1630598, 202324]","[1629011, 1629656, 202692, 203095, 203944]",1610612752,110,4,-4,-2.1621621621621623,185.0
32,110,2859,2769,1610612760,"[1629026, 1629647, 1630544, 1630581, 202324]","[1629011, 1629656, 202692, 203095, 203944]",1610612752,110,0,0,0.0,192.0
33,112,2878,2860,1610612760,"[1629026, 1629647, 1630544, 1630581, 1630598]","[1629011, 1629656, 202692, 203095, 203944]",1610612752,112,0,0,0.0,195.0
34,122,3149,2879,1610612760,"[1629026, 1629647, 1629660, 1630544, 1630581]","[1629011, 1629656, 202692, 203095, 203944]",1610612752,118,-4,4,1.9047619047619049,210.0
35,122,3156,3150,1610612760,"[1629647, 1630581, 1630544, 202324, 1629026]","[1629656, 203944, 1629011, 203095, 202692]",1610612752,118,-4,4,1.8957345971563981,211.0
36,122,3156,3157,1610612760,"[1629026, 1629647, 1629660, 1630544, 1630581]","[1629656, 203944, 1629011, 203095, 202692]",1610612752,118,-4,4,1.8957345971563981,211.0
37,126,3171,3157,1610612760,"[1629026, 1629647, 1630544, 1630581, 202324]","[1629656, 203944, 1629011, 203095, 202692]",1610612752,123,-3,3,1.3953488372093024,215.0
38,126,3174,3172,1610612760,"[1629026, 1629647, 1630544, 1630581, 1630598]","[1629656, 203944, 1629011, 203095, 202692]",1610612752,123,-3,3,1.3953488372093024,215.0
39,126,3178,3175,1610612760,"[1629026, 1629647, 1629660, 1630581, 1630598]","[1629011, 1629656, 1630167, 202692, 203095]",1610612752,123,-3,3,1.3888888888888888,216.0
40,127,9999999,3179,1610612760,"[1629026, 1629647, 1630544, 1630581, 1630598]","[1629656, 1630167, 1630193, 202692, 203095]",1610612752,123,-4,4,1.834862385321101,218.0
