,TEAM_ID_1,TEAM_1_PLAYERS,TEAM_ID_2,TEAM_2_PLAYERS,PERIOD
0,1610612747,[1628398  202693  201188  203484  203471],1610612761,[1628384 1627783 1628449 1629018 1627761],1
1,1610612747,[1628398 1627936  202083 1629659 1629719],1610612761,[1627761 1630201  203382 1626169 1629139],2
2,1610612747,[1628398  202693  201188  203484  203471],1610612761,[1627783 1628449 1629018 1627761 1630201],3
3,1610612747,[1628398  201188 1627936  202083 1629659],1610612761,[1627761 1630201  203382 1626169 1629139],4
