,team1_id,team1_player1,team1_player2,team1_player3,team1_player4,team1_player5,team2_id,team2_player1,team2_player2,team2_player3,team2_player4,team2_player5,game_id,period,possession_start,possession_end,team1_points,team2_points,possession_team
0,1610612761,1628384,1627783,203458,1626181,1627832,1610612758,203084,1628963,1626158,1627741,1628368,0022000132,1,0,25,0,2,1610612758
1,1610612761,1628384,1627783,203458,1626181,1627832,1610612758,203084,1628963,1626158,1627741,1628368,0022000132,1,44,48,0,0,1610612761
2,1610612761,1628384,1627783,203458,1626181,1627832,1610612758,203084,1628963,1626158,1627741,1628368,0022000132,1,51,51,0,3,1610612758
3,1610612761,1628384,1627783,203458,1626181,1627832,1610612758,203084,1628963,1626158,1627741,1628368,0022000132,1,63,65,0,0,1610612761
4,1610612761,1628384,1627783,203458,1626181,1627832,1610612758,203084,1628963,1626158,1627741,1628368,0022000132,1,66,66,0,1,1610612758
5,1610612761,1628384,1627783,203458,1626181,1627832,1610612758,203084,1628963,1626158,1627741,1628368,0022000132,1,78,82,0,0,1610612761
6,1610612761,1628384,1627783,203458,1626181,1627832,1610612758,203084,1628963,1626158,1627741,1628368,0022000132,1,89,89,0,2,1610612758
7,1610612761,1628384,1627783,203458,1626181,1627832,1610612758,203084,1628963,1626158,1627741,1628368,0022000132,1,99,99,2,0,1610612761
8,1610612761,1628384,1627783,203458,1626181,1627832,1610612758,203084,1628963,1626158,1627741,1628368,0022000132,1,119,122,0,0,1610612758
9,1610612761,1628384,1627783,203458,1626181,1627832,1610612758,203084,1628963,1626158,1627741,1628368,0022000132,1,132,132,3,0,1610612761
10,1610612761,1628384,1627783,203458,1626181,1627832,1610612758,203084,1628963,1626158,1627741,1628368,0022000132,1,146,146,0,2,1610612758
11,1610612761,1628384,1627783,203458,1626181,1627832,1610612758,203084,1628963,1626158,1627741,1628368,0022000132,1,157,160,0,0,1610612761
12,1610612761,1628384,1627783,203458,1626181,1627832,1610612758,203084,1628963,1626158,1627741,1628368,0022000132,1,166,166,0,2,1610612758
13,1610612761,1628384,1627783,203458,1626181,1627832,1610612758,203084,1628963,1626158,1627741,1628368,0022000132,1,181,181,2,0,1610612761
14,1610612761,1628384,1627783,203458,1626181,1627832,1610612758,203084,1628963,1626158,1627741,1628368,0022000132,1,192,192,0,2,1610612758
15,1610612761,1628384,1627783,203458,1626181,1627832,1610612758,203084,1628963,1626158,1627741,1628368,0022000132,1,203,203,0,0,1610612761
16,1610612761,1628384,1627783,203458,1626181,1627832,1610612758,203084,1628963,1626158,1627741,1628368,0022000132,1,207,207,0,2,1610612758
17,1610612761,1628384,1627783,203458,1626181,1627832,1610612758,203084,1628963,1626158,1627741,1628368,0022000132,1,208,231,0,0,1610612761
18,1610612761,1628384,1627783,203458,1626181,1627832,1610612758,203084,1628963,1626158,1627741,1628368,0022000132,1,247,247,0,2,1610612758
19,1610612761,1628384,1627783,203458,1626181,1627832,1610612758,203084,1628963,1626158,1627741,1628368,0022000132,1,254,254,0,0,1610612761
20,1610612761,1628384,1627783,203458,1626181,1627832,1610612758,203084,1628963,1626158,1627741,1628368,0022000132,1,259,259,0,2,1610612758
21,1610612761,1628384,1627783,203458,1626181,1627832,1610612758,203084,1628963,1626158,1627741,1628368,0022000132,1,282,282,1,0,1610612761
22,1610612761,1626181,1627783,1627832,1628384,1628449,1610612758,1626158,1627741,1628368,1630169,203084,0022000132,1,290,290,0,2,1610612758
23,1610612761,1626181,1627783,1627832,1628384,1628449,1610612758,1626158,1627741,1628368,1630169,203084,0022000132,1,297,316,2,0,1610612761
24,1610612761,1626181,1627783,1627832,1628384,1628449,1610612758,1626158,1627741,1628368,1630169,203084,0022000132,1,326,326,0,2,1610612758
25,1610612761,1626181,1627783,1627832,1628384,1628449,1610612758,1626158,1627741,1628368,1630169,203084,0022000132,1,334,334,2,0,1610612761
26,1610612761,1626181,1627783,1627832,1628384,1628449,1610612758,1626158,1627741,1628368,1630169,203084,0022000132,1,344,351,0,3,1610612758
27,1610612761,1626181,1627783,1627832,1628384,1628449,1610612758,1626158,1627741,1630169,202709,203084,0022000132,1,368,368,2,0,1610612761
28,1610612761,1626181,1627783,1627832,1628384,1628449,1610612758,1626158,1627741,1630169,202709,203084,0022000132,1,387,387,0,2,1610612758
29,1610612761,1626181,1627783,1627832,1628384,1628449,1610612758,1626158,1627741,1630169,202709,203084,0022000132,1,398,409,3,0,1610612761
30,1610612761,1626181,1627783,1627832,1628384,1628449,1610612758,1626158,1627741,1630169,202709,203084,0022000132,1,418,418,0,0,1610612758
31,1610612761,1626181,1627783,1627832,1628384,1628449,1610612758,1626158,1627741,1630169,202709,203084,0022000132,1,431,431,0,0,1610612761
32,1610612761,1626181,1627783,1627832,1628384,1628449,1610612758,1626158,1627741,1630169,202709,203084,0022000132,1,445,445,0,3,1610612758
33,1610612761,1626181,1627783,1627832,1628384,1628449,1610612758,1626158,1627741,1630169,202709,203084,0022000132,1,455,459,0,0,1610612761
34,1610612761,1626181,1627783,1627832,1628384,1628449,1610612758,1626158,1627741,1630169,202709,203084,0022000132,1,470,470,0,3,1610612758
35,1610612761,1626181,1627783,1627832,1628384,1628449,1610612758,1626158,1627741,1630169,202709,203084,0022000132,1,480,480,2,0,1610612761
36,1610612761,1626181,1627783,1627832,1628384,1628449,1610612758,1626158,1627741,1630169,202709,203084,0022000132,1,480,480,2,0,1610612761
37,1610612761,1626181,1627783,1627832,1628384,1628449,1610612758,1626158,1627741,1630169,202709,203084,0022000132,1,480,496,0,2,1610612758
38,1610612761,1627783,1627832,1628449,1629056,1629139,1610612758,1627741,1628963,1630169,202357,202709,0022000132,1,510,510,2,0,1610612761
39,1610612761,1627783,1627832,1628449,1629056,1629139,1610612758,1627741,1628963,1630169,202357,202709,0022000132,1,531,531,0,3,1610612758
40,1610612761,1627783,1627832,1628449,1629056,1629139,1610612758,1627741,1628963,1630169,202357,202709,0022000132,1,542,542,3,0,1610612761
41,1610612761,1627783,1627832,1628449,1629056,1629139,1610612758,1627741,1628963,1630169,202357,202709,0022000132,1,563,576,0,0,1610612758
42,1610612761,1627783,1627832,1628449,1629056,1629139,1610612758,1627741,1628963,1630169,202357,202709,0022000132,1,581,581,2,0,1610612761
43,1610612761,1627783,1627832,1628449,1629056,1629139,1610612758,1627741,1628963,1630169,202357,202709,0022000132,1,600,600,0,0,1610612758
44,1610612761,1627783,1627832,1628449,1629056,1629139,1610612758,1627741,1628963,1630169,202357,202709,0022000132,1,604,604,2,0,1610612761
45,1610612761,1627783,1627832,1628449,1629056,1629139,1610612758,1627741,1628963,1630169,202357,202709,0022000132,1,604,626,0,0,1610612758
46,1610612761,1627832,1628384,1628449,1629056,1629139,1610612758,1628368,1628963,1630169,202357,202709,0022000132,1,631,631,0,0,1610612761
47,1610612761,1627832,1628384,1628449,1629056,1629139,1610612758,1628368,1628963,1630169,202357,202709,0022000132,1,640,640,0,0,1610612758
48,1610612761,1627832,1628384,1628449,1629056,1629139,1610612758,1628368,1628963,1630169,202357,202709,0022000132,1,650,650,3,0,1610612761
49,1610612761,1627832,1628384,1628449,1629056,1629139,1610612758,1628368,1628963,1630169,202357,202709,0022000132,1,666,666,0,3,1610612758
50,1610612761,1627832,1628384,1628449,1629056,1629139,1610612758,1628368,1628963,1630169,202357,202709,0022000132,1,690,695,2,0,1610612761
51,1610612761,1627832,1628384,1628449,1629056,1629139,1610612758,1628368,1628963,1630169,202357,202709,0022000132,1,713,713,0,0,1610612758
52,1610612761,1627832,1628384,1628449,1629056,1629139,1610612758,1628368,1628963,1630169,202357,202709,0022000132,1,717,717,2,0,1610612761
53,1610612761,1628384,1628449,1629139,1629056,1630201,1610612758,203084,1628963,1628368,202709,202357,0022000132,2,720,741,3,0,1610612761
54,1610612761,1628384,1628449,1629139,1629056,1630201,1610612758,203084,1628963,1628368,202709,202357,0022000132,2,757,757,0,0,1610612758
55,1610612761,1628384,1628449,1629139,1629056,1630201,1610612758,203084,1628963,1628368,202709,202357,0022000132,2,770,774,0,0,1610612761
56,1610612761,1628384,1628449,1629139,1629056,1630201,1610612758,203084,1628963,1628368,202709,202357,0022000132,2,784,784,0,1,1610612758
57,1610612761,1628384,1628449,1629139,1629056,1630201,1610612758,203084,1628963,1628368,202709,202357,0022000132,2,798,802,0,0,1610612761
58,1610612761,1628384,1628449,1629139,1629056,1630201,1610612758,203084,1628963,1628368,202709,202357,0022000132,2,812,812,0,2,1610612758
59,1610612761,1628384,1628449,1629139,1629056,1630201,1610612758,203084,1628963,1628368,202709,202357,0022000132,2,827,827,3,0,1610612761
60,1610612761,1628384,1628449,1629139,1629056,1630201,1610612758,203084,1628963,1628368,202709,202357,0022000132,2,843,843,0,2,1610612758
61,1610612761,1628384,1628449,1629139,1629056,1630201,1610612758,203084,1628963,1628368,202709,202357,0022000132,2,852,863,0,0,1610612761
62,1610612761,1627783,1628384,1629056,1629139,1630201,1610612758,203084,1628963,1628368,202709,202357,0022000132,2,867,867,0,2,1610612758
63,1610612761,1627783,1628384,1629056,1629139,1630201,1610612758,203084,1628963,1628368,202709,202357,0022000132,2,879,879,3,0,1610612761
64,1610612761,1627783,1628384,1629056,1629139,1630201,1610612758,203084,1628963,1628368,202709,202357,0022000132,2,886,886,0,0,1610612758
65,1610612761,1627783,1628384,1629056,1629139,1630201,1610612758,203084,1628963,1628368,202709,202357,0022000132,2,886,900,2,0,1610612761
66,1610612761,1627783,1628384,1629056,1629139,1630201,1610612758,203084,1628963,1628368,202709,202357,0022000132,2,916,918,0,0,1610612758
67,1610612761,1627783,1628384,1629056,1629139,1630201,1610612758,1626158,1630169,202357,202709,203084,0022000132,2,930,933,0,0,1610612761
68,1610612761,1627783,1628384,1629056,1629139,1630201,1610612758,1626158,1630169,202357,202709,203084,0022000132,2,943,943,0,3,1610612758
69,1610612761,1627783,1628384,1629056,1629139,1630201,1610612758,1626158,1630169,202357,202709,203084,0022000132,2,965,971,0,0,1610612761
70,1610612761,1627783,1628384,1629056,1629139,1630201,1610612758,1626158,1630169,202357,202709,203084,0022000132,2,977,980,0,0,1610612758
71,1610612761,1627783,1628384,1629056,1629139,1630201,1610612758,1626158,1630169,202357,202709,203084,0022000132,2,985,994,2,0,1610612761
72,1610612761,1626181,1627783,1627832,1628384,1629056,1610612758,1626158,1627741,1630169,202357,203084,0022000132,2,1016,1021,0,0,1610612758
73,1610612761,1626181,1627783,1627832,1628384,1629056,1610612758,1626158,1627741,1630169,202357,203084,0022000132,2,1035,1035,2,0,1610612761
74,1610612761,1626181,1627783,1627832,1628384,1629056,1610612758,1626158,1627741,1630169,202357,203084,0022000132,2,1060,1064,0,0,1610612758
75,1610612761,1626181,1627783,1627832,1628384,1629056,1610612758,1626158,1627741,1630169,202357,203084,0022000132,2,1068,1068,3,0,1610612761
76,1610612761,1626181,1627783,1627832,1628384,1629056,1610612758,1626158,1627741,1630169,202357,203084,0022000132,2,1069,1086,0,0,1610612758
77,1610612761,1626181,1627783,1627832,1628449,1629056,1610612758,1626158,1627741,1630169,203084,203922,0022000132,2,1097,1097,2,0,1610612761
78,1610612761,1626181,1627783,1627832,1628449,1629056,1610612758,1626158,1627741,1630169,203084,203922,0022000132,2,1111,1116,0,0,1610612758
79,1610612761,1626181,1627783,1627832,1628449,1629056,1610612758,1626158,1627741,1630169,203084,203922,0022000132,2,1118,1118,2,0,1610612761
80,1610612761,1626181,1627783,1627832,1628449,1629056,1610612758,1626158,1627741,1630169,203084,203922,0022000132,2,1126,1129,0,2,1610612758
81,1610612761,1626181,1627783,1627832,1628449,1629056,1610612758,1626158,1627741,1630169,203084,203922,0022000132,2,1150,1154,0,0,1610612761
82,1610612761,1626181,1627783,1627832,1628449,1629056,1610612758,1626158,1627741,1630169,203084,203922,0022000132,2,1158,1158,0,0,1610612758
83,1610612761,1626181,1627783,1627832,1628449,1629056,1610612758,1626158,1627741,1630169,203084,203922,0022000132,2,1164,1164,0,0,1610612761
84,1610612761,1626181,1627783,1627832,1628449,1629056,1610612758,1626158,1627741,1630169,203084,203922,0022000132,2,1168,1168,0,2,1610612758
85,1610612761,1626181,1627783,1627832,1628449,1629056,1610612758,1626158,1627741,1630169,203084,203922,0022000132,2,1180,1184,2,0,1610612761
86,1610612761,1626181,1627783,1627832,1628449,1630201,1610612758,1626158,1627741,1628368,1630169,203922,0022000132,2,1201,1201,0,3,1610612758
87,1610612761,1626181,1627783,1627832,1628449,1630201,1610612758,1626158,1627741,1628368,1630169,203922,0022000132,2,1214,1214,1,0,1610612761
88,1610612761,1626181,1627783,1627832,1628449,1630201,1610612758,1627741,1628368,1630169,203084,203922,0022000132,2,1232,1236,0,0,1610612758
89,1610612761,1626181,1627783,1627832,1628449,1630201,1610612758,1627741,1628368,1630169,203084,203922,0022000132,2,1245,1245,2,0,1610612761
90,1610612761,1626181,1627783,1627832,1628449,1630201,1610612758,1627741,1628368,1630169,203084,203922,0022000132,2,1263,1263,0,2,1610612758
91,1610612761,1626181,1627783,1627832,1628449,1630201,1610612758,1627741,1628368,1630169,203084,203922,0022000132,2,1278,1278,0,0,1610612761
92,1610612761,1626181,1627783,1627832,1628449,1630201,1610612758,1627741,1628368,1630169,203084,203922,0022000132,2,1282,1282,0,2,1610612758
93,1610612761,1626181,1627783,1627832,1628449,1630201,1610612758,1627741,1628368,1630169,203084,203922,0022000132,2,1301,1301,0,0,1610612761
94,1610612761,1626181,1627783,1627832,1628449,1630201,1610612758,1627741,1628368,1630169,203084,203922,0022000132,2,1301,1301,0,2,1610612758
95,1610612761,1626181,1627832,1628384,1628449,1630201,1610612758,1627741,1628368,1630169,203084,203922,0022000132,2,1316,1319,0,0,1610612761
96,1610612761,1626181,1627832,1628384,1628449,1630201,1610612758,1627741,1628368,1630169,203084,203922,0022000132,2,1327,1327,0,2,1610612758
97,1610612761,1626181,1627832,1628384,1628449,1630201,1610612758,1627741,1628368,1630169,203084,203922,0022000132,2,1344,1344,2,0,1610612761
98,1610612761,1626181,1627832,1628384,1629139,1630201,1610612758,1627741,1628368,1630169,203084,203922,0022000132,2,1365,1365,0,3,1610612758
99,1610612761,1626181,1627832,1628384,1629139,1630201,1610612758,1627741,1628368,1630169,203084,203922,0022000132,2,1385,1385,2,0,1610612761
100,1610612761,1626181,1627832,1628384,1629139,1630201,1610612758,1627741,1628368,1630169,203084,203922,0022000132,2,1393,1393,0,0,1610612758
101,1610612761,1626181,1627832,1628384,1629139,1630201,1610612758,1628368,1630169,202709,203084,203922,0022000132,2,1408,1408,2,0,1610612761
102,1610612761,1626181,1627832,1628384,1629139,1630201,1610612758,1628368,1630169,202709,203084,203922,0022000132,2,1413,1413,0,2,1610612758
103,1610612761,1626181,1627832,1628384,1629139,1630201,1610612758,1628368,1630169,202709,203084,203922,0022000132,2,1435,1435,3,0,1610612761
104,1610612761,1626181,1627832,1628384,1629139,1630201,1610612758,1628368,1630169,202709,203084,203922,0022000132,2,1439,1439,0,1,1610612758
105,1610612761,1626181,1627832,1628384,1629139,203458,1610612758,1628368,1630169,202709,203084,203922,0022000132,2,1440,1440,0,0,1610612758
106,1610612761,1628384,1627783,1626181,1627832,1628449,1610612758,203084,1628963,1626158,1627741,1628368,0022000132,3,1440,1463,3,0,1610612761
107,1610612761,1628384,1627783,1626181,1627832,1628449,1610612758,203084,1628963,1626158,1627741,1628368,0022000132,3,1480,1480,0,3,1610612758
108,1610612761,1628384,1627783,1626181,1627832,1628449,1610612758,203084,1628963,1626158,1627741,1628368,0022000132,3,1504,1508,2,0,1610612761
109,1610612761,1628384,1627783,1626181,1627832,1628449,1610612758,203084,1628963,1626158,1627741,1628368,0022000132,3,1514,1514,0,2,1610612758
110,1610612761,1628384,1627783,1626181,1627832,1628449,1610612758,203084,1628963,1626158,1627741,1628368,0022000132,3,1530,1530,2,0,1610612761
111,1610612761,1628384,1627783,1626181,1627832,1628449,1610612758,203084,1628963,1626158,1627741,1628368,0022000132,3,1536,1556,0,0,1610612758
112,1610612761,1628384,1627783,1626181,1627832,1628449,1610612758,203084,1628963,1626158,1627741,1628368,0022000132,3,1559,1559,2,0,1610612761
113,1610612761,1628384,1627783,1626181,1627832,1628449,1610612758,203084,1628963,1626158,1627741,1628368,0022000132,3,1570,1593,0,2,1610612758
114,1610612761,1626181,1627783,1627832,1628449,1629139,1610612758,203084,1628963,1626158,1627741,1628368,0022000132,3,1608,1608,2,0,1610612761
115,1610612761,1626181,1627783,1627832,1628449,1629139,1610612758,203084,1628963,1626158,1627741,1628368,0022000132,3,1628,1628,0,2,1610612758
116,1610612761,1626181,1627783,1627832,1628449,1629139,1610612758,203084,1628963,1626158,1627741,1628368,0022000132,3,1642,1642,2,0,1610612761
117,1610612761,1626181,1627783,1627832,1628449,1629139,1610612758,203084,1628963,1626158,1627741,1628368,0022000132,3,1660,1663,0,0,1610612758
118,1610612761,1626181,1627783,1627832,1628449,1629139,1610612758,203084,1628963,1626158,1627741,1628368,0022000132,3,1666,1669,0,0,1610612761
119,1610612761,1626181,1627783,1627832,1628449,1629139,1610612758,203084,1628963,1626158,1627741,1628368,0022000132,3,1673,1678,0,0,1610612758
120,1610612761,1626181,1627783,1627832,1628449,1629139,1610612758,203084,1628963,1626158,1627741,1628368,0022000132,3,1680,1680,3,0,1610612761
121,1610612761,1626181,1627783,1627832,1628449,1629139,1610612758,203084,1628963,1626158,1627741,1628368,0022000132,3,1681,1693,0,0,1610612758
122,1610612761,1626181,1627783,1627832,1628449,1629139,1610612758,1627741,1628368,1628963,1630169,203084,0022000132,3,1704,1711,3,0,1610612761
123,1610612761,1626181,1627783,1627832,1628449,1629139,1610612758,1627741,1628368,1628963,1630169,203084,0022000132,3,1727,1727,0,0,1610612758
124,1610612761,1626181,1627783,1627832,1628449,1629139,1610612758,1627741,1628368,1628963,1630169,203084,0022000132,3,1738,1741,0,0,1610612761
125,1610612761,1626181,1627783,1627832,1628449,1629139,1610612758,1627741,1628368,1628963,1630169,203084,0022000132,3,1746,1748,0,2,1610612758
126,1610612761,1626181,1627783,1627832,1628449,1629139,1610612758,1627741,1628963,1630169,202709,203084,0022000132,3,1762,1770,2,0,1610612761
127,1610612761,1626181,1627783,1627832,1628449,1629139,1610612758,1627741,1628963,1630169,202709,203084,0022000132,3,1780,1780,0,3,1610612758
128,1610612761,1626181,1627783,1627832,1628449,1629139,1610612758,1627741,1628963,1630169,202709,203084,0022000132,3,1805,1805,3,0,1610612761
129,1610612761,1626181,1627783,1627832,1628449,1629139,1610612758,1627741,1628963,1630169,202709,203084,0022000132,3,1817,1817,0,3,1610612758
130,1610612761,1626181,1627783,1627832,1628449,1629139,1610612758,1627741,1628963,1630169,202709,203084,0022000132,3,1832,1832,2,0,1610612761
131,1610612761,1626181,1627783,1627832,1628449,1629139,1610612758,1627741,1628963,1630169,202709,203084,0022000132,3,1845,1845,0,2,1610612758
132,1610612761,1626181,1627783,1627832,1628449,1629139,1610612758,1627741,1628963,1630169,202709,203084,0022000132,3,1858,1858,3,0,1610612761
133,1610612761,1626181,1627783,1627832,1628449,1629139,1610612758,1627741,1628963,1630169,202709,203084,0022000132,3,1871,1875,0,0,1610612758
134,1610612761,1626181,1627783,1627832,1628449,1629139,1610612758,1627741,1628963,1630169,202709,203084,0022000132,3,1886,1890,1,0,1610612761
135,1610612761,1626169,1627832,1628449,1629056,1629139,1610612758,1626158,1627741,1630169,202709,203922,0022000132,3,1900,1900,0,2,1610612758
136,1610612761,1626169,1627832,1628449,1629056,1629139,1610612758,1626158,1627741,1630169,202709,203922,0022000132,3,1920,1920,3,0,1610612761
137,1610612761,1626169,1627832,1628449,1629056,1629139,1610612758,1626158,1627741,1630169,202709,203922,0022000132,3,1944,1944,0,2,1610612758
138,1610612761,1626169,1627832,1628449,1629056,1629139,1610612758,1626158,1627741,1630169,202709,203922,0022000132,3,1958,1958,2,0,1610612761
139,1610612761,1626169,1627832,1628449,1629056,1629139,1610612758,1626158,1627741,1630169,202709,203922,0022000132,3,1988,1990,0,0,1610612758
140,1610612761,1626169,1627832,1628449,1629056,1629139,1610612758,1626158,1627741,1630169,202709,203922,0022000132,3,1994,2015,0,0,1610612761
141,1610612761,1626169,1627832,1628449,1629056,1629139,1610612758,1626158,1628368,1630169,202709,203922,0022000132,3,2038,2045,0,3,1610612758
142,1610612761,1626169,1627783,1628449,1629056,1630201,1610612758,1626158,1628368,1630169,202709,203922,0022000132,3,2062,2065,0,0,1610612761
143,1610612761,1626169,1627783,1628449,1629056,1630201,1610612758,1626158,1628368,1630169,202709,203922,0022000132,3,2070,2070,0,3,1610612758
144,1610612761,1626169,1627783,1628449,1629056,1630201,1610612758,1626158,1628368,1630169,202709,203922,0022000132,3,2091,2091,0,0,1610612761
145,1610612761,1626169,1627783,1628449,1629056,1630201,1610612758,1626158,1628368,1630169,202709,203922,0022000132,3,2099,2102,0,0,1610612758
146,1610612761,1626169,1627783,1628449,1629056,1630201,1610612758,1626158,1628368,1630169,202709,203922,0022000132,3,2106,2106,3,0,1610612761
147,1610612761,1626169,1627783,1628449,1629056,1630201,1610612758,1626158,1628368,1630169,202709,203922,0022000132,3,2124,2128,0,0,1610612758
148,1610612761,1626169,1627783,1628449,1629056,1630201,1610612758,1626158,1628368,1630169,202709,203922,0022000132,3,2131,2135,0,0,1610612761
149,1610612761,1626169,1627783,1628449,1629056,1630201,1610612758,1626158,1628368,1630169,202709,203922,0022000132,3,2139,2143,0,0,1610612758
150,1610612761,1626169,1627783,1628449,1629056,1630201,1610612758,1626158,1628368,1630169,202709,203922,0022000132,3,2153,2160,2,0,1610612761
151,1610612761,1628384,1627783,1629056,1630201,1626169,1610612758,203084,1626158,1627741,1628368,202709,0022000132,4,2160,2173,0,1,1610612758
152,1610612761,1628384,1627783,1629056,1630201,1626169,1610612758,203084,1626158,1627741,1628368,202709,0022000132,4,2183,2183,3,0,1610612761
153,1610612761,1628384,1627783,1629056,1630201,1626169,1610612758,203084,1626158,1627741,1628368,202709,0022000132,4,2202,2205,0,0,1610612758
154,1610612761,1628384,1627783,1629056,1630201,1626169,1610612758,203084,1626158,1627741,1628368,202709,0022000132,4,2212,2212,3,0,1610612761
155,1610612761,1628384,1627783,1629056,1630201,1626169,1610612758,203084,1626158,1627741,1628368,202709,0022000132,4,2229,2229,0,2,1610612758
156,1610612761,1628384,1627783,1629056,1630201,1626169,1610612758,203084,1626158,1627741,1628368,202709,0022000132,4,2249,2249,2,0,1610612761
157,1610612761,1628384,1627783,1629056,1630201,1626169,1610612758,203084,1626158,1627741,1628368,202709,0022000132,4,2259,2262,0,0,1610612758
158,1610612761,1628384,1627783,1629056,1630201,1626169,1610612758,203084,1626158,1627741,1628368,202709,0022000132,4,2265,2265,3,0,1610612761
159,1610612761,1628384,1627783,1629056,1630201,1626169,1610612758,203084,1626158,1627741,1628368,202709,0022000132,4,2265,2289,0,0,1610612758
160,1610612761,1628384,1627783,1629056,1630201,1626169,1610612758,1626158,1627741,1630169,202709,203922,0022000132,4,2294,2295,3,0,1610612761
161,1610612761,1628384,1627783,1629056,1630201,1626169,1610612758,1627741,1628963,1630169,202709,203922,0022000132,4,2323,2323,0,3,1610612758
162,1610612761,1628384,1627783,1629056,1630201,1626169,1610612758,1627741,1628963,1630169,202709,203922,0022000132,4,2342,2342,2,0,1610612761
163,1610612761,1628384,1627783,1629056,1630201,1626169,1610612758,1627741,1628963,1630169,202709,203922,0022000132,4,2352,2355,0,0,1610612758
164,1610612761,1628384,1627783,1629056,1630201,1626169,1610612758,1627741,1628963,1630169,202709,203922,0022000132,4,2368,2368,3,0,1610612761
165,1610612761,1628384,1627783,1629056,1630201,1626169,1610612758,1627741,1628963,1630169,202709,203922,0022000132,4,2388,2388,0,2,1610612758
166,1610612761,1628384,1627783,1629056,1630201,1626169,1610612758,1627741,1628963,1630169,202709,203922,0022000132,4,2417,2417,0,0,1610612761
167,1610612761,1628384,1627783,1629056,1630201,1626169,1610612758,1627741,1628963,1630169,202709,203922,0022000132,4,2422,2425,0,0,1610612758
168,1610612761,1628384,1627783,1629056,1630201,1626169,1610612758,1627741,1628963,1630169,202709,203922,0022000132,4,2429,2441,3,0,1610612761
169,1610612761,1626169,1626181,1627783,1627832,1628384,1610612758,1627741,1628963,1630169,203084,203922,0022000132,4,2463,2466,0,0,1610612758
170,1610612761,1626169,1626181,1627832,1628384,1628449,1610612758,1627741,1628963,1630169,203084,203922,0022000132,4,2475,2489,0,0,1610612761
171,1610612761,1626169,1626181,1627832,1628384,1628449,1610612758,1627741,1628963,1630169,203084,203922,0022000132,4,2494,2497,0,0,1610612758
172,1610612761,1626169,1626181,1627832,1628384,1628449,1610612758,1627741,1628963,1630169,203084,203922,0022000132,4,2513,2513,2,0,1610612761
173,1610612761,1626169,1626181,1627832,1628384,1628449,1610612758,1627741,1628963,1630169,203084,203922,0022000132,4,2535,2538,0,0,1610612758
174,1610612761,1626169,1626181,1627832,1628384,1628449,1610612758,1628963,1629657,1629713,1630169,203922,0022000132,4,2548,2548,0,0,1610612761
175,1610612761,1626169,1626181,1627832,1628384,1628449,1610612758,1628963,1629657,1629713,1630169,203922,0022000132,4,2554,2554,0,2,1610612758
176,1610612761,1626169,1626181,1627832,1628384,1628449,1610612758,1628963,1629657,1629713,1630169,203922,0022000132,4,2572,2572,0,0,1610612761
177,1610612761,1626169,1626181,1627832,1628384,1628449,1610612758,1628963,1629657,1629713,1630186,203922,0022000132,4,2585,2589,0,0,1610612758
178,1610612761,1626181,1627783,1627832,1628384,1628449,1610612758,1628963,1629657,1629713,1630186,203922,0022000132,4,2605,2605,2,0,1610612761
179,1610612761,1626181,1627783,1627832,1628384,1628449,1610612758,1628963,1629657,1629713,1630186,203922,0022000132,4,2605,2621,0,0,1610612758
180,1610612761,1626181,1627783,1627832,1628384,1628449,1610612758,1628963,1629657,1629713,1630186,203922,0022000132,4,2632,2636,0,0,1610612761
181,1610612761,1626181,1627783,1627832,1628384,1628449,1610612758,1628963,1629657,1629713,1630186,203922,0022000132,4,2648,2661,0,2,1610612758
182,1610612761,1626169,1627761,1629056,1629139,1630201,1610612758,1628963,1629657,1629713,1630186,1630218,0022000132,4,2680,2680,0,0,1610612761
183,1610612761,1626169,1627761,1629056,1629139,1630201,1610612758,1628963,1629657,1629713,1630186,1630218,0022000132,4,2688,2688,0,0,1610612758
184,1610612761,1626169,1627761,1629056,1629139,1630201,1610612758,1628963,1629657,1629713,1630186,1630218,0022000132,4,2701,2704,0,0,1610612761
185,1610612761,1626169,1627761,1629056,1629139,1630201,1610612758,1628963,1629657,1629713,1630186,1630218,0022000132,4,2709,2714,0,0,1610612758
186,1610612761,1626169,1627761,1629056,1629139,1630201,1610612758,1628963,1629657,1629713,1630186,1630218,0022000132,4,2732,2732,0,0,1610612761
187,1610612761,1626169,1627761,1629056,1629139,1630201,1610612758,1628963,1629657,1629713,1630186,1630218,0022000132,4,2737,2739,0,0,1610612758
188,1610612761,1626169,1627761,1629056,1629139,1630201,1610612758,1628963,1629657,1629713,1630186,1630218,0022000132,4,2743,2743,0,0,1610612761
189,1610612761,1626169,1627761,1628778,1629744,1630223,1610612758,1628963,1629657,1629713,1630186,1630218,0022000132,4,2751,2751,0,3,1610612758
190,1610612761,1626169,1627761,1628778,1629744,1630223,1610612758,1628963,1629657,1629713,1630186,1630218,0022000132,4,2771,2774,2,0,1610612761
191,1610612761,1626169,1627761,1628778,1629744,1630223,1610612758,1628963,1629657,1629713,1630186,1630218,0022000132,4,2781,2781,0,0,1610612758
192,1610612761,1626169,1627761,1628778,1629744,1630223,1610612758,1628963,1629657,1629713,1630186,1630218,0022000132,4,2784,2784,2,0,1610612761
193,1610612761,1626169,1627761,1628778,1629744,1630223,1610612758,1628963,1629657,1629713,1630186,1630218,0022000132,4,2800,2800,0,2,1610612758
194,1610612761,1626169,1627761,1628778,1629744,1630223,1610612758,1628963,1629657,1629713,1630186,1630218,0022000132,4,2812,2816,0,0,1610612761
195,1610612761,1626169,1627761,1628778,1629744,1630223,1610612758,1628963,1629657,1629713,1630186,1630218,0022000132,4,2821,2823,0,3,1610612758
196,1610612761,1626169,1627761,1628778,1629744,1630223,1610612758,1628963,1629657,1629713,1630186,1630218,0022000132,4,2836,2836,3,0,1610612761
197,1610612761,1626169,1627761,1628778,1629744,1630223,1610612758,1628963,1629657,1629713,1630186,1630218,0022000132,4,2856,2860,0,0,1610612758
198,1610612761,1626169,1627761,1628778,1629744,1630223,1610612758,1628963,1629657,1629713,1630186,1630218,0022000132,4,2880,2880,0,0,1610612761
