,team1_id,team1_player1,team1_player2,team1_player3,team1_player4,team1_player5,team2_id,team2_player1,team2_player2,team2_player3,team2_player4,team2_player5,game_id,period,possession_start,possession_end,team1_points,team2_points,possession_team
0,1610612765,1626169,1627740,203083,203493,101181,1610612760,1627789,202335,203500,1628390,203471,0011800023,1,0,24,3,0,1610612765
1,1610612765,1626169,1627740,203083,203493,101181,1610612760,1627789,202335,203500,1628390,203471,0011800023,1,41,43,0,0,1610612760
2,1610612765,1626169,1627740,203083,203493,101181,1610612760,1627789,202335,203500,1628390,203471,0011800023,1,47,47,0,0,1610612765
3,1610612765,1626169,1627740,203083,203493,101181,1610612760,1627789,202335,203500,1628390,203471,0011800023,1,63,63,0,2,1610612760
4,1610612765,1626169,1627740,203083,203493,101181,1610612760,1627789,202335,203500,1628390,203471,0011800023,1,77,89,1,0,1610612765
5,1610612765,1626169,1627740,203083,203493,101181,1610612760,1627789,202335,203500,1628390,203471,0011800023,1,97,97,0,2,1610612760
6,1610612765,1626169,1627740,203083,203493,101181,1610612760,1627789,202335,203500,1628390,203471,0011800023,1,113,115,0,0,1610612765
7,1610612765,1626169,1627740,203083,203493,101181,1610612760,1627789,202335,203500,1628390,203471,0011800023,1,124,128,0,0,1610612760
8,1610612765,1626169,1627740,203083,203493,101181,1610612760,1627789,202335,203500,1628390,203471,0011800023,1,139,143,0,0,1610612765
9,1610612765,1626169,1627740,203083,203493,101181,1610612760,1627789,202335,203500,1628390,203471,0011800023,1,154,157,0,0,1610612760
10,1610612765,1626169,1627740,203083,203493,101181,1610612760,1627789,202335,203500,1628390,203471,0011800023,1,165,168,0,0,1610612765
11,1610612765,1626169,1627740,203083,203493,101181,1610612760,1627789,202335,203500,1628390,203471,0011800023,1,173,184,0,0,1610612760
12,1610612765,1626169,1627740,203083,203493,101181,1610612760,1627789,202335,203500,1628390,203471,0011800023,1,197,198,1,0,1610612765
13,1610612765,1626169,1627740,203083,203493,101181,1610612760,1627789,202335,203500,1628390,203471,0011800023,1,210,210,0,2,1610612760
14,1610612765,1626169,1627740,203083,203493,101181,1610612760,1627789,202335,203500,1628390,203471,0011800023,1,224,224,3,0,1610612765
15,1610612765,1626169,1627740,203083,203493,101181,1610612760,1627789,202335,203500,1628390,203471,0011800023,1,237,237,0,3,1610612760
16,1610612765,1626169,1627740,203083,203493,101181,1610612760,1627789,202335,203500,1628390,203471,0011800023,1,259,262,0,0,1610612765
17,1610612765,1626169,1627740,203083,203493,101181,1610612760,1627789,202335,203500,1628390,203471,0011800023,1,263,274,0,2,1610612760
18,1610612765,101181,1627740,203083,203493,203922,1610612760,1627789,202335,203500,1628390,203471,0011800023,1,289,292,0,0,1610612765
19,1610612765,101181,1627740,203083,203493,203922,1610612760,1627789,202335,203500,1628390,203471,0011800023,1,297,297,0,3,1610612760
20,1610612765,101181,1627740,203083,203493,203922,1610612760,1627789,202335,203500,1628390,203471,0011800023,1,305,307,0,0,1610612765
21,1610612765,1627740,202397,203083,203493,203922,1610612760,1627789,202335,203500,1628390,203471,0011800023,1,316,318,0,2,1610612760
22,1610612765,1627740,202397,203083,203493,203922,1610612760,1627789,202335,203500,1628390,203471,0011800023,1,343,350,0,0,1610612765
23,1610612765,1627740,202397,203083,203493,203922,1610612760,1627789,202335,203500,1628390,203471,0011800023,1,360,360,0,2,1610612760
24,1610612765,1627740,202397,203083,203493,203922,1610612760,1627789,202335,203500,1628390,203471,0011800023,1,369,373,2,0,1610612765
25,1610612765,1627740,202397,203083,203493,203922,1610612760,1627789,202335,203500,1628390,203471,0011800023,1,385,397,0,1,1610612760
26,1610612765,1627740,1628379,202397,203922,2585,1610612760,1627789,202335,203500,1628390,203471,0011800023,1,417,417,2,0,1610612765
27,1610612765,1627740,1628379,202397,203922,2585,1610612760,1627789,202335,203500,1628390,203471,0011800023,1,428,428,0,2,1610612760
28,1610612765,1628379,202397,203922,204038,2585,1610612760,1627789,1628390,203471,203500,203924,0011800023,1,449,449,3,0,1610612765
29,1610612765,1628379,202397,203922,204038,2585,1610612760,1627789,1628390,203471,203500,203924,0011800023,1,461,472,0,0,1610612760
30,1610612765,1628379,202397,203922,204038,2585,1610612760,1627789,1628390,203471,203500,203924,0011800023,1,486,492,0,0,1610612765
31,1610612765,1628379,202397,203922,204038,2585,1610612760,1627789,1628390,203471,203500,203924,0011800023,1,496,500,0,0,1610612760
32,1610612765,1628379,202397,203922,204038,2585,1610612760,1627789,1628390,203471,203500,203924,0011800023,1,502,502,2,0,1610612765
33,1610612765,1628379,202397,203922,204038,2585,1610612760,1627789,1628390,203471,203500,203924,0011800023,1,512,513,0,2,1610612760
34,1610612765,1628379,202397,203922,204038,2585,1610612760,1627789,1628977,203457,203471,203924,0011800023,1,526,531,2,0,1610612765
35,1610612765,1628379,1628971,203922,204038,2585,1610612760,101109,1628977,203457,203518,203924,0011800023,1,542,542,0,2,1610612760
36,1610612765,1628379,1628971,203922,204038,2585,1610612760,101109,1628977,203457,203518,203924,0011800023,1,566,570,0,0,1610612765
37,1610612765,1628379,1628971,203922,204038,2585,1610612760,101109,1628977,203457,203518,203924,0011800023,1,582,586,0,0,1610612760
38,1610612765,1628379,1628971,203922,204038,2585,1610612760,101109,1628977,203457,203518,203924,0011800023,1,588,588,3,0,1610612765
39,1610612765,1628379,1628971,203922,204038,2585,1610612760,101109,1628977,203457,203518,203924,0011800023,1,609,615,0,3,1610612760
40,1610612765,1628379,1628971,203922,204038,2585,1610612760,101109,1628977,203457,203518,203924,0011800023,1,634,634,2,0,1610612765
41,1610612765,1628379,1628971,203922,204038,2585,1610612760,101109,1628977,203457,203518,203924,0011800023,1,646,648,0,0,1610612760
42,1610612765,1628379,1628971,203922,204038,2585,1610612760,101109,1628977,203457,203518,203924,0011800023,1,672,674,0,0,1610612765
43,1610612765,1628379,1628971,203922,204038,2585,1610612760,101109,1628977,203457,203518,203924,0011800023,1,690,693,0,0,1610612760
44,1610612765,1628379,1628971,203922,204038,2585,1610612760,101109,1628977,203457,203518,203924,0011800023,1,712,712,2,0,1610612765
45,1610612765,1628379,1628971,203922,204038,2585,1610612760,101109,1628977,203457,203518,203924,0011800023,1,720,720,0,0,1610612760
46,1610612765,1626169,1628379,2585,204038,1628971,1610612760,203924,1628977,203457,101109,203518,0011800023,2,720,735,0,0,1610612760
47,1610612765,1626169,1628379,2585,204038,1628971,1610612760,203924,1628977,203457,101109,203518,0011800023,2,745,745,3,0,1610612765
48,1610612765,1626169,1628379,2585,204038,1628971,1610612760,203924,1628977,203457,101109,203518,0011800023,2,756,781,0,1,1610612760
49,1610612765,1626169,1628379,2585,204038,1628971,1610612760,203924,1628977,203457,101109,203518,0011800023,2,791,791,0,0,1610612765
50,1610612765,1626169,1628379,2585,204038,1628971,1610612760,203924,1628977,203457,101109,203518,0011800023,2,794,794,0,2,1610612760
51,1610612765,1626169,1628379,1628971,203083,204038,1610612760,203924,1628977,203457,101109,203518,0011800023,2,803,814,2,0,1610612765
52,1610612765,1626169,1628379,1628971,203083,204038,1610612760,203924,1628977,203457,101109,203518,0011800023,2,827,833,0,0,1610612760
53,1610612765,1626169,1628379,1628971,203083,204038,1610612760,203924,1628977,203457,101109,203518,0011800023,2,836,836,0,0,1610612765
54,1610612765,1626169,1628379,1628971,203083,204038,1610612760,203924,1628977,203457,101109,203518,0011800023,2,843,849,0,0,1610612760
55,1610612765,1626169,1628379,1628971,203083,204038,1610612760,203924,1628977,203457,101109,203518,0011800023,2,852,855,0,0,1610612765
56,1610612765,1626169,1628379,1628971,203083,204038,1610612760,203924,1628977,203457,101109,203518,0011800023,2,860,860,0,2,1610612760
57,1610612765,1626169,1628379,1628971,203083,204038,1610612760,203924,1628977,203457,101109,203518,0011800023,2,871,884,0,0,1610612765
58,1610612765,101181,1626169,1628379,203083,204038,1610612760,203924,1628977,203457,101109,203518,0011800023,2,890,893,0,0,1610612760
59,1610612765,101181,1626169,1628379,203083,204038,1610612760,203924,1628977,203457,101109,203518,0011800023,2,900,903,0,0,1610612765
60,1610612765,101181,1626169,1628379,203083,204038,1610612760,203924,1628977,203457,101109,203518,0011800023,2,907,915,0,0,1610612760
61,1610612765,101181,1626169,1629155,203083,204038,1610612760,203924,1628977,203457,101109,203518,0011800023,2,928,928,0,0,1610612765
62,1610612765,101181,1626169,1629155,203083,204038,1610612760,1628977,203471,203500,203518,203924,0011800023,2,946,946,0,2,1610612760
63,1610612765,101181,1626169,1629155,203083,204038,1610612760,1628977,203471,203500,203518,203924,0011800023,2,960,960,0,0,1610612765
64,1610612765,101181,1626169,1629155,203083,204038,1610612760,1628977,203471,203500,203518,203924,0011800023,2,973,973,0,0,1610612760
65,1610612765,101181,1626169,1629155,203083,204038,1610612760,1628977,203471,203500,203518,203924,0011800023,2,982,984,0,0,1610612765
66,1610612765,101181,1626169,1629155,203083,204038,1610612760,1628977,203471,203500,203518,203924,0011800023,2,988,988,0,0,1610612760
67,1610612765,101181,1626169,1629155,203083,204038,1610612760,1628977,203471,203500,203518,203924,0011800023,2,1001,1001,2,0,1610612765
68,1610612765,101181,1626169,1629155,203083,204038,1610612760,1628977,203471,203500,203518,203924,0011800023,2,1022,1022,0,0,1610612760
69,1610612765,101181,1626169,1629155,203083,204038,1610612760,1628977,203471,203500,203518,203924,0011800023,2,1026,1028,1,0,1610612765
70,1610612765,101181,1626169,1629155,203083,203493,1610612760,1627789,1628390,203471,203500,203924,0011800023,2,1045,1045,0,2,1610612760
71,1610612765,101181,1626169,1629155,203083,203493,1610612760,1627789,1628390,203471,203500,203924,0011800023,2,1056,1056,2,0,1610612765
72,1610612765,101181,1626169,1629155,203083,203493,1610612760,1627789,1628390,203471,203500,203924,0011800023,2,1073,1073,0,2,1610612760
73,1610612765,101181,1626169,1629155,203083,203493,1610612760,1627789,1628390,203471,203500,203924,0011800023,2,1082,1082,0,0,1610612765
74,1610612765,101181,1626169,1629155,203083,203493,1610612760,1627789,1628390,202335,203471,203500,0011800023,2,1097,1101,0,3,1610612760
75,1610612765,101181,1626169,1629155,203083,203493,1610612760,1627789,1628390,202335,203471,203500,0011800023,2,1114,1114,2,0,1610612765
76,1610612765,101181,1626169,1629155,203083,203493,1610612760,1627789,1628390,202335,203471,203500,0011800023,2,1125,1125,0,2,1610612760
77,1610612765,101181,1626169,1629155,203083,203493,1610612760,1627789,1628390,202335,203471,203500,0011800023,2,1130,1143,2,0,1610612765
78,1610612765,101181,1626169,1629155,203083,203493,1610612760,1627789,1628390,202335,203471,203500,0011800023,2,1155,1159,0,0,1610612760
79,1610612765,101181,1626169,1629155,203083,203493,1610612760,1627789,1628390,202335,203471,203500,0011800023,2,1167,1167,0,0,1610612765
80,1610612765,101181,1626169,1629155,203083,203493,1610612760,1627789,1628390,202335,203471,203500,0011800023,2,1177,1193,0,0,1610612760
81,1610612765,101181,1626169,1627740,203083,203493,1610612760,1627789,1628390,202335,203471,203500,0011800023,2,1212,1212,2,0,1610612765
82,1610612765,101181,1626169,1627740,203083,203493,1610612760,1627789,1628390,202335,203471,203500,0011800023,2,1231,1231,0,2,1610612760
83,1610612765,101181,1626169,1627740,203083,203493,1610612760,1627789,1628390,202335,203471,203500,0011800023,2,1250,1253,0,0,1610612765
84,1610612765,101181,1626169,1627740,203083,203493,1610612760,1627789,1628390,202335,203471,203500,0011800023,2,1261,1261,0,0,1610612760
85,1610612765,101181,1626169,1627740,203083,203493,1610612760,1627789,1628390,202335,203471,203500,0011800023,2,1267,1270,0,0,1610612765
86,1610612765,1626169,1627740,1628971,203083,203493,1610612760,1627789,1628390,202335,203471,203500,0011800023,2,1286,1287,0,0,1610612760
87,1610612765,1626169,1627740,1628971,203083,203493,1610612760,1627789,1628390,202335,203471,203500,0011800023,2,1304,1304,2,0,1610612765
88,1610612765,1626169,1627740,1628971,203083,203493,1610612760,1627789,1628390,202335,203471,203500,0011800023,2,1312,1312,0,0,1610612760
89,1610612765,1626169,1627740,1628971,203083,203493,1610612760,1627789,1628390,202335,203471,203500,0011800023,2,1328,1329,0,0,1610612765
90,1610612765,1626169,1627740,1628971,203083,203493,1610612760,1627789,1628390,202335,203471,203500,0011800023,2,1340,1347,0,2,1610612760
91,1610612765,1626169,1627740,1628971,203083,203493,1610612760,1627789,1628390,202335,203471,203500,0011800023,2,1363,1363,2,0,1610612765
92,1610612765,1626169,1627740,1628971,203083,203493,1610612760,1627789,1628390,202335,203471,203500,0011800023,2,1377,1381,0,0,1610612760
93,1610612765,1626169,1627740,1628971,203083,203493,1610612760,1627789,1628390,202335,203471,203500,0011800023,2,1388,1388,3,0,1610612765
94,1610612765,1626169,1627740,1628971,203083,203493,1610612760,1627789,1628390,202335,203471,203500,0011800023,2,1405,1405,0,2,1610612760
95,1610612765,1626169,1627740,1628971,203493,2585,1610612760,1627789,1628390,202335,203471,203500,0011800023,2,1412,1428,0,0,1610612765
96,1610612765,1626169,1627740,1628971,203493,2585,1610612760,1627789,1628390,202335,203471,203500,0011800023,2,1436,1436,0,2,1610612760
97,1610612765,1626169,1627740,203083,203493,202397,1610612760,1627789,202335,203500,1628390,203471,0011800023,3,1440,1457,0,0,1610612760
98,1610612765,1626169,1627740,203083,203493,202397,1610612760,1627789,202335,203500,1628390,203471,0011800023,3,1468,1468,2,0,1610612765
99,1610612765,1626169,1627740,203083,203493,202397,1610612760,1627789,202335,203500,1628390,203471,0011800023,3,1489,1494,0,0,1610612760
100,1610612765,1626169,1627740,203083,203493,202397,1610612760,1627789,202335,203500,1628390,203471,0011800023,3,1512,1512,2,0,1610612765
101,1610612765,1626169,1627740,203083,203493,202397,1610612760,1627789,202335,203500,1628390,203471,0011800023,3,1527,1527,0,1,1610612760
102,1610612765,1626169,1627740,203083,203493,202397,1610612760,1627789,202335,203500,1628390,203471,0011800023,3,1546,1546,3,0,1610612765
103,1610612765,1626169,1627740,203083,203493,202397,1610612760,1627789,202335,203500,1628390,203471,0011800023,3,1559,1559,0,0,1610612760
104,1610612765,1626169,1627740,203083,203493,202397,1610612760,1627789,202335,203500,1628390,203471,0011800023,3,1562,1562,2,0,1610612765
105,1610612765,1626169,1627740,203083,203493,202397,1610612760,1627789,202335,203500,1628390,203471,0011800023,3,1579,1587,0,3,1610612760
106,1610612765,1626169,1627740,203083,203493,202397,1610612760,1627789,202335,203500,1628390,203471,0011800023,3,1602,1607,2,0,1610612765
107,1610612765,1626169,1627740,203083,203493,202397,1610612760,1627789,202335,203500,1628390,203471,0011800023,3,1618,1618,0,2,1610612760
108,1610612765,1626169,1627740,203083,203493,202397,1610612760,1627789,202335,203500,1628390,203471,0011800023,3,1636,1636,2,0,1610612765
109,1610612765,1626169,1627740,203083,203493,202397,1610612760,1627789,202335,203500,1628390,203471,0011800023,3,1653,1653,0,0,1610612760
110,1610612765,1626169,1627740,203083,203493,202397,1610612760,1627789,202335,203500,1628390,203471,0011800023,3,1658,1662,0,0,1610612765
111,1610612765,1626169,1627740,203083,203493,202397,1610612760,1627789,202335,203500,1628390,203471,0011800023,3,1665,1683,0,0,1610612760
112,1610612765,1626169,1627740,203083,203493,202397,1610612760,1627789,202335,203500,1628390,203471,0011800023,3,1696,1696,2,0,1610612765
113,1610612765,1626169,1627740,203083,203493,202397,1610612760,1627789,202335,203500,1628390,203471,0011800023,3,1705,1713,0,2,1610612760
114,1610612765,1626169,1627740,203083,203493,202397,1610612760,1627789,202335,203500,1628390,203471,0011800023,3,1725,1728,0,0,1610612765
115,1610612765,1626169,1627740,203083,203493,202397,1610612760,1627789,202335,203500,1628390,203471,0011800023,3,1735,1743,0,0,1610612760
116,1610612765,101181,1626169,1627740,203083,203493,1610612760,1627789,202335,203500,1628390,203471,0011800023,3,1763,1768,2,0,1610612765
117,1610612765,101181,1626169,1627740,203083,203493,1610612760,1627789,202335,203500,1628390,203471,0011800023,3,1775,1779,0,0,1610612760
118,1610612765,101181,1626169,1627740,203083,203493,1610612760,1627789,202335,203500,1628390,203471,0011800023,3,1796,1800,0,0,1610612765
119,1610612765,101181,1626169,1627740,203083,203493,1610612760,1627789,202335,203500,1628390,203471,0011800023,3,1803,1803,0,0,1610612760
120,1610612765,101181,1626169,1627740,203083,203493,1610612760,1627789,202335,203500,1628390,203471,0011800023,3,1810,1835,0,0,1610612765
121,1610612765,101181,1626169,1627740,203083,203493,1610612760,1627789,202335,203500,1628390,203471,0011800023,3,1846,1846,0,0,1610612760
122,1610612765,101181,1626169,1627740,203083,203493,1610612760,1627789,202335,203500,1628390,203471,0011800023,3,1846,1861,0,0,1610612765
123,1610612765,101181,1626169,1628379,203083,203922,1610612760,1628390,202335,203471,203500,203518,0011800023,3,1883,1883,0,0,1610612760
124,1610612765,101181,1626169,1628379,203083,203922,1610612760,1628390,202335,203471,203500,203518,0011800023,3,1894,1894,2,0,1610612765
125,1610612765,101181,1626169,1628379,203083,203922,1610612760,1628390,202335,203471,203500,203518,0011800023,3,1903,1918,0,3,1610612760
126,1610612765,101181,1626169,1628379,203083,203922,1610612760,1628390,203471,203500,203518,203924,0011800023,3,1942,1945,0,0,1610612765
127,1610612765,101181,1626169,1628379,203083,203922,1610612760,1628390,203471,203500,203518,203924,0011800023,3,1957,1957,0,2,1610612760
128,1610612765,101181,1626169,1628379,203922,2585,1610612760,1628977,203471,203500,203518,203924,0011800023,3,1974,1976,0,0,1610612765
129,1610612765,101181,1626169,1628379,203922,2585,1610612760,1628977,203471,203500,203518,203924,0011800023,3,1981,1981,0,2,1610612760
130,1610612765,101181,1626169,1628379,203922,2585,1610612760,1628977,203457,203471,203518,203924,0011800023,3,1995,2001,2,0,1610612765
131,1610612765,101181,1626169,1628379,203922,2585,1610612760,101109,1628977,203457,203518,203924,0011800023,3,2019,2019,0,2,1610612760
132,1610612765,101181,1626169,1628379,203922,2585,1610612760,101109,1628977,203457,203518,203924,0011800023,3,2032,2032,2,0,1610612765
133,1610612765,101181,1626169,1628379,203922,2585,1610612760,101109,1628977,203457,203518,203924,0011800023,3,2046,2048,0,0,1610612760
134,1610612765,101181,1626169,1628379,203922,2585,1610612760,101109,1628977,203457,203518,203924,0011800023,3,2055,2055,3,0,1610612765
135,1610612765,101181,1626169,1628379,203922,2585,1610612760,101109,1628977,203457,203518,203924,0011800023,3,2074,2074,0,1,1610612760
136,1610612765,101181,1628379,203922,204038,2585,1610612760,101109,1628977,203457,203518,203924,0011800023,3,2092,2092,0,0,1610612765
137,1610612765,101181,1628379,203922,204038,2585,1610612760,101109,1628977,203457,203518,203924,0011800023,3,2105,2106,0,0,1610612760
138,1610612765,101181,1628379,203922,204038,2585,1610612760,101109,1628977,203457,203518,203924,0011800023,3,2122,2127,0,0,1610612765
139,1610612765,101181,1628379,203922,204038,2585,1610612760,101109,1628977,203457,203518,203924,0011800023,3,2149,2149,0,3,1610612760
140,1610612765,101181,1628379,203922,204038,2585,1610612760,101109,1628977,203457,203518,203924,0011800023,3,2160,2160,0,0,1610612765
141,1610612765,203922,202397,1628379,2585,204038,1610612760,203924,1628977,203457,101109,203518,0011800023,4,2160,2179,1,0,1610612765
142,1610612765,203922,202397,1628379,2585,204038,1610612760,203924,1628977,203457,101109,203518,0011800023,4,2190,2193,0,0,1610612760
143,1610612765,203922,202397,1628379,2585,204038,1610612760,203924,1628977,203457,101109,203518,0011800023,4,2211,2221,0,0,1610612765
144,1610612765,203922,202397,1628379,2585,204038,1610612760,203924,1628977,203457,101109,203518,0011800023,4,2225,2228,0,0,1610612760
145,1610612765,203922,202397,1628379,2585,204038,1610612760,203924,1628977,203457,101109,203518,0011800023,4,2233,2249,0,0,1610612765
146,1610612765,203922,202397,1628379,2585,204038,1610612760,203924,1628977,203457,101109,203518,0011800023,4,2255,2255,0,2,1610612760
147,1610612765,203922,202397,1628379,2585,204038,1610612760,203924,1628977,203457,101109,203518,0011800023,4,2268,2270,0,0,1610612765
148,1610612765,203922,202397,1628379,2585,204038,1610612760,203924,1628977,203457,101109,203518,0011800023,4,2279,2279,0,2,1610612760
149,1610612765,203922,202397,1628379,2585,204038,1610612760,203924,1628977,203457,101109,203518,0011800023,4,2280,2296,0,0,1610612765
150,1610612765,1626169,202397,203493,204038,2585,1610612760,101109,1628390,1628977,203457,203924,0011800023,4,2305,2305,0,2,1610612760
151,1610612765,1626169,202397,203493,204038,2585,1610612760,101109,1628390,1628977,203457,203924,0011800023,4,2315,2323,0,0,1610612765
152,1610612765,1626169,202397,203493,204038,2585,1610612760,101109,1628390,1628977,203457,203924,0011800023,4,2339,2339,0,3,1610612760
153,1610612765,1626169,202397,203493,204038,2585,1610612760,101109,1628390,1628977,203457,203924,0011800023,4,2354,2356,1,0,1610612765
154,1610612765,1626169,202397,203493,204038,2585,1610612760,101109,1628390,1628977,203457,203924,0011800023,4,2369,2372,0,0,1610612760
155,1610612765,1626169,202397,203493,204038,2585,1610612760,101109,1628390,1628977,203457,203924,0011800023,4,2379,2379,0,0,1610612765
156,1610612765,1626169,202397,203083,203493,204038,1610612760,101109,1628390,1628977,203457,203924,0011800023,4,2391,2394,0,0,1610612760
157,1610612765,1626169,202397,203083,203493,204038,1610612760,101109,1628390,1628977,203457,203924,0011800023,4,2398,2405,2,0,1610612765
158,1610612765,1626169,202397,203083,203493,204038,1610612760,101109,1628390,1628977,203457,203924,0011800023,4,2420,2420,0,1,1610612760
159,1610612765,1626169,202397,203083,203493,204038,1610612760,101109,1628390,1628977,203457,203924,0011800023,4,2427,2427,3,0,1610612765
160,1610612765,1626169,202397,203083,203493,204038,1610612760,101109,1628390,1628977,203457,203924,0011800023,4,2453,2453,0,2,1610612760
161,1610612765,1626169,202397,203083,203493,204038,1610612760,101109,1628390,1628977,203457,203924,0011800023,4,2461,2461,3,0,1610612765
162,1610612765,1626169,202397,203083,203493,204038,1610612760,101109,1628390,1628977,203457,203924,0011800023,4,2479,2482,0,0,1610612760
163,1610612765,1626169,202397,203083,203493,204038,1610612760,101109,1628390,1628977,203457,203924,0011800023,4,2487,2498,0,0,1610612765
164,1610612765,1626169,202397,203083,203493,204038,1610612760,1628390,1628977,203457,203583,203924,0011800023,4,2512,2532,0,2,1610612760
165,1610612765,1626169,202397,203083,203493,204038,1610612760,1628390,1628977,203457,203583,203924,0011800023,4,2553,2553,0,0,1610612765
166,1610612765,1626169,202397,203083,203493,204038,1610612760,1628390,1628977,203457,203583,203924,0011800023,4,2566,2569,0,0,1610612760
167,1610612765,1626169,202397,203083,203493,204038,1610612760,1628390,1628977,203457,203583,203924,0011800023,4,2575,2575,2,0,1610612765
168,1610612765,1626169,202397,203083,203493,204038,1610612760,1628390,1628977,203457,203583,203924,0011800023,4,2593,2598,0,0,1610612760
169,1610612765,1626169,202397,203083,203493,204038,1610612760,1628390,1628977,203457,203583,203924,0011800023,4,2603,2610,0,0,1610612765
170,1610612765,1626169,202397,203083,203493,204038,1610612760,1628390,1628977,203457,203583,203924,0011800023,4,2610,2635,0,0,1610612760
171,1610612765,1626169,202397,203083,203493,204038,1610612760,101109,1628390,1628977,203457,203924,0011800023,4,2657,2658,0,0,1610612765
172,1610612765,1626169,202397,203083,203493,204038,1610612760,101109,1628390,1628977,203457,203924,0011800023,4,2658,2677,0,0,1610612760
173,1610612765,1626169,202397,203083,203493,204038,1610612760,101109,1628390,1628977,203457,203924,0011800023,4,2687,2687,2,0,1610612765
174,1610612765,1626169,202397,203083,203493,204038,1610612760,101109,1628390,1628977,203457,203924,0011800023,4,2710,2712,0,0,1610612760
175,1610612765,1626169,202397,203083,203493,204038,1610612760,101109,1628390,1628977,203457,203924,0011800023,4,2729,2732,0,0,1610612765
176,1610612765,1626169,202397,203083,203493,204038,1610612760,101109,1628390,1628977,203457,203924,0011800023,4,2742,2745,0,1,1610612760
177,1610612765,1626169,1628379,202397,203083,204038,1610612760,101109,1628390,1628977,203457,203924,0011800023,4,2759,2759,2,0,1610612765
178,1610612765,1626169,1628379,202397,203083,204038,1610612760,101109,1628390,1628977,203457,203924,0011800023,4,2770,2770,0,3,1610612760
179,1610612765,1626169,1628379,202397,203083,204038,1610612760,101109,1628390,1628977,203457,203924,0011800023,4,2783,2783,3,0,1610612765
180,1610612765,1626169,1628379,202397,203083,204038,1610612760,101109,1628390,1628977,203457,203924,0011800023,4,2789,2789,0,0,1610612760
181,1610612765,1626169,1628379,202397,203083,204038,1610612760,101109,1628390,1628977,203457,203924,0011800023,4,2803,2807,0,0,1610612765
182,1610612765,1626169,1628379,202397,203083,204038,1610612760,101109,1628390,1628977,203457,203924,0011800023,4,2815,2817,0,0,1610612760
183,1610612765,1626169,1628379,202397,203083,204038,1610612760,101109,1628390,1628977,203457,203924,0011800023,4,2836,2836,0,0,1610612765
184,1610612765,1626169,1628379,202397,203083,204038,1610612760,101109,1628390,1628977,203457,203924,0011800023,4,2836,2844,0,0,1610612760
185,1610612765,1626169,1628379,202397,203083,204038,1610612760,101109,1628390,1628977,203457,203924,0011800023,4,2863,2863,3,0,1610612765
186,1610612765,1626169,1628379,202397,203083,204038,1610612760,101109,1628390,1628977,203457,203924,0011800023,4,2864,2867,0,0,1610612760
