,t1_pm,t2_pm,stint_start,t2_points_scored,t2_players,t2_id,t1_id,t1_players,stint_end,t1_points_scored,margin_per_100,num_poss
0,-3,3,0,13,"[1628969, 1626163, 1629028, 1626164, 101108]",1610612756,1610612757,"[1627884, 203496, 202683, 1629018, 203081]",361,10,-11.538461538461538,26.0
1,-5,5,362,15,"[1628969, 1626163, 1629028, 1626164, 101108]",1610612756,1610612757,"[1627884, 203496, 202683, 1629018, 203081]",379,10,-18.51851851851852,27.0
2,-4,4,380,20,"[101108, 1626164, 1628969, 1629028, 203109]",1610612756,1610612757,"[1627884, 1629018, 202683, 203081, 2546]",476,16,-11.76470588235294,34.0
3,-3,3,477,26,"[101108, 1626164, 1628969, 203109, 203967]",1610612756,1610612757,"[1627884, 1629018, 203081, 203496, 2546]",623,23,-6.976744186046512,43.0
4,-6,6,624,32,"[1626164, 1626166, 1628969, 203109, 203967]",1610612756,1610612757,"[1629642, 203081, 203496, 203918, 2546]",719,26,-11.538461538461538,52.0
5,-1,1,720,32,"[1626166, 1629661, 202734, 203109, 203967]",1610612756,1610612757,"[1627884, 1629642, 203081, 203918, 2546]",819,31,-1.7241379310344827,58.0
6,1,-1,820,32,"[203109, 203967, 1626166, 202734, 1629661]",1610612756,1610612757,"[202683, 1629018, 2546, 203918, 1629014]",843,33,1.6666666666666667,60.0
7,-3,3,844,43,"[101108, 1629661, 202734, 203109, 203967]",1610612756,1610612757,"[202683, 1629018, 2546, 203918, 1629014]",1040,40,-4.225352112676056,71.0
8,-3,3,1041,45,"[101108, 1629028, 1629661, 202734, 203109]",1610612756,1610612757,"[202683, 1629018, 2546, 203918, 1629014]",1165,42,-3.8461538461538463,78.0
9,-4,4,1166,54,"[101108, 1626164, 1629028, 1629661, 203967]",1610612756,1610612757,"[202683, 1629018, 2546, 203918, 1629014]",1325,50,-4.444444444444445,90.0
10,-7,7,1326,61,"[101108, 1626164, 1628969, 1629028, 203967]",1610612756,1610612757,"[1627884, 1629014, 202683, 203081, 203496]",1439,54,-7.291666666666667,96.0
11,-9,9,1440,74,"[101108, 1626164, 1628969, 1629028, 203967]",1610612756,1610612757,"[1627884, 1629018, 202683, 203081, 203496]",1769,65,-7.758620689655173,116.0
12,-12,12,1770,77,"[1628969, 1626163, 1629028, 1626164, 101108]",1610612756,1610612757,"[1627884, 203496, 202683, 1629018, 203081]",1850,65,-10.0,120.0
13,-17,17,1851,82,"[101108, 1626164, 1628969, 1629028, 203109]",1610612756,1610612757,"[1627884, 203496, 202683, 1629018, 203081]",1916,65,-13.709677419354838,124.0
14,-21,21,1917,88,"[1626164, 1626166, 1628969, 1629028, 203109]",1610612756,1610612757,"[1627884, 202683, 203081, 203918, 2546]",2010,67,-16.153846153846153,130.0
15,-23,23,2011,94,"[1626164, 1626166, 1628969, 1629028, 203109]",1610612756,1610612757,"[1629014, 202683, 203081, 203918, 2546]",2157,71,-16.78832116788321,137.0
16,-26,26,2158,97,"[1626164, 1626166, 1629661, 203109, 203967]",1610612756,1610612757,"[1629014, 203081, 203496, 203918, 2546]",2159,71,-18.705035971223023,139.0
17,-30,30,2160,107,"[101108, 1626164, 1629661, 203109, 203967]",1610612756,1610612757,"[1629014, 203081, 203496, 203918, 2546]",2348,77,-19.867549668874172,151.0
18,-30,30,2349,110,"[203109, 203967, 1626166, 202734, 1629661]",1610612756,1610612757,"[1629018, 2546, 203918, 1629642, 1629014]",2375,80,-19.607843137254903,153.0
19,-30,30,2376,110,"[203109, 203967, 1626166, 202734, 1629661]",1610612756,1610612757,"[1629014, 1629018, 1629604, 1629642, 1629833]",2433,80,-19.10828025477707,157.0
20,-32,32,2434,112,"[1626166, 1627846, 1629661, 202734, 203967]",1610612756,1610612757,"[1629014, 1629018, 1629604, 1629642, 1629833]",2452,80,-20.253164556962027,158.0
21,-30,30,2453,114,"[1626166, 1627846, 1629661, 202734, 204038]",1610612756,1610612757,"[1629014, 1629018, 1629604, 1629642, 1629833]",2544,84,-18.29268292682927,164.0
22,-32,32,2545,132,"[1626166, 1627846, 1628975, 202734, 204038]",1610612756,1610612757,"[1629014, 1629018, 1629604, 1629642, 1629833]",2870,100,-16.842105263157894,190.0
23,-32,32,2871,132,"[1627745, 1627846, 1628975, 202734, 204038]",1610612756,1610612757,"[1629014, 1629018, 1629604, 1629642, 1629833]",9999999,100,-16.75392670157068,191.0
