,team1_id,team1_player1,team1_player2,team1_player3,team1_player4,team1_player5,team2_id,team2_player1,team2_player2,team2_player3,team2_player4,team2_player5,game_id,period,possession_start,possession_end,team1_points,team2_points,possession_team
0,1610612764,1630166,1629060,1628418,203078,201566,1610612755,201980,202699,203954,203552,1627732,0022000109,1,0,21,0,0,1610612755
1,1610612764,1630166,1629060,1628418,203078,201566,1610612755,201980,202699,203954,203552,1627732,0022000109,1,39,39,2,0,1610612764
2,1610612764,1630166,1629060,1628418,203078,201566,1610612755,201980,202699,203954,203552,1627732,0022000109,1,60,62,0,0,1610612755
3,1610612764,1630166,1629060,1628418,203078,201566,1610612755,201980,202699,203954,203552,1627732,0022000109,1,78,78,0,0,1610612764
4,1610612764,1630166,1629060,1628418,203078,201566,1610612755,201980,202699,203954,203552,1627732,0022000109,1,87,93,0,0,1610612755
5,1610612764,1630166,1629060,1628418,203078,201566,1610612755,201980,202699,203954,203552,1627732,0022000109,1,113,115,0,0,1610612764
6,1610612764,1630166,1629060,1628418,203078,201566,1610612755,201980,202699,203954,203552,1627732,0022000109,1,124,124,0,2,1610612755
7,1610612764,1630166,1629060,1628418,203078,201566,1610612755,201980,202699,203954,203552,1627732,0022000109,1,131,134,0,0,1610612764
8,1610612764,1630166,1629060,1628418,203078,201566,1610612755,201980,202699,203954,203552,1627732,0022000109,1,140,140,0,2,1610612755
9,1610612764,1630166,1629060,1628418,203078,201566,1610612755,201980,202699,203954,203552,1627732,0022000109,1,150,150,2,0,1610612764
10,1610612764,1630166,1629060,1628418,203078,201566,1610612755,201980,202699,203954,203552,1627732,0022000109,1,163,163,0,2,1610612755
11,1610612764,1630166,1629060,1628418,203078,201566,1610612755,201980,202699,203954,203552,1627732,0022000109,1,169,169,2,0,1610612764
12,1610612764,1630166,1629060,1628418,203078,201566,1610612755,201980,202699,203954,203552,1627732,0022000109,1,189,189,0,3,1610612755
13,1610612764,1630166,1629060,1628418,203078,201566,1610612755,201980,202699,203954,203552,1627732,0022000109,1,199,199,3,0,1610612764
14,1610612764,1630166,1629060,1628418,203078,201566,1610612755,201980,202699,203954,203552,1627732,0022000109,1,211,211,0,0,1610612755
15,1610612764,1630166,1629060,1628418,203078,201566,1610612755,201980,202699,203954,203552,1627732,0022000109,1,225,228,0,0,1610612764
16,1610612764,1630166,1629060,1628418,203078,201566,1610612755,201980,202699,203954,203552,1627732,0022000109,1,242,242,0,0,1610612755
17,1610612764,1630166,1629060,1628418,203078,201566,1610612755,201980,202699,203954,203552,1627732,0022000109,1,248,248,2,0,1610612764
18,1610612764,1630166,1629060,1628418,203078,201566,1610612755,201980,202699,203954,203552,1627732,0022000109,1,265,271,0,3,1610612755
19,1610612764,1630166,1629060,1628418,203078,201566,1610612755,201980,202699,203954,203552,1627732,0022000109,1,276,277,0,0,1610612764
20,1610612764,1630166,1629060,1628418,203078,201566,1610612755,201980,202699,203954,203552,1627732,0022000109,1,277,294,0,0,1610612755
21,1610612764,1630166,1629060,1628418,203078,201566,1610612755,201980,202699,203954,203552,1627732,0022000109,1,299,299,2,0,1610612764
22,1610612764,1630166,1629060,1628418,203078,201566,1610612755,201980,202699,203954,203552,1627732,0022000109,1,315,317,0,0,1610612755
23,1610612764,1630166,1629060,1628418,203078,201566,1610612755,201980,202699,203954,203552,1627732,0022000109,1,318,330,0,0,1610612764
24,1610612764,1630166,1629060,1628418,203078,201566,1610612755,201980,202699,203954,203552,1627732,0022000109,1,342,347,0,0,1610612755
25,1610612764,1630166,1629060,1628418,203078,201566,1610612755,201980,202699,203954,203552,1627732,0022000109,1,349,349,0,0,1610612764
26,1610612764,1630166,1629060,1628418,203078,201566,1610612755,201980,202699,203954,203552,1627732,0022000109,1,359,359,0,3,1610612755
27,1610612764,1630166,1629060,1628418,203078,201566,1610612755,201980,202699,203954,203552,1627732,0022000109,1,377,392,1,0,1610612764
28,1610612764,1628418,1629060,1630166,202397,203078,1610612755,201980,202699,203954,203552,1627732,0022000109,1,395,414,0,3,1610612755
29,1610612764,1628418,1629060,1630166,202397,203078,1610612755,201980,202699,203954,203552,1627732,0022000109,1,430,433,0,0,1610612764
30,1610612764,1628418,1629060,1630166,202397,203078,1610612755,201980,202699,203954,203552,1627732,0022000109,1,435,435,0,0,1610612755
31,1610612764,1628418,1629060,1630166,202397,203078,1610612755,1627732,1629003,202699,203552,203954,0022000109,1,435,463,2,0,1610612764
32,1610612764,1628418,1629060,202397,202722,203078,1610612755,1629003,1629680,202699,203552,203954,0022000109,1,472,480,0,3,1610612755
33,1610612764,1628418,1629060,202397,202722,203078,1610612755,1629003,1629680,202699,203552,203954,0022000109,1,494,497,0,0,1610612764
34,1610612764,1628418,1629060,202397,202722,203078,1610612755,1629003,1629680,202699,203552,203954,0022000109,1,515,515,0,2,1610612755
35,1610612764,1628418,1629060,202397,202722,203078,1610612755,1629003,1629680,202699,203552,203954,0022000109,1,531,531,3,0,1610612764
36,1610612764,1628418,1629060,202397,202722,203078,1610612755,1629003,1629680,202699,203552,203954,0022000109,1,548,548,0,3,1610612755
37,1610612764,1628418,1629060,202397,202722,203078,1610612755,1629003,1629680,202699,203552,203954,0022000109,1,561,561,2,0,1610612764
38,1610612764,1628418,1629060,202397,202722,203078,1610612755,1629003,1629680,202699,203552,203954,0022000109,1,577,579,0,0,1610612755
39,1610612764,1628418,1629060,202397,202722,203078,1610612755,1629003,1629680,202699,203552,203954,0022000109,1,584,584,0,0,1610612764
40,1610612764,1628418,1629060,202397,202722,203078,1610612755,1629003,1629680,202699,203552,203954,0022000109,1,589,591,0,0,1610612755
41,1610612764,1628418,1629010,201566,202397,202722,1610612755,1629003,1629680,1630178,202699,2730,0022000109,1,597,600,1,0,1610612764
42,1610612764,1629010,201566,201577,202397,202722,1610612755,1629003,1629680,1630178,202699,2730,0022000109,1,623,623,0,2,1610612755
43,1610612764,1629010,201566,201577,202397,202722,1610612755,1629003,1629680,1630178,202699,2730,0022000109,1,633,633,0,0,1610612764
44,1610612764,1629010,201566,201577,202397,202722,1610612755,1629003,1629680,1630178,202699,2730,0022000109,1,641,641,0,3,1610612755
45,1610612764,1629010,201566,201577,202397,202722,1610612755,1629003,1629680,1630178,202699,2730,0022000109,1,660,662,0,0,1610612764
46,1610612764,1629010,201566,201577,202397,202722,1610612755,1629003,1629680,1630178,202699,2730,0022000109,1,665,681,0,0,1610612755
47,1610612764,1629010,201566,201577,202397,202722,1610612755,1629003,1629680,1630178,202699,2730,0022000109,1,687,687,2,0,1610612764
48,1610612764,1629010,201566,201577,202397,202722,1610612755,1629003,1629680,1630178,202699,2730,0022000109,1,702,702,0,2,1610612755
49,1610612764,1629010,201566,201577,202397,202722,1610612755,1628390,1629003,1629680,1630178,2730,0022000109,1,719,719,0,0,1610612764
50,1610612764,201566,202722,1629010,201577,203526,1610612755,1627732,1629003,1629680,2730,1630178,0022000109,2,720,740,3,0,1610612764
51,1610612764,201566,202722,1629010,201577,203526,1610612755,1627732,1629003,1629680,2730,1630178,0022000109,2,762,765,0,0,1610612755
52,1610612764,201566,202722,1629010,201577,203526,1610612755,1627732,1629003,1629680,2730,1630178,0022000109,2,774,781,3,0,1610612764
53,1610612764,201566,202722,1629010,201577,203526,1610612755,1627732,1629003,1629680,2730,1630178,0022000109,2,792,796,0,2,1610612755
54,1610612764,201566,202722,1629010,201577,203526,1610612755,1627732,1629003,1629680,2730,1630178,0022000109,2,808,808,2,0,1610612764
55,1610612764,201566,202722,1629010,201577,203526,1610612755,1627732,1629003,1629680,2730,1630178,0022000109,2,808,819,0,3,1610612755
56,1610612764,201566,202722,1629010,201577,203526,1610612755,1627732,1629003,1629680,2730,1630178,0022000109,2,835,835,3,0,1610612764
57,1610612764,201566,202722,1629010,201577,203526,1610612755,1627732,1629003,1629680,2730,1630178,0022000109,2,851,851,0,2,1610612755
58,1610612764,201566,202722,1629010,201577,203526,1610612755,1627732,1629003,1629680,2730,1630178,0022000109,2,859,860,0,0,1610612764
59,1610612764,201566,202722,1629010,201577,203526,1610612755,1627732,1629003,1630178,201980,2730,0022000109,2,877,877,0,2,1610612755
60,1610612764,201566,202722,1629010,201577,203526,1610612755,1627732,1629003,1630178,201980,2730,0022000109,2,890,894,0,0,1610612764
61,1610612764,201566,202722,1629010,201577,203526,1610612755,1627732,1629003,1630178,201980,2730,0022000109,2,897,897,0,1,1610612755
62,1610612764,1630166,201566,201577,202722,203526,1610612755,1627732,1629003,1630178,201980,2730,0022000109,2,905,909,0,0,1610612764
63,1610612764,1630166,201566,201577,202722,203526,1610612755,1627732,1629003,1630178,201980,2730,0022000109,2,926,926,0,3,1610612755
64,1610612764,1630166,201566,201577,202722,203526,1610612755,1627732,1629003,1630178,201980,2730,0022000109,2,926,940,3,0,1610612764
65,1610612764,1628418,1630166,201566,203078,203526,1610612755,1627732,1629003,1630178,201980,2730,0022000109,2,961,961,0,2,1610612755
66,1610612764,1628418,1630166,201566,203078,203526,1610612755,1627732,1629003,1630178,201980,2730,0022000109,2,969,973,0,0,1610612764
67,1610612764,1628418,1629060,1630166,203078,203526,1610612755,1627732,1629003,201980,203552,203954,0022000109,2,987,987,0,2,1610612755
68,1610612764,1628418,1629060,1630166,203078,203526,1610612755,1627732,1629003,201980,203552,203954,0022000109,2,999,1002,0,0,1610612764
69,1610612764,1628418,1629060,1630166,203078,203526,1610612755,1627732,1629003,201980,203552,203954,0022000109,2,1008,1008,0,2,1610612755
70,1610612764,1628418,1629060,1630166,203078,203526,1610612755,1627732,1629003,201980,203552,203954,0022000109,2,1018,1018,2,0,1610612764
71,1610612764,1628418,1629060,1630166,203078,203526,1610612755,1627732,1629003,201980,203552,203954,0022000109,2,1023,1023,0,3,1610612755
72,1610612764,1628418,1629060,1630166,203078,203526,1610612755,1627732,1629003,201980,203552,203954,0022000109,2,1034,1034,3,0,1610612764
73,1610612764,1628418,1629060,1630166,203078,203526,1610612755,1627732,1629003,201980,203552,203954,0022000109,2,1052,1052,0,1,1610612755
74,1610612764,1628418,1629060,1630166,203078,203526,1610612755,1627732,1629003,201980,203552,203954,0022000109,2,1064,1076,3,0,1610612764
75,1610612764,1628418,1629060,1630166,203078,203526,1610612755,1627732,201980,202699,203552,203954,0022000109,2,1090,1090,0,2,1610612755
76,1610612764,1628418,1629060,1630166,203078,203526,1610612755,1627732,201980,202699,203552,203954,0022000109,2,1102,1106,2,0,1610612764
77,1610612764,1628418,1629060,1630166,203078,203526,1610612755,1627732,201980,202699,203552,203954,0022000109,2,1110,1110,0,1,1610612755
78,1610612764,1628418,1629060,1630166,203078,203526,1610612755,1627732,201980,202699,203552,203954,0022000109,2,1126,1128,0,0,1610612764
79,1610612764,1628418,1629060,1630166,203078,203526,1610612755,1627732,201980,202699,203552,203954,0022000109,2,1133,1133,0,0,1610612755
80,1610612764,1628418,1629060,1630166,203078,203526,1610612755,1627732,201980,202699,203552,203954,0022000109,2,1137,1138,1,0,1610612764
81,1610612764,1628418,1629060,201566,202722,203078,1610612755,1627732,1629680,202699,203552,203954,0022000109,2,1158,1158,0,2,1610612755
82,1610612764,1628418,1629060,201566,202722,203078,1610612755,1627732,1629680,202699,203552,203954,0022000109,2,1179,1179,2,0,1610612764
83,1610612764,1628418,1629060,201566,202722,203078,1610612755,1627732,1629680,202699,203552,203954,0022000109,2,1203,1203,0,3,1610612755
84,1610612764,1628418,1629060,201566,202722,203078,1610612755,1627732,1629680,202699,203552,203954,0022000109,2,1214,1214,0,0,1610612764
85,1610612764,1628418,1629060,201566,202722,203078,1610612755,1627732,1629680,202699,203552,203954,0022000109,2,1218,1218,0,3,1610612755
86,1610612764,1628418,1629060,201566,202722,203078,1610612755,1627732,1629680,202699,203552,203954,0022000109,2,1219,1231,2,0,1610612764
87,1610612764,1628418,1629060,201566,202722,203078,1610612755,1627732,1629680,202699,203552,203954,0022000109,2,1241,1241,0,2,1610612755
88,1610612764,1628418,1629060,201566,202722,203078,1610612755,1627732,1629680,202699,203552,203954,0022000109,2,1258,1258,0,0,1610612764
89,1610612764,1628418,1629060,201566,202722,203078,1610612755,1627732,1629680,202699,203552,203954,0022000109,2,1267,1267,0,3,1610612755
90,1610612764,1628418,1629060,201566,202722,203078,1610612755,1627732,1629680,202699,203552,203954,0022000109,2,1273,1273,2,0,1610612764
91,1610612764,1628418,1629060,201566,202722,203078,1610612755,1629003,1629680,202699,203552,203954,0022000109,2,1290,1292,0,0,1610612755
92,1610612764,1628418,1629060,201566,202722,203078,1610612755,1629003,1629680,202699,203552,203954,0022000109,2,1297,1297,3,0,1610612764
93,1610612764,1628418,1629060,201566,202722,203078,1610612755,1629003,1629680,202699,203552,203954,0022000109,2,1316,1316,0,2,1610612755
94,1610612764,1628418,1629060,201566,202722,203078,1610612755,1629003,1629680,202699,203552,203954,0022000109,2,1328,1328,2,0,1610612764
95,1610612764,1628418,1629060,201566,202722,203078,1610612755,1629003,1629680,202699,203552,203954,0022000109,2,1342,1342,0,3,1610612755
96,1610612764,1628418,1629060,201566,202722,203078,1610612755,1629003,1629680,202699,203552,203954,0022000109,2,1355,1355,2,0,1610612764
97,1610612764,1628418,1629060,201566,202722,203078,1610612755,1629003,1629680,202699,203552,203954,0022000109,2,1373,1375,0,0,1610612755
98,1610612764,1628418,1629060,201566,202722,203078,1610612755,1629003,1629680,202699,203552,203954,0022000109,2,1380,1380,1,0,1610612764
99,1610612764,1628418,1629060,201566,202722,203078,1610612755,1629003,1629680,202699,203552,203954,0022000109,2,1390,1390,0,0,1610612755
100,1610612764,1628418,1629060,201566,202722,203078,1610612755,1629003,1629680,202699,203552,203954,0022000109,2,1393,1393,2,0,1610612764
101,1610612764,1628418,1629060,201566,202722,203078,1610612755,1629003,1629680,202699,203552,203954,0022000109,2,1400,1400,0,0,1610612755
102,1610612764,1628418,1629060,201566,202722,203078,1610612755,1629003,1629680,202699,203552,203954,0022000109,2,1401,1401,0,0,1610612764
103,1610612764,1628418,1629060,201566,202722,203078,1610612755,1629003,1629680,202699,203552,203954,0022000109,2,1410,1412,0,0,1610612755
104,1610612764,1628418,1629060,201566,202722,203078,1610612755,1629003,1629680,202699,203552,203954,0022000109,2,1420,1420,2,0,1610612764
105,1610612764,1628418,1629060,1630166,201566,203078,1610612755,1629003,201980,202699,203552,203954,0022000109,2,1434,1434,0,2,1610612755
106,1610612764,1628418,1629060,1630166,201566,203078,1610612755,1629003,201980,202699,203552,203954,0022000109,2,1435,1435,0,0,1610612764
107,1610612764,1628418,1629060,1630166,201566,203078,1610612755,1629003,201980,202699,203552,203954,0022000109,2,1438,1438,0,3,1610612755
108,1610612764,1628418,1629060,1630166,201566,203078,1610612755,1629003,201980,202699,203552,203954,0022000109,2,1439,1440,0,0,1610612755
109,1610612764,1629060,1628418,203078,201566,202722,1610612755,201980,202699,203954,203552,1627732,0022000109,3,1440,1460,0,0,1610612764
110,1610612764,1629060,1628418,203078,201566,202722,1610612755,201980,202699,203954,203552,1627732,0022000109,3,1480,1484,0,0,1610612755
111,1610612764,1629060,1628418,203078,201566,202722,1610612755,201980,202699,203954,203552,1627732,0022000109,3,1489,1491,0,0,1610612764
112,1610612764,1629060,1628418,203078,201566,202722,1610612755,201980,202699,203954,203552,1627732,0022000109,3,1494,1494,0,2,1610612755
113,1610612764,1629060,1628418,203078,201566,202722,1610612755,201980,202699,203954,203552,1627732,0022000109,3,1511,1514,0,0,1610612764
114,1610612764,1629060,1628418,203078,201566,202722,1610612755,201980,202699,203954,203552,1627732,0022000109,3,1514,1523,0,0,1610612755
115,1610612764,1629060,1628418,203078,201566,202722,1610612755,201980,202699,203954,203552,1627732,0022000109,3,1537,1537,2,0,1610612764
116,1610612764,1629060,1628418,203078,201566,202722,1610612755,201980,202699,203954,203552,1627732,0022000109,3,1555,1555,0,2,1610612755
117,1610612764,1629060,1628418,203078,201566,202722,1610612755,201980,202699,203954,203552,1627732,0022000109,3,1566,1566,3,0,1610612764
118,1610612764,1629060,1628418,203078,201566,202722,1610612755,201980,202699,203954,203552,1627732,0022000109,3,1585,1585,0,0,1610612755
119,1610612764,1629060,1628418,203078,201566,202722,1610612755,201980,202699,203954,203552,1627732,0022000109,3,1595,1595,3,0,1610612764
120,1610612764,1629060,1628418,203078,201566,202722,1610612755,201980,202699,203954,203552,1627732,0022000109,3,1613,1613,0,2,1610612755
121,1610612764,1629060,1628418,203078,201566,202722,1610612755,201980,202699,203954,203552,1627732,0022000109,3,1622,1622,0,0,1610612764
122,1610612764,1629060,1628418,203078,201566,202722,1610612755,201980,202699,203954,203552,1627732,0022000109,3,1624,1630,0,1,1610612755
123,1610612764,1629060,1628418,203078,201566,202722,1610612755,201980,202699,203954,203552,1627732,0022000109,3,1641,1641,2,0,1610612764
124,1610612764,1629060,1628418,203078,201566,202722,1610612755,201980,202699,203954,203552,1627732,0022000109,3,1658,1658,0,3,1610612755
125,1610612764,1629060,1628418,203078,201566,202722,1610612755,201980,202699,203954,203552,1627732,0022000109,3,1669,1671,0,0,1610612764
126,1610612764,1629060,1628418,203078,201566,202722,1610612755,201980,202699,203954,203552,1627732,0022000109,3,1675,1675,0,3,1610612755
127,1610612764,1629060,1628418,203078,201566,202722,1610612755,201980,202699,203954,203552,1627732,0022000109,3,1676,1691,0,0,1610612764
128,1610612764,1629060,1628418,203078,201566,202722,1610612755,201980,202699,203954,203552,1627732,0022000109,3,1695,1695,0,3,1610612755
129,1610612764,1629060,1628418,203078,201566,202722,1610612755,201980,202699,203954,203552,1627732,0022000109,3,1713,1715,0,0,1610612764
130,1610612764,1629060,1628418,203078,201566,202722,1610612755,201980,202699,203954,203552,1627732,0022000109,3,1722,1726,0,0,1610612755
131,1610612764,1629060,1628418,203078,201566,202722,1610612755,201980,202699,203954,203552,1627732,0022000109,3,1733,1733,3,0,1610612764
132,1610612764,1629060,1628418,203078,201566,202722,1610612755,201980,202699,203954,203552,1627732,0022000109,3,1752,1755,0,0,1610612755
133,1610612764,1629060,1628418,203078,201566,202722,1610612755,201980,202699,203954,203552,1627732,0022000109,3,1760,1761,0,0,1610612764
134,1610612764,1629060,1628418,203078,201566,202722,1610612755,201980,202699,203954,203552,1627732,0022000109,3,1766,1769,0,0,1610612755
135,1610612764,1629060,1628418,203078,201566,202722,1610612755,201980,202699,203954,203552,1627732,0022000109,3,1772,1773,2,0,1610612764
136,1610612764,1629060,1628418,203078,201566,202722,1610612755,201980,202699,203954,203552,1627732,0022000109,3,1773,1782,0,2,1610612755
137,1610612764,1628418,1629060,1630166,201566,203078,1610612755,201980,202699,203954,203552,1627732,0022000109,3,1795,1795,2,0,1610612764
138,1610612764,1628418,1629060,1630166,201566,203078,1610612755,201980,202699,203954,203552,1627732,0022000109,3,1816,1816,0,3,1610612755
139,1610612764,1628418,1629060,1630166,201566,203078,1610612755,201980,202699,203954,203552,1627732,0022000109,3,1838,1840,1,0,1610612764
140,1610612764,1628418,1630166,1630264,202397,203078,1610612755,1627732,1629680,202699,203552,203954,0022000109,3,1859,1862,0,0,1610612755
141,1610612764,1628418,1630166,1630264,202397,203078,1610612755,1627732,1629680,202699,203552,203954,0022000109,3,1868,1868,4,0,1610612764
142,1610612764,1628418,1630166,1630264,202397,203078,1610612755,1627732,1629680,202699,203552,203954,0022000109,3,1875,1887,0,2,1610612755
143,1610612764,1628418,1630166,1630264,202397,203078,1610612755,1629003,1629680,202699,203552,203954,0022000109,3,1897,1897,3,0,1610612764
144,1610612764,1628418,1630166,1630264,202397,203078,1610612755,1629003,1629680,202699,203552,203954,0022000109,3,1914,1921,0,3,1610612755
145,1610612764,1628418,1630166,1630264,202397,203078,1610612755,1629003,1629680,202699,203552,203954,0022000109,3,1931,1945,0,0,1610612764
146,1610612764,1628418,1630166,1630264,202397,203078,1610612755,1629003,1629680,202699,203552,203954,0022000109,3,1956,1956,0,0,1610612755
147,1610612764,1628418,1630166,1630264,202397,203078,1610612755,1629003,1629680,202699,203552,203954,0022000109,3,1968,1968,0,0,1610612764
148,1610612764,1628418,1630166,1630264,202397,203078,1610612755,1629003,1629680,202699,203552,203954,0022000109,3,1970,1970,0,2,1610612755
149,1610612764,1628418,1630166,1630264,202397,203078,1610612755,1629003,1629680,1630178,202699,203954,0022000109,3,1983,1983,2,0,1610612764
150,1610612764,1630166,201566,201577,202397,203078,1610612755,1629003,1629680,1630178,202699,2730,0022000109,3,1997,2001,0,0,1610612755
151,1610612764,1630166,201566,201577,202397,203078,1610612755,1629003,1629680,1630178,202699,2730,0022000109,3,2008,2008,2,0,1610612764
152,1610612764,1630166,201566,201577,202397,203078,1610612755,1629003,1629680,1630178,202699,2730,0022000109,3,2008,2020,1,0,1610612755
153,1610612764,201566,201577,202397,202722,203078,1610612755,1629003,1629680,1630178,202699,2730,0022000109,3,2023,2023,2,0,1610612764
154,1610612764,201566,201577,202397,202722,203078,1610612755,1629003,1629680,1630178,202699,2730,0022000109,3,2042,2042,0,0,1610612755
155,1610612764,201566,201577,202397,202722,203078,1610612755,1629003,1629680,1630178,202699,2730,0022000109,3,2042,2042,1,0,1610612764
156,1610612764,201566,201577,202397,202722,203078,1610612755,1629003,1629680,1630178,202699,2730,0022000109,3,2067,2067,0,0,1610612755
157,1610612764,201566,201577,202397,202722,203078,1610612755,1629003,1629680,1630178,202699,2730,0022000109,3,2082,2082,2,0,1610612764
158,1610612764,201566,201577,202397,202722,203078,1610612755,1629003,1629680,1630178,202699,2730,0022000109,3,2099,2099,0,2,1610612755
159,1610612764,201566,201577,202397,202722,203078,1610612755,1629003,1629680,1630178,202699,2730,0022000109,3,2105,2105,2,0,1610612764
160,1610612764,201566,201577,202397,202722,203078,1610612755,1629003,1629680,1630178,202699,2730,0022000109,3,2115,2115,0,2,1610612755
161,1610612764,201566,201577,202397,202722,203078,1610612755,1629003,1629680,1630178,202699,2730,0022000109,3,2121,2121,2,0,1610612764
162,1610612764,201566,201577,202397,202722,203078,1610612755,1629003,1629680,1630178,202699,2730,0022000109,3,2128,2128,0,0,1610612755
163,1610612764,201566,201577,202397,202722,203078,1610612755,1629003,1629680,1630178,202699,2730,0022000109,3,2133,2137,0,0,1610612764
164,1610612764,201566,201577,202397,202722,203078,1610612755,1629003,1629680,1630178,202699,2730,0022000109,3,2158,2158,0,2,1610612755
165,1610612764,201566,201577,202397,202722,203078,1610612755,1629003,1629680,1630178,202699,2730,0022000109,3,2160,2160,0,0,1610612755
166,1610612764,201566,202397,202722,201577,203526,1610612755,1627732,1629003,1629680,2730,1630178,0022000109,4,2160,2178,0,0,1610612755
167,1610612764,201566,202397,202722,201577,203526,1610612755,1627732,1629003,1629680,2730,1630178,0022000109,4,2183,2183,2,0,1610612764
168,1610612764,201566,202397,202722,201577,203526,1610612755,1627732,1629003,1629680,2730,1630178,0022000109,4,2193,2193,0,0,1610612755
169,1610612764,201566,202397,202722,201577,203526,1610612755,1627732,1629003,1630178,201980,2730,0022000109,4,2209,2209,2,0,1610612764
170,1610612764,201566,202397,202722,201577,203526,1610612755,1627732,1629003,1630178,201980,2730,0022000109,4,2211,2224,1,0,1610612755
171,1610612764,201566,202397,202722,201577,203526,1610612755,1627732,1629003,1630178,201980,2730,0022000109,4,2230,2230,2,0,1610612764
172,1610612764,201566,202397,202722,201577,203526,1610612755,1627732,1629003,1630178,201980,2730,0022000109,4,2240,2240,0,1,1610612755
173,1610612764,201566,202397,202722,201577,203526,1610612755,1627732,1629003,201980,202699,2730,0022000109,4,2249,2253,0,0,1610612764
174,1610612764,201566,202397,202722,201577,203526,1610612755,1627732,1629003,201980,202699,2730,0022000109,4,2268,2273,0,0,1610612755
175,1610612764,201566,202397,202722,201577,203526,1610612755,1627732,1629003,201980,202699,2730,0022000109,4,2277,2277,2,0,1610612764
176,1610612764,201566,202397,202722,201577,203526,1610612755,1627732,1629003,201980,202699,2730,0022000109,4,2278,2296,0,0,1610612755
177,1610612764,201566,202397,202722,201577,203526,1610612755,1627732,201980,202699,203552,203954,0022000109,4,2307,2310,0,0,1610612764
178,1610612764,201566,202397,202722,201577,203526,1610612755,1627732,201980,202699,203552,203954,0022000109,4,2320,2324,0,0,1610612755
179,1610612764,201566,202397,202722,201577,203526,1610612755,1627732,201980,202699,203552,203954,0022000109,4,2340,2340,2,0,1610612764
180,1610612764,201566,202397,202722,201577,203526,1610612755,1627732,201980,202699,203552,203954,0022000109,4,2369,2371,0,0,1610612755
181,1610612764,201566,202397,202722,201577,203526,1610612755,1627732,201980,202699,203552,203954,0022000109,4,2382,2382,2,0,1610612764
182,1610612764,201566,202397,202722,201577,203526,1610612755,1627732,201980,202699,203552,203954,0022000109,4,2400,2400,0,2,1610612755
183,1610612764,201566,202397,202722,201577,203526,1610612755,1627732,201980,202699,203552,203954,0022000109,4,2410,2419,3,0,1610612764
184,1610612764,201566,201577,202397,202722,203078,1610612755,1627732,201980,202699,203552,203954,0022000109,4,2436,2436,0,3,1610612755
185,1610612764,201566,201577,202397,202722,203078,1610612755,1627732,201980,202699,203552,203954,0022000109,4,2455,2459,0,0,1610612764
186,1610612764,201566,201577,202397,202722,203078,1610612755,1627732,201980,202699,203552,203954,0022000109,4,2464,2464,0,2,1610612755
187,1610612764,201566,201577,202397,202722,203078,1610612755,1627732,201980,202699,203552,203954,0022000109,4,2485,2485,2,0,1610612764
188,1610612764,201566,201577,202397,202722,203078,1610612755,1627732,201980,202699,203552,203954,0022000109,4,2499,2510,0,2,1610612755
189,1610612764,1628418,201566,202397,202722,203078,1610612755,1627732,201980,202699,203552,203954,0022000109,4,2523,2533,3,0,1610612764
190,1610612764,1628418,201566,202397,202722,203078,1610612755,1627732,201980,202699,203552,203954,0022000109,4,2551,2561,0,2,1610612755
191,1610612764,1628418,201566,202397,202722,203078,1610612755,1627732,201980,202699,203552,203954,0022000109,4,2575,2575,0,0,1610612764
192,1610612764,1628418,201566,202397,202722,203078,1610612755,1627732,201980,202699,203552,203954,0022000109,4,2582,2582,0,3,1610612755
193,1610612764,1628418,201566,202397,202722,203078,1610612755,1627732,201980,202699,203552,203954,0022000109,4,2594,2594,2,0,1610612764
194,1610612764,1628418,201566,202397,202722,203078,1610612755,1627732,201980,202699,203552,203954,0022000109,4,2618,2618,0,0,1610612755
195,1610612764,1628418,201566,202397,202722,203078,1610612755,1627732,201980,202699,203552,203954,0022000109,4,2622,2622,0,0,1610612764
196,1610612764,1628418,201566,202397,202722,203078,1610612755,1627732,201980,202699,203552,203954,0022000109,4,2631,2631,0,0,1610612755
197,1610612764,1628418,201566,202397,202722,203078,1610612755,1627732,201980,202699,203552,203954,0022000109,4,2637,2640,2,0,1610612764
198,1610612764,1628418,201566,202397,202722,203078,1610612755,1627732,201980,202699,203552,203954,0022000109,4,2640,2652,0,0,1610612755
199,1610612764,1628418,201566,202397,202722,203078,1610612755,1627732,201980,202699,203552,203954,0022000109,4,2665,2672,0,0,1610612764
200,1610612764,1628418,201566,202397,202722,203078,1610612755,1627732,201980,202699,203552,203954,0022000109,4,2684,2684,0,3,1610612755
201,1610612764,1628418,201566,202397,202722,203078,1610612755,1627732,201980,202699,203552,203954,0022000109,4,2697,2700,0,0,1610612764
202,1610612764,1628418,201566,202397,202722,203078,1610612755,1627732,201980,202699,203552,203954,0022000109,4,2708,2711,0,0,1610612755
203,1610612764,1628418,201566,202397,202722,203078,1610612755,1627732,201980,202699,203552,203954,0022000109,4,2712,2716,0,0,1610612764
204,1610612764,1628418,201566,202397,202722,203078,1610612755,1627732,201980,202699,203552,203954,0022000109,4,2734,2734,0,2,1610612755
205,1610612764,1628418,201566,202397,202722,203078,1610612755,1627732,201980,202699,203552,203954,0022000109,4,2741,2745,0,0,1610612764
206,1610612764,1628418,201566,202397,202722,203078,1610612755,1627732,201980,202699,203552,203954,0022000109,4,2762,2765,0,3,1610612755
207,1610612764,1628418,201566,202397,202722,203078,1610612755,1627732,201980,202699,203552,203954,0022000109,4,2780,2783,0,0,1610612764
208,1610612764,1628418,201566,202397,202722,203078,1610612755,1627732,201980,202699,203552,203954,0022000109,4,2805,2805,0,0,1610612755
209,1610612764,1628418,201566,202397,202722,203078,1610612755,1627732,201980,202699,203552,203954,0022000109,4,2811,2811,3,0,1610612764
210,1610612764,1628418,201566,202397,202722,203078,1610612755,1627732,201980,202699,203552,203954,0022000109,4,2830,2830,0,0,1610612755
211,1610612764,1628418,201566,202397,202722,203078,1610612755,1627732,201980,202699,203552,203954,0022000109,4,2830,2830,1,0,1610612764
212,1610612764,1628418,201566,202397,202722,203078,1610612755,1627732,201980,202699,203552,203954,0022000109,4,2847,2849,0,2,1610612755
213,1610612764,1628418,201566,202397,202722,203078,1610612755,1627732,201980,202699,203552,203954,0022000109,4,2849,2854,0,0,1610612764
214,1610612764,1628418,201566,202397,202722,203078,1610612755,1627732,1629680,201980,202699,203954,0022000109,4,2854,2859,0,0,1610612755
215,1610612764,1628418,202397,202722,203078,203526,1610612755,1627732,201980,202699,203552,203954,0022000109,4,2863,2866,0,0,1610612764
216,1610612764,1628418,202397,202722,203078,203526,1610612755,1627732,201980,202699,203552,203954,0022000109,4,2873,2875,0,0,1610612755
217,1610612764,1628418,202397,202722,203078,203526,1610612755,1627732,201980,202699,203552,203954,0022000109,4,2876,2878,1,0,1610612764
