,TEAM_ID_1,TEAM_1_PLAYERS,TEAM_ID_2,TEAM_2_PLAYERS,PERIOD
0,1610612752,[ 203493  203944 1629011 1629628  203901],1610612754,[ 203933 1627734 1626167  203506 1627763],1
1,1610612752,[1629011  202692 1630193 1630167 1628995],1610612754,[1627734  203200  203926 1628988  204456],2
2,1610612752,[ 203493  203944 1629011 1629628  203901],1610612754,[ 203933 1627734 1626167  203506 1627763],3
3,1610612752,[1629011  202692 1630167 1628995 1628373],1610612754,[1626167  203200  203926 1628988  204456],4
