,TEAM_ID_1,TEAM_1_PLAYERS,TEAM_ID_2,TEAM_2_PLAYERS,PERIOD
0,1610612751,[ 201142  203925  201933 1628971  202681],1610612743,[1629008  203210  203999  203085 1630267],1
1,1610612751,[ 201142  203925 1628971 1629651 1628455],1610612743,[1630267 1628427 1629626  201580 1630210],2
2,1610612751,[ 201142  203925  201933 1628971  202681],1610612743,[1629008  203210  203999  203085 1630267],3
3,1610612751,[ 203925 1629013  201145 1629651 1628455],1610612743,[1627885 1628427 1629626  201580 1630210],4
