,t1_points_scored,stint_end,t2_pm,t1_players,t2_id,t1_id,t2_players,t2_points_scored,t1_pm,stint_start,margin_per_100,num_poss
0,7,136,-5,"[1629067, 1629060, 101133, 203078, 202397]",1610612741,1610612764,"[203107, 201152, 1629655, 203897, 1627853]",2,5,0,50.0,10.0
1,15,314,-4,"[1629067, 1629060, 101133, 203078, 202397]",1610612741,1610612764,"[203107, 201152, 1629655, 203897, 1627853]",11,4,137,18.181818181818183,22.0
2,17,388,-4,"[1629067, 1629060, 101133, 203078, 202397]",1610612741,1610612764,"[1626245, 1627853, 201152, 203107, 203897]",13,4,315,14.814814814814813,27.0
3,20,468,-1,"[1629067, 1629060, 101133, 203078, 202397]",1610612741,1610612764,"[1626245, 1627853, 1629632, 201152, 203897]",19,1,389,2.857142857142857,35.0
4,22,517,-3,"[1629021, 1629060, 202397, 202722, 203078]",1610612741,1610612764,"[1626245, 1627853, 1629632, 201152, 203897]",19,3,469,7.894736842105263,38.0
5,24,548,-5,"[1629021, 1629060, 202397, 202722, 203078]",1610612741,1610612764,"[1626245, 1627885, 1629632, 201152, 203897]",19,5,518,12.5,40.0
6,26,586,-4,"[1628972, 1629021, 202722, 203078, 203894]",1610612741,1610612764,"[1626245, 1627885, 1629632, 1629690, 203897]",22,4,549,9.523809523809524,42.0
7,31,717,1,"[1628972, 1629021, 202722, 203078, 203894]",1610612741,1610612764,"[1626245, 1627885, 1629632, 1629690, 203107]",32,-1,587,-1.9607843137254901,51.0
8,33,776,2,"[1628972, 1629010, 1629021, 202722, 203894]",1610612741,1610612764,"[1626245, 1627885, 1629632, 1629690, 203107]",35,-2,718,-3.7037037037037033,54.0
9,35,891,6,"[202722, 1629021, 203894, 1628972, 1629010]",1610612741,1610612764,"[203107, 1629655, 1629632, 1627885, 1629690]",41,-6,777,-9.523809523809524,63.0
10,40,943,1,"[1628418, 1628972, 1629010, 202722, 203894]",1610612741,1610612764,"[203107, 1629655, 1629632, 1627885, 1629690]",41,-1,892,-1.4705882352941175,68.0
11,40,991,7,"[1628418, 1628972, 1629010, 202722, 203894]",1610612741,1610612764,"[1627885, 1629655, 1629690, 203107, 203897]",47,-7,944,-9.859154929577464,71.0
12,47,1101,8,"[1628418, 1629010, 202722, 203078, 203894]",1610612741,1610612764,"[1626245, 1627853, 201152, 203107, 203897]",55,-8,992,-10.0,80.0
13,47,1107,10,"[1629010, 1629060, 202397, 202722, 203078]",1610612741,1610612764,"[1626245, 1627853, 201152, 203107, 203897]",57,-10,1102,-12.345679012345679,81.0
14,47,1150,10,"[1629060, 1629067, 202397, 202722, 203078]",1610612741,1610612764,"[1626245, 1629632, 201152, 203107, 203897]",57,-10,1108,-12.048192771084338,83.0
15,49,1195,9,"[1629060, 1629067, 202397, 202722, 203078]",1610612741,1610612764,"[1629632, 1629655, 201152, 203107, 203897]",58,-9,1151,-10.344827586206897,87.0
16,50,1270,10,"[1628418, 1628972, 1629060, 202397, 203078]",1610612741,1610612764,"[1629632, 1629655, 201152, 203107, 203897]",60,-10,1196,-10.75268817204301,93.0
17,52,1339,13,"[1628418, 1628972, 1629060, 202397, 203078]",1610612741,1610612764,"[1629632, 1629655, 1629690, 203107, 203897]",65,-13,1271,-13.131313131313133,99.0
18,58,1439,15,"[1628418, 1628972, 202397, 202722, 203078]",1610612741,1610612764,"[1629632, 1629655, 1629690, 203107, 203897]",73,-15,1340,-13.88888888888889,108.0
19,58,1538,25,"[1628418, 1628972, 202397, 202722, 203078]",1610612741,1610612764,"[1627853, 1629632, 1629690, 203107, 203897]",83,-25,1440,-21.929824561403507,114.0
20,70,1682,18,"[1629067, 1629060, 101133, 203078, 202397]",1610612741,1610612764,"[203107, 201152, 1629655, 203897, 1627853]",88,-18,1539,-14.516129032258066,124.0
21,75,1704,13,"[1629060, 1629067, 202397, 202722, 203078]",1610612741,1610612764,"[203107, 201152, 1629655, 203897, 1627853]",88,-13,1683,-10.236220472440944,127.0
22,81,1862,14,"[1629060, 1629067, 202397, 202722, 203078]",1610612741,1610612764,"[1626245, 1627853, 201152, 203107, 203897]",95,-14,1705,-9.859154929577464,142.0
23,83,1953,12,"[1629060, 1629067, 202397, 202722, 203078]",1610612741,1610612764,"[1626245, 1627853, 1629632, 201152, 203897]",95,-12,1863,-8.16326530612245,147.0
24,83,1990,12,"[1629010, 1629060, 202397, 202722, 203078]",1610612741,1610612764,"[1626245, 1627853, 1629632, 201152, 203897]",95,-12,1954,-8.0,150.0
25,85,2127,14,"[1628972, 1629010, 1629060, 202722, 203078]",1610612741,1610612764,"[1626245, 1627885, 1629632, 201152, 203897]",99,-14,1991,-8.695652173913043,161.0
26,85,2159,16,"[1628418, 1628972, 1629010, 202722, 203078]",1610612741,1610612764,"[1626245, 1627885, 1629632, 1629690, 203107]",101,-16,2128,-9.815950920245399,163.0
27,87,2270,15,"[1628972, 1629010, 202722, 203078, 203894]",1610612741,1610612764,"[1627853, 1627885, 1629632, 1629690, 203107]",102,-15,2160,-8.823529411764707,170.0
28,91,2366,14,"[202722, 203894, 1628972, 1629010, 1628418]",1610612741,1610612764,"[203107, 1629655, 1629632, 1627885, 1629690]",105,-14,2271,-8.045977011494253,174.0
29,96,2429,11,"[1628418, 1628972, 202722, 203078, 203894]",1610612741,1610612764,"[1626245, 1627885, 1629632, 1629690, 203107]",107,-11,2367,-6.111111111111111,180.0
30,100,2467,7,"[1628972, 1629021, 202722, 203078, 203894]",1610612741,1610612764,"[1626245, 1627885, 201152, 203107, 203897]",107,-7,2430,-3.825136612021858,183.0
31,100,2481,10,"[1628972, 1629021, 202722, 203078, 203894]",1610612741,1610612764,"[1626245, 1629632, 201152, 203107, 203897]",110,-10,2468,-5.434782608695652,184.0
32,109,2672,10,"[1629021, 1629060, 202722, 203078, 203894]",1610612741,1610612764,"[1626245, 1629632, 201152, 203107, 203897]",119,-10,2482,-5.025125628140704,199.0
33,117,2829,9,"[1629021, 1629060, 202722, 203078, 203894]",1610612741,1610612764,"[1629632, 1629655, 201152, 203107, 203897]",126,-9,2673,-4.30622009569378,209.0
34,117,2866,9,"[1629021, 1629060, 202397, 202722, 203078]",1610612741,1610612764,"[1629632, 1629655, 201152, 203107, 203897]",126,-9,2830,-4.265402843601896,211.0
35,117,9999999,9,"[1627780, 1628972, 1629010, 1629021, 1629067]",1610612741,1610612764,"[1629632, 1629690, 201152, 203107, 203897]",126,-9,2867,-4.245283018867925,212.0
