,team1_id,team1_player1,team1_player2,team1_player3,team1_player4,team1_player5,team2_id,team2_player1,team2_player2,team2_player3,team2_player4,team2_player5,game_id,period,possession_start,possession_end,team1_points,team2_points,possession_team
0,1610612744,1629308,203952,203110,1626162,201939,1610612759,201942,1629640,1627751,1630170,1627749,0022000378,1,0,28,0,0,1610612759
1,1610612744,1629308,203952,203110,1626162,201939,1610612759,201942,1629640,1627751,1630170,1627749,0022000378,1,39,41,0,0,1610612744
2,1610612744,1629308,203952,203110,1626162,201939,1610612759,201942,1629640,1627751,1630170,1627749,0022000378,1,46,46,0,0,1610612759
3,1610612744,1629308,203952,203110,1626162,201939,1610612759,201942,1629640,1627751,1630170,1627749,0022000378,1,58,58,0,0,1610612744
4,1610612744,1629308,203952,203110,1626162,201939,1610612759,201942,1629640,1627751,1630170,1627749,0022000378,1,78,78,0,2,1610612759
5,1610612744,1629308,203952,203110,1626162,201939,1610612759,201942,1629640,1627751,1630170,1627749,0022000378,1,89,89,2,0,1610612744
6,1610612744,1629308,203952,203110,1626162,201939,1610612759,201942,1629640,1627751,1630170,1627749,0022000378,1,105,107,0,0,1610612759
7,1610612744,1629308,203952,203110,1626162,201939,1610612759,201942,1629640,1627751,1630170,1627749,0022000378,1,112,112,1,0,1610612744
8,1610612744,1629308,203952,203110,1626162,201939,1610612759,201942,1629640,1627751,1630170,1627749,0022000378,1,131,131,0,2,1610612759
9,1610612744,1629308,203952,203110,1626162,201939,1610612759,201942,1629640,1627751,1630170,1627749,0022000378,1,152,156,0,0,1610612744
10,1610612744,1629308,203952,203110,1626162,201939,1610612759,201942,1629640,1627751,1630170,1627749,0022000378,1,164,175,0,2,1610612759
11,1610612744,1629308,203952,203110,1626162,201939,1610612759,201942,1629640,1627751,1630170,1627749,0022000378,1,186,189,0,0,1610612744
12,1610612744,1629308,203952,203110,1626162,201939,1610612759,201942,1629640,1627751,1630170,1627749,0022000378,1,194,198,0,0,1610612759
13,1610612744,1629308,203952,203110,1626162,201939,1610612759,201942,1629640,1627751,1630170,1627749,0022000378,1,207,207,3,0,1610612744
14,1610612744,1629308,203952,203110,1626162,201939,1610612759,201942,1629640,1627751,1630170,1627749,0022000378,1,223,223,0,2,1610612759
15,1610612744,1629308,203952,203110,1626162,201939,1610612759,201942,1629640,1627751,1630170,1627749,0022000378,1,231,231,0,0,1610612744
16,1610612744,1629308,203952,203110,1626162,201939,1610612759,201942,1629640,1627751,1630170,1627749,0022000378,1,243,247,0,0,1610612759
17,1610612744,1629308,203952,203110,1626162,201939,1610612759,201942,1629640,1627751,1630170,1627749,0022000378,1,264,264,2,0,1610612744
18,1610612744,1629308,203952,203110,1626162,201939,1610612759,201942,1629640,1627751,1630170,1627749,0022000378,1,280,285,0,2,1610612759
19,1610612744,1629308,203952,203110,1626162,201939,1610612759,201942,1629640,1627751,1630170,1627749,0022000378,1,285,298,0,0,1610612744
20,1610612744,1629308,203952,203110,1626162,201939,1610612759,201942,1629640,1627751,1630170,1627749,0022000378,1,304,304,0,2,1610612759
21,1610612744,1629308,203952,203110,1626162,201939,1610612759,201942,1629640,1627751,1630170,1627749,0022000378,1,305,318,0,0,1610612744
22,1610612744,1629308,203952,203110,1626162,201939,1610612759,201942,1629640,1627751,1630170,1627749,0022000378,1,338,338,0,0,1610612759
23,1610612744,1629308,203952,203110,1626162,201939,1610612759,201942,1629640,1627751,1630170,1627749,0022000378,1,338,338,0,0,1610612744
24,1610612744,1629308,203952,203110,1626162,201939,1610612759,1627751,1629640,1630170,201942,201988,0022000378,1,351,351,0,2,1610612759
25,1610612744,1629308,203952,203110,1626162,201939,1610612759,1627751,1629640,1630170,201942,201988,0022000378,1,366,373,0,0,1610612744
26,1610612744,1628539,1629308,201939,203110,203145,1610612759,1627751,1629640,1630170,201942,201988,0022000378,1,380,380,0,0,1610612759
27,1610612744,1628539,1629308,201939,203110,203145,1610612759,1627751,1629640,1630170,201942,201988,0022000378,1,389,395,0,0,1610612744
28,1610612744,1628539,1629308,201939,203110,203145,1610612759,1627751,1629640,1630170,201942,201988,0022000378,1,395,395,0,2,1610612759
29,1610612744,1628539,1629308,201939,203110,203145,1610612759,1629640,1630170,200752,201942,201988,0022000378,1,403,417,3,0,1610612744
30,1610612744,1628539,1629308,201939,203110,203145,1610612759,1629640,1630170,200752,201942,201988,0022000378,1,432,432,0,0,1610612759
31,1610612744,1628539,1629308,201939,203110,203145,1610612759,1629022,1629640,200752,201942,201988,0022000378,1,442,442,2,0,1610612744
32,1610612744,1628539,1629308,201939,203110,203145,1610612759,1629022,1629640,200752,201942,201988,0022000378,1,445,466,0,3,1610612759
33,1610612744,1628539,1629308,201939,203110,203145,1610612759,1629022,1629640,200752,201942,201988,0022000378,1,485,485,2,0,1610612744
34,1610612744,1628539,1629308,201939,203110,203145,1610612759,1629022,1629640,200752,201942,201988,0022000378,1,501,503,0,0,1610612759
35,1610612744,1628539,1629308,201939,203110,203145,1610612759,1629022,1629640,200752,201942,201988,0022000378,1,509,514,0,0,1610612744
36,1610612744,1628539,1629308,201939,203110,203145,1610612759,1629022,1629640,200752,201942,201988,0022000378,1,517,517,0,0,1610612759
37,1610612744,1627814,1628539,201939,203110,203145,1610612759,1626168,1629022,200752,201942,201988,0022000378,1,525,529,0,0,1610612744
38,1610612744,1627814,1628539,201939,203110,203145,1610612759,1626168,1629022,200752,201942,201988,0022000378,1,533,533,0,2,1610612759
39,1610612744,1627814,1628539,201939,203110,203145,1610612759,1626168,1629022,200752,201942,201988,0022000378,1,549,549,2,0,1610612744
40,1610612744,1627814,1628539,201939,203110,203145,1610612759,1626168,1629022,200752,201942,201988,0022000378,1,564,569,0,0,1610612759
41,1610612744,1627814,1628539,201939,203110,203145,1610612759,1626168,1629022,200752,201942,201988,0022000378,1,575,575,2,0,1610612744
42,1610612744,1627814,1628539,201939,203110,203145,1610612759,1626168,1629022,200752,201942,201988,0022000378,1,587,587,0,3,1610612759
43,1610612744,1627814,1628539,201939,203110,203145,1610612759,1626168,1629022,200752,201942,201988,0022000378,1,599,603,2,0,1610612744
44,1610612744,1627814,201939,203110,203145,203952,1610612759,1626168,1629022,200752,201942,201988,0022000378,1,611,621,0,0,1610612759
45,1610612744,1627814,201939,203110,203145,203952,1610612759,1626168,1629022,200752,201942,201988,0022000378,1,632,632,2,0,1610612744
46,1610612744,1627814,201939,203110,203145,203952,1610612759,1626168,1629022,200752,201942,201988,0022000378,1,645,647,0,0,1610612759
47,1610612744,1627814,201939,203110,203145,203952,1610612759,1626168,1629022,200752,201942,201988,0022000378,1,657,657,3,0,1610612744
48,1610612744,1627814,201939,203110,203145,203952,1610612759,1626168,1629022,200752,201942,201988,0022000378,1,676,676,0,2,1610612759
49,1610612744,1627814,201939,203110,203145,203952,1610612759,1626168,1629022,200752,201942,201988,0022000378,1,686,686,2,0,1610612744
50,1610612744,1627814,201939,203110,203145,203952,1610612759,1626168,1629022,200752,201942,201988,0022000378,1,708,711,0,0,1610612759
51,1610612744,1627814,201939,203110,203145,203952,1610612759,1626168,1629022,200752,201942,201988,0022000378,1,720,720,0,0,1610612759
52,1610612744,203952,1626162,1627814,1629672,202954,1610612759,1627749,201988,200752,1626168,1629234,0022000378,2,720,737,2,0,1610612744
53,1610612744,203952,1626162,1627814,1629672,202954,1610612759,1627749,201988,200752,1626168,1629234,0022000378,2,746,746,0,2,1610612759
54,1610612744,203952,1626162,1627814,1629672,202954,1610612759,1627749,201988,200752,1626168,1629234,0022000378,2,767,767,3,0,1610612744
55,1610612744,203952,1626162,1627814,1629672,202954,1610612759,1627749,201988,200752,1626168,1629234,0022000378,2,787,805,0,0,1610612759
56,1610612744,203952,1626162,1627814,1629672,202954,1610612759,1627749,201988,200752,1626168,1629234,0022000378,2,808,811,0,0,1610612744
57,1610612744,203952,1626162,1627814,1629672,202954,1610612759,1627749,201988,200752,1626168,1629234,0022000378,2,816,823,0,2,1610612759
58,1610612744,203952,1626162,1627814,1629672,202954,1610612759,1627749,201988,200752,1626168,1629234,0022000378,2,840,840,0,0,1610612744
59,1610612744,203952,1626162,1627814,1629672,202954,1610612759,1627749,1629234,1630170,200752,201988,0022000378,2,859,859,0,2,1610612759
60,1610612744,203952,1626162,1627814,1629672,202954,1610612759,1627749,1629234,1630170,200752,201988,0022000378,2,873,873,3,0,1610612744
61,1610612744,203952,1626162,1627814,1629672,202954,1610612759,1627749,1629234,1630170,200752,201988,0022000378,2,890,890,0,0,1610612759
62,1610612744,203952,1626162,1627814,1629672,202954,1610612759,1627749,1629234,1630170,200752,201988,0022000378,2,907,907,2,0,1610612744
63,1610612744,203952,1626162,1627814,1629672,202954,1610612759,1627749,1629234,1630170,200752,201988,0022000378,2,907,933,0,0,1610612759
64,1610612744,203952,1626162,1627814,1629672,202954,1610612759,1627749,1629234,1629640,1630170,201988,0022000378,2,948,955,0,0,1610612744
65,1610612744,203952,1626162,1627814,1629672,202954,1610612759,1626168,1627749,1627751,1629640,1630170,0022000378,2,979,979,0,2,1610612759
66,1610612744,203952,1626162,1627814,1629672,202954,1610612759,1626168,1627749,1627751,1629640,1630170,0022000378,2,995,995,2,0,1610612744
67,1610612744,203952,1626162,1627814,1629672,202954,1610612759,1626168,1627749,1627751,1629640,1630170,0022000378,2,1015,1015,0,0,1610612759
68,1610612744,203952,1626162,1627814,1629672,202954,1610612759,1626168,1627749,1627751,1629640,1630170,0022000378,2,1024,1026,0,0,1610612744
69,1610612744,203952,1626162,1627814,1629672,202954,1610612759,1626168,1627749,1627751,1629640,1630170,0022000378,2,1035,1035,0,2,1610612759
70,1610612744,203952,1626162,1627814,1629672,202954,1610612759,1626168,1627749,1627751,1629640,1630170,0022000378,2,1052,1052,0,0,1610612744
71,1610612744,203952,1626162,1627814,1629672,202954,1610612759,1626168,1627749,1627751,1629640,1630170,0022000378,2,1062,1064,0,0,1610612759
72,1610612744,203952,1626162,1627814,1629672,202954,1610612759,1626168,1627749,1627751,1629640,1630170,0022000378,2,1070,1072,0,0,1610612744
73,1610612744,203952,1626162,1627814,1629672,202954,1610612759,1626168,1627749,1627751,1629640,1630170,0022000378,2,1079,1081,0,0,1610612759
74,1610612744,203952,1626162,1627814,1629672,202954,1610612759,1626168,1627749,1627751,1629640,1630170,0022000378,2,1092,1095,0,0,1610612744
75,1610612744,1626162,1627814,1629672,201939,203110,1610612759,1626168,1629640,1630170,200752,201942,0022000378,2,1109,1134,0,3,1610612759
76,1610612744,1626162,1627814,1629308,201939,203110,1610612759,1626168,1629640,1630170,200752,201942,0022000378,2,1159,1159,0,0,1610612744
77,1610612744,1626162,1627814,1629308,201939,203110,1610612759,1626168,1629640,1630170,200752,201942,0022000378,2,1177,1177,0,2,1610612759
78,1610612744,1626162,1627814,1629308,201939,203110,1610612759,1626168,1629640,1630170,200752,201942,0022000378,2,1178,1189,2,0,1610612744
79,1610612744,1626162,1629308,201939,203110,203952,1610612759,1626168,1629640,1630170,200752,201942,0022000378,2,1209,1211,0,2,1610612759
80,1610612744,1626162,1629308,201939,203110,203952,1610612759,1626168,1629022,1629640,200752,201942,0022000378,2,1230,1230,2,0,1610612744
81,1610612744,1626162,1629308,201939,203110,203952,1610612759,1626168,1629022,1629640,200752,201942,0022000378,2,1251,1253,0,0,1610612759
82,1610612744,1626162,1629308,201939,203110,203952,1610612759,1626168,1629022,1629640,200752,201942,0022000378,2,1267,1270,0,0,1610612744
83,1610612744,1626162,1629308,201939,203110,203952,1610612759,1626168,1629022,1629640,200752,201942,0022000378,2,1280,1280,0,0,1610612759
84,1610612744,1626162,1629308,201939,203110,203952,1610612759,1626168,1629022,1629640,200752,201942,0022000378,2,1281,1297,0,0,1610612744
85,1610612744,1626162,1629308,201939,203110,203952,1610612759,1626168,1629022,200752,201942,201988,0022000378,2,1315,1315,0,3,1610612759
86,1610612744,1626162,1629308,201939,203110,203952,1610612759,1626168,1629022,200752,201942,201988,0022000378,2,1331,1334,0,0,1610612744
87,1610612744,1626162,1629308,201939,203110,203952,1610612759,1626168,1629022,200752,201942,201988,0022000378,2,1336,1336,0,2,1610612759
88,1610612744,1626162,1629308,201939,203110,203952,1610612759,1626168,1629022,200752,201942,201988,0022000378,2,1352,1352,2,0,1610612744
89,1610612744,1626162,1629308,201939,203110,203952,1610612759,1626168,1629022,200752,201942,201988,0022000378,2,1368,1368,0,0,1610612759
90,1610612744,1626162,1629308,201939,203110,203952,1610612759,1626168,1629022,200752,201942,201988,0022000378,2,1376,1376,2,0,1610612744
91,1610612744,1626162,1629308,201939,203110,203952,1610612759,1626168,1629022,200752,201942,201988,0022000378,2,1397,1401,0,0,1610612759
92,1610612744,1626162,1629308,201939,203110,203952,1610612759,1626168,1629022,200752,201942,201988,0022000378,2,1407,1407,2,0,1610612744
93,1610612744,1626162,1629308,201939,203110,203952,1610612759,1626168,1629022,200752,201942,201988,0022000378,2,1430,1430,0,2,1610612759
94,1610612744,1626162,1629308,201939,203110,203952,1610612759,1626168,1629022,200752,201942,201988,0022000378,2,1440,1440,0,0,1610612759
95,1610612744,1629308,203952,203110,1626162,201939,1610612759,201942,1629640,1627751,1630170,1627749,0022000378,3,1440,1453,3,0,1610612744
96,1610612744,1629308,203952,203110,1626162,201939,1610612759,201942,1629640,1627751,1630170,1627749,0022000378,3,1470,1470,0,3,1610612759
97,1610612744,1629308,203952,203110,1626162,201939,1610612759,201942,1629640,1627751,1630170,1627749,0022000378,3,1486,1487,0,0,1610612744
98,1610612744,1629308,203952,203110,1626162,201939,1610612759,201942,1629640,1627751,1630170,1627749,0022000378,3,1501,1501,0,0,1610612759
99,1610612744,1629308,203952,203110,1626162,201939,1610612759,201942,1629640,1627751,1630170,1627749,0022000378,3,1507,1507,2,0,1610612744
100,1610612744,1629308,203952,203110,1626162,201939,1610612759,201942,1629640,1627751,1630170,1627749,0022000378,3,1533,1539,0,0,1610612759
101,1610612744,1629308,203952,203110,1626162,201939,1610612759,201942,1629640,1627751,1630170,1627749,0022000378,3,1550,1550,3,0,1610612744
102,1610612744,1629308,203952,203110,1626162,201939,1610612759,201942,1629640,1627751,1630170,1627749,0022000378,3,1551,1563,0,0,1610612759
103,1610612744,1629308,203952,203110,1626162,201939,1610612759,201942,1629640,1627751,1630170,1627749,0022000378,3,1573,1577,0,0,1610612744
104,1610612744,1629308,203952,203110,1626162,201939,1610612759,201942,1629640,1627751,1630170,1627749,0022000378,3,1595,1600,0,0,1610612759
105,1610612744,1629308,203952,203110,1626162,201939,1610612759,201942,1629640,1627751,1630170,1627749,0022000378,3,1605,1605,2,0,1610612744
106,1610612744,1629308,203952,203110,1626162,201939,1610612759,201942,1629640,1627751,1630170,1627749,0022000378,3,1618,1618,0,2,1610612759
107,1610612744,1629308,203952,203110,1626162,201939,1610612759,201942,1629640,1627751,1630170,1627749,0022000378,3,1631,1631,3,0,1610612744
108,1610612744,1629308,203952,203110,1626162,201939,1610612759,201942,1629640,1627751,1630170,1627749,0022000378,3,1643,1654,0,0,1610612759
109,1610612744,1629308,203952,203110,1626162,201939,1610612759,201942,1629640,1627751,1630170,1627749,0022000378,3,1666,1666,2,0,1610612744
110,1610612744,1629308,203952,203110,1626162,201939,1610612759,201942,1629640,1627751,1630170,1627749,0022000378,3,1683,1686,0,0,1610612759
111,1610612744,1629308,203952,203110,1626162,201939,1610612759,201942,1629640,1627751,1630170,1627749,0022000378,3,1689,1692,0,0,1610612744
112,1610612744,1629308,203952,203110,1626162,201939,1610612759,201942,1629640,1627751,1630170,1627749,0022000378,3,1704,1704,0,0,1610612759
113,1610612744,1629308,203952,203110,1626162,201939,1610612759,201942,1629640,1627751,1630170,1627749,0022000378,3,1715,1717,0,0,1610612744
114,1610612744,1629308,203952,203110,1626162,201939,1610612759,201942,1629640,1627751,1630170,1627749,0022000378,3,1726,1726,0,0,1610612759
115,1610612744,1629308,203952,203110,1626162,201939,1610612759,201942,1629640,1627751,1630170,1627749,0022000378,3,1731,1731,2,0,1610612744
116,1610612744,1629308,203952,203110,1626162,201939,1610612759,201942,1629640,1627751,1630170,1627749,0022000378,3,1732,1745,0,0,1610612759
117,1610612744,1629308,203952,203110,1626162,201939,1610612759,201942,1629640,1627751,1630170,1627749,0022000378,3,1751,1751,3,0,1610612744
118,1610612744,1629308,203952,203110,1626162,201939,1610612759,201942,1629640,1627751,1630170,1627749,0022000378,3,1781,1781,0,0,1610612759
119,1610612744,1629308,203952,203110,1626162,201939,1610612759,201942,1629640,1627751,1630170,1627749,0022000378,3,1800,1800,3,0,1610612744
120,1610612744,1629308,203952,203110,1626162,201939,1610612759,201942,1629640,1627751,1630170,1627749,0022000378,3,1819,1819,0,0,1610612759
121,1610612744,1626162,1629308,201939,203110,203145,1610612759,1629022,1629640,200752,201942,201988,0022000378,3,1843,1843,3,0,1610612744
122,1610612744,1626162,1629308,201939,203110,203145,1610612759,1629022,1629640,200752,201942,201988,0022000378,3,1856,1856,0,3,1610612759
123,1610612744,1628539,1629308,201939,203110,203145,1610612759,1626168,1629022,1629640,200752,201988,0022000378,3,1863,1866,0,0,1610612744
124,1610612744,1628539,1629308,201939,203110,203145,1610612759,1626168,1629022,1629640,200752,201988,0022000378,3,1881,1881,0,3,1610612759
125,1610612744,1628539,1629308,201939,203110,203145,1610612759,1626168,1629022,1629640,200752,201988,0022000378,3,1901,1907,0,0,1610612744
126,1610612744,1628539,1629308,201939,203110,203145,1610612759,1626168,1629022,1629640,200752,201988,0022000378,3,1909,1917,0,0,1610612759
127,1610612744,1628539,1629308,201939,203110,203145,1610612759,1626168,1629022,1629640,200752,201988,0022000378,3,1921,1921,2,0,1610612744
128,1610612744,1628539,1629308,201939,203110,203145,1610612759,1626168,1629022,1629640,200752,201988,0022000378,3,1937,1937,0,2,1610612759
129,1610612744,1628539,1629308,201939,203110,203145,1610612759,1626168,1629022,1629640,200752,201988,0022000378,3,1950,1950,3,0,1610612744
130,1610612744,1628539,1629308,201939,203110,203145,1610612759,1626168,1629022,1629640,200752,201988,0022000378,3,1969,1969,0,0,1610612759
131,1610612744,1628539,1629308,201939,203110,203145,1610612759,1626168,1629022,1629640,200752,201988,0022000378,3,1974,1974,2,0,1610612744
132,1610612744,1628539,1629308,201939,203110,203145,1610612759,1626168,1629022,1629640,200752,201988,0022000378,3,1975,1994,0,2,1610612759
133,1610612744,1628539,1629308,201939,203110,203145,1610612759,1626168,1629022,1629640,200752,201988,0022000378,3,2009,2009,3,0,1610612744
134,1610612744,1628539,1629308,201939,203110,203145,1610612759,1626168,1629022,1629640,200752,201988,0022000378,3,2027,2029,0,0,1610612759
135,1610612744,1628539,1629308,201939,203110,203145,1610612759,1626168,1629022,1629640,200752,201988,0022000378,3,2033,2054,0,0,1610612744
136,1610612744,1628539,1629308,201939,203110,203145,1610612759,1626168,1629022,1629640,200752,201988,0022000378,3,2061,2061,0,0,1610612759
137,1610612744,1628539,1629308,201939,203110,203145,1610612759,1626168,1629022,1629640,200752,201988,0022000378,3,2064,2068,0,0,1610612744
138,1610612744,1627814,201939,203110,203145,203952,1610612759,1626168,1629022,1629234,200752,201988,0022000378,3,2075,2075,0,2,1610612759
139,1610612744,1627814,201939,203110,203145,203952,1610612759,1626168,1629022,1629234,200752,201988,0022000378,3,2088,2092,0,0,1610612744
140,1610612744,1627814,201939,203110,203145,203952,1610612759,1626168,1629022,1629234,200752,201988,0022000378,3,2099,2099,0,3,1610612759
141,1610612744,1627814,201939,203110,203145,203952,1610612759,1626168,1629022,1629234,200752,201988,0022000378,3,2116,2118,0,0,1610612744
142,1610612744,1627814,201939,203110,203145,203952,1610612759,1626168,1629022,1629234,200752,201988,0022000378,3,2127,2132,0,0,1610612759
143,1610612744,1627814,201939,203110,203145,203952,1610612759,1626168,1629022,1629234,200752,201988,0022000378,3,2150,2158,0,0,1610612744
144,1610612744,1627814,201939,203110,203145,203952,1610612759,1626168,1629022,1629234,200752,201988,0022000378,3,2160,2160,0,0,1610612744
145,1610612744,203952,1626162,1627814,1629672,202954,1610612759,1627749,201988,200752,1626168,1629234,0022000378,4,2160,2177,0,2,1610612759
146,1610612744,203952,1626162,1627814,1629672,202954,1610612759,1627749,201988,200752,1626168,1629234,0022000378,4,2197,2197,2,0,1610612744
147,1610612744,203952,1626162,1627814,1629672,202954,1610612759,1627749,201988,200752,1626168,1629234,0022000378,4,2209,2218,0,0,1610612759
148,1610612744,203952,1626162,1627814,1629672,202954,1610612759,1626168,1627749,1629640,200752,201988,0022000378,4,2224,2224,0,0,1610612744
149,1610612744,203952,1626162,1627814,1629672,202954,1610612759,1626168,1627749,1629640,200752,201988,0022000378,4,2227,2231,0,0,1610612759
150,1610612744,203952,1626162,1627814,1629672,202954,1610612759,1626168,1627749,1629640,200752,201988,0022000378,4,2231,2231,0,0,1610612744
151,1610612744,203952,1626162,1627814,1629672,202954,1610612759,1626168,1627749,1629640,200752,201988,0022000378,4,2241,2241,0,2,1610612759
152,1610612744,203952,1626162,1627814,1629672,202954,1610612759,1626168,1627749,1629640,200752,201988,0022000378,4,2261,2263,0,0,1610612744
153,1610612744,203952,1626162,1627814,1629672,202954,1610612759,1626168,1627749,1629640,200752,201988,0022000378,4,2268,2268,0,2,1610612759
154,1610612744,203952,1626162,1627814,1629672,202954,1610612759,1626168,1627749,1629640,200752,201988,0022000378,4,2268,2281,3,0,1610612744
155,1610612744,203952,1626162,1627814,1629672,202954,1610612759,1626168,1627749,1629640,200752,201988,0022000378,4,2296,2296,0,0,1610612759
156,1610612744,203952,1626162,1627814,1629672,202954,1610612759,1626168,1627749,1629640,200752,201988,0022000378,4,2303,2307,2,0,1610612744
157,1610612744,203952,1626162,1627814,1629672,202954,1610612759,1626168,1627749,1629640,200752,201988,0022000378,4,2316,2316,0,3,1610612759
158,1610612744,203952,1626162,1627814,1629672,202954,1610612759,1626168,1627749,1629640,200752,201988,0022000378,4,2339,2339,3,0,1610612744
159,1610612744,203952,1626162,1627814,1629672,202954,1610612759,1626168,1627749,1629640,200752,201988,0022000378,4,2355,2355,0,2,1610612759
160,1610612744,203952,1626162,1627814,1629672,202954,1610612759,1626168,1627749,1629640,200752,201988,0022000378,4,2370,2373,0,0,1610612744
161,1610612744,203952,1626162,1627814,1629672,202954,1610612759,1626168,1627749,1629640,200752,201988,0022000378,4,2382,2384,0,0,1610612759
162,1610612744,203952,1626162,1627814,1629672,202954,1610612759,1626168,1627749,1629640,200752,201988,0022000378,4,2394,2396,0,0,1610612744
163,1610612744,203952,1626162,1627814,1629672,202954,1610612759,1626168,1627749,1629640,200752,201988,0022000378,4,2399,2399,0,0,1610612759
164,1610612744,203952,1626162,1627814,1629672,202954,1610612759,1626168,1627749,1629640,200752,201988,0022000378,4,2401,2421,3,0,1610612744
165,1610612744,203952,1626162,1627814,1629672,202954,1610612759,1627749,1627751,1629640,1630170,201988,0022000378,4,2434,2434,0,0,1610612759
166,1610612744,203952,1626162,1627814,1629672,202954,1610612759,1627749,1627751,1629640,1630170,201942,0022000378,4,2445,2449,0,0,1610612744
167,1610612744,203952,1626162,1627814,1629672,202954,1610612759,1627749,1627751,1629640,1630170,201942,0022000378,4,2454,2457,0,0,1610612759
168,1610612744,203952,1626162,1627814,1629672,202954,1610612759,1627749,1627751,1629640,1630170,201942,0022000378,4,2467,2467,3,0,1610612744
169,1610612744,203952,1626162,1627814,1629672,202954,1610612759,1627749,1627751,1629640,1630170,201942,0022000378,4,2480,2480,0,2,1610612759
170,1610612744,203952,1626162,1627814,1629672,202954,1610612759,1627749,1627751,1629640,1630170,201942,0022000378,4,2493,2496,0,0,1610612744
171,1610612744,203952,1626162,1627814,1629672,202954,1610612759,1627749,1627751,1629640,1630170,201942,0022000378,4,2503,2505,0,0,1610612759
172,1610612744,203952,1626162,1627814,1629672,202954,1610612759,1627749,1627751,1629640,1630170,201942,0022000378,4,2521,2525,0,0,1610612744
173,1610612744,203952,1626162,1627814,1629672,202954,1610612759,1627749,1627751,1629640,1630170,201942,0022000378,4,2539,2542,0,0,1610612759
174,1610612744,203952,1626162,1627814,1629672,202954,1610612759,1627749,1627751,1629640,1630170,201942,0022000378,4,2544,2552,0,0,1610612744
175,1610612744,1626162,1629308,201939,203110,203952,1610612759,1627749,1627751,1629640,1630170,201942,0022000378,4,2553,2553,0,1,1610612759
176,1610612744,1626162,1629308,201939,203110,203952,1610612759,1627749,1627751,1629640,1630170,201942,0022000378,4,2569,2569,2,0,1610612744
177,1610612744,1626162,1629308,201939,203110,203952,1610612759,1627749,1627751,1629640,1630170,201942,0022000378,4,2586,2588,0,0,1610612759
178,1610612744,1626162,1629308,201939,203110,203952,1610612759,1627749,1627751,1629640,1630170,201942,0022000378,4,2600,2600,2,0,1610612744
179,1610612744,1626162,1629308,201939,203110,203952,1610612759,1627749,1627751,1629640,1630170,201942,0022000378,4,2620,2620,0,2,1610612759
180,1610612744,1626162,1629308,201939,203110,203952,1610612759,1627749,1627751,1629640,1630170,201942,0022000378,4,2632,2632,0,0,1610612744
181,1610612744,1626162,1629308,201939,203110,203952,1610612759,1627751,1628966,1629640,1629683,1630170,0022000378,4,2645,2651,0,0,1610612759
182,1610612744,1626162,1629308,201939,203110,203952,1610612759,1627751,1628966,1629640,1629683,1630170,0022000378,4,2663,2666,0,0,1610612744
183,1610612744,1626162,1629308,201939,203110,203952,1610612759,1627751,1628966,1629640,1629683,1630170,0022000378,4,2672,2689,0,0,1610612759
184,1610612744,1626162,1627814,1628539,202954,203145,1610612759,1626168,1628966,1629022,1629234,1629683,0022000378,4,2706,2706,0,0,1610612744
185,1610612744,1626162,1627814,1628539,202954,203145,1610612759,1626168,1628966,1629022,1629234,1629683,0022000378,4,2706,2729,0,2,1610612759
186,1610612744,1627814,1628539,1629672,202954,203145,1610612759,1626168,1628966,1629022,1629234,1629683,0022000378,4,2745,2747,0,0,1610612744
187,1610612744,1627814,1628539,1629672,202954,203145,1610612759,1626168,1628966,1629022,1629234,1629683,0022000378,4,2755,2761,0,0,1610612759
188,1610612744,1627814,1628539,1629672,202954,203145,1610612759,1626168,1628966,1629022,1629234,1629683,0022000378,4,2764,2764,3,0,1610612744
189,1610612744,1627814,1628539,1629672,202954,203145,1610612759,1626168,1628966,1629022,1629234,1629683,0022000378,4,2776,2780,0,0,1610612759
190,1610612744,1627814,1628539,1629672,202954,203145,1610612759,1626168,1628966,1629022,1629234,1629683,0022000378,4,2781,2781,0,0,1610612744
191,1610612744,1627814,1628539,1629672,202954,203145,1610612759,1626168,1628966,1629022,1629234,1629683,0022000378,4,2799,2799,0,2,1610612759
192,1610612744,1627814,1628539,1629672,202954,203145,1610612759,1626168,1628966,1629022,1629234,1629683,0022000378,4,2813,2813,3,0,1610612744
193,1610612744,1627814,1628539,1629672,202954,203145,1610612759,1626168,1628966,1629022,1629234,1629683,0022000378,4,2829,2829,0,0,1610612759
194,1610612744,1627814,1628539,1629672,202954,203145,1610612759,1626168,1628966,1629022,1629234,1629683,0022000378,4,2838,2838,2,0,1610612744
195,1610612744,1627814,1628539,1629672,202954,203145,1610612759,1626168,1628966,1629022,1629234,1629683,0022000378,4,2849,2851,0,1,1610612759
196,1610612744,1627814,1628539,1629672,202954,203145,1610612759,1626168,1628966,1629022,1629234,1629683,0022000378,4,2863,2866,0,0,1610612744
