,stint_end,t1_players,t2_pm,t2_points_scored,stint_start,t1_pm,t1_points_scored,t2_id,t1_id,t2_players,margin_per_100,num_poss
0,291,"[1630256, 1630231, 203482, 1629017, 201571]",-5,11,0,5,16,1610612747,1610612745,"[202083, 202693, 203083, 203484, 1629659]",25.0,20.0
1,348,"[1630256, 1630231, 203482, 1629017, 201571]",-3,13,292,3,16,1610612747,1610612745,"[202083, 202693, 203083, 203484, 1629659]",12.5,24.0
2,392,"[1629017, 1630231, 1630237, 201571, 203482]",2,18,349,-2,16,1610612747,1610612745,"[202083, 202693, 203083, 203484, 1629659]",-7.142857142857142,28.0
3,540,"[1629017, 1630231, 1630237, 201571, 203482]",9,26,393,-9,17,1610612747,1610612745,"[1628398, 1629659, 202693, 203083, 203484]",-23.076923076923077,39.0
4,677,"[1629717, 1630231, 1630237, 201571, 203482]",5,29,541,-5,24,1610612747,1610612745,"[1628398, 202693, 203083, 203463, 203484]",-10.869565217391305,46.0
5,719,"[1628419, 1629017, 1629717, 1630231, 1630237]",8,34,678,-8,26,1610612747,1610612745,"[1626149, 1628035, 1628398, 1629659, 203463]",-16.3265306122449,49.0
6,892,"[1628419, 1629017, 1629717, 1630237, 1630256]",7,38,720,-7,31,1610612747,1610612745,"[1626149, 1628035, 1628398, 1629659, 203463]",-11.666666666666666,60.0
7,1020,"[1630256, 1629017, 1630237, 1629717, 1628419]",10,46,893,-10,36,1610612747,1610612745,"[1629659, 1628398, 203463, 1626149, 1628035]",-14.492753623188406,69.0
8,1120,"[1630256, 1629017, 1630237, 1629717, 1628419]",7,48,1021,-7,41,1610612747,1610612745,"[1626149, 1628035, 1629659, 1629719, 203463]",-9.210526315789473,76.0
9,1323,"[1628419, 1629017, 1629717, 1630231, 1630237]",6,54,1121,-6,48,1610612747,1610612745,"[1626149, 1628398, 1629659, 1629719, 203463]",-6.666666666666667,90.0
10,1439,"[1628419, 1629017, 1629717, 1630231, 1630237]",6,59,1324,-6,53,1610612747,1610612745,"[1628398, 202693, 203083, 203463, 203484]",-6.122448979591836,98.0
11,1698,"[1629717, 1630231, 1630237, 201571, 203482]",2,69,1440,-2,67,1610612747,1610612745,"[1628398, 1629659, 202083, 203083, 203484]",-1.7391304347826086,115.0
12,1712,"[1630256, 1630231, 203482, 1629017, 201571]",0,69,1699,0,69,1610612747,1610612745,"[202083, 202693, 203083, 203484, 1629659]",0.0,116.0
13,1787,"[1629017, 1630231, 1630237, 201571, 203482]",0,75,1713,0,75,1610612747,1610612745,"[202083, 202693, 203083, 203484, 1629659]",0.0,121.0
14,1884,"[1629017, 1629717, 1630231, 1630237, 203482]",7,85,1788,-7,78,1610612747,1610612745,"[202083, 202693, 203083, 203484, 1629659]",-5.343511450381679,131.0
15,1931,"[1629017, 1629717, 1630231, 1630237, 203482]",4,87,1885,-4,83,1610612747,1610612745,"[1628398, 1629659, 202693, 203083, 203484]",-2.9629629629629632,135.0
16,1999,"[1629017, 1629717, 1630231, 1630237, 203482]",1,89,1932,-1,88,1610612747,1610612745,"[1626149, 1628398, 202693, 203463, 203484]",-0.7142857142857143,140.0
17,2052,"[1628419, 1629017, 1629717, 1630231, 1630237]",2,92,2000,-2,90,1610612747,1610612745,"[1626149, 1628035, 1628398, 203463, 203484]",-1.3888888888888888,144.0
18,2156,"[1628419, 1629017, 1629717, 1630231, 1630237]",7,100,2053,-7,93,1610612747,1610612745,"[1626149, 1628035, 1628398, 1629659, 203463]",-4.635761589403973,151.0
19,2159,"[1628419, 1629017, 1629717, 1630231, 201571]",4,100,2157,-4,96,1610612747,1610612745,"[1626149, 1628035, 1628398, 1629659, 203463]",-2.631578947368421,152.0
20,2259,"[1628419, 1629017, 1629717, 1630231, 201571]",4,106,2160,-4,102,1610612747,1610612745,"[1626149, 1628398, 1629659, 202693, 203463]",-2.5,160.0
21,2393,"[1630256, 201571, 1630237, 1629717, 1628419]",6,110,2260,-6,104,1610612747,1610612745,"[1629659, 1628398, 203463, 1626149, 1628035]",-3.571428571428571,168.0
22,2465,"[1630256, 201571, 1630237, 1629717, 1628419]",2,110,2394,-2,108,1610612747,1610612745,"[1626149, 1628035, 1629659, 202083, 203463]",-1.1560693641618496,173.0
23,2495,"[1628419, 1629017, 1629717, 1630237, 1630256]",4,112,2466,-4,108,1610612747,1610612745,"[1626149, 1628035, 1628398, 202083, 203463]",-2.2988505747126435,174.0
24,2605,"[1628419, 1629017, 1629717, 1630231, 1630237]",5,118,2496,-5,113,1610612747,1610612745,"[1626149, 1628398, 202083, 202693, 203484]",-2.7472527472527473,182.0
25,2702,"[1629017, 1629717, 1630231, 1630237, 203482]",7,120,2606,-7,113,1610612747,1610612745,"[1626149, 1628398, 202083, 202693, 203484]",-3.7037037037037033,189.0
26,2832,"[1629017, 1629717, 1630231, 1630237, 203482]",2,121,2703,-2,119,1610612747,1610612745,"[1626149, 1628398, 1629659, 202083, 203484]",-1.0204081632653061,196.0
27,2847,"[1629717, 1630231, 1630256, 201571, 203482]",1,121,2833,-1,120,1610612747,1610612745,"[1626149, 1628398, 1629659, 202083, 203484]",-0.5076142131979695,197.0
28,2857,"[1629017, 1629717, 1630231, 1630256, 203482]",1,121,2848,-1,120,1610612747,1610612745,"[1626149, 1628398, 1629659, 202083, 203484]",-0.5050505050505051,198.0
29,2873,"[1629717, 1630231, 1630256, 201571, 203482]",-1,121,2858,1,122,1610612747,1610612745,"[1626149, 1628398, 1629659, 202083, 203484]",0.5025125628140703,199.0
30,2879,"[1629017, 1629717, 1630231, 1630256, 203482]",1,123,2874,-1,122,1610612747,1610612745,"[1626149, 1628398, 1629659, 203463, 203484]",-0.5,200.0
31,9999999,"[1629717, 1630231, 1630256, 201571, 203482]",2,124,2880,-2,122,1610612747,1610612745,"[1628398, 1629659, 202083, 203463, 203484]",-0.9900990099009901,202.0
