,t1_pm,t2_pm,stint_start,t2_points_scored,t2_players,t2_id,t1_id,t1_players,stint_end,t1_points_scored,margin_per_100,num_poss
0,11,-11,0,9,"[203952, 203110, 1630164, 1626162, 1629673]",1610612744,1610612755,"[201980, 202699, 1628396, 1627788, 1627732]",369,20,40.74074074074074,27.0
1,16,-16,370,9,"[203952, 203110, 1630164, 1626162, 1629673]",1610612744,1610612755,"[201980, 202699, 1628396, 1627788, 1627732]",490,25,45.714285714285715,35.0
2,19,-19,491,11,"[1629673, 1630164, 203110, 203145, 203952]",1610612744,1610612755,"[201980, 202699, 1628396, 1627788, 1627732]",579,30,48.717948717948715,39.0
3,20,-20,580,11,"[1626172, 1629673, 203110, 203145, 203952]",1610612744,1610612755,"[1627732, 1629003, 201980, 202699, 2730]",601,31,48.78048780487805,41.0
4,20,-20,602,15,"[1626172, 1630185, 203110, 203145, 203952]",1610612744,1610612755,"[1627732, 1629003, 201980, 203118, 2730]",672,35,41.66666666666667,48.0
5,18,-18,673,17,"[1626172, 1627814, 1630185, 203145, 203952]",1610612744,1610612755,"[1629003, 1629680, 201980, 203118, 2730]",718,35,34.61538461538461,52.0
6,10,-10,719,29,"[1626172, 1627814, 1630185, 203145, 203952]",1610612744,1610612755,"[1629003, 1629680, 1630178, 203118, 2730]",944,39,14.925373134328357,67.0
7,10,-10,945,29,"[1626162, 1629673, 1626172, 1630185, 1627814]",1610612744,1610612755,"[1629003, 2730, 203118, 1629680, 1630178]",977,39,14.492753623188406,69.0
8,11,-11,978,33,"[1626162, 1629673, 1626172, 1630185, 1627814]",1610612744,1610612755,"[1627788, 1629003, 1629680, 203118, 2730]",1052,44,14.666666666666666,75.0
9,15,-15,1053,37,"[1626162, 1626172, 1627814, 1630185, 203952]",1610612744,1610612755,"[1627732, 1627788, 1628396, 201980, 202699]",1215,52,17.441860465116278,86.0
10,16,-16,1216,40,"[1627814, 1630164, 1630185, 203110, 203952]",1610612744,1610612755,"[1627732, 1627788, 1628396, 201980, 202699]",1306,56,17.391304347826086,92.0
11,11,-11,1307,48,"[1626162, 1629673, 1630164, 203110, 203952]",1610612744,1610612755,"[1627732, 1627788, 1628396, 201980, 202699]",1432,59,11.0,100.0
12,11,-11,1433,48,"[1626162, 1627814, 1629673, 1630164, 203110]",1610612744,1610612755,"[1627732, 1627788, 1628396, 201980, 202699]",1438,59,10.891089108910892,101.0
13,0,0,1439,71,"[1626162, 1627814, 1629673, 1630164, 203110]",1610612744,1610612755,"[1627732, 1628396, 1629680, 201980, 202699]",1813,71,0.0,126.0
14,0,0,1814,74,"[203952, 203110, 1630164, 1626162, 1629673]",1610612744,1610612755,"[201980, 202699, 1628396, 1627788, 1627732]",1854,74,0.0,129.0
15,-4,4,1855,78,"[1626162, 1629673, 1630164, 203110, 203145]",1610612744,1610612755,"[1627732, 1627788, 1628396, 1629680, 202699]",1896,74,-3.0303030303030303,132.0
16,-4,4,1897,80,"[1626162, 1629673, 1630164, 203110, 203145]",1610612744,1610612755,"[1627732, 1628396, 1629003, 1629680, 203118]",1964,76,-2.898550724637681,138.0
17,-3,3,1965,80,"[1626162, 1629673, 1630164, 203110, 203145]",1610612744,1610612755,"[1627732, 1629003, 1629680, 203118, 2730]",1980,77,-2.158273381294964,139.0
18,-5,5,1981,82,"[1626162, 1626172, 1629673, 203110, 203145]",1610612744,1610612755,"[1629003, 1629680, 1630178, 203118, 2730]",2021,77,-3.546099290780142,141.0
19,-8,8,2022,88,"[1626162, 1626172, 1630185, 203110, 203145]",1610612744,1610612755,"[1629003, 1629680, 1630178, 203118, 2730]",2159,80,-5.333333333333334,150.0
20,-8,8,2160,88,"[1626162, 1626172, 1627814, 1630185, 203145]",1610612744,1610612755,"[1629003, 1629680, 1630178, 203118, 2730]",2232,80,-5.194805194805195,154.0
21,-8,8,2233,88,"[1629673, 203145, 1626172, 1630185, 1627814]",1610612744,1610612755,"[202699, 1629003, 2730, 1629680, 1630178]",2266,80,-5.128205128205128,156.0
22,-7,7,2267,93,"[1629673, 203145, 1626172, 1630185, 1627814]",1610612744,1610612755,"[1627788, 1629680, 1630178, 202699, 2730]",2368,86,-4.320987654320987,162.0
23,-7,7,2369,93,"[1626172, 1627814, 1629673, 1630185, 203952]",1610612744,1610612755,"[1627788, 1628396, 1629680, 1630178, 202699]",2416,86,-4.242424242424243,165.0
24,-7,7,2417,93,"[1626172, 1627814, 1629673, 1630185, 203952]",1610612744,1610612755,"[1627732, 1627788, 1628396, 1629680, 202699]",2425,86,-4.191616766467066,167.0
25,-2,2,2426,95,"[1626162, 1627814, 1629673, 203110, 203952]",1610612744,1610612755,"[1627732, 1627788, 1628396, 201980, 202699]",2567,93,-1.1428571428571428,175.0
26,1,-1,2568,99,"[1626162, 1627814, 1629673, 203110, 203952]",1610612744,1610612755,"[1627732, 1628396, 1629003, 201980, 202699]",2712,100,0.5434782608695652,184.0
27,4,-4,2713,99,"[1626162, 1629673, 1630164, 203110, 203952]",1610612744,1610612755,"[1627732, 1628396, 1629003, 201980, 202699]",2747,103,2.1505376344086025,186.0
28,6,-6,2748,101,"[1626162, 1626172, 1629673, 203110, 203952]",1610612744,1610612755,"[1627732, 1628396, 1629003, 201980, 202699]",2837,107,3.125,192.0
29,7,-7,2838,101,"[1626162, 1627814, 1629673, 203110, 203952]",1610612744,1610612755,"[1627732, 1628396, 1629003, 201980, 202699]",2871,108,3.571428571428571,196.0
30,7,-7,2872,101,"[1626162, 1627814, 1629673, 203110, 203952]",1610612744,1610612755,"[1627732, 1629003, 1629680, 201980, 202699]",9999999,108,3.5532994923857872,197.0
