,team1_id,team1_player1,team1_player2,team1_player3,team1_player4,team1_player5,team2_id,team2_player1,team2_player2,team2_player3,team2_player4,team2_player5,game_id,period,possession_start,possession_end,team1_points,team2_points,possession_team
0,1610612745,1629726,1630256,1628464,1629717,201571,1610612739,1628374,1629731,1628386,1630171,1629636,0022100417,1,0,17,0,0,1610612739
1,1610612745,1629726,1630256,1628464,1629717,201571,1610612739,1628374,1629731,1628386,1630171,1629636,0022100417,1,30,32,0,0,1610612745
2,1610612745,1629726,1630256,1628464,1629717,201571,1610612739,1628374,1629731,1628386,1630171,1629636,0022100417,1,42,49,0,0,1610612739
3,1610612745,1629726,1630256,1628464,1629717,201571,1610612739,1628374,1629731,1628386,1630171,1629636,0022100417,1,56,60,0,0,1610612745
4,1610612745,1629726,1630256,1628464,1629717,201571,1610612739,1628374,1629731,1628386,1630171,1629636,0022100417,1,72,72,0,2,1610612739
5,1610612745,1629726,1630256,1628464,1629717,201571,1610612739,1628374,1629731,1628386,1630171,1629636,0022100417,1,96,99,0,0,1610612745
6,1610612745,1629726,1630256,1628464,1629717,201571,1610612739,1628374,1629731,1628386,1630171,1629636,0022100417,1,113,113,0,2,1610612739
7,1610612745,1629726,1630256,1628464,1629717,201571,1610612739,1628374,1629731,1628386,1630171,1629636,0022100417,1,128,128,0,0,1610612745
8,1610612745,1629726,1630256,1628464,1629717,201571,1610612739,1628374,1629731,1628386,1630171,1629636,0022100417,1,144,147,0,0,1610612739
9,1610612745,1629726,1630256,1628464,1629717,201571,1610612739,1628374,1629731,1628386,1630171,1629636,0022100417,1,149,151,0,0,1610612745
10,1610612745,1629726,1630256,1628464,1629717,201571,1610612739,1628374,1629731,1628386,1630171,1629636,0022100417,1,152,152,0,0,1610612739
11,1610612745,1629726,1630256,1628464,1629717,201571,1610612739,1628374,1629731,1628386,1630171,1629636,0022100417,1,163,167,0,0,1610612745
12,1610612745,1629726,1630256,1628464,1629717,201571,1610612739,1628374,1629731,1628386,1630171,1629636,0022100417,1,176,176,0,3,1610612739
13,1610612745,1629726,1630256,1628464,1629717,201571,1610612739,1628374,1629731,1628386,1630171,1629636,0022100417,1,193,197,0,0,1610612745
14,1610612745,1629726,1630256,1628464,1629717,201571,1610612739,1628374,1629731,1628386,1630171,1629636,0022100417,1,203,207,0,0,1610612739
15,1610612745,1629726,1630256,1628464,1629717,201571,1610612739,1628374,1629731,1628386,1630171,1629636,0022100417,1,217,221,3,0,1610612745
16,1610612745,1629726,1630256,1628464,1629717,201571,1610612739,1628374,1629731,1628386,1630171,1629636,0022100417,1,231,231,0,2,1610612739
17,1610612745,1629726,1630256,1628464,1629717,201571,1610612739,1628374,1629731,1628386,1630171,1629636,0022100417,1,255,258,2,0,1610612745
18,1610612745,1629726,1630256,1628464,1629717,201571,1610612739,1628374,1629731,1628386,1630171,1629636,0022100417,1,262,262,0,3,1610612739
19,1610612745,1629726,1630256,1628464,1629717,201571,1610612739,1628374,1629731,1628386,1630171,1629636,0022100417,1,278,278,0,0,1610612745
20,1610612745,1629726,1630256,1628464,1629717,201571,1610612739,1628374,1629731,1628386,1630171,1629636,0022100417,1,285,285,0,0,1610612739
21,1610612745,1629726,1630256,1628464,1629717,201571,1610612739,1628374,1629731,1628386,1630171,1629636,0022100417,1,300,300,2,0,1610612745
22,1610612745,1629726,1630256,1628464,1629717,201571,1610612739,1628374,1629731,1628386,1630171,1629636,0022100417,1,310,310,0,0,1610612739
23,1610612745,1629726,1630256,1628464,1629717,201571,1610612739,1628374,1629731,1628386,1630171,1629636,0022100417,1,315,315,2,0,1610612745
24,1610612745,1629726,1630256,1628464,1629717,201571,1610612739,1628374,1629731,1628386,1630171,1629636,0022100417,1,315,333,0,0,1610612739
25,1610612745,1629726,1630256,1628464,1629717,201571,1610612739,1628386,1629636,1629731,1630171,201567,0022100417,1,341,341,0,0,1610612745
26,1610612745,1629726,1630256,1628464,1629717,201571,1610612739,1628386,1629636,1629731,1630171,201567,0022100417,1,349,364,0,0,1610612739
27,1610612745,1629726,1630256,1628464,1629717,201571,1610612739,1628386,1629636,1629731,1630171,201567,0022100417,1,382,389,0,0,1610612745
28,1610612745,1629726,1630256,1628464,1629717,201571,1610612739,1628386,1629731,1630171,201567,201937,0022100417,1,397,397,0,2,1610612739
29,1610612745,1628464,1629717,1630231,1630256,201571,1610612739,1628386,1629731,1630171,201567,201937,0022100417,1,410,410,0,0,1610612745
30,1610612745,1628464,1629717,1630231,1630256,201571,1610612739,1628386,1629731,1630171,201567,201937,0022100417,1,423,429,0,0,1610612739
31,1610612745,1628464,1629717,1630231,1630256,201571,1610612739,1628386,1629731,1630171,201567,201937,0022100417,1,437,439,1,0,1610612745
32,1610612745,1629717,1630231,1630256,1630578,201571,1610612739,1626224,1630171,201567,201937,202334,0022100417,1,461,463,0,0,1610612739
33,1610612745,1629717,1630231,1630256,1630578,201571,1610612739,1626224,1630171,201567,201937,202334,0022100417,1,468,468,0,0,1610612745
34,1610612745,1629717,1630231,1630256,1630578,201571,1610612739,1626224,1629636,201567,201937,202334,0022100417,1,484,484,0,3,1610612739
35,1610612745,1629717,1630231,1630256,1630578,201571,1610612739,1626224,1629636,201567,201937,202334,0022100417,1,510,512,0,0,1610612745
36,1610612745,1629717,1630231,1630256,1630578,201571,1610612739,1626224,1629636,201567,201937,202334,0022100417,1,518,518,0,2,1610612739
37,1610612745,1629717,1630231,1630256,1630578,201571,1610612739,1626224,1629636,201567,201937,202334,0022100417,1,519,535,0,0,1610612745
38,1610612745,1628021,1629717,1630231,1630528,1630578,1610612739,1626224,1629636,201567,201937,202334,0022100417,1,549,552,0,0,1610612739
39,1610612745,1628021,1629717,1630231,1630528,1630578,1610612739,1626224,1629636,201567,201937,202334,0022100417,1,555,555,0,0,1610612745
40,1610612745,1628021,1629717,1630231,1630528,1630578,1610612739,1626224,1629636,201567,201937,202334,0022100417,1,563,563,0,2,1610612739
41,1610612745,1628021,1629717,1630231,1630528,1630578,1610612739,1626224,1629636,201567,201937,202334,0022100417,1,581,581,0,0,1610612745
42,1610612745,1628021,1629717,1630231,1630528,1630578,1610612739,1626224,1629636,201567,201937,202334,0022100417,1,598,598,0,3,1610612739
43,1610612745,1628021,1629717,1630231,1630528,1630578,1610612739,1626224,1629636,201567,201937,202334,0022100417,1,613,613,2,0,1610612745
44,1610612745,1628021,1629717,1630231,1630528,1630578,1610612739,1626224,1629636,201567,201937,202334,0022100417,1,623,633,0,3,1610612739
45,1610612745,1628021,1629726,1630231,1630528,1630578,1610612739,1626224,1629636,201567,201937,202334,0022100417,1,645,645,2,0,1610612745
46,1610612745,1628021,1629726,1630231,1630528,1630578,1610612739,1626224,1629636,201567,201937,202334,0022100417,1,661,661,0,2,1610612739
47,1610612745,1628021,1629726,1630231,1630528,1630578,1610612739,1626224,1629636,201567,201937,202334,0022100417,1,675,675,2,0,1610612745
48,1610612745,1628021,1629726,1630231,1630528,1630578,1610612739,1626224,1629636,201567,201937,202334,0022100417,1,682,682,0,2,1610612739
49,1610612745,1628021,1629726,1630231,1630528,1630578,1610612739,1626224,1629636,201567,201937,202334,0022100417,1,694,694,0,0,1610612745
50,1610612745,1628021,1629726,1630231,1630528,1630578,1610612739,1626224,1629636,201567,201937,202334,0022100417,1,716,716,0,2,1610612739
51,1610612745,1628021,1629726,1630231,1630528,1630578,1610612739,1626224,1629636,201567,201937,202334,0022100417,1,720,720,0,0,1610612745
52,1610612745,1628021,1629726,1630231,1630528,1630578,1610612739,1626224,1629636,201567,201937,202334,0022100417,1,720,720,0,2,1610612739
53,1610612745,1629726,201571,1630231,1630578,1628021,1610612739,1628374,1629636,201567,201937,1626224,0022100417,2,720,741,0,0,1610612745
54,1610612745,1629726,201571,1630231,1630578,1628021,1610612739,1628374,1629636,201567,201937,1626224,0022100417,2,743,743,0,2,1610612739
55,1610612745,1629726,201571,1630231,1630578,1628021,1610612739,1628374,1629636,201567,201937,1626224,0022100417,2,756,758,0,0,1610612745
56,1610612745,1629726,201571,1630231,1630578,1628021,1610612739,1628374,1629636,201567,201937,1626224,0022100417,2,758,758,0,0,1610612739
57,1610612745,1629726,201571,1630231,1630578,1628021,1610612739,1628374,1629636,201567,201937,1626224,0022100417,2,769,771,0,0,1610612745
58,1610612745,1629726,201571,1630231,1630578,1628021,1610612739,1628374,1629636,201567,201937,1626224,0022100417,2,790,790,0,3,1610612739
59,1610612745,1629726,201571,1630231,1630578,1628021,1610612739,1628374,1629636,201567,201937,1626224,0022100417,2,791,807,0,0,1610612745
60,1610612745,1629726,201571,1630231,1630578,1628021,1610612739,1628374,1629636,201567,201937,1626224,0022100417,2,814,814,0,2,1610612739
61,1610612745,1629726,201571,1630231,1630578,1628021,1610612739,1628374,1629636,201567,201937,1626224,0022100417,2,831,834,0,0,1610612745
62,1610612745,1629726,201571,1630231,1630578,1628021,1610612739,1628374,1629636,201567,201937,1626224,0022100417,2,840,840,0,3,1610612739
63,1610612745,1629726,201571,1630231,1630578,1628021,1610612739,1628374,1629636,201567,201937,1626224,0022100417,2,859,861,0,0,1610612745
64,1610612745,1629726,201571,1630231,1630578,1628021,1610612739,1628374,1629636,201567,201937,1626224,0022100417,2,863,864,0,2,1610612739
65,1610612745,1628021,1629726,1630578,1630586,201571,1610612739,1628374,1629636,201567,201937,1626224,0022100417,2,872,872,3,0,1610612745
66,1610612745,1628021,1629726,1630578,1630586,201571,1610612739,1628374,1629636,201567,201937,1626224,0022100417,2,894,898,0,0,1610612739
67,1610612745,1628021,1629726,1630578,1630586,201571,1610612739,1628374,1629636,201567,201937,1626224,0022100417,2,911,911,2,0,1610612745
68,1610612745,1628021,1629726,1630578,1630586,201571,1610612739,1628374,1629636,201567,201937,1626224,0022100417,2,917,923,0,3,1610612739
69,1610612745,1628021,1629726,1630578,1630586,201571,1610612739,1626224,1628374,1629636,1629731,1630171,0022100417,2,944,944,2,0,1610612745
70,1610612745,1628021,1629726,1630578,1630586,201571,1610612739,1626224,1628374,1629636,1629731,1630171,0022100417,2,959,963,0,0,1610612739
71,1610612745,1628021,1629726,1630578,1630586,201571,1610612739,1626224,1628374,1629636,1629731,1630171,0022100417,2,964,964,2,0,1610612745
72,1610612745,1628021,1629726,1630578,1630586,201571,1610612739,1626224,1628374,1629636,1629731,1630171,0022100417,2,977,982,0,0,1610612739
73,1610612745,1628021,1629726,1630578,1630586,201571,1610612739,1626224,1628374,1629636,1629731,1630171,0022100417,2,990,993,0,0,1610612745
74,1610612745,1628021,1629726,1630578,1630586,201571,1610612739,1626224,1628374,1629636,1629731,1630171,0022100417,2,994,996,0,1,1610612739
75,1610612745,1628021,1629726,1630256,1630586,201571,1610612739,1626224,1628374,1629636,1629731,1630171,0022100417,2,1003,1003,2,0,1610612745
76,1610612745,1628021,1629726,1630256,1630586,201571,1610612739,1626224,1628374,1629636,1629731,1630171,0022100417,2,1015,1019,0,1,1610612739
77,1610612745,1628021,1628464,1629726,1630256,201571,1610612739,1628374,1628386,1629731,1630171,201937,0022100417,2,1031,1031,3,0,1610612745
78,1610612745,1628021,1628464,1629726,1630256,201571,1610612739,1628374,1628386,1629731,1630171,201937,0022100417,2,1046,1050,0,0,1610612739
79,1610612745,1628021,1628464,1629726,1630256,201571,1610612739,1628374,1628386,1629731,1630171,201937,0022100417,2,1056,1058,0,0,1610612745
80,1610612745,1628021,1628464,1629726,1630256,201571,1610612739,1628374,1628386,1629731,1630171,201937,0022100417,2,1065,1065,0,2,1610612739
81,1610612745,1628021,1628464,1629726,1630256,201571,1610612739,1628374,1628386,1629731,1630171,201937,0022100417,2,1080,1080,0,0,1610612745
82,1610612745,1628021,1628464,1629726,1630256,201571,1610612739,1628374,1628386,1629731,1630171,201937,0022100417,2,1089,1089,0,0,1610612739
83,1610612745,1628021,1628464,1629726,1630256,201571,1610612739,1628374,1628386,1629731,1630171,201937,0022100417,2,1104,1104,2,0,1610612745
84,1610612745,1628021,1628464,1629726,1630256,201571,1610612739,1628374,1628386,1629731,1630171,201937,0022100417,2,1125,1129,0,2,1610612739
85,1610612745,1628021,1628464,1629726,1630256,201571,1610612739,1628374,1628386,1629731,1630171,201937,0022100417,2,1141,1151,0,0,1610612745
86,1610612745,1628464,1629717,1629726,1630256,1630528,1610612739,1628386,1629731,1630171,1630205,201937,0022100417,2,1165,1165,0,3,1610612739
87,1610612745,1628464,1629717,1629726,1630256,1630528,1610612739,1628386,1629731,1630171,1630205,201937,0022100417,2,1181,1181,0,0,1610612745
88,1610612745,1628464,1629717,1629726,1630256,1630528,1610612739,1628386,1629731,1630171,1630205,201937,0022100417,2,1189,1189,0,2,1610612739
89,1610612745,1628464,1629717,1629726,1630256,1630528,1610612739,1628386,1629731,1630171,1630205,201937,0022100417,2,1201,1203,0,0,1610612745
90,1610612745,1628464,1629717,1629726,1630256,1630528,1610612739,1628386,1629731,1630171,1630205,201937,0022100417,2,1210,1210,0,3,1610612739
91,1610612745,1628464,1629717,1629726,1630256,1630528,1610612739,1628386,1629731,1630171,1630205,201937,0022100417,2,1224,1224,2,0,1610612745
92,1610612745,1628464,1629717,1629726,1630256,1630528,1610612739,1628386,1629731,1630171,1630205,201937,0022100417,2,1249,1249,0,0,1610612739
93,1610612745,1628464,1629717,1629726,1630256,1630528,1610612739,1629731,1630171,1630205,201937,202334,0022100417,2,1256,1262,1,0,1610612745
94,1610612745,1628464,1629717,1629726,1630256,1630528,1610612739,1629636,1629731,1630205,201937,202334,0022100417,2,1272,1275,0,1,1610612739
95,1610612745,1628464,1629717,1630231,1630256,1630528,1610612739,1629636,1629731,1630205,201937,202334,0022100417,2,1292,1296,0,0,1610612745
96,1610612745,1628464,1629717,1630231,1630256,1630528,1610612739,1629636,1629731,1630205,201937,202334,0022100417,2,1300,1300,0,2,1610612739
97,1610612745,1628464,1629717,1630231,1630256,1630528,1610612739,1629636,1629731,1630205,201937,202334,0022100417,2,1317,1317,0,0,1610612745
98,1610612745,1628464,1629717,1630231,1630256,1630528,1610612739,1629636,1629731,1630205,201937,202334,0022100417,2,1340,1342,0,0,1610612739
99,1610612745,1628464,1629717,1630231,1630256,1630528,1610612739,1629636,1629731,1630205,201937,202334,0022100417,2,1351,1353,0,0,1610612745
100,1610612745,1628464,1629717,1630231,1630256,1630528,1610612739,1629636,1629731,1630205,201937,202334,0022100417,2,1371,1371,0,0,1610612739
101,1610612745,1628464,1629717,1630231,1630256,1630528,1610612739,1629636,1629731,1630205,201937,202334,0022100417,2,1374,1389,1,0,1610612745
102,1610612745,1628464,1629717,1630231,1630256,1630528,1610612739,1629636,1629731,1630205,201937,202334,0022100417,2,1403,1406,0,0,1610612739
103,1610612745,1628464,1629717,1630231,1630256,1630528,1610612739,1629636,1629731,1630205,201937,202334,0022100417,2,1409,1420,2,0,1610612745
104,1610612745,1628021,1628464,1630231,1630256,1630528,1610612739,1629636,1629731,1630205,201937,202334,0022100417,2,1440,1440,0,2,1610612739
105,1610612745,1628021,1628464,1630231,1630256,1630528,1610612739,1629636,1629731,1630205,201937,202334,0022100417,2,1440,1465,0,0,1610612745
106,1610612745,1629726,1630256,1628464,1629717,201571,1610612739,1628374,1629731,1628386,1630171,1629636,0022100417,3,1478,1487,0,2,1610612739
107,1610612745,1629726,1630256,1628464,1629717,201571,1610612739,1628374,1629731,1628386,1630171,1629636,0022100417,3,1507,1507,0,0,1610612745
108,1610612745,1629726,1630256,1628464,1629717,201571,1610612739,1628374,1629731,1628386,1630171,1629636,0022100417,3,1513,1528,0,4,1610612739
109,1610612745,1628464,1629717,1629726,1630256,1630528,1610612739,1628374,1629731,1628386,1630171,1629636,0022100417,3,1538,1540,1,0,1610612745
110,1610612745,1628464,1629717,1629726,1630256,1630528,1610612739,1628374,1629731,1628386,1630171,1629636,0022100417,3,1558,1558,0,2,1610612739
111,1610612745,1628464,1629717,1629726,1630256,1630528,1610612739,1628374,1629731,1628386,1630171,1629636,0022100417,3,1571,1573,0,0,1610612745
112,1610612745,1628464,1629717,1629726,1630256,1630528,1610612739,1628374,1629731,1628386,1630171,1629636,0022100417,3,1580,1582,0,0,1610612739
113,1610612745,1628464,1629717,1629726,1630256,1630528,1610612739,1628374,1629731,1628386,1630171,1629636,0022100417,3,1585,1585,0,0,1610612745
114,1610612745,1628464,1629717,1629726,1630256,1630528,1610612739,1628374,1629731,1628386,1630171,1629636,0022100417,3,1609,1612,0,0,1610612739
115,1610612745,1628464,1629717,1629726,1630256,1630528,1610612739,1628374,1629731,1628386,1630171,1629636,0022100417,3,1614,1614,0,0,1610612745
116,1610612745,1628464,1629717,1629726,1630256,1630528,1610612739,1628374,1629731,1628386,1630171,1629636,0022100417,3,1623,1623,0,2,1610612739
117,1610612745,1628464,1629717,1629726,1630256,1630528,1610612739,1628374,1629731,1628386,1630171,1629636,0022100417,3,1624,1640,0,0,1610612745
118,1610612745,1628464,1629717,1629726,1630256,1630528,1610612739,1628374,1629731,1628386,1630171,1629636,0022100417,3,1655,1655,0,3,1610612739
119,1610612745,1628464,1629717,1629726,1630256,1630528,1610612739,1628374,1629731,1628386,1630171,1629636,0022100417,3,1677,1680,0,0,1610612745
120,1610612745,1628464,1629717,1629726,1630256,1630528,1610612739,1628374,1629731,1628386,1630171,1629636,0022100417,3,1683,1686,0,2,1610612739
121,1610612745,1629717,1629726,1630256,1630528,1630578,1610612739,1628374,1629731,1628386,1630171,1629636,0022100417,3,1700,1700,3,0,1610612745
122,1610612745,1629717,1629726,1630256,1630528,1630578,1610612739,1628374,1629731,1628386,1630171,1629636,0022100417,3,1720,1720,0,0,1610612739
123,1610612745,1628021,1629717,1630231,1630528,1630578,1610612739,1628374,1629731,1628386,1630171,1629636,0022100417,3,1732,1732,2,0,1610612745
124,1610612745,1628021,1629717,1630231,1630528,1630578,1610612739,1628374,1629731,1628386,1630171,1629636,0022100417,3,1748,1750,0,0,1610612739
125,1610612745,1628021,1629717,1630231,1630528,1630578,1610612739,1628374,1629731,1628386,1630171,1629636,0022100417,3,1753,1762,2,0,1610612745
126,1610612745,1628021,1629717,1630231,1630528,1630578,1610612739,1628374,1629731,1628386,1630171,1629636,0022100417,3,1780,1780,0,2,1610612739
127,1610612745,1628021,1629717,1630231,1630528,1630578,1610612739,1628374,1629731,1628386,1630171,1629636,0022100417,3,1793,1805,2,0,1610612745
128,1610612745,1628021,1629717,1630231,1630528,1630578,1610612739,1628374,1629731,1628386,1630171,1629636,0022100417,3,1823,1823,0,0,1610612739
129,1610612745,1628021,1629717,1630231,1630528,1630578,1610612739,1628374,1629731,1628386,1630171,1629636,0022100417,3,1828,1828,2,0,1610612745
130,1610612745,1628021,1629717,1630231,1630528,1630578,1610612739,1628374,1629731,1628386,1630171,1629636,0022100417,3,1841,1852,0,2,1610612739
131,1610612745,1628021,1630231,1630528,1630578,1630586,1610612739,1628386,1629731,1630171,201567,201937,0022100417,3,1858,1865,0,0,1610612745
132,1610612745,1628021,1630231,1630528,1630578,1630586,1610612739,1629731,1630171,201567,201937,202334,0022100417,3,1880,1891,0,3,1610612739
133,1610612745,1628021,1630231,1630528,1630578,1630586,1610612739,1629731,1630171,201567,201937,202334,0022100417,3,1908,1911,0,0,1610612745
134,1610612745,1628021,1630231,1630528,1630578,1630586,1610612739,1629731,1630171,201567,201937,202334,0022100417,3,1926,1926,0,3,1610612739
135,1610612745,1628021,1630231,1630528,1630578,1630586,1610612739,1629731,1630171,201567,201937,202334,0022100417,3,1927,1941,1,0,1610612745
136,1610612745,1628021,1630231,1630528,1630578,1630586,1610612739,1626224,1630205,201567,201937,202334,0022100417,3,1958,1962,0,0,1610612739
137,1610612745,1628021,1630231,1630528,1630578,1630586,1610612739,1626224,1630205,201567,201937,202334,0022100417,3,1974,1976,0,0,1610612745
138,1610612745,1628021,1630231,1630528,1630578,1630586,1610612739,1626224,1630205,201567,201937,202334,0022100417,3,1994,1996,0,0,1610612739
139,1610612745,1628021,1630231,1630528,1630578,1630586,1610612739,1626224,1630205,201567,201937,202334,0022100417,3,1998,1998,2,0,1610612745
140,1610612745,1628021,1630231,1630528,1630578,1630586,1610612739,1626224,1630205,201567,201937,202334,0022100417,3,2009,2009,0,3,1610612739
141,1610612745,1628021,1630231,1630528,1630578,1630586,1610612739,1626224,1630205,201567,201937,202334,0022100417,3,2028,2028,3,0,1610612745
142,1610612745,1628021,1630231,1630528,1630578,1630586,1610612739,1626224,1630205,201567,201937,202334,0022100417,3,2052,2052,0,0,1610612739
143,1610612745,1628021,1630231,1630528,1630578,1630586,1610612739,1626224,1630205,201567,201937,202334,0022100417,3,2055,2055,2,0,1610612745
144,1610612745,1628021,1630231,1630256,1630578,1630586,1610612739,1626224,1630205,201567,201937,202334,0022100417,3,2068,2068,0,0,1610612739
145,1610612745,1628021,1630231,1630256,1630578,1630586,1610612739,1626224,1630205,201567,201937,202334,0022100417,3,2074,2081,2,0,1610612745
146,1610612745,1628021,1630231,1630256,1630578,1630586,1610612739,1626224,1630205,201567,201937,202334,0022100417,3,2096,2096,0,0,1610612739
147,1610612745,1628021,1630231,1630256,1630578,1630586,1610612739,1626224,1630205,201567,201937,202334,0022100417,3,2104,2104,3,0,1610612745
148,1610612745,1628021,1630231,1630256,1630578,1630586,1610612739,1626224,1630205,201567,201937,202334,0022100417,3,2128,2128,0,0,1610612739
149,1610612745,1628021,1630231,1630256,1630578,1630586,1610612739,1626224,1630205,201567,201937,202334,0022100417,3,2138,2140,0,0,1610612745
150,1610612745,1628021,1630231,1630256,1630578,1630586,1610612739,1626224,1630205,201567,201937,202334,0022100417,3,2157,2157,0,3,1610612739
151,1610612745,1628021,1630231,1630256,1630578,1630586,1610612739,1626224,1630205,201567,201937,202334,0022100417,3,2160,2160,0,0,1610612739
152,1610612745,1630256,1630231,1630578,1628021,1630586,1610612739,1629731,202334,1626224,1630205,1630698,0022100417,4,2160,2187,0,0,1610612739
153,1610612745,1628021,1629726,1630256,1630578,1630586,1610612739,1629731,202334,1626224,1630205,1630698,0022100417,4,2210,2214,0,0,1610612745
154,1610612745,1628021,1629726,1630256,1630578,1630586,1610612739,1629731,202334,1626224,1630205,1630698,0022100417,4,2226,2234,0,0,1610612739
155,1610612745,1628021,1629726,1630256,1630578,1630586,1610612739,1629731,202334,1626224,1630205,1630698,0022100417,4,2247,2247,3,0,1610612745
156,1610612745,1628021,1629726,1630256,1630578,1630586,1610612739,1629731,202334,1626224,1630205,1630698,0022100417,4,2271,2271,0,0,1610612739
157,1610612745,1628021,1629726,1630256,1630578,1630586,1610612739,1629731,202334,1626224,1630205,1630698,0022100417,4,2277,2281,2,0,1610612745
158,1610612745,1628021,1629726,1630256,1630528,1630578,1610612739,1629731,202334,1626224,1630205,1630698,0022100417,4,2304,2304,0,3,1610612739
159,1610612745,1628021,1629726,1630256,1630528,1630578,1610612739,1629731,202334,1626224,1630205,1630698,0022100417,4,2321,2323,1,0,1610612745
160,1610612745,1628021,1629726,1630256,1630528,1630578,1610612739,1629731,202334,1626224,1630205,1630698,0022100417,4,2340,2342,0,0,1610612739
161,1610612745,1628021,1629726,1630256,1630528,1630578,1610612739,1629731,202334,1626224,1630205,1630698,0022100417,4,2353,2353,3,0,1610612745
162,1610612745,1628021,1629726,1630256,1630528,1630578,1610612739,1629731,202334,1626224,1630205,1630698,0022100417,4,2375,2375,0,2,1610612739
163,1610612745,1628021,1629726,1630256,1630528,1630578,1610612739,1629731,202334,1626224,1630205,1630698,0022100417,4,2387,2400,2,0,1610612745
164,1610612745,1628021,1629726,1630256,1630528,1630578,1610612739,1629731,202334,1626224,1630205,1630698,0022100417,4,2423,2428,0,2,1610612739
165,1610612745,1628021,1629726,1630256,1630528,1630578,1610612739,1629731,202334,1626224,1630205,1630698,0022100417,4,2430,2445,2,0,1610612745
166,1610612745,1629726,1630231,1630256,1630528,1630586,1610612739,1627756,1629685,1630205,1630698,202334,0022100417,4,2462,2464,0,0,1610612739
167,1610612745,1629726,1630231,1630256,1630528,1630586,1610612739,1627756,1629685,1630205,1630698,202334,0022100417,4,2467,2469,0,0,1610612745
168,1610612745,1629726,1630231,1630256,1630528,1630586,1610612739,1627756,1629685,1630205,1630698,202334,0022100417,4,2481,2481,0,0,1610612739
169,1610612745,1629726,1630231,1630256,1630528,1630586,1610612739,1627756,1629685,1630205,1630698,202334,0022100417,4,2483,2483,1,0,1610612745
170,1610612745,1629726,1630231,1630256,1630528,1630586,1610612739,1627756,1629685,1630205,1630698,202334,0022100417,4,2502,2520,0,3,1610612739
171,1610612745,1629726,1630231,1630528,1630578,1630586,1610612739,1627756,1629685,1630205,1630698,202334,0022100417,4,2529,2551,0,0,1610612745
172,1610612745,1629726,1630231,1630528,1630578,1630586,1610612739,1627756,1629685,1629731,1630205,1630698,0022100417,4,2563,2566,0,0,1610612739
173,1610612745,1629726,1630231,1630528,1630578,1630586,1610612739,1627756,1629685,1629731,1630205,1630698,0022100417,4,2578,2578,2,0,1610612745
174,1610612745,1629726,1630231,1630528,1630578,1630586,1610612739,1627756,1629685,1629731,1630205,1630698,0022100417,4,2591,2591,0,2,1610612739
175,1610612745,1629726,1630231,1630528,1630578,1630586,1610612739,1627756,1629685,1629731,1630205,1630698,0022100417,4,2599,2599,0,0,1610612745
176,1610612745,1628021,1630231,1630528,1630578,1630586,1610612739,1627756,1629685,1629731,1630205,1630698,0022100417,4,2614,2614,0,2,1610612739
177,1610612745,1628021,1630231,1630528,1630578,1630586,1610612739,1627756,1629685,1629731,1630205,1630698,0022100417,4,2638,2638,0,0,1610612745
178,1610612745,1628021,1630231,1630528,1630578,1630586,1610612739,1627756,1629685,1629731,1630205,1630698,0022100417,4,2656,2656,0,2,1610612739
179,1610612745,1628021,1630231,1630528,1630578,1630586,1610612739,1627756,1629685,1629731,1630205,1630698,0022100417,4,2674,2677,1,0,1610612745
180,1610612745,1628021,1630231,1630528,1630578,1630586,1610612739,1627756,1629685,1629731,1630205,1630698,0022100417,4,2694,2696,0,0,1610612739
181,1610612745,1628021,1630231,1630528,1630578,1630586,1610612739,1627756,1629685,1629731,1630205,1630698,0022100417,4,2703,2703,2,0,1610612745
182,1610612745,1628021,1630231,1630528,1630578,1630586,1610612739,1627756,1629685,1629731,1630205,1630698,0022100417,4,2722,2722,0,2,1610612739
183,1610612745,1628021,1630231,1630528,1630578,1630586,1610612739,1627756,1629685,1629731,1630205,1630698,0022100417,4,2738,2738,1,0,1610612745
184,1610612745,1628021,1630231,1630528,1630578,1630586,1610612739,1627756,1629685,1629731,1630205,1630698,0022100417,4,2750,2750,0,3,1610612739
185,1610612745,1628021,1630231,1630528,1630578,1630586,1610612739,1627756,1629685,1629731,1630205,1630698,0022100417,4,2768,2768,2,0,1610612745
186,1610612745,1628021,1630231,1630528,1630578,1630586,1610612739,1627756,1629685,1629731,1630205,1630698,0022100417,4,2782,2782,0,3,1610612739
187,1610612745,1628021,1630231,1630528,1630578,1630586,1610612739,1627756,1629685,1629731,1630205,1630698,0022100417,4,2801,2801,2,0,1610612745
188,1610612745,1628021,1630231,1630528,1630578,1630586,1610612739,1627756,1629685,1629731,1630205,1630698,0022100417,4,2811,2813,0,0,1610612739
189,1610612745,1628021,1630231,1630528,1630578,1630586,1610612739,1627756,1629685,1629731,1630205,1630698,0022100417,4,2823,2834,0,0,1610612745
190,1610612745,1628021,1630231,1630528,1630578,1630586,1610612739,1627756,1629685,1629731,1630205,1630698,0022100417,4,2855,2855,0,0,1610612739
191,1610612745,1628021,1630231,1630528,1630578,1630586,1610612739,1627756,1629685,1629731,1630205,1630698,0022100417,4,2861,2861,2,0,1610612745
