,team1_id,team1_player1,team1_player2,team1_player3,team1_player4,team1_player5,team2_id,team2_player1,team2_player2,team2_player3,team2_player4,team2_player5,game_id,period,possession_start,possession_end,team1_points,team2_points,possession_team
0,1610612757,2772,1629117,202355,203468,203081,1610612747,2544,203076,201580,201980,202340,0021900726,1,0,26,0,0,1610612747
1,1610612757,2772,1629117,202355,203468,203081,1610612747,2544,203076,201580,201980,202340,0021900726,1,35,35,0,0,1610612757
2,1610612757,2772,1629117,202355,203468,203081,1610612747,2544,203076,201580,201980,202340,0021900726,1,48,51,0,0,1610612747
3,1610612757,2772,1629117,202355,203468,203081,1610612747,2544,203076,201580,201980,202340,0021900726,1,61,65,0,0,1610612757
4,1610612757,2772,1629117,202355,203468,203081,1610612747,2544,203076,201580,201980,202340,0021900726,1,67,67,0,2,1610612747
5,1610612757,2772,1629117,202355,203468,203081,1610612747,2544,203076,201580,201980,202340,0021900726,1,87,91,2,0,1610612757
6,1610612757,2772,1629117,202355,203468,203081,1610612747,2544,203076,201580,201980,202340,0021900726,1,116,119,0,0,1610612747
7,1610612757,2772,1629117,202355,203468,203081,1610612747,2544,203076,201580,201980,202340,0021900726,1,128,128,2,0,1610612757
8,1610612757,2772,1629117,202355,203468,203081,1610612747,2544,203076,201580,201980,202340,0021900726,1,136,136,0,2,1610612747
9,1610612757,2772,1629117,202355,203468,203081,1610612747,2544,203076,201580,201980,202340,0021900726,1,157,157,2,0,1610612757
10,1610612757,2772,1629117,202355,203468,203081,1610612747,2544,203076,201580,201980,202340,0021900726,1,165,169,0,0,1610612747
11,1610612757,2772,1629117,202355,203468,203081,1610612747,2544,203076,201580,201980,202340,0021900726,1,186,189,0,0,1610612757
12,1610612757,2772,1629117,202355,203468,203081,1610612747,2544,203076,201580,201980,202340,0021900726,1,196,198,0,0,1610612747
13,1610612757,2772,1629117,202355,203468,203081,1610612747,2544,203076,201580,201980,202340,0021900726,1,201,201,0,0,1610612757
14,1610612757,2772,1629117,202355,203468,203081,1610612747,2544,203076,201580,201980,202340,0021900726,1,217,217,0,2,1610612747
15,1610612757,2772,1629117,202355,203468,203081,1610612747,2544,203076,201580,201980,202340,0021900726,1,232,232,0,0,1610612757
16,1610612757,2772,1629117,202355,203468,203081,1610612747,2544,203076,201580,201980,202340,0021900726,1,248,251,0,0,1610612747
17,1610612757,2772,1629117,202355,203468,203081,1610612747,2544,203076,201580,201980,202340,0021900726,1,253,253,0,0,1610612757
18,1610612757,2772,1629117,202355,203468,203081,1610612747,2544,203076,201580,201980,202340,0021900726,1,256,256,0,2,1610612747
19,1610612757,2772,1629117,202355,203468,203081,1610612747,2544,203076,201580,201980,202340,0021900726,1,275,275,3,0,1610612757
20,1610612757,2772,1629117,202355,203468,203081,1610612747,2544,203076,201580,201980,202340,0021900726,1,282,282,0,2,1610612747
21,1610612757,2772,1629117,202355,203468,203081,1610612747,2544,203076,201580,201980,202340,0021900726,1,298,298,2,0,1610612757
22,1610612757,2772,1629117,202355,203468,203081,1610612747,2544,203076,201580,201980,202340,0021900726,1,311,311,0,0,1610612747
23,1610612757,2772,1629117,202355,203468,203081,1610612747,2544,203076,201580,201980,202340,0021900726,1,322,325,0,0,1610612757
24,1610612757,2772,1629117,202355,203468,203081,1610612747,2544,203076,201580,201980,202340,0021900726,1,326,326,0,2,1610612747
25,1610612757,2772,1629117,202355,203468,203081,1610612747,2544,203076,201580,201980,202340,0021900726,1,340,340,2,0,1610612757
26,1610612757,2772,1629117,202355,203468,203081,1610612747,2544,203076,201580,201980,202340,0021900726,1,348,348,0,2,1610612747
27,1610612757,2772,1629117,202355,203468,203081,1610612747,2544,203076,201580,201980,202340,0021900726,1,363,365,0,0,1610612757
28,1610612757,2772,1629117,202355,203468,203081,1610612747,2544,203076,201580,201980,202340,0021900726,1,374,374,0,0,1610612747
29,1610612757,2772,1629117,202355,203468,203081,1610612747,2544,203076,201580,201980,202340,0021900726,1,387,390,0,0,1610612757
30,1610612757,2772,1629117,202355,203468,203081,1610612747,2544,203076,201580,201980,202340,0021900726,1,391,391,0,2,1610612747
31,1610612757,2772,1629117,202355,203468,203081,1610612747,2544,203076,201580,201980,202340,0021900726,1,400,402,0,0,1610612757
32,1610612757,2772,1629117,202355,203468,203081,1610612747,2544,203076,201580,201980,202340,0021900726,1,408,412,0,0,1610612747
33,1610612757,2772,1629117,202355,203468,203081,1610612747,2544,203076,201580,201980,202340,0021900726,1,413,413,2,0,1610612757
34,1610612757,2772,1629117,202355,203468,203081,1610612747,2544,203076,201580,201980,202340,0021900726,1,427,428,0,2,1610612747
35,1610612757,2772,1629117,202355,203468,203081,1610612747,1628398,201980,202340,203076,2544,0021900726,1,450,455,2,0,1610612757
36,1610612757,1629018,1629642,202355,203081,2772,1610612747,1628398,203076,203484,203584,2544,0021900726,1,475,475,0,2,1610612747
37,1610612757,1629018,1629642,202355,203081,2772,1610612747,1628398,203076,203484,203584,2544,0021900726,1,492,494,0,0,1610612757
38,1610612757,1629018,1629642,202355,203081,2772,1610612747,1628398,203076,203484,203584,2544,0021900726,1,502,505,0,0,1610612747
39,1610612757,1629018,1629642,202355,203081,2772,1610612747,1628398,203076,203484,203584,2544,0021900726,1,511,511,2,0,1610612757
40,1610612757,1629018,1629642,202355,203081,2772,1610612747,1628398,203076,203484,203584,2544,0021900726,1,520,520,0,3,1610612747
41,1610612757,1629018,1629642,202355,203081,2772,1610612747,1628398,203076,203484,203584,2544,0021900726,1,520,547,0,0,1610612757
42,1610612757,1628403,1629014,1629018,1629642,203081,1610612747,1628398,200765,203076,203484,203584,0021900726,1,551,554,0,2,1610612747
43,1610612757,1628403,1629014,1629018,1629642,203081,1610612747,1628398,200765,203076,203484,203584,0021900726,1,561,561,2,0,1610612757
44,1610612757,1628403,1629014,1629018,1629642,203081,1610612747,1628398,200765,203076,203484,203584,0021900726,1,576,578,0,0,1610612747
45,1610612757,1628403,1629014,1629018,1629642,203081,1610612747,1628398,200765,203076,203484,203584,0021900726,1,583,583,3,0,1610612757
46,1610612757,1628403,1629014,1629018,1629642,203081,1610612747,1628398,200765,203076,203484,203584,0021900726,1,590,598,0,3,1610612747
47,1610612757,1628403,1629014,1629018,1629642,203081,1610612747,1628398,200765,203076,203484,203584,0021900726,1,598,614,3,0,1610612757
48,1610612757,1628403,1629014,1629018,1629642,203081,1610612747,1628398,200765,203076,203484,203584,0021900726,1,614,623,1,3,1610612747
49,1610612757,1628403,1629014,1629018,1629642,203081,1610612747,1628398,200765,203076,203484,203584,0021900726,1,639,642,0,0,1610612757
50,1610612757,1628403,1629014,1629018,1629642,203081,1610612747,1628398,200765,203076,203484,203584,0021900726,1,642,651,0,3,1610612747
51,1610612757,1628403,1629014,1629018,1629642,203081,1610612747,1628398,200765,203076,203484,203584,0021900726,1,663,663,2,0,1610612757
52,1610612757,1628403,1629014,1629018,1629642,203081,1610612747,1628398,200765,203076,203484,203584,0021900726,1,673,673,0,2,1610612747
53,1610612757,1628403,1629014,1629018,1629642,203081,1610612747,1628398,200765,203076,203484,203584,0021900726,1,687,687,2,0,1610612757
54,1610612757,1628403,1629014,1629018,1629642,203081,1610612747,1628398,200765,203076,203484,203584,0021900726,1,690,690,0,0,1610612747
55,1610612757,1628403,1629014,1629018,1629642,203081,1610612747,1628398,200765,203076,203484,203584,0021900726,1,692,692,3,0,1610612757
56,1610612757,1628403,1629014,1629018,1629642,203081,1610612747,1628398,200765,203076,203484,203584,0021900726,1,708,716,0,0,1610612747
57,1610612757,1628403,1629014,1629018,203081,203468,1610612747,1628398,200765,203076,203484,203584,0021900726,1,719,719,3,0,1610612757
58,1610612757,1628403,1629014,1629018,203081,203468,1610612747,1628398,200765,203076,203484,203584,0021900726,1,720,720,0,0,182
59,1610612757,2772,203468,1629018,1628403,1629014,1610612747,2544,203484,200765,201162,2730,0021900726,2,720,730,0,0,1610612757
60,1610612757,2772,203468,1629018,1628403,1629014,1610612747,2544,203484,200765,201162,2730,0021900726,2,744,744,0,2,1610612747
61,1610612757,2772,203468,1629018,1628403,1629014,1610612747,2544,203484,200765,201162,2730,0021900726,2,762,764,0,0,1610612757
62,1610612757,2772,203468,1629018,1628403,1629014,1610612747,2544,203484,200765,201162,2730,0021900726,2,777,784,0,0,1610612747
63,1610612757,2772,203468,1629018,1628403,1629014,1610612747,2544,203484,200765,201162,2730,0021900726,2,793,793,2,0,1610612757
64,1610612757,2772,203468,1629018,1628403,1629014,1610612747,2544,203484,200765,201162,2730,0021900726,2,819,821,0,0,1610612747
65,1610612757,2772,203468,1629018,1628403,1629014,1610612747,2544,203484,200765,201162,2730,0021900726,2,825,825,2,0,1610612757
66,1610612757,2772,203468,1629018,1628403,1629014,1610612747,2544,203484,200765,201162,2730,0021900726,2,835,835,0,2,1610612747
67,1610612757,2772,203468,1629018,1628403,1629014,1610612747,2544,203484,200765,201162,2730,0021900726,2,836,850,0,0,1610612757
68,1610612757,2772,203468,1629018,1628403,1629014,1610612747,2544,203484,200765,201162,2730,0021900726,2,851,851,0,0,1610612747
69,1610612757,2772,203468,1629018,1628403,1629014,1610612747,2544,203484,200765,201162,2730,0021900726,2,851,858,0,0,1610612757
70,1610612757,2772,203468,1629018,1628403,1629014,1610612747,2544,203484,200765,201162,2730,0021900726,2,869,873,0,2,1610612747
71,1610612757,2772,203468,1629018,1628403,1629014,1610612747,2544,203484,200765,201162,2730,0021900726,2,892,894,0,0,1610612757
72,1610612757,2772,203468,1629018,1628403,1629014,1610612747,2544,203484,200765,201162,2730,0021900726,2,903,903,0,0,1610612747
73,1610612757,2772,203468,1629018,1628403,1629014,1610612747,2544,203484,200765,201162,2730,0021900726,2,912,912,0,0,1610612757
74,1610612757,2772,203468,1629018,1628403,1629014,1610612747,1626188,1627936,201162,2544,2730,0021900726,2,928,928,0,2,1610612747
75,1610612757,2772,203468,1629018,1628403,1629014,1610612747,1626188,1627936,201162,2544,2730,0021900726,2,935,937,1,0,1610612757
76,1610612757,2772,203468,1629018,1628403,1629014,1610612747,1626188,1627936,201162,2544,2730,0021900726,2,944,952,0,0,1610612747
77,1610612757,2772,203468,1629018,1628403,1629014,1610612747,1626188,1627936,201162,2544,2730,0021900726,2,973,978,0,0,1610612757
78,1610612757,2772,203468,1629018,1628403,1629014,1610612747,1626188,1627936,201162,2544,2730,0021900726,2,983,983,0,2,1610612747
79,1610612757,2772,203468,1629018,1628403,1629014,1610612747,1626188,1627936,201162,2544,2730,0021900726,2,983,1001,2,0,1610612757
80,1610612757,1629018,202355,203081,203468,2772,1610612747,1626188,1627936,201162,2544,2730,0021900726,2,1019,1026,0,3,1610612747
81,1610612757,1629018,202355,203081,203468,2772,1610612747,1626188,1627936,201162,2544,2730,0021900726,2,1041,1057,0,0,1610612757
82,1610612757,1629018,202355,203081,203468,2772,1610612747,1626188,1627936,201162,2544,2730,0021900726,2,1073,1076,0,2,1610612747
83,1610612757,1629117,202355,203081,203468,2772,1610612747,1626188,1627936,1628398,203076,2730,0021900726,2,1076,1100,0,0,1610612757
84,1610612757,1629117,202355,203081,203468,2772,1610612747,1626188,1627936,1628398,203076,2730,0021900726,2,1109,1111,0,0,1610612747
85,1610612757,1629117,202355,203081,203468,2772,1610612747,1626188,1627936,1628398,203076,2730,0021900726,2,1119,1119,2,0,1610612757
86,1610612757,1629117,202355,203081,203468,2772,1610612747,1626188,1627936,1628398,203076,2730,0021900726,2,1126,1137,0,0,1610612747
87,1610612757,1629018,1629117,202355,203081,203468,1610612747,1626188,1627936,1628398,203076,2730,0021900726,2,1147,1147,2,0,1610612757
88,1610612757,1629018,1629117,202355,203081,203468,1610612747,1626188,1627936,1628398,203076,2730,0021900726,2,1161,1161,0,0,1610612747
89,1610612757,1629018,1629117,202355,203081,203468,1610612747,1626188,1628398,202340,203076,2730,0021900726,2,1174,1178,1,0,1610612757
90,1610612757,1629018,1629117,202355,203081,203468,1610612747,1626188,1628398,202340,203076,2730,0021900726,2,1188,1188,0,2,1610612747
91,1610612757,1629018,1629117,202355,203081,203468,1610612747,1626188,1628398,202340,203076,2730,0021900726,2,1200,1200,2,0,1610612757
92,1610612757,1629117,202355,203081,203468,2772,1610612747,1628398,201980,202340,203076,2544,0021900726,2,1220,1228,0,0,1610612747
93,1610612757,1629642,202355,203081,203468,2772,1610612747,1628398,201980,202340,203076,2544,0021900726,2,1233,1233,2,0,1610612757
94,1610612757,1629642,202355,203081,203468,2772,1610612747,1628398,201980,202340,203076,2544,0021900726,2,1251,1255,0,2,1610612747
95,1610612757,1629642,202355,203081,203468,2772,1610612747,1628398,201980,202340,203076,2544,0021900726,2,1263,1263,2,0,1610612757
96,1610612757,1629642,202355,203081,203468,2772,1610612747,1628398,201980,202340,203076,2544,0021900726,2,1285,1300,0,0,1610612747
97,1610612757,1629642,202355,203081,203468,2772,1610612747,1628398,201980,202340,203076,2544,0021900726,2,1305,1305,2,0,1610612757
98,1610612757,1629642,202355,203081,203468,2772,1610612747,1628398,201980,202340,203076,2544,0021900726,2,1328,1328,0,3,1610612747
99,1610612757,1629642,202355,203081,203468,2772,1610612747,1628398,201980,202340,203076,2544,0021900726,2,1354,1357,0,0,1610612757
100,1610612757,1629642,202355,203081,203468,2772,1610612747,1628398,201980,202340,203076,2544,0021900726,2,1368,1368,0,2,1610612747
101,1610612757,1629642,202355,203081,203468,2772,1610612747,1628398,201980,202340,203076,2544,0021900726,2,1381,1385,0,0,1610612757
102,1610612757,1629642,202355,203081,203468,2772,1610612747,1628398,201980,202340,203076,2544,0021900726,2,1388,1388,0,0,1610612747
103,1610612757,1629642,202355,203081,203468,2772,1610612747,1628398,201980,202340,203076,2544,0021900726,2,1406,1410,2,0,1610612757
104,1610612757,1629642,202355,203081,203468,2772,1610612747,1628398,201980,202340,203076,2544,0021900726,2,1418,1418,0,0,1610612747
105,1610612757,1629014,1629018,203081,203468,2772,1610612747,1628398,201980,202340,203076,2544,0021900726,2,1439,1439,0,0,1610612757
106,1610612757,1629014,1629018,203081,203468,2772,1610612747,1628398,201980,202340,203076,2544,0021900726,2,1440,1440,0,2,1610612747
107,1610612757,2772,1629117,202355,203468,203081,1610612747,2544,203076,201580,201980,202340,0021900726,3,1440,1456,2,0,1610612757
108,1610612757,2772,1629117,202355,203468,203081,1610612747,2544,203076,201580,201980,202340,0021900726,3,1474,1477,0,3,1610612747
109,1610612757,2772,1629117,202355,203468,203081,1610612747,2544,203076,201580,201980,202340,0021900726,3,1500,1508,3,0,1610612757
110,1610612757,2772,1629117,202355,203468,203081,1610612747,2544,203076,201580,201980,202340,0021900726,3,1518,1535,0,0,1610612747
111,1610612757,2772,1629117,202355,203468,203081,1610612747,2544,203076,201580,201980,202340,0021900726,3,1538,1538,2,0,1610612757
112,1610612757,2772,1629117,202355,203468,203081,1610612747,2544,203076,201580,201980,202340,0021900726,3,1554,1557,0,0,1610612747
113,1610612757,2772,1629117,202355,203468,203081,1610612747,2544,203076,201580,201980,202340,0021900726,3,1566,1566,3,0,1610612757
114,1610612757,2772,1629117,202355,203468,203081,1610612747,2544,203076,201580,201980,202340,0021900726,3,1566,1584,0,0,1610612747
115,1610612757,1626209,202355,203081,203468,2772,1610612747,2544,203076,201580,201980,202340,0021900726,3,1585,1588,0,0,1610612757
116,1610612757,1626209,202355,203081,203468,2772,1610612747,2544,203076,201580,201980,202340,0021900726,3,1593,1593,0,3,1610612747
117,1610612757,1626209,202355,203081,203468,2772,1610612747,2544,203076,201580,201980,202340,0021900726,3,1606,1606,2,0,1610612757
118,1610612757,1626209,202355,203081,203468,2772,1610612747,2544,203076,201580,201980,202340,0021900726,3,1624,1626,0,2,1610612747
119,1610612757,1626209,202355,203081,203468,2772,1610612747,2544,203076,201580,201980,202340,0021900726,3,1644,1647,0,0,1610612757
120,1610612757,1626209,202355,203081,203468,2772,1610612747,2544,203076,201580,201980,202340,0021900726,3,1653,1656,0,2,1610612747
121,1610612757,1626209,202355,203081,203468,2772,1610612747,2544,203076,201580,201980,202340,0021900726,3,1662,1664,0,0,1610612757
122,1610612757,1626209,202355,203081,203468,2772,1610612747,2544,203076,201580,201980,202340,0021900726,3,1675,1680,0,3,1610612747
123,1610612757,1626209,202355,203081,203468,2772,1610612747,2544,203076,201580,201980,202340,0021900726,3,1680,1689,2,0,1610612757
124,1610612757,1626209,202355,203081,203468,2772,1610612747,2544,203076,201580,201980,202340,0021900726,3,1709,1713,0,0,1610612747
125,1610612757,1626209,202355,203081,203468,2772,1610612747,2544,203076,201580,201980,202340,0021900726,3,1721,1721,1,0,1610612757
126,1610612757,1626209,202355,203081,203468,2772,1610612747,2544,203076,201580,201980,202340,0021900726,3,1725,1725,0,0,1610612747
127,1610612757,1626209,202355,203081,203468,2772,1610612747,2544,203076,201580,201980,202340,0021900726,3,1739,1742,0,0,1610612757
128,1610612757,1626209,202355,203081,203468,2772,1610612747,2544,203076,201580,201980,202340,0021900726,3,1744,1749,0,0,1610612747
129,1610612757,1626209,202355,203081,203468,2772,1610612747,2544,203076,201580,201980,202340,0021900726,3,1749,1749,0,0,1610612747
130,1610612757,1626209,202355,203081,203468,2772,1610612747,2544,203076,201580,201980,202340,0021900726,3,1762,1766,0,0,1610612757
131,1610612757,1626209,202355,203081,203468,2772,1610612747,2544,203076,201580,201980,202340,0021900726,3,1768,1768,0,3,1610612747
132,1610612757,1626209,202355,203081,203468,2772,1610612747,2544,203076,201580,201980,202340,0021900726,3,1784,1784,2,0,1610612757
133,1610612757,1626209,202355,203081,203468,2772,1610612747,2544,203076,201580,201980,202340,0021900726,3,1793,1793,0,3,1610612747
134,1610612757,1626209,202355,203081,203468,2772,1610612747,2544,203076,201580,201980,202340,0021900726,3,1805,1821,3,0,1610612757
135,1610612757,1626209,202355,203081,203468,2772,1610612747,2544,203076,201580,201980,202340,0021900726,3,1837,1837,0,0,1610612747
136,1610612757,1626209,202355,203081,203468,2772,1610612747,2544,203076,201580,201980,202340,0021900726,3,1854,1856,0,0,1610612757
137,1610612757,1626209,202355,203081,203468,2772,1610612747,2544,203076,201580,201980,202340,0021900726,3,1863,1867,0,2,1610612747
138,1610612757,1626209,202355,203081,203468,2772,1610612747,2544,203076,201580,201980,202340,0021900726,3,1876,1876,4,0,1610612757
139,1610612757,1626209,202355,203081,203468,2772,1610612747,1628398,202340,203076,203484,2544,0021900726,3,1892,1895,0,0,1610612747
140,1610612757,1626209,202355,203081,203468,2772,1610612747,1628398,202340,203076,203484,2544,0021900726,3,1897,1900,0,0,1610612757
141,1610612757,1626209,202355,203081,203468,2772,1610612747,1628398,202340,203076,203484,2544,0021900726,3,1900,1900,0,0,1610612747
142,1610612757,1629018,1629642,202355,203081,2772,1610612747,1628398,200765,202340,203076,203484,0021900726,3,1912,1912,2,0,1610612757
143,1610612757,1629018,1629642,202355,203081,2772,1610612747,1628398,200765,202340,203076,203484,0021900726,3,1912,1925,0,1,1610612747
144,1610612757,1629014,1629018,1629642,202355,203081,1610612747,1627936,1628398,200765,203076,203484,0021900726,3,1933,1933,3,0,1610612757
145,1610612757,1629014,1629018,1629642,202355,203081,1610612747,1627936,1628398,200765,203076,203484,0021900726,3,1952,1952,0,0,1610612747
146,1610612757,1629014,1629018,1629642,202355,203081,1610612747,1627936,1628398,200765,203076,203484,0021900726,3,1960,1964,2,0,1610612757
147,1610612757,1629014,1629018,1629642,202355,203081,1610612747,1627936,1628398,200765,203076,203484,0021900726,3,1972,1972,0,2,1610612747
148,1610612757,1629014,1629018,1629642,202355,203081,1610612747,1627936,1628398,200765,203076,203484,0021900726,3,1991,1991,2,0,1610612757
149,1610612757,1628403,1629014,1629018,1629642,203081,1610612747,1627936,1628398,200765,203076,203484,0021900726,3,2003,2003,0,2,1610612747
150,1610612757,1628403,1629014,1629018,1629642,203081,1610612747,1627936,1628398,200765,203076,203484,0021900726,3,2015,2017,0,0,1610612757
151,1610612757,1628403,1629014,1629018,1629642,203081,1610612747,1627936,1628398,200765,203076,203484,0021900726,3,2019,2019,0,2,1610612747
152,1610612757,1628403,1629014,1629018,1629642,203081,1610612747,1627936,1628398,200765,203076,203484,0021900726,3,2031,2031,3,0,1610612757
153,1610612757,1628403,1629014,1629018,1629642,203081,1610612747,1627936,1628398,200765,203076,203484,0021900726,3,2048,2048,0,0,1610612747
154,1610612757,1628403,1629014,1629018,1629642,203081,1610612747,1627936,1628398,200765,203076,203484,0021900726,3,2073,2073,2,0,1610612757
155,1610612757,1628403,1629014,1629018,1629642,203081,1610612747,1627936,1628398,200765,203076,203484,0021900726,3,2080,2080,0,4,1610612747
156,1610612757,1628403,1629014,1629018,1629642,203081,1610612747,1627936,1628398,200765,203076,203484,0021900726,3,2097,2097,2,0,1610612757
157,1610612757,1628403,1629014,1629018,1629642,203081,1610612747,1627936,1628398,200765,203076,203484,0021900726,3,2111,2111,0,0,1610612747
158,1610612757,1628403,1629014,1629018,203081,203468,1610612747,1627936,1628398,200765,203076,203484,0021900726,3,2127,2131,0,0,1610612757
159,1610612757,1628403,1629014,1629018,203081,203468,1610612747,1627936,1628398,200765,203076,203484,0021900726,3,2142,2142,0,2,1610612747
160,1610612757,1628403,1629014,1629018,203081,203468,1610612747,1627936,1628398,200765,203076,203484,0021900726,3,2154,2154,3,0,1610612757
161,1610612757,1628403,1629014,1629018,203081,203468,1610612747,1627936,1628398,200765,203076,203484,0021900726,3,2159,2160,0,0,1610612747
162,1610612757,2772,203468,1629018,1628403,1629014,1610612747,2544,1628398,203484,200765,2730,0021900726,4,2160,2178,0,0,1610612747
163,1610612757,2772,203468,1629018,1628403,1629014,1610612747,2544,1628398,203484,200765,2730,0021900726,4,2194,2194,3,0,1610612757
164,1610612757,2772,203468,1629018,1628403,1629014,1610612747,2544,1628398,203484,200765,2730,0021900726,4,2214,2214,0,0,1610612747
165,1610612757,2772,203468,1629018,1628403,1629014,1610612747,2544,1628398,203484,200765,2730,0021900726,4,2214,2225,0,0,1610612757
166,1610612757,2772,203468,1629018,1628403,1629014,1610612747,2544,1628398,203484,200765,2730,0021900726,4,2232,2235,0,0,1610612747
167,1610612757,2772,203468,1629018,1628403,1629014,1610612747,2544,1628398,203484,200765,2730,0021900726,4,2240,2248,2,0,1610612757
168,1610612757,2772,203468,1629018,1628403,1629014,1610612747,2544,1628398,203484,200765,2730,0021900726,4,2267,2269,0,0,1610612747
169,1610612757,2772,203468,1629018,1628403,1629014,1610612747,2544,1628398,203484,200765,2730,0021900726,4,2290,2293,0,0,1610612757
170,1610612757,2772,203468,1629018,1628403,1629014,1610612747,2544,1628398,203484,200765,2730,0021900726,4,2296,2299,0,0,1610612747
171,1610612757,2772,203468,1629018,1628403,1629014,1610612747,2544,1628398,203484,200765,2730,0021900726,4,2317,2320,0,0,1610612757
172,1610612757,2772,203468,1629018,1628403,1629014,1610612747,2544,1628398,203484,200765,2730,0021900726,4,2329,2330,0,0,1610612747
173,1610612757,2772,203468,1629018,1628403,1629014,1610612747,2544,1628398,203484,200765,2730,0021900726,4,2330,2330,0,0,1610612757
174,1610612757,2772,203468,1629018,1628403,1629014,1610612747,2544,1628398,203484,200765,2730,0021900726,4,2338,2338,0,2,1610612747
175,1610612757,2772,203468,1629018,1628403,1629014,1610612747,2544,1628398,203484,200765,2730,0021900726,4,2355,2357,0,0,1610612757
176,1610612757,2772,203468,1629018,1628403,1629014,1610612747,2544,1628398,203484,200765,2730,0021900726,4,2361,2361,0,2,1610612747
177,1610612757,2772,203468,1629018,1628403,1629014,1610612747,2544,1628398,203484,200765,2730,0021900726,4,2361,2376,0,0,1610612757
178,1610612757,1629117,202355,203081,203468,2772,1610612747,203076,203484,203584,2544,2730,0021900726,4,2383,2387,0,2,1610612747
179,1610612757,1626209,202355,203081,203468,2772,1610612747,203076,203484,203584,2544,2730,0021900726,4,2397,2407,0,0,1610612757
180,1610612757,1626209,202355,203081,203468,2772,1610612747,203076,203484,203584,2544,2730,0021900726,4,2413,2413,0,3,1610612747
181,1610612757,1626209,202355,203081,203468,2772,1610612747,203076,203484,203584,2544,2730,0021900726,4,2436,2448,2,0,1610612757
182,1610612757,1626209,202355,203081,203468,2772,1610612747,203076,203484,203584,2544,2730,0021900726,4,2462,2464,0,0,1610612747
183,1610612757,1626209,202355,203081,203468,2772,1610612747,203076,203484,203584,2544,2730,0021900726,4,2464,2474,0,0,1610612757
184,1610612757,1626209,202355,203081,203468,2772,1610612747,203076,203484,203584,2544,2730,0021900726,4,2477,2481,0,0,1610612747
185,1610612757,1626209,202355,203081,203468,2772,1610612747,203076,203484,203584,2544,2730,0021900726,4,2488,2488,2,0,1610612757
186,1610612757,1626209,202355,203081,203468,2772,1610612747,203076,203484,203584,2544,2730,0021900726,4,2504,2504,0,3,1610612747
187,1610612757,1626209,202355,203081,203468,2772,1610612747,203076,203484,203584,2544,2730,0021900726,4,2517,2519,0,0,1610612757
188,1610612757,1626209,202355,203081,203468,2772,1610612747,203076,203484,203584,2544,2730,0021900726,4,2520,2520,0,0,1610612747
189,1610612757,1626209,202355,203081,203468,2772,1610612747,1628398,203076,203484,203584,2544,0021900726,4,2537,2539,0,0,1610612757
190,1610612757,1626209,202355,203081,203468,2772,1610612747,1628398,203076,203484,203584,2544,0021900726,4,2552,2556,0,0,1610612747
191,1610612757,1626209,202355,203081,203468,2772,1610612747,1628398,203076,203484,203584,2544,0021900726,4,2556,2562,1,0,1610612757
192,1610612757,1626209,202355,203081,203468,2772,1610612747,1628398,201980,202340,203076,2544,0021900726,4,2573,2578,0,0,1610612747
193,1610612757,1626209,202355,203081,203468,2772,1610612747,1628398,201980,202340,203076,2544,0021900726,4,2590,2590,2,0,1610612757
194,1610612757,1626209,202355,203081,203468,2772,1610612747,1628398,201980,202340,203076,2544,0021900726,4,2608,2611,0,0,1610612747
195,1610612757,1626209,202355,203081,203468,2772,1610612747,1628398,201980,202340,203076,2544,0021900726,4,2628,2631,0,0,1610612757
196,1610612757,1626209,202355,203081,203468,2772,1610612747,1628398,201980,202340,203076,2544,0021900726,4,2634,2637,0,1,1610612747
197,1610612757,1626209,202355,203081,203468,2772,1610612747,1628398,201980,202340,203076,2544,0021900726,4,2652,2652,2,0,1610612757
198,1610612757,1626209,202355,203081,203468,2772,1610612747,1628398,201980,202340,203076,2544,0021900726,4,2667,2670,0,0,1610612747
199,1610612757,1626209,202355,203081,203468,2772,1610612747,1628398,201980,202340,203076,2544,0021900726,4,2681,2684,0,0,1610612757
200,1610612757,1626209,202355,203081,203468,2772,1610612747,1628398,201980,202340,203076,2544,0021900726,4,2689,2689,0,3,1610612747
201,1610612757,1626209,202355,203081,203468,2772,1610612747,1628398,201980,202340,203076,2544,0021900726,4,2712,2712,2,0,1610612757
202,1610612757,1626209,202355,203081,203468,2772,1610612747,1628398,201980,202340,203076,2544,0021900726,4,2727,2750,0,2,1610612747
203,1610612757,1629018,202355,203081,203468,2772,1610612747,1628398,202340,203076,203484,2544,0021900726,4,2761,2761,2,0,1610612757
204,1610612757,1629018,202355,203081,203468,2772,1610612747,1628398,202340,203076,203484,2544,0021900726,4,2776,2776,0,3,1610612747
205,1610612757,1629018,202355,203081,203468,2772,1610612747,1628398,202340,203076,203484,2544,0021900726,4,2792,2792,2,0,1610612757
206,1610612757,1629018,202355,203081,203468,2772,1610612747,1628398,202340,203076,203484,2544,0021900726,4,2804,2806,0,0,1610612747
207,1610612757,1629018,202355,203081,203468,2772,1610612747,1628398,202340,203076,203484,2544,0021900726,4,2826,2828,2,0,1610612757
208,1610612757,1629018,202355,203081,203468,2772,1610612747,1628398,202340,203076,203484,2544,0021900726,4,2828,2842,0,0,1610612747
209,1610612757,1629018,202355,203081,203468,2772,1610612747,1628398,202340,203076,203484,2544,0021900726,4,2847,2847,2,0,1610612757
210,1610612757,1629018,202355,203081,203468,2772,1610612747,1628398,202340,203076,203484,2544,0021900726,4,2854,2854,0,2,1610612747
211,1610612757,1629018,202355,203081,203468,2772,1610612747,1628398,202340,203076,203484,2544,0021900726,4,2878,2878,0,0,1610612757
