,TEAM_ID_1,TEAM_1_PLAYERS,TEAM_ID_2,TEAM_2_PLAYERS,PERIOD
0,1610612749,[ 203114  203507 1626171 1629670  202083],1610612751,[ 201142 1630561 1629651  201988  201935],1
1,1610612749,[ 203114  203507 1626171 1629670  202083],1610612751,[1629651  201988  201935 1630560 1627761],2
2,1610612749,[ 203114  203507 1626171 1629670  202083],1610612751,[ 201142 1630561 1629651  201988  201935],3
3,1610612749,[ 203114 1626171 1629670  202083  204038],1610612751,[ 201142 1629651  201988  201935 1630560],4
