,TEAM_ID_1,TEAM_1_PLAYERS,TEAM_ID_2,TEAM_2_PLAYERS,PERIOD
0,1610612752,[1629628  203944 1629011  203095  202692],1610612751,[ 201142 1628971  203083  201988  201609],1
1,1610612752,[1629628 1630579 1630193 1630540 1630167],1610612751,[ 201988  201609 1630560 1629651  201949],2
2,1610612752,[1629628  203944 1629011  203095  202692],1610612751,[ 201142 1628971  203083  201988  201609],3
3,1610612752,[1629628 1630579 1630193 1630540 1630167],1610612751,[ 201142  201988  201609 1629651  201949],4
