,team1_id,team1_player1,team1_player2,team1_player3,team1_player4,team1_player5,team2_id,team2_player1,team2_player2,team2_player3,team2_player4,team2_player5,game_id,period,possession_start,possession_end,team1_points,team2_points,possession_team
0,1610612764,203490,202693,101133,203078,202322,1610612757,1627774,202329,203994,203468,203081,0021800046,1,0,12,0,2,1610612757
1,1610612764,203490,202693,101133,203078,202322,1610612757,1627774,202329,203994,203468,203081,0021800046,1,29,29,2,0,1610612764
2,1610612764,203490,202693,101133,203078,202322,1610612757,1627774,202329,203994,203468,203081,0021800046,1,40,41,0,0,1610612757
3,1610612764,203490,202693,101133,203078,202322,1610612757,1627774,202329,203994,203468,203081,0021800046,1,52,54,0,0,1610612764
4,1610612764,203490,202693,101133,203078,202322,1610612757,1627774,202329,203994,203468,203081,0021800046,1,63,79,0,2,1610612757
5,1610612764,203490,202693,101133,203078,202322,1610612757,1627774,202329,203994,203468,203081,0021800046,1,88,113,0,0,1610612764
6,1610612764,203490,202693,101133,203078,202322,1610612757,1627774,202329,203994,203468,203081,0021800046,1,120,122,0,0,1610612757
7,1610612764,203490,202693,101133,203078,202322,1610612757,1627774,202329,203994,203468,203081,0021800046,1,129,129,2,0,1610612764
8,1610612764,203490,202693,101133,203078,202322,1610612757,1627774,202329,203994,203468,203081,0021800046,1,155,157,0,0,1610612757
9,1610612764,203490,202693,101133,203078,202322,1610612757,1627774,202329,203994,203468,203081,0021800046,1,168,168,3,0,1610612764
10,1610612764,203490,202693,101133,203078,202322,1610612757,1627774,202329,203994,203468,203081,0021800046,1,186,186,0,2,1610612757
11,1610612764,203490,202693,101133,203078,202322,1610612757,1627774,202329,203994,203468,203081,0021800046,1,205,207,0,0,1610612764
12,1610612764,203490,202693,101133,203078,202322,1610612757,1627774,202329,203994,203468,203081,0021800046,1,212,212,0,2,1610612757
13,1610612764,203490,202693,101133,203078,202322,1610612757,1627774,202329,203994,203468,203081,0021800046,1,229,229,3,0,1610612764
14,1610612764,203490,202693,101133,203078,202322,1610612757,1627774,202329,203994,203468,203081,0021800046,1,240,247,0,3,1610612757
15,1610612764,201160,202322,202693,203078,203490,1610612757,1627774,202329,203994,203468,203081,0021800046,1,259,259,2,0,1610612764
16,1610612764,201160,202322,202693,203078,203490,1610612757,1627774,202329,203994,203468,203081,0021800046,1,275,276,0,0,1610612757
17,1610612764,201160,202322,202693,203078,203490,1610612757,1627774,202329,203994,203468,203081,0021800046,1,281,281,0,0,1610612764
18,1610612764,201160,202322,202693,203078,203490,1610612757,1627774,202329,203994,203468,203081,0021800046,1,296,296,0,0,1610612757
19,1610612764,201160,202322,202693,203078,203490,1610612757,1627774,202329,203994,203468,203081,0021800046,1,308,311,0,0,1610612764
20,1610612764,201160,202322,202693,203078,203490,1610612757,1627774,202329,203994,203468,203081,0021800046,1,319,319,0,0,1610612757
21,1610612764,201160,202322,202693,203078,203490,1610612757,1627774,202329,203994,203468,203081,0021800046,1,319,336,0,0,1610612764
22,1610612764,201160,202322,202693,203078,203490,1610612757,1627774,202329,203994,203468,203081,0021800046,1,340,340,0,0,1610612757
23,1610612764,201160,202322,202693,203078,203490,1610612757,1627774,202329,203994,203468,203081,0021800046,1,344,344,2,0,1610612764
24,1610612764,201160,202322,202693,203078,203490,1610612757,1627774,202329,203994,203468,203081,0021800046,1,370,370,0,2,1610612757
25,1610612764,201160,202322,202693,203078,203490,1610612757,1627774,202329,203994,203468,203081,0021800046,1,382,382,2,0,1610612764
26,1610612764,201160,202322,202693,203078,203490,1610612757,1627774,202329,203994,203468,203081,0021800046,1,395,400,0,2,1610612757
27,1610612764,201160,202322,202693,203078,203490,1610612757,202323,202329,203081,203468,203994,0021800046,1,409,411,0,0,1610612764
28,1610612764,201160,202322,202693,203078,203490,1610612757,202323,202329,203081,203468,203994,0021800046,1,418,418,0,3,1610612757
29,1610612764,201160,202322,202693,203078,203490,1610612757,202323,202329,203081,203468,203994,0021800046,1,436,436,2,0,1610612764
30,1610612764,201160,202322,202693,203078,203490,1610612757,202323,202329,203081,203468,203994,0021800046,1,453,455,0,0,1610612757
31,1610612764,201160,202322,202693,203078,203490,1610612757,202323,202329,203081,203468,203994,0021800046,1,461,463,0,0,1610612764
32,1610612764,201160,202322,202693,203078,203490,1610612757,202323,202329,203081,203468,203994,0021800046,1,471,471,0,2,1610612757
33,1610612764,1626162,201160,202322,202693,203078,1610612757,202323,202329,203081,203468,203994,0021800046,1,480,484,0,0,1610612764
34,1610612764,1626162,201160,202322,202693,203078,1610612757,202323,202329,203081,203468,203994,0021800046,1,491,495,0,2,1610612757
35,1610612764,1626162,201160,202322,202693,203078,1610612757,1628380,202323,203081,203090,203468,0021800046,1,507,510,0,0,1610612764
36,1610612764,1626162,201160,202322,202693,203078,1610612757,1628380,202323,203081,203090,203468,0021800046,1,515,515,0,3,1610612757
37,1610612764,1626162,201160,202322,202693,203078,1610612757,1628380,202323,203081,203090,203468,0021800046,1,517,535,3,0,1610612764
38,1610612764,1626162,201145,201160,202322,203085,1610612757,1628380,202323,203090,203552,203917,0021800046,1,553,553,0,0,1610612757
39,1610612764,1626162,201145,201160,202322,203085,1610612757,1628380,202323,203090,203552,203917,0021800046,1,563,563,2,0,1610612764
40,1610612764,1626162,201145,201160,202322,203085,1610612757,1628380,202323,203090,203552,203917,0021800046,1,585,587,0,0,1610612757
41,1610612764,1626162,201145,201160,202322,203085,1610612757,1628380,202323,203090,203552,203917,0021800046,1,592,592,2,0,1610612764
42,1610612764,1626162,201145,201160,203085,203107,1610612757,1628380,202323,203090,203552,203917,0021800046,1,599,599,0,2,1610612757
43,1610612764,1626162,201145,201160,203085,203107,1610612757,1628380,202323,203090,203552,203917,0021800046,1,609,614,0,0,1610612764
44,1610612764,1626162,201145,201160,203085,203107,1610612757,1628380,202323,203090,203552,203917,0021800046,1,631,632,0,0,1610612757
45,1610612764,1626162,201145,201160,203085,203107,1610612757,1628380,202323,203090,203552,203917,0021800046,1,638,638,1,0,1610612764
46,1610612764,1626162,201145,201160,203085,203107,1610612757,1628380,202323,203090,203552,203917,0021800046,1,649,649,0,2,1610612757
47,1610612764,1626162,201145,201160,203085,203107,1610612757,1628380,202323,203090,203552,203917,0021800046,1,662,663,0,0,1610612764
48,1610612764,1626162,201145,201160,203085,203107,1610612757,1628380,202323,203090,203552,203917,0021800046,1,668,668,0,3,1610612757
49,1610612764,1626162,201145,201160,203085,203107,1610612757,1628380,202323,203090,203552,203917,0021800046,1,680,680,2,0,1610612764
50,1610612764,1626162,201145,201160,203085,203107,1610612757,1628380,202323,203090,203552,203917,0021800046,1,697,697,0,0,1610612757
51,1610612764,1626162,201145,201160,203085,203107,1610612757,1628380,202323,203090,203552,203917,0021800046,1,720,720,0,0,1610612764
52,1610612764,203490,1626162,203085,201145,203107,1610612757,202323,1628380,203090,203917,203552,0021800046,2,720,731,2,0,1610612764
53,1610612764,203490,1626162,203085,201145,203107,1610612757,202323,1628380,203090,203917,203552,0021800046,2,749,749,0,2,1610612757
54,1610612764,203490,1626162,203085,201145,203107,1610612757,202323,1628380,203090,203917,203552,0021800046,2,770,770,0,0,1610612764
55,1610612764,203490,1626162,203085,201145,203107,1610612757,202323,1628380,203090,203917,203552,0021800046,2,773,784,0,2,1610612757
56,1610612764,203490,1626162,203085,201145,203107,1610612757,202323,1628380,203090,203917,203552,0021800046,2,789,789,0,0,1610612764
57,1610612764,203490,1626162,203085,201145,203107,1610612757,202323,1628380,203090,203917,203552,0021800046,2,800,802,0,0,1610612757
58,1610612764,203490,1626162,203085,201145,203107,1610612757,202323,1628380,203090,203917,203552,0021800046,2,809,811,0,0,1610612764
59,1610612764,203490,1626162,203085,201145,203107,1610612757,202323,1628380,203090,203917,203552,0021800046,2,818,830,0,2,1610612757
60,1610612764,203490,1626162,203085,201145,203107,1610612757,202323,1628380,203090,203917,203552,0021800046,2,847,849,0,0,1610612764
61,1610612764,203490,1626162,203085,201145,203107,1610612757,202323,1628380,203090,203917,203552,0021800046,2,853,853,0,2,1610612757
62,1610612764,203490,1626162,203085,201145,203107,1610612757,202323,1628380,203090,203917,203552,0021800046,2,854,866,2,0,1610612764
63,1610612764,1626162,201145,203078,203085,203490,1610612757,202323,1628380,203090,203917,203552,0021800046,2,886,886,0,2,1610612757
64,1610612764,1626162,201145,203078,203085,203490,1610612757,202323,1628380,203090,203917,203552,0021800046,2,896,896,2,0,1610612764
65,1610612764,1626162,201145,203078,203085,203490,1610612757,202323,1628380,203090,203917,203552,0021800046,2,906,906,0,2,1610612757
66,1610612764,1626162,201145,203078,203085,203490,1610612757,202323,1628380,203090,203917,203552,0021800046,2,924,924,3,0,1610612764
67,1610612764,1626162,201145,203078,203085,203490,1610612757,202323,1628380,203090,203917,203552,0021800046,2,944,944,0,0,1610612757
68,1610612764,1626162,201145,203078,203085,203490,1610612757,202323,1628380,203090,203917,203552,0021800046,2,957,957,2,0,1610612764
69,1610612764,1626162,201145,203078,203085,203490,1610612757,202323,1628380,203090,203917,203552,0021800046,2,972,974,0,0,1610612757
70,1610612764,1626162,201145,203078,203085,203490,1610612757,202323,1628380,203090,203917,203552,0021800046,2,978,978,2,0,1610612764
71,1610612764,1626162,201145,203078,203085,203490,1610612757,1628380,202323,202329,203081,203468,0021800046,2,986,986,0,0,1610612757
72,1610612764,1626162,201145,203078,203085,203490,1610612757,1628380,202323,202329,203081,203468,0021800046,2,991,991,0,0,1610612764
73,1610612764,1626162,201145,202322,203078,203085,1610612757,1628380,202323,202329,203081,203468,0021800046,2,1007,1009,0,0,1610612757
74,1610612764,1626162,201145,202322,203078,203085,1610612757,1628380,202323,202329,203081,203468,0021800046,2,1013,1015,1,0,1610612764
75,1610612764,1626162,201145,202322,203078,203085,1610612757,202329,203081,203468,203552,203994,0021800046,2,1022,1025,0,0,1610612757
76,1610612764,1626162,201145,202322,203078,203085,1610612757,202329,203081,203468,203552,203994,0021800046,2,1029,1029,2,0,1610612764
77,1610612764,1626162,201145,202322,203078,203085,1610612757,202329,203081,203468,203552,203994,0021800046,2,1045,1045,0,2,1610612757
78,1610612764,1626162,201145,202322,203078,203085,1610612757,202329,203081,203468,203552,203994,0021800046,2,1056,1056,3,0,1610612764
79,1610612764,1626162,201145,202322,203078,203085,1610612757,202329,203081,203468,203552,203994,0021800046,2,1069,1071,0,0,1610612757
80,1610612764,1626162,201145,202322,203078,203085,1610612757,202329,203081,203468,203552,203994,0021800046,2,1082,1082,2,0,1610612764
81,1610612764,1626162,201145,202322,203078,203085,1610612757,202329,203081,203468,203552,203994,0021800046,2,1097,1097,0,2,1610612757
82,1610612764,1626162,201145,202322,203078,203085,1610612757,202329,203081,203468,203552,203994,0021800046,2,1108,1120,2,0,1610612764
83,1610612764,1626162,201145,202322,203078,203085,1610612757,202329,203081,203468,203552,203994,0021800046,2,1127,1140,0,2,1610612757
84,1610612764,1626162,201145,202322,203078,203085,1610612757,202329,203081,203468,203552,203994,0021800046,2,1158,1163,0,0,1610612764
85,1610612764,1626162,201145,202322,203078,203085,1610612757,202329,203081,203468,203552,203994,0021800046,2,1164,1164,0,0,1610612757
86,1610612764,1626162,202322,202693,203078,203085,1610612757,202329,203081,203468,203552,203994,0021800046,2,1179,1188,0,0,1610612764
87,1610612764,1626162,202322,202693,203078,203490,1610612757,202329,203081,203468,203552,203994,0021800046,2,1190,1190,0,2,1610612757
88,1610612764,1626162,202322,202693,203078,203490,1610612757,202329,203081,203468,203552,203994,0021800046,2,1205,1207,0,0,1610612764
89,1610612764,1626162,202322,202693,203078,203490,1610612757,202329,203081,203468,203552,203994,0021800046,2,1208,1208,0,0,1610612757
90,1610612764,1626162,202322,202693,203078,203490,1610612757,202329,203081,203468,203552,203994,0021800046,2,1208,1210,1,0,1610612764
91,1610612764,1626162,202322,202693,203078,203490,1610612757,202329,203081,203468,203552,203994,0021800046,2,1217,1220,0,0,1610612757
92,1610612764,1626162,202322,202693,203078,203490,1610612757,202329,203081,203468,203552,203994,0021800046,2,1227,1227,3,0,1610612764
93,1610612764,1626162,202322,202693,203078,203490,1610612757,202329,203081,203468,203552,203994,0021800046,2,1229,1242,0,2,1610612757
94,1610612764,1626162,202322,202693,203078,203490,1610612757,202329,203081,203468,203917,203994,0021800046,2,1261,1264,0,0,1610612764
95,1610612764,1626162,202322,202693,203078,203490,1610612757,202329,203081,203468,203917,203994,0021800046,2,1271,1271,0,3,1610612757
96,1610612764,1626162,202322,202693,203078,203490,1610612757,202329,203081,203468,203917,203994,0021800046,2,1292,1292,2,0,1610612764
97,1610612764,1626162,202322,202693,203078,203490,1610612757,202329,203081,203468,203917,203994,0021800046,2,1303,1303,0,2,1610612757
98,1610612764,1626162,202322,202693,203078,203490,1610612757,202329,203081,203468,203917,203994,0021800046,2,1319,1321,0,0,1610612764
99,1610612764,1626162,202322,202693,203078,203490,1610612757,202329,203081,203468,203917,203994,0021800046,2,1329,1331,0,1,1610612757
100,1610612764,1626162,202322,202693,203078,203490,1610612757,202329,203081,203468,203917,203994,0021800046,2,1340,1340,3,0,1610612764
101,1610612764,1626162,202322,202693,203078,203490,1610612757,1628380,202329,203081,203468,203917,0021800046,2,1347,1351,0,0,1610612757
102,1610612764,1626162,202322,202693,203078,203490,1610612757,1628380,202329,203081,203468,203917,0021800046,2,1358,1358,2,0,1610612764
103,1610612764,1626162,202322,202693,203078,203490,1610612757,1628380,202329,203081,203468,203917,0021800046,2,1376,1376,0,0,1610612757
104,1610612764,1626162,202322,202693,203078,203490,1610612757,1628380,202329,203081,203468,203917,0021800046,2,1386,1389,0,0,1610612764
105,1610612764,1626162,202322,202693,203078,203490,1610612757,1628380,202329,203081,203468,203917,0021800046,2,1393,1395,0,0,1610612757
106,1610612764,1626162,202322,202693,203078,203490,1610612757,1628380,202329,203081,203468,203917,0021800046,2,1398,1401,0,0,1610612764
107,1610612764,1626162,202322,202693,203078,203490,1610612757,1628380,202329,203081,203468,203917,0021800046,2,1407,1409,0,0,1610612757
108,1610612764,1626162,202322,202693,203078,203490,1610612757,1628380,202329,203081,203468,203917,0021800046,2,1413,1413,0,0,1610612764
109,1610612764,1626162,201145,202322,203078,203490,1610612757,1628380,203081,203468,203552,203917,0021800046,2,1437,1437,0,2,1610612757
110,1610612764,203490,202693,203078,202322,1626162,1610612757,1627774,202329,203994,203468,203081,0021800046,3,1440,1453,3,0,1610612764
111,1610612764,203490,202693,203078,202322,1626162,1610612757,1627774,202329,203994,203468,203081,0021800046,3,1467,1467,0,3,1610612757
112,1610612764,203490,202693,203078,202322,1626162,1610612757,1627774,202329,203994,203468,203081,0021800046,3,1487,1488,0,0,1610612764
113,1610612764,203490,202693,203078,202322,1626162,1610612757,1627774,202329,203994,203468,203081,0021800046,3,1498,1501,0,0,1610612757
114,1610612764,203490,202693,203078,202322,1626162,1610612757,1627774,202329,203994,203468,203081,0021800046,3,1506,1508,0,0,1610612764
115,1610612764,203490,202693,203078,202322,1626162,1610612757,1627774,202329,203994,203468,203081,0021800046,3,1513,1513,0,0,1610612757
116,1610612764,203490,202693,203078,202322,1626162,1610612757,1627774,202329,203994,203468,203081,0021800046,3,1518,1519,0,0,1610612764
117,1610612764,203490,202693,203078,202322,1626162,1610612757,1627774,202329,203994,203468,203081,0021800046,3,1523,1535,0,0,1610612757
118,1610612764,203490,202693,203078,202322,1626162,1610612757,1627774,202329,203994,203468,203081,0021800046,3,1543,1543,0,0,1610612764
119,1610612764,203490,202693,203078,202322,1626162,1610612757,1627774,202329,203994,203468,203081,0021800046,3,1549,1549,0,0,1610612757
120,1610612764,203490,202693,203078,202322,1626162,1610612757,1627774,202329,203994,203468,203081,0021800046,3,1563,1563,2,0,1610612764
121,1610612764,203490,202693,203078,202322,1626162,1610612757,1627774,202329,203994,203468,203081,0021800046,3,1577,1581,0,0,1610612757
122,1610612764,203490,202693,203078,202322,1626162,1610612757,1627774,202329,203994,203468,203081,0021800046,3,1587,1587,2,0,1610612764
123,1610612764,203490,202693,203078,202322,1626162,1610612757,1627774,202329,203994,203468,203081,0021800046,3,1607,1611,0,0,1610612757
124,1610612764,203490,202693,203078,202322,1626162,1610612757,1627774,202329,203994,203468,203081,0021800046,3,1616,1616,1,0,1610612764
125,1610612764,203490,202693,203078,202322,1626162,1610612757,1627774,202329,203994,203468,203081,0021800046,3,1621,1629,0,0,1610612757
126,1610612764,203490,202693,203078,202322,1626162,1610612757,1627774,202329,203994,203468,203081,0021800046,3,1639,1642,0,0,1610612764
127,1610612764,203490,202693,203078,202322,1626162,1610612757,1627774,202329,203994,203468,203081,0021800046,3,1652,1652,0,2,1610612757
128,1610612764,203490,202693,203078,202322,1626162,1610612757,1627774,202329,203994,203468,203081,0021800046,3,1663,1663,0,0,1610612764
129,1610612764,203490,202693,203078,202322,1626162,1610612757,1627774,202329,203994,203468,203081,0021800046,3,1663,1683,0,0,1610612757
130,1610612764,203490,202693,203078,202322,1626162,1610612757,1627774,202329,203994,203468,203081,0021800046,3,1685,1685,0,0,1610612764
131,1610612764,203490,202693,203078,202322,1626162,1610612757,1627774,202329,203994,203468,203081,0021800046,3,1685,1685,0,2,1610612757
132,1610612764,1626162,201160,202322,203078,203490,1610612757,1627774,202329,203994,203468,203081,0021800046,3,1697,1698,0,0,1610612764
133,1610612764,1626162,201160,202322,203078,203490,1610612757,1627774,202329,203994,203468,203081,0021800046,3,1707,1711,0,0,1610612757
134,1610612764,1626162,201160,202322,203078,203490,1610612757,1627774,202329,203994,203468,203081,0021800046,3,1720,1720,2,0,1610612764
135,1610612764,1626162,201160,202322,203078,203490,1610612757,1627774,202329,203994,203468,203081,0021800046,3,1731,1732,0,0,1610612757
136,1610612764,1626162,201160,202322,203078,203490,1610612757,1627774,202329,203994,203468,203081,0021800046,3,1740,1740,2,0,1610612764
137,1610612764,1626162,201160,202322,203078,203490,1610612757,1627774,202329,203994,203468,203081,0021800046,3,1762,1762,0,2,1610612757
138,1610612764,1626162,201160,202322,203078,203490,1610612757,1627774,202329,203994,203468,203081,0021800046,3,1778,1780,0,0,1610612764
139,1610612764,1626162,201160,202322,203078,203490,1610612757,1627774,202329,203994,203468,203081,0021800046,3,1789,1789,0,0,1610612757
140,1610612764,1626162,201160,202322,203078,203490,1610612757,1627774,202329,203994,203468,203081,0021800046,3,1789,1802,0,0,1610612764
141,1610612764,1626162,201160,202322,203078,203490,1610612757,202323,202329,203081,203468,203994,0021800046,3,1825,1825,0,0,1610612757
142,1610612764,1626162,201160,202322,203078,203490,1610612757,202323,202329,203081,203468,203994,0021800046,3,1837,1838,0,0,1610612764
143,1610612764,1626162,201160,202322,203078,203490,1610612757,202323,202329,203081,203468,203994,0021800046,3,1845,1845,0,2,1610612757
144,1610612764,1626162,201160,202322,203078,203490,1610612757,202323,202329,203081,203468,203994,0021800046,3,1855,1857,0,0,1610612764
145,1610612764,1626162,201160,202322,203078,203490,1610612757,202323,202329,203081,203468,203994,0021800046,3,1865,1865,0,2,1610612757
146,1610612764,1626162,201160,202322,203078,203490,1610612757,202323,202329,203081,203468,203994,0021800046,3,1883,1885,0,0,1610612764
147,1610612764,1626162,201160,202322,203078,203490,1610612757,202323,202329,203081,203468,203994,0021800046,3,1899,1899,0,0,1610612757
148,1610612764,1626162,201160,202322,203078,203490,1610612757,202323,202329,203081,203468,203994,0021800046,3,1907,1907,2,0,1610612764
149,1610612764,1626162,201145,202322,203078,203490,1610612757,1628380,202323,203081,203090,203468,0021800046,3,1925,1928,0,0,1610612757
150,1610612764,1626162,201145,202322,203078,203490,1610612757,1628380,202323,203081,203090,203468,0021800046,3,1935,1937,0,0,1610612764
151,1610612764,1626162,201145,202322,203078,203490,1610612757,1628380,202323,203081,203090,203468,0021800046,3,1951,1953,0,0,1610612757
152,1610612764,1626162,201145,202322,203078,203490,1610612757,1628380,202323,203081,203090,203468,0021800046,3,1967,1967,0,0,1610612764
153,1610612764,1626162,201145,202322,203078,203490,1610612757,1628380,202323,203081,203090,203468,0021800046,3,1972,1972,0,2,1610612757
154,1610612764,1626162,201145,202322,203078,203490,1610612757,1628380,202323,203081,203090,203468,0021800046,3,1996,1999,0,0,1610612764
155,1610612764,1626162,201145,202322,203078,203490,1610612757,1628380,202323,203081,203090,203468,0021800046,3,2007,2009,0,0,1610612757
156,1610612764,1626162,201145,202322,203078,203490,1610612757,1628380,202323,203081,203090,203468,0021800046,3,2023,2026,0,0,1610612764
157,1610612764,1626162,201145,202322,203078,203490,1610612757,1628380,202323,203081,203090,203468,0021800046,3,2028,2039,0,0,1610612757
158,1610612764,1626162,201145,203078,203085,203107,1610612757,1628380,202323,203081,203090,203917,0021800046,3,2045,2045,2,0,1610612764
159,1610612764,1626162,201145,203078,203085,203107,1610612757,1628380,202323,203081,203090,203917,0021800046,3,2069,2072,0,0,1610612757
160,1610612764,1626162,201145,203078,203085,203107,1610612757,1628380,202323,203081,203090,203917,0021800046,3,2078,2080,0,0,1610612764
161,1610612764,1626162,201145,203078,203085,203107,1610612757,1628380,202323,203081,203090,203917,0021800046,3,2083,2083,0,0,1610612757
162,1610612764,1626162,201145,203078,203085,203107,1610612757,1628380,202323,203090,203552,203917,0021800046,3,2098,2100,0,0,1610612764
163,1610612764,1626162,201145,203078,203085,203107,1610612757,1628380,202323,203090,203552,203917,0021800046,3,2107,2109,0,0,1610612757
164,1610612764,1626162,201145,203078,203085,203107,1610612757,1628380,202323,203090,203552,203917,0021800046,3,2112,2112,0,0,1610612764
165,1610612764,1626162,201145,203078,203085,203107,1610612757,1628380,202323,203090,203552,203917,0021800046,3,2125,2134,0,0,1610612757
166,1610612764,1626162,201145,203078,203085,203107,1610612757,1628380,202323,203090,203552,203917,0021800046,3,2154,2158,0,0,1610612764
167,1610612764,1626162,201145,203078,203085,203107,1610612757,1628380,202323,203090,203552,203917,0021800046,3,2160,2160,0,0,1610612764
168,1610612764,203490,1626162,203085,201145,203107,1610612757,202323,1628380,203090,203917,203552,0021800046,4,2160,2177,0,0,1610612757
169,1610612764,203490,1626162,203085,201145,203107,1610612757,202323,1628380,203090,203917,203552,0021800046,4,2177,2194,2,0,1610612764
170,1610612764,203490,1626162,203085,201145,203107,1610612757,202323,1628380,203090,203917,203552,0021800046,4,2208,2218,0,3,1610612757
171,1610612764,203490,1626162,203085,201145,203107,1610612757,202323,1628380,203090,203917,203552,0021800046,4,2240,2244,0,0,1610612764
172,1610612764,203490,1626162,203085,201145,203107,1610612757,202323,1628380,203090,203917,203552,0021800046,4,2249,2249,0,0,1610612757
173,1610612764,203490,1626162,203085,201145,203107,1610612757,202323,1628380,203090,203917,203552,0021800046,4,2255,2258,0,0,1610612764
174,1610612764,203490,1626162,203085,201145,203107,1610612757,202323,1628380,203090,203917,203552,0021800046,4,2269,2269,0,2,1610612757
175,1610612764,203490,1626162,203085,201145,203107,1610612757,202323,1628380,203090,203917,203552,0021800046,4,2281,2281,3,0,1610612764
176,1610612764,203490,1626162,203085,201145,203107,1610612757,202323,1628380,203090,203917,203552,0021800046,4,2297,2297,0,3,1610612757
177,1610612764,203490,1626162,203085,201145,203107,1610612757,202323,1628380,203090,203917,203552,0021800046,4,2318,2318,3,0,1610612764
178,1610612764,203490,1626162,203085,201145,203107,1610612757,202323,1628380,203090,203917,203552,0021800046,4,2333,2353,0,0,1610612757
179,1610612764,201145,202322,203085,203107,203490,1610612757,202323,1628380,203090,203917,203552,0021800046,4,2362,2365,0,0,1610612764
180,1610612764,201145,202322,203085,203107,203490,1610612757,202323,1628380,203090,203917,203552,0021800046,4,2370,2370,0,2,1610612757
181,1610612764,201145,202322,203085,203107,203490,1610612757,1628380,203081,203090,203552,203917,0021800046,4,2383,2385,0,0,1610612764
182,1610612764,201145,202322,203085,203107,203490,1610612757,1628380,203081,203090,203552,203917,0021800046,4,2395,2397,0,0,1610612757
183,1610612764,201145,202322,203085,203107,203490,1610612757,1628380,203081,203090,203552,203917,0021800046,4,2403,2404,0,0,1610612764
184,1610612764,201145,202322,203085,203107,203490,1610612757,1628380,203081,203090,203552,203917,0021800046,4,2416,2418,0,1,1610612757
185,1610612764,201145,202322,203078,203085,203490,1610612757,1628380,203081,203090,203552,203917,0021800046,4,2432,2432,2,0,1610612764
186,1610612764,201145,202322,203078,203085,203490,1610612757,1628380,203081,203090,203552,203917,0021800046,4,2445,2445,0,0,1610612757
187,1610612764,201145,202322,203078,203085,203490,1610612757,202329,203081,203468,203917,203994,0021800046,4,2458,2462,2,0,1610612764
188,1610612764,201145,202322,203078,203085,203490,1610612757,202329,203081,203468,203917,203994,0021800046,4,2483,2483,0,2,1610612757
189,1610612764,201145,202322,203078,203085,203490,1610612757,202329,203081,203468,203917,203994,0021800046,4,2498,2498,2,0,1610612764
190,1610612764,201145,202322,203078,203085,203490,1610612757,202329,203081,203468,203917,203994,0021800046,4,2525,2525,0,3,1610612757
191,1610612764,201145,202322,203078,203085,203490,1610612757,202329,203081,203468,203917,203994,0021800046,4,2543,2543,3,0,1610612764
192,1610612764,201145,202322,203078,203085,203490,1610612757,202329,203081,203468,203917,203994,0021800046,4,2567,2567,0,2,1610612757
193,1610612764,201145,202322,203078,203085,203490,1610612757,202329,203081,203468,203917,203994,0021800046,4,2581,2581,2,0,1610612764
194,1610612764,201145,202322,203078,203085,203490,1610612757,202329,203081,203468,203917,203994,0021800046,4,2600,2602,0,0,1610612757
195,1610612764,201145,202322,203078,203085,203490,1610612757,202329,203081,203468,203917,203994,0021800046,4,2613,2615,0,0,1610612764
196,1610612764,201145,202322,203078,203085,203490,1610612757,202329,203081,203468,203917,203994,0021800046,4,2615,2615,0,2,1610612757
197,1610612764,201145,202322,203078,203085,203490,1610612757,202329,203081,203468,203917,203994,0021800046,4,2633,2636,0,0,1610612764
198,1610612764,201145,202322,203078,203085,203490,1610612757,202329,203081,203468,203917,203994,0021800046,4,2649,2649,0,2,1610612757
199,1610612764,201145,202322,203078,203085,203490,1610612757,202329,203081,203468,203917,203994,0021800046,4,2668,2671,0,0,1610612764
200,1610612764,201145,202322,203078,203085,203490,1610612757,202329,203081,203468,203917,203994,0021800046,4,2679,2692,0,3,1610612757
201,1610612764,1626162,202322,202693,203078,203490,1610612757,202329,203081,203468,203917,203994,0021800046,4,2717,2717,2,0,1610612764
202,1610612764,1626162,202322,202693,203078,203490,1610612757,202329,203081,203468,203917,203994,0021800046,4,2735,2737,0,0,1610612757
203,1610612764,1626162,202322,202693,203078,203490,1610612757,202329,203081,203468,203917,203994,0021800046,4,2740,2740,3,0,1610612764
204,1610612764,1626162,202322,202693,203078,203490,1610612757,202329,203081,203468,203917,203994,0021800046,4,2756,2756,0,0,1610612757
205,1610612764,1626162,202322,202693,203078,203490,1610612757,202329,203081,203468,203917,203994,0021800046,4,2766,2766,0,0,1610612764
206,1610612764,1626162,202322,202693,203078,203490,1610612757,202329,203081,203468,203917,203994,0021800046,4,2766,2768,0,1,1610612757
207,1610612764,1626162,202322,202693,203078,203490,1610612757,202329,203081,203468,203917,203994,0021800046,4,2781,2781,3,0,1610612764
208,1610612764,1626162,202322,202693,203078,203490,1610612757,202329,203081,203468,203917,203994,0021800046,4,2800,2800,0,2,1610612757
209,1610612764,1626162,202322,202693,203078,203490,1610612757,202329,203081,203468,203917,203994,0021800046,4,2816,2816,3,0,1610612764
210,1610612764,1626162,202322,202693,203078,203490,1610612757,202329,203081,203468,203917,203994,0021800046,4,2828,2828,0,3,1610612757
211,1610612764,1626162,202322,202693,203078,203490,1610612757,202329,203081,203468,203917,203994,0021800046,4,2842,2846,0,0,1610612764
212,1610612764,1626162,202322,202693,203078,203490,1610612757,202329,203081,203468,203917,203994,0021800046,4,2849,2867,0,3,1610612757
213,1610612764,1626162,202322,202693,203078,203490,1610612757,202329,203081,203468,203917,203994,0021800046,4,2868,2873,3,0,1610612764
214,1610612764,1626162,202322,202693,203078,203490,1610612757,202323,202329,203081,203090,203468,0021800046,4,2874,2880,0,0,1610612764
215,1610612764,203490,202693,203078,202322,1626162,1610612757,202329,203994,203468,203081,203917,0021800046,5,2880,2900,0,0,1610612757
216,1610612764,203490,202693,203078,202322,1626162,1610612757,202329,203994,203468,203081,203917,0021800046,5,2913,2916,0,0,1610612764
217,1610612764,203490,202693,203078,202322,1626162,1610612757,202329,203994,203468,203081,203917,0021800046,5,2926,2926,0,2,1610612757
218,1610612764,203490,202693,203078,202322,1626162,1610612757,202329,203994,203468,203081,203917,0021800046,5,2939,2939,3,0,1610612764
219,1610612764,203490,202693,203078,202322,1626162,1610612757,202329,203994,203468,203081,203917,0021800046,5,2954,2957,0,2,1610612757
220,1610612764,203490,202693,203078,202322,1626162,1610612757,202329,203994,203468,203081,203917,0021800046,5,2973,2982,0,0,1610612764
221,1610612764,203490,202693,203078,202322,1626162,1610612757,202329,203994,203468,203081,203917,0021800046,5,2985,2987,0,0,1610612757
222,1610612764,203490,202693,203078,202322,1626162,1610612757,202329,203994,203468,203081,203917,0021800046,5,2995,2995,3,0,1610612764
223,1610612764,203490,202693,203078,202322,1626162,1610612757,202329,203994,203468,203081,203917,0021800046,5,3007,3024,0,0,1610612757
224,1610612764,203490,202693,203078,202322,1626162,1610612757,202329,203081,203090,203468,203917,0021800046,5,3027,3028,0,0,1610612764
225,1610612764,203490,202693,203078,202322,1626162,1610612757,202329,203081,203090,203468,203917,0021800046,5,3046,3060,0,0,1610612757
226,1610612764,203490,202693,203078,202322,1626162,1610612757,202329,203081,203090,203468,203917,0021800046,5,3065,3066,0,0,1610612764
227,1610612764,203490,202693,203078,202322,1626162,1610612757,202329,203081,203090,203468,203917,0021800046,5,3071,3071,0,2,1610612757
228,1610612764,203490,202693,203078,202322,1626162,1610612757,202329,203081,203090,203468,203917,0021800046,5,3092,3094,0,0,1610612764
229,1610612764,203490,202693,203078,202322,1626162,1610612757,202329,203081,203090,203468,203917,0021800046,5,3097,3097,0,0,1610612757
230,1610612764,203490,202693,203078,202322,1626162,1610612757,202329,203081,203090,203468,203917,0021800046,5,3109,3109,3,0,1610612764
231,1610612764,203490,202693,203078,202322,1626162,1610612757,202329,203081,203090,203468,203917,0021800046,5,3119,3124,0,2,1610612757
232,1610612764,203490,202693,203078,202322,1626162,1610612757,202329,203081,203468,203917,203994,0021800046,5,3142,3142,3,0,1610612764
233,1610612764,203490,202693,203078,202322,1626162,1610612757,202329,203081,203468,203917,203994,0021800046,5,3143,3148,0,2,1610612757
234,1610612764,203490,202693,203078,202322,1626162,1610612757,202329,203081,203468,203917,203994,0021800046,5,3170,3170,2,0,1610612764
235,1610612764,203490,202693,203078,202322,1626162,1610612757,202329,203081,203468,203917,203994,0021800046,5,3171,3173,0,3,1610612757
236,1610612764,203490,202693,203078,202322,1626162,1610612757,202329,203081,203468,203552,203917,0021800046,5,3174,3175,0,0,1610612764
237,1610612764,203490,202693,203078,202322,1626162,1610612757,202329,203081,203468,203917,203994,0021800046,5,3180,3180,0,0,1610612764
