,stint_end,t1_players,t2_pm,t2_points_scored,stint_start,t1_pm,t1_points_scored,t2_id,t1_id,t2_players,margin_per_100,num_poss
0,266,"[1628407, 203932, 202696, 203095, 1628365]",2,9,0,-2,7,1610612737,1610612753,"[1629631, 1628381, 203991, 1628989, 1629027]",-11.76470588235294,17.0
1,406,"[1628407, 203932, 202696, 203095, 1628365]",6,18,267,-6,12,1610612737,1610612753,"[1629631, 1628381, 203991, 1628989, 1629027]",-23.076923076923077,26.0
2,476,"[1628407, 203932, 202696, 203095, 1628365]",5,21,407,-5,16,1610612737,1610612753,"[1628989, 1629631, 201568, 203991, 203992]",-15.625,32.0
3,528,"[1628365, 202696, 203095, 203487, 203932]",10,26,477,-10,16,1610612737,1610612753,"[1628381, 1629027, 201568, 203524, 203992]",-27.77777777777778,36.0
4,560,"[1629109, 1630175, 202696, 203095, 203487]",12,28,529,-12,16,1610612737,1610612753,"[1628381, 1629027, 201568, 203524, 203992]",-31.57894736842105,38.0
5,637,"[1629109, 1630175, 202696, 203095, 203487]",10,32,561,-10,22,1610612737,1610612753,"[1628381, 1629027, 203524, 203991, 203992]",-21.73913043478261,46.0
6,717,"[1629109, 1630175, 203095, 203487, 203920]",8,34,638,-8,26,1610612737,1610612753,"[1628381, 1629027, 203524, 203991, 203992]",-16.0,50.0
7,999,"[1628407, 1629109, 1630175, 203487, 203920]",12,43,718,-12,31,1610612737,1610612753,"[1628989, 1629027, 1629631, 201568, 203992]",-16.666666666666664,72.0
8,1045,"[1628407, 203487, 1629109, 1630175, 203920]",11,44,1000,-11,33,1610612737,1610612753,"[1629631, 1628381, 1628989, 1628981, 1629164]",-14.864864864864865,74.0
9,1064,"[1628365, 1628407, 1629109, 1630175, 203920]",12,45,1046,-12,33,1610612737,1610612753,"[1629027, 1629631, 201568, 203991, 203992]",-16.0,75.0
10,1177,"[1628365, 1628407, 1630175, 202696, 203932]",6,45,1065,-6,39,1610612737,1610612753,"[1629027, 201568, 203524, 203991, 203992]",-6.976744186046512,86.0
11,1255,"[1628365, 1630175, 202696, 203095, 203932]",6,47,1178,-6,41,1610612737,1610612753,"[1629027, 201568, 203524, 203991, 203992]",-6.593406593406594,91.0
12,1315,"[1628365, 1630175, 202696, 203095, 203932]",6,50,1256,-6,44,1610612737,1610612753,"[1628381, 1628989, 1629027, 1629631, 201568]",-6.315789473684211,95.0
13,1417,"[1628365, 202696, 203095, 203487, 203932]",3,55,1316,-3,52,1610612737,1610612753,"[1628381, 1628989, 1629027, 1629631, 201568]",-2.912621359223301,103.0
14,1439,"[1628365, 202696, 203095, 203487, 203932]",6,58,1418,-6,52,1610612737,1610612753,"[1628989, 1629027, 1629631, 201568, 203991]",-5.714285714285714,105.0
15,1610,"[1628365, 1628407, 1629109, 203487, 203932]",0,64,1440,0,64,1610612737,1610612753,"[1628989, 1629027, 1629631, 201568, 203992]",0.0,119.0
16,1721,"[1628407, 203932, 202696, 203095, 1628365]",6,72,1611,-6,66,1610612737,1610612753,"[1629631, 1628381, 203991, 1628989, 1629027]",-4.6875,128.0
17,1814,"[1628407, 203932, 202696, 203095, 1628365]",11,77,1722,-11,66,1610612737,1610612753,"[1628381, 1628989, 1629027, 203524, 203991]",-8.208955223880597,134.0
18,1847,"[1628365, 1628407, 1629643, 202696, 203095]",14,80,1815,-14,66,1610612737,1610612753,"[1628981, 1628989, 201568, 203524, 203992]",-10.294117647058822,136.0
19,2037,"[1628365, 1629643, 202696, 203095, 203487]",12,85,1848,-12,73,1610612737,1610612753,"[1628981, 1628989, 201568, 203524, 203992]",-7.894736842105263,152.0
20,2158,"[1628365, 1629643, 202696, 203095, 203487]",8,88,2038,-8,80,1610612737,1610612753,"[1628981, 1629027, 201568, 203524, 203992]",-5.0,160.0
21,2312,"[1628407, 1629643, 1630175, 203487, 203920]",1,90,2159,-1,89,1610612737,1610612753,"[1628989, 201568, 203524, 203991, 203992]",-0.5882352941176471,170.0
22,2422,"[1628407, 203487, 1630175, 203920, 1629643]",5,98,2313,-5,93,1610612737,1610612753,"[1629631, 1628381, 203991, 1628989, 1629164]",-2.824858757062147,177.0
23,2510,"[1628407, 203487, 1630175, 203920, 1629643]",6,101,2423,-6,95,1610612737,1610612753,"[1628381, 1629164, 1629631, 203991, 203992]",-3.278688524590164,183.0
24,2522,"[1628407, 1629643, 1630175, 202696, 203487]",5,101,2511,-5,96,1610612737,1610612753,"[1628381, 1629027, 1629631, 201568, 203992]",-2.7027027027027026,185.0
25,2561,"[1628365, 1628407, 1629643, 1630175, 202696]",7,104,2523,-7,97,1610612737,1610612753,"[1628381, 1629027, 1629631, 201568, 203992]",-3.723404255319149,188.0
26,2631,"[1628365, 1628407, 1629109, 1630175, 202696]",6,105,2562,-6,99,1610612737,1610612753,"[1628381, 1629027, 1629631, 201568, 203992]",-3.1413612565445024,191.0
27,2670,"[1628365, 1629109, 1630175, 202696, 203095]",11,110,2632,-11,99,1610612737,1610612753,"[1628381, 1629027, 1629631, 201568, 203992]",-5.641025641025641,195.0
28,2816,"[1628365, 1629109, 1630175, 202696, 203487]",8,110,2671,-8,102,1610612737,1610612753,"[1629027, 1629631, 201568, 203991, 203992]",-3.864734299516908,207.0
29,2871,"[1628365, 1629109, 1630175, 202696, 203487]",9,116,2817,-9,107,1610612737,1610612753,"[1628989, 1629027, 201568, 203991, 203992]",-4.147465437788019,217.0
30,9999999,"[1628365, 1629109, 1630175, 202696, 203487]",9,116,2872,-9,107,1610612737,1610612753,"[1628381, 1628989, 1629027, 1629631, 201568]",-4.128440366972478,218.0
