,t1_pm,t2_pm,stint_start,t2_points_scored,t2_players,t2_id,t1_id,t1_players,stint_end,t1_points_scored,margin_per_100,num_poss
0,2,-2,0,8,"[1628021, 200782, 1626174, 202322, 201935]",1610612745,1610612753,"[203516, 1629109, 202696, 1628407, 1630175]",301,10,11.76470588235294,17.0
1,-7,7,302,19,"[1628021, 200782, 1626174, 202322, 201935]",1610612745,1610612753,"[203516, 1629109, 202696, 1628407, 1630175]",460,12,-25.925925925925924,27.0
2,-7,7,461,19,"[1628021, 200782, 1626174, 202322, 201935]",1610612745,1610612753,"[1628407, 1630175, 202696, 203082, 203920]",529,12,-21.875,32.0
3,-10,10,530,27,"[1626174, 1628021, 1630256, 201569, 201935]",1610612745,1610612753,"[1628407, 1629648, 202696, 203082, 203920]",651,17,-25.0,40.0
4,-15,15,652,32,"[1628021, 1630256, 201569, 201935, 202326]",1610612745,1610612753,"[1629648, 1630211, 202696, 203082, 203920]",719,17,-33.33333333333333,45.0
5,-20,20,720,37,"[1628425, 1630256, 201569, 201935, 202326]",1610612745,1610612753,"[1629109, 1629648, 1630211, 203082, 203920]",844,17,-37.03703703703704,54.0
6,-21,21,845,40,"[202322, 1630256, 202326, 1628425, 203463]",1610612745,1610612753,"[1629109, 203082, 1629648, 1630211, 1628964]",902,19,-35.59322033898305,59.0
7,-25,25,903,46,"[202322, 1630256, 202326, 1628425, 203463]",1610612745,1610612753,"[1628407, 1628964, 1629109, 1629648, 203082]",994,21,-37.3134328358209,67.0
8,-25,25,995,46,"[1628425, 200782, 202322, 202326, 203463]",1610612745,1610612753,"[1628407, 1628964, 1629648, 203082, 203920]",1021,21,-36.76470588235294,68.0
9,-27,27,1022,48,"[1628425, 200782, 202322, 202326, 203463]",1610612745,1610612753,"[1628407, 1629648, 1630211, 202696, 203920]",1097,21,-36.986301369863014,73.0
10,-27,27,1098,48,"[200782, 201569, 201935, 202322, 202326]",1610612745,1610612753,"[1628407, 1629648, 1630211, 202696, 203920]",1115,21,-36.486486486486484,74.0
11,-30,30,1116,53,"[1626174, 200782, 201569, 201935, 202322]",1610612745,1610612753,"[1629648, 1630211, 202696, 203516, 203920]",1230,23,-37.9746835443038,79.0
12,-27,27,1231,60,"[1626174, 200782, 201569, 201935, 202322]",1610612745,1610612753,"[1630175, 1630211, 202696, 203516, 203920]",1439,33,-28.723404255319153,94.0
13,-34,34,1440,75,"[1626174, 200782, 201569, 201935, 202322]",1610612745,1610612753,"[1629109, 1630175, 1630211, 202696, 203516]",1750,41,-29.310344827586203,116.0
14,-38,38,1751,81,"[1628021, 200782, 1626174, 202322, 201935]",1610612745,1610612753,"[203516, 1629109, 202696, 1628407, 1630175]",1872,43,-31.40495867768595,121.0
15,-34,34,1873,83,"[1628021, 200782, 1626174, 202322, 201935]",1610612745,1610612753,"[1628407, 1630175, 202696, 203082, 203920]",1972,49,-26.5625,128.0
16,-33,33,1973,90,"[1628021, 200782, 1626174, 202322, 201935]",1610612745,1610612753,"[1628407, 1629648, 202696, 203082, 203920]",2120,57,-24.087591240875913,137.0
17,-33,33,2121,90,"[1626174, 1628021, 200782, 201569, 201935]",1610612745,1610612753,"[1628407, 1629648, 202696, 203082, 203920]",2157,57,-23.741007194244602,139.0
18,-40,40,2158,103,"[1626174, 1628021, 200782, 201569, 201935]",1610612745,1610612753,"[1629109, 1629648, 203082, 203516, 203920]",2359,63,-26.143790849673206,153.0
19,-40,40,2360,108,"[1630256, 201569, 202326, 1628425, 203463]",1610612745,1610612753,"[203516, 1629109, 1628407, 1629648, 1628964]",2437,68,-25.157232704402517,159.0
20,-36,36,2438,114,"[1630256, 201569, 202326, 1628425, 203463]",1610612745,1610612753,"[1628964, 1629109, 1629648, 1630175, 1630211]",2551,78,-21.686746987951807,166.0
21,-39,39,2552,117,"[1628425, 1630222, 1630256, 202326, 203463]",1610612745,1610612753,"[1628964, 1629109, 1629648, 1630175, 1630211]",2582,78,-23.076923076923077,169.0
22,-39,39,2583,119,"[1628425, 1630222, 1630231, 202326, 203463]",1610612745,1610612753,"[1628964, 1629109, 1629648, 1630175, 1630211]",2639,80,-22.285714285714285,175.0
23,-37,37,2640,119,"[1628425, 1630222, 1630231, 203463, 203998]",1610612745,1610612753,"[1628964, 1629109, 1629648, 1630175, 1630211]",2692,82,-20.903954802259886,177.0
24,-37,37,2693,125,"[1628425, 1630222, 1630231, 203463, 203998]",1610612745,1610612753,"[1628964, 1629109, 1629648, 1630211, 203920]",2789,88,-19.892473118279568,186.0
25,-42,42,2790,132,"[1628425, 1630222, 1630231, 203463, 203998]",1610612745,1610612753,"[1629109, 1629648, 1630175, 1630211, 203920]",2879,90,-21.98952879581152,191.0
26,-42,42,2880,132,"[1628425, 1630222, 1630231, 1630256, 203998]",1610612745,1610612753,"[1629109, 1629648, 1630175, 1630211, 203920]",9999999,90,-21.875,192.0
