,team1_id,team1_player1,team1_player2,team1_player3,team1_player4,team1_player5,team2_id,team2_player1,team2_player2,team2_player3,team2_player4,team2_player5,game_id,period,possession_start,possession_end,team1_points,team2_points,possession_team
0,1610612766,1628970,1629023,203469,1628984,1626179,1610612764,1628972,1629060,1628418,203078,202738,0021900216,1,0,16,2,0,1610612766
1,1610612766,1628970,1629023,203469,1628984,1626179,1610612764,1628972,1629060,1628418,203078,202738,0021900216,1,32,32,0,0,1610612764
2,1610612766,1628970,1629023,203469,1628984,1626179,1610612764,1628972,1629060,1628418,203078,202738,0021900216,1,37,39,0,0,1610612766
3,1610612766,1628970,1629023,203469,1628984,1626179,1610612764,1628972,1629060,1628418,203078,202738,0021900216,1,48,48,0,2,1610612764
4,1610612766,1628970,1629023,203469,1628984,1626179,1610612764,1628972,1629060,1628418,203078,202738,0021900216,1,62,73,0,0,1610612766
5,1610612766,1628970,1629023,203469,1628984,1626179,1610612764,1628972,1629060,1628418,203078,202738,0021900216,1,81,83,0,0,1610612764
6,1610612766,1628970,1629023,203469,1628984,1626179,1610612764,1628972,1629060,1628418,203078,202738,0021900216,1,87,87,2,0,1610612766
7,1610612766,1628970,1629023,203469,1628984,1626179,1610612764,1628972,1629060,1628418,203078,202738,0021900216,1,112,112,0,2,1610612764
8,1610612766,1628970,1629023,203469,1628984,1626179,1610612764,1628972,1629060,1628418,203078,202738,0021900216,1,125,125,2,0,1610612766
9,1610612766,1628970,1629023,203469,1628984,1626179,1610612764,1628972,1629060,1628418,203078,202738,0021900216,1,139,139,0,2,1610612764
10,1610612766,1628970,1629023,203469,1628984,1626179,1610612764,1628972,1629060,1628418,203078,202738,0021900216,1,155,158,0,0,1610612766
11,1610612766,1628970,1629023,203469,1628984,1626179,1610612764,1628972,1629060,1628418,203078,202738,0021900216,1,159,160,0,0,1610612764
12,1610612766,1628970,1629023,203469,1628984,1626179,1610612764,1628972,1629060,1628418,203078,202738,0021900216,1,173,192,2,0,1610612766
13,1610612766,1628970,1629023,203469,1628984,1626179,1610612764,1628972,1629060,1628418,203078,202738,0021900216,1,200,202,0,0,1610612764
14,1610612766,1628970,1629023,203469,1628984,1626179,1610612764,1628972,1629060,1628418,203078,202738,0021900216,1,206,206,3,0,1610612766
15,1610612766,1628970,1629023,203469,1628984,1626179,1610612764,1628972,1629060,1628418,203078,202738,0021900216,1,227,227,0,2,1610612764
16,1610612766,1628970,1629023,203469,1628984,1626179,1610612764,1628972,1629060,1628418,203078,202738,0021900216,1,241,243,0,0,1610612766
17,1610612766,1628970,1629023,203469,1628984,1626179,1610612764,1628972,1629060,1628418,203078,202738,0021900216,1,248,248,0,3,1610612764
18,1610612766,1628970,1629023,203469,1628984,1626179,1610612764,1628972,1629060,1628418,203078,202738,0021900216,1,262,264,0,0,1610612766
19,1610612766,1628970,1629023,203469,1628984,1626179,1610612764,1628972,1629060,1628418,203078,202738,0021900216,1,272,272,0,0,1610612764
20,1610612766,1628970,1629023,203469,1628984,1626179,1610612764,1628972,1629060,1628418,203078,202738,0021900216,1,275,275,0,0,1610612766
21,1610612766,1628970,1629023,203469,1628984,1626179,1610612764,1628972,1629060,1628418,203078,202738,0021900216,1,285,288,0,0,1610612764
22,1610612766,1628970,1629023,203469,1628984,1626179,1610612764,1628972,1629060,1628418,203078,202738,0021900216,1,302,302,3,0,1610612766
23,1610612766,1628970,1629023,203469,1628984,1626179,1610612764,1628972,1629060,1628418,203078,202738,0021900216,1,315,317,0,0,1610612764
24,1610612766,1628970,1629023,203469,1628984,1626179,1610612764,1628972,1629060,1628418,203078,202738,0021900216,1,320,320,2,0,1610612766
25,1610612766,1628970,1629023,203469,1628984,1626179,1610612764,1628972,1629060,1628418,203078,202738,0021900216,1,320,337,0,0,1610612764
26,1610612766,1626179,1628370,1628970,1629023,202687,1610612764,1628972,1629060,1628418,203078,202738,0021900216,1,352,352,0,0,1610612766
27,1610612766,1626179,1628370,1628970,1629023,202687,1610612764,1628972,1629060,1628418,203078,202738,0021900216,1,358,358,0,2,1610612764
28,1610612766,1626179,1628370,1628970,1629023,202687,1610612764,1628972,1629060,1628418,203078,202738,0021900216,1,370,370,0,0,1610612766
29,1610612766,1626179,1628370,1628970,1629023,202687,1610612764,1628972,1629060,1628418,203078,202738,0021900216,1,375,375,0,2,1610612764
30,1610612766,1626179,1628370,1628970,1629023,202687,1610612764,1628972,1629060,1628418,203078,202738,0021900216,1,396,396,0,0,1610612766
31,1610612766,1626179,1628370,1628970,1629023,202687,1610612764,1628972,1629060,1628418,203078,202738,0021900216,1,408,408,0,2,1610612764
32,1610612766,1626179,1628370,1628970,1629023,202687,1610612764,1628972,1629060,1628418,203078,202738,0021900216,1,410,428,3,0,1610612766
33,1610612766,1626179,1628370,1629023,201587,202687,1610612764,1628972,1629060,1628418,203078,202738,0021900216,1,448,448,0,2,1610612764
34,1610612766,1626179,1628370,1629023,201587,202687,1610612764,1628418,1629060,202722,202738,203078,0021900216,1,461,463,0,0,1610612766
35,1610612766,1626179,1628370,1629023,201587,202687,1610612764,1628418,1629060,202722,202738,203078,0021900216,1,468,468,0,2,1610612764
36,1610612766,1626179,1628370,1629023,201587,202687,1610612764,1628418,1629060,202722,202738,203078,0021900216,1,489,489,2,0,1610612766
37,1610612766,1626179,1628370,1629023,201587,202687,1610612764,1628418,1629060,202722,202738,203078,0021900216,1,502,504,0,0,1610612764
38,1610612766,1626179,1628370,1629023,201587,202687,1610612764,1628418,1629060,202722,202738,203078,0021900216,1,513,515,0,0,1610612766
39,1610612766,1626179,1628370,1629023,201587,202687,1610612764,1628418,1629060,202722,202738,203078,0021900216,1,519,522,0,0,1610612764
40,1610612766,1626179,1628370,1629023,201587,202687,1610612764,1628418,1629060,202722,202738,203078,0021900216,1,530,531,0,0,1610612766
41,1610612766,1626179,1628370,1629023,201587,202687,1610612764,1628418,1629060,202722,202738,203078,0021900216,1,532,542,0,2,1610612764
42,1610612766,101107,1628370,1628984,201587,202687,1610612764,101139,1628418,202397,202722,203078,0021900216,1,548,548,2,0,1610612766
43,1610612766,101107,1628370,1628984,201587,202687,1610612764,101139,1628418,202397,202722,203078,0021900216,1,555,555,0,3,1610612764
44,1610612766,101107,1628370,1628984,201587,202687,1610612764,101139,1628418,202397,202722,203078,0021900216,1,568,568,2,0,1610612766
45,1610612766,101107,1628370,1628984,201587,202687,1610612764,101139,1628418,202397,202722,203078,0021900216,1,582,585,0,0,1610612764
46,1610612766,101107,1628370,1628984,201587,202687,1610612764,101139,1628418,202397,202722,203078,0021900216,1,592,592,2,0,1610612766
47,1610612766,101107,1628370,1628984,201587,202687,1610612764,101139,1628418,202397,202722,203078,0021900216,1,609,613,0,0,1610612764
48,1610612766,101107,1628370,1628984,201587,202687,1610612764,101139,1628418,202397,202722,203078,0021900216,1,614,624,2,0,1610612766
49,1610612766,101107,1628370,1628984,201587,202687,1610612764,101139,1629021,202397,202722,203895,0021900216,1,630,633,0,1,1610612764
50,1610612766,101107,1628370,1628984,201587,202687,1610612764,101139,1629021,202397,202722,203895,0021900216,1,643,646,0,0,1610612766
51,1610612766,101107,1628370,1628984,201587,202687,1610612764,101139,1629021,202397,202722,203895,0021900216,1,651,654,0,0,1610612764
52,1610612766,101107,1628370,1628984,201587,202687,1610612764,101139,1629021,202397,202722,203895,0021900216,1,660,660,2,0,1610612766
53,1610612766,101107,1628370,1628984,201587,202687,1610612764,101139,1629021,202397,202722,203895,0021900216,1,667,667,0,3,1610612764
54,1610612766,101107,1628370,1628984,201587,202687,1610612764,101139,1629021,202397,202722,203895,0021900216,1,684,684,0,0,1610612766
55,1610612766,101107,1628370,1628984,201587,202687,1610612764,101139,1629021,202397,202722,203895,0021900216,1,688,688,0,0,1610612764
56,1610612766,101107,1628370,1628984,201587,202687,1610612764,101139,1629021,202397,202722,203895,0021900216,1,710,710,3,0,1610612766
57,1610612766,101107,1628370,1628984,201587,202687,1610612764,101139,1629021,202397,202722,203895,0021900216,1,720,720,0,3,1610612764
58,1610612766,101107,1628370,1628984,201587,202687,1610612764,101139,1629021,202397,202722,203895,0021900216,1,720,720,0,0,167
59,1610612766,1628984,1628370,201587,101107,1628407,1610612764,202722,101139,202397,203895,1629021,0021900216,2,720,748,0,2,1610612764
60,1610612766,1628984,1628370,201587,101107,1628407,1610612764,202722,101139,202397,203895,1629021,0021900216,2,759,759,3,0,1610612766
61,1610612766,1628984,1628370,201587,101107,1628407,1610612764,202722,101139,202397,203895,1629021,0021900216,2,773,773,0,0,1610612764
62,1610612766,1628984,1628370,201587,101107,1628407,1610612764,202722,101139,202397,203895,1629021,0021900216,2,779,779,2,0,1610612766
63,1610612766,1628984,1628370,201587,101107,1628407,1610612764,202722,101139,202397,203895,1629021,0021900216,2,792,792,0,3,1610612764
64,1610612766,1628984,1628370,201587,101107,1628407,1610612764,202722,101139,202397,203895,1629021,0021900216,2,811,811,3,0,1610612766
65,1610612766,1628984,1628370,201587,101107,1628407,1610612764,202722,101139,202397,203895,1629021,0021900216,2,826,829,0,0,1610612764
66,1610612766,1628984,1628370,201587,101107,1628407,1610612764,202722,101139,202397,203895,1629021,0021900216,2,835,840,0,0,1610612766
67,1610612766,1628984,1628370,201587,101107,1628407,1610612764,202722,101139,202397,203895,1629021,0021900216,2,849,849,0,2,1610612764
68,1610612766,1628984,1628370,201587,101107,1628407,1610612764,202722,101139,202397,203895,1629021,0021900216,2,869,876,0,0,1610612766
69,1610612766,1628984,1628370,201587,101107,1628407,1610612764,202722,101139,202397,203895,1629021,0021900216,2,883,887,0,0,1610612764
70,1610612766,1628984,1628370,201587,101107,1628407,1610612764,202722,101139,202397,203895,1629021,0021900216,2,896,898,0,0,1610612766
71,1610612766,1628984,1628370,201587,101107,1628407,1610612764,202722,101139,202397,203895,1629021,0021900216,2,904,908,0,0,1610612764
72,1610612766,1628984,1628370,201587,101107,1628407,1610612764,202722,101139,202397,203895,1629021,0021900216,2,923,923,3,0,1610612766
73,1610612766,1628984,1628370,201587,101107,1628407,1610612764,202722,101139,202397,203895,1629021,0021900216,2,940,940,0,2,1610612764
74,1610612766,1628984,1628370,201587,101107,1628407,1610612764,202722,101139,202397,203895,1629021,0021900216,2,961,961,2,0,1610612766
75,1610612766,1626179,1628370,1628407,1629023,203469,1610612764,1628418,202397,202722,203078,203895,0021900216,2,977,977,0,2,1610612764
76,1610612766,1626179,1628407,1628970,1629023,203469,1610612764,1628418,202397,202722,203078,203895,0021900216,2,1000,1004,0,0,1610612766
77,1610612766,1626179,1628407,1628970,1629023,203469,1610612764,1628418,202397,202722,203078,203895,0021900216,2,1011,1011,0,3,1610612764
78,1610612766,1626179,1628407,1628970,1629023,203469,1610612764,1628418,202397,202722,203078,203895,0021900216,2,1021,1030,2,0,1610612766
79,1610612766,1626179,1628407,1628970,1629023,203469,1610612764,1628418,202397,202722,203078,203895,0021900216,2,1036,1036,0,3,1610612764
80,1610612766,1626179,1628407,1628970,1629023,203469,1610612764,1628418,202397,202722,203078,203895,0021900216,2,1037,1060,0,0,1610612766
81,1610612766,1626179,1628407,1628970,1629023,203469,1610612764,1628418,202397,202722,203078,203895,0021900216,2,1076,1077,0,0,1610612764
82,1610612766,1626179,1628407,1628970,1629023,203469,1610612764,1628418,202397,202722,203078,203895,0021900216,2,1082,1082,2,0,1610612766
83,1610612766,1626179,1628407,1628970,1629023,203469,1610612764,1628418,202397,202722,203078,203895,0021900216,2,1090,1090,0,3,1610612764
84,1610612766,1626179,1628407,1628970,1629023,203469,1610612764,1628418,202397,202722,203078,203895,0021900216,2,1108,1108,3,0,1610612766
85,1610612766,1626179,1628407,1628970,1629023,203469,1610612764,1628418,202397,202722,203078,203895,0021900216,2,1117,1117,0,3,1610612764
86,1610612766,1626179,1628407,1628970,1629023,203469,1610612764,1628418,202397,202722,203078,203895,0021900216,2,1119,1142,2,0,1610612766
87,1610612766,1626179,1628970,1628984,1629023,203469,1610612764,1628418,202397,202722,203078,203895,0021900216,2,1167,1170,0,0,1610612764
88,1610612766,1626179,1628970,1628984,1629023,203469,1610612764,1628418,202397,202722,203078,203895,0021900216,2,1172,1172,0,0,1610612766
89,1610612766,1626179,1628970,1628984,1629023,203469,1610612764,1628418,202397,202722,203078,203895,0021900216,2,1177,1177,0,3,1610612764
90,1610612766,1626179,1628970,1628984,1629023,203469,1610612764,1628418,202397,202722,203078,203895,0021900216,2,1183,1183,0,0,1610612766
91,1610612766,1626179,1628970,1628984,1629023,203469,1610612764,1628418,202397,202722,203078,203895,0021900216,2,1190,1195,0,0,1610612764
92,1610612766,1626179,1628970,1628984,1629023,203469,1610612764,1628418,202397,202722,203078,203895,0021900216,2,1197,1209,2,0,1610612766
93,1610612766,1626179,1628970,1628984,1629023,203469,1610612764,1628418,202397,202722,203078,203895,0021900216,2,1222,1225,0,0,1610612764
94,1610612766,1626179,1628970,1628984,1629023,203469,1610612764,1628418,202397,202722,203078,203895,0021900216,2,1232,1232,2,0,1610612766
95,1610612766,1626179,1628970,1628984,1629023,203469,1610612764,1628418,202397,202722,203078,203895,0021900216,2,1238,1248,0,0,1610612764
96,1610612766,1626179,1628970,1628984,1629023,203469,1610612764,1628972,1629021,1629060,202738,203078,0021900216,2,1272,1272,2,0,1610612766
97,1610612766,1626179,1628970,1628984,1629023,203469,1610612764,1628972,1629021,1629060,202738,203078,0021900216,2,1291,1291,0,2,1610612764
98,1610612766,1626179,1628970,1628984,1629023,203469,1610612764,1628972,1629021,1629060,202738,203078,0021900216,2,1305,1307,0,0,1610612766
99,1610612766,1626179,1628970,1628984,1629023,203469,1610612764,1628972,1629021,1629060,202738,203078,0021900216,2,1319,1321,0,1,1610612764
100,1610612766,1626179,1628970,1628984,1629023,201587,1610612764,1628972,1629021,1629060,202738,203078,0021900216,2,1335,1338,0,0,1610612766
101,1610612766,1626179,1628970,1628984,1629023,201587,1610612764,1628972,1629021,1629060,202738,203078,0021900216,2,1352,1363,0,0,1610612764
102,1610612766,1626179,1628970,1628984,1629023,201587,1610612764,1628972,1629021,1629060,202738,203078,0021900216,2,1370,1370,2,0,1610612766
103,1610612766,1626179,1628970,1628984,1629023,201587,1610612764,1628972,1629021,1629060,202738,203078,0021900216,2,1377,1377,0,0,1610612764
104,1610612766,1626179,1628970,1628984,1629023,201587,1610612764,1628972,1629021,1629060,202738,203078,0021900216,2,1377,1389,0,0,1610612766
105,1610612766,1626179,1628970,1628984,1629023,201587,1610612764,1628418,1628972,1629060,202738,203078,0021900216,2,1406,1410,0,0,1610612764
106,1610612766,1626179,1628970,1628984,1629023,201587,1610612764,1628418,1628972,1629060,202738,203078,0021900216,2,1413,1413,2,0,1610612766
107,1610612766,101107,1626179,1628970,1628984,201587,1610612764,1628418,1628972,1629060,202738,203078,0021900216,2,1429,1429,0,0,1610612764
108,1610612766,101107,1626179,1628970,1628984,201587,1610612764,1628418,1628972,1629060,202738,203078,0021900216,2,1439,1439,2,0,1610612766
109,1610612766,101107,1626179,1628970,1628984,201587,1610612764,1628418,1628972,1629060,202738,203078,0021900216,2,1440,1440,0,0,1610612766
110,1610612766,1628970,1629023,203469,1628984,1626179,1610612764,1628972,1629060,1628418,203078,202738,0021900216,3,1440,1458,0,2,1610612764
111,1610612766,1628970,1629023,203469,1628984,1626179,1610612764,1628972,1629060,1628418,203078,202738,0021900216,3,1482,1501,2,0,1610612766
112,1610612766,1628970,1629023,203469,1628984,1626179,1610612764,1628972,1629060,1628418,203078,202738,0021900216,3,1507,1507,0,0,1610612764
113,1610612766,1628970,1629023,203469,1628984,1626179,1610612764,1628972,1629060,1628418,203078,202738,0021900216,3,1515,1517,0,0,1610612766
114,1610612766,1628970,1629023,203469,1628984,1626179,1610612764,1628972,1629060,1628418,203078,202738,0021900216,3,1522,1526,0,0,1610612764
115,1610612766,1628970,1629023,203469,1628984,1626179,1610612764,1628972,1629060,1628418,203078,202738,0021900216,3,1526,1526,2,0,1610612766
116,1610612766,1628970,1629023,203469,1628984,1626179,1610612764,1628972,1629060,1628418,203078,202738,0021900216,3,1541,1541,0,0,1610612764
117,1610612766,1628970,1629023,203469,1628984,1626179,1610612764,1628972,1629060,1628418,203078,202738,0021900216,3,1545,1550,0,0,1610612766
118,1610612766,1628970,1629023,203469,1628984,1626179,1610612764,1628972,1629060,1628418,203078,202738,0021900216,3,1554,1554,0,2,1610612764
119,1610612766,1628970,1629023,203469,1628984,1626179,1610612764,1628972,1629060,1628418,203078,202738,0021900216,3,1566,1576,2,0,1610612766
120,1610612766,1628970,1629023,203469,1628984,1626179,1610612764,1628972,1629060,1628418,203078,202738,0021900216,3,1597,1600,0,2,1610612764
121,1610612766,1628970,1629023,203469,1628984,1626179,1610612764,1628972,1629060,1628418,203078,202738,0021900216,3,1616,1616,2,0,1610612766
122,1610612766,1628970,1629023,203469,1628984,1626179,1610612764,1628972,1629060,1628418,203078,202738,0021900216,3,1633,1633,0,2,1610612764
123,1610612766,1628970,1629023,203469,1628984,1626179,1610612764,1628972,1629060,1628418,203078,202738,0021900216,3,1644,1644,2,0,1610612766
124,1610612766,1628970,1629023,203469,1628984,1626179,1610612764,1628972,1629060,1628418,203078,202738,0021900216,3,1662,1662,0,3,1610612764
125,1610612766,1628970,1629023,203469,1628984,1626179,1610612764,1628972,1629060,1628418,203078,202738,0021900216,3,1685,1697,0,0,1610612766
126,1610612766,1628970,1629023,203469,1628984,1626179,1610612764,1628972,1629060,1628418,203078,202738,0021900216,3,1697,1709,0,2,1610612764
127,1610612766,1628970,1629023,203469,1628984,1626179,1610612764,1628972,1629060,1628418,203078,202738,0021900216,3,1731,1734,0,0,1610612766
128,1610612766,1628970,1629023,203469,1628984,1626179,1610612764,1628972,1629060,1628418,203078,202738,0021900216,3,1739,1739,0,3,1610612764
129,1610612766,1628970,1629023,203469,1628984,1626179,1610612764,1628972,1629060,1628418,203078,202738,0021900216,3,1740,1757,2,0,1610612766
130,1610612766,1626179,1628970,1629023,201587,203469,1610612764,1628972,1629060,1628418,203078,202738,0021900216,3,1781,1781,0,2,1610612764
131,1610612766,1626179,1628970,1629023,201587,203469,1610612764,1628972,1629060,1628418,203078,202738,0021900216,3,1794,1795,0,0,1610612766
132,1610612766,1626179,1628970,1629023,201587,203469,1610612764,1628972,1629060,1628418,203078,202738,0021900216,3,1804,1804,0,2,1610612764
133,1610612766,1626179,1628970,1629023,201587,203469,1610612764,1628972,1629060,1628418,203078,202738,0021900216,3,1827,1830,0,0,1610612766
134,1610612766,1626179,1628970,1629023,201587,203469,1610612764,1628972,1629060,1628418,203078,202738,0021900216,3,1833,1837,0,0,1610612764
135,1610612766,1626179,1628970,1629023,201587,203469,1610612764,1628972,1629060,1628418,203078,202738,0021900216,3,1841,1841,2,0,1610612766
136,1610612766,101107,1626179,1628370,1629023,201587,1610612764,1628972,1629060,1628418,203078,202738,0021900216,3,1860,1860,0,2,1610612764
137,1610612766,101107,1626179,1628370,1629023,201587,1610612764,1628972,1629060,1628418,203078,202738,0021900216,3,1888,1890,0,0,1610612766
138,1610612766,101107,1626179,1628370,1629023,201587,1610612764,1628972,1629060,1628418,203078,202738,0021900216,3,1901,1901,0,2,1610612764
139,1610612766,101107,1626179,1628370,1629023,201587,1610612764,1628972,1629060,1628418,203078,202738,0021900216,3,1927,1927,3,0,1610612766
140,1610612766,101107,1626179,1628370,1629023,201587,1610612764,1628972,1629060,1628418,203078,202738,0021900216,3,1946,1949,0,0,1610612764
141,1610612766,101107,1626179,1628370,1629023,201587,1610612764,1628972,1629060,1628418,203078,202738,0021900216,3,1956,1956,2,0,1610612766
142,1610612766,101107,1626179,1628370,1629023,201587,1610612764,1628972,1629060,1628418,203078,202738,0021900216,3,1969,1973,0,0,1610612764
143,1610612766,101107,1626179,1628370,1629023,201587,1610612764,1628972,1629060,1628418,203078,202738,0021900216,3,1984,1984,3,0,1610612766
144,1610612766,101107,1626179,1628370,1629023,201587,1610612764,1628972,1629060,1628418,203078,202738,0021900216,3,1986,1997,0,0,1610612764
145,1610612766,101107,1628370,1628970,1628984,201587,1610612764,1628972,1629021,202397,202722,203078,0021900216,3,2001,2018,2,0,1610612766
146,1610612766,101107,1628370,1628970,1628984,201587,1610612764,101139,1629021,202397,202722,203078,0021900216,3,2034,2034,0,2,1610612764
147,1610612766,101107,1628370,1628970,1628984,201587,1610612764,101139,1629021,202397,202722,203078,0021900216,3,2054,2054,0,0,1610612766
148,1610612766,101107,1628370,1628970,1628984,201587,1610612764,101139,1629021,202397,202722,203078,0021900216,3,2057,2070,0,2,1610612764
149,1610612766,101107,1628370,1628970,1628984,201587,1610612764,101139,1629021,202397,202722,203078,0021900216,3,2081,2085,0,0,1610612766
150,1610612766,101107,1628370,1628970,1628984,201587,1610612764,101139,1629021,202397,202722,203078,0021900216,3,2089,2093,0,0,1610612764
151,1610612766,101107,1628370,1628970,1628984,201587,1610612764,101139,1629021,202397,202722,203078,0021900216,3,2110,2110,2,0,1610612766
152,1610612766,101107,1628370,1628970,1628984,201587,1610612764,101139,1629021,202397,202722,203078,0021900216,3,2125,2129,0,0,1610612764
153,1610612766,101107,1628370,1628970,1628984,201587,1610612764,101139,1629021,202397,202722,203078,0021900216,3,2148,2148,2,0,1610612766
154,1610612766,101107,1628370,1628970,1628984,201587,1610612764,101139,1629021,202397,202722,203078,0021900216,3,2155,2158,0,0,1610612764
155,1610612766,1628970,1628984,1628370,201587,101107,1610612764,203078,202722,101139,202397,1629021,0021900216,4,2160,2181,0,0,1610612766
156,1610612766,1628970,1628984,1628370,201587,101107,1610612764,203078,202722,101139,202397,1629021,0021900216,4,2193,2193,0,2,1610612764
157,1610612766,1628970,1628984,1628370,201587,101107,1610612764,203078,202722,101139,202397,1629021,0021900216,4,2209,2209,3,0,1610612766
158,1610612766,1628970,1628984,1628370,201587,101107,1610612764,203078,202722,101139,202397,1629021,0021900216,4,2234,2234,0,2,1610612764
159,1610612766,1628970,1628984,1628370,201587,101107,1610612764,203078,202722,101139,202397,1629021,0021900216,4,2241,2241,2,0,1610612766
160,1610612766,1628970,1628984,1628370,201587,101107,1610612764,203078,202722,101139,202397,1629021,0021900216,4,2255,2257,0,0,1610612764
161,1610612766,1628970,1628984,1628370,201587,101107,1610612764,203078,202722,101139,202397,1629021,0021900216,4,2257,2269,0,0,1610612766
162,1610612766,101107,1628370,1628970,1628984,203469,1610612764,203078,202722,101139,202397,1629021,0021900216,4,2275,2280,0,0,1610612764
163,1610612766,101107,1628370,1628970,1628984,203469,1610612764,203078,202722,101139,202397,1629021,0021900216,4,2281,2287,3,0,1610612766
164,1610612766,1628370,1628970,1628984,1629023,203469,1610612764,203078,202722,101139,202397,1629021,0021900216,4,2293,2305,0,0,1610612764
165,1610612766,1628370,1628970,1628984,1629023,203469,1610612764,203078,202722,101139,202397,1629021,0021900216,4,2315,2315,3,0,1610612766
166,1610612766,1628370,1628970,1628984,1629023,203469,1610612764,203078,202722,101139,202397,1629021,0021900216,4,2317,2336,0,2,1610612764
167,1610612766,1628370,1628970,1628984,1629023,203469,1610612764,1628418,202397,202722,203078,203895,0021900216,4,2353,2353,2,0,1610612766
168,1610612766,1628370,1628970,1628984,1629023,203469,1610612764,1628418,202397,202722,203078,203895,0021900216,4,2368,2368,0,3,1610612764
169,1610612766,1628370,1628970,1628984,1629023,203469,1610612764,1628418,202397,202722,203078,203895,0021900216,4,2384,2384,0,0,1610612766
170,1610612766,1628370,1628970,1628984,1629023,203469,1610612764,1628418,202397,202722,203078,203895,0021900216,4,2388,2388,0,2,1610612764
171,1610612766,1628370,1628970,1628984,1629023,203469,1610612764,1628418,202397,202722,203078,203895,0021900216,4,2388,2399,0,0,1610612766
172,1610612766,101107,1626179,1628370,201587,203469,1610612764,1628418,202397,202722,203078,203895,0021900216,4,2412,2412,0,1,1610612764
173,1610612766,101107,1626179,1628370,201587,203469,1610612764,1628418,202397,202722,203078,203895,0021900216,4,2429,2433,0,0,1610612766
174,1610612766,101107,1626179,1628370,201587,203469,1610612764,1628418,202397,202722,203078,203895,0021900216,4,2438,2438,0,3,1610612764
175,1610612766,101107,1626179,1628370,201587,203469,1610612764,1628418,202397,202722,203078,203895,0021900216,4,2456,2459,0,0,1610612766
176,1610612766,101107,1626179,1628370,201587,203469,1610612764,1628418,202397,202722,203078,203895,0021900216,4,2463,2466,0,0,1610612764
177,1610612766,101107,1626179,1628370,201587,203469,1610612764,1628418,202397,202722,203078,203895,0021900216,4,2475,2475,0,0,1610612766
178,1610612766,101107,1626179,1628370,1628970,201587,1610612764,1628418,202397,202722,203078,203895,0021900216,4,2493,2493,0,0,1610612764
179,1610612766,101107,1626179,1628370,1628970,201587,1610612764,1628418,202397,202722,203078,203895,0021900216,4,2505,2505,0,0,1610612766
180,1610612766,101107,1626179,1628370,1628970,201587,1610612764,1628418,202397,202722,203078,203895,0021900216,4,2507,2507,0,2,1610612764
181,1610612766,101107,1626179,1628970,1628984,201587,1610612764,1628418,202397,202722,203078,203895,0021900216,4,2520,2520,3,0,1610612766
182,1610612766,101107,1626179,1628970,1628984,201587,1610612764,1628418,202397,202722,203078,203895,0021900216,4,2543,2543,0,2,1610612764
183,1610612766,101107,1626179,1628970,1628984,201587,1610612764,1628418,202397,202722,203078,203895,0021900216,4,2569,2571,0,0,1610612766
184,1610612766,101107,1626179,1628970,1628984,201587,1610612764,1628418,202397,202722,203078,203895,0021900216,4,2583,2585,0,0,1610612764
185,1610612766,101107,1626179,1628970,1628984,201587,1610612764,1628418,202397,202722,203078,203895,0021900216,4,2589,2589,2,0,1610612766
186,1610612766,101107,1626179,1628970,1628984,201587,1610612764,1628418,202397,202722,203078,203895,0021900216,4,2606,2610,0,0,1610612764
187,1610612766,101107,1626179,1628970,1628984,201587,1610612764,1628418,202397,202722,203078,203895,0021900216,4,2617,2620,0,0,1610612766
188,1610612766,101107,1626179,1628970,1628984,201587,1610612764,1628418,202397,202722,203078,203895,0021900216,4,2624,2624,0,2,1610612764
189,1610612766,101107,1626179,1628970,1628984,201587,1610612764,1628418,202397,202722,203078,203895,0021900216,4,2640,2643,0,0,1610612766
190,1610612766,101107,1626179,1628970,1628984,201587,1610612764,1628418,202397,202722,203078,203895,0021900216,4,2644,2656,0,2,1610612764
191,1610612766,101107,1626179,1628970,1628984,201587,1610612764,1628418,202397,202722,203078,203895,0021900216,4,2681,2686,0,0,1610612766
192,1610612766,101107,1626179,1628970,1628984,201587,1610612764,1628418,202397,202722,203078,203895,0021900216,4,2698,2698,0,3,1610612764
193,1610612766,101107,1626179,1628970,1628984,201587,1610612764,1628418,202397,202722,203078,203895,0021900216,4,2715,2718,0,0,1610612766
194,1610612766,101107,1626179,1628970,1628984,201587,1610612764,1628418,202397,202722,203078,203895,0021900216,4,2724,2732,0,2,1610612764
195,1610612766,101107,1626179,1628970,1628984,201587,1610612764,1628418,202397,202722,203078,203895,0021900216,4,2742,2742,0,0,1610612766
196,1610612766,1626179,1628970,1628984,1629023,201587,1610612764,1628418,202397,202722,203078,203895,0021900216,4,2760,2761,0,0,1610612764
197,1610612766,1626179,1628970,1628984,1629023,201587,1610612764,1628418,202397,202722,203078,203895,0021900216,4,2761,2771,2,0,1610612766
198,1610612766,1626179,1628970,1628984,1629023,201587,1610612764,1628418,202397,202722,203078,203895,0021900216,4,2791,2791,0,2,1610612764
199,1610612766,1626179,1628970,1628984,1629023,201587,1610612764,1628418,202397,202722,203078,203895,0021900216,4,2802,2803,0,0,1610612766
200,1610612766,1626179,1628970,1628984,1629023,201587,1610612764,1628418,202397,202722,203078,203895,0021900216,4,2822,2825,0,0,1610612764
201,1610612766,1626179,1628970,1628984,1629023,201587,1610612764,1628418,202397,202722,203078,203895,0021900216,4,2828,2828,0,0,1610612766
202,1610612766,1626179,1628970,1628984,1629023,201587,1610612764,1628418,202397,202722,203078,203895,0021900216,4,2851,2851,0,2,1610612764
203,1610612766,1626179,1628970,1628984,1629023,201587,1610612764,1628418,202397,202722,203078,203895,0021900216,4,2851,2855,0,0,1610612766
204,1610612766,1626179,1628370,1628984,201587,203469,1610612764,1628418,202397,202722,203078,203895,0021900216,4,2855,2861,0,1,1610612764
205,1610612766,101107,1626179,1628970,1628984,201587,1610612764,1628418,202397,202722,203078,203895,0021900216,4,2865,2865,2,0,1610612766
206,1610612766,101107,1626179,1628970,1628984,201587,1610612764,1628418,202397,202722,203078,203895,0021900216,4,2867,2867,0,0,1610612764
207,1610612766,101107,1626179,1628970,1628984,201587,1610612764,1628418,202397,202722,203078,203895,0021900216,4,2871,2871,0,0,1610612766
208,1610612766,101107,1626179,1628970,1628984,201587,1610612764,1628418,202397,202722,203078,203895,0021900216,4,2871,2871,0,2,1610612764
209,1610612766,101107,1626179,1628970,1628984,201587,1610612764,1628418,202397,202722,203078,203895,0021900216,4,2876,2880,0,0,1610612766
