,t1_points_scored,stint_end,t2_pm,t1_players,t2_id,t1_id,t2_players,t2_points_scored,t1_pm,stint_start,margin_per_100,num_poss
0,9,503,12,"[1628371, 203932, 202696, 203095, 1628365]",1610612757,1610612753,"[203145, 2546, 202355, 203468, 203081]",21,-12,0,-33.33333333333333,36.0
1,9,560,15,"[1628371, 203932, 202696, 203095, 1628365]",1610612757,1610612753,"[203145, 2546, 202355, 203468, 203081]",24,-15,504,-36.58536585365854,41.0
2,11,657,16,"[1628371, 201571, 202696, 203082, 203487]",1610612757,1610612753,"[1629014, 1629018, 201229, 202355, 203081]",27,-16,561,-32.6530612244898,49.0
3,11,657,16,"[1628371, 1628964, 201571, 203082, 203487]",1610612757,1610612753,"[1629014, 1629018, 201229, 202355, 203081]",27,-16,658,-32.6530612244898,49.0
4,13,719,18,"[1628371, 1628964, 201571, 203082, 203487]",1610612757,1610612753,"[1627746, 1629014, 1629018, 201229, 203081]",31,-18,658,-33.33333333333333,54.0
5,27,900,6,"[1628964, 201571, 203082, 203487, 203932]",1610612757,1610612753,"[1627746, 1629014, 1629018, 201229, 203081]",33,-6,720,-9.090909090909092,66.0
6,27,960,8,"[203932, 201571, 203082, 203487, 1628964]",1610612757,1610612753,"[203468, 1629018, 1629014, 201229, 1627746]",35,-8,901,-11.594202898550725,69.0
7,27,973,8,"[203932, 201571, 203082, 203487, 1628964]",1610612757,1610612753,"[1627746, 1629014, 1629018, 203468, 2546]",35,-8,961,-11.594202898550725,69.0
8,27,1013,10,"[1628964, 203082, 203095, 203487, 203932]",1610612757,1610612753,"[1627746, 1629014, 202355, 203145, 203468]",37,-10,974,-13.88888888888889,72.0
9,31,1123,13,"[202696, 203082, 203095, 203487, 203932]",1610612757,1610612753,"[1627746, 1629014, 202355, 203145, 203468]",44,-13,1014,-16.455696202531644,79.0
10,36,1256,13,"[1628371, 201571, 202696, 203082, 203095]",1610612757,1610612753,"[1627746, 1629014, 202355, 203145, 203468]",49,-13,1124,-14.130434782608695,92.0
11,38,1358,15,"[1628365, 1628371, 201571, 202696, 203095]",1610612757,1610612753,"[1627746, 1629014, 202355, 203081, 203145]",53,-15,1257,-15.306122448979592,98.0
12,44,1439,13,"[1628365, 201571, 202696, 203095, 203932]",1610612757,1610612753,"[1626209, 202355, 203081, 203145, 203468]",57,-13,1359,-12.62135922330097,103.0
13,53,1663,15,"[1628411, 201571, 202696, 203095, 203932]",1610612757,1610612753,"[1626209, 202355, 203081, 203145, 203468]",68,-15,1440,-12.396694214876034,121.0
14,64,1778,10,"[1628371, 203932, 202696, 203095, 1628365]",1610612757,1610612753,"[203145, 202355, 203468, 203081, 201229]",74,-10,1664,-7.6923076923076925,130.0
15,66,1825,13,"[1628371, 203932, 202696, 203095, 1628365]",1610612757,1610612753,"[1627746, 202355, 203081, 203145, 203468]",79,-13,1779,-9.701492537313433,134.0
16,66,1876,15,"[1628365, 1628371, 202696, 203082, 203095]",1610612757,1610612753,"[1627746, 202355, 203081, 203145, 203468]",81,-15,1826,-10.948905109489052,137.0
17,68,1980,17,"[1628365, 1628371, 202696, 203082, 203095]",1610612757,1610612753,"[1627746, 1629018, 202355, 203081, 203468]",85,-17,1877,-11.724137931034482,145.0
18,72,2045,16,"[1628371, 1628411, 201571, 202696, 203082]",1610612757,1610612753,"[1626209, 1629018, 202355, 203081, 203468]",88,-16,1981,-10.738255033557047,149.0
19,75,2159,18,"[1628411, 201571, 202696, 203082, 203932]",1610612757,1610612753,"[1626209, 1627746, 1629014, 1629018, 203081]",93,-18,2046,-11.39240506329114,158.0
20,77,2244,21,"[1628411, 1628964, 201571, 203082, 203932]",1610612757,1610612753,"[1626209, 1627746, 1629014, 1629018, 203081]",98,-21,2160,-12.962962962962962,162.0
21,82,2318,16,"[203932, 201571, 203082, 1628964, 1628411]",1610612757,1610612753,"[203468, 1629018, 1629014, 1627746, 1626209]",98,-16,2245,-9.580838323353294,167.0
22,84,2367,17,"[203932, 201571, 203082, 1628964, 1628411]",1610612757,1610612753,"[1627746, 1629014, 1629018, 201229, 203468]",101,-17,2319,-10.0,170.0
23,84,2386,17,"[203932, 201571, 203082, 1628964, 1628411]",1610612757,1610612753,"[1627746, 201229, 203081, 203145, 203468]",101,-17,2368,-9.941520467836257,171.0
24,84,2403,17,"[203932, 201571, 203082, 1628964, 1628411]",1610612757,1610612753,"[201229, 202355, 203081, 203145, 203468]",101,-17,2387,-9.941520467836257,171.0
25,88,2490,16,"[1628371, 1628411, 201571, 202696, 203082]",1610612757,1610612753,"[201229, 202355, 203081, 203145, 203468]",104,-16,2404,-9.03954802259887,177.0
26,94,2648,17,"[1628371, 201571, 202696, 203082, 203095]",1610612757,1610612753,"[201229, 202355, 203081, 203145, 203468]",111,-17,2491,-8.994708994708994,189.0
27,100,2750,16,"[1628365, 1628371, 201571, 202696, 203095]",1610612757,1610612753,"[201229, 202355, 203081, 203145, 203468]",116,-16,2649,-8.16326530612245,196.0
28,100,2771,18,"[1628365, 1628371, 201571, 202696, 203095]",1610612757,1610612753,"[1627746, 201229, 203081, 203145, 203468]",118,-18,2751,-9.090909090909092,198.0
29,103,2879,15,"[1628365, 1628411, 1628518, 1628982, 203920]",1610612757,1610612753,"[1626209, 1627746, 1629014, 203145, 203468]",118,-15,2772,-7.352941176470589,204.0
30,103,9999999,15,"[1628365, 1628411, 1628518, 1628982, 203920]",1610612757,1610612753,"[1626209, 1627746, 1629014, 1629018, 203145]",118,-15,2880,-7.317073170731707,205.0
