,TEAM_ID_1,TEAM_1_PLAYERS,TEAM_ID_2,TEAM_2_PLAYERS,PERIOD
0,1610612738,[ 202330 1628369 1628464 1627759 1629750],1610612737,[1628989 1628381 1627745  201952 1629027],1
1,1610612738,[1628369  202954 1629035 1628400  202683],1610612737,[1628989 1627745  201952  202323 1626203],2
2,1610612738,[ 202330 1628369 1628464 1627759  202954],1610612737,[1628989 1628381 1627745  201952 1629027],3
3,1610612738,[1627759 1629750 1628400  202683 1629682],1610612737,[1628989 1628381  201952 1629027  202323],4
