,stint_start,t1_points_scored,t2_pm,stint_end,t1_id,t2_points_scored,t1_players,t2_id,t1_pm,t2_players,margin_per_100,num_poss
0,0,18,0,402,1610612738,18,"[202330, 1628369, 1628464, 1627759, 1629750]",1610612737,0,"[1628989, 1628381, 1627745, 201952, 1629027]",0.0,25.0
1,403,20,2,454,1610612738,22,"[202330, 1628369, 1628464, 1627759, 1629750]",1610612737,-2,"[1628989, 1628381, 1627745, 201952, 1629027]",-7.142857142857142,28.0
2,455,22,3,517,1610612738,25,"[1627759, 1629684, 1629750, 202330, 202954]",1610612737,-3,"[1628381, 1628989, 1629027, 1713, 201952]",-8.823529411764707,34.0
3,518,24,4,584,1610612738,28,"[1627759, 1629684, 1629750, 202330, 202954]",1610612737,-4,"[1628381, 1628989, 1629027, 1629164, 1713]",-10.526315789473683,38.0
4,585,24,6,640,1610612738,30,"[1628400, 1629035, 1629684, 202330, 202954]",1610612737,-6,"[1626203, 1629027, 1629164, 1713, 202323]",-13.953488372093023,43.0
5,641,26,4,688,1610612738,30,"[1628400, 1629035, 1629684, 202330, 202954]",1610612737,-4,"[1626203, 1629164, 1713, 201952, 202323]",-8.51063829787234,47.0
6,689,28,4,719,1610612738,32,"[1628369, 1628400, 1629035, 202683, 202954]",1610612737,-4,"[1626203, 1629164, 1713, 201952, 202323]",-8.16326530612245,49.0
7,720,34,3,838,1610612738,37,"[1628369, 1628400, 1629035, 202683, 202954]",1610612737,-3,"[1626203, 1627745, 1713, 201952, 202323]",-5.263157894736842,57.0
8,839,36,3,873,1610612738,39,"[1628369, 202954, 1629035, 1628400, 202683]",1610612737,-3,"[1628989, 1627745, 201952, 202323, 1626203]",-5.0,60.0
9,874,38,7,919,1610612738,45,"[1628369, 202954, 1629035, 1628400, 202683]",1610612737,-7,"[1626203, 1627745, 1628989, 1629027, 201952]",-10.9375,64.0
10,920,49,1,1102,1610612738,50,"[1628369, 202954, 1629035, 1628400, 202683]",1610612737,-1,"[1628381, 1628989, 1629027, 1713, 201952]",-1.3333333333333335,75.0
11,1103,49,3,1220,1610612738,52,"[1627759, 1628369, 1629684, 202683, 202954]",1610612737,-3,"[1628381, 1628989, 1629027, 1713, 201952]",-3.6585365853658534,82.0
12,1221,53,-1,1283,1610612738,52,"[1627759, 1628464, 1629682, 1629684, 202330]",1610612737,1,"[1626203, 1628381, 1628989, 1629027, 1629164]",1.1494252873563218,87.0
13,1284,58,1,1436,1610612738,59,"[1627759, 1628464, 1629682, 1629684, 202330]",1610612737,-1,"[1626203, 1628381, 1628989, 1629027, 202323]",-1.0416666666666665,96.0
14,1437,60,-1,1439,1610612738,59,"[1628369, 1628464, 1629682, 1629684, 202330]",1610612737,1,"[1626203, 1628381, 1629027, 1629164, 202323]",1.0309278350515463,97.0
15,1440,72,-6,1603,1610612738,66,"[1628369, 1628464, 1629682, 1629750, 202330]",1610612737,6,"[1628381, 1628989, 1629027, 1629164, 202323]",5.5045871559633035,109.0
16,1604,77,-7,1713,1610612738,70,"[202330, 1628369, 1628464, 1627759, 202954]",1610612737,7,"[1628989, 1628381, 1627745, 201952, 1629027]",6.0344827586206895,116.0
17,1714,83,-11,1778,1610612738,72,"[202330, 1628369, 1628464, 1627759, 202954]",1610612737,11,"[1628381, 1628989, 1629027, 1713, 201952]",9.090909090909092,121.0
18,1779,86,-12,1849,1610612738,74,"[202330, 1628369, 1628464, 1627759, 202954]",1610612737,12,"[1628381, 1628989, 1629027, 1629164, 1713]",9.523809523809524,126.0
19,1850,88,-10,1939,1610612738,78,"[1628369, 1628464, 1629750, 202330, 202954]",1610612737,10,"[1626203, 1628989, 1629027, 1629164, 1713]",7.575757575757576,132.0
20,1940,88,-10,1977,1610612738,78,"[1628369, 1629684, 1629750, 202330, 202954]",1610612737,10,"[1626203, 1628989, 1629027, 1629164, 1713]",7.462686567164178,134.0
21,1978,95,-11,2145,1610612738,84,"[1628369, 1629682, 1629684, 1629750, 202954]",1610612737,11,"[1626203, 1628381, 1629164, 1713, 201952]",7.638888888888889,144.0
22,2146,99,-11,2273,1610612738,88,"[1628369, 1629682, 1629684, 1629750, 202683]",1610612737,11,"[1626203, 1628381, 1629164, 1713, 201952]",7.096774193548387,155.0
23,2274,99,-8,2335,1610612738,91,"[1627759, 1629750, 1628400, 202683, 1629682]",1610612737,8,"[1628989, 1628381, 201952, 1629027, 202323]",5.0,160.0
24,2336,101,-10,2400,1610612738,91,"[1627759, 1628400, 1629682, 1629684, 1629750]",1610612737,10,"[1628989, 1628381, 201952, 1629027, 202323]",6.097560975609756,164.0
25,2401,103,-8,2475,1610612738,95,"[1627759, 1628400, 1629682, 1629684, 202330]",1610612737,8,"[1628989, 1628381, 201952, 1629027, 202323]",4.705882352941177,170.0
26,2476,103,-4,2505,1610612738,99,"[1627759, 1628400, 1629682, 1629684, 202330]",1610612737,4,"[1627745, 1628989, 1629164, 201952, 202323]",2.312138728323699,173.0
27,2506,110,-3,2676,1610612738,107,"[1627759, 1628400, 202330, 202683, 202954]",1610612737,3,"[1627745, 1628381, 1628989, 201952, 202323]",1.639344262295082,183.0
28,2677,123,-8,2863,1610612738,115,"[1627759, 1628369, 202330, 202683, 202954]",1610612737,8,"[1627745, 1628381, 1628989, 201952, 202323]",4.0,200.0
29,2864,123,-8,9999999,1610612738,115,"[1627759, 1628369, 1629684, 202330, 202954]",1610612737,8,"[1628381, 1628989, 1629027, 201952, 202323]",3.9800995024875623,201.0
