,TEAM_ID_1,TEAM_1_PLAYERS,TEAM_ID_2,TEAM_2_PLAYERS,PERIOD
0,1610612756,[1626162 1628969 1629028 1626164  201937],1610612762,[ 204060  202711  203497 1628378  201144],1
1,1610612756,[ 201937 1629661  203382  203967 1628975],1610612762,[ 204060  201144  203903 1628396 1627777],2
2,1610612756,[1626162 1628969 1629028 1626164  201937],1610612762,[ 204060  202711  203497 1628378  201144],3
3,1610612756,[1626162  201937 1629661  203967 1628975],1610612762,[ 204060  201144  203903 1627777 1629752],4
