,team1_id,team1_player1,team1_player2,team1_player3,team1_player4,team1_player5,team2_id,team2_player1,team2_player2,team2_player3,team2_player4,team2_player5,game_id,period,possession_start,possession_end,team1_points,team2_points,possession_team
0,1610612754,203933,1627734,1626167,1628988,1627763,1610612749,203114,203507,201572,202083,202339,0021900924,1,0,18,0,2,1610612749
1,1610612754,203933,1627734,1626167,1628988,1627763,1610612749,203114,203507,201572,202083,202339,0021900924,1,31,31,2,0,1610612754
2,1610612754,203933,1627734,1626167,1628988,1627763,1610612749,203114,203507,201572,202083,202339,0021900924,1,40,40,0,3,1610612749
3,1610612754,203933,1627734,1626167,1628988,1627763,1610612749,203114,203507,201572,202083,202339,0021900924,1,53,55,0,0,1610612754
4,1610612754,203933,1627734,1626167,1628988,1627763,1610612749,203114,203507,201572,202083,202339,0021900924,1,59,64,0,2,1610612749
5,1610612754,203933,1627734,1626167,1628988,1627763,1610612749,203114,203507,201572,202083,202339,0021900924,1,88,88,0,0,1610612754
6,1610612754,203933,1627734,1626167,1628988,1627763,1610612749,203114,203507,201572,202083,202339,0021900924,1,99,99,0,2,1610612749
7,1610612754,203933,1627734,1626167,1628988,1627763,1610612749,203114,203507,201572,202083,202339,0021900924,1,113,116,0,0,1610612754
8,1610612754,203933,1627734,1626167,1628988,1627763,1610612749,203114,203507,201572,202083,202339,0021900924,1,125,127,0,0,1610612749
9,1610612754,203933,1627734,1626167,1628988,1627763,1610612749,203114,203507,201572,202083,202339,0021900924,1,133,136,0,0,1610612754
10,1610612754,203933,1627734,1626167,1628988,1627763,1610612749,203114,203507,201572,202083,202339,0021900924,1,141,144,0,0,1610612749
11,1610612754,203933,1627734,1626167,1628988,1627763,1610612749,203114,203507,201572,202083,202339,0021900924,1,158,162,0,0,1610612754
12,1610612754,203933,1627734,1626167,1628988,1627763,1610612749,203114,203507,201572,202083,202339,0021900924,1,171,171,0,3,1610612749
13,1610612754,203933,1627734,1626167,1628988,1627763,1610612749,203114,203507,201572,202083,202339,0021900924,1,178,196,0,0,1610612754
14,1610612754,203933,1627734,1626167,1628988,1627763,1610612749,203114,203507,201572,202083,202339,0021900924,1,201,210,0,0,1610612749
15,1610612754,203933,1627734,1626167,1628988,1627763,1610612749,203114,203507,201572,202083,202339,0021900924,1,223,225,0,0,1610612754
16,1610612754,203933,1627734,1626167,1628988,1627763,1610612749,203114,203507,201572,202083,202339,0021900924,1,230,230,0,3,1610612749
17,1610612754,203933,1627734,1626167,1628988,1627763,1610612749,203114,203507,201572,202083,202339,0021900924,1,248,250,0,0,1610612754
18,1610612754,203933,1627734,1626167,1628988,1627763,1610612749,203114,203507,201572,202083,202339,0021900924,1,253,253,0,0,1610612749
19,1610612754,203933,1627734,1626167,1628988,1627763,1610612749,203114,203507,201572,202083,202339,0021900924,1,258,271,2,0,1610612754
20,1610612754,203933,1627734,1626167,1628988,1627763,1610612749,203114,203507,201572,202083,202339,0021900924,1,281,283,0,0,1610612749
21,1610612754,203933,1627734,1626167,1628988,1627763,1610612749,203114,203507,201572,202083,202339,0021900924,1,296,298,0,0,1610612754
22,1610612754,203933,1627734,1626167,1628988,1627763,1610612749,203114,203507,201572,202083,202339,0021900924,1,300,300,0,2,1610612749
23,1610612754,203933,1627734,1626167,1628988,1627763,1610612749,203114,203507,201572,202083,202339,0021900924,1,318,318,2,0,1610612754
24,1610612754,203933,1627734,1626167,1628988,1627763,1610612749,101107,201577,202083,202339,203114,0021900924,1,340,340,0,2,1610612749
25,1610612754,203933,1627734,1626167,1628988,1627763,1610612749,101107,201577,202083,202339,203114,0021900924,1,352,355,0,0,1610612754
26,1610612754,203933,1627734,1626167,1628988,1627763,1610612749,101107,201577,202083,202339,203114,0021900924,1,362,362,0,2,1610612749
27,1610612754,203933,1627734,1626167,1628988,1627763,1610612749,101107,201577,202083,202339,203114,0021900924,1,371,386,0,0,1610612754
28,1610612754,203933,1627734,1626167,1628988,1627763,1610612749,101107,1628978,201577,202083,203114,0021900924,1,400,400,0,2,1610612749
29,1610612754,203933,1627734,1626167,1628988,1627763,1610612749,101107,1628978,201577,202083,203114,0021900924,1,423,428,0,0,1610612754
30,1610612754,203933,1627734,1626167,1628988,1627763,1610612749,101107,1628978,201577,202083,203114,0021900924,1,430,433,0,0,1610612749
31,1610612754,203933,1627734,1626167,1628988,1627763,1610612749,101107,1628978,201577,202083,203114,0021900924,1,437,440,0,0,1610612754
32,1610612754,203933,1627734,1626167,1628988,1627763,1610612749,101107,1628978,201577,202083,203114,0021900924,1,450,450,0,2,1610612749
33,1610612754,203933,1627734,1626167,1628988,1627763,1610612749,101107,1628978,201577,202083,203114,0021900924,1,454,462,2,0,1610612754
34,1610612754,1626167,1627763,203200,203933,204456,1610612749,101107,1626192,1628978,201577,203114,0021900924,1,480,480,0,0,1610612749
35,1610612754,1626167,1627763,203200,203933,204456,1610612749,101107,1626192,1628978,201577,203114,0021900924,1,486,486,3,0,1610612754
36,1610612754,1626167,1627763,203200,203933,204456,1610612749,101107,1626192,1628978,201577,203114,0021900924,1,511,511,0,3,1610612749
37,1610612754,1626167,1627763,203200,203933,204456,1610612749,101107,1626192,1628978,201577,203114,0021900924,1,524,524,0,0,1610612754
38,1610612754,1626167,1627763,203200,203933,204456,1610612749,101107,1626192,1628978,201577,203114,0021900924,1,532,546,0,2,1610612749
39,1610612754,1626167,203200,203926,203933,204456,1610612749,101107,1626192,1628425,1628978,201577,0021900924,1,571,574,0,0,1610612754
40,1610612754,1626167,203200,203926,203933,204456,1610612749,101107,1626192,1628425,1628978,201577,0021900924,1,579,579,0,3,1610612749
41,1610612754,1626167,203200,203926,203933,204456,1610612749,101107,1626192,1628425,1628978,201577,0021900924,1,597,597,3,0,1610612754
42,1610612754,1626167,203200,203926,203933,204456,1610612749,101107,1626192,1628425,1628978,201577,0021900924,1,613,616,0,0,1610612749
43,1610612754,1627734,203200,203926,203960,204456,1610612749,1626192,1628425,1628978,202339,203507,0021900924,1,625,628,0,0,1610612754
44,1610612754,1627734,203200,203926,203960,204456,1610612749,1626192,1628425,1628978,202339,203507,0021900924,1,629,629,0,2,1610612749
45,1610612754,1627734,203200,203926,203960,204456,1610612749,1626192,1628425,1628978,202339,203507,0021900924,1,640,644,2,0,1610612754
46,1610612754,1627734,203200,203926,203960,204456,1610612749,1626192,1628425,1628978,202339,203507,0021900924,1,653,656,0,0,1610612749
47,1610612754,1627734,203200,203926,203960,204456,1610612749,1626192,1628425,1628978,202339,203507,0021900924,1,664,664,3,0,1610612754
48,1610612754,1627734,203200,203926,203960,204456,1610612749,1626192,1628425,1628978,202339,203507,0021900924,1,681,681,0,0,1610612749
49,1610612754,1627734,203200,203926,203960,204456,1610612749,1626192,1628425,1628978,202339,203507,0021900924,1,688,688,2,0,1610612754
50,1610612754,1627734,203200,203926,203960,204456,1610612749,1626192,1628425,1628978,202339,203507,0021900924,1,697,712,0,1,1610612749
51,1610612754,1627734,203200,203926,203960,204456,1610612749,1626192,1628425,201572,202339,203507,0021900924,1,720,720,2,0,1610612754
52,1610612754,1627734,203200,204456,203926,203960,1610612749,203507,201572,202339,1626192,1628425,0021900924,2,720,729,0,0,1610612754
53,1610612754,1627734,203200,204456,203926,203960,1610612749,203507,201572,202339,1626192,1628425,0021900924,2,744,744,0,2,1610612749
54,1610612754,1627734,203200,204456,203926,203960,1610612749,203507,201572,202339,1626192,1628425,0021900924,2,754,761,0,0,1610612754
55,1610612754,1627734,203200,204456,203926,203960,1610612749,203507,201572,202339,1626192,1628425,0021900924,2,761,769,0,0,1610612749
56,1610612754,1627734,203200,204456,203926,203960,1610612749,203507,201572,202339,1626192,1628425,0021900924,2,787,787,2,0,1610612754
57,1610612754,1627734,203200,204456,203926,203960,1610612749,203507,201572,202339,1626192,1628425,0021900924,2,797,800,0,0,1610612749
58,1610612754,1627734,203200,204456,203926,203960,1610612749,203507,201572,202339,1626192,1628425,0021900924,2,803,808,0,0,1610612754
59,1610612754,1627734,203200,204456,203926,203960,1610612749,203507,201572,202339,1626192,1628425,0021900924,2,818,818,0,0,1610612749
60,1610612754,1627734,203200,204456,203926,203960,1610612749,203507,201572,202339,1626192,1628425,0021900924,2,826,826,3,0,1610612754
61,1610612754,1627734,203200,204456,203926,203960,1610612749,203507,201572,202339,1626192,1628425,0021900924,2,841,841,0,2,1610612749
62,1610612754,1627734,203200,204456,203926,203960,1610612749,1626192,201572,202339,203114,203507,0021900924,2,853,853,4,0,1610612754
63,1610612754,1627734,203200,204456,203926,203960,1610612749,1626192,201572,202339,203114,203507,0021900924,2,870,873,0,2,1610612749
64,1610612754,1627734,203200,204456,203926,203960,1610612749,1626192,201572,202339,203114,203507,0021900924,2,886,886,2,0,1610612754
65,1610612754,1627734,203200,204456,203926,203960,1610612749,1626192,201572,202339,203114,203507,0021900924,2,894,897,0,0,1610612749
66,1610612754,1627734,203200,204456,203926,203960,1610612749,1626192,201572,202339,203114,203507,0021900924,2,903,910,0,0,1610612754
67,1610612754,1627734,203200,204456,203926,203960,1610612749,201572,202083,202339,203114,203507,0021900924,2,935,935,0,0,1610612749
68,1610612754,1627734,203200,204456,203926,203960,1610612749,201572,202083,202339,203114,203507,0021900924,2,947,947,1,0,1610612754
69,1610612754,1627734,203200,204456,203926,203960,1610612749,1628978,201572,202083,203114,203507,0021900924,2,956,959,0,0,1610612749
70,1610612754,1627734,203200,204456,203926,203960,1610612749,1628978,201572,202083,203114,203507,0021900924,2,964,978,0,0,1610612754
71,1610612754,1627734,203926,203933,203960,204456,1610612749,101107,1628978,201572,202083,203114,0021900924,2,987,987,0,2,1610612749
72,1610612754,1627734,203926,203933,203960,204456,1610612749,101107,1628978,201572,202083,203114,0021900924,2,1007,1010,0,0,1610612754
73,1610612754,1627734,203926,203933,203960,204456,1610612749,101107,1628978,201572,202083,203114,0021900924,2,1012,1012,0,2,1610612749
74,1610612754,1627734,1627763,203926,203933,204456,1610612749,101107,1628978,201577,202083,203114,0021900924,2,1026,1029,2,0,1610612754
75,1610612754,1627734,1627763,203926,203933,204456,1610612749,101107,1628978,201577,202083,203114,0021900924,2,1041,1050,0,2,1610612749
76,1610612754,1626167,1627734,1627763,1628988,203933,1610612749,101107,1628978,201577,202083,203114,0021900924,2,1066,1068,0,0,1610612754
77,1610612754,1626167,1627734,1627763,1628988,203933,1610612749,101107,1628978,201577,202083,203114,0021900924,2,1072,1075,0,0,1610612749
78,1610612754,1626167,1627734,1627763,1628988,203933,1610612749,101107,1628978,201577,202083,203114,0021900924,2,1077,1081,0,0,1610612754
79,1610612754,1626167,1627734,1627763,1628988,203933,1610612749,101107,1628978,201577,202083,203114,0021900924,2,1090,1090,0,0,1610612749
80,1610612754,1626167,1627734,1627763,1628988,203933,1610612749,101107,1628978,201577,202083,203114,0021900924,2,1103,1103,3,0,1610612754
81,1610612754,1626167,1627734,1627763,1628988,203933,1610612749,101107,1628978,201577,202083,203114,0021900924,2,1123,1126,0,0,1610612749
82,1610612754,1626167,1627734,1627763,1628988,203933,1610612749,101107,1628978,201577,202083,203114,0021900924,2,1131,1131,0,0,1610612754
83,1610612754,1626167,1627734,1628988,203933,204456,1610612749,101107,1628978,201577,202083,203114,0021900924,2,1144,1144,0,2,1610612749
84,1610612754,1626167,1627734,1628988,203933,204456,1610612749,101107,1628978,201577,202083,203114,0021900924,2,1159,1159,2,0,1610612754
85,1610612754,1626167,1627734,1628988,203933,204456,1610612749,101107,1628978,201577,202083,203114,0021900924,2,1170,1173,0,0,1610612749
86,1610612754,1626167,1627734,1628988,203933,204456,1610612749,101107,1628978,201577,202083,203114,0021900924,2,1176,1176,3,0,1610612754
87,1610612754,1626167,1627734,1628988,203933,204456,1610612749,101107,1628978,201577,202083,203114,0021900924,2,1182,1182,0,0,1610612749
88,1610612754,1626167,1627734,1628988,203933,204456,1610612749,101107,1628978,201577,202083,203114,0021900924,2,1187,1187,2,0,1610612754
89,1610612754,1626167,1627734,1628988,203933,204456,1610612749,101107,1628978,201577,202083,203114,0021900924,2,1206,1210,0,2,1610612749
90,1610612754,1626167,1627734,1628988,203933,204456,1610612749,101107,1628978,201577,202083,203114,0021900924,2,1219,1223,0,0,1610612754
91,1610612754,1626167,1627734,1628988,203933,204456,1610612749,101107,1628978,201577,202083,203114,0021900924,2,1233,1233,0,2,1610612749
92,1610612754,1626167,1627734,1628988,203933,204456,1610612749,101107,1628978,201577,202083,203114,0021900924,2,1240,1254,0,0,1610612754
93,1610612754,1626167,1627734,1628988,203933,204456,1610612749,1628978,201577,202083,202339,203507,0021900924,2,1259,1259,0,0,1610612749
94,1610612754,1626167,1627734,1628988,203933,204456,1610612749,1628978,201577,202083,202339,203507,0021900924,2,1276,1276,2,0,1610612754
95,1610612754,1626167,1627734,1628988,203933,204456,1610612749,1628978,201577,202083,202339,203507,0021900924,2,1288,1291,0,0,1610612749
96,1610612754,1626167,1627734,1628988,203933,204456,1610612749,1628978,201577,202083,202339,203507,0021900924,2,1300,1300,1,0,1610612754
97,1610612754,1626167,1627734,1628988,203933,204456,1610612749,1628978,201572,202339,203114,203507,0021900924,2,1315,1315,0,2,1610612749
98,1610612754,1626167,1627734,1628988,203933,204456,1610612749,1628978,201572,202339,203114,203507,0021900924,2,1334,1334,2,0,1610612754
99,1610612754,1626167,1627734,1628988,203933,204456,1610612749,1628978,201572,202339,203114,203507,0021900924,2,1344,1344,0,2,1610612749
100,1610612754,1626167,1627734,1628988,203933,204456,1610612749,1628978,201572,202339,203114,203507,0021900924,2,1354,1354,2,0,1610612754
101,1610612754,1626167,1627734,1628988,203933,204456,1610612749,1628978,201572,202339,203114,203507,0021900924,2,1368,1370,0,0,1610612749
102,1610612754,1626167,1627734,1628988,203933,204456,1610612749,1628978,201572,202339,203114,203507,0021900924,2,1384,1386,0,0,1610612754
103,1610612754,1626167,1627734,1628988,203933,204456,1610612749,1628978,201572,202339,203114,203507,0021900924,2,1390,1390,0,0,1610612749
104,1610612754,1626167,1628988,203200,203933,204456,1610612749,1626192,201572,202339,203114,203507,0021900924,2,1393,1397,2,0,1610612754
105,1610612754,1626167,1628988,203200,203933,204456,1610612749,1626192,201572,202339,203114,203507,0021900924,2,1406,1409,0,0,1610612749
106,1610612754,1626167,1628988,203200,203933,204456,1610612749,1626192,201572,202339,203114,203507,0021900924,2,1425,1432,0,0,1610612754
107,1610612754,1626167,1628988,203200,203933,204456,1610612749,1626192,201572,202339,203114,203507,0021900924,2,1438,1438,0,0,1610612749
108,1610612754,203933,1627734,1626167,1628988,204456,1610612749,203114,203507,201572,202083,202339,0021900924,3,1440,1459,0,0,1610612754
109,1610612754,203933,1627734,1626167,1628988,204456,1610612749,203114,203507,201572,202083,202339,0021900924,3,1463,1471,0,0,1610612749
110,1610612754,203933,1627734,1626167,1628988,204456,1610612749,203114,203507,201572,202083,202339,0021900924,3,1480,1480,2,0,1610612754
111,1610612754,203933,1627734,1626167,1628988,204456,1610612749,203114,203507,201572,202083,202339,0021900924,3,1484,1484,0,0,1610612749
112,1610612754,203933,1627734,1626167,1628988,204456,1610612749,203114,203507,201572,202083,202339,0021900924,3,1485,1487,0,0,1610612754
113,1610612754,203933,1627734,1626167,1628988,204456,1610612749,203114,203507,201572,202083,202339,0021900924,3,1500,1500,0,2,1610612749
114,1610612754,203933,1627734,1626167,1628988,204456,1610612749,203114,203507,201572,202083,202339,0021900924,3,1518,1518,2,0,1610612754
115,1610612754,203933,1627734,1626167,1628988,204456,1610612749,203114,203507,201572,202083,202339,0021900924,3,1533,1533,0,3,1610612749
116,1610612754,203933,1627734,1626167,1628988,204456,1610612749,203114,203507,201572,202083,202339,0021900924,3,1546,1546,2,0,1610612754
117,1610612754,203933,1627734,1626167,1628988,204456,1610612749,203114,203507,201572,202083,202339,0021900924,3,1555,1558,0,0,1610612749
118,1610612754,203933,1627734,1626167,1628988,204456,1610612749,203114,203507,201572,202083,202339,0021900924,3,1566,1569,0,0,1610612754
119,1610612754,203933,1627734,1626167,1628988,204456,1610612749,203114,203507,201572,202083,202339,0021900924,3,1578,1578,0,0,1610612749
120,1610612754,203933,1627734,1626167,1628988,204456,1610612749,203114,203507,201572,202083,202339,0021900924,3,1592,1595,0,0,1610612754
121,1610612754,203933,1627734,1626167,1628988,204456,1610612749,203114,203507,201572,202083,202339,0021900924,3,1600,1603,0,0,1610612749
122,1610612754,203933,1627734,1626167,1628988,204456,1610612749,203114,203507,201572,202083,202339,0021900924,3,1609,1614,0,0,1610612754
123,1610612754,203933,1627734,1626167,1628988,204456,1610612749,203114,203507,201572,202083,202339,0021900924,3,1618,1618,0,2,1610612749
124,1610612754,203933,1627734,1626167,1628988,204456,1610612749,203114,203507,201572,202083,202339,0021900924,3,1639,1642,0,0,1610612754
125,1610612754,203933,1627734,1626167,1628988,204456,1610612749,203114,203507,201572,202083,202339,0021900924,3,1646,1646,0,3,1610612749
126,1610612754,203933,1627734,1626167,1628988,204456,1610612749,203114,203507,201572,202083,202339,0021900924,3,1647,1663,2,0,1610612754
127,1610612754,203933,1627734,1626167,1628988,204456,1610612749,203114,203507,201572,202083,202339,0021900924,3,1677,1677,0,3,1610612749
128,1610612754,203933,1627734,1626167,1628988,204456,1610612749,203114,203507,201572,202083,202339,0021900924,3,1698,1700,0,0,1610612754
129,1610612754,203933,1627734,1626167,1628988,204456,1610612749,203114,203507,201572,202083,202339,0021900924,3,1703,1703,0,2,1610612749
130,1610612754,203933,1627734,1626167,1628988,204456,1610612749,203114,203507,201572,202083,202339,0021900924,3,1728,1732,0,0,1610612754
131,1610612754,203933,1627734,1626167,1628988,204456,1610612749,203114,203507,201572,202083,202339,0021900924,3,1739,1739,0,2,1610612749
132,1610612754,203933,1627734,1626167,1628988,204456,1610612749,203114,203507,201572,202083,202339,0021900924,3,1748,1748,0,0,1610612754
133,1610612754,1626167,1627734,1628988,203200,203933,1610612749,1628978,201577,202083,202339,203507,0021900924,3,1756,1756,0,0,1610612749
134,1610612754,1626167,1627734,1628988,203200,203933,1610612749,1628978,201577,202083,202339,203507,0021900924,3,1771,1776,0,0,1610612754
135,1610612754,1626167,1627734,1628988,203200,203933,1610612749,1628978,201577,202083,202339,203507,0021900924,3,1778,1778,0,3,1610612749
136,1610612754,1626167,1627734,1628988,203200,203933,1610612749,1628978,201577,202083,202339,203507,0021900924,3,1802,1802,2,0,1610612754
137,1610612754,1626167,1627734,1628988,203200,203933,1610612749,1628978,201577,202083,202339,203507,0021900924,3,1817,1822,0,0,1610612749
138,1610612754,1626167,1627734,1628988,203200,203933,1610612749,1628978,201577,202083,202339,203507,0021900924,3,1824,1824,2,0,1610612754
139,1610612754,1626167,1627734,1628988,203200,203933,1610612749,1628978,201577,202083,202339,203507,0021900924,3,1833,1833,0,3,1610612749
140,1610612754,1626167,1627734,1628988,203200,203933,1610612749,1628978,201577,202083,202339,203114,0021900924,3,1844,1848,3,0,1610612754
141,1610612754,1626167,1627734,1628988,203200,203933,1610612749,1626192,1628978,201577,203114,203507,0021900924,3,1863,1875,0,0,1610612749
142,1610612754,1626167,1627734,1628988,203200,203933,1610612749,1626192,1628978,201577,203114,203507,0021900924,3,1882,1882,0,0,1610612754
143,1610612754,1626167,1627734,1628988,203200,203933,1610612749,1626192,1628978,201577,203114,203507,0021900924,3,1892,1892,0,3,1610612749
144,1610612754,1626167,1627734,1628988,203200,203933,1610612749,1626192,1628978,201577,203114,203507,0021900924,3,1911,1913,0,0,1610612754
145,1610612754,1626167,1627734,1628988,203200,203933,1610612749,1626192,1628978,201577,203114,203507,0021900924,3,1922,1924,0,0,1610612749
146,1610612754,1626167,1627734,1628988,203200,203933,1610612749,1626192,1628978,201577,203114,203507,0021900924,3,1933,1937,0,0,1610612754
147,1610612754,1626167,1627734,1628988,203200,203933,1610612749,1626192,1628978,201577,203114,203507,0021900924,3,1954,1954,0,3,1610612749
148,1610612754,1626167,1627734,1628988,203200,203933,1610612749,1626192,1628978,201577,203114,203507,0021900924,3,1982,1984,0,0,1610612754
149,1610612754,1626167,1627734,1628988,203200,203933,1610612749,1626192,1628978,201577,203114,203507,0021900924,3,1993,1993,0,0,1610612749
150,1610612754,1626167,1627734,1628988,203200,203933,1610612749,1626192,1628978,201577,203114,203507,0021900924,3,1998,1998,0,0,1610612754
151,1610612754,1626167,1627734,1628988,203200,203933,1610612749,1626192,1628978,201577,203114,203507,0021900924,3,2001,2001,0,2,1610612749
152,1610612754,1629048,203200,203933,203960,204456,1610612749,101107,1626192,1628978,201577,202083,0021900924,3,2022,2022,2,0,1610612754
153,1610612754,1629048,203200,203933,203960,204456,1610612749,101107,1626192,1628978,201577,202083,0021900924,3,2036,2041,0,0,1610612749
154,1610612754,1629048,203200,203933,203960,204456,1610612749,101107,1626192,1628978,201577,202083,0021900924,3,2047,2050,0,0,1610612754
155,1610612754,1629048,203200,203926,203960,204456,1610612749,101107,1626192,1628978,201577,202083,0021900924,3,2059,2062,0,0,1610612749
156,1610612754,1629048,203200,203926,203960,204456,1610612749,101107,1626192,1628978,201577,202083,0021900924,3,2069,2069,0,0,1610612754
157,1610612754,1629048,203200,203926,203960,204456,1610612749,101107,1626192,1628978,201577,202083,0021900924,3,2075,2075,0,0,1610612749
158,1610612754,1629048,203200,203926,203960,204456,1610612749,101107,1626192,1628978,201577,202083,0021900924,3,2078,2078,2,0,1610612754
159,1610612754,1629048,203200,203926,203960,204456,1610612749,101107,1626192,1628978,201577,202083,0021900924,3,2078,2099,0,0,1610612749
160,1610612754,1629048,203200,203926,203960,204456,1610612749,101107,201572,202083,202339,203114,0021900924,3,2110,2113,0,0,1610612754
161,1610612754,1629048,203200,203926,203960,204456,1610612749,101107,201572,202083,202339,203114,0021900924,3,2120,2123,0,0,1610612749
162,1610612754,1629048,203200,203926,203960,204456,1610612749,101107,201572,202083,202339,203114,0021900924,3,2129,2129,2,0,1610612754
163,1610612754,1629048,203200,203926,203960,204456,1610612749,101107,201572,202083,202339,203114,0021900924,3,2148,2151,0,0,1610612749
164,1610612754,1629048,203200,203926,203960,204456,1610612749,101107,201572,202083,202339,203114,0021900924,3,2159,2159,2,0,1610612754
165,1610612754,1629048,203200,203926,203960,204456,1610612749,101107,201572,202083,202339,203114,0021900924,3,2160,2160,0,0,1610612754
166,1610612754,1627734,203200,204456,203926,203960,1610612749,203114,201572,202339,101107,1626192,0021900924,4,2160,2177,0,0,1610612749
167,1610612754,1627734,203200,204456,203926,203960,1610612749,203114,201572,202339,101107,1626192,0021900924,4,2196,2196,0,0,1610612754
168,1610612754,1627734,203200,204456,203926,203960,1610612749,203114,201572,202339,101107,1626192,0021900924,4,2216,2216,0,2,1610612749
169,1610612754,1627734,203200,204456,203926,203960,1610612749,203114,201572,202339,101107,1626192,0021900924,4,2235,2235,0,0,1610612754
170,1610612754,1627734,203200,204456,203926,203960,1610612749,203114,201572,202339,101107,1626192,0021900924,4,2243,2243,0,1,1610612749
171,1610612754,1627734,203200,204456,203926,203960,1610612749,101107,1626192,1628978,201572,202339,0021900924,4,2256,2260,0,0,1610612754
172,1610612754,1627734,203200,204456,203926,203960,1610612749,101107,1626192,1628978,201572,202339,0021900924,4,2263,2263,0,2,1610612749
173,1610612754,1627734,203200,204456,203926,203960,1610612749,101107,1626192,1628978,201572,202339,0021900924,4,2280,2280,2,0,1610612754
174,1610612754,1627734,203200,204456,203926,203960,1610612749,101107,1626192,1628978,201572,202339,0021900924,4,2291,2291,0,2,1610612749
175,1610612754,1627734,203200,203926,203933,204456,1610612749,1626192,1628978,201572,202339,203507,0021900924,4,2313,2315,0,0,1610612754
176,1610612754,1627734,203200,203926,203933,204456,1610612749,1626192,1628978,201572,202339,203507,0021900924,4,2319,2319,0,2,1610612749
177,1610612754,1626167,1627734,203926,203933,204456,1610612749,1626192,1628978,201572,202339,203507,0021900924,4,2330,2333,0,0,1610612754
178,1610612754,1626167,1627734,203926,203933,204456,1610612749,1626192,1628978,201572,202339,203507,0021900924,4,2338,2338,0,3,1610612749
179,1610612754,1626167,1627734,203926,203933,204456,1610612749,1626192,1628978,201572,202339,203507,0021900924,4,2338,2364,2,0,1610612754
180,1610612754,1626167,1627734,203926,203933,204456,1610612749,1626192,1628978,201572,202339,203507,0021900924,4,2380,2383,0,0,1610612749
181,1610612754,1626167,1627734,203926,203933,204456,1610612749,1626192,1628978,201572,202339,203507,0021900924,4,2388,2392,0,0,1610612754
182,1610612754,1626167,1627734,203926,203933,204456,1610612749,1626192,1628425,1628978,201572,203507,0021900924,4,2395,2406,0,2,1610612749
183,1610612754,1626167,1627734,203926,203933,204456,1610612749,1626192,1628425,1628978,201572,203507,0021900924,4,2408,2419,0,1,1610612754
184,1610612754,1626167,1627734,203926,203933,204456,1610612749,1626192,1628425,1628978,201572,203507,0021900924,4,2436,2436,0,0,1610612749
185,1610612754,1626167,1627734,203926,203933,204456,1610612749,1626192,1628425,1628978,201572,203507,0021900924,4,2441,2441,2,0,1610612754
186,1610612754,1626167,1627734,203926,203933,204456,1610612749,1626192,1628425,1628978,201572,203507,0021900924,4,2456,2459,0,2,1610612749
187,1610612754,1626167,1627734,203926,203933,204456,1610612749,1628425,1628978,201577,202083,203507,0021900924,4,2474,2474,2,0,1610612754
188,1610612754,1626167,1627734,203926,203933,204456,1610612749,1628425,1628978,201577,202083,203507,0021900924,4,2489,2489,0,0,1610612749
189,1610612754,1626167,1627734,203926,203933,204456,1610612749,1628425,1628978,201577,202083,203507,0021900924,4,2503,2508,0,0,1610612754
190,1610612754,1626167,1627734,203926,203933,204456,1610612749,1628425,1628978,201577,202083,203507,0021900924,4,2518,2523,0,3,1610612749
191,1610612754,1626167,1627734,203926,203933,204456,1610612749,1628425,1628978,201577,202083,203507,0021900924,4,2532,2534,0,0,1610612754
192,1610612754,1626167,1627734,203926,203933,204456,1610612749,1628425,1628978,201577,202083,203507,0021900924,4,2540,2540,0,2,1610612749
193,1610612754,1626167,1627734,203926,203933,204456,1610612749,1628425,201577,202083,203114,203507,0021900924,4,2553,2556,0,0,1610612754
194,1610612754,1626167,1627734,203926,203933,204456,1610612749,1628425,201577,202083,203114,203507,0021900924,4,2560,2560,0,2,1610612749
195,1610612754,1626167,1627734,203926,203933,204456,1610612749,1628425,201577,202083,203114,203507,0021900924,4,2571,2571,0,0,1610612754
196,1610612754,1626167,1627734,203926,203933,204456,1610612749,1628425,201577,202083,203114,203507,0021900924,4,2574,2574,0,2,1610612749
197,1610612754,1626167,1627734,203926,203933,204456,1610612749,1628425,201577,202083,203114,203507,0021900924,4,2574,2593,0,0,1610612754
198,1610612754,1628410,1628988,1629048,203926,203960,1610612749,101107,1626192,1628412,1628425,201577,0021900924,4,2599,2599,0,0,1610612749
199,1610612754,1628410,1628988,1629048,203926,203960,1610612749,101107,1626192,1628412,1628425,201577,0021900924,4,2611,2614,0,0,1610612754
200,1610612754,1628410,1628988,1629048,203926,203960,1610612749,101107,1626192,1628412,1628425,201577,0021900924,4,2638,2646,0,0,1610612749
201,1610612754,1628410,1628988,1629048,203926,203960,1610612749,101107,1626192,1628412,1628425,201577,0021900924,4,2658,2660,0,0,1610612754
202,1610612754,1628410,1628988,1629048,203926,203960,1610612749,101107,1626192,1628412,1628425,201577,0021900924,4,2665,2668,0,0,1610612749
203,1610612754,1628410,1628988,1629048,203926,203960,1610612749,101107,1626192,1628412,1628425,201577,0021900924,4,2671,2671,0,0,1610612754
204,1610612754,1628388,1628410,1628993,1629048,203960,1610612749,101107,1628412,1628425,201577,203648,0021900924,4,2686,2686,0,0,1610612749
205,1610612754,1628388,1628410,1628993,1629048,203960,1610612749,101107,1628412,1628425,201577,203648,0021900924,4,2686,2702,2,0,1610612754
206,1610612754,1628388,1628410,1628993,1629048,203960,1610612749,101107,1628412,1628425,201577,203648,0021900924,4,2717,2717,0,2,1610612749
207,1610612754,1628388,1628410,1628993,1629048,203960,1610612749,101107,1628412,1628425,201577,203648,0021900924,4,2725,2725,2,0,1610612754
208,1610612754,1628388,1628410,1628993,1629048,203960,1610612749,101107,1628412,1628425,201577,203648,0021900924,4,2737,2737,0,2,1610612749
209,1610612754,1628388,1628410,1628993,1629048,203960,1610612749,101107,1628412,1628425,201577,203648,0021900924,4,2749,2752,0,0,1610612754
210,1610612754,1628388,1628410,1628993,1629048,203960,1610612749,101107,1628412,1628425,201577,203648,0021900924,4,2755,2755,0,0,1610612749
211,1610612754,1628388,1628410,1628993,1629048,203960,1610612749,101107,1628412,1628425,201577,203648,0021900924,4,2774,2774,2,0,1610612754
212,1610612754,1628388,1628410,1628993,1629048,203960,1610612749,101107,1628412,1628425,201577,203648,0021900924,4,2782,2782,0,0,1610612749
213,1610612754,1628388,1628410,1628993,1629048,203960,1610612749,101107,1628412,1628425,201577,203648,0021900924,4,2794,2794,2,0,1610612754
214,1610612754,1628388,1628410,1628993,1629048,203960,1610612749,101107,1628412,1628425,201577,203648,0021900924,4,2804,2804,0,0,1610612749
215,1610612754,1628388,1628410,1628993,1629048,203960,1610612749,101107,1628412,1628425,201577,203648,0021900924,4,2813,2813,2,0,1610612754
216,1610612754,1628388,1628410,1628993,1629048,203960,1610612749,101107,1628412,1628425,201577,203648,0021900924,4,2836,2851,0,0,1610612749
217,1610612754,1628388,1628410,1628993,1629048,203960,1610612749,101107,1628412,1628425,201577,203648,0021900924,4,2862,2862,3,0,1610612754
