,team1_id,team1_player1,team1_player2,team1_player3,team1_player4,team1_player5,team2_id,team2_player1,team2_player2,team2_player3,team2_player4,team2_player5,game_id,period,possession_start,possession_end,team1_points,team2_points,possession_team
0,1610612760,1628390,201568,203500,1628983,101108,1610612759,201942,200746,1626168,1627854,1627749,0021900113,1,0,17,2,0,1610612760
1,1610612760,1628390,201568,203500,1628983,101108,1610612759,201942,200746,1626168,1627854,1627749,0021900113,1,32,32,0,2,1610612759
2,1610612760,1628390,201568,203500,1628983,101108,1610612759,201942,200746,1626168,1627854,1627749,0021900113,1,50,54,0,0,1610612760
3,1610612760,1628390,201568,203500,1628983,101108,1610612759,201942,200746,1626168,1627854,1627749,0021900113,1,60,60,0,3,1610612759
4,1610612760,1628390,201568,203500,1628983,101108,1610612759,201942,200746,1626168,1627854,1627749,0021900113,1,77,77,3,0,1610612760
5,1610612760,1628390,201568,203500,1628983,101108,1610612759,201942,200746,1626168,1627854,1627749,0021900113,1,94,98,0,0,1610612759
6,1610612760,1628390,201568,203500,1628983,101108,1610612759,201942,200746,1626168,1627854,1627749,0021900113,1,103,106,0,0,1610612760
7,1610612760,1628390,201568,203500,1628983,101108,1610612759,201942,200746,1626168,1627854,1627749,0021900113,1,114,118,0,0,1610612759
8,1610612760,1628390,201568,203500,1628983,101108,1610612759,201942,200746,1626168,1627854,1627749,0021900113,1,123,126,0,0,1610612760
9,1610612760,1628390,201568,203500,1628983,101108,1610612759,201942,200746,1626168,1627854,1627749,0021900113,1,135,135,0,3,1610612759
10,1610612760,1628390,201568,203500,1628983,101108,1610612759,201942,200746,1626168,1627854,1627749,0021900113,1,154,154,3,0,1610612760
11,1610612760,1628390,201568,203500,1628983,101108,1610612759,201942,200746,1626168,1627854,1627749,0021900113,1,172,172,0,2,1610612759
12,1610612760,1628390,201568,203500,1628983,101108,1610612759,201942,200746,1626168,1627854,1627749,0021900113,1,181,181,2,0,1610612760
13,1610612760,1628390,201568,203500,1628983,101108,1610612759,201942,200746,1626168,1627854,1627749,0021900113,1,181,205,0,0,1610612759
14,1610612760,1628390,201568,203500,1628983,101108,1610612759,201942,200746,1626168,1627854,1627749,0021900113,1,211,211,2,0,1610612760
15,1610612760,1628390,201568,203500,1628983,101108,1610612759,201942,200746,1626168,1627854,1627749,0021900113,1,235,235,0,0,1610612759
16,1610612760,1628390,201568,203500,1628983,101108,1610612759,1626168,1627749,200746,201942,201988,0021900113,1,252,255,0,0,1610612760
17,1610612760,1628390,201568,203500,1628983,101108,1610612759,1626168,1627749,200746,201942,201988,0021900113,1,258,258,0,2,1610612759
18,1610612760,1628390,201568,203500,1628983,101108,1610612759,1626168,1627749,200746,201942,201988,0021900113,1,271,271,0,0,1610612760
19,1610612760,1628390,201568,203500,1628983,101108,1610612759,1626168,1627749,200746,201942,201988,0021900113,1,275,275,0,2,1610612759
20,1610612760,1628390,201568,203500,1628983,101108,1610612759,1626168,1627749,200746,201942,201988,0021900113,1,285,294,0,0,1610612760
21,1610612760,1628390,201568,203500,1628983,101108,1610612759,1626168,1627749,200746,201942,201988,0021900113,1,298,298,0,2,1610612759
22,1610612760,1628390,201568,203500,1628983,101108,1610612759,1626168,1627749,200746,201942,201988,0021900113,1,311,311,2,0,1610612760
23,1610612760,1628390,201568,203500,1628983,101108,1610612759,1626168,1627749,200746,201942,201988,0021900113,1,324,324,0,2,1610612759
24,1610612760,1628390,201568,203500,1628983,101108,1610612759,1626168,1627749,200746,201942,201988,0021900113,1,335,335,0,0,1610612760
25,1610612760,1628390,201568,203500,1628983,101108,1610612759,1626168,1627749,200746,201942,201988,0021900113,1,339,340,0,0,1610612759
26,1610612760,1628390,201568,203500,1628983,101108,1610612759,1627749,200746,200752,201942,201988,0021900113,1,350,350,3,0,1610612760
27,1610612760,1628390,201568,203500,1628983,101108,1610612759,1627749,200746,200752,201942,201988,0021900113,1,365,370,0,2,1610612759
28,1610612760,1628977,1628983,201568,203471,203500,1610612759,1627749,200746,200752,201942,201988,0021900113,1,389,389,1,0,1610612760
29,1610612760,1628977,1628983,201568,203457,203471,1610612759,1628401,200746,200752,201942,201988,0021900113,1,407,407,0,2,1610612759
30,1610612760,1628977,1628983,201568,203457,203471,1610612759,1628401,200746,200752,201942,201988,0021900113,1,423,423,0,0,1610612760
31,1610612760,1628977,1628983,201568,203457,203471,1610612759,1627751,1628401,200752,201942,201988,0021900113,1,439,439,0,2,1610612759
32,1610612760,1628977,1628983,201568,203457,203471,1610612759,1627751,1628401,200752,201942,201988,0021900113,1,462,462,2,0,1610612760
33,1610612760,1628977,1628983,201568,203457,203471,1610612759,1627751,1628401,200752,201942,201988,0021900113,1,471,483,0,0,1610612759
34,1610612760,1628977,1628983,1629647,203457,203471,1610612759,1627751,1628401,200752,201942,201988,0021900113,1,487,487,2,0,1610612760
35,1610612760,1628977,1628983,1629647,203457,203471,1610612759,1627751,1628401,200752,201942,201988,0021900113,1,487,507,0,0,1610612759
36,1610612760,1628977,1628983,1629647,203457,203471,1610612759,1627751,1628401,200752,201942,201988,0021900113,1,512,512,2,0,1610612760
37,1610612760,1628977,1628983,1629647,203457,203471,1610612759,1627751,1628401,200752,201942,201988,0021900113,1,531,531,0,2,1610612759
38,1610612760,1628977,1628983,1629647,203457,203471,1610612759,1627751,1628401,200752,201942,201988,0021900113,1,539,541,0,0,1610612760
39,1610612760,1628977,1628983,1629647,203457,203471,1610612759,1627751,1628401,200752,201158,201988,0021900113,1,549,554,0,0,1610612759
40,1610612760,1628977,1628983,1629647,203457,203471,1610612759,1627751,1628401,200752,201158,201988,0021900113,1,562,562,2,0,1610612760
41,1610612760,1628977,1628983,1629647,203457,203471,1610612759,1627751,1628401,200752,201158,201988,0021900113,1,577,595,0,0,1610612759
42,1610612760,1628977,1628983,1629647,203457,203471,1610612759,1627751,1628401,200752,201158,201988,0021900113,1,604,616,0,0,1610612760
43,1610612760,101108,1628977,1629647,203457,203471,1610612759,1627751,1628401,200752,201158,201988,0021900113,1,625,625,0,2,1610612759
44,1610612760,101108,1628977,1629647,203457,203471,1610612759,1628401,200746,200752,201158,201988,0021900113,1,629,632,1,0,1610612760
45,1610612760,101108,1628977,1629647,203457,203471,1610612759,1628401,200746,200752,201158,201988,0021900113,1,645,645,0,2,1610612759
46,1610612760,101108,1628977,1629647,203457,203471,1610612759,1628401,200746,200752,201158,201988,0021900113,1,657,657,0,0,1610612760
47,1610612760,101108,1628977,1629647,203457,203471,1610612759,1628401,200746,200752,201158,201988,0021900113,1,661,661,0,0,1610612759
48,1610612760,101108,1628977,1629647,203457,203471,1610612759,1628401,200746,200752,201158,201988,0021900113,1,671,671,0,0,1610612760
49,1610612760,101108,1628977,1629647,203457,203471,1610612759,1628401,200746,200752,201158,201988,0021900113,1,683,683,0,1,1610612759
50,1610612760,101108,1628977,1629647,203471,203488,1610612759,1627749,200746,200752,201158,201988,0021900113,1,693,696,0,0,1610612760
51,1610612760,101108,1628977,1629647,203471,203488,1610612759,1627749,200746,200752,201158,201988,0021900113,1,714,714,0,2,1610612759
52,1610612760,101108,1628977,1629647,203471,203488,1610612759,1627749,200746,200752,201158,201988,0021900113,1,720,720,3,0,1610612760
53,1610612760,101108,1628977,1629647,203471,203488,1610612759,1627749,200746,200752,201158,201988,0021900113,1,720,720,0,0,172
54,1610612760,203500,101108,1628977,203471,1629647,1610612759,1627854,1627749,200752,1627751,201158,0021900113,2,720,748,0,0,1610612759
55,1610612760,203500,101108,1628977,203471,1629647,1610612759,1627854,1627749,200752,1627751,201158,0021900113,2,759,774,0,0,1610612760
56,1610612760,203500,101108,1628977,203471,1629647,1610612759,1627854,1627749,200752,1627751,201158,0021900113,2,782,782,0,2,1610612759
57,1610612760,203500,101108,1628977,203471,1629647,1610612759,1627854,1627749,200752,1627751,201158,0021900113,2,795,795,2,0,1610612760
58,1610612760,203500,101108,1628977,203471,1629647,1610612759,1627854,1627749,200752,1627751,201158,0021900113,2,805,805,0,0,1610612759
59,1610612760,203500,101108,1628977,203471,1629647,1610612759,1627854,1627749,200752,1627751,201158,0021900113,2,817,822,0,0,1610612760
60,1610612760,203500,101108,1628977,203471,1629647,1610612759,1627854,1627749,200752,1627751,201158,0021900113,2,834,837,0,0,1610612759
61,1610612760,203500,101108,1628977,203471,1629647,1610612759,1627854,1627749,200752,1627751,201158,0021900113,2,841,844,2,0,1610612760
62,1610612760,203500,101108,1628977,203471,1629647,1610612759,1627751,1627854,1628401,201158,201960,0021900113,2,852,857,0,0,1610612759
63,1610612760,203500,101108,1628977,203471,1629647,1610612759,1627751,1627854,1628401,201158,201960,0021900113,2,874,881,2,0,1610612760
64,1610612760,101108,1628977,1629647,203457,203471,1610612759,1627749,1627751,201158,201960,201988,0021900113,2,904,905,0,0,1610612759
65,1610612760,101108,1628977,1629647,203457,203471,1610612759,1627749,1627751,201158,201960,201988,0021900113,2,921,921,3,0,1610612760
66,1610612760,101108,1628977,1629647,203457,203471,1610612759,1627749,1627751,201158,201960,201988,0021900113,2,943,943,0,2,1610612759
67,1610612760,101108,1628977,1629647,203457,203471,1610612759,1627749,1627751,201158,201960,201988,0021900113,2,956,960,0,0,1610612760
68,1610612760,101108,1628977,1629647,203457,203471,1610612759,1627749,1627751,201158,201960,201988,0021900113,2,971,985,0,0,1610612759
69,1610612760,1628390,1628977,1629647,203457,203471,1610612759,1627749,1627751,201942,201960,201988,0021900113,2,999,1000,2,0,1610612760
70,1610612760,1628390,1628977,1629647,203457,203471,1610612759,1627749,1627751,201942,201960,201988,0021900113,2,1000,1017,0,0,1610612759
71,1610612760,1628390,1628977,201568,203457,203471,1610612759,1627749,200746,201942,201960,201988,0021900113,2,1033,1033,2,0,1610612760
72,1610612760,1628390,1628977,201568,203457,203471,1610612759,1627749,200746,201942,201960,201988,0021900113,2,1054,1063,0,2,1610612759
73,1610612760,1628390,1628977,201568,203457,203471,1610612759,1627749,200746,201942,201960,201988,0021900113,2,1078,1091,3,0,1610612760
74,1610612760,1628977,1628983,201568,203471,203500,1610612759,1627749,200746,201158,201942,201960,0021900113,2,1108,1108,0,2,1610612759
75,1610612760,1628977,1628983,201568,203471,203500,1610612759,1627749,200746,201158,201942,201960,0021900113,2,1124,1128,0,0,1610612760
76,1610612760,1628977,1628983,201568,203471,203500,1610612759,1627749,200746,201158,201942,201960,0021900113,2,1135,1135,0,2,1610612759
77,1610612760,1628977,1628983,201568,203471,203500,1610612759,1627749,200746,201158,201942,201960,0021900113,2,1153,1156,0,0,1610612760
78,1610612760,1628977,1628983,201568,203471,203500,1610612759,1627749,200746,201158,201942,201960,0021900113,2,1161,1165,0,0,1610612759
79,1610612760,1628977,1628983,201568,203471,203500,1610612759,1627749,200746,201158,201942,201960,0021900113,2,1170,1170,2,0,1610612760
80,1610612760,1628977,1628983,201568,203471,203500,1610612759,1627749,200746,201158,201942,201960,0021900113,2,1172,1172,0,0,1610612759
81,1610612760,1628977,1628983,201568,203471,203500,1610612759,1627749,200746,200752,201158,201942,0021900113,2,1179,1182,0,0,1610612760
82,1610612760,1628977,1628983,201568,203471,203500,1610612759,1627749,200746,200752,201158,201942,0021900113,2,1184,1184,0,2,1610612759
83,1610612760,1628977,1628983,201568,203471,203500,1610612759,1627749,200746,200752,201158,201942,0021900113,2,1207,1207,3,0,1610612760
84,1610612760,1628977,1628983,201568,203471,203500,1610612759,1627749,200746,200752,201158,201942,0021900113,2,1207,1227,0,0,1610612759
85,1610612760,101108,1628983,201568,203471,203500,1610612759,1627749,200746,200752,201158,201942,0021900113,2,1238,1240,0,0,1610612760
86,1610612760,101108,1628983,201568,203471,203500,1610612759,1627749,200746,200752,201158,201942,0021900113,2,1244,1244,0,2,1610612759
87,1610612760,101108,1628983,201568,203471,203500,1610612759,1627749,200746,200752,201158,201942,0021900113,2,1259,1262,0,0,1610612760
88,1610612760,101108,1628983,201568,203471,203500,1610612759,1627749,200746,200752,201158,201942,0021900113,2,1267,1267,0,3,1610612759
89,1610612760,101108,1628983,201568,203471,203500,1610612759,1627749,200746,200752,201158,201942,0021900113,2,1287,1287,2,0,1610612760
90,1610612760,101108,1628977,1628983,201568,203500,1610612759,1628401,200746,200752,201942,201988,0021900113,2,1301,1301,0,2,1610612759
91,1610612760,101108,1628977,1628983,201568,203500,1610612759,1628401,200746,200752,201942,201988,0021900113,2,1307,1307,2,0,1610612760
92,1610612760,101108,1628977,1628983,201568,203500,1610612759,1628401,200746,200752,201942,201988,0021900113,2,1325,1328,0,0,1610612759
93,1610612760,101108,1628977,1628983,201568,203500,1610612759,1628401,200746,200752,201942,201988,0021900113,2,1335,1338,0,0,1610612760
94,1610612760,101108,1628977,1628983,201568,203500,1610612759,1628401,200746,200752,201942,201988,0021900113,2,1343,1348,0,2,1610612759
95,1610612760,101108,1628977,1628983,201568,203500,1610612759,1628401,200746,200752,201942,201988,0021900113,2,1358,1361,0,0,1610612760
96,1610612760,101108,1628977,1628983,201568,203500,1610612759,200746,200752,201158,201942,201988,0021900113,2,1375,1375,0,0,1610612759
97,1610612760,101108,1628977,1628983,201568,203500,1610612759,200746,200752,201158,201942,201988,0021900113,2,1380,1380,2,0,1610612760
98,1610612760,101108,1628977,1628983,201568,203500,1610612759,200746,200752,201158,201942,201988,0021900113,2,1388,1388,0,2,1610612759
99,1610612760,101108,1628977,1628983,201568,203500,1610612759,200746,200752,201158,201942,201988,0021900113,2,1411,1415,0,0,1610612760
100,1610612760,101108,1628977,1628983,201568,203500,1610612759,200746,200752,201158,201942,201988,0021900113,2,1432,1440,0,0,1610612759
101,1610612760,1628390,201568,203500,1628983,101108,1610612759,201942,200746,1626168,1627854,1627749,0021900113,3,1440,1455,0,0,1610612759
102,1610612760,1628390,201568,203500,1628983,101108,1610612759,201942,200746,1626168,1627854,1627749,0021900113,3,1466,1466,2,0,1610612760
103,1610612760,1628390,201568,203500,1628983,101108,1610612759,201942,200746,1626168,1627854,1627749,0021900113,3,1480,1480,0,2,1610612759
104,1610612760,1628390,201568,203500,1628983,101108,1610612759,201942,200746,1626168,1627854,1627749,0021900113,3,1498,1498,3,0,1610612760
105,1610612760,1628390,201568,203500,1628983,101108,1610612759,201942,200746,1626168,1627854,1627749,0021900113,3,1513,1513,0,3,1610612759
106,1610612760,1628390,201568,203500,1628983,101108,1610612759,201942,200746,1626168,1627854,1627749,0021900113,3,1529,1529,0,0,1610612760
107,1610612760,1628390,201568,203500,1628983,101108,1610612759,201942,200746,1626168,1627854,1627749,0021900113,3,1543,1543,0,3,1610612759
108,1610612760,1628390,201568,203500,1628983,101108,1610612759,201942,200746,1626168,1627854,1627749,0021900113,3,1560,1565,3,0,1610612760
109,1610612760,1628390,201568,203500,1628983,101108,1610612759,201942,200746,1626168,1627854,1627749,0021900113,3,1576,1584,0,2,1610612759
110,1610612760,1628390,201568,203500,1628983,101108,1610612759,201942,200746,1626168,1627854,1627749,0021900113,3,1586,1602,0,0,1610612760
111,1610612760,1628390,201568,203500,1628983,101108,1610612759,201942,200746,1626168,1627854,1627749,0021900113,3,1609,1609,0,3,1610612759
112,1610612760,1628390,201568,203500,1628983,101108,1610612759,201942,200746,1626168,1627854,1627749,0021900113,3,1627,1629,0,0,1610612760
113,1610612760,1628390,201568,203500,1628983,101108,1610612759,201942,200746,1626168,1627854,1627749,0021900113,3,1638,1638,0,2,1610612759
114,1610612760,1628390,201568,203500,1628983,101108,1610612759,201942,200746,1626168,1627854,1627749,0021900113,3,1657,1657,2,0,1610612760
115,1610612760,1628390,201568,203500,1628983,101108,1610612759,201942,200746,1626168,1627854,1627749,0021900113,3,1674,1677,0,0,1610612759
116,1610612760,1628390,201568,203500,1628983,101108,1610612759,201942,200746,1626168,1627854,1627749,0021900113,3,1690,1696,0,0,1610612760
117,1610612760,1628390,201568,203500,1628983,101108,1610612759,201942,200746,1626168,1627854,1627749,0021900113,3,1702,1702,0,2,1610612759
118,1610612760,1628390,201568,203500,1628983,101108,1610612759,201942,200746,1626168,1627854,1627749,0021900113,3,1715,1715,0,0,1610612760
119,1610612760,1628390,201568,203500,1628983,101108,1610612759,201942,200746,1626168,1627854,1627749,0021900113,3,1726,1726,0,0,1610612759
120,1610612760,1628390,201568,203500,1628983,101108,1610612759,201942,200746,1626168,1627854,1627749,0021900113,3,1737,1737,2,0,1610612760
121,1610612760,1628390,201568,203500,1628983,101108,1610612759,201942,200746,1626168,1627854,1627749,0021900113,3,1737,1754,0,2,1610612759
122,1610612760,1628390,201568,203500,1628983,101108,1610612759,201942,200746,1626168,1627854,1627749,0021900113,3,1775,1778,0,0,1610612760
123,1610612760,1628390,201568,203500,1628983,101108,1610612759,201942,200746,1626168,1627854,1627749,0021900113,3,1792,1792,0,0,1610612759
124,1610612760,1628390,201568,203500,1628983,101108,1610612759,201942,200746,1626168,1627854,1627749,0021900113,3,1799,1799,0,0,1610612760
125,1610612760,1628390,201568,203500,1628983,101108,1610612759,201942,200746,1626168,1627854,1627749,0021900113,3,1799,1816,0,2,1610612759
126,1610612760,101108,1628977,1628983,201568,203457,1610612759,1626168,1627854,1628401,200746,201942,0021900113,3,1828,1828,2,0,1610612760
127,1610612760,101108,1628977,1628983,201568,203457,1610612759,1626168,1627854,1628401,200746,201942,0021900113,3,1841,1841,0,0,1610612759
128,1610612760,101108,1628977,1628983,201568,203457,1610612759,1626168,1627854,1628401,200746,201942,0021900113,3,1841,1852,0,0,1610612760
129,1610612760,1628977,1628983,201568,203457,203471,1610612759,1626168,1627854,1628401,200746,201942,0021900113,3,1874,1874,0,2,1610612759
130,1610612760,1628977,1628983,201568,203457,203471,1610612759,1628401,200746,200752,201942,201988,0021900113,3,1890,1890,3,0,1610612760
131,1610612760,1628977,1628983,201568,203457,203471,1610612759,1628401,200746,200752,201942,201988,0021900113,3,1909,1909,0,2,1610612759
132,1610612760,1628977,1628983,201568,203457,203471,1610612759,1628401,200746,200752,201942,201988,0021900113,3,1926,1930,0,0,1610612760
133,1610612760,1628977,1628983,201568,203457,203471,1610612759,1628401,200746,200752,201942,201988,0021900113,3,1940,1940,0,2,1610612759
134,1610612760,1628977,1628983,201568,203457,203471,1610612759,1628401,200746,200752,201942,201988,0021900113,3,1963,1963,3,0,1610612760
135,1610612760,1628977,1628983,201568,203457,203471,1610612759,1628401,200746,200752,201942,201988,0021900113,3,1983,1993,0,0,1610612759
136,1610612760,1628977,1628983,1629647,203457,203471,1610612759,1628401,200746,200752,201158,201988,0021900113,3,2003,2005,0,0,1610612760
137,1610612760,1628977,1628983,1629647,203457,203471,1610612759,1628401,200746,200752,201158,201988,0021900113,3,2009,2035,0,2,1610612759
138,1610612760,1628977,1628983,1629647,203457,203471,1610612759,1628401,200746,200752,201158,201988,0021900113,3,2043,2043,2,0,1610612760
139,1610612760,1628390,1628977,1629647,203457,203471,1610612759,1628401,200746,200752,201158,201988,0021900113,3,2058,2061,0,0,1610612759
140,1610612760,1628390,1628977,1629647,203457,203471,1610612759,1628401,200746,200752,201158,201988,0021900113,3,2072,2072,2,0,1610612760
141,1610612760,1628390,1628977,1629647,203457,203471,1610612759,1628401,200746,200752,201158,201988,0021900113,3,2082,2082,0,2,1610612759
142,1610612760,1628390,1628977,1629647,203457,203471,1610612759,1628401,200746,200752,201158,201988,0021900113,3,2099,2099,3,0,1610612760
143,1610612760,1628390,1628977,1629647,203457,203471,1610612759,1628401,200746,200752,201158,201988,0021900113,3,2107,2107,0,3,1610612759
144,1610612760,1628390,1628977,1629647,203457,203471,1610612759,1628401,200746,200752,201158,201988,0021900113,3,2127,2128,0,0,1610612760
145,1610612760,1628390,1628977,1629647,203457,203471,1610612759,1628401,200746,200752,201158,201988,0021900113,3,2128,2128,0,2,1610612759
146,1610612760,1628390,1628977,201568,203457,203471,1610612759,1627751,1627854,200752,201158,201988,0021900113,3,2145,2147,0,0,1610612760
147,1610612760,1628390,1628977,201568,203457,203471,1610612759,1627751,1627854,200752,201158,201988,0021900113,3,2155,2158,0,0,1610612759
148,1610612760,1628390,1628977,201568,203457,203471,1610612759,1627751,1627854,200752,201158,201988,0021900113,3,2160,2160,0,0,1610612759
149,1610612760,1628390,1628977,203471,203457,1629647,1610612759,201988,200752,1628401,1627751,201158,0021900113,4,2160,2175,0,0,1610612760
150,1610612760,1628390,1628977,203471,203457,1629647,1610612759,201988,200752,1628401,1627751,201158,0021900113,4,2186,2186,0,2,1610612759
151,1610612760,1628390,1628977,203471,203457,1629647,1610612759,201988,200752,1628401,1627751,201158,0021900113,4,2199,2199,3,0,1610612760
152,1610612760,1628390,1628977,203471,203457,1629647,1610612759,201988,200752,1628401,1627751,201158,0021900113,4,2219,2221,0,0,1610612759
153,1610612760,1628390,1628977,203471,203457,1629647,1610612759,201988,200752,1628401,1627751,201158,0021900113,4,2226,2226,2,0,1610612760
154,1610612760,1628390,1628977,203471,203457,1629647,1610612759,201988,200752,1628401,1627751,201158,0021900113,4,2240,2243,0,0,1610612759
155,1610612760,1628390,1628977,203471,203457,1629647,1610612759,201988,200752,1628401,1627751,201158,0021900113,4,2248,2248,0,0,1610612760
156,1610612760,1628390,1628977,203471,203457,1629647,1610612759,201988,200752,1628401,1627751,201158,0021900113,4,2267,2267,0,2,1610612759
157,1610612760,1628390,1628977,203471,203457,1629647,1610612759,201988,200752,1628401,1627751,201158,0021900113,4,2279,2292,0,0,1610612760
158,1610612760,1628390,1628977,203471,203457,1629647,1610612759,201988,200752,1628401,1627751,201158,0021900113,4,2299,2299,0,3,1610612759
159,1610612760,1628390,1628977,203471,203457,1629647,1610612759,201988,200752,1628401,1627751,201158,0021900113,4,2316,2319,0,0,1610612760
160,1610612760,1628390,1628977,203471,203457,1629647,1610612759,201988,200752,1628401,1627751,201158,0021900113,4,2321,2321,0,0,1610612759
161,1610612760,1628390,1628977,203471,203457,1629647,1610612759,201988,200752,1628401,1627751,201158,0021900113,4,2324,2331,0,0,1610612760
162,1610612760,101108,1628390,1629647,203457,203471,1610612759,1627751,1628401,201158,201942,201988,0021900113,4,2344,2344,0,2,1610612759
163,1610612760,101108,1628390,1629647,203457,203471,1610612759,1627751,1628401,201158,201942,201988,0021900113,4,2355,2358,0,0,1610612760
164,1610612760,101108,1628390,1629647,203457,203471,1610612759,1627751,1628401,201158,201942,201988,0021900113,4,2363,2369,0,0,1610612759
165,1610612760,101108,1628390,201568,203471,203500,1610612759,1627749,1627751,1627854,201158,201942,0021900113,4,2395,2395,2,0,1610612760
166,1610612760,101108,1628390,201568,203471,203500,1610612759,1627749,1627751,1627854,201158,201942,0021900113,4,2411,2411,0,2,1610612759
167,1610612760,101108,1628390,201568,203471,203500,1610612759,1627749,1627751,1627854,201158,201942,0021900113,4,2419,2419,2,0,1610612760
168,1610612760,101108,1628983,201568,203471,203500,1610612759,1626168,1627749,1627854,200746,201942,0021900113,4,2437,2444,0,2,1610612759
169,1610612760,101108,1628983,201568,203471,203500,1610612759,1626168,1627749,1627854,200746,201942,0021900113,4,2444,2455,2,0,1610612760
170,1610612760,101108,1628983,201568,203471,203500,1610612759,1626168,1627749,1627854,200746,201942,0021900113,4,2470,2470,0,3,1610612759
171,1610612760,101108,1628983,201568,203471,203500,1610612759,1626168,1627749,1627854,200746,201942,0021900113,4,2494,2494,2,0,1610612760
172,1610612760,101108,1628983,201568,203471,203500,1610612759,1626168,1627749,1627854,200746,201942,0021900113,4,2508,2508,0,0,1610612759
173,1610612760,101108,1628983,201568,203471,203500,1610612759,1626168,1627749,1627854,200746,201942,0021900113,4,2512,2512,2,0,1610612760
174,1610612760,101108,1628983,201568,203471,203500,1610612759,1626168,1627749,1627854,200746,201942,0021900113,4,2512,2531,0,0,1610612759
175,1610612760,101108,1628977,1628983,201568,203500,1610612759,1626168,1627749,1627854,200746,201942,0021900113,4,2547,2547,0,0,1610612760
176,1610612760,101108,1628977,1628983,201568,203500,1610612759,1626168,1627749,1627854,200746,201942,0021900113,4,2560,2560,0,2,1610612759
177,1610612760,101108,1628977,1628983,201568,203500,1610612759,1626168,1627749,1627854,200746,201942,0021900113,4,2581,2581,2,0,1610612760
178,1610612760,101108,1628977,1628983,201568,203500,1610612759,1626168,1627749,1627854,200746,201942,0021900113,4,2601,2601,0,2,1610612759
179,1610612760,101108,1628977,1628983,201568,203500,1610612759,1626168,1627749,1627854,200746,201942,0021900113,4,2617,2626,3,0,1610612760
180,1610612760,101108,1628977,1628983,201568,203500,1610612759,1626168,1627854,1628401,200746,201942,0021900113,4,2643,2646,0,0,1610612759
181,1610612760,101108,1628977,1628983,201568,203500,1610612759,1626168,1627854,1628401,200746,201942,0021900113,4,2655,2659,0,0,1610612760
182,1610612760,101108,1628977,1628983,201568,203500,1610612759,1626168,1627854,1628401,200746,201942,0021900113,4,2672,2672,0,2,1610612759
183,1610612760,101108,1628977,1628983,201568,203500,1610612759,1626168,1627854,1628401,200746,201942,0021900113,4,2690,2690,2,0,1610612760
184,1610612760,101108,1628977,1628983,201568,203500,1610612759,1626168,1627854,1628401,200746,201942,0021900113,4,2716,2716,0,2,1610612759
185,1610612760,101108,1628977,1628983,201568,203500,1610612759,1626168,1627854,1628401,200746,201942,0021900113,4,2737,2740,2,0,1610612760
186,1610612760,101108,1628977,1628983,201568,203500,1610612759,1626168,1627854,1628401,200746,201942,0021900113,4,2755,2755,0,2,1610612759
187,1610612760,101108,1628977,1628983,201568,203500,1610612759,1626168,1627854,1628401,200746,201942,0021900113,4,2762,2762,2,0,1610612760
188,1610612760,101108,1628977,1628983,201568,203457,1610612759,1626168,1627854,1628401,200746,201942,0021900113,4,2777,2777,0,3,1610612759
189,1610612760,101108,1628977,1628983,201568,203457,1610612759,1626168,1627854,1628401,200746,201942,0021900113,4,2788,2792,0,0,1610612760
190,1610612760,101108,1628977,1628983,201568,203457,1610612759,1626168,1627854,1628401,200746,201942,0021900113,4,2808,2824,0,0,1610612759
191,1610612760,101108,1628977,1628983,201568,203457,1610612759,1626168,1627854,1628401,200746,201942,0021900113,4,2827,2827,0,0,1610612760
192,1610612760,1628390,1628977,1628983,1629647,203457,1610612759,1626168,1627854,1628401,1629002,1629022,0021900113,4,2840,2840,0,0,1610612759
193,1610612760,1628390,1628977,1628983,1629647,203457,1610612759,1626168,1627854,1628401,1629002,1629022,0021900113,4,2844,2844,2,0,1610612760
194,1610612760,1628390,1628977,1628983,1629647,203457,1610612759,1626168,1627854,1628401,1629002,1629022,0021900113,4,2844,2872,0,0,1610612759
