,TEAM_ID_1,TEAM_1_PLAYERS,TEAM_ID_2,TEAM_2_PLAYERS,PERIOD
0,1610612737,[1629631 1628381 1628981 1628989 1629629],1610612753,[1628411 1628371  202696  203095 1628365],1
1,1610612737,[1628381 1629629  203458 1627761  203459],1610612753,[ 203095  203082 1628964  201571 1628518],2
2,1610612737,[1629631 1628381 1628981 1628989 1629629],1610612753,[1628411 1628371  202696  203095 1628365],3
3,1610612737,[1629631 1628981 1628989    1713 1627761],1610612753,[1628411  203095  203082 1628964  201571],4
