,TEAM_ID_1,TEAM_1_PLAYERS,TEAM_ID_2,TEAM_2_PLAYERS,PERIOD
0,1610612761,[1626181 1628384 1627783 1627832  200768],1610612749,[ 203114  203507  201572 1628978 1627854],1
1,1610612761,[1628384  200768 1627761 1629056  203382],1610612749,[ 203507 1628978 1627854 1626192 1626171],2
2,1610612761,[1626181 1628384 1627783 1627832  200768],1610612749,[ 203114  203507  201572 1628978 1627854],3
3,1610612761,[1626181 1628384 1627783 1627761  203382],1610612749,[ 203507 1628978 1627854 1626192 1626171],4
