,TEAM_ID_1,TEAM_1_PLAYERS,TEAM_ID_2,TEAM_2_PLAYERS,PERIOD
0,1610612740,[1629026 1626174 1626143  203546  203901],1610612758,[ 203084  202357 1626161 1627741 1628368],1
1,1610612740,[1629026  203901 1627767  203524 1629541],1610612758,[1626161 1628963  203992  201147 1627812],2
2,1610612740,[1629026 1626174 1626143  203546  203901],1610612758,[ 203084  202357 1626161 1627741 1628368],3
3,1610612740,[1626143  203546  203901 1627767  203524],1610612758,[1628963  203992  201147 1627812 1627786],4
