,TEAM_ID_1,TEAM_1_PLAYERS,TEAM_ID_2,TEAM_2_PLAYERS,PERIOD
0,1610612766,[1628970 1629023  202687 1628984 1626179],1610612761,[1628384 1627783 1626178 1626181  200768],1
1,1610612766,[1629023 1628984 1628998 1626195 1628997],1610612761,[1628384 1626178 1626181 1627775 1629744],2
2,1610612766,[1628970 1629023  202687 1628984 1626179],1610612761,[1628384 1627783 1626178 1626181  200768],3
3,1610612766,[1629023 1628984 1628998 1626195 1628997],1610612761,[1628384 1626181  200768 1628449 1627775],4
