,TEAM_ID_1,TEAM_1_PLAYERS,TEAM_ID_2,TEAM_2_PLAYERS,PERIOD
0,1610612763,[ 203937 1630533 1628991 1630217 1629630],1610612747,[1628370 1626169    2544  202340  201566],1
1,1610612763,[1628991 1630217 1629001 1629634 1626145],1610612747,[   2544  201566 1629659    2546 1630559],2
2,1610612763,[ 203937 1630533 1628991 1630217 1629630],1610612747,[1628370 1626169    2544  202340  201566],3
3,1610612763,[1628991 1630217 1629001 1629634 1626145],1610612747,[   2544  201566 1629659 1630559    2730],4
