,TEAM_ID_1,TEAM_1_PLAYERS,TEAM_ID_2,TEAM_2_PLAYERS,PERIOD
0,1610612744,[1629672 1626172 1626161  203922  202692],1610612737,[1629631  203953 1627745 1627761 1629027],1
1,1610612744,[1629672 1629065 1627737 1629673 1629016],1610612737,[ 203953  203458 1629629  202323 1627820],2
2,1610612744,[1629672 1626172 1626161  203922  202692],1610612737,[1629631  203953 1627745 1627761 1629027],3
3,1610612744,[1626172  203922  202692 1629065 1629016],1610612737,[1629631 1627745 1627761 1629027 1629629],4
