,t1_points_scored,t2_players,t1_pm,t2_id,stint_end,t1_id,t1_players,stint_start,t2_points_scored,t2_pm,margin_per_100,num_poss
0,14,"[203114, 203507, 1626171, 1628960, 201950]",7,1610612749,266,1610612766,"[1628970, 1629023, 203486, 1626179, 1630163]",0,7,-7,46.666666666666664,15.0
1,16,"[203114, 203507, 1626171, 1628960, 201950]",7,1610612749,330,1610612766,"[1628970, 1629023, 203486, 1626179, 1630163]",267,9,-7,33.33333333333333,21.0
2,16,"[1628960, 201950, 202083, 203114, 203507]",4,1610612749,375,1610612766,"[1628970, 1629023, 203486, 1626179, 1630163]",331,12,-4,17.391304347826086,23.0
3,16,"[1628960, 201950, 202083, 203114, 203507]",-1,1610612749,426,1610612766,"[1626179, 1628970, 1628998, 1630163, 203486]",376,17,1,-3.8461538461538463,26.0
4,22,"[1626171, 1628975, 202083, 203114, 203507]",3,1610612749,491,1610612766,"[1626149, 1626162, 1626179, 1628970, 1628998]",427,19,-3,9.67741935483871,31.0
5,23,"[1626171, 1628975, 201586, 202083, 203114]",0,1610612749,559,1610612766,"[1626149, 1626162, 1626179, 1628970, 1628998]",492,23,0,0.0,36.0
6,27,"[1626171, 1628975, 201586, 202083, 203114]",-1,1610612749,679,1610612766,"[1626149, 1626162, 1626179, 1628998, 1629023]",560,28,1,-2.3255813953488373,43.0
7,32,"[1626171, 1628975, 201586, 201950, 203114]",0,1610612749,719,1610612766,"[1626149, 1626162, 1628998, 1629023, 1630163]",680,32,0,0.0,47.0
8,35,"[1628975, 201586, 201950, 202083, 203507]",-6,1610612749,835,1610612766,"[1626149, 1626162, 1628970, 1629023, 1630163]",720,41,6,-11.11111111111111,54.0
9,35,"[203507, 1628960, 201950, 201586, 1629670]",-6,1610612749,878,1610612766,"[1628970, 1630163, 1626162, 1626149, 1630550]",836,41,6,-10.344827586206897,58.0
10,37,"[203507, 1628960, 201950, 201586, 1629670]",-9,1610612749,960,1610612766,"[1626149, 1626179, 1628970, 1630163, 1630550]",879,46,9,-14.0625,64.0
11,37,"[1627761, 1628960, 1629670, 201950, 203507]",-11,1610612749,1023,1610612766,"[1626149, 1626179, 1628970, 1630163, 1630550]",961,48,11,-16.417910447761194,67.0
12,39,"[1626171, 1627761, 1628960, 1629670, 201950]",-11,1610612749,1044,1610612766,"[1626179, 1628970, 1629023, 1630163, 1630550]",1024,50,11,-15.942028985507244,69.0
13,39,"[1626171, 1627761, 1628960, 1629670, 201950]",-16,1610612749,1065,1610612766,"[1626179, 1628970, 1628998, 1629023, 1630163]",1045,55,16,-21.91780821917808,73.0
14,41,"[1626171, 1627761, 201950, 202083, 203114]",-16,1610612749,1140,1610612766,"[1626179, 1628970, 1628998, 1629023, 1630163]",1066,57,16,-20.51282051282051,78.0
15,41,"[1626171, 1627761, 1628975, 202083, 203114]",-18,1610612749,1152,1610612766,"[1626179, 1628970, 1628998, 1629023, 203486]",1141,59,18,-22.78481012658228,79.0
16,44,"[1626171, 1628975, 202083, 203114, 203507]",-23,1610612749,1305,1610612766,"[1626179, 1628970, 1628998, 1629023, 203486]",1153,67,23,-25.274725274725274,91.0
17,47,"[1626171, 1628975, 202083, 203114, 203507]",-20,1610612749,1328,1610612766,"[1626162, 1626179, 1628998, 1629023, 203486]",1306,67,20,-21.50537634408602,93.0
18,47,"[1628975, 201586, 202083, 203114, 203507]",-20,1610612749,1343,1610612766,"[1626162, 1626179, 1629023, 1630163, 203486]",1329,67,20,-21.27659574468085,94.0
19,51,"[1628975, 201586, 201950, 203114, 203507]",-21,1610612749,1401,1610612766,"[1626162, 1626179, 1629023, 1630163, 203486]",1344,72,21,-21.428571428571427,98.0
20,51,"[1628975, 201586, 201950, 203114, 203507]",-23,1610612749,1409,1610612766,"[1626149, 1626162, 1626179, 1629023, 1630163]",1402,74,23,-23.232323232323232,99.0
21,53,"[1627761, 201586, 201950, 203114, 203507]",-23,1610612749,1439,1610612766,"[1626149, 1626162, 1626179, 1629023, 1630163]",1410,76,23,-22.772277227722775,101.0
22,64,"[1628960, 201950, 202083, 203114, 203507]",-29,1610612749,1709,1610612766,"[1626149, 1626162, 1626179, 1629023, 1630163]",1440,93,29,-23.96694214876033,121.0
23,66,"[203114, 203507, 1626171, 1628960, 201950]",-30,1610612749,1785,1610612766,"[1628970, 1629023, 203486, 1626179, 1630163]",1710,96,30,-23.62204724409449,127.0
24,66,"[1628960, 201950, 202083, 203114, 203507]",-32,1610612749,1809,1610612766,"[1628970, 1629023, 203486, 1626179, 1630163]",1786,98,32,-24.8062015503876,129.0
25,72,"[1626171, 1628975, 202083, 203114, 203507]",-28,1610612749,1978,1610612766,"[1626149, 1626162, 1626179, 1628998, 1629023]",1810,100,28,-19.858156028368796,141.0
26,74,"[1626171, 1628975, 201586, 202083, 203114]",-28,1610612749,2007,1610612766,"[1626149, 1626162, 1626179, 1628998, 1629023]",1979,102,28,-19.58041958041958,143.0
27,76,"[1627761, 1628975, 201586, 202083, 203114]",-30,1610612749,2132,1610612766,"[1626149, 1626162, 1628998, 1629023, 1630163]",2008,106,30,-19.867549668874172,151.0
28,76,"[1627761, 1628975, 201586, 201950, 203507]",-30,1610612749,2152,1610612766,"[1626149, 1626162, 1628998, 1630163, 1630550]",2133,106,30,-19.607843137254903,153.0
29,76,"[1627761, 1629670, 201950, 202083, 203507]",-32,1610612749,2159,1610612766,"[1626149, 1626162, 1628998, 1630163, 1630550]",2153,108,32,-20.51282051282051,156.0
30,79,"[1627761, 1628975, 1629670, 202083, 203507]",-32,1610612749,2237,1610612766,"[1626149, 1626162, 1628998, 1630163, 1630550]",2160,111,32,-20.0,160.0
31,81,"[203507, 1628975, 201586, 1629670, 1627761]",-32,1610612749,2289,1610612766,"[1628970, 1626179, 1626162, 1626149, 1630550]",2238,113,32,-19.393939393939394,165.0
32,81,"[1627761, 1628975, 1629670, 203507, 203648]",-34,1610612749,2310,1610612766,"[1628970, 1626179, 1626162, 1626149, 1630550]",2290,115,34,-20.481927710843372,166.0
33,88,"[1627761, 1629623, 1629670, 203507, 203648]",-30,1610612749,2440,1610612766,"[1628970, 1626179, 1626162, 1626149, 1630550]",2311,118,30,-17.24137931034483,174.0
34,94,"[1627761, 1628975, 1629623, 1629670, 203648]",-27,1610612749,2632,1610612766,"[1628970, 1626179, 1626162, 1626149, 1630550]",2441,121,27,-14.594594594594595,185.0
35,104,"[1627761, 1628975, 1629623, 1629670, 203648]",-24,1610612749,2848,1610612766,"[1626149, 1626162, 1626179, 1628970, 1630539]",2633,128,24,-11.940298507462686,201.0
36,106,"[1627761, 1628975, 1629623, 1629670, 203648]",-24,1610612749,9999999,1610612766,"[1626162, 1629023, 1630163, 1630539, 1630550]",2849,130,24,-11.822660098522167,203.0
