,team1_id,team1_player1,team1_player2,team1_player3,team1_player4,team1_player5,team2_id,team2_player1,team2_player2,team2_player3,team2_player4,team2_player5,game_id,period,possession_start,possession_end,team1_points,team2_points,possession_team
0,1610612766,1628970,1629023,203486,1626179,1630163,1610612749,203114,203507,1626171,1628960,201950,0022100924,1,0,19,3,0,1610612766
1,1610612766,1628970,1629023,203486,1626179,1630163,1610612749,203114,203507,1626171,1628960,201950,0022100924,1,31,31,0,0,1610612749
2,1610612766,1628970,1629023,203486,1626179,1630163,1610612749,203114,203507,1626171,1628960,201950,0022100924,1,37,53,0,0,1610612766
3,1610612766,1628970,1629023,203486,1626179,1630163,1610612749,203114,203507,1626171,1628960,201950,0022100924,1,68,68,0,2,1610612749
4,1610612766,1628970,1629023,203486,1626179,1630163,1610612749,203114,203507,1626171,1628960,201950,0022100924,1,82,82,3,0,1610612766
5,1610612766,1628970,1629023,203486,1626179,1630163,1610612749,203114,203507,1626171,1628960,201950,0022100924,1,102,105,0,0,1610612749
6,1610612766,1628970,1629023,203486,1626179,1630163,1610612749,203114,203507,1626171,1628960,201950,0022100924,1,112,112,3,0,1610612766
7,1610612766,1628970,1629023,203486,1626179,1630163,1610612749,203114,203507,1626171,1628960,201950,0022100924,1,123,123,0,3,1610612749
8,1610612766,1628970,1629023,203486,1626179,1630163,1610612749,203114,203507,1626171,1628960,201950,0022100924,1,132,152,0,0,1610612766
9,1610612766,1628970,1629023,203486,1626179,1630163,1610612749,203114,203507,1626171,1628960,201950,0022100924,1,160,176,0,2,1610612749
10,1610612766,1628970,1629023,203486,1626179,1630163,1610612749,203114,203507,1626171,1628960,201950,0022100924,1,194,194,3,0,1610612766
11,1610612766,1628970,1629023,203486,1626179,1630163,1610612749,203114,203507,1626171,1628960,201950,0022100924,1,207,209,0,0,1610612749
12,1610612766,1628970,1629023,203486,1626179,1630163,1610612749,203114,203507,1626171,1628960,201950,0022100924,1,217,217,2,0,1610612766
13,1610612766,1628970,1629023,203486,1626179,1630163,1610612749,203114,203507,1626171,1628960,201950,0022100924,1,234,237,0,0,1610612749
14,1610612766,1628970,1629023,203486,1626179,1630163,1610612749,203114,203507,1626171,1628960,201950,0022100924,1,257,261,0,0,1610612766
15,1610612766,1628970,1629023,203486,1626179,1630163,1610612749,203114,203507,1626171,1628960,201950,0022100924,1,267,273,0,2,1610612749
16,1610612766,1628970,1629023,203486,1626179,1630163,1610612749,1628960,201950,202083,203114,203507,0022100924,1,288,288,2,0,1610612766
17,1610612766,1628970,1629023,203486,1626179,1630163,1610612749,1628960,201950,202083,203114,203507,0022100924,1,297,300,0,0,1610612749
18,1610612766,1628970,1629023,203486,1626179,1630163,1610612749,1628960,201950,202083,203114,203507,0022100924,1,308,310,0,0,1610612766
19,1610612766,1628970,1629023,203486,1626179,1630163,1610612749,1628960,201950,202083,203114,203507,0022100924,1,314,316,0,0,1610612749
20,1610612766,1628970,1629023,203486,1626179,1630163,1610612749,1628960,201950,202083,203114,203507,0022100924,1,324,324,0,0,1610612766
21,1610612766,1628970,1629023,203486,1626179,1630163,1610612749,1628960,201950,202083,203114,203507,0022100924,1,331,347,0,3,1610612749
22,1610612766,1626179,1628970,1628998,1630163,203486,1610612749,1628960,201950,202083,203114,203507,0022100924,1,370,374,0,0,1610612766
23,1610612766,1626179,1628970,1628998,1630163,203486,1610612749,1628960,201950,202083,203114,203507,0022100924,1,376,376,0,2,1610612749
24,1610612766,1626179,1628970,1628998,1630163,203486,1610612749,1628960,201950,202083,203114,203507,0022100924,1,376,388,0,0,1610612766
25,1610612766,1626149,1626162,1626179,1628970,1628998,1610612749,1626171,1628975,202083,203114,203507,0022100924,1,405,405,0,3,1610612749
26,1610612766,1626149,1626162,1626179,1628970,1628998,1610612749,1626171,1628975,202083,203114,203507,0022100924,1,427,430,0,0,1610612766
27,1610612766,1626149,1626162,1626179,1628970,1628998,1610612749,1626171,1628975,201586,202083,203114,0022100924,1,440,440,0,2,1610612749
28,1610612766,1626149,1626162,1626179,1628970,1628998,1610612749,1626171,1628975,201586,202083,203114,0022100924,1,455,455,3,0,1610612766
29,1610612766,1626149,1626162,1626179,1628970,1628998,1610612749,1626171,1628975,201586,202083,203114,0022100924,1,472,474,0,0,1610612749
30,1610612766,1626149,1626162,1626179,1628970,1628998,1610612749,1626171,1628975,201586,202083,203114,0022100924,1,483,483,3,0,1610612766
31,1610612766,1626149,1626162,1626179,1628970,1628998,1610612749,1626171,1628975,201586,202083,203114,0022100924,1,492,492,0,0,1610612749
32,1610612766,1626149,1626162,1626179,1628970,1628998,1610612749,1626171,1628975,201586,202083,203114,0022100924,1,492,507,1,0,1610612766
33,1610612766,1626149,1626162,1626179,1628998,1629023,1610612749,1626171,1628975,201586,202083,203114,0022100924,1,509,509,0,2,1610612749
34,1610612766,1626149,1626162,1626179,1628998,1629023,1610612749,1626171,1628975,201586,202083,203114,0022100924,1,509,531,0,0,1610612766
35,1610612766,1626149,1626162,1626179,1628998,1629023,1610612749,1626171,1628975,201586,202083,203114,0022100924,1,550,550,0,2,1610612749
36,1610612766,1626149,1626162,1626179,1628998,1629023,1610612749,1626171,1628975,201586,202083,203114,0022100924,1,560,580,0,0,1610612766
37,1610612766,1626149,1626162,1628998,1629023,1630163,1610612749,1626171,1628975,201586,201950,203114,0022100924,1,587,602,0,2,1610612749
38,1610612766,1626149,1626162,1628998,1629023,1630163,1610612749,1626171,1628975,201586,201950,203114,0022100924,1,609,609,2,0,1610612766
39,1610612766,1626149,1626162,1628998,1629023,1630163,1610612749,1626171,1628975,201586,201950,203114,0022100924,1,626,629,0,0,1610612749
40,1610612766,1626149,1626162,1628998,1629023,1630163,1610612749,1626171,1628975,201586,201950,203114,0022100924,1,638,641,0,0,1610612766
41,1610612766,1626149,1626162,1628998,1629023,1630163,1610612749,1626171,1628975,201586,201950,203114,0022100924,1,650,650,0,3,1610612749
42,1610612766,1626149,1626162,1628998,1629023,1630163,1610612749,1626171,1628975,201586,201950,203114,0022100924,1,667,667,2,0,1610612766
43,1610612766,1626149,1626162,1628998,1629023,1630163,1610612749,1626171,1628975,201586,201950,203114,0022100924,1,680,680,0,2,1610612749
44,1610612766,1626149,1626162,1628970,1629023,1630163,1610612749,1628975,201586,201950,202083,203507,0022100924,1,687,687,2,0,1610612766
45,1610612766,1626149,1626162,1628970,1629023,1630163,1610612749,1628975,201586,201950,202083,203507,0022100924,1,692,696,0,2,1610612749
46,1610612766,1626149,1626162,1628970,1629023,1630163,1610612749,1628975,201586,201950,202083,203507,0022100924,1,714,714,3,0,1610612766
47,1610612766,1626149,1626162,1628970,1629023,1630163,1610612749,1628975,201586,201950,202083,203507,0022100924,1,720,720,0,0,1610612766
48,1610612766,1628970,1630163,1626162,1626149,1630550,1610612749,203507,1628960,201950,201586,1629670,0022100924,2,720,745,0,3,1610612749
49,1610612766,1628970,1630163,1626162,1626149,1630550,1610612749,203507,1628960,201950,201586,1629670,0022100924,2,754,757,0,0,1610612766
50,1610612766,1628970,1630163,1626162,1626149,1630550,1610612749,203507,1628960,201950,201586,1629670,0022100924,2,762,762,0,3,1610612749
51,1610612766,1628970,1630163,1626162,1626149,1630550,1610612749,203507,1628960,201950,201586,1629670,0022100924,2,763,783,0,0,1610612766
52,1610612766,1628970,1630163,1626162,1626149,1630550,1610612749,203507,1628960,201950,201586,1629670,0022100924,2,791,791,0,3,1610612749
53,1610612766,1628970,1630163,1626162,1626149,1630550,1610612749,203507,1628960,201950,201586,1629670,0022100924,2,813,813,3,0,1610612766
54,1610612766,1628970,1630163,1626162,1626149,1630550,1610612749,203507,1628960,201950,201586,1629670,0022100924,2,836,836,0,0,1610612749
55,1610612766,1626149,1626179,1628970,1630163,1630550,1610612749,203507,1628960,201950,201586,1629670,0022100924,2,851,854,0,0,1610612766
56,1610612766,1626149,1626179,1628970,1630163,1630550,1610612749,203507,1628960,201950,201586,1629670,0022100924,2,864,867,0,0,1610612749
57,1610612766,1626149,1626179,1628970,1630163,1630550,1610612749,203507,1628960,201950,201586,1629670,0022100924,2,874,877,0,0,1610612766
58,1610612766,1626149,1626179,1628970,1630163,1630550,1610612749,203507,1628960,201950,201586,1629670,0022100924,2,879,891,0,0,1610612749
59,1610612766,1626149,1626179,1628970,1630163,1630550,1610612749,1627761,1628960,1629670,201950,203507,0022100924,2,894,894,0,0,1610612766
60,1610612766,1626149,1626179,1628970,1630163,1630550,1610612749,1627761,1628960,1629670,201950,203507,0022100924,2,894,908,0,3,1610612749
61,1610612766,1626149,1626179,1628970,1630163,1630550,1610612749,1627761,1628960,1629670,201950,203507,0022100924,2,925,929,0,0,1610612766
62,1610612766,1626149,1626179,1628970,1630163,1630550,1610612749,1627761,1628960,1629670,201950,203507,0022100924,2,931,931,0,2,1610612749
63,1610612766,1626149,1626179,1628970,1630163,1630550,1610612749,1627761,1628960,1629670,201950,203507,0022100924,2,946,951,2,0,1610612766
64,1610612766,1626149,1626179,1628970,1630163,1630550,1610612749,1627761,1628960,1629670,201950,203507,0022100924,2,961,969,0,2,1610612749
65,1610612766,1626179,1628970,1629023,1630163,1630550,1610612749,1626171,1627761,1628960,1629670,201950,0022100924,2,980,999,0,0,1610612766
66,1610612766,1626179,1628970,1629023,1630163,1630550,1610612749,1626171,1627761,1628960,1629670,201950,0022100924,2,1015,1017,0,0,1610612749
67,1610612766,1626179,1628970,1629023,1630163,1630550,1610612749,1626171,1627761,1628960,1629670,201950,0022100924,2,1024,1024,2,0,1610612766
68,1610612766,1626179,1628970,1628998,1629023,1630163,1610612749,1626171,1627761,1628960,1629670,201950,0022100924,2,1036,1036,0,2,1610612749
69,1610612766,1626179,1628970,1628998,1629023,1630163,1610612749,1626171,1627761,1628960,1629670,201950,0022100924,2,1045,1045,0,0,1610612766
70,1610612766,1626179,1628970,1628998,1629023,1630163,1610612749,1626171,1627761,1628960,1629670,201950,0022100924,2,1045,1045,0,2,1610612749
71,1610612766,1626179,1628970,1628998,1629023,1630163,1610612749,1626171,1627761,201950,202083,203114,0022100924,2,1057,1059,0,0,1610612766
72,1610612766,1626179,1628970,1628998,1629023,1630163,1610612749,1626171,1627761,201950,202083,203114,0022100924,2,1065,1065,0,3,1610612749
73,1610612766,1626179,1628970,1628998,1629023,1630163,1610612749,1626171,1627761,201950,202083,203114,0022100924,2,1066,1091,0,0,1610612766
74,1610612766,1626179,1628970,1628998,1629023,203486,1610612749,1626171,1627761,1628975,202083,203114,0022100924,2,1095,1095,0,2,1610612749
75,1610612766,1626179,1628970,1628998,1629023,203486,1610612749,1626171,1627761,1628975,202083,203114,0022100924,2,1114,1120,2,0,1610612766
76,1610612766,1626179,1628970,1628998,1629023,203486,1610612749,1626171,1627761,1628975,202083,203114,0022100924,2,1133,1136,0,0,1610612749
77,1610612766,1626179,1628970,1628998,1629023,203486,1610612749,1626171,1627761,1628975,202083,203114,0022100924,2,1137,1139,0,0,1610612766
78,1610612766,1626179,1628970,1628998,1629023,203486,1610612749,1626171,1627761,1628975,202083,203114,0022100924,2,1141,1141,0,2,1610612749
79,1610612766,1626179,1628970,1628998,1629023,203486,1610612749,1626171,1628975,202083,203114,203507,0022100924,2,1153,1153,0,0,1610612766
80,1610612766,1626162,1626179,1628998,1629023,203486,1610612749,1626171,1628975,202083,203114,203507,0022100924,2,1161,1161,0,0,1610612749
81,1610612766,1626162,1626179,1628998,1629023,203486,1610612749,1626171,1628975,202083,203114,203507,0022100924,2,1177,1184,0,0,1610612766
82,1610612766,1626162,1626179,1628998,1629023,203486,1610612749,1626171,1628975,202083,203114,203507,0022100924,2,1188,1188,0,3,1610612749
83,1610612766,1626162,1626179,1628998,1629023,203486,1610612749,1626171,1628975,202083,203114,203507,0022100924,2,1203,1203,3,0,1610612766
84,1610612766,1626162,1626179,1628998,1629023,203486,1610612749,1626171,1628975,202083,203114,203507,0022100924,2,1223,1223,0,0,1610612749
85,1610612766,1626162,1626179,1628998,1629023,203486,1610612749,1626171,1628975,202083,203114,203507,0022100924,2,1223,1223,0,0,1610612766
86,1610612766,1626162,1626179,1628998,1629023,203486,1610612749,1626171,1628975,202083,203114,203507,0022100924,2,1223,1249,0,0,1610612749
87,1610612766,1626162,1626179,1628998,1629023,203486,1610612749,1626171,1628975,202083,203114,203507,0022100924,2,1254,1258,0,0,1610612766
88,1610612766,1626162,1626179,1628998,1629023,203486,1610612749,1626171,1628975,202083,203114,203507,0022100924,2,1264,1264,0,2,1610612749
89,1610612766,1626162,1626179,1628998,1629023,203486,1610612749,1626171,1628975,202083,203114,203507,0022100924,2,1276,1279,0,0,1610612766
90,1610612766,1626162,1626179,1628998,1629023,203486,1610612749,1626171,1628975,202083,203114,203507,0022100924,2,1294,1294,0,3,1610612749
91,1610612766,1626162,1626179,1628998,1629023,203486,1610612749,1626171,1628975,202083,203114,203507,0022100924,2,1306,1306,3,0,1610612766
92,1610612766,1626162,1626179,1629023,1630163,203486,1610612749,1628975,201586,202083,203114,203507,0022100924,2,1317,1317,0,0,1610612749
93,1610612766,1626162,1626179,1629023,1630163,203486,1610612749,1628975,201586,202083,203114,203507,0022100924,2,1329,1329,0,0,1610612766
94,1610612766,1626162,1626179,1629023,1630163,203486,1610612749,1628975,201586,201950,203114,203507,0022100924,2,1344,1347,0,2,1610612749
95,1610612766,1626149,1626162,1626179,1629023,1630163,1610612749,1628975,201586,201950,203114,203507,0022100924,2,1361,1361,2,0,1610612766
96,1610612766,1626149,1626162,1626179,1629023,1630163,1610612749,1628975,201586,201950,203114,203507,0022100924,2,1371,1371,0,3,1610612749
97,1610612766,1626149,1626162,1626179,1629023,1630163,1610612749,1628975,201586,201950,203114,203507,0022100924,2,1395,1395,2,0,1610612766
98,1610612766,1626149,1626162,1626179,1629023,1630163,1610612749,1628975,201586,201950,203114,203507,0022100924,2,1402,1402,0,2,1610612749
99,1610612766,1626149,1626162,1626179,1629023,1630163,1610612749,1627761,201586,201950,203114,203507,0022100924,2,1410,1410,2,0,1610612766
100,1610612766,1626149,1626162,1626179,1629023,1630163,1610612749,1628960,201950,202083,203114,203507,0022100924,2,1433,1433,0,2,1610612749
101,1610612766,1626149,1626162,1626179,1629023,1630163,1610612749,1628960,201950,202083,203114,203507,0022100924,2,1440,1440,0,0,1610612766
102,1610612766,1626149,1626162,1626179,1629023,1630163,1610612749,1628960,201950,202083,203114,203507,0022100924,2,1440,1440,0,0,1610612766
103,1610612766,1628970,1629023,203486,1626179,1630163,1610612749,203114,203507,1626171,1628960,201950,0022100924,3,1440,1455,0,3,1610612749
104,1610612766,1628970,1629023,203486,1626179,1630163,1610612749,203114,203507,1626171,1628960,201950,0022100924,3,1478,1485,0,0,1610612766
105,1610612766,1628970,1629023,203486,1626179,1630163,1610612749,203114,203507,1626171,1628960,201950,0022100924,3,1487,1490,0,0,1610612749
106,1610612766,1628970,1629023,203486,1626179,1630163,1610612749,203114,203507,1626171,1628960,201950,0022100924,3,1498,1501,0,0,1610612766
107,1610612766,1628970,1629023,203486,1626179,1630163,1610612749,203114,203507,1626171,1628960,201950,0022100924,3,1503,1503,0,2,1610612749
108,1610612766,1628970,1629023,203486,1626179,1630163,1610612749,203114,203507,1626171,1628960,201950,0022100924,3,1523,1533,3,0,1610612766
109,1610612766,1628970,1629023,203486,1626179,1630163,1610612749,203114,203507,1626171,1628960,201950,0022100924,3,1544,1544,0,3,1610612749
110,1610612766,1628970,1629023,203486,1626179,1630163,1610612749,203114,203507,1626171,1628960,201950,0022100924,3,1560,1564,0,0,1610612766
111,1610612766,1628970,1629023,203486,1626179,1630163,1610612749,203114,203507,1626171,1628960,201950,0022100924,3,1568,1571,0,0,1610612749
112,1610612766,1628970,1629023,203486,1626179,1630163,1610612749,203114,203507,1626171,1628960,201950,0022100924,3,1580,1580,2,0,1610612766
113,1610612766,1628970,1629023,203486,1626179,1630163,1610612749,203114,203507,1626171,1628960,201950,0022100924,3,1596,1596,0,0,1610612749
114,1610612766,1628970,1629023,203486,1626179,1630163,1610612749,203114,203507,1626171,1628960,201950,0022100924,3,1601,1601,3,0,1610612766
115,1610612766,1628970,1629023,203486,1626179,1630163,1610612749,203114,203507,1626171,1628960,201950,0022100924,3,1601,1616,0,3,1610612749
116,1610612766,1628970,1629023,203486,1626179,1630163,1610612749,203114,203507,1626171,1628960,201950,0022100924,3,1626,1640,1,0,1610612766
117,1610612766,1628970,1629023,203486,1626179,1630163,1610612749,203114,203507,1626171,1628960,201950,0022100924,3,1650,1650,0,3,1610612749
118,1610612766,1628970,1629023,203486,1626179,1630163,1610612749,203114,203507,1626171,1628960,201950,0022100924,3,1658,1658,2,0,1610612766
119,1610612766,1628970,1629023,203486,1626179,1630163,1610612749,203114,203507,1626171,1628960,201950,0022100924,3,1676,1680,0,3,1610612749
120,1610612766,1628970,1629023,203486,1626179,1630163,1610612749,203114,203507,1626171,1628960,201950,0022100924,3,1697,1702,0,0,1610612766
121,1610612766,1628970,1629023,203486,1626179,1630163,1610612749,203114,203507,1626171,1628960,201950,0022100924,3,1710,1710,0,3,1610612749
122,1610612766,1628970,1629023,203486,1626179,1630163,1610612749,1628960,201950,202083,203114,203507,0022100924,3,1718,1720,0,0,1610612766
123,1610612766,1628970,1629023,203486,1626179,1630163,1610612749,1628960,201950,202083,203114,203507,0022100924,3,1724,1724,0,0,1610612749
124,1610612766,1628970,1629023,203486,1626179,1630163,1610612749,1628960,201950,202083,203114,203507,0022100924,3,1735,1738,0,0,1610612766
125,1610612766,1628970,1629023,203486,1626179,1630163,1610612749,1628960,201950,202083,203114,203507,0022100924,3,1754,1759,0,0,1610612749
126,1610612766,1628970,1629023,203486,1626179,1630163,1610612749,1628960,201950,202083,203114,203507,0022100924,3,1770,1770,2,0,1610612766
127,1610612766,1628970,1629023,203486,1626179,1630163,1610612749,1628960,201950,202083,203114,203507,0022100924,3,1786,1786,0,2,1610612749
128,1610612766,1626149,1626162,1626179,1628998,1629023,1610612749,1626171,1628975,202083,203114,203507,0022100924,3,1801,1804,0,0,1610612766
129,1610612766,1626149,1626162,1626179,1628998,1629023,1610612749,1626171,1628975,202083,203114,203507,0022100924,3,1810,1816,0,0,1610612749
130,1610612766,1626149,1626162,1626179,1628998,1629023,1610612749,1626171,1628975,201586,202083,203114,0022100924,3,1819,1819,1,0,1610612766
131,1610612766,1626149,1626162,1626179,1628998,1629023,1610612749,1626171,1628975,201586,202083,203114,0022100924,3,1837,1840,0,0,1610612749
132,1610612766,1626149,1626162,1626179,1628998,1629023,1610612749,1626171,1628975,201586,202083,203114,0022100924,3,1851,1851,2,0,1610612766
133,1610612766,1626149,1626162,1626179,1628998,1629023,1610612749,1626171,1628975,201586,202083,203114,0022100924,3,1867,1879,0,2,1610612749
134,1610612766,1626149,1626162,1626179,1628998,1629023,1610612749,1626171,1628975,201586,202083,203114,0022100924,3,1901,1905,0,0,1610612766
135,1610612766,1626149,1626162,1626179,1628998,1629023,1610612749,1626171,1628975,201586,202083,203114,0022100924,3,1916,1919,0,0,1610612749
136,1610612766,1626149,1626162,1626179,1628998,1629023,1610612749,1626171,1628975,201586,202083,203114,0022100924,3,1926,1931,0,0,1610612766
137,1610612766,1626149,1626162,1626179,1628998,1629023,1610612749,1626171,1628975,201586,202083,203114,0022100924,3,1942,1945,0,0,1610612749
138,1610612766,1626149,1626162,1626179,1628998,1629023,1610612749,1626171,1628975,201586,202083,203114,0022100924,3,1952,1952,3,0,1610612766
139,1610612766,1626149,1626162,1626179,1628998,1629023,1610612749,1626171,1628975,201586,202083,203114,0022100924,3,1964,1967,0,0,1610612749
140,1610612766,1626149,1626162,1626179,1628998,1629023,1610612749,1626171,1628975,201586,202083,203114,0022100924,3,1973,1976,0,0,1610612766
141,1610612766,1626149,1626162,1626179,1628998,1629023,1610612749,1626171,1628975,201586,202083,203114,0022100924,3,1979,1979,0,2,1610612749
142,1610612766,1626149,1626162,1628998,1629023,1630163,1610612749,1627761,1628975,201586,202083,203114,0022100924,3,1993,1993,2,0,1610612766
143,1610612766,1626149,1626162,1628998,1629023,1630163,1610612749,1627761,1628975,201586,202083,203114,0022100924,3,2008,2008,0,0,1610612749
144,1610612766,1626149,1626162,1628998,1629023,1630163,1610612749,1627761,1628975,201586,202083,203114,0022100924,3,2008,2016,2,0,1610612766
145,1610612766,1626149,1626162,1628998,1630163,1630550,1610612749,1627761,1628975,201586,201950,203507,0022100924,3,2036,2039,0,0,1610612749
146,1610612766,1626149,1626162,1628998,1630163,1630550,1610612749,1627761,1628975,201586,201950,203507,0022100924,3,2044,2047,0,0,1610612766
147,1610612766,1626149,1626162,1628998,1630163,1630550,1610612749,1627761,1628975,201586,201950,203507,0022100924,3,2060,2060,0,2,1610612749
148,1610612766,1626149,1626162,1628998,1630163,1630550,1610612749,1627761,1628975,201586,201950,203507,0022100924,3,2090,2093,0,0,1610612766
149,1610612766,1626149,1626162,1628998,1630163,1630550,1610612749,1627761,1628975,201586,201950,203507,0022100924,3,2111,2111,0,2,1610612749
150,1610612766,1626149,1626162,1628998,1630163,1630550,1610612749,1627761,1628975,201586,201950,203507,0022100924,3,2121,2124,0,0,1610612766
151,1610612766,1626149,1626162,1628998,1630163,1630550,1610612749,1627761,1628975,201586,201950,203507,0022100924,3,2133,2133,0,0,1610612749
152,1610612766,1626149,1626162,1628998,1630163,1630550,1610612749,1627761,1629670,201950,202083,203507,0022100924,3,2149,2152,0,0,1610612766
153,1610612766,1626149,1626162,1628998,1630163,1630550,1610612749,1627761,1629670,201950,202083,203507,0022100924,3,2153,2153,0,2,1610612749
154,1610612766,1626149,1626162,1628998,1630163,1630550,1610612749,1627761,1628975,1629670,202083,203507,0022100924,3,2154,2154,0,0,1610612766
155,1610612766,1626149,1626162,1628998,1630163,1630550,1610612749,1627761,1628975,1629670,202083,203507,0022100924,3,2155,2157,0,0,1610612749
156,1610612766,1626149,1626162,1628998,1630163,1630550,1610612749,1627761,1628975,1629670,202083,203507,0022100924,3,2160,2181,0,0,1610612766
157,1610612766,1628970,1626179,1626162,1626149,1630550,1610612749,203507,1628975,201586,1629670,1627761,0022100924,4,2196,2196,0,3,1610612749
158,1610612766,1628970,1626179,1626162,1626149,1630550,1610612749,203507,1628975,201586,1629670,1627761,0022100924,4,2213,2213,3,0,1610612766
159,1610612766,1628970,1626179,1626162,1626149,1630550,1610612749,203507,1628975,201586,1629670,1627761,0022100924,4,2227,2227,0,0,1610612749
160,1610612766,1628970,1626179,1626162,1626149,1630550,1610612749,203507,1628975,201586,1629670,1627761,0022100924,4,2238,2238,2,0,1610612766
161,1610612766,1628970,1626179,1626162,1626149,1630550,1610612749,1627761,1628975,1629670,203507,203648,0022100924,4,2257,2263,0,0,1610612749
162,1610612766,1628970,1626179,1626162,1626149,1630550,1610612749,1627761,1628975,1629670,203507,203648,0022100924,4,2266,2271,0,0,1610612766
163,1610612766,1628970,1626179,1626162,1626149,1630550,1610612749,1627761,1628975,1629670,203507,203648,0022100924,4,2271,2271,0,2,1610612749
164,1610612766,1628970,1626179,1626162,1626149,1630550,1610612749,1627761,1628975,1629670,203507,203648,0022100924,4,2284,2287,0,0,1610612766
165,1610612766,1628970,1626179,1626162,1626149,1630550,1610612749,1627761,1628975,1629670,203507,203648,0022100924,4,2290,2290,0,2,1610612749
166,1610612766,1628970,1626179,1626162,1626149,1630550,1610612749,1627761,1629623,1629670,203507,203648,0022100924,4,2311,2311,2,0,1610612766
167,1610612766,1628970,1626179,1626162,1626149,1630550,1610612749,1627761,1628975,1629623,1629670,203648,0022100924,4,2327,2331,0,0,1610612749
168,1610612766,1628970,1626179,1626162,1626149,1630550,1610612749,1627761,1628975,1629623,1629670,203648,0022100924,4,2343,2343,0,0,1610612766
169,1610612766,1628970,1626179,1626162,1626149,1630550,1610612749,1627761,1628975,1629623,1629670,203648,0022100924,4,2353,2356,0,0,1610612749
170,1610612766,1628970,1626179,1626162,1626149,1630550,1610612749,1627761,1628975,1629623,1629670,203648,0022100924,4,2370,2372,2,0,1610612766
171,1610612766,1628970,1626179,1626162,1626149,1630550,1610612749,1627761,1628975,1629623,1629670,203648,0022100924,4,2399,2402,0,0,1610612749
172,1610612766,1628970,1626179,1626162,1626149,1630550,1610612749,1627761,1628975,1629623,1629670,203648,0022100924,4,2405,2405,3,0,1610612766
173,1610612766,1628970,1626179,1626162,1626149,1630550,1610612749,1627761,1628975,1629623,1629670,203648,0022100924,4,2422,2422,0,3,1610612749
174,1610612766,1628970,1626179,1626162,1626149,1630550,1610612749,1627761,1628975,1629623,1629670,203648,0022100924,4,2441,2451,1,0,1610612766
175,1610612766,1626149,1626162,1626179,1628970,1630539,1610612749,1627761,1628975,1629623,1629670,203648,0022100924,4,2465,2465,0,0,1610612749
176,1610612766,1626149,1626162,1626179,1628970,1630539,1610612749,1627761,1628975,1629623,1629670,203648,0022100924,4,2465,2490,0,0,1610612766
177,1610612766,1626149,1626162,1626179,1628970,1630539,1610612749,1627761,1628975,1629623,1629670,203648,0022100924,4,2502,2506,0,1,1610612749
178,1610612766,1626149,1626162,1626179,1628970,1630539,1610612749,1627761,1628975,1629623,1629670,203648,0022100924,4,2529,2534,0,0,1610612766
179,1610612766,1626149,1626162,1626179,1628970,1630539,1610612749,1627761,1628975,1629623,1629670,203648,0022100924,4,2541,2544,0,0,1610612749
180,1610612766,1626149,1626162,1626179,1628970,1630539,1610612749,1627761,1628975,1629623,1629670,203648,0022100924,4,2547,2547,2,0,1610612766
181,1610612766,1626149,1626162,1626179,1628970,1630539,1610612749,1627761,1628975,1629623,1629670,203648,0022100924,4,2570,2573,0,0,1610612749
182,1610612766,1626149,1626162,1626179,1628970,1630539,1610612749,1627761,1628975,1629623,1629670,203648,0022100924,4,2584,2584,3,0,1610612766
183,1610612766,1626149,1626162,1626179,1628970,1630539,1610612749,1627761,1628975,1629623,1629670,203648,0022100924,4,2599,2599,0,2,1610612749
184,1610612766,1626149,1626162,1626179,1628970,1630539,1610612749,1627761,1628975,1629623,1629670,203648,0022100924,4,2612,2616,0,0,1610612766
185,1610612766,1626149,1626162,1626179,1628970,1630539,1610612749,1627761,1628975,1629623,1629670,203648,0022100924,4,2632,2633,0,2,1610612749
186,1610612766,1626149,1626162,1626179,1628970,1630539,1610612749,1627761,1628975,1629623,1629670,203648,0022100924,4,2633,2653,2,0,1610612766
187,1610612766,1626162,1629023,1630163,1630539,1630550,1610612749,1627761,1628975,1629623,1629670,203648,0022100924,4,2653,2671,0,0,1610612749
188,1610612766,1626162,1629023,1630163,1630539,1630550,1610612749,1627761,1628975,1629623,1629670,203648,0022100924,4,2676,2679,0,0,1610612766
189,1610612766,1626162,1629023,1630163,1630539,1630550,1610612749,1627761,1628975,1629623,1629670,203648,0022100924,4,2689,2689,0,2,1610612749
190,1610612766,1626162,1629023,1630163,1630539,1630550,1610612749,1627761,1628975,1629623,1629670,203648,0022100924,4,2702,2715,2,0,1610612766
191,1610612766,1626162,1629023,1630163,1630539,1630550,1610612749,1627761,1628975,1629623,1629670,203648,0022100924,4,2730,2730,0,0,1610612749
192,1610612766,1626162,1629023,1630163,1630539,1630550,1610612749,1627761,1628975,1629623,1629670,203648,0022100924,4,2736,2736,2,0,1610612766
193,1610612766,1626162,1629023,1630163,1630539,1630550,1610612749,1627761,1628975,1629623,1629670,203648,0022100924,4,2754,2754,0,0,1610612749
194,1610612766,1626162,1629023,1630163,1630539,1630550,1610612749,1627761,1628975,1629623,1629670,203648,0022100924,4,2761,2761,2,0,1610612766
195,1610612766,1626162,1629023,1630163,1630539,1630550,1610612749,1627761,1628975,1629623,1629670,203648,0022100924,4,2767,2767,0,2,1610612749
196,1610612766,1626162,1629023,1630163,1630539,1630550,1610612749,1627761,1628975,1629623,1629670,203648,0022100924,4,2788,2788,0,0,1610612766
197,1610612766,1626162,1629023,1630163,1630539,1630550,1610612749,1627761,1628975,1629623,1629670,203648,0022100924,4,2804,2804,0,0,1610612749
198,1610612766,1626162,1629023,1630163,1630539,1630550,1610612749,1627761,1628975,1629623,1629670,203648,0022100924,4,2806,2806,2,0,1610612766
199,1610612766,1626162,1629023,1630163,1630539,1630550,1610612749,1627761,1628975,1629623,1629670,203648,0022100924,4,2821,2822,0,1,1610612749
200,1610612766,1626162,1629023,1630163,1630539,1630550,1610612749,1627761,1628975,1629623,1629670,203648,0022100924,4,2834,2839,0,0,1610612766
201,1610612766,1626162,1629023,1630163,1630539,1630550,1610612749,1627761,1628975,1629623,1629670,203648,0022100924,4,2849,2849,0,2,1610612749
202,1610612766,1626162,1629023,1630163,1630539,1630550,1610612749,1627761,1628975,1629623,1629670,203648,0022100924,4,2849,2858,2,0,1610612766
