,TEAM_ID_1,TEAM_1_PLAYERS,TEAM_ID_2,TEAM_2_PLAYERS,PERIOD
0,1610612751,[ 201960 1629066 1628386  203925 1626156],1610612755,[ 202710  202699  203954  200755 1627732],1
1,1610612751,[ 201960  201162  203915 1627747  202334],1610612755,[ 202699  203954  200755 1627732  203613],2
2,1610612751,[ 201960 1629066 1628386  203925 1626156],1610612755,[ 202710  202699  203954  200755 1627732],3
3,1610612751,[ 201960  201162  203915 1627747 1626203],1610612755,[ 202710  203954  200755 1627732  203118],4
