,stint_start,t1_points_scored,t2_pm,stint_end,t1_id,t2_points_scored,t1_players,t2_id,t1_pm,t2_players,margin_per_100,num_poss
0,0,14,0,307,1610612749,14,"[202083, 203507, 201572, 1628978, 202339]",1610612737,0,"[1629631, 203953, 1627745, 1629629, 1629027]",0.0,22.0
1,308,14,0,349,1610612749,14,"[202083, 203507, 201572, 1628978, 202339]",1610612737,0,"[1629631, 203953, 1627745, 1629629, 1629027]",0.0,25.0
2,350,14,0,380,1610612749,14,"[1628425, 1628978, 201572, 202083, 203507]",1610612737,0,"[1628981, 1629027, 1629629, 1629631, 1713]",0.0,27.0
3,381,16,1,459,1610612749,17,"[1628425, 201572, 202083, 202339, 203507]",1610612737,-1,"[1628981, 1629027, 1629629, 1629631, 1713]",-3.0303030303030303,33.0
4,460,18,1,524,1610612749,19,"[1628391, 1628425, 201572, 201588, 202083]",1610612737,-1,"[1627761, 1628981, 1629027, 1713, 203459]",-2.631578947368421,38.0
5,525,25,-3,589,1610612749,22,"[1626192, 1628391, 1628425, 201577, 201588]",1610612737,3,"[1627761, 1628981, 1713, 202323, 203459]",6.976744186046512,43.0
6,590,25,-1,618,1610612749,24,"[1626192, 1628391, 1628425, 201577, 201588]",1610612737,1,"[1627761, 1713, 202323, 203458, 203459]",2.2222222222222223,45.0
7,619,34,-10,717,1610612749,24,"[1626192, 1628391, 1628425, 201577, 201588]",1610612737,10,"[1627761, 202323, 203458, 203459, 203953]",18.181818181818183,55.0
8,718,34,-8,719,1610612749,26,"[1626192, 201577, 201588, 203507, 2594]",1610612737,8,"[1627761, 1629027, 203458, 203459, 203953]",14.285714285714285,56.0
9,720,38,-3,887,1610612749,35,"[1626192, 201572, 201588, 203507, 2594]",1610612737,3,"[1627761, 1629027, 203458, 203459, 203953]",4.545454545454546,66.0
10,888,42,-7,941,1610612749,35,"[203507, 201588, 201577, 1626192, 2594]",1610612737,7,"[1629631, 203953, 1629629, 1629027, 203458]",10.0,70.0
11,942,48,-5,1043,1610612749,43,"[1628978, 201572, 202339, 203507, 2594]",1610612737,5,"[1629027, 1629629, 1629631, 1713, 203458]",6.41025641025641,78.0
12,1044,50,-5,1135,1610612749,45,"[1628391, 1628978, 201572, 202339, 2594]",1610612737,5,"[1627745, 1629027, 1629629, 1629631, 1713]",5.952380952380952,84.0
13,1136,52,-3,1236,1610612749,49,"[1628391, 1628978, 201572, 202083, 202339]",1610612737,3,"[1627745, 1629027, 1629629, 1629631, 1713]",3.296703296703297,91.0
14,1237,52,-3,1250,1610612749,49,"[1628391, 1628978, 201577, 202083, 202339]",1610612737,3,"[1627745, 1627761, 1629027, 203459, 203953]",3.225806451612903,93.0
15,1251,55,4,1398,1610612749,59,"[1628978, 201577, 201588, 202083, 203507]",1610612737,-4,"[1627745, 1627761, 202323, 203459, 203953]",-3.8834951456310676,103.0
16,1399,58,3,1439,1610612749,61,"[201577, 201588, 202083, 203507, 2594]",1610612737,-3,"[1627745, 1627761, 202323, 203459, 203953]",-2.803738317757009,107.0
17,1440,71,-8,1616,1610612749,63,"[1628425, 201588, 202083, 203507, 2594]",1610612737,8,"[1627761, 1629631, 1713, 202323, 203459]",6.557377049180328,122.0
18,1617,75,-9,1716,1610612749,66,"[202083, 203507, 201572, 1628978, 202339]",1610612737,9,"[1629631, 203953, 1627745, 1629629, 1629027]",6.870229007633588,131.0
19,1717,78,-12,1741,1610612749,66,"[1628978, 201572, 201588, 202083, 203507]",1610612737,12,"[1627745, 1629027, 1629629, 203459, 203953]",9.022556390977442,133.0
20,1742,78,-7,1797,1610612749,71,"[1628978, 201572, 201588, 202083, 203507]",1610612737,7,"[1627761, 1628981, 202323, 203459, 203953]",5.109489051094891,137.0
21,1798,83,-7,1924,1610612749,76,"[1628978, 201572, 201588, 202083, 203507]",1610612737,7,"[1627761, 1628981, 1713, 202323, 203459]",4.827586206896552,145.0
22,1925,83,-5,1961,1610612749,78,"[1628425, 201572, 201588, 202083, 203507]",1610612737,5,"[1627761, 1628981, 1713, 202323, 203459]",3.3557046979865772,149.0
23,1962,85,-5,2040,1610612749,80,"[1626192, 1628425, 201577, 201588, 203507]",1610612737,5,"[1627761, 1628981, 1713, 202323, 203459]",3.2467532467532463,154.0
24,2041,92,-9,2136,1610612749,83,"[1626192, 1628391, 1628425, 201577, 201588]",1610612737,9,"[1627761, 1628981, 1713, 202323, 203459]",5.521472392638037,163.0
25,2137,96,-13,2159,1610612749,83,"[1626192, 1628391, 1628425, 201577, 201588]",1610612737,13,"[1627761, 1629027, 1713, 203458, 203459]",7.926829268292683,164.0
26,2160,107,-18,2290,1610612749,89,"[1626192, 1628391, 1628425, 201577, 201588]",1610612737,18,"[1627745, 1627761, 1629027, 1713, 203459]",10.344827586206897,174.0
27,2291,107,-16,2336,1610612749,91,"[1628978, 202339, 1628391, 201577, 1626192]",1610612737,16,"[1629631, 203953, 1627745, 1629629, 1629027]",9.090909090909092,176.0
28,2337,109,-14,2388,1610612749,95,"[1628978, 202339, 1628391, 201577, 1626192]",1610612737,14,"[1628981, 1629629, 1629631, 1713, 202323]",7.865168539325842,178.0
29,2389,111,-13,2414,1610612749,98,"[1628391, 1628978, 201577, 202083, 202339]",1610612737,13,"[1628981, 1629629, 1629631, 1713, 202323]",7.222222222222221,180.0
30,2415,117,-13,2508,1610612749,104,"[1628978, 201572, 202083, 202339, 203507]",1610612737,13,"[1628981, 1629629, 1629631, 1713, 202323]",6.951871657754011,187.0
31,2509,117,-13,2522,1610612749,104,"[1628425, 201572, 202083, 202339, 203507]",1610612737,13,"[1628981, 1629629, 1629631, 1713, 202323]",6.951871657754011,187.0
32,2523,118,-14,2540,1610612749,104,"[1628425, 201572, 202083, 202339, 203507]",1610612737,14,"[1628981, 1629027, 1629629, 1629631, 1713]",7.4074074074074066,189.0
33,2541,121,-15,2638,1610612749,106,"[1628425, 201572, 202083, 202339, 203507]",1610612737,15,"[1629027, 1629629, 1629631, 1713, 203953]",7.614213197969544,197.0
34,2639,125,-19,2668,1610612749,106,"[1628425, 201572, 202083, 202339, 203507]",1610612737,19,"[1627761, 1629027, 1629631, 1713, 203953]",9.5,200.0
35,2669,125,-17,2688,1610612749,108,"[1628391, 1628425, 1628978, 201577, 2594]",1610612737,17,"[1627761, 1629027, 1629629, 1713, 203953]",8.333333333333332,204.0
36,2689,126,-9,2749,1610612749,117,"[1628391, 1628425, 1628978, 201577, 2594]",1610612737,9,"[1627761, 1629027, 1629629, 1629631, 203953]",4.245283018867925,212.0
37,2750,132,-9,2818,1610612749,123,"[1628391, 1628425, 1628978, 202339, 2594]",1610612737,9,"[1627761, 1629027, 1629629, 1629631, 203953]",4.147465437788019,217.0
38,2819,134,-9,2845,1610612749,125,"[1626192, 1628425, 201588, 202339, 203507]",1610612737,9,"[1627761, 1629027, 1629629, 1629631, 203953]",4.090909090909091,220.0
39,2846,134,-7,2848,1610612749,127,"[1626192, 1628425, 201588, 202339, 203507]",1610612737,7,"[1627761, 1629027, 1629629, 1629631, 1713]",3.167420814479638,221.0
40,2849,135,-8,9999999,1610612749,127,"[1626192, 1628425, 1628978, 201588, 203507]",1610612737,8,"[1627761, 1629027, 1629629, 1629631, 1713]",3.587443946188341,223.0
