,TEAM_ID_1,TEAM_1_PLAYERS,TEAM_ID_2,TEAM_2_PLAYERS,PERIOD
0,1610612751,[ 201142 1627761  200746  201988  201935],1610612742,[1627827  204001  203939  203493 1629029],1
1,1610612751,[ 201988  201935 1630560 1629651  201949],1610612742,[ 204001 1628973  203501 1628373 1630182],2
2,1610612751,[ 201142 1627761  200746  201988  201935],1610612742,[1627827  204001  203939  203493 1629029],3
3,1610612751,[ 201142  201988  201935 1629651  201949],1610612742,[ 204001 1628973  203501 1628373 1630182],4
