,TEAM_ID_1,TEAM_1_PLAYERS,TEAM_ID_2,TEAM_2_PLAYERS,PERIOD
0,1610612749,[ 203114  203507  201572 1628978 1627854],1610612743,[1629008  200794  203999  203115 1627750],1
1,1610612749,[ 203114 1627854  201571 1628470 1626171],1610612743,[ 203115 1628420  203210 1630181 1628427],2
2,1610612749,[ 203114  203507  201572 1628978 1627854],1610612743,[1629008  200794  203999  203115 1627750],3
3,1610612749,[ 203114 1626192  201571 1628470 1626171],1610612743,[ 203115 1627750 1628420  203210 1630181],4
