,t1_points_scored,stint_end,t2_pm,t1_players,t2_id,t1_id,t2_players,t2_points_scored,t1_pm,stint_start,margin_per_100,num_poss
0,7,263,-5,"[1629103, 203496, 203476, 1629633, 203894]",1610612749,1610612750,"[203114, 203507, 201572, 1628978, 202339]",2,5,0,27.77777777777778,18.0
1,9,323,-7,"[1629103, 203496, 203476, 1629633, 203894]",1610612749,1610612750,"[203114, 203507, 201572, 1628978, 202339]",2,7,264,33.33333333333333,21.0
2,11,334,-9,"[1629006, 1629103, 203476, 203496, 203894]",1610612749,1610612750,"[1626192, 1628978, 201572, 203114, 203507]",2,9,324,40.909090909090914,22.0
3,13,366,-9,"[1629006, 1629103, 203476, 203496, 203894]",1610612749,1610612750,"[101141, 1626192, 1628978, 201572, 203114]",4,9,335,37.5,24.0
4,13,451,-5,"[1629006, 1629103, 1629675, 203496, 203894]",1610612749,1610612750,"[101141, 1626192, 1628978, 201572, 203114]",8,5,367,16.129032258064516,31.0
5,16,518,-4,"[1629006, 1629103, 1629675, 203496, 203894]",1610612749,1610612750,"[101141, 1626192, 201572, 201588, 203114]",12,4,452,11.11111111111111,36.0
6,16,553,-2,"[1628966, 1629006, 1629675, 203496, 203894]",1610612749,1610612750,"[101141, 1626192, 201577, 201588, 2594]",14,2,519,5.128205128205128,39.0
7,20,643,-3,"[1628395, 1628966, 1629006, 1629675, 203894]",1610612749,1610612750,"[101141, 1626192, 201577, 201588, 2594]",17,3,554,6.666666666666667,45.0
8,23,705,-4,"[1628395, 1628966, 1629006, 1629633, 1629675]",1610612749,1610612750,"[101141, 1626192, 201577, 201588, 2594]",19,4,644,8.16326530612245,49.0
9,23,719,-4,"[1628395, 1628966, 1629006, 1629633, 203476]",1610612749,1610612750,"[201577, 201588, 202339, 203507, 2594]",19,4,706,8.0,50.0
10,29,860,-6,"[1628395, 1628966, 1629006, 1629633, 203476]",1610612749,1610612750,"[101141, 201588, 202339, 203507, 2594]",23,6,720,10.0,60.0
11,29,891,-1,"[203476, 1629633, 1628966, 1628395, 1629669]",1610612749,1610612750,"[203114, 203507, 201572, 202339, 2594]",28,1,861,1.5873015873015872,63.0
12,34,1008,0,"[203476, 1629633, 1628966, 1628395, 1629669]",1610612749,1610612750,"[1628978, 201572, 203114, 203507, 2594]",34,0,892,0.0,72.0
13,37,1106,2,"[1628966, 1629633, 1629669, 203476, 203496]",1610612749,1610612750,"[1628978, 201572, 203114, 203507, 2594]",39,-2,1009,-2.5,80.0
14,39,1127,2,"[1629103, 1629669, 203476, 203496, 203894]",1610612749,1610612750,"[101141, 1626192, 1628978, 201572, 203114]",41,-2,1107,-2.4390243902439024,82.0
15,45,1259,1,"[1629006, 1629103, 1629675, 203496, 203894]",1610612749,1610612750,"[101141, 1626192, 1628978, 201572, 201588]",46,-1,1128,-1.098901098901099,91.0
16,49,1321,-1,"[1629006, 1629103, 1629675, 203496, 203894]",1610612749,1610612750,"[101141, 1626192, 1628978, 201577, 201588]",48,1,1260,1.0309278350515463,97.0
17,49,1368,1,"[1629006, 1629103, 1629675, 203496, 203894]",1610612749,1610612750,"[101141, 1626192, 201577, 201588, 202339]",50,-1,1322,-0.9900990099009901,101.0
18,51,1439,1,"[1629006, 1629633, 203476, 203496, 203894]",1610612749,1610612750,"[1626192, 201577, 201588, 202339, 203507]",52,-1,1369,-0.9523809523809524,105.0
19,55,1584,1,"[1629006, 1629633, 203476, 203496, 203894]",1610612749,1610612750,"[201577, 201588, 202339, 203114, 203507]",56,-1,1440,-0.8695652173913043,115.0
20,57,1679,5,"[1629103, 203496, 203476, 1629633, 203894]",1610612749,1610612750,"[203114, 203507, 201572, 1628978, 202339]",62,-5,1585,-4.0650406504065035,123.0
21,57,1745,7,"[1628395, 1629103, 1629633, 203496, 203894]",1610612749,1610612750,"[203114, 203507, 201572, 1628978, 202339]",64,-7,1680,-5.511811023622047,127.0
22,57,1792,10,"[1628395, 1629103, 1629633, 203496, 203894]",1610612749,1610612750,"[1626192, 1628978, 201572, 203114, 203507]",67,-10,1746,-7.633587786259542,131.0
23,60,1821,7,"[1628395, 1628966, 1629006, 203496, 203894]",1610612749,1610612750,"[1626192, 1628978, 201572, 203114, 203507]",67,-7,1793,-5.263157894736842,133.0
24,63,1904,4,"[1628395, 1628966, 1629006, 203496, 203894]",1610612749,1610612750,"[101141, 1626192, 1628978, 201572, 203114]",67,-4,1822,-2.877697841726619,139.0
25,63,1952,6,"[1628395, 1628966, 1629006, 203496, 203894]",1610612749,1610612750,"[101141, 1626192, 201572, 201588, 203114]",69,-6,1905,-4.225352112676056,142.0
26,69,2065,5,"[1628395, 1628966, 1629006, 1629633, 203496]",1610612749,1610612750,"[101141, 1626192, 201577, 201588, 2594]",74,-5,1953,-3.3112582781456954,151.0
27,71,2159,6,"[1628395, 1628966, 1629006, 1629633, 1629675]",1610612749,1610612750,"[101141, 1626192, 201577, 201588, 2594]",77,-6,2066,-3.8461538461538463,156.0
28,81,2337,3,"[1628966, 1629006, 1629633, 1629669, 1629675]",1610612749,1610612750,"[201577, 201588, 202339, 203507, 2594]",84,-3,2160,-1.7751479289940828,169.0
29,81,2364,6,"[1629103, 1629633, 1629675, 1628966, 1629669]",1610612749,1610612750,"[203114, 203507, 202339, 201577, 2594]",87,-6,2338,-3.5294117647058822,170.0
30,86,2438,1,"[1629103, 1629633, 1629675, 1628966, 1629669]",1610612749,1610612750,"[201572, 202339, 203114, 203507, 2594]",87,-1,2365,-0.5681818181818182,176.0
31,86,2453,1,"[1629103, 1629633, 1629675, 1628966, 1629669]",1610612749,1610612750,"[1628978, 201572, 203114, 203507, 2594]",87,-1,2439,-0.5649717514124294,177.0
32,86,2462,1,"[1629103, 1629633, 1629675, 1628966, 1629669]",1610612749,1610612750,"[1626192, 1628978, 201572, 203114, 203507]",87,-1,2454,-0.5649717514124294,177.0
33,88,2487,4,"[1629103, 1629633, 1629675, 1628966, 1629669]",1610612749,1610612750,"[101141, 1626192, 1628978, 203114, 203507]",92,-4,2463,-2.2346368715083798,179.0
34,88,2535,6,"[1629103, 1629669, 1629675, 203496, 203894]",1610612749,1610612750,"[101141, 1626192, 1628978, 201572, 203114]",94,-6,2488,-3.314917127071823,181.0
35,88,2547,6,"[1629006, 1629669, 1629675, 203496, 203894]",1610612749,1610612750,"[101141, 1626192, 1628978, 201572, 203114]",94,-6,2536,-3.296703296703297,182.0
36,92,2604,4,"[1629006, 1629669, 203476, 203496, 203894]",1610612749,1610612750,"[101141, 1626192, 1628978, 201572, 201588]",96,-4,2548,-2.1505376344086025,186.0
37,94,2681,7,"[1629006, 1629669, 203476, 203496, 203894]",1610612749,1610612750,"[1626192, 1628978, 201572, 201588, 203507]",101,-7,2605,-3.664921465968586,191.0
38,104,2866,2,"[1629006, 1629633, 203476, 203496, 203894]",1610612749,1610612750,"[1626192, 1628978, 201572, 201588, 203507]",106,-2,2682,-0.9803921568627451,204.0
39,104,2879,2,"[1629006, 1629633, 203476, 203496, 203894]",1610612749,1610612750,"[1626192, 201572, 201588, 203114, 203507]",106,-2,2867,-0.9708737864077669,206.0
40,104,9999999,2,"[1629633, 1629669, 203476, 203496, 203894]",1610612749,1610612750,"[1626192, 201572, 201588, 203114, 203507]",106,-2,2880,-0.966183574879227,207.0
