,t1_points_scored,stint_end,t2_pm,t1_players,t2_id,t1_id,t2_players,t2_points_scored,t1_pm,stint_start,margin_per_100,num_poss
0,11,308,0,"[2544, 203076, 201580, 201980, 202340]",1610612746,1610612747,"[202695, 202694, 1627826, 202331, 201976]",11,0,0,0.0,24.0
1,14,342,-1,"[2544, 203076, 201580, 201980, 202340]",1610612746,1610612747,"[202695, 202694, 1627826, 202331, 201976]",13,1,309,3.7037037037037033,27.0
2,16,430,0,"[2544, 203076, 201580, 201980, 202340]",1610612746,1610612747,"[1626149, 201976, 202331, 202694, 202695]",16,0,343,0.0,33.0
3,20,555,0,"[1628398, 201980, 202340, 203076, 2544]",1610612746,1610612747,"[1626149, 201976, 202331, 202694, 202695]",20,0,431,0.0,43.0
4,23,617,0,"[1628398, 200765, 202340, 203076, 203484]",1610612746,1610612747,"[101150, 1626149, 201976, 202694, 202695]",23,0,556,0.0,46.0
5,27,719,-2,"[1628398, 200765, 202693, 203076, 203484]",1610612746,1610612747,"[101150, 1626149, 1629013, 202704, 203210]",25,2,618,3.7735849056603774,53.0
6,30,819,-1,"[1628398, 200765, 202693, 203484, 2544]",1610612746,1610612747,"[101150, 1626149, 1629013, 202704, 203210]",29,1,720,1.6666666666666667,60.0
7,30,890,1,"[2544, 1628398, 203484, 200765, 2730]",1610612746,1610612747,"[1626149, 101150, 203210, 202704, 1629013]",31,-1,820,-1.5151515151515151,66.0
8,31,964,4,"[2544, 1628398, 203484, 200765, 2730]",1610612746,1610612747,"[101150, 1626149, 202331, 202704, 203210]",35,-4,891,-5.555555555555555,72.0
9,34,1063,7,"[1627936, 1628398, 201980, 2544, 2730]",1610612746,1610612747,"[101150, 1626149, 202331, 202704, 203210]",41,-7,965,-8.641975308641975,81.0
10,36,1112,7,"[1627936, 1628398, 201980, 2544, 2730]",1610612746,1610612747,"[101150, 1626149, 201976, 202331, 202695]",43,-7,1064,-8.333333333333332,84.0
11,43,1282,4,"[1627936, 201980, 203076, 2544, 2730]",1610612746,1610612747,"[1627826, 201976, 202331, 202694, 202695]",47,-4,1113,-4.25531914893617,94.0
12,45,1377,6,"[1627936, 201980, 202340, 202693, 203076]",1610612746,1610612747,"[1627826, 201976, 202331, 202694, 202695]",51,-6,1283,-6.0606060606060606,99.0
13,49,1412,4,"[202340, 202693, 203076, 203484, 2544]",1610612746,1610612747,"[1626149, 201976, 202331, 202694, 202695]",53,-4,1378,-3.8834951456310676,103.0
14,49,1439,4,"[202340, 202693, 203076, 203484, 2544]",1610612746,1610612747,"[101150, 1626149, 202331, 202694, 202695]",53,-4,1413,-3.8095238095238098,105.0
15,59,1653,-4,"[201580, 202340, 202693, 203484, 2544]",1610612746,1610612747,"[101150, 1626149, 202331, 202694, 202695]",55,4,1440,3.361344537815126,119.0
16,61,1741,-3,"[2544, 203076, 201580, 201980, 202340]",1610612746,1610612747,"[202695, 202694, 1627826, 202331, 201976]",58,3,1654,2.4193548387096775,124.0
17,64,1801,-4,"[2544, 203076, 201580, 201980, 202340]",1610612746,1610612747,"[1627826, 202331, 202694, 202695, 202704]",60,4,1742,3.149606299212598,127.0
18,65,1830,1,"[200765, 201580, 201980, 202340, 203076]",1610612746,1610612747,"[1626149, 202331, 202694, 202695, 202704]",66,-1,1802,-0.7633587786259541,131.0
19,80,2031,-3,"[1628398, 200765, 201980, 202340, 203076]",1610612746,1610612747,"[101150, 1626149, 202331, 202695, 202704]",77,3,1831,2.0689655172413794,145.0
20,85,2106,-6,"[1628398, 200765, 202340, 203076, 203484]",1610612746,1610612747,"[101150, 1626149, 202331, 202695, 202704]",79,6,2032,3.9735099337748347,151.0
21,85,2128,-6,"[1628398, 200765, 202340, 203076, 203484]",1610612746,1610612747,"[101150, 1626149, 1629013, 202331, 202704]",79,6,2107,3.9473684210526314,152.0
22,85,2156,-5,"[1628398, 200765, 203076, 203484, 2544]",1610612746,1610612747,"[101150, 1626149, 1629013, 201976, 203210]",80,5,2129,3.2467532467532463,154.0
23,85,2159,-4,"[1628398, 200765, 202693, 203484, 2544]",1610612746,1610612747,"[101150, 1626149, 1629013, 201976, 203210]",81,4,2157,2.5806451612903225,155.0
24,88,2254,-7,"[1628398, 200765, 202693, 203484, 2544]",1610612746,1610612747,"[1626149, 1629013, 1629599, 201976, 203210]",81,7,2160,4.375,160.0
25,92,2358,-9,"[2544, 1628398, 203484, 200765, 202693]",1610612746,1610612747,"[201976, 1626149, 101150, 203210, 1629013]",83,9,2255,5.454545454545454,165.0
26,94,2425,-9,"[2544, 1628398, 203484, 200765, 202693]",1610612746,1610612747,"[101150, 1626149, 201976, 202695, 203210]",85,9,2359,5.325443786982249,169.0
27,94,2463,-7,"[2544, 1628398, 203484, 200765, 202693]",1610612746,1610612747,"[101150, 1626149, 201976, 202331, 202695]",87,7,2426,4.069767441860465,172.0
28,97,2479,-10,"[200765, 202693, 203076, 203484, 2544]",1610612746,1610612747,"[1626149, 201976, 202331, 202694, 202695]",87,10,2464,5.780346820809249,173.0
29,99,2535,-9,"[202340, 202693, 203076, 203484, 2544]",1610612746,1610612747,"[1626149, 201976, 202331, 202694, 202695]",90,9,2480,5.084745762711865,177.0
30,101,2621,-8,"[200765, 202340, 202693, 203076, 203484]",1610612746,1610612747,"[101150, 1626149, 202331, 202694, 202695]",93,8,2536,4.371584699453552,183.0
31,106,2770,-7,"[200765, 202340, 203076, 203484, 2544]",1610612746,1610612747,"[101150, 1626149, 202331, 202694, 202695]",99,7,2622,3.6458333333333335,192.0
32,107,2784,-8,"[201980, 202340, 203076, 203484, 2544]",1610612746,1610612747,"[101150, 1626149, 202331, 202694, 202695]",99,8,2771,4.145077720207254,193.0
33,107,2806,-7,"[201980, 202340, 202693, 203484, 2544]",1610612746,1610612747,"[101150, 1626149, 202331, 202694, 202695]",100,7,2785,3.608247422680412,194.0
34,109,2839,-9,"[201980, 202340, 203076, 203484, 2544]",1610612746,1610612747,"[1626149, 201976, 202331, 202694, 202695]",100,9,2807,4.591836734693878,196.0
35,112,2872,-12,"[201980, 202340, 202693, 203484, 2544]",1610612746,1610612747,"[101150, 1626149, 202331, 202694, 202695]",100,12,2840,6.030150753768844,199.0
36,112,9999999,-9,"[201980, 202340, 202693, 203076, 203484]",1610612746,1610612747,"[101150, 1629013, 1629599, 202694, 203585]",103,9,2873,4.5,200.0
