,TEAM_ID_1,TEAM_1_PLAYERS,TEAM_ID_2,TEAM_2_PLAYERS,PERIOD
0,1610612743,[ 203115  200794  203999  203914 1627750],1610612756,[1626162  203967  203382 1626164  201937],1
1,1610612743,[ 203924 1629008 1628420  203486 1627736],1610612756,[1626162 1626163 1629661 1628969 1629660],2
2,1610612743,[ 203115  200794  203999  203914 1627750],1610612756,[1626162  203967  203382 1626164  201937],3
3,1610612743,[ 203115  203924 1628420  203486 1627736],1610612756,[1626162 1626163 1629661 1628969 1628975],4
