,TEAM_ID_1,TEAM_1_PLAYERS,TEAM_ID_2,TEAM_2_PLAYERS,PERIOD
0,1610612751,[ 201142 1630556 1630549  202681  201935],1610612741,[1627884  201942  202696  203897 1628366],1
1,1610612751,[1630556  201935  201988  201949 1630560],1610612741,[ 201942 1628366 1629632 1628396 1628972],2
2,1610612751,[ 201142 1630556 1630549  202681  201935],1610612741,[ 201942  202696  203897 1628366 1628035],3
3,1610612751,[1630556  201935  201988 1627761  201933],1610612741,[ 201942  202696  203897 1628366 1630245],4
