,stint_start,t1_points_scored,t2_pm,stint_end,t1_id,t2_points_scored,t1_players,t2_id,t1_pm,t2_players,margin_per_100,num_poss
0,0,13,-2,311,1610612756,11,"[1626162, 1628969, 1629028, 1626164, 201937]",1610612751,2,"[203925, 1627752, 1628386, 1627747, 203915]",9.090909090909092,22.0
1,312,17,-4,392,1610612756,13,"[1626162, 1628969, 1629028, 1626164, 201937]",1610612751,4,"[203925, 1627752, 1628386, 1627747, 203915]",15.384615384615385,26.0
2,393,17,-2,434,1610612756,15,"[1626162, 1628969, 1629028, 1626164, 201937]",1610612751,2,"[1627752, 1628386, 202066, 203915, 203925]",7.142857142857142,28.0
3,435,19,-2,477,1610612756,17,"[1626162, 1626164, 1628969, 1628975, 1629028]",1610612751,2,"[1627752, 1628386, 202066, 203915, 203925]",6.25,32.0
4,478,25,1,609,1610612756,26,"[1626162, 1626164, 1628969, 1628975, 1629028]",1610612751,-1,"[201163, 201599, 202066, 203915, 203925]",-2.3255813953488373,43.0
5,610,31,1,707,1610612756,32,"[1626162, 1626164, 1627767, 1628969, 1628975]",1610612751,-1,"[1627789, 201163, 201599, 202066, 203915]",-1.9607843137254901,51.0
6,708,31,1,719,1610612756,32,"[1626162, 1627767, 1628975, 1629059, 1629665]",1610612751,-1,"[1627747, 1627789, 201163, 201599, 202066]",-1.9230769230769231,52.0
7,720,33,4,851,1610612756,37,"[1626162, 1626164, 1627767, 1628975, 1629059]",1610612751,-4,"[1627747, 1627789, 201163, 201599, 202066]",-6.666666666666667,60.0
8,852,37,0,925,1610612756,37,"[1626162, 1629028, 1628975, 1629059, 1629665]",1610612751,0,"[1627747, 202066, 201599, 201163, 1627789]",0.0,65.0
9,926,37,2,1000,1610612756,39,"[1628969, 1628975, 1629028, 1629059, 201937]",1610612751,-2,"[1627747, 202066, 201599, 201163, 1627789]",-2.898550724637681,69.0
10,1001,41,5,1108,1610612756,46,"[1626164, 1628969, 1629028, 1629059, 201937]",1610612751,-5,"[1627747, 202066, 201599, 201163, 1627789]",-6.578947368421052,76.0
11,1109,43,6,1176,1610612756,49,"[1626164, 1628969, 1629028, 1629059, 201937]",1610612751,-6,"[1627752, 1627789, 201599, 203915, 203925]",-7.4074074074074066,81.0
12,1177,43,6,1202,1610612756,49,"[1626162, 1626164, 1627767, 1628969, 1628975]",1610612751,-6,"[1627752, 1627789, 1628386, 203915, 203925]",-7.228915662650602,83.0
13,1203,45,4,1243,1610612756,49,"[1626162, 1627767, 1628969, 1628975, 1629059]",1610612751,-4,"[1627752, 1627789, 1628386, 203915, 203925]",-4.597701149425287,87.0
14,1244,50,5,1422,1610612756,55,"[1626162, 1628969, 1628975, 1629028, 1629059]",1610612751,-5,"[1627752, 1627789, 1628386, 203915, 203925]",-5.1020408163265305,98.0
15,1423,52,3,1439,1610612756,55,"[1626162, 1628969, 1628975, 1629028, 1629059]",1610612751,-3,"[1627747, 1627752, 1628386, 203915, 203925]",-3.0,100.0
16,1440,58,7,1668,1610612756,65,"[1626162, 1626164, 1628969, 1628975, 1629028]",1610612751,-7,"[1627747, 1627752, 1628386, 203915, 203925]",-5.982905982905983,117.0
17,1669,64,17,1868,1610612756,81,"[1626162, 1628969, 1629028, 1626164, 201937]",1610612751,-17,"[203925, 1627752, 1628386, 1627747, 203915]",-12.878787878787879,132.0
18,1869,64,17,1912,1610612756,81,"[1626162, 1626164, 1627767, 1628969, 201937]",1610612751,-17,"[203925, 1627752, 1628386, 1627747, 203915]",-12.686567164179104,134.0
19,1913,66,18,1964,1610612756,84,"[1626162, 1626164, 1628969, 1629028, 201937]",1610612751,-18,"[1627752, 1628386, 202066, 203915, 203925]",-13.138686131386862,137.0
20,1965,73,15,2145,1610612756,88,"[1626162, 1626164, 1628969, 1628975, 1629028]",1610612751,-15,"[201163, 201599, 202066, 203915, 203925]",-10.06711409395973,149.0
21,2146,73,20,2218,1610612756,93,"[1626162, 1626164, 1628975, 1629028, 1629059]",1610612751,-20,"[1627747, 1627789, 201163, 201599, 202066]",-13.071895424836603,153.0
22,2219,82,18,2366,1610612756,100,"[1626162, 1629028, 1628975, 1629059, 1629665]",1610612751,-18,"[1627747, 202066, 201599, 201163, 1627789]",-11.180124223602485,161.0
23,2367,85,18,2436,1610612756,103,"[1626162, 1628969, 1628975, 1629028, 1629059]",1610612751,-18,"[1627747, 202066, 201599, 201163, 1627789]",-10.909090909090908,165.0
24,2437,85,18,2442,1610612756,103,"[1626164, 1628969, 1628975, 1629028, 1629059]",1610612751,-18,"[1627747, 202066, 201599, 201163, 1627789]",-10.843373493975903,166.0
25,2443,86,17,2474,1610612756,103,"[1626164, 1627767, 1628969, 1628975, 1629059]",1610612751,-17,"[1627747, 202066, 201599, 201163, 1627789]",-10.119047619047619,168.0
26,2475,86,17,2490,1610612756,103,"[1626164, 1627767, 1628969, 1628975, 1629059]",1610612751,-17,"[1627752, 1627789, 201599, 202066, 203915]",-10.059171597633137,169.0
27,2491,87,16,2516,1610612756,103,"[1626162, 1626164, 1627767, 1628969, 1629059]",1610612751,-16,"[1627752, 1627789, 201599, 202066, 203915]",-9.30232558139535,172.0
28,2517,87,16,2541,1610612756,103,"[1626162, 1626164, 1627767, 1628969, 1629059]",1610612751,-16,"[1627752, 201599, 202066, 203915, 203925]",-9.195402298850574,174.0
29,2542,89,20,2666,1610612756,109,"[1626162, 1626164, 1628969, 1629028, 1629059]",1610612751,-20,"[1627752, 201599, 202066, 203915, 203925]",-10.989010989010989,182.0
30,2667,89,20,2688,1610612756,109,"[1626162, 1626164, 1628969, 1629028, 1629059]",1610612751,-20,"[1627747, 1627752, 1628386, 203915, 203925]",-10.92896174863388,183.0
31,2689,95,24,2864,1610612756,119,"[1627767, 1629059, 1629607, 1629665, 1629745]",1610612751,-24,"[1627752, 1627789, 1628386, 203915, 203925]",-12.244897959183673,196.0
32,2865,97,22,9999999,1610612756,119,"[1627767, 1629059, 1629607, 1629665, 1629745]",1610612751,-22,"[1627752, 1627789, 1629058, 1629066, 1629185]",-11.16751269035533,197.0
