,t1_points_scored,t2_players,t1_pm,t2_id,stint_end,t1_id,t1_players,stint_start,t2_points_scored,t2_pm,margin_per_100,num_poss
0,7,"[1629652, 1629647, 202324, 1630544, 1630581]",-8,1610612760,334,1610612744,"[203952, 203490, 1626172, 202691, 201939]",0,15,8,-29.629629629629626,27.0
1,12,"[1629652, 1629647, 202324, 1630544, 1630581]",-5,1610612760,468,1610612744,"[203952, 203490, 1626172, 202691, 201939]",335,17,5,-13.88888888888889,36.0
2,12,"[1629652, 1629647, 202324, 1630544, 1630581]",-8,1610612760,526,1610612744,"[1626172, 1627780, 1629673, 201939, 203952]",469,20,8,-19.51219512195122,41.0
3,18,"[1629026, 1629603, 1629647, 1629652, 1629660]",-5,1610612760,688,1610612744,"[1627780, 1629673, 1630228, 201939, 203952]",527,23,5,-10.0,50.0
4,20,"[1629026, 1629603, 1629647, 1629660, 1630177]",-3,1610612760,719,1610612744,"[1627780, 1627814, 1629673, 1630228, 203952]",689,23,3,-5.769230769230769,52.0
5,26,"[1629026, 1629603, 1629647, 1629652, 1629660]",-2,1610612760,854,1610612744,"[1627814, 1629673, 1630228, 201939, 203952]",720,28,2,-3.1746031746031744,63.0
6,28,"[1629652, 1630581, 1629026, 1629660, 1629603]",0,1610612760,905,1610612744,"[202691, 201939, 1629673, 1630228, 2738]",855,28,0,0.0,67.0
7,30,"[1629026, 1629652, 1629660, 1630581, 202324]",-1,1610612760,950,1610612744,"[202691, 201939, 1629673, 1630228, 2738]",906,31,1,-1.4285714285714286,70.0
8,39,"[1629026, 1629652, 1629660, 1630581, 202324]",5,1610612760,1065,1610612744,"[1627814, 1630228, 201939, 202691, 2738]",951,34,-5,6.41025641025641,78.0
9,44,"[1629026, 1629652, 1629660, 1630177, 202324]",7,1610612760,1218,1610612744,"[1627814, 1630228, 201939, 202691, 2738]",1066,37,-7,8.045977011494253,87.0
10,49,"[1629026, 1629647, 1630177, 1630544, 202324]",11,1610612760,1336,1610612744,"[1626172, 1627814, 1629673, 1630228, 203952]",1219,38,-11,11.458333333333332,96.0
11,56,"[1629603, 1629647, 1629652, 1630544, 1630581]",10,1610612760,1439,1610612744,"[1626172, 1629673, 201939, 203490, 203952]",1337,46,-10,9.70873786407767,103.0
12,70,"[1629026, 1629647, 1629652, 1630544, 1630581]",11,1610612760,1807,1610612744,"[1626172, 1629673, 201939, 203490, 203952]",1440,59,-11,8.59375,128.0
13,76,"[1629652, 1629647, 202324, 1630544, 1630581]",13,1610612760,1881,1610612744,"[203952, 203490, 1626172, 202691, 201939]",1808,63,-13,9.774436090225564,133.0
14,78,"[1629652, 1629647, 202324, 1630544, 1630581]",10,1610612760,1967,1610612744,"[1626172, 1627780, 1629673, 201939, 203952]",1882,68,-10,7.142857142857142,140.0
15,85,"[1629026, 1629647, 1629652, 1630544, 202324]",13,1610612760,2153,1610612744,"[1627780, 1629673, 1630228, 201939, 203952]",1968,72,-13,8.724832214765101,149.0
16,90,"[1629026, 1629603, 1629647, 1629660, 1630544]",11,1610612760,2276,1610612744,"[1627780, 1627814, 1629673, 1630228, 203952]",2154,79,-11,7.006369426751593,157.0
17,93,"[1629652, 1630581, 1629026, 1629603, 1630177]",12,1610612760,2333,1610612744,"[202691, 201939, 1630228, 1627814, 1630541]",2277,81,-12,7.453416149068323,161.0
18,95,"[1629026, 1629652, 1629660, 1630177, 1630581]",14,1610612760,2353,1610612744,"[202691, 201939, 1630228, 1627814, 1630541]",2334,81,-14,8.588957055214724,163.0
19,97,"[1629026, 1629652, 1629660, 1630177, 1630581]",12,1610612760,2467,1610612744,"[1629673, 1630228, 1630541, 201939, 202691]",2354,85,-12,7.100591715976331,169.0
20,97,"[1629026, 1629652, 1629660, 1630544, 202324]",12,1610612760,2485,1610612744,"[1629673, 1630228, 1630541, 201939, 202691]",2468,85,-12,7.0588235294117645,170.0
21,99,"[1629026, 1629647, 1629652, 1629660, 1630544]",11,1610612760,2577,1610612744,"[1629673, 1630228, 1630541, 201939, 202691]",2486,88,-11,6.2857142857142865,175.0
22,99,"[1629026, 1629647, 1629660, 1630544, 202324]",11,1610612760,2624,1610612744,"[1626172, 1627780, 1629673, 1630541, 202691]",2578,88,-11,6.214689265536723,177.0
23,101,"[1629026, 1629647, 1629652, 1629660, 1630544]",13,1610612760,2660,1610612744,"[1626172, 1627780, 1629673, 1630541, 203952]",2625,88,-13,7.222222222222221,180.0
24,101,"[1629026, 1629647, 1629652, 1630544, 1630581]",9,1610612760,2707,1610612744,"[1626172, 1629673, 1630541, 202691, 203952]",2661,92,-9,4.891304347826087,184.0
25,110,"[1629026, 1629647, 1629652, 1630544, 1630581]",12,1610612760,2855,1610612744,"[1626172, 1630541, 201939, 202691, 203952]",2708,98,-12,6.185567010309279,194.0
26,110,"[1629026, 1629647, 1629652, 1630544, 1630581]",12,1610612760,9999999,1610612744,"[1626172, 1629673, 201939, 202691, 203952]",2856,98,-12,6.153846153846154,195.0
