,team1_id,team1_player1,team1_player2,team1_player3,team1_player4,team1_player5,team2_id,team2_player1,team2_player2,team2_player3,team2_player4,team2_player5,game_id,period,possession_start,possession_end,team1_points,team2_points,possession_team
0,1610612755,201980,1627777,203954,203552,1630178,1610612737,1627789,1628381,203991,1628989,1629027,0022100335,1,0,28,0,0,1610612755
1,1610612755,201980,1627777,203954,203552,1630178,1610612737,1627789,1628381,203991,1628989,1629027,0022100335,1,45,45,0,2,1610612737
2,1610612755,201980,1627777,203954,203552,1630178,1610612737,1627789,1628381,203991,1628989,1629027,0022100335,1,63,72,0,0,1610612755
3,1610612755,201980,1627777,203954,203552,1630178,1610612737,1627789,1628381,203991,1628989,1629027,0022100335,1,86,98,0,2,1610612737
4,1610612755,201980,1627777,203954,203552,1630178,1610612737,1627789,1628381,203991,1628989,1629027,0022100335,1,109,112,0,0,1610612755
5,1610612755,201980,1627777,203954,203552,1630178,1610612737,1627789,1628381,203991,1628989,1629027,0022100335,1,119,119,0,2,1610612737
6,1610612755,201980,1627777,203954,203552,1630178,1610612737,1627789,1628381,203991,1628989,1629027,0022100335,1,143,143,2,0,1610612755
7,1610612755,201980,1627777,203954,203552,1630178,1610612737,1627789,1628381,203991,1628989,1629027,0022100335,1,163,163,0,2,1610612737
8,1610612755,201980,1627777,203954,203552,1630178,1610612737,1627789,1628381,203991,1628989,1629027,0022100335,1,178,178,2,0,1610612755
9,1610612755,201980,1627777,203954,203552,1630178,1610612737,1627789,1628381,203991,1628989,1629027,0022100335,1,188,188,0,0,1610612737
10,1610612755,201980,1627777,203954,203552,1630178,1610612737,1627789,1628381,203991,1628989,1629027,0022100335,1,194,194,2,0,1610612755
11,1610612755,201980,1627777,203954,203552,1630178,1610612737,1627789,1628381,203991,1628989,1629027,0022100335,1,224,224,0,0,1610612737
12,1610612755,201980,1627777,203954,203552,1630178,1610612737,1627789,1628381,203991,1628989,1629027,0022100335,1,234,234,2,0,1610612755
13,1610612755,201980,1627777,203954,203552,1630178,1610612737,1627789,1628381,203991,1628989,1629027,0022100335,1,250,250,0,0,1610612737
14,1610612755,201980,1627777,203954,203552,1630178,1610612737,1627789,1628381,203991,1628989,1629027,0022100335,1,261,264,0,0,1610612755
15,1610612755,201980,1627777,203954,203552,1630178,1610612737,1627789,1628381,203991,1628989,1629027,0022100335,1,267,268,0,0,1610612737
16,1610612755,201980,1627777,203954,203552,1630178,1610612737,1627789,1628381,203991,1628989,1629027,0022100335,1,270,291,0,0,1610612755
17,1610612755,201980,1627777,203954,203552,1630178,1610612737,1627789,1628381,203991,1628989,1629027,0022100335,1,300,300,0,0,1610612737
18,1610612755,1627777,1627788,1630178,203552,203954,1610612737,1627789,1628381,203991,1628989,1629027,0022100335,1,322,322,2,0,1610612755
19,1610612755,1627777,1627788,1630178,203552,203954,1610612737,1627789,1628381,203991,1628989,1629027,0022100335,1,328,332,0,0,1610612737
20,1610612755,1627777,1627788,1630178,203552,203954,1610612737,1627789,1628381,203991,1628989,1629027,0022100335,1,334,334,2,0,1610612755
21,1610612755,1627777,1627788,1630178,203552,203954,1610612737,1627789,1628381,203991,1628989,1629027,0022100335,1,347,349,0,1,1610612737
22,1610612755,1627777,1627788,1630178,203552,203954,1610612737,1627789,1628381,203991,1628989,1629027,0022100335,1,360,360,2,0,1610612755
23,1610612755,1627777,1627788,1630178,203552,203954,1610612737,1627789,1628381,203991,1628989,1629027,0022100335,1,373,376,0,0,1610612737
24,1610612755,1627777,1627788,1630178,203552,203954,1610612737,1627789,1628381,203991,1628989,1629027,0022100335,1,385,388,0,0,1610612755
25,1610612755,1627777,1627788,1630178,203552,203954,1610612737,1627789,1628381,203991,1628989,1629027,0022100335,1,394,397,0,0,1610612737
26,1610612755,1627777,1627788,1630178,203552,203954,1610612737,1627789,1628381,203991,1628989,1629027,0022100335,1,403,403,3,0,1610612755
27,1610612755,1627777,1627788,1630178,203552,203954,1610612737,1627789,1628989,1629027,201568,203991,0022100335,1,414,414,0,2,1610612737
28,1610612755,1627777,1627788,1630178,203552,203954,1610612737,1627789,1628989,1629027,201568,203991,0022100335,1,428,428,2,0,1610612755
29,1610612755,1627777,1627788,1630178,203552,203954,1610612737,1626153,1628989,1629027,201568,203476,0022100335,1,446,451,0,0,1610612737
30,1610612755,1627777,1627788,1630178,203552,203954,1610612737,1626153,1628989,1629027,201568,203476,0022100335,1,461,464,0,0,1610612755
31,1610612755,1627777,1627788,1630178,203552,203954,1610612737,1626153,1628989,1629027,201568,203476,0022100335,1,470,483,0,2,1610612737
32,1610612755,1627777,1627788,1629003,203552,203954,1610612737,1626153,1628989,1629027,201568,203476,0022100335,1,504,504,1,0,1610612755
33,1610612755,1627788,1629003,201980,203552,203954,1610612737,101150,1626153,1629027,201568,203476,0022100335,1,521,533,0,3,1610612737
34,1610612755,1627788,1629003,201980,203552,203954,1610612737,101150,1626153,1629027,201568,203476,0022100335,1,551,551,2,0,1610612755
35,1610612755,1627788,1629003,201980,203552,203954,1610612737,101150,1626153,1629027,201568,203476,0022100335,1,569,569,0,2,1610612737
36,1610612755,1627788,1629003,201980,203552,203954,1610612737,101150,1626153,1629027,201568,203476,0022100335,1,584,584,3,0,1610612755
37,1610612755,1627788,1629003,201980,203552,203954,1610612737,101150,1626153,1629027,201568,203476,0022100335,1,602,606,0,0,1610612737
38,1610612755,1627788,1629003,201980,203552,203954,1610612737,101150,1626153,1629027,201568,203476,0022100335,1,610,610,2,0,1610612755
39,1610612755,1627788,1629003,201980,203552,203954,1610612737,101150,1626153,1629027,201568,203476,0022100335,1,626,626,0,2,1610612737
40,1610612755,1627788,1629003,201980,203552,203954,1610612737,101150,1626153,1629027,201568,203476,0022100335,1,642,642,0,0,1610612755
41,1610612755,1627788,1629003,201980,203552,203954,1610612737,101150,1626153,1629027,201568,203476,0022100335,1,644,644,0,0,1610612737
42,1610612755,1627788,1629003,201980,203552,203954,1610612737,101150,1626153,1629027,201568,203476,0022100335,1,645,645,0,0,1610612755
43,1610612755,1627788,1629003,201980,203552,203954,1610612737,101150,1626153,1629027,201568,203476,0022100335,1,645,662,0,0,1610612737
44,1610612755,1627788,1629003,1629680,201980,203083,1610612737,101150,1626153,201568,203476,203524,0022100335,1,668,668,2,0,1610612755
45,1610612755,1627788,1629003,1629680,201980,203083,1610612737,101150,1626153,201568,203476,203524,0022100335,1,689,692,0,0,1610612737
46,1610612755,1627788,1629003,1629680,201980,203083,1610612737,101150,1626153,201568,203476,203524,0022100335,1,700,700,2,0,1610612755
47,1610612755,1627788,1629003,1629680,201980,203083,1610612737,101150,1626153,201568,203476,203524,0022100335,1,716,720,0,2,1610612737
48,1610612755,201980,1630178,1629003,203083,1629680,1610612737,1628381,201568,1626153,101150,203524,0022100335,2,720,737,0,2,1610612737
49,1610612755,201980,1630178,1629003,203083,1629680,1610612737,1628381,201568,1626153,101150,203524,0022100335,2,765,768,0,0,1610612755
50,1610612755,201980,1630178,1629003,203083,1629680,1610612737,1628381,201568,1626153,101150,203524,0022100335,2,777,777,0,0,1610612737
51,1610612755,201980,1630178,1629003,203083,1629680,1610612737,1628381,201568,1626153,101150,203524,0022100335,2,790,799,0,0,1610612755
52,1610612755,201980,1630178,1629003,203083,1629680,1610612737,1628381,201568,1626153,101150,203524,0022100335,2,815,815,0,2,1610612737
53,1610612755,201980,1630178,1629003,203083,1629680,1610612737,1628381,201568,1626153,101150,203524,0022100335,2,845,848,0,0,1610612755
54,1610612755,201980,1630178,1629003,203083,1629680,1610612737,1628381,201568,1626153,101150,203524,0022100335,2,853,860,0,0,1610612737
55,1610612755,201980,1630178,1629003,203083,1629680,1610612737,1628381,201568,1626153,101150,203524,0022100335,2,872,875,0,0,1610612755
56,1610612755,201980,1630178,1629003,203083,1629680,1610612737,1628381,201568,1626153,101150,203524,0022100335,2,877,877,0,3,1610612737
57,1610612755,201980,1630178,1629003,203083,1629680,1610612737,1628381,201568,1626153,101150,203524,0022100335,2,879,892,3,0,1610612755
58,1610612755,1627777,1629003,1629680,1630178,203083,1610612737,1628381,201568,1626153,101150,203524,0022100335,2,907,907,0,3,1610612737
59,1610612755,1627777,1629003,1629680,1630178,203083,1610612737,1628381,201568,1626153,101150,203524,0022100335,2,923,925,1,0,1610612755
60,1610612755,1627777,1629003,1629680,1630178,203083,1610612737,1628381,201568,1626153,101150,203524,0022100335,2,946,946,0,2,1610612737
61,1610612755,1627777,1629680,1630178,203083,203552,1610612737,1628381,201568,1626153,101150,203524,0022100335,2,975,975,0,0,1610612755
62,1610612755,1627777,1629680,1630178,203083,203552,1610612737,1628381,201568,1626153,101150,203524,0022100335,2,993,993,0,0,1610612737
63,1610612755,1627777,1629680,1630178,203083,203552,1610612737,1628381,201568,1626153,101150,203524,0022100335,2,1002,1004,0,0,1610612755
64,1610612755,1627777,1629680,1630178,203083,203552,1610612737,1628381,201568,1626153,101150,203524,0022100335,2,1009,1011,0,1,1610612737
65,1610612755,1627777,1629680,1630178,203552,203954,1610612737,101150,1628381,1629027,203524,203991,0022100335,2,1031,1034,0,0,1610612755
66,1610612755,1627777,1629680,1630178,203552,203954,1610612737,101150,1628381,1629027,203524,203991,0022100335,2,1045,1045,0,2,1610612737
67,1610612755,1627777,1629680,1630178,203552,203954,1610612737,1627789,1628989,1629027,201568,203991,0022100335,2,1066,1069,0,0,1610612755
68,1610612755,1627777,1629680,1630178,203552,203954,1610612737,1627789,1628989,1629027,201568,203991,0022100335,2,1075,1083,0,0,1610612737
69,1610612755,1627777,1629680,1630178,203552,203954,1610612737,1627789,1628989,1629027,201568,203991,0022100335,2,1095,1098,0,0,1610612755
70,1610612755,1627777,1629680,1630178,203552,203954,1610612737,1627789,1628989,1629027,201568,203991,0022100335,2,1115,1115,0,2,1610612737
71,1610612755,1627777,1629003,201980,203552,203954,1610612737,1627789,1628989,1629027,201568,203991,0022100335,2,1128,1128,2,0,1610612755
72,1610612755,1627777,1629003,201980,203552,203954,1610612737,1627789,1628989,1629027,201568,203991,0022100335,2,1140,1140,0,3,1610612737
73,1610612755,1627777,1629003,201980,203552,203954,1610612737,1627789,1628989,1629027,201568,203991,0022100335,2,1153,1153,0,0,1610612755
74,1610612755,1627777,1629003,201980,203552,203954,1610612737,1627789,1628989,1629027,201568,203991,0022100335,2,1178,1178,0,2,1610612737
75,1610612755,1627777,1629003,201980,203552,203954,1610612737,1627789,1628989,1629027,201568,203991,0022100335,2,1202,1202,2,0,1610612755
76,1610612755,1627777,1629003,201980,203552,203954,1610612737,1627789,1628989,1629027,201568,203991,0022100335,2,1217,1220,0,0,1610612737
77,1610612755,1627777,1629003,201980,203552,203954,1610612737,1627789,1628989,1629027,201568,203991,0022100335,2,1223,1238,0,0,1610612755
78,1610612755,1627777,1629003,201980,203552,203954,1610612737,1626153,1628381,1628989,1629027,203991,0022100335,2,1249,1249,0,3,1610612737
79,1610612755,1627777,1629003,201980,203552,203954,1610612737,1626153,1628381,1628989,1629027,203991,0022100335,2,1262,1262,0,0,1610612755
80,1610612755,1627777,1629003,201980,203552,203954,1610612737,1626153,1628381,1628989,1629027,203991,0022100335,2,1266,1285,0,0,1610612737
81,1610612755,1627777,1629680,201980,203552,203954,1610612737,1626153,1628381,1628989,1629027,203991,0022100335,2,1299,1310,0,0,1610612755
82,1610612755,1627777,1629680,201980,203552,203954,1610612737,1626153,1628381,1628989,1629027,203991,0022100335,2,1328,1328,0,0,1610612737
83,1610612755,1627777,1629680,1630178,203552,203954,1610612737,1626153,1628381,1628989,1629027,203991,0022100335,2,1342,1344,0,0,1610612755
84,1610612755,1627777,1629680,1630178,203552,203954,1610612737,1626153,1628381,1628989,1629027,203991,0022100335,2,1359,1362,0,0,1610612737
85,1610612755,1627777,1629680,1630178,203552,203954,1610612737,1626153,1628381,1628989,1629027,201568,0022100335,2,1383,1383,2,0,1610612755
86,1610612755,1627777,1629680,1630178,203552,203954,1610612737,1626153,1628381,1628989,1629027,201568,0022100335,2,1401,1401,0,2,1610612737
87,1610612755,1627777,1629680,1630178,203552,203954,1610612737,1626153,1628381,1628989,1629027,201568,0022100335,2,1401,1410,0,0,1610612755
88,1610612755,1627777,1629680,1630178,203552,203954,1610612737,1626153,1628381,1628989,1629027,201568,0022100335,2,1429,1431,1,3,1610612737
89,1610612755,1627788,1630178,201980,203552,203954,1610612737,1626153,1628381,1628989,1629027,201568,0022100335,2,1439,1439,2,0,1610612755
90,1610612755,201980,1627777,203954,203552,1630178,1610612737,1627789,1628381,203991,1628989,1629027,0022100335,3,1440,1461,0,0,1610612737
91,1610612755,201980,1627777,203954,203552,1630178,1610612737,1627789,1628381,203991,1628989,1629027,0022100335,3,1470,1473,0,0,1610612755
92,1610612755,201980,1627777,203954,203552,1630178,1610612737,1627789,1628381,203991,1628989,1629027,0022100335,3,1479,1479,0,3,1610612737
93,1610612755,201980,1627777,203954,203552,1630178,1610612737,1627789,1628381,203991,1628989,1629027,0022100335,3,1506,1506,3,0,1610612755
94,1610612755,201980,1627777,203954,203552,1630178,1610612737,1627789,1628381,203991,1628989,1629027,0022100335,3,1517,1517,0,0,1610612737
95,1610612755,201980,1627777,203954,203552,1630178,1610612737,1627789,1628381,203991,1628989,1629027,0022100335,3,1539,1543,0,0,1610612755
96,1610612755,201980,1627777,203954,203552,1630178,1610612737,1627789,1628381,203991,1628989,1629027,0022100335,3,1549,1549,0,2,1610612737
97,1610612755,201980,1627777,203954,203552,1630178,1610612737,1627789,1628381,203991,1628989,1629027,0022100335,3,1563,1563,2,0,1610612755
98,1610612755,201980,1627777,203954,203552,1630178,1610612737,1627789,1628381,203991,1628989,1629027,0022100335,3,1574,1576,0,1,1610612737
99,1610612755,201980,1627777,203954,203552,1630178,1610612737,1626153,1628381,1628989,1629027,203991,0022100335,3,1590,1590,2,0,1610612755
100,1610612755,201980,1627777,203954,203552,1630178,1610612737,1626153,1628381,1628989,1629027,203991,0022100335,3,1605,1608,0,0,1610612737
101,1610612755,201980,1627777,203954,203552,1630178,1610612737,1626153,1628381,1628989,1629027,203991,0022100335,3,1613,1613,3,0,1610612755
102,1610612755,201980,1627777,203954,203552,1630178,1610612737,1626153,1628381,1628989,1629027,203991,0022100335,3,1624,1624,0,2,1610612737
103,1610612755,201980,1627777,203954,203552,1630178,1610612737,1626153,1628381,1628989,1629027,203991,0022100335,3,1639,1639,3,0,1610612755
104,1610612755,201980,1627777,203954,203552,1630178,1610612737,1626153,1628381,1628989,1629027,203991,0022100335,3,1650,1650,0,3,1610612737
105,1610612755,201980,1627777,203954,203552,1630178,1610612737,1626153,1628381,1628989,1629027,203991,0022100335,3,1669,1669,0,0,1610612755
106,1610612755,201980,1627777,203954,203552,1630178,1610612737,1626153,1628381,1628989,1629027,203991,0022100335,3,1671,1688,0,0,1610612737
107,1610612755,201980,1627777,203954,203552,1630178,1610612737,1626153,1628381,1628989,1629027,203991,0022100335,3,1698,1698,3,0,1610612755
108,1610612755,201980,1627777,203954,203552,1630178,1610612737,1626153,1628381,1628989,1629027,203991,0022100335,3,1721,1723,0,1,1610612737
109,1610612755,201980,1627777,203954,203552,1630178,1610612737,1626153,1628381,1628989,1629027,203991,0022100335,3,1745,1745,2,0,1610612755
110,1610612755,201980,1627777,203954,203552,1630178,1610612737,1626153,1628381,1628989,1629027,203991,0022100335,3,1756,1767,0,3,1610612737
111,1610612755,201980,1627777,203954,203552,1630178,1610612737,1626153,1628381,1628989,1629027,203991,0022100335,3,1785,1799,4,0,1610612755
112,1610612755,201980,1627777,203954,203552,1630178,1610612737,1626153,1628381,1628989,1629027,203991,0022100335,3,1812,1812,0,2,1610612737
113,1610612755,1627777,1630178,201980,203083,203552,1610612737,1626153,1628989,1629027,201568,203991,0022100335,3,1825,1829,0,0,1610612755
114,1610612755,1627777,1630178,201980,203083,203552,1610612737,1626153,1628989,1629027,201568,203991,0022100335,3,1834,1837,0,0,1610612737
115,1610612755,1627777,1630178,201980,203083,203552,1610612737,1626153,1628989,1629027,201568,203991,0022100335,3,1846,1851,0,0,1610612755
116,1610612755,1627777,1630178,201980,203083,203552,1610612737,1626153,1628989,1629027,201568,203991,0022100335,3,1854,1856,0,1,1610612737
117,1610612755,1627777,1629003,1630178,203083,203552,1610612737,1626153,1628381,1628989,1629027,201568,0022100335,3,1878,1878,0,0,1610612755
118,1610612755,1627777,1629003,1630178,203083,203552,1610612737,1626153,1628381,1628989,1629027,201568,0022100335,3,1884,1884,0,2,1610612737
119,1610612755,1627777,1629003,1630178,203083,203552,1610612737,1626153,1628381,1628989,1629027,201568,0022100335,3,1903,1905,0,0,1610612755
120,1610612755,1627777,1629003,1630178,203083,203552,1610612737,1626153,1628381,1628989,1629027,201568,0022100335,3,1914,1916,0,0,1610612737
121,1610612755,1627777,1629003,1630178,203083,203552,1610612737,1626153,1628381,1628989,1629027,201568,0022100335,3,1928,1932,0,0,1610612755
122,1610612755,1627777,1629003,1630178,203083,203552,1610612737,1626153,1628381,1628989,1629027,201568,0022100335,3,1935,1935,0,2,1610612737
123,1610612755,1627777,1629003,1630178,203083,203552,1610612737,1626153,1628381,1628989,1629027,201568,0022100335,3,1936,1950,0,0,1610612755
124,1610612755,1627777,1627788,1629003,1629680,203083,1610612737,1626153,1628381,1628989,1629027,201568,0022100335,3,1962,1962,0,3,1610612737
125,1610612755,1627777,1627788,1629003,1629680,203083,1610612737,1626153,1628381,1628989,1629027,201568,0022100335,3,1988,1988,3,0,1610612755
126,1610612755,1627777,1627788,1629003,1629680,203083,1610612737,1626153,1628381,1628989,1629027,201568,0022100335,3,2001,2001,0,3,1610612737
127,1610612755,1627777,1627788,1629003,1629680,203083,1610612737,1626153,1628381,1628989,1629027,201568,0022100335,3,2015,2021,2,0,1610612755
128,1610612755,1627777,1627788,1629003,1629680,203083,1610612737,1626153,1628381,1628989,1629027,201568,0022100335,3,2028,2030,0,0,1610612737
129,1610612755,1627777,1627788,1629003,1629680,203083,1610612737,1626153,1628381,1628989,1629027,201568,0022100335,3,2030,2042,0,0,1610612755
130,1610612755,1627777,1627788,1629003,1629680,203083,1610612737,101150,1626153,1628381,1629027,201568,0022100335,3,2055,2059,0,0,1610612737
131,1610612755,1627777,1627788,1629003,1629680,203083,1610612737,101150,1626153,1628381,1629027,201568,0022100335,3,2066,2071,3,0,1610612755
132,1610612755,1627777,1627788,1629003,1629680,203083,1610612737,101150,1626153,1628381,1629027,201568,0022100335,3,2081,2081,0,2,1610612737
133,1610612755,1627777,1627788,1629003,1629680,203083,1610612737,101150,1626153,1628381,1629027,201568,0022100335,3,2092,2095,2,0,1610612755
134,1610612755,1627777,1627788,1629003,1629680,203083,1610612737,101150,1626153,1628381,1629027,201568,0022100335,3,2105,2105,0,3,1610612737
135,1610612755,1627777,1627788,1629003,1629680,203083,1610612737,101150,1626153,1628381,1629027,201568,0022100335,3,2120,2120,0,0,1610612755
136,1610612755,1627777,1627788,1629003,1629680,203083,1610612737,101150,1626153,1628381,1629027,201568,0022100335,3,2131,2131,0,0,1610612737
137,1610612755,1627788,1629003,1630178,203083,203552,1610612737,1626153,1628381,1628989,1629027,203524,0022100335,3,2150,2150,2,0,1610612755
138,1610612755,1627788,1629003,1629680,1630178,203083,1610612737,1626153,1628381,1628989,1629027,201568,0022100335,3,2159,2159,0,2,1610612737
139,1610612755,201980,203954,1630178,1627788,1629003,1610612737,203991,201568,1626153,101150,203524,0022100335,4,2160,2181,0,0,1610612755
140,1610612755,201980,203954,1630178,1627788,1629003,1610612737,203991,201568,1626153,101150,203524,0022100335,4,2191,2196,0,0,1610612737
141,1610612755,201980,203954,1630178,1627788,1629003,1610612737,203991,201568,1626153,101150,203524,0022100335,4,2199,2199,2,0,1610612755
142,1610612755,201980,203954,1630178,1627788,1629003,1610612737,203991,201568,1626153,101150,203524,0022100335,4,2216,2216,0,3,1610612737
143,1610612755,201980,203954,1630178,1627788,1629003,1610612737,203991,201568,1626153,101150,203524,0022100335,4,2241,2243,0,0,1610612755
144,1610612755,201980,203954,1630178,1627788,1629003,1610612737,203991,201568,1626153,101150,203524,0022100335,4,2250,2250,0,0,1610612737
145,1610612755,201980,203954,1630178,1627788,1629003,1610612737,203991,201568,1626153,101150,203524,0022100335,4,2252,2259,0,0,1610612755
146,1610612755,1627788,1629003,1629680,201980,203954,1610612737,203991,201568,1626153,101150,203524,0022100335,4,2275,2287,0,0,1610612737
147,1610612755,1627788,1629003,1629680,201980,203954,1610612737,203991,201568,1626153,101150,203524,0022100335,4,2287,2307,2,0,1610612755
148,1610612755,1627788,1629003,1629680,201980,203954,1610612737,203991,201568,1626153,101150,203524,0022100335,4,2329,2332,0,0,1610612737
149,1610612755,1627788,1629003,1629680,201980,203954,1610612737,203991,201568,1626153,101150,203524,0022100335,4,2338,2338,0,0,1610612755
150,1610612755,1627788,1629003,1629680,201980,203954,1610612737,203991,201568,1626153,101150,203524,0022100335,4,2345,2349,0,0,1610612737
151,1610612755,1627788,1629003,1629680,201980,203954,1610612737,203991,201568,1626153,101150,203524,0022100335,4,2359,2362,0,0,1610612755
152,1610612755,1627788,1629003,1629680,201980,203954,1610612737,203991,201568,1626153,101150,203524,0022100335,4,2366,2373,0,0,1610612737
153,1610612755,1627788,1629003,1629680,201980,203954,1610612737,203991,201568,1626153,101150,203524,0022100335,4,2393,2393,2,0,1610612755
154,1610612755,1627788,1629003,1629680,201980,203954,1610612737,203991,201568,1626153,101150,203524,0022100335,4,2408,2408,0,2,1610612737
155,1610612755,1627788,1629003,1629680,201980,203954,1610612737,203991,201568,1626153,101150,203524,0022100335,4,2425,2428,0,0,1610612755
156,1610612755,1627788,1629003,1629680,201980,203954,1610612737,203991,201568,1626153,101150,203524,0022100335,4,2446,2450,0,0,1610612737
157,1610612755,1627788,1629003,1629680,201980,203954,1610612737,203991,201568,1626153,101150,203524,0022100335,4,2462,2465,0,0,1610612755
158,1610612755,1627788,1629003,1629680,201980,203954,1610612737,203991,201568,1626153,101150,203524,0022100335,4,2471,2474,0,0,1610612737
159,1610612755,1627788,1629003,1629680,201980,203954,1610612737,203991,201568,1626153,101150,203524,0022100335,4,2495,2501,0,0,1610612755
160,1610612755,1627788,1629003,1629680,201980,203954,1610612737,203991,201568,1626153,101150,203524,0022100335,4,2516,2524,0,0,1610612737
161,1610612755,1629680,1630178,201980,203552,203954,1610612737,1627789,1628989,1629027,201568,203991,0022100335,4,2538,2538,2,0,1610612755
162,1610612755,1629680,1630178,201980,203552,203954,1610612737,1627789,1628381,1628989,1629027,201568,0022100335,4,2566,2566,0,0,1610612737
163,1610612755,1629680,1630178,201980,203552,203954,1610612737,1627789,1628381,1628989,1629027,201568,0022100335,4,2574,2574,3,0,1610612755
164,1610612755,1629680,1630178,201980,203552,203954,1610612737,1627789,1628381,1628989,1629027,201568,0022100335,4,2595,2595,0,0,1610612737
165,1610612755,1629680,1630178,201980,203552,203954,1610612737,1627789,1628381,1628989,1629027,201568,0022100335,4,2595,2612,2,0,1610612755
166,1610612755,1629680,1630178,201980,203552,203954,1610612737,1627789,1628381,1628989,1629027,201568,0022100335,4,2613,2625,0,2,1610612737
167,1610612755,1629680,1630178,201980,203552,203954,1610612737,1627789,1628381,1628989,1629027,203991,0022100335,4,2649,2649,0,0,1610612755
168,1610612755,1629680,1630178,201980,203552,203954,1610612737,1627789,1628381,1628989,1629027,203991,0022100335,4,2662,2662,0,2,1610612737
169,1610612755,1629680,1630178,201980,203552,203954,1610612737,1627789,1628381,1628989,1629027,203991,0022100335,4,2680,2688,3,0,1610612755
170,1610612755,1629680,1630178,201980,203552,203954,1610612737,1627789,1628381,1628989,1629027,203991,0022100335,4,2714,2720,0,0,1610612737
171,1610612755,1629680,1630178,201980,203552,203954,1610612737,1627789,1628381,1628989,1629027,203991,0022100335,4,2730,2730,2,0,1610612755
172,1610612755,1629680,1630178,201980,203552,203954,1610612737,1627789,1628381,1628989,1629027,203991,0022100335,4,2750,2752,0,0,1610612737
173,1610612755,1629680,1630178,201980,203552,203954,1610612737,1627789,1628381,1628989,1629027,203991,0022100335,4,2759,2759,0,0,1610612755
174,1610612755,1629680,1630178,201980,203552,203954,1610612737,1627789,1628381,1628989,1629027,203991,0022100335,4,2775,2778,0,0,1610612737
175,1610612755,1629680,1630178,201980,203552,203954,1610612737,1627789,1628381,1628989,1629027,203991,0022100335,4,2798,2801,0,0,1610612755
176,1610612755,1629680,1630178,201980,203552,203954,1610612737,1627789,1628381,1628989,1629027,203991,0022100335,4,2811,2814,0,0,1610612737
177,1610612755,1629680,1630178,201980,203552,203954,1610612737,1627789,1628381,1628989,1629027,203991,0022100335,4,2814,2838,2,0,1610612755
178,1610612755,1629680,1630178,201980,203552,203954,1610612737,1627789,1628381,1628989,1629027,203991,0022100335,4,2838,2848,0,0,1610612737
179,1610612755,1629680,1630178,201980,203552,203954,1610612737,1627789,1628381,1628989,1629027,201568,0022100335,4,2870,2874,0,0,1610612755
180,1610612755,1629680,1630178,201980,203552,203954,1610612737,1627789,1628381,1628989,1629027,201568,0022100335,4,2878,2880,0,0,1610612755
