,t1_pm,t2_pm,stint_start,t2_points_scored,t2_players,t2_id,t1_id,t1_players,stint_end,t1_points_scored,margin_per_100,num_poss
0,-1,1,0,12,"[1629659, 1628398, 1626149, 202083, 203471]",1610612747,1610612746,"[202695, 201587, 201586, 202331, 201976]",399,11,-3.3333333333333335,30.0
1,-3,3,400,17,"[1629659, 1628398, 1626149, 202083, 203471]",1610612747,1610612746,"[202695, 201587, 201586, 202331, 201976]",467,14,-8.823529411764707,34.0
2,-2,2,468,20,"[1626149, 1627936, 1628398, 202083, 203471]",1610612747,1610612746,"[101150, 1627826, 1628379, 201586, 202704]",602,18,-4.444444444444445,45.0
3,-3,3,603,25,"[1626188, 1627936, 1628398, 1628961, 1629719]",1610612747,1610612746,"[101150, 1627826, 1628379, 202335, 202704]",719,22,-5.454545454545454,55.0
4,-6,6,720,30,"[1626188, 1627936, 1628961, 1629659, 1629719]",1610612747,1610612746,"[101150, 1627826, 1628379, 202335, 202704]",780,24,-10.16949152542373,59.0
5,-2,2,781,30,"[1629659, 1627936, 1626188, 1629719, 1628961]",1610612747,1610612746,"[202704, 101150, 1628379, 1627826, 202335]",890,28,-2.9850746268656714,67.0
6,-2,2,891,30,"[1629659, 1627936, 1626188, 1629719, 1628961]",1610612747,1610612746,"[1627826, 202331, 202335, 202695, 202704]",918,28,-2.898550724637681,69.0
7,4,-4,919,30,"[1629659, 1627936, 1626188, 1629719, 1628961]",1610612747,1610612746,"[1627826, 201976, 202331, 202335, 202695]",971,34,5.405405405405405,74.0
8,4,-4,972,30,"[1626188, 1628961, 1629659, 1629719, 202083]",1610612747,1610612746,"[1627826, 201587, 201976, 202331, 202695]",1017,34,5.263157894736842,76.0
9,2,-2,1018,34,"[1626149, 1628961, 1629659, 202083, 203471]",1610612747,1610612746,"[1629662, 201587, 201976, 202331, 202695]",1067,36,2.5,80.0
10,6,-6,1068,34,"[1626149, 1628398, 1629659, 202083, 203471]",1610612747,1610612746,"[1629662, 201587, 201976, 202331, 202695]",1165,40,6.8181818181818175,88.0
11,8,-8,1166,36,"[1626149, 1627936, 1628398, 202083, 203471]",1610612747,1610612746,"[1629662, 201587, 201976, 202331, 202695]",1231,44,8.695652173913043,92.0
12,8,-8,1232,36,"[1626149, 1626188, 1628398, 202083, 203471]",1610612747,1610612746,"[1629662, 201587, 201976, 202331, 202695]",1270,44,8.51063829787234,94.0
13,3,-3,1271,43,"[1626149, 1626188, 1628398, 202083, 203471]",1610612747,1610612746,"[1628379, 1629611, 1629662, 201587, 202704]",1439,46,2.7522935779816518,109.0
14,4,-4,1440,54,"[1626149, 1626188, 1628398, 1629659, 203471]",1610612747,1610612746,"[1628379, 1629611, 1629662, 202335, 202704]",1873,58,2.877697841726619,139.0
15,4,-4,1874,54,"[1629659, 1628398, 1626149, 202083, 203471]",1610612747,1610612746,"[1628379, 1627826, 202335, 1629611, 1629599]",1958,58,2.73972602739726,146.0
16,-1,1,1959,59,"[1626149, 1626188, 1629719, 202083, 203471]",1610612747,1610612746,"[1627826, 1629599, 1629611, 1629730, 202335]",2073,58,-0.6451612903225806,155.0
17,2,-2,2074,59,"[1626188, 1628398, 1628961, 1629659, 1629719]",1610612747,1610612746,"[1629599, 1629611, 1629662, 1629730, 1630187]",2158,61,1.25,160.0
18,4,-4,2159,61,"[1626188, 1628398, 1628961, 1629659, 1629719]",1610612747,1610612746,"[1629065, 1629662, 1629730, 1630187, 1630259]",2286,65,2.380952380952381,168.0
19,6,-6,2287,63,"[1629659, 1626149, 1626188, 1629719, 1628961]",1610612747,1610612746,"[1629662, 1629730, 1630187, 1629065, 1630259]",2363,69,3.488372093023256,172.0
20,2,-2,2364,68,"[1626149, 1626188, 1628398, 1628961, 1629719]",1610612747,1610612746,"[1629662, 1629730, 1630187, 1629065, 1630259]",2435,70,1.1363636363636365,176.0
21,0,0,2436,70,"[1626149, 1626188, 1628398, 1628961, 1629719]",1610612747,1610612746,"[1629599, 1629611, 1629662, 1629730, 1630187]",2473,70,0.0,178.0
22,1,-1,2474,72,"[1626149, 1628398, 1628961, 1629659, 1629719]",1610612747,1610612746,"[1629065, 1629599, 1629662, 1629730, 1630187]",2537,73,0.5434782608695652,184.0
23,-3,3,2538,80,"[1626149, 1628398, 1628961, 1629659, 1629719]",1610612747,1610612746,"[1629065, 1629599, 1629611, 1629662, 1630187]",2691,77,-1.5463917525773196,194.0
24,-6,6,2692,87,"[1626188, 1628398, 1628961, 1629659, 1629719]",1610612747,1610612746,"[1629065, 1629599, 1629611, 1629662, 1630187]",2879,81,-2.941176470588235,204.0
25,-6,6,2880,87,"[1626188, 1628398, 1628961, 1629659, 1629719]",1610612747,1610612746,"[1629065, 1629599, 1629611, 1630187, 1630238]",9999999,81,-2.9268292682926833,205.0
