,team1_id,team1_player1,team1_player2,team1_player3,team1_player4,team1_player5,team2_id,team2_player1,team2_player2,team2_player3,team2_player4,team2_player5,game_id,period,possession_start,possession_end,team1_points,team2_points,possession_team
0,1610612760,201568,1628983,203500,1629652,101108,1610612752,203090,203944,201959,1629628,203901,0021900932,1,0,20,0,0,1610612760
1,1610612760,201568,1628983,203500,1629652,101108,1610612752,203090,203944,201959,1629628,203901,0021900932,1,35,35,0,2,1610612752
2,1610612760,201568,1628983,203500,1629652,101108,1610612752,203090,203944,201959,1629628,203901,0021900932,1,54,55,0,0,1610612760
3,1610612760,201568,1628983,203500,1629652,101108,1610612752,203090,203944,201959,1629628,203901,0021900932,1,66,68,0,0,1610612752
4,1610612760,201568,1628983,203500,1629652,101108,1610612752,203090,203944,201959,1629628,203901,0021900932,1,74,76,0,0,1610612760
5,1610612760,201568,1628983,203500,1629652,101108,1610612752,203090,203944,201959,1629628,203901,0021900932,1,87,89,0,0,1610612752
6,1610612760,201568,1628983,203500,1629652,101108,1610612752,203090,203944,201959,1629628,203901,0021900932,1,106,106,2,0,1610612760
7,1610612760,201568,1628983,203500,1629652,101108,1610612752,203090,203944,201959,1629628,203901,0021900932,1,124,124,0,1,1610612752
8,1610612760,201568,1628983,203500,1629652,101108,1610612752,203090,203944,201959,1629628,203901,0021900932,1,132,133,0,0,1610612760
9,1610612760,201568,1628983,203500,1629652,101108,1610612752,203090,203944,201959,1629628,203901,0021900932,1,136,143,0,2,1610612752
10,1610612760,201568,1628983,203500,1629652,101108,1610612752,203090,203944,201959,1629628,203901,0021900932,1,165,167,0,0,1610612760
11,1610612760,201568,1628983,203500,1629652,101108,1610612752,203090,203944,201959,1629628,203901,0021900932,1,176,176,0,2,1610612752
12,1610612760,201568,1628983,203500,1629652,101108,1610612752,203090,203944,201959,1629628,203901,0021900932,1,189,199,2,0,1610612760
13,1610612760,201568,1628983,203500,1629652,101108,1610612752,203090,203944,201959,1629628,203901,0021900932,1,214,214,0,2,1610612752
14,1610612760,201568,1628983,203500,1629652,101108,1610612752,203090,203944,201959,1629628,203901,0021900932,1,236,236,3,0,1610612760
15,1610612760,201568,1628983,203500,1629652,101108,1610612752,203090,203944,201959,1629628,203901,0021900932,1,256,256,0,2,1610612752
16,1610612760,201568,1628983,203500,1629652,101108,1610612752,203090,203944,201959,1629628,203901,0021900932,1,272,272,3,0,1610612760
17,1610612760,201568,1628983,203500,1629652,101108,1610612752,203090,203944,201959,1629628,203901,0021900932,1,288,289,0,0,1610612752
18,1610612760,101108,1629652,201568,203471,203500,1610612752,203090,203944,201959,1629628,203901,0021900932,1,307,309,0,0,1610612760
19,1610612760,101108,1629652,201568,203471,203500,1610612752,203090,203944,201959,1629628,203901,0021900932,1,318,320,0,0,1610612752
20,1610612760,101108,1629652,201568,203471,203500,1610612752,203090,203944,201959,1629628,203901,0021900932,1,335,335,2,0,1610612760
21,1610612760,101108,1629652,201568,203471,203500,1610612752,203090,203944,201959,1629628,203901,0021900932,1,341,351,0,2,1610612752
22,1610612760,101108,1629652,201568,203457,203471,1610612752,1629011,1629628,203090,203901,203944,0021900932,1,358,358,2,0,1610612760
23,1610612760,101108,1629652,201568,203457,203471,1610612752,1629011,1629628,203090,203901,203944,0021900932,1,375,376,0,0,1610612752
24,1610612760,101108,1629652,201568,203457,203471,1610612752,1629011,1629628,203090,203901,203944,0021900932,1,393,410,0,0,1610612760
25,1610612760,101108,1629652,201568,203457,203471,1610612752,1629011,1629628,203090,203901,203944,0021900932,1,429,429,0,2,1610612752
26,1610612760,101108,1629652,201568,203457,203471,1610612752,1629011,1629628,203090,203901,203944,0021900932,1,443,445,0,0,1610612760
27,1610612760,101108,1629652,201568,203457,203471,1610612752,1629011,1629628,203090,203901,203944,0021900932,1,450,452,0,0,1610612752
28,1610612760,101108,1629652,201568,203457,203471,1610612752,1629011,1629628,203090,203901,203944,0021900932,1,457,459,0,0,1610612760
29,1610612760,101108,1629652,201568,203457,203471,1610612752,1629011,1629628,203090,203901,203944,0021900932,1,465,465,0,2,1610612752
30,1610612760,101108,1629652,201568,203457,203471,1610612752,1629011,1629628,203090,203901,203944,0021900932,1,465,481,2,0,1610612760
31,1610612760,1628390,1629652,201568,203457,203471,1610612752,1629011,201961,203090,203901,203944,0021900932,1,501,503,0,0,1610612752
32,1610612760,1628390,1628977,201568,203457,203471,1610612752,1629011,201961,203090,203901,203944,0021900932,1,511,511,1,0,1610612760
33,1610612760,1628390,1628977,201568,203457,203471,1610612752,1629011,201961,203090,203901,203944,0021900932,1,530,530,0,2,1610612752
34,1610612760,1628390,1628977,201568,203457,203471,1610612752,1629011,201961,203090,203901,203944,0021900932,1,547,549,0,0,1610612760
35,1610612760,1628390,1628977,201568,203457,203471,1610612752,1629011,201961,203090,203901,203944,0021900932,1,554,556,0,0,1610612752
36,1610612760,1628390,1628977,201568,203457,203471,1610612752,1629011,201961,203090,203901,203944,0021900932,1,562,573,2,0,1610612760
37,1610612760,1628390,1628977,201568,203457,203471,1610612752,1629011,201961,203090,203901,203944,0021900932,1,591,592,0,0,1610612752
38,1610612760,1628390,1628977,201568,203457,203471,1610612752,1628373,1628995,1629011,201961,203944,0021900932,1,612,612,2,0,1610612760
39,1610612760,1628390,1628977,201568,203457,203471,1610612752,1628373,1628995,1629011,201961,203944,0021900932,1,623,625,0,0,1610612752
40,1610612760,1628390,1628977,201568,203457,203471,1610612752,1628373,1628995,1629011,201961,203944,0021900932,1,630,630,2,0,1610612760
41,1610612760,1628390,1628977,201568,203457,203471,1610612752,1628373,1628995,1629011,201961,203944,0021900932,1,645,664,0,0,1610612752
42,1610612760,1627846,1628390,1628977,203457,203471,1610612752,1626171,1628373,1628995,1629011,201961,0021900932,1,681,681,2,0,1610612760
43,1610612760,1627846,1628390,1628977,203457,203471,1610612752,1626171,1628373,1628995,1629011,201961,0021900932,1,689,691,0,0,1610612752
44,1610612760,1627846,1628390,1628977,203457,203471,1610612752,1626171,1628373,1628995,1629011,201961,0021900932,1,693,693,0,0,1610612760
45,1610612760,1627846,1628390,1628977,203457,203471,1610612752,1626171,1628373,1628995,1629011,201961,0021900932,1,709,709,0,1,1610612752
46,1610612760,101108,1627846,1628977,203457,203471,1610612752,1626171,1628373,1628995,1629011,201961,0021900932,1,719,719,2,0,1610612760
47,1610612760,203500,101108,203471,1628977,1627846,1610612752,1629011,201961,1628373,1628995,1626171,0021900932,2,720,747,0,0,1610612752
48,1610612760,203500,101108,203471,1628977,1627846,1610612752,1629011,201961,1628373,1628995,1626171,0021900932,2,751,760,0,0,1610612760
49,1610612760,203500,101108,203471,1628977,1627846,1610612752,1629011,201961,1628373,1628995,1626171,0021900932,2,771,782,0,0,1610612752
50,1610612760,203500,101108,203471,1628977,1627846,1610612752,1629011,201961,1628373,1628995,1626171,0021900932,2,792,794,0,0,1610612760
51,1610612760,203500,101108,203471,1628977,1627846,1610612752,1629011,201961,1628373,1628995,1626171,0021900932,2,796,802,0,2,1610612752
52,1610612760,203500,101108,203471,1628977,1627846,1610612752,1629011,201961,1628373,1628995,1626171,0021900932,2,820,820,2,0,1610612760
53,1610612760,203500,101108,203471,1628977,1627846,1610612752,1629011,201961,1628373,1628995,1626171,0021900932,2,836,844,0,2,1610612752
54,1610612760,203500,101108,203471,1628977,1627846,1610612752,1629011,201961,1628373,1628995,1626171,0021900932,2,861,863,2,0,1610612760
55,1610612760,203500,101108,203471,1628977,1627846,1610612752,1629011,201961,1628373,1628995,1626171,0021900932,2,873,877,0,2,1610612752
56,1610612760,203500,101108,203471,1628977,1627846,1610612752,1629011,201961,1628373,1628995,1626171,0021900932,2,897,897,3,0,1610612760
57,1610612760,203500,101108,203471,1628977,1627846,1610612752,1629011,201961,1628373,1628995,1626171,0021900932,2,911,911,0,0,1610612752
58,1610612760,203500,101108,203471,1628977,1627846,1610612752,1629011,201961,1628373,1628995,1626171,0021900932,2,917,919,0,0,1610612760
59,1610612760,203500,101108,203471,1628977,1627846,1610612752,1629011,201961,1628373,1628995,1626171,0021900932,2,922,922,0,2,1610612752
60,1610612760,203500,101108,203471,1628977,1627846,1610612752,1629011,201961,1628373,1628995,1626171,0021900932,2,927,944,0,0,1610612760
61,1610612760,203500,101108,203471,1628977,1627846,1610612752,1626171,1628995,1629011,201961,203901,0021900932,2,958,958,0,2,1610612752
62,1610612760,203500,101108,203471,1628977,1627846,1610612752,1626171,1628995,1629011,201961,203901,0021900932,2,970,974,2,0,1610612760
63,1610612760,203500,101108,203471,1628977,1627846,1610612752,1626171,1628995,1629011,201961,203901,0021900932,2,988,988,0,2,1610612752
64,1610612760,203500,101108,203471,1628977,1627846,1610612752,1626171,1628995,1629011,201961,203901,0021900932,2,999,1001,0,0,1610612760
65,1610612760,203500,101108,203471,1628977,1627846,1610612752,1626171,1628995,1629011,201961,203901,0021900932,2,1007,1007,0,2,1610612752
66,1610612760,203500,101108,203471,1628977,1627846,1610612752,1626171,1628995,1629011,201961,203901,0021900932,2,1007,1017,3,0,1610612760
67,1610612760,1627846,1628977,1628983,203457,203471,1610612752,1626171,1629628,201959,203090,203901,0021900932,2,1039,1041,0,0,1610612752
68,1610612760,1627846,1628977,1628983,203457,203471,1610612752,1626171,1629628,201959,203090,203901,0021900932,2,1058,1058,0,0,1610612760
69,1610612760,1627846,1628977,1628983,203457,203471,1610612752,1626171,1629628,201959,203090,203901,0021900932,2,1062,1063,0,2,1610612752
70,1610612760,1628977,1628983,201568,203457,203471,1610612752,1626171,1629628,201959,203090,203901,0021900932,2,1086,1086,2,0,1610612760
71,1610612760,1628977,1628983,201568,203457,203471,1610612752,1626171,1629628,201959,203090,203901,0021900932,2,1099,1101,0,0,1610612752
72,1610612760,1628977,1628983,201568,203457,203471,1610612752,1626171,1629628,201959,203090,203901,0021900932,2,1107,1109,0,0,1610612760
73,1610612760,1628977,1628983,201568,203457,203471,1610612752,1626171,1629628,201959,203090,203901,0021900932,2,1118,1121,0,0,1610612752
74,1610612760,1628977,1628983,201568,203457,203471,1610612752,1626171,1629628,201959,203090,203901,0021900932,2,1126,1126,3,0,1610612760
75,1610612760,1628977,1628983,201568,203457,203471,1610612752,1626171,1629628,201959,203090,203901,0021900932,2,1131,1144,0,1,1610612752
76,1610612760,1628983,1629652,201568,203457,203471,1610612752,1626171,1629628,203090,203901,203944,0021900932,2,1154,1154,2,0,1610612760
77,1610612760,1628983,1629652,201568,203457,203471,1610612752,1626171,1629628,203090,203901,203944,0021900932,2,1167,1167,0,2,1610612752
78,1610612760,1628983,1629652,201568,203457,203471,1610612752,1626171,1629628,203090,203901,203944,0021900932,2,1176,1178,1,0,1610612760
79,1610612760,1628983,1629652,201568,203457,203471,1610612752,1626171,1629628,203090,203901,203944,0021900932,2,1198,1201,0,0,1610612752
80,1610612760,1628983,1629652,201568,203457,203471,1610612752,1626171,1629628,203090,203901,203944,0021900932,2,1207,1207,2,0,1610612760
81,1610612760,1628983,1629652,201568,203457,203471,1610612752,1626171,1629628,203090,203901,203944,0021900932,2,1213,1224,0,2,1610612752
82,1610612760,1628983,1629652,201568,203457,203471,1610612752,1626171,1629628,203090,203901,203944,0021900932,2,1244,1244,2,0,1610612760
83,1610612760,1628983,1629652,201568,203457,203471,1610612752,1626171,1629628,203090,203901,203944,0021900932,2,1263,1263,0,0,1610612752
84,1610612760,1628983,1629652,201568,203471,203500,1610612752,1626171,1629628,203090,203901,203944,0021900932,2,1278,1278,2,0,1610612760
85,1610612760,101108,1628983,1629652,201568,203500,1610612752,1626171,1629628,203493,203901,203944,0021900932,2,1300,1300,0,0,1610612752
86,1610612760,101108,1628983,1629652,201568,203500,1610612752,1626171,1629628,203493,203901,203944,0021900932,2,1318,1335,2,0,1610612760
87,1610612760,101108,1628983,1629652,201568,203500,1610612752,1626171,1629628,203493,203901,203944,0021900932,2,1352,1352,0,2,1610612752
88,1610612760,101108,1628983,1629652,201568,203500,1610612752,1626171,1629628,203493,203901,203944,0021900932,2,1373,1373,2,0,1610612760
89,1610612760,101108,1628983,1629652,201568,203500,1610612752,1626171,1629628,203493,203901,203944,0021900932,2,1382,1382,0,2,1610612752
90,1610612760,101108,1628983,1629652,201568,203500,1610612752,1626171,1629628,203493,203901,203944,0021900932,2,1400,1400,2,0,1610612760
91,1610612760,101108,1628983,1629652,201568,203500,1610612752,1626171,1629628,203493,203901,203944,0021900932,2,1407,1407,0,3,1610612752
92,1610612760,101108,1628983,1629652,201568,203500,1610612752,1626171,1629628,203493,203901,203944,0021900932,2,1416,1417,2,0,1610612760
93,1610612760,101108,1628390,1629652,201568,203500,1610612752,1626171,1629628,203493,203901,203944,0021900932,2,1439,1440,0,0,1610612752
94,1610612760,201568,1628983,203500,1629652,101108,1610612752,203090,203944,201959,1629628,203901,0021900932,3,1440,1455,0,2,1610612752
95,1610612760,201568,1628983,203500,1629652,101108,1610612752,203090,203944,201959,1629628,203901,0021900932,3,1475,1475,3,0,1610612760
96,1610612760,201568,1628983,203500,1629652,101108,1610612752,203090,203944,201959,1629628,203901,0021900932,3,1491,1491,0,2,1610612752
97,1610612760,201568,1628983,203500,1629652,101108,1610612752,203090,203944,201959,1629628,203901,0021900932,3,1507,1507,2,0,1610612760
98,1610612760,201568,1628983,203500,1629652,101108,1610612752,203090,203944,201959,1629628,203901,0021900932,3,1520,1526,0,2,1610612752
99,1610612760,201568,1628983,203500,1629652,101108,1610612752,203090,203944,201959,1629628,203901,0021900932,3,1527,1547,2,0,1610612760
100,1610612760,201568,1628983,203500,1629652,101108,1610612752,203090,203944,201959,1629628,203901,0021900932,3,1562,1564,0,0,1610612752
101,1610612760,201568,1628983,203500,1629652,101108,1610612752,203090,203944,201959,1629628,203901,0021900932,3,1568,1570,0,0,1610612760
102,1610612760,201568,1628983,203500,1629652,101108,1610612752,203090,203944,201959,1629628,203901,0021900932,3,1583,1583,0,2,1610612752
103,1610612760,201568,1628983,203500,1629652,101108,1610612752,203090,203944,201959,1629628,203901,0021900932,3,1596,1596,3,0,1610612760
104,1610612760,201568,1628983,203500,1629652,101108,1610612752,203090,203944,201959,1629628,203901,0021900932,3,1597,1613,0,2,1610612752
105,1610612760,201568,1628983,203500,1629652,101108,1610612752,203090,203944,201959,1629628,203901,0021900932,3,1631,1631,2,0,1610612760
106,1610612760,201568,1628983,203500,1629652,101108,1610612752,203090,203944,201959,1629628,203901,0021900932,3,1652,1652,0,0,1610612752
107,1610612760,201568,1628983,203500,1629652,101108,1610612752,203090,203944,201959,1629628,203901,0021900932,3,1666,1670,0,0,1610612760
108,1610612760,201568,1628983,203500,1629652,101108,1610612752,203090,203944,201959,1629628,203901,0021900932,3,1677,1680,0,2,1610612752
109,1610612760,101108,1628983,1629652,201568,203457,1610612752,1629628,201959,203493,203901,203944,0021900932,3,1687,1687,2,0,1610612760
110,1610612760,101108,1628983,1629652,201568,203457,1610612752,1629628,201959,203493,203901,203944,0021900932,3,1707,1709,0,0,1610612752
111,1610612760,101108,1628983,1629652,201568,203457,1610612752,1629628,201959,203493,203901,203944,0021900932,3,1715,1715,2,0,1610612760
112,1610612760,101108,1628983,1629652,201568,203457,1610612752,1629011,1629628,203493,203901,203944,0021900932,3,1731,1731,0,0,1610612752
113,1610612760,101108,1628983,1629652,201568,203457,1610612752,1629011,1629628,203493,203901,203944,0021900932,3,1748,1748,3,0,1610612760
114,1610612760,101108,1628983,1629652,201568,203457,1610612752,1629011,1629628,203493,203901,203944,0021900932,3,1767,1767,0,0,1610612752
115,1610612760,101108,1628983,1629652,201568,203457,1610612752,1629011,1629628,203493,203901,203944,0021900932,3,1772,1774,0,0,1610612760
116,1610612760,101108,1628983,1629652,201568,203457,1610612752,1629011,1629628,203493,203901,203944,0021900932,3,1775,1783,0,3,1610612752
117,1610612760,101108,1628983,1629652,201568,203457,1610612752,1629011,1629628,203493,203901,203944,0021900932,3,1795,1795,3,0,1610612760
118,1610612760,101108,1628983,1629652,201568,203457,1610612752,1629011,1629628,203493,203901,203944,0021900932,3,1810,1812,0,2,1610612752
119,1610612760,101108,1628983,1629652,201568,203457,1610612752,1629011,1629628,203493,203901,203944,0021900932,3,1824,1824,2,0,1610612760
120,1610612760,101108,1628983,1629652,201568,203457,1610612752,1629011,1629628,203493,203901,203944,0021900932,3,1824,1837,0,2,1610612752
121,1610612760,101108,1628390,201568,203457,203471,1610612752,1629011,1629628,203493,203901,203944,0021900932,3,1856,1858,0,0,1610612760
122,1610612760,101108,1628390,201568,203457,203471,1610612752,1629011,1629628,203493,203901,203944,0021900932,3,1863,1865,0,0,1610612752
123,1610612760,101108,1628390,201568,203457,203471,1610612752,1629011,1629628,203493,203901,203944,0021900932,3,1867,1867,0,0,1610612760
124,1610612760,101108,1628390,201568,203457,203471,1610612752,1629011,1629628,203493,203901,203944,0021900932,3,1868,1868,0,2,1610612752
125,1610612760,101108,1628390,201568,203457,203471,1610612752,1629011,1629628,203493,203901,203944,0021900932,3,1868,1899,0,0,1610612760
126,1610612760,101108,1628390,201568,203457,203471,1610612752,1629011,1629628,203493,203901,203944,0021900932,3,1905,1905,0,0,1610612752
127,1610612760,101108,1628390,201568,203457,203471,1610612752,1629011,1629628,203493,203901,203944,0021900932,3,1925,1927,0,0,1610612760
128,1610612760,101108,1628390,201568,203457,203471,1610612752,1629011,1629628,203493,203901,203944,0021900932,3,1943,1943,0,0,1610612752
129,1610612760,101108,1628390,201568,203457,203471,1610612752,1629011,1629628,203493,203901,203944,0021900932,3,1949,1949,2,0,1610612760
130,1610612760,101108,1628390,201568,203457,203471,1610612752,1629011,1629628,203493,203901,203944,0021900932,3,1958,1958,0,2,1610612752
131,1610612760,101108,1628390,201568,203457,203471,1610612752,1629011,1629628,203493,203901,203944,0021900932,3,1974,1974,2,0,1610612760
132,1610612760,1628390,1628977,201568,203457,203471,1610612752,1629011,1629628,203493,203901,203944,0021900932,3,1984,1984,0,2,1610612752
133,1610612760,1628390,1628977,201568,203457,203471,1610612752,1629011,1629628,203493,203901,203944,0021900932,3,1995,1995,2,0,1610612760
134,1610612760,1628390,1628977,201568,203457,203471,1610612752,1629011,1629628,203493,203901,203944,0021900932,3,2012,2012,0,2,1610612752
135,1610612760,1628390,1628977,201568,203457,203471,1610612752,1629011,1629628,203493,203901,203944,0021900932,3,2028,2030,0,0,1610612760
136,1610612760,1628390,1628977,201568,203457,203471,1610612752,1629011,1629628,203493,203901,203944,0021900932,3,2033,2033,0,1,1610612752
137,1610612760,1628390,1628977,201568,203457,203471,1610612752,1629011,1629628,203493,203901,203944,0021900932,3,2047,2056,2,0,1610612760
138,1610612760,1628390,1628977,201568,203457,203471,1610612752,1626171,1629011,1629628,203493,203901,0021900932,3,2068,2068,0,0,1610612752
139,1610612760,101108,1627846,1628977,203457,203471,1610612752,1626171,1629011,1629628,203493,203901,0021900932,3,2076,2076,2,0,1610612760
140,1610612760,101108,1627846,1628977,203457,203471,1610612752,1626171,1629011,1629628,203493,203901,0021900932,3,2091,2091,0,2,1610612752
141,1610612760,101108,1627846,1628977,203457,203471,1610612752,1626171,1628422,1629011,203493,203901,0021900932,3,2114,2116,0,0,1610612760
142,1610612760,101108,1627846,1628977,203457,203471,1610612752,1626171,1628422,1629011,203493,203901,0021900932,3,2125,2134,0,0,1610612752
143,1610612760,101108,1627846,1628977,203457,203471,1610612752,1626171,1628422,1629011,203493,203901,0021900932,3,2155,2157,0,0,1610612760
144,1610612760,101108,1627846,1628977,203457,203471,1610612752,1626171,1628422,1629011,203493,203901,0021900932,3,2160,2160,0,0,1610612760
145,1610612760,203500,101108,203471,1628977,1627846,1610612752,1629011,1628373,1626171,1628422,1629019,0021900932,4,2160,2170,2,0,1610612760
146,1610612760,203500,101108,203471,1628977,1627846,1610612752,1629011,1628373,1626171,1628422,1629019,0021900932,4,2192,2194,0,0,1610612752
147,1610612760,203500,101108,203471,1628977,1627846,1610612752,1629011,1628373,1626171,1628422,1629019,0021900932,4,2210,2212,0,0,1610612760
148,1610612760,203500,101108,203471,1628977,1627846,1610612752,1629011,1628373,1626171,1628422,1629019,0021900932,4,2234,2236,0,0,1610612752
149,1610612760,203500,101108,203471,1628977,1627846,1610612752,1629011,1628373,1626171,1628422,1629019,0021900932,4,2256,2256,3,0,1610612760
150,1610612760,203500,101108,203471,1628977,1627846,1610612752,1629011,1628373,1626171,1628422,1629019,0021900932,4,2266,2267,0,0,1610612752
151,1610612760,203500,101108,203471,1628977,1627846,1610612752,1629011,1628373,1626171,1628422,1629019,0021900932,4,2274,2274,2,0,1610612760
152,1610612760,203500,101108,203471,1628977,1627846,1610612752,1629011,1628373,1626171,1628422,1629019,0021900932,4,2288,2289,0,0,1610612752
153,1610612760,203500,101108,203471,1628977,1627846,1610612752,1629011,1628373,1626171,1628422,1629019,0021900932,4,2294,2294,3,0,1610612760
154,1610612760,203500,101108,203471,1628977,1627846,1610612752,1629011,1628373,1626171,1628422,1629019,0021900932,4,2296,2314,0,0,1610612752
155,1610612760,203500,101108,203471,1628977,1627846,1610612752,1629011,1628373,1626171,1628422,1629019,0021900932,4,2335,2335,3,0,1610612760
156,1610612760,203500,101108,203471,1628977,1627846,1610612752,1629011,1628373,1626171,1628422,1629019,0021900932,4,2350,2350,0,3,1610612752
157,1610612760,203500,101108,203471,1628977,1627846,1610612752,1629011,1628373,1626171,1628422,1629019,0021900932,4,2366,2366,0,0,1610612760
158,1610612760,203500,101108,203471,1628977,1627846,1610612752,1629011,1628373,1626171,1628422,1629019,0021900932,4,2378,2379,0,0,1610612752
159,1610612760,203500,101108,203471,1628977,1627846,1610612752,1626171,1628373,1628422,1629019,203944,0021900932,4,2396,2401,2,0,1610612760
160,1610612760,203500,101108,203471,1628977,1627846,1610612752,1626171,1628373,1628422,1629019,203944,0021900932,4,2413,2413,0,2,1610612752
161,1610612760,203500,101108,203471,1628977,1627846,1610612752,1626171,1628373,1628422,1629019,203944,0021900932,4,2423,2423,2,0,1610612760
162,1610612760,203500,101108,203471,1628977,1627846,1610612752,1626171,1628373,1628422,1629019,203944,0021900932,4,2425,2448,0,0,1610612752
163,1610612760,1627846,1628977,1628983,203471,203500,1610612752,1626171,1628422,1629019,1629628,203944,0021900932,4,2459,2459,3,0,1610612760
164,1610612760,1627846,1628977,1628983,203471,203500,1610612752,1626171,1628422,1629019,1629628,203944,0021900932,4,2473,2473,0,0,1610612752
165,1610612760,1627846,1628977,1628983,203471,203500,1610612752,1626171,1628422,1629019,1629628,203944,0021900932,4,2488,2490,0,0,1610612760
166,1610612760,1627846,1628977,1628983,203471,203500,1610612752,1626171,1628422,1629019,1629628,203944,0021900932,4,2507,2509,0,0,1610612752
167,1610612760,1627846,1628977,1628983,203471,203500,1610612752,1626171,1628422,1629019,1629628,203944,0021900932,4,2526,2534,2,0,1610612760
168,1610612760,1627846,1628977,1628983,203471,203488,1610612752,1626171,1628422,1628995,1629019,1629628,0021900932,4,2546,2546,0,2,1610612752
169,1610612760,1627846,1628977,1628983,203471,203488,1610612752,1626171,1628422,1628995,1629019,1629628,0021900932,4,2563,2565,0,0,1610612760
170,1610612760,1627846,1628977,1628983,203471,203488,1610612752,1626171,1628422,1628995,1629019,1629628,0021900932,4,2572,2572,0,0,1610612752
171,1610612760,1627846,1628977,1628983,203471,203488,1610612752,1626171,1628422,1628995,1629019,1629628,0021900932,4,2576,2578,0,0,1610612760
172,1610612760,1627846,1628977,1628983,203471,203488,1610612752,1626171,1628422,1628995,1629019,1629628,0021900932,4,2587,2587,0,2,1610612752
173,1610612760,1627846,1628977,1628983,203471,203488,1610612752,1626171,1628422,1628995,1629019,1629628,0021900932,4,2603,2605,0,0,1610612760
174,1610612760,1627846,1628977,1628983,203471,203488,1610612752,1626171,1628422,1628995,1629019,1629628,0021900932,4,2612,2614,0,0,1610612752
175,1610612760,1627846,1628977,1628983,203471,203488,1610612752,1626171,1628422,1628995,1629019,1629628,0021900932,4,2622,2624,0,0,1610612760
176,1610612760,1627846,1628977,1628983,203471,203488,1610612752,1626171,1628422,1628995,1629019,1629628,0021900932,4,2629,2629,0,2,1610612752
177,1610612760,1627846,1628977,1628983,203471,203488,1610612752,1626171,1628422,1628995,1629019,1629628,0021900932,4,2629,2652,0,0,1610612760
178,1610612760,1627846,1628977,1629126,1629652,203488,1610612752,1626171,1628422,1628995,1629019,201961,0021900932,4,2673,2675,0,0,1610612752
179,1610612760,1627846,1628977,1629126,1629652,203488,1610612752,1626171,1628422,1628995,1629019,201961,0021900932,4,2683,2687,2,0,1610612760
180,1610612760,1627846,1628977,1629126,1629652,203488,1610612752,1626171,1628422,1628995,1629019,201961,0021900932,4,2698,2698,0,3,1610612752
181,1610612760,1627846,1628977,1629126,1629652,203488,1610612752,1626171,1628422,1628995,1629019,201961,0021900932,4,2713,2714,0,0,1610612760
182,1610612760,1627846,1628390,1628977,1629126,203488,1610612752,1626171,1628422,1628995,1629019,201961,0021900932,4,2725,2725,0,3,1610612752
183,1610612760,1627846,1628390,1628977,1629126,203488,1610612752,1626171,1628422,1628995,1629019,201961,0021900932,4,2741,2751,3,0,1610612760
184,1610612760,1627846,1628390,1628977,1629126,203488,1610612752,1626171,1628422,1628995,1629019,201961,0021900932,4,2767,2772,0,2,1610612752
185,1610612760,1627846,1628390,1628977,1629126,203488,1610612752,1626171,1628422,1628995,1629019,201961,0021900932,4,2780,2780,2,0,1610612760
186,1610612760,1627846,1628390,1628977,1629126,203488,1610612752,1626171,1628422,1628995,1629019,201961,0021900932,4,2793,2815,0,2,1610612752
187,1610612760,1627846,1628390,1628977,1629126,203488,1610612752,1626171,1628422,1628995,1629019,201961,0021900932,4,2824,2824,0,0,1610612760
188,1610612760,1627846,1628390,1628977,1629126,203488,1610612752,1626171,1628422,1628995,1629019,201961,0021900932,4,2826,2826,0,2,1610612752
189,1610612760,1627846,1628390,1628977,1629126,203488,1610612752,1626171,1628422,1628995,1629019,201961,0021900932,4,2834,2834,2,0,1610612760
190,1610612760,1627846,1628390,1628977,1629126,203488,1610612752,1626171,1628422,1628995,1629019,201961,0021900932,4,2848,2851,0,0,1610612752
191,1610612760,1627846,1628390,1628977,1629126,203488,1610612752,1626171,1628422,1628995,1629019,201961,0021900932,4,2863,2864,0,0,1610612760
192,1610612760,1627846,1628390,1628977,1629126,203488,1610612752,1626171,1628422,1628995,1629019,201961,0021900932,4,2875,2875,0,2,1610612752
