,t1_pm,t2_pm,stint_start,t2_points_scored,t2_players,t2_id,t1_id,t1_players,stint_end,t1_points_scored,margin_per_100,num_poss
0,-3,3,0,25,"[203932, 202329, 202696, 203095, 1626184]",1610612753,1610612751,"[203925, 201145, 201599, 202681, 201935]",506,22,-8.823529411764707,34.0
1,-1,1,507,28,"[203932, 202329, 202696, 203095, 1626184]",1610612753,1610612751,"[203925, 201145, 201599, 202681, 201935]",608,27,-2.5,40.0
2,-5,5,609,32,"[1626184, 1628407, 1629643, 202696, 203920]",1610612753,1610612751,"[1628971, 1629013, 201599, 202681, 204020]",609,27,-12.195121951219512,41.0
3,-5,5,610,34,"[1626184, 1628407, 1628964, 1629643, 203920]",1610612753,1610612751,"[1628971, 1629013, 1629651, 201935, 204020]",703,29,-10.869565217391305,46.0
4,-6,6,704,35,"[1628407, 1628964, 1629643, 203920, 203932]",1610612753,1610612751,"[1628971, 1629013, 1629651, 201935, 204020]",719,29,-12.76595744680851,47.0
5,-7,7,720,39,"[1628407, 1629643, 203095, 203920, 203932]",1610612753,1610612751,"[1629013, 201935, 202681, 203925, 204020]",823,32,-12.962962962962962,54.0
6,-10,10,824,42,"[203932, 1629643, 1628407, 203920, 1628964]",1610612753,1610612751,"[201145, 201935, 1629013, 204020, 1629651]",855,32,-17.543859649122805,57.0
7,-9,9,856,45,"[1628964, 1629643, 203095, 203920, 203932]",1610612753,1610612751,"[201145, 201935, 1629013, 204020, 1629651]",1010,36,-13.432835820895523,67.0
8,-10,10,1011,50,"[1628964, 1629643, 202329, 203095, 203932]",1610612753,1610612751,"[201145, 201935, 1629013, 204020, 1629651]",1096,40,-13.513513513513514,74.0
9,-9,9,1097,50,"[1626184, 1628407, 202329, 202696, 203095]",1610612753,1610612751,"[1629013, 1629651, 201145, 202681, 203925]",1104,41,-12.0,75.0
10,-9,9,1105,52,"[1626184, 1628407, 1629643, 202696, 203920]",1610612753,1610612751,"[1629013, 1629651, 201145, 202681, 203925]",1140,43,-11.688311688311687,77.0
11,-6,6,1141,52,"[1626184, 1628407, 1629643, 202696, 203920]",1610612753,1610612751,"[1628971, 1629651, 201145, 202681, 203925]",1211,46,-7.317073170731707,82.0
12,-7,7,1212,58,"[1626184, 1628407, 1629643, 202696, 203920]",1610612753,1610612751,"[1628971, 201145, 201599, 202681, 203925]",1274,51,-8.13953488372093,86.0
13,-2,2,1275,64,"[1626184, 1628407, 202696, 203095, 203920]",1610612753,1610612751,"[1628971, 201145, 201599, 202681, 203925]",1426,62,-2.1052631578947367,95.0
14,-9,9,1427,83,"[1628407, 202696, 203095, 203920, 203932]",1610612753,1610612751,"[1628971, 201145, 201599, 202681, 203925]",1798,74,-7.5,120.0
15,-12,12,1799,88,"[203932, 202329, 202696, 203095, 1626184]",1610612753,1610612751,"[203925, 201145, 201599, 202681, 201935]",1879,76,-9.523809523809524,126.0
16,-15,15,1880,91,"[1626184, 1628407, 202696, 203095, 203920]",1610612753,1610612751,"[1628971, 1629013, 201599, 201935, 202681]",1928,76,-11.627906976744185,129.0
17,-15,15,1929,95,"[1626184, 1628407, 202696, 203095, 203920]",1610612753,1610612751,"[1628971, 1629013, 201599, 202681, 204020]",2025,80,-11.11111111111111,135.0
18,-14,14,2026,97,"[1626184, 1628407, 1629643, 202696, 203920]",1610612753,1610612751,"[1628971, 1629013, 1629651, 202681, 204020]",2117,83,-9.859154929577464,142.0
19,-16,16,2118,100,"[1628407, 1629643, 202696, 203920, 203932]",1610612753,1610612751,"[1628971, 1629013, 1629651, 202681, 204020]",2158,84,-11.03448275862069,145.0
20,-10,10,2159,103,"[1628407, 1628964, 1629643, 203920, 203932]",1610612753,1610612751,"[1628971, 1629013, 1629651, 202681, 204020]",2285,93,-6.451612903225806,155.0
21,-8,8,2286,103,"[203932, 202329, 203095, 1629643, 1628964]",1610612753,1610612751,"[203925, 201935, 1628971, 1629013, 1629651]",2309,95,-5.063291139240507,158.0
22,-4,4,2310,104,"[1629643, 202329, 202696, 203095, 203932]",1610612753,1610612751,"[203925, 201935, 1628971, 1629013, 1629651]",2448,100,-2.4096385542168677,166.0
23,-6,6,2449,106,"[1628407, 202329, 202696, 203095, 203932]",1610612753,1610612751,"[1628971, 1629651, 201935, 202681, 203925]",2465,100,-3.592814371257485,167.0
24,-8,8,2466,108,"[1626184, 1628407, 202696, 203095, 203920]",1610612753,1610612751,"[1628971, 1629651, 201935, 202681, 203925]",2573,100,-4.651162790697675,172.0
25,-6,6,2574,111,"[1626184, 1628407, 1629643, 202696, 203920]",1610612753,1610612751,"[1628971, 1629651, 201935, 202681, 203925]",2659,105,-3.3707865168539324,178.0
26,-6,6,2660,111,"[1628407, 202696, 203095, 203920, 203932]",1610612753,1610612751,"[1628971, 1629013, 201145, 201935, 202681]",2684,105,-3.3333333333333335,180.0
27,-8,8,2685,121,"[1628407, 202696, 203095, 203920, 203932]",1610612753,1610612751,"[1628971, 201145, 201935, 202681, 203925]",2868,113,-4.102564102564102,195.0
28,-8,8,2869,121,"[1628407, 202696, 203095, 203920, 203932]",1610612753,1610612751,"[1629651, 201145, 201935, 202681, 203925]",9999999,113,-4.081632653061225,196.0
