,team1_id,team1_player1,team1_player2,team1_player3,team1_player4,team1_player5,team2_id,team2_player1,team2_player2,team2_player3,team2_player4,team2_player5,game_id,period,possession_start,possession_end,team1_points,team2_points,possession_team
0,1610612743,203932,203999,201580,203085,1630267,1610612750,1630162,1629020,1626157,1626156,201937,0022001052,1,0,13,2,0,1610612743
1,1610612743,203932,203999,201580,203085,1630267,1610612750,1630162,1629020,1626157,1626156,201937,0022001052,1,29,29,0,3,1610612750
2,1610612743,203932,203999,201580,203085,1630267,1610612750,1630162,1629020,1626157,1626156,201937,0022001052,1,50,53,0,0,1610612743
3,1610612743,203932,203999,201580,203085,1630267,1610612750,1630162,1629020,1626157,1626156,201937,0022001052,1,56,61,0,0,1610612750
4,1610612743,203932,203999,201580,203085,1630267,1610612750,1630162,1629020,1626157,1626156,201937,0022001052,1,63,63,0,0,1610612743
5,1610612743,203932,203999,201580,203085,1630267,1610612750,1630162,1629020,1626157,1626156,201937,0022001052,1,77,77,0,0,1610612750
6,1610612743,203932,203999,201580,203085,1630267,1610612750,1630162,1629020,1626157,1626156,201937,0022001052,1,83,84,0,0,1610612743
7,1610612743,203932,203999,201580,203085,1630267,1610612750,1630162,1629020,1626157,1626156,201937,0022001052,1,88,88,0,0,1610612750
8,1610612743,203932,203999,201580,203085,1630267,1610612750,1630162,1629020,1626157,1626156,201937,0022001052,1,100,100,2,0,1610612743
9,1610612743,203932,203999,201580,203085,1630267,1610612750,1630162,1629020,1626157,1626156,201937,0022001052,1,114,117,0,0,1610612750
10,1610612743,203932,203999,201580,203085,1630267,1610612750,1630162,1629020,1626157,1626156,201937,0022001052,1,125,128,2,0,1610612743
11,1610612743,203932,203999,201580,203085,1630267,1610612750,1630162,1629020,1626157,1626156,201937,0022001052,1,145,149,0,3,1610612750
12,1610612743,203932,203999,201580,203085,1630267,1610612750,1630162,1629020,1626157,1626156,201937,0022001052,1,167,167,2,0,1610612743
13,1610612743,203932,203999,201580,203085,1630267,1610612750,1630162,1629020,1626157,1626156,201937,0022001052,1,184,184,0,2,1610612750
14,1610612743,203932,203999,201580,203085,1630267,1610612750,1630162,1629020,1626157,1626156,201937,0022001052,1,184,202,2,0,1610612743
15,1610612743,203932,203999,201580,203085,1630267,1610612750,1630162,1629020,1626157,1626156,201937,0022001052,1,220,220,0,3,1610612750
16,1610612743,203932,203999,201580,203085,1630267,1610612750,1630162,1629020,1626157,1626156,201937,0022001052,1,231,234,0,0,1610612743
17,1610612743,203932,203999,201580,203085,1630267,1610612750,1630162,1629020,1626157,1626156,201937,0022001052,1,239,239,0,2,1610612750
18,1610612743,203932,203999,201580,203085,1630267,1610612750,1630162,1629020,1626157,1626156,201937,0022001052,1,252,256,2,0,1610612743
19,1610612743,203932,203999,201580,203085,1630267,1610612750,1630162,1629020,1626157,1626156,201937,0022001052,1,275,275,0,2,1610612750
20,1610612743,203932,203999,201580,203085,1630267,1610612750,1630162,1629020,1626157,1626156,201937,0022001052,1,292,301,2,0,1610612743
21,1610612743,203932,203999,201580,203085,1630267,1610612750,1630162,1629020,1626157,1626156,201937,0022001052,1,316,320,0,0,1610612750
22,1610612743,203932,203999,201580,203085,1630267,1610612750,1630162,1629020,1626157,1626156,201937,0022001052,1,324,324,2,0,1610612743
23,1610612743,203932,203999,201580,203085,1630267,1610612750,1630162,1629020,1626157,1626156,201937,0022001052,1,324,340,0,0,1610612750
24,1610612743,203932,203999,201580,203085,1630267,1610612750,1630162,1629020,1626157,1626156,201937,0022001052,1,354,367,2,0,1610612743
25,1610612743,203932,203999,201580,203085,1630267,1610612750,1630162,1629020,1626157,1626156,201937,0022001052,1,373,373,0,0,1610612750
26,1610612743,1627885,201580,203085,203932,203999,1610612750,1626157,1629675,1630162,1630183,201937,0022001052,1,391,391,2,0,1610612743
27,1610612743,1627885,201580,203085,203932,203999,1610612750,1626157,1629675,1630162,1630183,201937,0022001052,1,413,416,0,0,1610612750
28,1610612743,1627885,201580,203085,203932,203999,1610612750,1626157,1629675,1630162,1630183,201937,0022001052,1,424,434,0,0,1610612743
29,1610612743,1627885,203085,203210,203932,203999,1610612750,1626157,1629675,1630162,1630183,201937,0022001052,1,447,456,0,3,1610612750
30,1610612743,1627885,203085,203210,203932,203999,1610612750,1626157,1629675,1630162,1630183,201937,0022001052,1,473,476,0,0,1610612743
31,1610612743,1627885,203085,203210,203932,203999,1610612750,1626157,1629675,1630162,1630183,201937,0022001052,1,480,480,0,2,1610612750
32,1610612743,1627885,203085,203210,203932,203999,1610612750,1626157,1629675,1630162,1630183,201937,0022001052,1,496,496,3,0,1610612743
33,1610612743,1627885,203085,203210,203932,203999,1610612750,1626157,1629675,1630162,1630183,201937,0022001052,1,510,513,0,0,1610612750
34,1610612743,1627885,203085,203210,203932,203999,1610612750,1626157,1629675,1630162,1630183,201937,0022001052,1,519,519,2,0,1610612743
35,1610612743,1627885,203085,203210,203932,203999,1610612750,1626157,1629675,1630162,1630183,201937,0022001052,1,532,532,0,2,1610612750
36,1610612743,1627885,203085,203210,203932,203999,1610612750,1626157,1629675,1630162,1630183,201937,0022001052,1,550,550,3,0,1610612743
37,1610612743,1627885,203085,203210,203932,203999,1610612750,1626157,1629675,1630162,1630183,201937,0022001052,1,568,568,0,2,1610612750
38,1610612743,1627885,203085,203210,203932,203999,1610612750,1626157,1629675,1630162,1630183,201937,0022001052,1,587,592,2,0,1610612743
39,1610612743,1627885,1628427,1630267,203210,203999,1610612750,1626157,1629162,1629675,1630162,1630183,0022001052,1,607,608,0,0,1610612750
40,1610612743,1627885,1628427,1630267,203210,203999,1610612750,1626157,1629162,1629675,1630162,1630183,0022001052,1,628,632,0,0,1610612743
41,1610612743,1627885,1628427,1630267,203210,203999,1610612750,1626157,1629162,1629675,1630162,1630183,0022001052,1,643,643,0,2,1610612750
42,1610612743,1627885,1628427,1630267,203210,203999,1610612750,1626157,1629162,1629675,1630162,1630183,0022001052,1,668,668,2,0,1610612743
43,1610612743,1627885,1628427,1630267,203210,203999,1610612750,1626157,1629162,1629675,1630162,1630183,0022001052,1,672,689,0,0,1610612750
44,1610612743,1627885,1628427,1630267,200794,203210,1610612750,1626156,1627823,1629162,1629675,1630183,0022001052,1,699,699,3,0,1610612743
45,1610612743,1627885,1628427,1630267,200794,203210,1610612750,1626156,1627823,1629162,1629675,1630183,0022001052,1,717,717,0,0,1610612750
46,1610612743,1630267,1627885,203210,1628427,200794,1610612750,1626156,1629675,1630183,1629162,1627823,0022001052,2,720,742,0,3,1610612750
47,1610612743,1630267,1627885,203210,1628427,200794,1610612750,1626156,1629675,1630183,1629162,1627823,0022001052,2,763,771,0,0,1610612743
48,1610612743,1630267,1627885,203210,1628427,200794,1610612750,1626156,1629675,1630183,1629162,1627823,0022001052,2,781,786,0,0,1610612750
49,1610612743,1630267,1627885,203210,1628427,200794,1610612750,1626156,1629675,1630183,1629162,1627823,0022001052,2,798,800,0,0,1610612743
50,1610612743,1630267,1627885,203210,1628427,200794,1610612750,1626156,1629675,1630183,1629162,1627823,0022001052,2,817,821,0,1,1610612750
51,1610612743,1630267,1627885,203210,1628427,200794,1610612750,1626156,1629675,1630183,1629162,1627823,0022001052,2,832,837,0,0,1610612743
52,1610612743,1630267,1627885,203210,1628427,200794,1610612750,1626156,1629675,1630183,1629162,1627823,0022001052,2,848,848,0,1,1610612750
53,1610612743,1630267,1627885,203210,1628427,200794,1610612750,1626156,1629675,1630183,1629162,1627823,0022001052,2,862,878,0,0,1610612743
54,1610612743,1630267,1627885,203210,1628427,200794,1610612750,1626156,1629675,1630183,1629162,1627823,0022001052,2,885,885,0,0,1610612750
55,1610612743,1627885,1628427,1630210,200794,203210,1610612750,1626156,1629675,1630183,1629162,1627823,0022001052,2,899,903,0,0,1610612743
56,1610612743,1627885,1628427,1630210,200794,203210,1610612750,1626156,1629675,1630183,1629162,1627823,0022001052,2,912,914,0,0,1610612750
57,1610612743,1627885,1628427,1630210,200794,203210,1610612750,1626156,1629675,1630183,1629162,1627823,0022001052,2,920,920,3,0,1610612743
58,1610612743,1627885,1628427,1630210,200794,203210,1610612750,1626156,1629675,1630183,1629162,1627823,0022001052,2,928,928,0,0,1610612750
59,1610612743,1627885,1628427,1630210,200794,203210,1610612750,1626156,1629675,1630183,1629162,1627823,0022001052,2,944,948,0,0,1610612743
60,1610612743,1627885,1628427,1630210,200794,203210,1610612750,1626156,1629675,1630183,1629162,1627823,0022001052,2,957,957,0,2,1610612750
61,1610612743,1627885,1628427,1630210,200794,203210,1610612750,1626156,1629675,1630183,1629162,1627823,0022001052,2,974,974,3,0,1610612743
62,1610612743,1627885,1628427,1630210,200794,203210,1610612750,1626156,1629675,1630183,1629162,1627823,0022001052,2,988,988,0,3,1610612750
63,1610612743,1627885,1628427,1630210,200794,203210,1610612750,1626156,1629675,1630183,1629162,1627823,0022001052,2,1005,1005,2,0,1610612743
64,1610612743,1627885,1628427,1630210,200794,203210,1610612750,1626156,1629675,1630183,1629162,1627823,0022001052,2,1007,1021,0,0,1610612750
65,1610612743,1627885,1628427,1630210,200794,203210,1610612750,1626156,1626157,1627823,1629006,1630162,0022001052,2,1035,1035,2,0,1610612743
66,1610612743,1627885,1628427,1630210,200794,203210,1610612750,1626156,1626157,1627823,1629006,1630162,0022001052,2,1049,1049,0,2,1610612750
67,1610612743,1627885,1628427,1630210,200794,203210,1610612750,1626156,1626157,1627823,1629006,1630162,0022001052,2,1062,1067,0,0,1610612743
68,1610612743,1627885,1628427,1630210,200794,203210,1610612750,1626156,1626157,1627823,1629006,1630162,0022001052,2,1074,1078,0,1,1610612750
69,1610612743,1630210,200794,203085,203210,203932,1610612750,1626156,1626157,1627823,1629006,1630162,0022001052,2,1087,1087,2,0,1610612743
70,1610612743,1630210,200794,203085,203210,203932,1610612750,1626156,1626157,1627823,1629006,1630162,0022001052,2,1087,1104,0,0,1610612750
71,1610612743,1630210,200794,203085,203932,203999,1610612750,1626157,1627823,1629006,1630162,201937,0022001052,2,1117,1117,3,0,1610612743
72,1610612743,1630210,200794,203085,203932,203999,1610612750,1626157,1627823,1629006,1630162,201937,0022001052,2,1137,1137,0,0,1610612750
73,1610612743,1630210,200794,203085,203932,203999,1610612750,1626157,1627823,1629006,1630162,201937,0022001052,2,1143,1143,2,0,1610612743
74,1610612743,1630210,200794,203085,203932,203999,1610612750,1626157,1627823,1629006,1630162,201937,0022001052,2,1148,1181,0,1,1610612750
75,1610612743,1630210,201580,203085,203932,203999,1610612750,1626157,1627823,1629006,1630162,201937,0022001052,2,1189,1189,0,0,1610612743
76,1610612743,1630210,201580,203085,203932,203999,1610612750,1626157,1627823,1629020,1630162,201937,0022001052,2,1201,1203,0,0,1610612750
77,1610612743,1630210,201580,203085,203932,203999,1610612750,1626157,1627823,1629020,1630162,201937,0022001052,2,1213,1213,0,0,1610612743
78,1610612743,1630210,201580,203085,203932,203999,1610612750,1626157,1627823,1629020,1630162,201937,0022001052,2,1219,1219,0,2,1610612750
79,1610612743,1630210,201580,203085,203932,203999,1610612750,1626157,1627823,1629020,1630162,201937,0022001052,2,1219,1244,2,0,1610612743
80,1610612743,1630267,201580,203085,203932,203999,1610612750,1626156,1626157,1629020,1630162,201937,0022001052,2,1254,1254,0,3,1610612750
81,1610612743,1630267,201580,203085,203932,203999,1610612750,1626156,1626157,1629020,1630162,201937,0022001052,2,1277,1277,2,0,1610612743
82,1610612743,1630267,201580,203085,203932,203999,1610612750,1626156,1626157,1629020,1630162,201937,0022001052,2,1288,1288,0,3,1610612750
83,1610612743,1630267,201580,203085,203932,203999,1610612750,1626156,1626157,1629020,1630162,201937,0022001052,2,1299,1299,0,0,1610612743
84,1610612743,1630267,201580,203085,203932,203999,1610612750,1626156,1626157,1629020,1630162,201937,0022001052,2,1303,1303,0,0,1610612750
85,1610612743,1630267,201580,203085,203932,203999,1610612750,1626156,1626157,1629020,1630162,201937,0022001052,2,1313,1313,2,0,1610612743
86,1610612743,1630267,201580,203085,203932,203999,1610612750,1626156,1626157,1629020,1630162,201937,0022001052,2,1331,1333,0,0,1610612750
87,1610612743,1630267,201580,203085,203932,203999,1610612750,1626156,1626157,1629020,1630162,201937,0022001052,2,1341,1341,0,0,1610612743
88,1610612743,1630267,201580,203085,203932,203999,1610612750,1626156,1626157,1629020,1630162,201937,0022001052,2,1355,1358,0,0,1610612750
89,1610612743,1630267,201580,203085,203932,203999,1610612750,1626156,1626157,1629020,1630162,201937,0022001052,2,1364,1364,3,0,1610612743
90,1610612743,1630267,201580,203085,203932,203999,1610612750,1626156,1626157,1629020,1630162,201937,0022001052,2,1379,1379,0,0,1610612750
91,1610612743,1630267,201580,203085,203932,203999,1610612750,1626156,1626157,1629020,1630162,201937,0022001052,2,1392,1395,0,0,1610612743
92,1610612743,1630267,201580,203085,203932,203999,1610612750,1626156,1626157,1629020,1630162,201937,0022001052,2,1397,1397,0,2,1610612750
93,1610612743,1630210,1630267,201580,203932,203999,1610612750,1626156,1626157,1629020,1630162,201937,0022001052,2,1405,1414,0,0,1610612743
94,1610612743,1630210,1630267,201580,203932,203999,1610612750,1626156,1626157,1629020,1630162,201937,0022001052,2,1416,1416,0,2,1610612750
95,1610612743,1630210,1630267,201580,203932,203999,1610612750,1626156,1626157,1629020,1630162,201937,0022001052,2,1422,1422,2,0,1610612743
96,1610612743,1630210,1630267,201580,203932,203999,1610612750,1626156,1626157,1629020,1630162,201937,0022001052,2,1439,1440,0,0,1610612750
97,1610612743,203932,203999,201580,203085,1630267,1610612750,1630162,1626157,1626156,201937,1629675,0022001052,3,1440,1455,0,2,1610612750
98,1610612743,203932,203999,201580,203085,1630267,1610612750,1630162,1626157,1626156,201937,1629675,0022001052,3,1477,1477,2,0,1610612743
99,1610612743,203932,203999,201580,203085,1630267,1610612750,1630162,1626157,1626156,201937,1629675,0022001052,3,1494,1494,0,2,1610612750
100,1610612743,203932,203999,201580,203085,1630267,1610612750,1630162,1626157,1626156,201937,1629675,0022001052,3,1504,1504,2,0,1610612743
101,1610612743,203932,203999,201580,203085,1630267,1610612750,1630162,1626157,1626156,201937,1629675,0022001052,3,1512,1515,0,2,1610612750
102,1610612743,203932,203999,201580,203085,1630267,1610612750,1630162,1626157,1626156,201937,1629675,0022001052,3,1519,1532,0,0,1610612743
103,1610612743,203932,203999,201580,203085,1630267,1610612750,1630162,1626157,1626156,201937,1629675,0022001052,3,1535,1535,0,2,1610612750
104,1610612743,203932,203999,201580,203085,1630267,1610612750,1630162,1626157,1626156,201937,1629675,0022001052,3,1557,1557,2,0,1610612743
105,1610612743,203932,203999,201580,203085,1630267,1610612750,1630162,1626157,1626156,201937,1629675,0022001052,3,1580,1583,0,0,1610612750
106,1610612743,203932,203999,201580,203085,1630267,1610612750,1630162,1626157,1626156,201937,1629675,0022001052,3,1587,1591,2,0,1610612743
107,1610612743,203932,203999,201580,203085,1630267,1610612750,1630162,1626157,1626156,201937,1629675,0022001052,3,1603,1603,0,3,1610612750
108,1610612743,203932,203999,201580,203085,1630267,1610612750,1630162,1626157,1626156,201937,1629675,0022001052,3,1606,1623,2,0,1610612743
109,1610612743,203932,203999,201580,203085,1630267,1610612750,1630162,1626157,1626156,201937,1629675,0022001052,3,1623,1634,0,0,1610612750
110,1610612743,203932,203999,201580,203085,1630267,1610612750,1630162,1626157,1626156,201937,1629675,0022001052,3,1643,1650,2,0,1610612743
111,1610612743,203932,203999,201580,203085,1630267,1610612750,1630162,1626157,1626156,201937,1629675,0022001052,3,1650,1662,0,0,1610612750
112,1610612743,203932,203999,201580,203085,1630267,1610612750,1630162,1626157,1626156,201937,1629675,0022001052,3,1665,1665,0,0,1610612743
113,1610612743,203932,203999,201580,203085,1630267,1610612750,1630162,1626157,1626156,201937,1629675,0022001052,3,1676,1685,0,3,1610612750
114,1610612743,203932,203999,201580,203085,1630267,1610612750,1630162,1626157,1626156,201937,1629675,0022001052,3,1704,1720,0,0,1610612743
115,1610612743,203932,203999,201580,203085,1630267,1610612750,1630162,1626157,1626156,201937,1629675,0022001052,3,1722,1722,0,3,1610612750
116,1610612743,203932,203999,201580,203085,1630267,1610612750,1630162,1626157,1626156,201937,1629675,0022001052,3,1740,1740,2,0,1610612743
117,1610612743,203932,203999,201580,203085,1630267,1610612750,1630162,1626157,1626156,201937,1629675,0022001052,3,1754,1765,0,0,1610612750
118,1610612743,203932,203999,201580,203085,1630267,1610612750,1626156,1626157,1629675,1630162,1630183,0022001052,3,1770,1784,0,0,1610612743
119,1610612743,203932,203999,201580,203085,1630267,1610612750,1626156,1626157,1629675,1630162,1630183,0022001052,3,1798,1798,0,3,1610612750
120,1610612743,203932,203999,201580,203085,1630267,1610612750,1626156,1626157,1629675,1630162,1630183,0022001052,3,1804,1816,0,0,1610612743
121,1610612743,203932,203999,201580,203085,1630267,1610612750,1626156,1626157,1629675,1630162,1630183,0022001052,3,1821,1824,0,0,1610612750
122,1610612743,203932,203999,201580,203085,1630267,1610612750,1626156,1626157,1629675,1630162,1630183,0022001052,3,1834,1834,2,0,1610612743
123,1610612743,203932,203999,201580,203085,1630267,1610612750,1626156,1626157,1629675,1630162,1630183,0022001052,3,1845,1845,0,3,1610612750
124,1610612743,203932,203999,201580,203085,1630267,1610612750,1626156,1626157,1629675,1630162,1630183,0022001052,3,1863,1863,2,0,1610612743
125,1610612743,203932,203999,201580,203085,1630267,1610612750,1626156,1626157,1629675,1630162,1630183,0022001052,3,1876,1878,0,0,1610612750
126,1610612743,203932,203999,201580,203085,1630267,1610612750,1626156,1626157,1629675,1630162,1630183,0022001052,3,1893,1893,3,0,1610612743
127,1610612743,203932,203999,201580,203085,1630267,1610612750,1626156,1626157,1629675,1630162,1630183,0022001052,3,1911,1914,0,0,1610612750
128,1610612743,203932,203999,201580,203085,1630267,1610612750,1626156,1626157,1629675,1630162,1630183,0022001052,3,1927,1927,2,0,1610612743
129,1610612743,203932,203999,201580,203085,1630267,1610612750,1626156,1626157,1629675,1630162,1630183,0022001052,3,1937,1937,0,2,1610612750
130,1610612743,1627885,1628427,203085,203210,203999,1610612750,1626157,1629020,1629162,1630162,1630183,0022001052,3,1956,1956,3,0,1610612743
131,1610612743,1627885,1628427,203085,203210,203999,1610612750,1626157,1629020,1629162,1630162,1630183,0022001052,3,1971,1971,0,0,1610612750
132,1610612743,1627885,1628427,203085,203210,203999,1610612750,1626157,1629020,1629162,1630162,1630183,0022001052,3,1971,1971,1,0,1610612743
133,1610612743,1627885,1628427,1630210,203210,203999,1610612750,1626157,1629020,1629162,1630162,1630183,0022001052,3,1985,1985,0,2,1610612750
134,1610612743,1627885,1628427,1630210,203210,203999,1610612750,1626157,1629020,1629162,1630162,1630183,0022001052,3,1989,2007,0,0,1610612743
135,1610612743,1627885,1628427,1630210,200794,203210,1610612750,1626157,1629020,1629162,1630162,1630183,0022001052,3,2010,2010,0,1,1610612750
136,1610612743,1627885,1628427,1630210,200794,203210,1610612750,1626157,1629020,1629162,1630162,1630183,0022001052,3,2020,2020,0,0,1610612743
137,1610612743,1627885,1628427,1630210,200794,203210,1610612750,1626157,1629020,1629162,1630162,1630183,0022001052,3,2034,2044,0,0,1610612750
138,1610612743,1627885,1628427,1630210,200794,203210,1610612750,1626157,1629020,1629162,1630162,1630183,0022001052,3,2048,2048,2,0,1610612743
139,1610612743,1627885,1628427,1630210,200794,203210,1610612750,1626157,1629020,1629162,1630162,1630183,0022001052,3,2053,2055,0,1,1610612750
140,1610612743,1627885,1628427,1630210,200794,203210,1610612750,1626157,1629020,1629162,1630162,1630183,0022001052,3,2066,2070,0,0,1610612743
141,1610612743,1627885,1628427,1630210,200794,203210,1610612750,1626157,1629020,1629162,1630162,1630183,0022001052,3,2078,2078,0,3,1610612750
142,1610612743,1627885,1628427,1630210,200794,203210,1610612750,1626157,1629020,1629162,1630162,1630183,0022001052,3,2102,2104,0,0,1610612743
143,1610612743,1627885,1628427,1630210,200794,203210,1610612750,1626157,1629020,1629162,1630162,1630183,0022001052,3,2107,2107,0,2,1610612750
144,1610612743,1627885,1628427,1630210,200794,203210,1610612750,1626157,1629020,1629162,1630162,1630183,0022001052,3,2120,2123,0,0,1610612743
145,1610612743,1627885,1628427,1630210,200794,203210,1610612750,1626157,1629020,1629162,1630162,1630183,0022001052,3,2137,2137,0,3,1610612750
146,1610612743,1627885,1628427,1630210,200794,203210,1610612750,1626157,1629020,1629162,1630162,1630183,0022001052,3,2158,2158,0,0,1610612743
147,1610612743,1630267,203210,1628427,200794,1630210,1610612750,1629020,1626156,1629675,1629162,1627823,0022001052,4,2160,2181,0,0,1610612743
148,1610612743,1630267,203210,1628427,200794,1630210,1610612750,1629020,1626156,1629675,1629162,1627823,0022001052,4,2194,2194,0,0,1610612750
149,1610612743,1630267,203210,1628427,200794,1630210,1610612750,1629020,1626156,1629675,1629162,1627823,0022001052,4,2207,2207,3,0,1610612743
150,1610612743,1630267,203210,1628427,200794,1630210,1610612750,1629020,1626156,1629675,1629162,1627823,0022001052,4,2219,2219,0,0,1610612750
151,1610612743,1630267,203210,1628427,200794,1630210,1610612750,1629020,1626156,1629675,1629162,1627823,0022001052,4,2219,2243,0,0,1610612743
152,1610612743,1630267,203210,1628427,200794,1630210,1610612750,1629020,1626156,1629675,1629162,1627823,0022001052,4,2248,2262,0,0,1610612750
153,1610612743,1630267,203210,1628427,200794,1630210,1610612750,1629020,1626156,1629675,1629162,1627823,0022001052,4,2275,2278,0,0,1610612743
154,1610612743,1630267,203210,1628427,200794,1630210,1610612750,1629020,1626156,1629675,1629162,1627823,0022001052,4,2295,2295,0,2,1610612750
155,1610612743,1630267,203210,1628427,200794,1630210,1610612750,1629020,1626156,1629675,1629162,1627823,0022001052,4,2308,2308,3,0,1610612743
156,1610612743,1630267,203210,1628427,200794,1630210,1610612750,1629020,1626156,1629675,1629162,1627823,0022001052,4,2323,2326,0,0,1610612750
157,1610612743,1630267,203210,1628427,200794,1630210,1610612750,1629020,1626156,1629675,1629162,1627823,0022001052,4,2334,2336,0,0,1610612743
158,1610612743,1630267,203210,1628427,200794,1630210,1610612750,1629020,1626156,1629675,1629162,1627823,0022001052,4,2336,2350,0,0,1610612750
159,1610612743,1630267,203210,1628427,200794,1630210,1610612750,1626156,1627823,1629020,1629675,1630162,0022001052,4,2350,2376,1,1,1610612743
160,1610612743,1630267,203210,1628427,200794,1630210,1610612750,1626156,1626157,1627823,1629675,1630162,0022001052,4,2381,2381,0,2,1610612750
161,1610612743,1630267,203210,1628427,200794,1630210,1610612750,1626156,1626157,1627823,1629675,1630162,0022001052,4,2404,2405,0,0,1610612743
162,1610612743,1630267,203210,1628427,200794,1630210,1610612750,1626156,1626157,1627823,1629675,1630162,0022001052,4,2417,2427,0,0,1610612750
163,1610612743,1630267,203210,1628427,200794,1630210,1610612750,1626156,1626157,1627823,1629675,1630162,0022001052,4,2446,2446,2,0,1610612743
164,1610612743,1630267,203210,1628427,200794,1630210,1610612750,1626156,1626157,1627823,1629675,1630162,0022001052,4,2460,2460,0,0,1610612750
165,1610612743,1630267,203210,1628427,200794,1630210,1610612750,1626156,1626157,1627823,1629675,1630162,0022001052,4,2480,2480,3,0,1610612743
166,1610612743,1630267,203210,1628427,200794,1630210,1610612750,1626156,1626157,1627823,1629675,1630162,0022001052,4,2481,2501,0,0,1610612750
167,1610612743,1630210,200794,203085,203932,203999,1610612750,1626157,1627823,1629675,1630162,201937,0022001052,4,2508,2511,0,0,1610612743
168,1610612743,1630210,200794,203085,203932,203999,1610612750,1626157,1627823,1629675,1630162,201937,0022001052,4,2517,2517,0,0,1610612750
169,1610612743,1630210,200794,203085,203932,203999,1610612750,1626157,1627823,1629675,1630162,201937,0022001052,4,2533,2533,3,0,1610612743
170,1610612743,1630210,200794,203085,203932,203999,1610612750,1626157,1627823,1629675,1630162,201937,0022001052,4,2541,2554,0,2,1610612750
171,1610612743,1630210,200794,203085,203932,203999,1610612750,1626156,1626157,1629675,1630162,201937,0022001052,4,2570,2580,0,0,1610612743
172,1610612743,1630210,200794,203085,203932,203999,1610612750,1626156,1626157,1629675,1630162,201937,0022001052,4,2595,2597,0,0,1610612750
173,1610612743,1630210,200794,203085,203932,203999,1610612750,1626156,1626157,1629675,1630162,201937,0022001052,4,2606,2606,2,0,1610612743
174,1610612743,1630210,200794,203085,203932,203999,1610612750,1626156,1626157,1629675,1630162,201937,0022001052,4,2618,2618,0,1,1610612750
175,1610612743,1630267,201580,203085,203932,203999,1610612750,1626156,1626157,1629675,1630162,201937,0022001052,4,2635,2639,0,0,1610612743
176,1610612743,1630267,201580,203085,203932,203999,1610612750,1626156,1626157,1629675,1630162,201937,0022001052,4,2643,2646,0,0,1610612750
177,1610612743,1630267,201580,203085,203932,203999,1610612750,1626156,1626157,1629675,1630162,201937,0022001052,4,2663,2663,0,0,1610612743
178,1610612743,1630267,201580,203085,203932,203999,1610612750,1626156,1626157,1629675,1630162,201937,0022001052,4,2672,2672,0,2,1610612750
179,1610612743,1630267,201580,203085,203932,203999,1610612750,1626156,1626157,1629675,1630162,201937,0022001052,4,2701,2704,0,0,1610612743
180,1610612743,1630267,201580,203085,203932,203999,1610612750,1626156,1626157,1629675,1630162,201937,0022001052,4,2711,2713,0,0,1610612750
181,1610612743,1630267,201580,203085,203932,203999,1610612750,1626156,1626157,1629675,1630162,201937,0022001052,4,2718,2722,0,0,1610612743
182,1610612743,1630267,201580,203085,203932,203999,1610612750,1626156,1626157,1629675,1630162,201937,0022001052,4,2730,2732,0,0,1610612750
183,1610612743,1630267,201580,203085,203932,203999,1610612750,1626156,1626157,1629675,1630162,201937,0022001052,4,2753,2754,0,0,1610612743
184,1610612743,1630267,201580,203085,203932,203999,1610612750,1626156,1626157,1629675,1630162,201937,0022001052,4,2764,2764,0,1,1610612750
185,1610612743,1630267,201580,203085,203932,203999,1610612750,1626156,1626157,1629675,1630162,201937,0022001052,4,2783,2783,3,0,1610612743
186,1610612743,1630267,201580,203085,203932,203999,1610612750,1626156,1626157,1629675,1630162,201937,0022001052,4,2795,2795,0,0,1610612750
187,1610612743,1630267,201580,203085,203932,203999,1610612750,1626156,1626157,1629675,1630162,201937,0022001052,4,2821,2823,0,0,1610612743
188,1610612743,1630267,201580,203085,203932,203999,1610612750,1626156,1626157,1629675,1630162,201937,0022001052,4,2831,2831,0,3,1610612750
189,1610612743,1630267,201580,203085,203932,203999,1610612750,1626156,1626157,1629675,1630162,201937,0022001052,4,2841,2841,0,0,1610612743
190,1610612743,1630267,201580,203085,203932,203999,1610612750,1626156,1626157,1629675,1630162,201937,0022001052,4,2841,2851,0,0,1610612750
191,1610612743,1628427,1630267,201580,203085,203932,1610612750,1626156,1626157,1629675,1630162,201937,0022001052,4,2851,2855,2,0,1610612743
192,1610612743,1628427,1630210,1630267,201580,203085,1610612750,1626156,1626157,1629675,1630162,201937,0022001052,4,2862,2865,0,0,1610612750
