,team1_id,team1_player1,team1_player2,team1_player3,team1_player4,team1_player5,team2_id,team2_player1,team2_player2,team2_player3,team2_player4,team2_player5,game_id,period,possession_start,possession_end,team1_points,team2_points,possession_team
0,1610612739,1629731,1630596,1628386,1630171,1629636,1610612737,1629631,201568,203991,1628989,1629027,0022100867,1,0,14,0,2,1610612737
1,1610612739,1629731,1630596,1628386,1630171,1629636,1610612737,1629631,201568,203991,1628989,1629027,0022100867,1,38,38,0,0,1610612739
2,1610612739,1629731,1630596,1628386,1630171,1629636,1610612737,1629631,201568,203991,1628989,1629027,0022100867,1,54,59,0,0,1610612737
3,1610612739,1629731,1630596,1628386,1630171,1629636,1610612737,1629631,201568,203991,1628989,1629027,0022100867,1,65,65,2,0,1610612739
4,1610612739,1629731,1630596,1628386,1630171,1629636,1610612737,1629631,201568,203991,1628989,1629027,0022100867,1,80,94,0,2,1610612737
5,1610612739,1629731,1630596,1628386,1630171,1629636,1610612737,1629631,201568,203991,1628989,1629027,0022100867,1,108,108,3,0,1610612739
6,1610612739,1629731,1630596,1628386,1630171,1629636,1610612737,1629631,201568,203991,1628989,1629027,0022100867,1,123,123,0,3,1610612737
7,1610612739,1629731,1630596,1628386,1630171,1629636,1610612737,1629631,201568,203991,1628989,1629027,0022100867,1,136,138,0,0,1610612739
8,1610612739,1629731,1630596,1628386,1630171,1629636,1610612737,1629631,201568,203991,1628989,1629027,0022100867,1,146,153,0,2,1610612737
9,1610612739,1629731,1630596,1628386,1630171,1629636,1610612737,1629631,201568,203991,1628989,1629027,0022100867,1,160,160,3,0,1610612739
10,1610612739,1629731,1630596,1628386,1630171,1629636,1610612737,1629631,201568,203991,1628989,1629027,0022100867,1,173,173,0,0,1610612737
11,1610612739,1629731,1630596,1628386,1630171,1629636,1610612737,1629631,201568,203991,1628989,1629027,0022100867,1,183,187,0,0,1610612739
12,1610612739,1629731,1630596,1628386,1630171,1629636,1610612737,1629631,201568,203991,1628989,1629027,0022100867,1,191,191,0,2,1610612737
13,1610612739,1629731,1630596,1628386,1630171,1629636,1610612737,1629631,201568,203991,1628989,1629027,0022100867,1,209,209,2,0,1610612739
14,1610612739,1629731,1630596,1628386,1630171,1629636,1610612737,1629631,201568,203991,1628989,1629027,0022100867,1,227,231,0,0,1610612737
15,1610612739,1629731,1630596,1628386,1630171,1629636,1610612737,1629631,201568,203991,1628989,1629027,0022100867,1,244,244,3,0,1610612739
16,1610612739,1629731,1630596,1628386,1630171,1629636,1610612737,1629631,201568,203991,1628989,1629027,0022100867,1,256,256,0,2,1610612737
17,1610612739,1629731,1630596,1628386,1630171,1629636,1610612737,1629631,201568,203991,1628989,1629027,0022100867,1,268,268,2,0,1610612739
18,1610612739,1629731,1630596,1628386,1630171,1629636,1610612737,1629631,201568,203991,1628989,1629027,0022100867,1,285,285,0,2,1610612737
19,1610612739,1629731,1630596,1628386,1630171,1629636,1610612737,1629631,201568,203991,1628989,1629027,0022100867,1,300,303,0,0,1610612739
20,1610612739,1629731,1630596,1628386,1630171,1629636,1610612737,1629631,201568,203991,1628989,1629027,0022100867,1,311,311,0,3,1610612737
21,1610612739,1629731,1630596,1628386,1630171,1629636,1610612737,1629631,201568,203991,1628989,1629027,0022100867,1,325,329,0,0,1610612739
22,1610612739,1629731,1630596,1628386,1630171,1629636,1610612737,1629631,201568,203991,1628989,1629027,0022100867,1,350,350,0,3,1610612737
23,1610612739,1628386,1629636,1629731,1630171,201567,1610612737,1629631,201568,203991,1628989,1629027,0022100867,1,359,363,3,0,1610612739
24,1610612739,1628386,1629636,1629731,1630171,201567,1610612737,1629631,201568,203991,1628989,1629027,0022100867,1,384,387,0,0,1610612737
25,1610612739,1628386,1629636,1629731,1630171,201567,1610612737,1629631,201568,203991,1628989,1629027,0022100867,1,401,406,0,0,1610612739
26,1610612739,1628386,1629636,1629731,1630171,201567,1610612737,1629631,201568,203991,1628989,1629027,0022100867,1,410,418,0,0,1610612737
27,1610612739,1628386,1629636,1629731,1630171,201567,1610612737,1629631,201568,203991,1628989,1629027,0022100867,1,430,439,2,0,1610612739
28,1610612739,1627747,1628386,1629636,1630171,201567,1610612737,1628989,1629027,1629631,203991,203992,0022100867,1,449,460,0,0,1610612737
29,1610612739,1626224,1627747,1628386,200765,201567,1610612737,1628989,1629027,1629631,203991,203992,0022100867,1,464,464,3,0,1610612739
30,1610612739,1626224,1627747,1628386,200765,201567,1610612737,1628989,1629027,1629631,203991,203992,0022100867,1,479,479,0,3,1610612737
31,1610612739,1626224,1627747,1628386,200765,201567,1610612737,1628989,1629027,1629631,203991,203992,0022100867,1,489,492,0,0,1610612739
32,1610612739,1626224,1627747,1628386,200765,201567,1610612737,1628989,1629027,1629631,203991,203992,0022100867,1,494,494,0,0,1610612737
33,1610612739,1626224,1627747,1628386,200765,201567,1610612737,1628989,1629027,1629631,203991,203992,0022100867,1,497,503,3,0,1610612739
34,1610612739,1626224,1627747,1628386,200765,201567,1610612737,1628989,1629027,1629631,203991,203992,0022100867,1,519,519,0,2,1610612737
35,1610612739,1626224,1627747,1628386,200765,201567,1610612737,1628989,1629027,1629631,203991,203992,0022100867,1,542,542,2,0,1610612739
36,1610612739,1626224,1627747,1628386,200765,201567,1610612737,1628989,1629027,1629631,203991,203992,0022100867,1,564,567,0,0,1610612737
37,1610612739,1626224,1627747,1628386,200765,201567,1610612737,1628989,1629027,1629631,203991,203992,0022100867,1,572,572,0,0,1610612739
38,1610612739,1626224,1627747,1628386,200765,201567,1610612737,1628989,1629027,1629631,203991,203992,0022100867,1,578,578,0,2,1610612737
39,1610612739,1626224,1627747,1628386,200765,201567,1610612737,1628989,1629027,1629631,203991,203992,0022100867,1,579,591,0,0,1610612739
40,1610612739,1626224,1627747,1630596,200765,201567,1610612737,101150,1626153,1630168,201568,203992,0022100867,1,596,596,0,2,1610612737
41,1610612739,1626224,1627747,1630596,200765,201567,1610612737,101150,1626153,1630168,201568,203992,0022100867,1,612,612,3,0,1610612739
42,1610612739,1626224,1627747,1630596,200765,201567,1610612737,101150,1626153,1630168,201568,203992,0022100867,1,625,625,0,2,1610612737
43,1610612739,1626224,1627747,1630596,200765,201567,1610612737,101150,1626153,1630168,201568,203992,0022100867,1,647,650,0,0,1610612739
44,1610612739,1626224,1627747,1630596,200765,201567,1610612737,101150,1626153,1630168,201568,203992,0022100867,1,662,665,0,0,1610612737
45,1610612739,1626224,1627747,1630596,200765,201567,1610612737,101150,1626153,1630168,201568,203992,0022100867,1,670,670,3,0,1610612739
46,1610612739,1626224,1627747,1630596,200765,201567,1610612737,101150,1626153,1630168,201568,203992,0022100867,1,682,692,0,0,1610612737
47,1610612739,1626224,1627747,1630596,200765,201567,1610612737,101150,1626153,1630168,201568,203992,0022100867,1,692,714,2,0,1610612739
48,1610612739,1626224,1627747,1630596,200765,201567,1610612737,101150,1626153,1630168,201568,203992,0022100867,1,720,720,0,2,1610612737
49,1610612739,1630596,201567,1627747,1626224,200765,1610612737,201568,203992,1630168,1626153,101150,0022100867,2,720,753,1,0,1610612739
50,1610612739,1630596,201567,1627747,1626224,200765,1610612737,201568,203992,1630168,1626153,101150,0022100867,2,765,765,0,2,1610612737
51,1610612739,1630596,201567,1627747,1626224,200765,1610612737,201568,203992,1630168,1626153,101150,0022100867,2,783,786,0,0,1610612739
52,1610612739,1630596,201567,1627747,1626224,200765,1610612737,201568,203992,1630168,1626153,101150,0022100867,2,796,796,0,2,1610612737
53,1610612739,1630596,201567,1627747,1626224,200765,1610612737,201568,203992,1630168,1626153,101150,0022100867,2,811,813,0,0,1610612739
54,1610612739,1630596,201567,1627747,1626224,200765,1610612737,201568,203992,1630168,1626153,101150,0022100867,2,820,820,0,2,1610612737
55,1610612739,1630596,201567,1627747,1626224,200765,1610612737,201568,203992,1630168,1626153,101150,0022100867,2,837,840,0,0,1610612739
56,1610612739,1630596,201567,1627747,1626224,200765,1610612737,201568,203992,1630168,1626153,101150,0022100867,2,848,848,0,2,1610612737
57,1610612739,1630596,201567,1627747,1626224,200765,1610612737,201568,203992,1630168,1626153,101150,0022100867,2,850,865,0,0,1610612739
58,1610612739,1627747,1629636,1630596,200765,201567,1610612737,201568,203992,1630168,1626153,101150,0022100867,2,869,878,0,0,1610612737
59,1610612739,1627747,1629636,1630596,200765,201567,1610612737,201568,203992,1630168,1626153,101150,0022100867,2,901,906,0,0,1610612739
60,1610612739,1627747,1629636,1630596,200765,201567,1610612737,201568,203992,1630168,1626153,101150,0022100867,2,909,909,0,2,1610612737
61,1610612739,1629636,1629731,1630171,1630596,201567,1610612737,201568,203992,1630168,1626153,101150,0022100867,2,933,938,2,0,1610612739
62,1610612739,1629636,1629731,1630171,1630596,201567,1610612737,201568,203992,1630168,1626153,101150,0022100867,2,953,953,0,0,1610612737
63,1610612739,1629636,1629731,1630171,1630596,201567,1610612737,201568,203992,1630168,1626153,101150,0022100867,2,967,967,0,0,1610612739
64,1610612739,1629636,1629731,1630171,1630596,201567,1610612737,101150,1626153,1629631,1630168,203992,0022100867,2,976,982,0,2,1610612737
65,1610612739,1629636,1629731,1630171,1630596,201567,1610612737,101150,1626153,1629631,1630168,203992,0022100867,2,998,998,3,0,1610612739
66,1610612739,1629636,1629731,1630171,1630596,201567,1610612737,101150,1626153,1629631,1630168,203992,0022100867,2,1015,1015,0,0,1610612737
67,1610612739,1629636,1629731,1630171,1630596,201567,1610612737,101150,1626153,1629631,1630168,203992,0022100867,2,1031,1037,2,0,1610612739
68,1610612739,1628386,1629636,1629731,1630171,201567,1610612737,1628989,1629027,1629631,203991,203992,0022100867,2,1049,1052,0,0,1610612737
69,1610612739,1628386,1629636,1629731,1630171,201567,1610612737,1628989,1629027,1629631,203991,203992,0022100867,2,1058,1061,0,0,1610612739
70,1610612739,1628386,1629636,1629731,1630171,201567,1610612737,1628989,1629027,1629631,203991,203992,0022100867,2,1066,1066,0,2,1610612737
71,1610612739,1628386,1629636,1629731,1630171,201567,1610612737,1628989,1629027,1629631,203991,203992,0022100867,2,1079,1083,0,0,1610612739
72,1610612739,1628386,1629636,1629731,1630171,201567,1610612737,1628989,1629027,1629631,203991,203992,0022100867,2,1095,1095,0,0,1610612737
73,1610612739,1628386,1629636,1629731,1630171,201567,1610612737,1628989,1629027,1629631,203991,203992,0022100867,2,1102,1102,2,0,1610612739
74,1610612739,1628386,1629636,1629731,1630171,201567,1610612737,1628989,1629027,1629631,203991,203992,0022100867,2,1110,1120,0,0,1610612737
75,1610612739,1627747,1628386,1629636,1629731,1630171,1610612737,1628989,1629027,1629631,201568,203991,0022100867,2,1130,1130,2,0,1610612739
76,1610612739,1627747,1628386,1629636,1629731,1630171,1610612737,1628989,1629027,1629631,201568,203991,0022100867,2,1148,1163,0,0,1610612737
77,1610612739,1627747,1628386,1629636,1629731,1630171,1610612737,1628989,1629027,1629631,201568,203991,0022100867,2,1169,1169,0,0,1610612739
78,1610612739,1627747,1628386,1629636,1629731,1630171,1610612737,1628989,1629027,1629631,201568,203991,0022100867,2,1177,1177,0,0,1610612737
79,1610612739,1627747,1628386,1629636,1629731,1630171,1610612737,1628989,1629027,1629631,201568,203991,0022100867,2,1189,1189,3,0,1610612739
80,1610612739,1627747,1628386,1629636,1629731,1630171,1610612737,1628989,1629027,1629631,201568,203991,0022100867,2,1202,1202,0,2,1610612737
81,1610612739,1627747,1628386,1629636,1629731,1630171,1610612737,1628989,1629027,1629631,201568,203991,0022100867,2,1217,1217,2,0,1610612739
82,1610612739,1627747,1628386,1629636,1630171,1630596,1610612737,1628989,1629027,1629631,201568,203991,0022100867,2,1227,1227,0,3,1610612737
83,1610612739,1627747,1628386,1629636,1630171,1630596,1610612737,1628989,1629027,1629631,201568,203991,0022100867,2,1239,1241,0,0,1610612739
84,1610612739,1627747,1628386,1629636,1630171,1630596,1610612737,1628989,1629027,1629631,201568,203991,0022100867,2,1245,1257,0,2,1610612737
85,1610612739,1627747,1628386,1629636,1630171,1630596,1610612737,1628989,1629027,1629631,201568,203991,0022100867,2,1265,1265,2,0,1610612739
86,1610612739,1627747,1628386,1629636,1630171,1630596,1610612737,1628989,1629027,1629631,201568,203991,0022100867,2,1276,1276,0,3,1610612737
87,1610612739,1627747,1628386,1629636,1630171,1630596,1610612737,1628989,1629027,1629631,201568,203991,0022100867,2,1298,1298,2,0,1610612739
88,1610612739,1627747,1628386,1629636,1630171,1630596,1610612737,1628989,1629027,1629631,201568,203991,0022100867,2,1314,1314,0,2,1610612737
89,1610612739,1627747,1628386,1629636,1630171,1630596,1610612737,1628989,1629027,1629631,201568,203991,0022100867,2,1327,1331,0,0,1610612739
90,1610612739,1627747,1628386,1629636,1630171,1630596,1610612737,1628989,1629027,1629631,201568,203991,0022100867,2,1340,1340,0,2,1610612737
91,1610612739,1627747,1628386,1629636,1630171,1630596,1610612737,1628989,1629027,1629631,201568,203991,0022100867,2,1357,1357,2,0,1610612739
92,1610612739,1627747,1628386,1629636,1630171,1630596,1610612737,1628989,1629027,1629631,201568,203991,0022100867,2,1371,1371,0,2,1610612737
93,1610612739,1627747,1628386,1629636,1630171,1630596,1610612737,1628989,1629027,1629631,201568,203991,0022100867,2,1393,1393,2,0,1610612739
94,1610612739,1627747,1628386,1629636,1630171,1630596,1610612737,1628989,1629027,1629631,201568,203991,0022100867,2,1418,1418,0,2,1610612737
95,1610612739,1627747,1628386,1629636,1630171,1630596,1610612737,1628989,1629027,1629631,201568,203991,0022100867,2,1439,1439,0,0,1610612739
96,1610612739,1627747,1628386,1629636,1630171,1630596,1610612737,1628989,1629027,1629631,201568,203991,0022100867,2,1440,1440,0,0,1610612739
97,1610612739,1629731,1630596,1628386,1630171,1629636,1610612737,1629631,201568,203991,1628989,1629027,0022100867,3,1440,1472,2,0,1610612739
98,1610612739,1629731,1630596,1628386,1630171,1629636,1610612737,1629631,201568,203991,1628989,1629027,0022100867,3,1483,1483,0,2,1610612737
99,1610612739,1629731,1630596,1628386,1630171,1629636,1610612737,1629631,201568,203991,1628989,1629027,0022100867,3,1502,1502,2,0,1610612739
100,1610612739,1629731,1630596,1628386,1630171,1629636,1610612737,1629631,201568,203991,1628989,1629027,0022100867,3,1519,1519,0,3,1610612737
101,1610612739,1629731,1630596,1628386,1630171,1629636,1610612737,1629631,201568,203991,1628989,1629027,0022100867,3,1534,1534,2,0,1610612739
102,1610612739,1629731,1630596,1628386,1630171,1629636,1610612737,1629631,201568,203991,1628989,1629027,0022100867,3,1546,1548,0,0,1610612737
103,1610612739,1629731,1630596,1628386,1630171,1629636,1610612737,1629631,201568,203991,1628989,1629027,0022100867,3,1557,1557,2,0,1610612739
104,1610612739,1629731,1630596,1628386,1630171,1629636,1610612737,1629631,201568,203991,1628989,1629027,0022100867,3,1578,1580,0,1,1610612737
105,1610612739,1629731,1630596,1628386,1630171,1629636,1610612737,1629631,201568,203991,1628989,1629027,0022100867,3,1592,1596,2,0,1610612739
106,1610612739,1629731,1630596,1628386,1630171,1629636,1610612737,1629631,201568,203991,1628989,1629027,0022100867,3,1616,1619,0,0,1610612737
107,1610612739,1629731,1630596,1628386,1630171,1629636,1610612737,1629631,201568,203991,1628989,1629027,0022100867,3,1622,1622,3,0,1610612739
108,1610612739,1629731,1630596,1628386,1630171,1629636,1610612737,1629631,201568,203991,1628989,1629027,0022100867,3,1648,1650,0,0,1610612737
109,1610612739,1629731,1630596,1628386,1630171,1629636,1610612737,1629631,201568,203991,1628989,1629027,0022100867,3,1653,1661,3,0,1610612739
110,1610612739,1629731,1630596,1628386,1630171,1629636,1610612737,1629631,201568,203991,1628989,1629027,0022100867,3,1676,1676,0,3,1610612737
111,1610612739,1629731,1630596,1628386,1630171,1629636,1610612737,1629631,201568,203991,1628989,1629027,0022100867,3,1690,1690,2,0,1610612739
112,1610612739,1629731,1630596,1628386,1630171,1629636,1610612737,1629631,201568,203991,1628989,1629027,0022100867,3,1701,1701,0,3,1610612737
113,1610612739,1629731,1630596,1628386,1630171,1629636,1610612737,1629631,201568,203991,1628989,1629027,0022100867,3,1725,1728,0,0,1610612739
114,1610612739,1629731,1630596,1628386,1630171,1629636,1610612737,1629631,201568,203991,1628989,1629027,0022100867,3,1744,1744,0,0,1610612737
115,1610612739,1629731,1630596,1628386,1630171,1629636,1610612737,1629631,201568,203991,1628989,1629027,0022100867,3,1744,1758,0,0,1610612739
116,1610612739,1629731,1630596,1628386,1630171,1629636,1610612737,1629631,201568,203991,1628989,1629027,0022100867,3,1763,1763,0,2,1610612737
117,1610612739,1629731,1630596,1628386,1630171,1629636,1610612737,1629631,201568,203991,1628989,1629027,0022100867,3,1781,1799,0,0,1610612739
118,1610612739,1629731,1630596,1628386,1630171,1629636,1610612737,1629631,201568,203991,1628989,1629027,0022100867,3,1799,1814,0,2,1610612737
119,1610612739,1628386,1629636,1629731,1630171,201567,1610612737,1628989,1629027,1629631,203991,203992,0022100867,3,1829,1832,0,0,1610612739
120,1610612739,1628386,1629636,1629731,1630171,201567,1610612737,1628989,1629027,1629631,203991,203992,0022100867,3,1839,1839,0,1,1610612737
121,1610612739,1627747,1628386,1629636,1629731,201567,1610612737,1628989,1629027,1629631,203991,203992,0022100867,3,1856,1856,0,0,1610612739
122,1610612739,1627747,1628386,1629636,1629731,201567,1610612737,1628989,1629027,1629631,203991,203992,0022100867,3,1857,1857,0,2,1610612737
123,1610612739,1627747,1628386,1629636,1629731,201567,1610612737,1628989,1629027,1629631,203991,203992,0022100867,3,1869,1869,2,0,1610612739
124,1610612739,1627747,1628386,1629636,1629731,201567,1610612737,1628989,1629027,1629631,203991,203992,0022100867,3,1878,1881,0,0,1610612737
125,1610612739,1627747,1628386,1629636,1629731,201567,1610612737,1628989,1629027,1629631,203991,203992,0022100867,3,1891,1891,3,0,1610612739
126,1610612739,1627747,1628386,1629636,1629731,201567,1610612737,1628989,1629027,1629631,203991,203992,0022100867,3,1915,1921,0,0,1610612737
127,1610612739,1627747,1628386,1629636,200765,201567,1610612737,1626153,1629027,1629631,203991,203992,0022100867,3,1930,1933,0,0,1610612739
128,1610612739,1627747,1628386,1629636,200765,201567,1610612737,1626153,1629027,1629631,203991,203992,0022100867,3,1952,1952,0,0,1610612737
129,1610612739,1627747,1628386,1629636,200765,201567,1610612737,1626153,1629027,1629631,203991,203992,0022100867,3,1960,1960,0,0,1610612739
130,1610612739,1627747,1628386,1629636,200765,201567,1610612737,1626153,1629027,1629631,203991,203992,0022100867,3,1969,1969,0,2,1610612737
131,1610612739,1627747,1628386,1629636,200765,201567,1610612737,1626153,1629027,1629631,203991,203992,0022100867,3,1970,1994,0,0,1610612739
132,1610612739,1626224,1627747,1630596,200765,201567,1610612737,1626153,1629027,1630168,201568,203992,0022100867,3,2001,2004,0,0,1610612737
133,1610612739,1626224,1627747,1630596,200765,201567,1610612737,1626153,1629027,1630168,201568,203992,0022100867,3,2010,2013,0,0,1610612739
134,1610612739,1626224,1627747,1630596,200765,201567,1610612737,1626153,1629027,1630168,201568,203992,0022100867,3,2018,2018,0,3,1610612737
135,1610612739,1626224,1627747,1630596,200765,201567,1610612737,1626153,1629027,1630168,201568,203992,0022100867,3,2031,2033,0,0,1610612739
136,1610612739,1626224,1627747,1630596,200765,201567,1610612737,1626153,1629027,1630168,201568,203992,0022100867,3,2038,2038,0,2,1610612737
137,1610612739,1626224,1627747,1630596,200765,201567,1610612737,1626153,1629027,1630168,201568,203992,0022100867,3,2059,2059,2,0,1610612739
138,1610612739,1626224,1627747,1630596,200765,201567,1610612737,1626153,1629027,1630168,201568,203992,0022100867,3,2073,2073,0,2,1610612737
139,1610612739,1626224,1627747,1630596,200765,201567,1610612737,1626153,1629027,1630168,201568,203992,0022100867,3,2095,2095,2,0,1610612739
140,1610612739,1626224,1627747,1630596,200765,201567,1610612737,1626153,1629027,1630168,201568,203992,0022100867,3,2107,2107,0,0,1610612737
141,1610612739,1626224,1627747,1630596,200765,201567,1610612737,1626153,1629027,1630168,201568,203992,0022100867,3,2111,2111,0,0,1610612739
142,1610612739,1626224,1627747,1630596,200765,201567,1610612737,1626153,1629027,1630168,201568,203992,0022100867,3,2126,2128,0,0,1610612737
143,1610612739,1626224,1627747,1629636,1630596,201567,1610612737,101150,1626153,1630168,201568,203992,0022100867,3,2148,2152,2,0,1610612739
144,1610612739,1626224,1627747,1629636,1630596,201567,1610612737,101150,1626153,1630168,201568,203992,0022100867,3,2157,2157,0,0,1610612737
145,1610612739,1630596,201567,1627747,1626224,200765,1610612737,201568,203992,1630168,1626153,101150,0022100867,4,2160,2174,0,3,1610612737
146,1610612739,1630596,201567,1627747,1626224,200765,1610612737,201568,203992,1630168,1626153,101150,0022100867,4,2201,2201,2,0,1610612739
147,1610612739,1630596,201567,1627747,1626224,200765,1610612737,201568,203992,1630168,1626153,101150,0022100867,4,2212,2212,0,2,1610612737
148,1610612739,1630596,201567,1627747,1626224,200765,1610612737,201568,203992,1630168,1626153,101150,0022100867,4,2232,2232,3,0,1610612739
149,1610612739,1630596,201567,1627747,1626224,200765,1610612737,201568,203992,1630168,1626153,101150,0022100867,4,2244,2275,0,0,1610612737
150,1610612739,1630596,201567,1627747,1626224,200765,1610612737,201568,203992,1630168,1626153,101150,0022100867,4,2295,2295,3,0,1610612739
151,1610612739,1630596,201567,1627747,1626224,200765,1610612737,201568,203992,1630168,1626153,101150,0022100867,4,2323,2326,0,0,1610612737
152,1610612739,1630596,201567,1627747,1626224,200765,1610612737,201568,203992,1630168,1626153,101150,0022100867,4,2333,2336,0,0,1610612739
153,1610612739,1630596,201567,1627747,1626224,200765,1610612737,201568,203992,1630168,1626153,101150,0022100867,4,2343,2343,0,2,1610612737
154,1610612739,1630596,201567,1627747,1626224,200765,1610612737,201568,203992,1630168,1626153,101150,0022100867,4,2357,2361,0,0,1610612739
155,1610612739,1630596,201567,1627747,1626224,200765,1610612737,201568,203992,1630168,1626153,101150,0022100867,4,2365,2371,0,2,1610612737
156,1610612739,1627747,1629636,1630596,200765,201567,1610612737,101150,1626153,1629631,1630168,203992,0022100867,4,2391,2395,0,0,1610612739
157,1610612739,1627747,1629636,1630596,200765,201567,1610612737,101150,1626153,1629631,1630168,203992,0022100867,4,2402,2402,0,2,1610612737
158,1610612739,1627747,1629636,1630596,200765,201567,1610612737,101150,1626153,1629631,1630168,203992,0022100867,4,2421,2424,0,0,1610612739
159,1610612739,1627747,1629636,1630596,200765,201567,1610612737,101150,1626153,1629631,1630168,203992,0022100867,4,2433,2433,0,0,1610612737
160,1610612739,1628386,1629636,1629731,200765,201567,1610612737,101150,1626153,1629631,1630168,203992,0022100867,4,2446,2458,2,0,1610612739
161,1610612739,1628386,1629636,1629731,200765,201567,1610612737,101150,1626153,1629631,1630168,203992,0022100867,4,2460,2479,0,0,1610612737
162,1610612739,1628386,1629636,1629731,200765,201567,1610612737,1628989,1629027,1629631,1630168,203992,0022100867,4,2487,2487,2,0,1610612739
163,1610612739,1628386,1629636,1629731,200765,201567,1610612737,1628989,1629027,1629631,1630168,203992,0022100867,4,2498,2498,0,2,1610612737
164,1610612739,1628386,1629636,1629731,200765,201567,1610612737,1628989,1629027,1629631,203991,203992,0022100867,4,2504,2529,0,0,1610612739
165,1610612739,1628386,1629636,1629731,200765,201567,1610612737,1628989,1629027,1629631,203991,203992,0022100867,4,2537,2543,0,3,1610612737
166,1610612739,1628386,1629636,1629731,200765,201567,1610612737,1628989,1629027,1629631,203991,203992,0022100867,4,2558,2558,2,0,1610612739
167,1610612739,1628386,1629636,1629731,200765,201567,1610612737,1628989,1629027,1629631,203991,203992,0022100867,4,2582,2582,0,3,1610612737
168,1610612739,1628386,1629636,1629731,200765,201567,1610612737,1628989,1629027,1629631,203991,203992,0022100867,4,2590,2599,3,0,1610612739
169,1610612739,1627747,1628386,1629636,1630171,1630596,1610612737,1628989,1629027,1629631,203991,203992,0022100867,4,2616,2620,0,0,1610612737
170,1610612739,1627747,1628386,1629636,1630171,1630596,1610612737,1628989,1629027,1629631,203991,203992,0022100867,4,2632,2632,2,0,1610612739
171,1610612739,1627747,1628386,1629636,1630171,1630596,1610612737,1628989,1629027,1629631,203991,203992,0022100867,4,2643,2643,0,1,1610612737
172,1610612739,1627747,1628386,1629636,1630171,1630596,1610612737,1628989,1629027,1629631,203991,203992,0022100867,4,2649,2649,0,0,1610612739
173,1610612739,1627747,1628386,1629636,1630171,1630596,1610612737,1628989,1629027,1629631,203991,203992,0022100867,4,2654,2654,0,3,1610612737
174,1610612739,1627747,1628386,1629636,1630171,1630596,1610612737,1628989,1629027,1629631,203991,203992,0022100867,4,2669,2669,2,0,1610612739
175,1610612739,1627747,1628386,1629636,1630171,1630596,1610612737,1628989,1629027,1629631,203991,203992,0022100867,4,2682,2699,0,0,1610612737
176,1610612739,1627747,1628386,1629636,1630171,1630596,1610612737,1628989,1629027,1629631,203991,203992,0022100867,4,2713,2716,0,0,1610612739
177,1610612739,1627747,1628386,1629636,1630171,1630596,1610612737,1628989,1629027,1629631,203991,203992,0022100867,4,2736,2736,0,3,1610612737
178,1610612739,1627747,1628386,1629636,1630171,1630596,1610612737,1628989,1629027,1629631,203991,203992,0022100867,4,2756,2773,3,0,1610612739
179,1610612739,1627747,1628386,1629636,1630171,1630596,1610612737,1628989,1629027,1629631,203991,203992,0022100867,4,2793,2793,0,2,1610612737
180,1610612739,1627747,1628386,1629636,1630171,1630596,1610612737,1628989,1629027,1629631,203991,203992,0022100867,4,2804,2813,0,0,1610612739
181,1610612739,1627747,1628386,1629636,1630171,1630596,1610612737,1628989,1629027,1629631,203991,203992,0022100867,4,2813,2830,0,0,1610612737
182,1610612739,1626224,1627747,1628386,1629636,1630596,1610612737,1628989,1629027,1629631,201568,203992,0022100867,4,2832,2832,2,0,1610612739
183,1610612739,1626224,1627747,1628386,1629636,1630596,1610612737,1628989,1629027,1629631,201568,203992,0022100867,4,2849,2849,0,2,1610612737
184,1610612739,1626224,1627747,1628386,1629636,1630596,1610612737,1628989,1629027,1629631,201568,203992,0022100867,4,2858,2861,0,0,1610612739
