,t1_points_scored,stint_end,t2_pm,t1_players,t2_id,t1_id,t2_players,t2_points_scored,t1_pm,stint_start,margin_per_100,num_poss
0,11,322,4,"[203114, 203507, 201572, 202083, 202339]",1610612766,1610612749,"[201587, 1629023, 203469, 1628984, 1626179]",15,-4,0,-16.666666666666664,24.0
1,11,330,4,"[203114, 203507, 201572, 202083, 202339]",1610612766,1610612749,"[201587, 1629023, 203469, 1628984, 1626179]",15,-4,323,-16.0,25.0
2,16,446,3,"[203114, 203507, 201572, 202083, 202339]",1610612766,1610612749,"[1628370, 1628984, 1629023, 201587, 203469]",19,-3,331,-9.375,32.0
3,16,459,3,"[203114, 203507, 201572, 202083, 202339]",1610612766,1610612749,"[101107, 1628370, 1628984, 201587, 203469]",19,-3,447,-9.090909090909092,33.0
4,21,575,6,"[101141, 1628978, 201572, 201588, 203114]",1610612766,1610612749,"[101107, 1628370, 1628970, 1628984, 202687]",27,-6,460,-14.285714285714285,42.0
5,23,662,6,"[101141, 1628978, 201572, 201588, 2594]",1610612766,1610612749,"[101107, 1628370, 1628970, 1628984, 202687]",29,-6,576,-12.76595744680851,47.0
6,23,675,6,"[101141, 1627733, 1628978, 201588, 2594]",1610612766,1610612749,"[101107, 1626179, 1628370, 1628970, 202687]",29,-6,663,-12.5,48.0
7,23,716,8,"[101141, 1627733, 1628978, 201588, 2594]",1610612766,1610612749,"[101107, 1626179, 1626195, 1628370, 1628970]",31,-8,676,-15.686274509803921,51.0
8,23,719,8,"[1627733, 1628978, 201588, 203507, 2594]",1610612766,1610612749,"[101107, 1626179, 1626195, 1628370, 1628970]",31,-8,717,-15.686274509803921,51.0
9,29,781,2,"[1628978, 201588, 202083, 203507, 2594]",1610612766,1610612749,"[101107, 1626179, 1626195, 1628370, 1628984]",31,-2,720,-3.571428571428571,56.0
10,33,873,4,"[203114, 203507, 201588, 2594, 1627733]",1610612766,1610612749,"[201587, 1626179, 1628370, 1628970, 1626195]",37,-4,782,-6.451612903225806,62.0
11,33,903,7,"[1627733, 202339, 203114, 203507, 2594]",1610612766,1610612749,"[101107, 1626179, 1626195, 1628970, 201587]",40,-7,874,-10.9375,64.0
12,33,943,7,"[201572, 202339, 203114, 203507, 2594]",1610612766,1610612749,"[101107, 1626179, 1626195, 1628970, 201587]",40,-7,904,-10.44776119402985,67.0
13,33,984,9,"[101141, 201572, 202339, 203114, 2594]",1610612766,1610612749,"[101107, 1626179, 1628984, 201587, 203469]",42,-9,944,-12.857142857142856,70.0
14,39,1105,5,"[101141, 201572, 202083, 202339, 203114]",1610612766,1610612749,"[101107, 1626179, 1628984, 201587, 203469]",44,-5,985,-6.41025641025641,78.0
15,39,1110,7,"[101141, 201572, 202083, 202339, 203114]",1610612766,1610612749,"[1628370, 1628984, 1629023, 201587, 203469]",46,-7,1106,-8.860759493670885,79.0
16,39,1149,9,"[101141, 1628978, 201572, 202083, 202339]",1610612766,1610612749,"[1628370, 1628984, 1629023, 201587, 203469]",48,-9,1111,-11.11111111111111,81.0
17,41,1167,7,"[1628978, 201572, 202083, 202339, 203507]",1610612766,1610612749,"[101107, 1628370, 1628984, 201587, 203469]",48,-7,1150,-8.433734939759036,83.0
18,44,1241,4,"[1628978, 201572, 201588, 202339, 203507]",1610612766,1610612749,"[101107, 1628370, 1628984, 201587, 203469]",48,-4,1168,-4.545454545454546,88.0
19,46,1278,3,"[101141, 1628978, 201588, 202339, 203507]",1610612766,1610612749,"[101107, 1626179, 1628370, 1628984, 203469]",49,-3,1242,-3.260869565217391,92.0
20,47,1305,2,"[101141, 1628978, 201588, 203507, 2594]",1610612766,1610612749,"[101107, 1626179, 1628370, 1628984, 203469]",49,-2,1279,-2.127659574468085,94.0
21,50,1437,5,"[101141, 1628978, 201588, 203114, 203507]",1610612766,1610612749,"[101107, 1626179, 1628370, 1628970, 201587]",55,-5,1306,-4.854368932038835,103.0
22,50,1439,5,"[101141, 1628978, 201588, 203114, 2594]",1610612766,1610612749,"[101107, 1626179, 1628370, 1628970, 201587]",55,-5,1438,-4.807692307692308,104.0
23,52,1481,3,"[101141, 1628978, 201588, 203114, 2594]",1610612766,1610612749,"[101107, 1626179, 1628370, 1628984, 201587]",55,-3,1440,-2.803738317757009,107.0
24,59,1755,3,"[203114, 203507, 201572, 202083, 202339]",1610612766,1610612749,"[201587, 1629023, 203469, 1628984, 1626179]",62,-3,1482,-2.3255813953488373,129.0
25,61,1832,3,"[203114, 203507, 201572, 202083, 202339]",1610612766,1610612749,"[101107, 1626179, 1628984, 201587, 203469]",64,-3,1756,-2.2058823529411766,136.0
26,63,1892,1,"[101141, 201572, 202083, 202339, 203114]",1610612766,1610612749,"[101107, 1628370, 1628970, 1628984, 203469]",64,-1,1833,-0.7142857142857143,140.0
27,64,1913,3,"[101141, 1628978, 201588, 203114, 203507]",1610612766,1610612749,"[101107, 1628370, 1628970, 1628984, 202687]",67,-3,1893,-2.112676056338028,142.0
28,64,1966,8,"[101141, 1628978, 201588, 203114, 203507]",1610612766,1610612749,"[1628370, 1628970, 1628984, 201587, 202687]",72,-8,1914,-5.517241379310345,145.0
29,71,2077,5,"[101141, 1628978, 201588, 203507, 2594]",1610612766,1610612749,"[1628370, 1628970, 1628984, 201587, 202687]",76,-5,1967,-3.3112582781456954,151.0
30,78,2154,0,"[1626192, 1628978, 201572, 201588, 2594]",1610612766,1610612749,"[1626179, 1628370, 1628970, 201587, 202687]",78,0,2078,0.0,156.0
31,80,2237,-2,"[1626192, 1628978, 201572, 201588, 2594]",1610612766,1610612749,"[1626179, 1626195, 1628370, 1628970, 201587]",78,2,2155,1.2269938650306749,163.0
32,80,2281,-2,"[201572, 201588, 1628978, 2594, 1626192]",1610612766,1610612749,"[1629023, 1626179, 1628370, 1628970, 1626195]",78,2,2238,1.2048192771084338,166.0
33,83,2293,-5,"[1626192, 201588, 203114, 203507, 2594]",1610612766,1610612749,"[1629023, 1626179, 1628370, 1628970, 1626195]",78,5,2282,2.9940119760479043,167.0
34,83,2303,-4,"[1626192, 202339, 203114, 203507, 2594]",1610612766,1610612749,"[1626179, 1626195, 1628370, 1628984, 1629023]",79,4,2294,2.380952380952381,168.0
35,89,2334,-9,"[1626192, 202339, 203114, 203507, 2594]",1610612766,1610612749,"[1626179, 1626195, 1628984, 1629023, 201587]",80,9,2304,5.263157894736842,171.0
36,96,2492,-9,"[1626192, 202339, 203114, 203507, 2594]",1610612766,1610612749,"[101107, 1626179, 1628370, 1629023, 201587]",87,9,2335,5.0,180.0
37,104,2678,-10,"[1626192, 1628978, 202339, 203114, 203507]",1610612766,1610612749,"[101107, 1626179, 1628370, 1629023, 201587]",94,10,2493,5.2356020942408374,191.0
38,116,2848,-14,"[1628978, 201588, 202339, 203114, 203507]",1610612766,1610612749,"[101107, 1626179, 1628370, 1628984, 1629023]",102,14,2679,6.896551724137931,203.0
39,116,2878,-13,"[1628978, 201588, 202339, 203114, 203507]",1610612766,1610612749,"[1626179, 1628370, 1628984, 1629023, 201587]",103,13,2849,6.372549019607843,204.0
40,116,9999999,-13,"[101141, 1626192, 1627733, 1628978, 203648]",1610612766,1610612749,"[1626179, 1628370, 1628970, 1628984, 1629023]",103,13,2879,6.341463414634147,205.0
