,TEAM_ID_1,TEAM_1_PLAYERS,TEAM_ID_2,TEAM_2_PLAYERS,PERIOD
0,1610612766,[1628970 1629023  202687 1628984 1626179],1610612756,[1626162  203967  203382 1626164  201937],1
1,1610612766,[1628970 1626179 1628407  203469 1628370],1610612756,[1626162  201937 1628969 1629028  204020],2
2,1610612766,[1628970 1629023  202687 1628984 1626179],1610612756,[1626162  203967  203382 1626164  201937],3
3,1610612766,[1629023  202687 1626179  201587 1628407],1610612756,[ 201937 1628969 1629028 1629661  204020],4
