,stint_start,t1_points_scored,t2_pm,stint_end,t1_id,t2_points_scored,t1_players,t2_id,t1_pm,t2_players,margin_per_100,num_poss
0,0,6,4,308,1610612738,10,"[202330, 1628369, 1628464, 1627759, 202689]",1610612748,-4,"[203109, 203482, 1628389, 1629130, 1629134]",-20.0,20.0
1,309,8,10,422,1610612738,18,"[202330, 1628369, 1628464, 1627759, 202689]",1610612748,-10,"[203109, 203482, 1628389, 1629130, 1629134]",-37.03703703703704,27.0
2,423,10,8,438,1610612738,18,"[1627759, 1628464, 202330, 202689, 203935]",1610612748,-8,"[203109, 203482, 1628389, 1629130, 1629134]",-28.57142857142857,28.0
3,439,12,6,466,1610612738,18,"[1627759, 1628464, 202330, 202689, 203935]",1610612748,-6,"[1627884, 1628389, 1629130, 1629134, 203109]",-20.0,30.0
4,467,16,8,535,1610612738,24,"[1627759, 1628464, 202330, 202954, 203935]",1610612748,-8,"[1627884, 1628389, 1629130, 1629134, 203109]",-22.857142857142858,35.0
5,536,20,6,633,1610612738,26,"[1627759, 1628369, 202683, 202954, 203935]",1610612748,-6,"[1627884, 1628389, 1629130, 201609, 203109]",-14.634146341463413,41.0
6,634,23,8,692,1610612738,31,"[1627759, 1628369, 202683, 202954, 203935]",1610612748,-8,"[1627884, 1629130, 201609, 203482, 2738]",-17.77777777777778,45.0
7,693,26,7,719,1610612738,33,"[1628369, 1628400, 202683, 202954, 203935]",1610612748,-7,"[1627884, 1629639, 201609, 203482, 2738]",-14.893617021276595,47.0
8,720,31,5,814,1610612738,36,"[1628369, 1628400, 202683, 202954, 203935]",1610612748,-5,"[1629130, 1629639, 201609, 203482, 2738]",-9.433962264150944,53.0
9,815,31,8,866,1610612738,39,"[1628369, 203935, 202954, 202683, 1628400]",1610612748,-8,"[203482, 1627884, 201609, 2738, 1629639]",-14.285714285714285,56.0
10,867,36,9,999,1610612738,45,"[1628369, 1628400, 1629684, 202954, 203935]",1610612748,-9,"[203482, 1627884, 201609, 2738, 1629639]",-13.846153846153847,65.0
11,1000,44,9,1169,1610612738,53,"[1628369, 1628400, 1629684, 202330, 202954]",1610612748,-9,"[203482, 1627884, 201609, 2738, 1629639]",-12.162162162162163,74.0
12,1170,47,6,1230,1610612738,53,"[1627759, 1628400, 1628464, 202330, 202689]",1610612748,-6,"[203482, 1627884, 201609, 2738, 1629639]",-7.6923076923076925,78.0
13,1231,47,12,1369,1610612738,59,"[1627759, 1628464, 202330, 202689, 203935]",1610612748,-12,"[1628389, 1629134, 1629639, 203109, 2738]",-13.793103448275861,87.0
14,1370,49,14,1410,1610612738,63,"[1627759, 1628369, 202330, 202689, 203935]",1610612748,-14,"[1628389, 1629130, 1629134, 203109, 2738]",-15.384615384615385,91.0
15,1411,49,14,1430,1610612738,63,"[1627759, 1628369, 202330, 202689, 203935]",1610612748,-14,"[1628389, 1629134, 1629639, 203109, 2738]",-15.217391304347828,92.0
16,1431,51,12,1439,1610612738,63,"[1627759, 1628369, 202330, 202683, 202689]",1610612748,-12,"[1627884, 1628389, 1629134, 203109, 2738]",-12.903225806451612,93.0
17,1440,64,4,1701,1610612738,68,"[1627759, 1628369, 1629684, 202330, 202689]",1610612748,-4,"[1628389, 1629130, 1629639, 201609, 203109]",-3.669724770642202,109.0
18,1702,66,3,1775,1610612738,69,"[202330, 1628369, 1628464, 1627759, 202689]",1610612748,-3,"[203109, 203482, 1628389, 1629130, 1629134]",-2.608695652173913,115.0
19,1776,68,3,1823,1610612738,71,"[202330, 1628369, 1628464, 1627759, 202689]",1610612748,-3,"[1628389, 1629130, 201609, 203109, 203482]",-2.5423728813559325,118.0
20,1824,70,8,1923,1610612738,78,"[1627759, 1628369, 1628464, 202330, 203935]",1610612748,-8,"[1628389, 1629130, 201609, 203109, 203482]",-6.451612903225806,124.0
21,1924,71,7,1933,1610612738,78,"[1627759, 1628400, 1628464, 202330, 203935]",1610612748,-7,"[1627884, 1628389, 1629130, 201609, 203109]",-5.6000000000000005,125.0
22,1934,71,9,1959,1610612738,80,"[1627759, 1628400, 202330, 202683, 203935]",1610612748,-9,"[1627884, 1628389, 1629130, 201609, 2738]",-7.086614173228346,127.0
23,1960,71,12,1981,1610612738,83,"[1627759, 1628400, 202330, 202683, 202954]",1610612748,-12,"[1627884, 1628389, 1629130, 201609, 2738]",-9.375,128.0
24,1982,77,9,2089,1610612738,86,"[1628369, 1628400, 202330, 202683, 202954]",1610612748,-9,"[1627884, 1628389, 1629130, 201609, 2738]",-6.61764705882353,136.0
25,2090,80,10,2153,1610612738,90,"[1628369, 1628400, 202330, 202683, 202954]",1610612748,-10,"[1627884, 1629639, 201609, 203482, 2738]",-7.092198581560284,141.0
26,2154,80,11,2159,1610612738,91,"[1628400, 202330, 202683, 202689, 202954]",1610612748,-11,"[1627884, 1629639, 201609, 203482, 2738]",-7.746478873239436,142.0
27,2160,85,8,2243,1610612738,93,"[1628400, 202330, 202683, 202689, 202954]",1610612748,-8,"[1627884, 1628389, 1629639, 203109, 2738]",-5.405405405405405,148.0
28,2244,87,6,2329,1610612738,93,"[1627759, 202689, 202954, 202683, 1628400]",1610612748,-6,"[203482, 1627884, 201609, 2738, 1629639]",-3.896103896103896,154.0
29,2330,91,7,2467,1610612738,98,"[1627759, 1628400, 1629641, 202683, 202954]",1610612748,-7,"[203482, 1627884, 201609, 2738, 1629639]",-4.3478260869565215,161.0
30,2468,98,4,2641,1610612738,102,"[1627759, 1628400, 1629641, 202683, 202954]",1610612748,-4,"[1628389, 1629639, 201609, 203482, 2738]",-2.3391812865497075,171.0
31,2642,103,6,2866,1610612738,109,"[1627759, 1628369, 1628464, 202330, 202954]",1610612748,-6,"[1628389, 1629130, 1629639, 203109, 2738]",-3.2085561497326207,187.0
32,2867,106,6,2879,1610612738,112,"[1627759, 1628369, 1628464, 202330, 202689]",1610612748,-6,"[1628389, 1629130, 201609, 203109, 2738]",-3.1746031746031744,189.0
33,2880,106,6,9999999,1610612738,112,"[1627759, 1628369, 1629057, 202330, 202689]",1610612748,-6,"[1627884, 1628389, 1629130, 203109, 2738]",-3.1578947368421053,190.0
