,t1_points_scored,stint_end,t2_pm,t1_players,t2_id,t1_id,t2_players,t2_points_scored,t1_pm,stint_start,margin_per_100,num_poss
0,7,255,3,"[1628983, 201568, 203500, 1629652, 101108]",1610612745,1610612760,"[201569, 200782, 203496, 201935, 201566]",10,-3,0,-15.789473684210526,19.0
1,7,299,9,"[1628983, 201568, 203500, 1629652, 101108]",1610612745,1610612760,"[201569, 200782, 203496, 201935, 201566]",16,-9,256,-40.909090909090914,22.0
2,7,391,9,"[1628983, 201568, 203500, 1629652, 101108]",1610612745,1610612760,"[1627863, 200782, 201569, 201935, 203496]",16,-9,300,-33.33333333333333,27.0
3,7,440,11,"[1628983, 201568, 203500, 1629652, 101108]",1610612745,1610612760,"[1627863, 201145, 201935, 203463, 203496]",18,-11,392,-35.483870967741936,31.0
4,12,538,9,"[1628983, 1629652, 201568, 203457, 203471]",1610612745,1610612760,"[1627863, 201145, 201935, 203463, 203496]",21,-9,441,-23.076923076923077,39.0
5,12,647,12,"[1628983, 1629647, 1629652, 203457, 203471]",1610612745,1610612760,"[1627863, 201145, 201935, 203085, 203496]",24,-12,539,-27.27272727272727,44.0
6,12,694,12,"[1628983, 1629647, 1629652, 203457, 203471]",1610612745,1610612760,"[1627863, 201145, 201566, 201569, 203085]",24,-12,648,-25.0,48.0
7,14,719,10,"[101108, 1628983, 1629647, 203457, 203471]",1610612745,1610612760,"[1627863, 201145, 201566, 201569, 203085]",24,-10,695,-20.0,50.0
8,19,819,5,"[101108, 1628390, 1629647, 203457, 203471]",1610612745,1610612760,"[1627863, 201145, 201566, 201569, 203085]",24,-5,720,-8.620689655172415,58.0
9,24,953,7,"[203500, 101108, 203471, 1629647, 1628390]",1610612745,1610612760,"[201569, 200782, 201566, 201145, 203463]",31,-7,820,-10.44776119402985,67.0
10,28,1035,5,"[203500, 101108, 203471, 1629647, 1628390]",1610612745,1610612760,"[1627863, 200782, 201145, 201566, 201569]",33,-5,954,-7.042253521126761,71.0
11,30,1065,3,"[1628390, 1628983, 1629647, 203471, 203500]",1610612745,1610612760,"[1627863, 200782, 201145, 201569, 201935]",33,-3,1036,-4.054054054054054,74.0
12,39,1138,-3,"[1628983, 1629652, 201568, 203471, 203500]",1610612745,1610612760,"[1627863, 200782, 201145, 201935, 203496]",36,3,1066,3.79746835443038,79.0
13,39,1177,-3,"[1628983, 1629652, 201568, 203471, 203500]",1610612745,1610612760,"[1627863, 200782, 201145, 201569, 201935]",36,3,1139,3.7037037037037033,81.0
14,41,1213,-2,"[101108, 1628983, 1629652, 201568, 203471]",1610612745,1610612760,"[1627863, 200782, 201145, 201569, 201935]",39,2,1178,2.380952380952381,84.0
15,41,1274,3,"[101108, 1628983, 1629652, 201568, 203471]",1610612745,1610612760,"[1627863, 200782, 201569, 201935, 203496]",44,-3,1214,-3.4090909090909087,88.0
16,43,1383,3,"[101108, 1628983, 1629652, 201568, 203471]",1610612745,1610612760,"[200782, 201566, 201569, 201935, 203496]",46,-3,1275,-3.125,96.0
17,45,1437,3,"[101108, 1628983, 201568, 203471, 203500]",1610612745,1610612760,"[200782, 201566, 201569, 201935, 203496]",48,-3,1384,-3.0,100.0
18,45,1543,9,"[101108, 1629652, 201568, 203471, 203500]",1610612745,1610612760,"[201145, 201566, 201569, 201935, 203496]",54,-9,1438,-8.411214953271028,107.0
19,47,1627,11,"[1628983, 201568, 203500, 1629652, 101108]",1610612745,1610612760,"[201569, 200782, 203496, 201935, 201566]",58,-11,1544,-9.734513274336283,113.0
20,49,1748,18,"[101108, 1628983, 201568, 203471, 203500]",1610612745,1610612760,"[201569, 200782, 203496, 201935, 201566]",67,-18,1628,-14.634146341463413,123.0
21,58,1918,19,"[101108, 1628983, 201568, 203471, 203500]",1610612745,1610612760,"[1627863, 200782, 201569, 201935, 203496]",77,-19,1749,-13.970588235294118,136.0
22,58,1987,22,"[101108, 1628983, 1629652, 201568, 203500]",1610612745,1610612760,"[1627863, 201145, 201935, 203085, 203496]",80,-22,1919,-15.714285714285714,140.0
23,60,2104,25,"[101108, 1628983, 1629647, 1629652, 203500]",1610612745,1610612760,"[1627863, 201145, 201935, 203085, 203496]",85,-25,1988,-16.89189189189189,148.0
24,63,2158,22,"[101108, 1628983, 1629647, 1629652, 203457]",1610612745,1610612760,"[1627863, 201145, 201566, 201569, 203085]",85,-22,2105,-14.37908496732026,153.0
25,64,2226,21,"[101108, 1627846, 1628983, 1629647, 203457]",1610612745,1610612760,"[1627863, 201145, 201566, 201569, 203085]",85,-21,2159,-13.291139240506327,158.0
26,67,2327,24,"[101108, 203457, 1629647, 1628390, 1627846]",1610612745,1610612760,"[201569, 203496, 201566, 201145, 203085]",91,-24,2227,-14.545454545454545,165.0
27,70,2445,23,"[1627846, 1628390, 1628983, 1629647, 203457]",1610612745,1610612760,"[201569, 203496, 201566, 201145, 203085]",93,-23,2328,-13.218390804597702,174.0
28,70,2505,26,"[1627846, 1628390, 1628983, 1629647, 203457]",1610612745,1610612760,"[1627863, 201145, 201569, 203085, 203496]",96,-26,2446,-14.606741573033707,178.0
29,72,2574,29,"[1627846, 1628390, 1628977, 1629647, 203488]",1610612745,1610612760,"[1627863, 201145, 201935, 203085, 203496]",101,-29,2506,-15.934065934065933,182.0
30,75,2655,29,"[1627846, 1628390, 1628977, 1629647, 203488]",1610612745,1610612760,"[201145, 201935, 203085, 203463, 203496]",104,-29,2575,-15.263157894736842,190.0
31,80,2861,34,"[1627846, 1628390, 1628977, 1629647, 203488]",1610612745,1610612760,"[1627863, 201145, 203085, 203463, 203496]",114,-34,2656,-16.50485436893204,206.0
32,80,9999999,34,"[1627846, 1628390, 1628977, 1629647, 203488]",1610612745,1610612760,"[1626187, 1629598, 201960, 203085, 203463]",114,-34,2862,-16.425120772946862,207.0
