,t2_pm,t1_players,stint_end,t2_points_scored,stint_start,t1_points_scored,t1_id,t2_id,t2_players,t1_pm,margin_per_100,num_poss
0,-4,"[1627827, 204001, 203939, 1628373, 1628973]",185,6,0,10,1610612742,1610612758,"[203084, 1628963, 1626158, 1630169, 1628368]",4,33.33333333333333,12.0
1,-8,"[1627827, 204001, 203939, 1628373, 1628973]",287,8,186,16,1610612742,1610612758,"[203084, 1628963, 1626158, 1630169, 1628368]",8,42.10526315789473,19.0
2,-6,"[1627827, 204001, 203939, 1628373, 1628973]",401,13,288,19,1610612742,1610612758,"[1626158, 1628368, 1629002, 1630169, 203084]",6,23.076923076923077,26.0
3,-8,"[1627827, 204001, 203939, 1628373, 1628973]",432,13,402,21,1610612742,1610612758,"[1627741, 1627745, 1628368, 1629002, 203084]",8,28.57142857142857,28.0
4,-8,"[1627827, 1628373, 1628973, 1629650, 1630182]",564,15,433,23,1610612742,1610612758,"[1627741, 1627745, 1628368, 1629002, 203084]",8,22.22222222222222,36.0
5,-9,"[1627827, 1628373, 1629650, 1630182, 202738]",713,20,565,29,1610612742,1610612758,"[1627741, 1627745, 1628368, 1629002, 203084]",9,20.0,45.0
6,-10,"[1628425, 1629650, 1630182, 202738, 204001]",894,25,714,35,1610612742,1610612758,"[1627741, 1627745, 1629002, 1630169, 1630558]",10,17.543859649122805,57.0
7,-7,"[204001, 1628973, 1630182, 1628425, 1629033]",910,28,895,35,1610612742,1610612758,"[1626158, 1630169, 1629002, 1627741, 1630558]",7,11.864406779661017,59.0
8,-7,"[1628373, 1628425, 1628973, 1629033, 204001]",949,30,911,37,1610612742,1610612758,"[1626158, 1627741, 1628368, 1628963, 1630169]",7,11.475409836065573,61.0
9,-6,"[1627827, 1628373, 1628425, 1628973, 204001]",963,31,950,37,1610612742,1610612758,"[1626158, 1627741, 1628368, 1628963, 1630169]",6,9.67741935483871,62.0
10,-6,"[1627827, 1628373, 1628425, 1628973, 204001]",1030,33,964,39,1610612742,1610612758,"[1626158, 1628368, 1628963, 1630169, 203084]",6,9.230769230769232,65.0
11,-2,"[1627827, 1628373, 1628425, 1628973, 203939]",1078,37,1031,39,1610612742,1610612758,"[1626158, 1628368, 1628963, 1630169, 203084]",2,2.941176470588235,68.0
12,0,"[1627827, 1628373, 1628973, 1630182, 203939]",1191,39,1079,39,1610612742,1610612758,"[1627745, 1628368, 1628963, 1630169, 203084]",0,0.0,75.0
13,2,"[1627827, 1628373, 1630182, 202738, 203939]",1339,45,1192,43,1610612742,1610612758,"[1627745, 1628368, 1628963, 1630169, 203084]",-2,-2.3529411764705883,85.0
14,9,"[1627827, 1630182, 202738, 203939, 204001]",1438,52,1340,43,1610612742,1610612758,"[1627745, 1628368, 1628963, 1630169, 203084]",-9,-9.89010989010989,91.0
15,10,"[1628373, 1628973, 1630182, 203939, 204001]",1620,59,1439,49,1610612742,1610612758,"[1627745, 1628368, 1628963, 1630558, 203084]",-10,-10.0,100.0
16,9,"[1627827, 204001, 203939, 1628373, 1628973]",1721,62,1621,53,1610612742,1610612758,"[203084, 1628963, 1626158, 1630169, 1628368]",-9,-8.49056603773585,106.0
17,8,"[1628373, 1628973, 1630182, 203939, 204001]",1883,68,1722,60,1610612742,1610612758,"[203084, 1628963, 1626158, 1630169, 1628368]",-8,-6.896551724137931,116.0
18,6,"[1628373, 1628973, 1630182, 203939, 204001]",1909,68,1884,62,1610612742,1610612758,"[1627741, 1627745, 1628368, 1628963, 203084]",-6,-5.084745762711865,118.0
19,4,"[1628373, 1628425, 1628973, 1629650, 1630182]",1932,68,1910,64,1610612742,1610612758,"[1627741, 1627745, 1628963, 1630558, 203084]",-4,-3.361344537815126,119.0
20,-1,"[1628373, 1628425, 1629650, 1630182, 202738]",2039,68,1933,69,1610612742,1610612758,"[1627741, 1627745, 1629002, 1630558, 203084]",1,0.7936507936507936,126.0
21,3,"[1628373, 1628425, 1629650, 1630182, 202738]",2142,72,2040,69,1610612742,1610612758,"[1627741, 1627745, 1629002, 1630169, 1630558]",-3,-2.2556390977443606,133.0
22,3,"[1628425, 1628973, 1629650, 1630182, 202738]",2156,72,2143,69,1610612742,1610612758,"[1626158, 1627741, 1629002, 1630169, 1630558]",-3,-2.2388059701492535,134.0
23,-4,"[1628373, 1628425, 1628973, 202738, 204001]",2416,77,2157,81,1610612742,1610612758,"[1626158, 1627741, 1629002, 1630169, 1630558]",4,2.666666666666667,150.0
24,-2,"[204001, 1628373, 1628973, 1628425, 1629033]",2466,79,2417,81,1610612742,1610612758,"[1626158, 1630169, 1629002, 1627741, 1630558]",2,1.3157894736842104,152.0
25,-5,"[1628373, 1628425, 1628973, 1630182, 203939]",2547,81,2467,86,1610612742,1610612758,"[1627745, 1628368, 1628963, 1630558, 203084]",5,3.225806451612903,155.0
26,-5,"[1627827, 1628373, 1628973, 1630182, 203939]",2561,81,2548,86,1610612742,1610612758,"[1627745, 1628368, 1628963, 1630558, 203084]",5,3.205128205128205,156.0
27,-2,"[1627827, 1628373, 1628973, 1630182, 203939]",2621,86,2562,88,1610612742,1610612758,"[1627745, 1628368, 1628963, 1630169, 203084]",2,1.25,160.0
28,-2,"[1627827, 1628373, 1628973, 203939, 204001]",2636,86,2622,88,1610612742,1610612758,"[1626158, 1628368, 1628963, 1630169, 203084]",2,1.2422360248447204,161.0
29,0,"[1627827, 1628373, 1630182, 203939, 204001]",2754,90,2637,90,1610612742,1610612758,"[1626158, 1628368, 1628963, 1630169, 203084]",0,0.0,167.0
30,0,"[1627827, 1628373, 1628973, 1630182, 204001]",2846,92,2755,92,1610612742,1610612758,"[1626158, 1628368, 1628963, 1630169, 203084]",0,0.0,172.0
31,0,"[1627827, 1628373, 1628973, 203939, 204001]",2846,92,2847,92,1610612742,1610612758,"[1626158, 1628368, 1628963, 1630169, 203084]",0,0.0,172.0
32,-2,"[1627827, 1628373, 1630182, 203939, 204001]",2852,92,2847,94,1610612742,1610612758,"[1626158, 1628368, 1628963, 1630169, 203084]",2,1.1560693641618496,173.0
33,-2,"[1627827, 1628373, 1628973, 1630182, 203939]",2875,92,2853,94,1610612742,1610612758,"[1626158, 1627741, 1628368, 1630169, 203084]",2,1.1494252873563218,174.0
34,-2,"[1627827, 1628373, 1628973, 203939, 204001]",2879,92,2876,94,1610612742,1610612758,"[1626158, 1628368, 1628963, 1630558, 203084]",2,1.1428571428571428,175.0
35,1,"[1628373, 1628425, 1628973, 1630182, 203939]",9999999,95,2880,94,1610612742,1610612758,"[1627741, 1628368, 1629002, 1630169, 203084]",-1,-0.5649717514124294,177.0
