,team1_id,team1_player1,team1_player2,team1_player3,team1_player4,team1_player5,team2_id,team2_player1,team2_player2,team2_player3,team2_player4,team2_player5,game_id,period,possession_start,possession_end,team1_points,team2_points,possession_team
0,1610612755,202699,1629680,203954,201935,1630178,1610612752,1629628,203944,1629011,202692,203095,0022100912,1,0,13,0,2,1610612752
1,1610612755,202699,1629680,203954,201935,1630178,1610612752,1629628,203944,1629011,202692,203095,0022100912,1,28,30,0,0,1610612755
2,1610612755,202699,1629680,203954,201935,1630178,1610612752,1629628,203944,1629011,202692,203095,0022100912,1,35,35,0,0,1610612752
3,1610612755,202699,1629680,203954,201935,1630178,1610612752,1629628,203944,1629011,202692,203095,0022100912,1,49,49,2,0,1610612755
4,1610612755,202699,1629680,203954,201935,1630178,1610612752,1629628,203944,1629011,202692,203095,0022100912,1,59,59,0,2,1610612752
5,1610612755,202699,1629680,203954,201935,1630178,1610612752,1629628,203944,1629011,202692,203095,0022100912,1,73,73,3,0,1610612755
6,1610612755,202699,1629680,203954,201935,1630178,1610612752,1629628,203944,1629011,202692,203095,0022100912,1,87,87,0,2,1610612752
7,1610612755,202699,1629680,203954,201935,1630178,1610612752,1629628,203944,1629011,202692,203095,0022100912,1,95,96,0,0,1610612755
8,1610612755,202699,1629680,203954,201935,1630178,1610612752,1629628,203944,1629011,202692,203095,0022100912,1,106,108,0,0,1610612752
9,1610612755,202699,1629680,203954,201935,1630178,1610612752,1629628,203944,1629011,202692,203095,0022100912,1,118,120,0,0,1610612755
10,1610612755,202699,1629680,203954,201935,1630178,1610612752,1629628,203944,1629011,202692,203095,0022100912,1,123,123,0,0,1610612752
11,1610612755,202699,1629680,203954,201935,1630178,1610612752,1629628,203944,1629011,202692,203095,0022100912,1,126,126,2,0,1610612755
12,1610612755,202699,1629680,203954,201935,1630178,1610612752,1629628,203944,1629011,202692,203095,0022100912,1,138,142,0,2,1610612752
13,1610612755,202699,1629680,203954,201935,1630178,1610612752,1629628,203944,1629011,202692,203095,0022100912,1,153,153,2,0,1610612755
14,1610612755,202699,1629680,203954,201935,1630178,1610612752,1629628,203944,1629011,202692,203095,0022100912,1,165,165,0,0,1610612752
15,1610612755,202699,1629680,203954,201935,1630178,1610612752,1629628,203944,1629011,202692,203095,0022100912,1,169,169,2,0,1610612755
16,1610612755,202699,1629680,203954,201935,1630178,1610612752,1629628,203944,1629011,202692,203095,0022100912,1,188,188,0,3,1610612752
17,1610612755,202699,1629680,203954,201935,1630178,1610612752,1629628,203944,1629011,202692,203095,0022100912,1,202,204,0,0,1610612755
18,1610612755,202699,1629680,203954,201935,1630178,1610612752,1629628,203944,1629011,202692,203095,0022100912,1,215,215,0,2,1610612752
19,1610612755,202699,1629680,203954,201935,1630178,1610612752,1629628,203944,1629011,202692,203095,0022100912,1,220,220,2,0,1610612755
20,1610612755,202699,1629680,203954,201935,1630178,1610612752,1629628,203944,1629011,202692,203095,0022100912,1,237,244,0,0,1610612752
21,1610612755,202699,1629680,203954,201935,1630178,1610612752,1629628,203944,1629011,202692,203095,0022100912,1,248,250,2,0,1610612755
22,1610612755,202699,1629680,203954,201935,1630178,1610612752,1629628,203944,1629011,202692,203095,0022100912,1,261,263,0,0,1610612752
23,1610612755,202699,1629680,203954,201935,1630178,1610612752,1629628,203944,1629011,202692,203095,0022100912,1,270,271,1,0,1610612755
24,1610612755,202699,1629680,203954,201935,1630178,1610612752,1629628,1630579,202692,203095,203944,0022100912,1,277,277,0,1,1610612752
25,1610612755,202699,1629680,203954,201935,1630178,1610612752,1629628,1630579,202692,203095,203944,0022100912,1,282,282,1,0,1610612755
26,1610612755,202699,1629680,203954,201935,1630178,1610612752,1629628,1630579,202692,203095,203944,0022100912,1,301,301,0,0,1610612752
27,1610612755,202699,1629680,203954,201935,1630178,1610612752,1629628,1630579,202692,203095,203944,0022100912,1,305,305,3,0,1610612755
28,1610612755,202699,1629680,203954,201935,1630178,1610612752,1629628,1630579,202692,203095,203944,0022100912,1,312,317,0,3,1610612752
29,1610612755,202699,1629680,203954,201935,1630178,1610612752,1629628,1630579,202692,203095,203944,0022100912,1,336,338,0,0,1610612755
30,1610612755,202699,1629680,203954,201935,1630178,1610612752,1629628,1630579,202692,203095,203944,0022100912,1,345,347,0,0,1610612752
31,1610612755,202699,1629680,203954,201935,1630178,1610612752,1629628,1630579,202692,203095,203944,0022100912,1,358,358,0,0,1610612755
32,1610612755,202699,1629680,203954,201935,1630178,1610612752,1629628,1630579,202692,203095,203944,0022100912,1,371,373,0,0,1610612752
33,1610612755,1627777,1627788,1629680,1630178,203954,1610612752,1629628,1630579,202692,203095,203944,0022100912,1,387,387,2,0,1610612755
34,1610612755,1627777,1627788,1629680,1630178,203954,1610612752,1630193,1630579,202692,203095,203944,0022100912,1,401,416,0,2,1610612752
35,1610612755,1627777,1627788,1629680,1630178,203954,1610612752,1630193,1630579,202692,203095,203944,0022100912,1,433,435,0,0,1610612755
36,1610612755,1627777,1627788,1629680,1630178,203954,1610612752,1630193,1630579,202692,203095,203944,0022100912,1,439,441,0,0,1610612752
37,1610612755,1627777,1627788,1629680,1630178,203954,1610612752,1630193,1630579,202692,203095,203944,0022100912,1,451,453,0,0,1610612755
38,1610612755,1627777,1627788,1629680,1630178,203954,1610612752,1630193,1630579,202692,203095,203944,0022100912,1,462,464,0,0,1610612752
39,1610612755,1627777,1627788,1629680,1630178,203954,1610612752,1630193,1630579,202692,203095,203944,0022100912,1,476,476,0,0,1610612755
40,1610612755,1627777,1627788,1629680,1630178,203954,1610612752,1630193,1630579,202692,203095,203944,0022100912,1,477,477,0,1,1610612752
41,1610612755,1627777,1627788,1630178,201980,203954,1610612752,1630193,1630579,202692,203095,203944,0022100912,1,498,500,0,0,1610612755
42,1610612755,1627777,1627788,1630178,201980,203954,1610612752,1630193,1630579,202692,203095,203944,0022100912,1,504,506,0,1,1610612752
43,1610612755,1627777,1627788,1630178,201980,203954,1610612752,1630193,1630579,202692,203095,203944,0022100912,1,528,528,2,0,1610612755
44,1610612755,1627777,1627788,1630178,201980,203954,1610612752,1630193,1630579,202692,203095,203944,0022100912,1,537,539,0,0,1610612752
45,1610612755,1627777,1627788,1630178,201980,203954,1610612752,1630193,1630579,202692,203095,203944,0022100912,1,544,544,3,0,1610612755
46,1610612755,1627777,1627788,1630178,201980,203954,1610612752,1630193,1630579,202692,203095,203944,0022100912,1,559,559,0,4,1610612752
47,1610612755,1627777,1627788,200794,201935,201980,1610612752,1629628,1630167,1630193,1630579,203095,0022100912,1,578,578,3,0,1610612755
48,1610612755,1627777,1627788,200794,201935,201980,1610612752,1629628,1630167,1630193,1630579,203095,0022100912,1,594,594,0,1,1610612752
49,1610612755,1627777,1627788,200794,201935,201980,1610612752,1629628,1630167,1630193,1630579,203095,0022100912,1,602,602,0,0,1610612755
50,1610612755,1627777,1627788,200794,201935,201980,1610612752,1629628,1630167,1630193,1630579,203095,0022100912,1,616,619,0,3,1610612752
51,1610612755,1627777,1627788,200794,201935,201980,1610612752,1629628,1630167,1630193,1630579,203095,0022100912,1,637,639,0,0,1610612755
52,1610612755,1627777,1627788,200794,201935,201980,1610612752,1629628,1630167,1630193,1630579,203095,0022100912,1,642,642,0,2,1610612752
53,1610612755,1627777,1627788,200794,201935,201980,1610612752,1629628,1630167,1630193,1630579,203095,0022100912,1,657,657,3,0,1610612755
54,1610612755,1627777,1627788,200794,201935,201980,1610612752,1629628,1630167,1630193,1630579,203095,0022100912,1,676,682,0,2,1610612752
55,1610612755,1627788,200794,201935,201980,202699,1610612752,1629628,1630167,1630193,1630579,203095,0022100912,1,689,689,2,0,1610612755
56,1610612755,1627788,200794,201935,201980,202699,1610612752,1629628,1630167,1630193,1630579,203095,0022100912,1,699,699,0,2,1610612752
57,1610612755,1627788,200794,201935,201980,202699,1610612752,1629628,1630167,1630193,1630579,203095,0022100912,1,717,717,3,0,1610612755
58,1610612755,1627788,200794,201935,201980,202699,1610612752,1629628,1630167,1630193,1630579,203095,0022100912,1,720,720,0,0,0
59,1610612755,202699,201935,1627788,201980,200794,1610612752,1629628,1630579,1630193,1630167,1629629,0022100912,2,720,740,2,0,1610612755
60,1610612755,202699,201935,1627788,201980,200794,1610612752,1629628,1630579,1630193,1630167,1629629,0022100912,2,762,764,0,0,1610612752
61,1610612755,202699,201935,1627788,201980,200794,1610612752,1629628,1630579,1630193,1630167,1629629,0022100912,2,786,795,0,0,1610612755
62,1610612755,202699,201935,1627788,201980,200794,1610612752,1629628,1630579,1630193,1630167,1629629,0022100912,2,807,809,0,0,1610612752
63,1610612755,202699,201935,1627788,201980,200794,1610612752,1629628,1630579,1630193,1630167,1629629,0022100912,2,816,816,0,0,1610612755
64,1610612755,202699,201935,1627788,201980,200794,1610612752,1629628,1630579,1630193,1630167,1629629,0022100912,2,821,821,0,2,1610612752
65,1610612755,202699,201935,1627788,201980,200794,1610612752,1629628,1630579,1630193,1630167,1629629,0022100912,2,837,839,0,0,1610612755
66,1610612755,202699,201935,1627788,201980,200794,1610612752,1629628,1630579,1630193,1630167,1629629,0022100912,2,846,857,0,0,1610612752
67,1610612755,202699,201935,1627788,201980,200794,1610612752,1629628,1630579,1630193,1630167,1629629,0022100912,2,861,861,0,0,1610612755
68,1610612755,1629003,200794,201935,201980,202699,1610612752,1629011,1629628,1629629,1630167,1630193,0022100912,2,872,872,0,0,1610612752
69,1610612755,1629003,200794,201935,201980,202699,1610612752,1629011,1629628,1629629,1630167,1630193,0022100912,2,895,895,2,0,1610612755
70,1610612755,1629003,200794,201935,201980,202699,1610612752,1629011,1629628,1629629,1630167,1630193,0022100912,2,911,911,0,2,1610612752
71,1610612755,1629003,200794,201935,201980,202699,1610612752,1629011,1629628,1629629,1630167,1630193,0022100912,2,924,926,0,0,1610612755
72,1610612755,1629003,200794,201935,201980,202699,1610612752,1629011,1629628,1629629,1630167,1630193,0022100912,2,933,933,0,1,1610612752
73,1610612755,1629003,1630178,201935,202699,203954,1610612752,1629011,1629628,1629629,1630167,202692,0022100912,2,948,948,2,0,1610612755
74,1610612755,1629003,1630178,201935,202699,203954,1610612752,1629011,1629628,1629629,1630167,202692,0022100912,2,971,971,0,0,1610612752
75,1610612755,1629003,1630178,201935,202699,203954,1610612752,1629011,1629628,1629629,1630167,202692,0022100912,2,973,975,2,0,1610612755
76,1610612755,1629003,1630178,201935,202699,203954,1610612752,1629011,1629628,1629629,1630167,202692,0022100912,2,981,983,0,0,1610612752
77,1610612755,1629003,1630178,201935,202699,203954,1610612752,1629011,1629628,1629629,202692,203944,0022100912,2,994,994,0,0,1610612755
78,1610612755,1629003,1630178,201935,202699,203954,1610612752,1629011,1629628,1629629,202692,203944,0022100912,2,999,999,0,0,1610612752
79,1610612755,1629003,1630178,201935,202699,203954,1610612752,1629011,1629628,1629629,202692,203944,0022100912,2,1002,1002,2,0,1610612755
80,1610612755,1629003,1630178,201935,202699,203954,1610612752,1629011,1629628,1629629,202692,203944,0022100912,2,1002,1022,0,0,1610612752
81,1610612755,1629003,1630178,201935,202699,203954,1610612752,1629011,1629629,202692,203095,203944,0022100912,2,1029,1029,3,0,1610612755
82,1610612755,1629003,1630178,201935,202699,203954,1610612752,1629011,1629629,202692,203095,203944,0022100912,2,1051,1051,0,2,1610612752
83,1610612755,1629003,1630178,201935,202699,203954,1610612752,1629011,1629629,202692,203095,203944,0022100912,2,1069,1069,2,0,1610612755
84,1610612755,1629003,1630178,201935,202699,203954,1610612752,1629011,1629629,202692,203095,203944,0022100912,2,1085,1087,0,2,1610612752
85,1610612755,1627777,1629003,1629680,1630178,203954,1610612752,1629011,1629629,202692,203095,203944,0022100912,2,1111,1113,0,0,1610612755
86,1610612755,1627777,1629003,1629680,1630178,203954,1610612752,1629011,1629629,202692,203095,203944,0022100912,2,1130,1130,0,0,1610612752
87,1610612755,1627777,1629003,1629680,1630178,203954,1610612752,1629011,1629629,202692,203095,203944,0022100912,2,1136,1138,0,0,1610612755
88,1610612755,1627777,1629003,1629680,1630178,203954,1610612752,1629011,1629629,202692,203095,203944,0022100912,2,1141,1141,0,0,1610612752
89,1610612755,1627777,1629003,1629680,1630178,203954,1610612752,1629011,1629629,202692,203095,203944,0022100912,2,1147,1149,0,0,1610612755
90,1610612755,1627777,1629003,1629680,1630178,203954,1610612752,1629011,1629629,202692,203095,203944,0022100912,2,1157,1161,0,0,1610612752
91,1610612755,1627777,1629003,1629680,1630178,203954,1610612752,1629011,1629629,202692,203095,203944,0022100912,2,1161,1170,2,0,1610612755
92,1610612755,1627777,1629003,1629680,1630178,203954,1610612752,1629011,1629629,202692,203095,203944,0022100912,2,1195,1195,0,2,1610612752
93,1610612755,1627777,1629003,1629680,1630178,203954,1610612752,1629011,1629629,202692,203095,203944,0022100912,2,1214,1216,0,0,1610612755
94,1610612755,1627777,1629003,1629680,1630178,203954,1610612752,1629011,1629629,202692,203095,203944,0022100912,2,1234,1234,0,3,1610612752
95,1610612755,1627777,1629003,1629680,1630178,203954,1610612752,1629011,1629629,202692,203095,203944,0022100912,2,1258,1258,2,0,1610612755
96,1610612755,1629680,1630178,201935,202699,203954,1610612752,1629011,1629628,202692,203095,203944,0022100912,2,1269,1269,0,2,1610612752
97,1610612755,1629680,1630178,201935,202699,203954,1610612752,1629011,1629628,202692,203095,203944,0022100912,2,1291,1291,2,0,1610612755
98,1610612755,1629680,1630178,201935,202699,203954,1610612752,1629628,1630579,202692,203095,203944,0022100912,2,1308,1310,0,0,1610612752
99,1610612755,1629680,1630178,201935,202699,203954,1610612752,1629628,1630579,202692,203095,203944,0022100912,2,1314,1314,2,0,1610612755
100,1610612755,1629680,1630178,201935,202699,203954,1610612752,1629011,1629628,202692,203095,203944,0022100912,2,1330,1332,0,0,1610612752
101,1610612755,1629680,1630178,201935,202699,203954,1610612752,1629011,1629628,202692,203095,203944,0022100912,2,1340,1342,2,0,1610612755
102,1610612755,1629680,1630178,201935,202699,203954,1610612752,1629628,1629629,202692,203095,203944,0022100912,2,1356,1358,0,0,1610612752
103,1610612755,1629680,1630178,201935,202699,203954,1610612752,1629628,1629629,202692,203095,203944,0022100912,2,1367,1369,0,0,1610612755
104,1610612755,1629680,1630178,201935,202699,203954,1610612752,1629628,1629629,202692,203095,203944,0022100912,2,1380,1380,0,2,1610612752
105,1610612755,1629680,1630178,201935,202699,203954,1610612752,1629628,1629629,202692,203095,203944,0022100912,2,1393,1395,0,0,1610612755
106,1610612755,1629680,1630178,201935,202699,203954,1610612752,1629628,1629629,202692,203095,203944,0022100912,2,1398,1400,0,0,1610612752
107,1610612755,1629680,1630178,201935,202699,203954,1610612752,1629628,1629629,202692,203095,203944,0022100912,2,1411,1411,2,0,1610612755
108,1610612755,1629680,1630178,201935,202699,203954,1610612752,1629628,1629629,202692,203095,203944,0022100912,2,1431,1431,0,3,1610612752
109,1610612755,202699,1629680,203954,201935,1630178,1610612752,1629628,203944,1629011,202692,203095,0022100912,3,1440,1464,0,0,1610612755
110,1610612755,202699,1629680,203954,201935,1630178,1610612752,1629628,203944,1629011,202692,203095,0022100912,3,1470,1472,0,0,1610612752
111,1610612755,202699,1629680,203954,201935,1630178,1610612752,1629628,203944,1629011,202692,203095,0022100912,3,1479,1479,0,0,1610612755
112,1610612755,202699,1629680,203954,201935,1630178,1610612752,1629628,203944,1629011,202692,203095,0022100912,3,1484,1484,0,0,1610612752
113,1610612755,202699,1629680,203954,201935,1630178,1610612752,1629628,203944,1629011,202692,203095,0022100912,3,1495,1497,0,0,1610612755
114,1610612755,202699,1629680,203954,201935,1630178,1610612752,1629628,203944,1629011,202692,203095,0022100912,3,1511,1521,0,2,1610612752
115,1610612755,202699,1629680,203954,201935,1630178,1610612752,1629628,203944,1629011,202692,203095,0022100912,3,1530,1530,2,0,1610612755
116,1610612755,202699,1629680,203954,201935,1630178,1610612752,1629628,203944,1629011,202692,203095,0022100912,3,1548,1550,0,0,1610612752
117,1610612755,202699,1629680,203954,201935,1630178,1610612752,1629628,203944,1629011,202692,203095,0022100912,3,1556,1558,0,0,1610612755
118,1610612755,202699,1629680,203954,201935,1630178,1610612752,1629628,203944,1629011,202692,203095,0022100912,3,1563,1570,0,3,1610612752
119,1610612755,202699,1629680,203954,201935,1630178,1610612752,1629628,203944,1629011,202692,203095,0022100912,3,1586,1586,2,0,1610612755
120,1610612755,202699,1629680,203954,201935,1630178,1610612752,1629628,203944,1629011,202692,203095,0022100912,3,1604,1604,0,3,1610612752
121,1610612755,202699,1629680,203954,201935,1630178,1610612752,1629628,203944,1629011,202692,203095,0022100912,3,1620,1620,2,0,1610612755
122,1610612755,202699,1629680,203954,201935,1630178,1610612752,1629628,203944,1629011,202692,203095,0022100912,3,1637,1639,0,0,1610612752
123,1610612755,202699,1629680,203954,201935,1630178,1610612752,1629628,203944,1629011,202692,203095,0022100912,3,1646,1654,2,0,1610612755
124,1610612755,202699,1629680,203954,201935,1630178,1610612752,1629628,1630579,202692,203095,203944,0022100912,3,1667,1667,0,0,1610612752
125,1610612755,202699,1629680,203954,201935,1630178,1610612752,1629628,1630579,202692,203095,203944,0022100912,3,1671,1671,2,0,1610612755
126,1610612755,202699,1629680,203954,201935,1630178,1610612752,1629628,1630579,202692,203095,203944,0022100912,3,1672,1687,0,3,1610612752
127,1610612755,202699,1629680,203954,201935,1630178,1610612752,1629628,1630579,202692,203095,203944,0022100912,3,1711,1711,2,0,1610612755
128,1610612755,202699,1629680,203954,201935,1630178,1610612752,1629628,1630579,202692,203095,203944,0022100912,3,1718,1719,0,2,1610612752
129,1610612755,202699,1629680,203954,201935,1630178,1610612752,1629628,1630579,202692,203095,203944,0022100912,3,1731,1731,2,0,1610612755
130,1610612755,202699,1629680,203954,201935,1630178,1610612752,1629628,1630579,202692,203095,203944,0022100912,3,1739,1743,0,0,1610612752
131,1610612755,202699,1629680,203954,201935,1630178,1610612752,1629628,1630579,202692,203095,203944,0022100912,3,1749,1751,0,0,1610612755
132,1610612755,202699,1629680,203954,201935,1630178,1610612752,1629628,1630579,202692,203095,203944,0022100912,3,1757,1757,0,2,1610612752
133,1610612755,202699,1629680,203954,201935,1630178,1610612752,1629628,1630579,202692,203095,203944,0022100912,3,1771,1771,2,0,1610612755
134,1610612755,202699,1629680,203954,201935,1630178,1610612752,1629628,1630579,202692,203095,203944,0022100912,3,1791,1793,0,0,1610612752
135,1610612755,202699,1629680,203954,201935,1630178,1610612752,1629628,1630579,202692,203095,203944,0022100912,3,1800,1800,0,0,1610612755
136,1610612755,202699,1629680,203954,201935,1630178,1610612752,1629628,1630579,202692,203095,203944,0022100912,3,1805,1805,0,2,1610612752
137,1610612755,202699,1629680,203954,201935,1630178,1610612752,1629628,1630579,202692,203095,203944,0022100912,3,1832,1834,0,0,1610612755
138,1610612755,202699,1629680,203954,201935,1630178,1610612752,1629628,1630579,202692,203095,203944,0022100912,3,1836,1839,0,1,1610612752
139,1610612755,1627777,1627788,1629680,1630178,203954,1610612752,1630193,1630579,202692,203095,203944,0022100912,3,1852,1854,0,0,1610612755
140,1610612755,1627777,1627788,1629680,1630178,203954,1610612752,1630193,1630579,202692,203095,203944,0022100912,3,1866,1866,0,0,1610612752
141,1610612755,1627777,1627788,1629680,1630178,203954,1610612752,1630193,1630579,202692,203095,203944,0022100912,3,1880,1882,0,0,1610612755
142,1610612755,1627777,1627788,1630178,201980,203954,1610612752,1630193,1630579,202692,203095,203944,0022100912,3,1900,1904,0,2,1610612752
143,1610612755,1627777,1627788,1630178,201980,203954,1610612752,1630193,1630579,202692,203095,203944,0022100912,3,1920,1920,2,0,1610612755
144,1610612755,1627777,1627788,1630178,201980,203954,1610612752,1630193,1630579,202692,203095,203944,0022100912,3,1929,1931,0,2,1610612752
145,1610612755,1627777,1627788,1630178,201980,203954,1610612752,1630193,1630579,202692,203095,203944,0022100912,3,1938,1938,2,0,1610612755
146,1610612755,1627777,1627788,1630178,201980,203954,1610612752,1630193,1630579,202692,203095,203944,0022100912,3,1963,1963,0,3,1610612752
147,1610612755,1627777,1627788,1630178,201980,203954,1610612752,1630193,1630579,202692,203095,203944,0022100912,3,1972,1972,2,0,1610612755
148,1610612755,1627777,1627788,1630178,201980,203954,1610612752,1629011,1630193,202692,203095,203944,0022100912,3,1993,1993,0,0,1610612752
149,1610612755,1627777,1627788,1630178,201980,203954,1610612752,1629011,1630193,202692,203095,203944,0022100912,3,2005,2005,1,0,1610612755
150,1610612755,1627777,1627788,201935,201980,203954,1610612752,1630167,1630193,202692,203095,203944,0022100912,3,2026,2034,0,1,1610612752
151,1610612755,1627777,1627788,200794,201935,201980,1610612752,1629628,1630167,1630193,203095,203944,0022100912,3,2053,2072,0,0,1610612755
152,1610612755,1627777,1627788,200794,201935,201980,1610612752,1629628,1630167,1630193,203095,203944,0022100912,3,2081,2081,0,2,1610612752
153,1610612755,1627777,1627788,200794,201935,201980,1610612752,1629628,1630167,1630193,203095,203944,0022100912,3,2084,2084,0,0,1610612755
154,1610612755,1627777,1627788,200794,201935,201980,1610612752,1629628,1630167,1630193,203095,203944,0022100912,3,2092,2092,0,3,1610612752
155,1610612755,1627777,1627788,200794,201935,201980,1610612752,1629628,1630167,1630193,203095,203944,0022100912,3,2112,2113,0,0,1610612755
156,1610612755,1627777,1627788,200794,201935,201980,1610612752,1629628,1630167,1630193,203095,203944,0022100912,3,2116,2116,0,0,1610612752
157,1610612755,1627777,1627788,200794,201935,201980,1610612752,1629628,1630167,1630193,203095,203944,0022100912,3,2131,2131,2,0,1610612755
158,1610612755,1627777,1627788,200794,201935,201980,1610612752,1629628,1630167,1630193,203095,203944,0022100912,3,2151,2151,0,2,1610612752
159,1610612755,1627777,1627788,201935,201980,202699,1610612752,1629628,1629629,1630167,1630193,1630579,0022100912,3,2156,2156,0,0,1610612755
160,1610612755,1627777,1627788,201935,201980,202699,1610612752,1629628,1629629,1630167,1630193,203944,0022100912,3,2158,2158,0,0,1610612752
161,1610612755,1627777,1627788,201935,201980,202699,1610612752,1629628,1629629,1630167,1630193,203944,0022100912,3,2158,2160,1,0,1610612752
162,1610612755,202699,201935,1627777,201980,200794,1610612752,1629628,1630579,1630193,1630167,1629629,0022100912,4,2160,2174,0,2,1610612752
163,1610612755,202699,201935,1627777,201980,200794,1610612752,1629628,1630579,1630193,1630167,1629629,0022100912,4,2195,2195,2,0,1610612755
164,1610612755,202699,201935,1627777,201980,200794,1610612752,1629628,1630579,1630193,1630167,1629629,0022100912,4,2211,2211,0,3,1610612752
165,1610612755,202699,201935,1627777,201980,200794,1610612752,1629628,1630579,1630193,1630167,1629629,0022100912,4,2230,2232,0,0,1610612755
166,1610612755,202699,201935,1627777,201980,200794,1610612752,1629628,1630579,1630193,1630167,1629629,0022100912,4,2237,2237,0,2,1610612752
167,1610612755,202699,201935,1627777,201980,200794,1610612752,1629628,1630579,1630193,1630167,1629629,0022100912,4,2254,2256,0,0,1610612755
168,1610612755,202699,201935,1627777,201980,200794,1610612752,1629628,1630579,1630193,1630167,1629629,0022100912,4,2259,2261,0,0,1610612752
169,1610612755,202699,201935,1627777,201980,200794,1610612752,1629628,1630579,1630193,1630167,1629629,0022100912,4,2269,2269,2,0,1610612755
170,1610612755,202699,201935,1627777,201980,200794,1610612752,1629628,1630579,1630193,1630167,1629629,0022100912,4,2275,2275,0,2,1610612752
171,1610612755,202699,201935,1627777,201980,200794,1610612752,1629628,1630579,1630193,1630167,1629629,0022100912,4,2289,2295,3,0,1610612755
172,1610612755,202699,201935,1627777,201980,200794,1610612752,1629628,1630579,1630193,1630167,1629629,0022100912,4,2302,2317,0,0,1610612752
173,1610612755,1627777,1630178,200794,201935,202699,1610612752,1629628,1630579,1630193,1630167,1629629,0022100912,4,2326,2326,2,0,1610612755
174,1610612755,1627777,1630178,200794,201935,202699,1610612752,1629011,1629628,1629629,1630167,1630193,0022100912,4,2339,2339,0,2,1610612752
175,1610612755,1627777,1630178,200794,201935,202699,1610612752,1629011,1629628,1629629,1630167,1630193,0022100912,4,2348,2348,2,0,1610612755
176,1610612755,1627777,1630178,200794,201935,202699,1610612752,1629628,1629629,1630167,1630193,203944,0022100912,4,2360,2370,0,0,1610612752
177,1610612755,1627777,1630178,200794,201935,202699,1610612752,1629628,1629629,1630167,1630193,203944,0022100912,4,2372,2372,2,0,1610612755
178,1610612755,1627777,1630178,201935,202699,203954,1610612752,1629628,1629629,1630167,1630193,203944,0022100912,4,2392,2392,0,3,1610612752
179,1610612755,1627777,1630178,201935,202699,203954,1610612752,1629628,1629629,1630167,1630193,203944,0022100912,4,2411,2413,0,0,1610612755
180,1610612755,1627777,1630178,201935,202699,203954,1610612752,1629628,1629629,1630167,1630193,203944,0022100912,4,2428,2430,0,0,1610612752
181,1610612755,1627777,1630178,201935,202699,203954,1610612752,1629628,1629629,1630167,1630193,203944,0022100912,4,2435,2435,2,0,1610612755
182,1610612755,1629680,1630178,201935,202699,203954,1610612752,1629628,1629629,1630167,1630193,203944,0022100912,4,2452,2459,0,2,1610612752
183,1610612755,1629680,1630178,201935,202699,203954,1610612752,1629628,1629629,1630167,1630193,203944,0022100912,4,2472,2474,0,0,1610612755
184,1610612755,1629680,1630178,201935,202699,203954,1610612752,1629628,1629629,1630167,1630193,203944,0022100912,4,2493,2495,0,0,1610612752
185,1610612755,1629680,1630178,201935,202699,203954,1610612752,1629628,1629629,1630167,1630193,203944,0022100912,4,2504,2504,2,0,1610612755
186,1610612755,1629680,1630178,201935,202699,203954,1610612752,1629628,1630167,1630193,202692,203944,0022100912,4,2528,2530,0,0,1610612752
187,1610612755,1629680,1630178,201935,202699,203954,1610612752,1629628,1630167,1630193,202692,203944,0022100912,4,2537,2537,2,0,1610612755
188,1610612755,1629680,1630178,201935,202699,203954,1610612752,1629628,1630167,1630193,202692,203944,0022100912,4,2549,2549,0,0,1610612752
189,1610612755,1629680,1630178,201935,202699,203954,1610612752,1629628,1630167,1630193,202692,203944,0022100912,4,2549,2566,0,0,1610612755
190,1610612755,1629680,1630178,201935,202699,203954,1610612752,1629628,1630193,202692,203095,203944,0022100912,4,2575,2576,0,0,1610612752
191,1610612755,1629680,1630178,201935,202699,203954,1610612752,1629628,1630193,202692,203095,203944,0022100912,4,2585,2585,2,0,1610612755
192,1610612755,1629680,1630178,201935,202699,203954,1610612752,1629628,1630193,202692,203095,203944,0022100912,4,2599,2599,0,2,1610612752
193,1610612755,1629680,1630178,201935,202699,203954,1610612752,1629628,1630193,202692,203095,203944,0022100912,4,2624,2638,3,0,1610612755
194,1610612755,1629680,1630178,201935,202699,203954,1610612752,1629628,1630193,202692,203095,203944,0022100912,4,2659,2661,0,0,1610612752
195,1610612755,1629680,1630178,201935,202699,203954,1610612752,1629628,1630193,202692,203095,203944,0022100912,4,2665,2688,0,0,1610612755
196,1610612755,1629680,1630178,201935,202699,203954,1610612752,1629628,1630193,202692,203095,203944,0022100912,4,2698,2713,0,0,1610612752
197,1610612755,1629680,1630178,201935,202699,203954,1610612752,1629628,1630193,202692,203095,203944,0022100912,4,2737,2737,3,0,1610612755
198,1610612755,1629680,1630178,201935,202699,203954,1610612752,1629628,1630193,202692,203095,203944,0022100912,4,2747,2756,0,0,1610612752
199,1610612755,1629680,1630178,201935,202699,203954,1610612752,1629628,1630193,202692,203095,203944,0022100912,4,2767,2767,2,0,1610612755
200,1610612755,1629680,1630178,201935,202699,203954,1610612752,1629628,1630193,202692,203095,203944,0022100912,4,2774,2774,0,2,1610612752
201,1610612755,1629680,1630178,201935,202699,203954,1610612752,1629628,1630193,202692,203095,203944,0022100912,4,2791,2791,2,0,1610612755
202,1610612755,1629680,1630178,201935,202699,203954,1610612752,1629628,1630193,202692,203095,203944,0022100912,4,2791,2802,0,0,1610612752
203,1610612755,1629680,1630178,201935,202699,203954,1610612752,1629628,1630193,202692,203095,203944,0022100912,4,2820,2823,0,0,1610612755
204,1610612755,1629680,1630178,201935,202699,203954,1610612752,1629628,1630193,202692,203095,203944,0022100912,4,2829,2831,0,0,1610612752
205,1610612755,1629680,1630178,201935,202699,203954,1610612752,1629628,1630193,202692,203095,203944,0022100912,4,2850,2850,3,0,1610612755
206,1610612755,1629680,1630178,201935,202699,203954,1610612752,1629628,1630193,202692,203095,203944,0022100912,4,2863,2865,0,0,1610612752
