,TEAM_ID_1,TEAM_1_PLAYERS,TEAM_ID_2,TEAM_2_PLAYERS,PERIOD
0,1610612739,[1626224  201567 1627790  202688 1629012],1610612742,[1627827    1717  203939  203501 1628973],1
1,1610612739,[ 202688  203903 1627737 1628021  203917],1610612742,[1627827 1628467 1628382    2734  203504],2
2,1610612739,[1626224  201567 1627790  202688 1629012],1610612742,[1627827    1717  203939  203501 1628973],3
3,1610612739,[ 202688  203903 1627737 1628021  203917],1610612742,[1627827 1628467 1628382    2734  203504],4
