,t1_points_scored,stint_end,t2_pm,t1_players,t2_id,t1_id,t2_players,t2_points_scored,t1_pm,stint_start,margin_per_100,num_poss
0,7,303,4,"[202699, 201143, 203954, 1626196, 1627732]",1610612748,1610612755,"[202710, 1628389, 203086, 1629130, 1629134]",11,-4,0,-22.22222222222222,18.0
1,9,351,7,"[202699, 201143, 203954, 1626196, 1627732]",1610612748,1610612755,"[202710, 1628389, 203086, 1629130, 1629134]",16,-7,304,-33.33333333333333,21.0
2,11,424,7,"[1627732, 1627788, 201143, 202699, 203516]",1610612748,1610612755,"[202710, 1628389, 203086, 1629130, 1629134]",18,-7,352,-28.000000000000004,25.0
3,16,509,6,"[1627732, 1627788, 201143, 202699, 203516]",1610612748,1610612755,"[1627884, 1629134, 1629639, 202710, 203086]",22,-6,425,-19.35483870967742,31.0
4,16,523,8,"[1627732, 1627788, 201143, 202699, 203516]",1610612748,1610612755,"[1627884, 1629639, 201609, 202710, 203086]",24,-8,510,-24.242424242424242,33.0
5,22,569,2,"[1627732, 1627788, 201143, 203118, 203516]",1610612748,1610612755,"[1627884, 1629639, 201609, 202710, 203086]",24,-2,524,-5.555555555555555,36.0
6,22,581,2,"[1626196, 1627732, 1627788, 203118, 203954]",1610612748,1610612755,"[1627884, 1629639, 201609, 202710, 203482]",24,-2,570,-5.405405405405405,37.0
7,33,719,-5,"[1626196, 1627732, 1627788, 203118, 203954]",1610612748,1610612755,"[1627884, 1628389, 1629639, 201609, 203482]",28,5,582,10.869565217391305,46.0
8,39,917,-4,"[1626196, 1627788, 203118, 203504, 203954]",1610612748,1610612755,"[1627884, 1628389, 1629639, 201609, 203482]",35,4,720,7.017543859649122,57.0
9,43,931,-8,"[202699, 203954, 1626196, 203118, 203504]",1610612748,1610612755,"[1628389, 1627884, 1629639, 201609, 203482]",35,8,918,13.793103448275861,58.0
10,43,995,-6,"[1626196, 1627732, 201143, 202699, 203516]",1610612748,1610612755,"[1627884, 1628389, 1629639, 201609, 203086]",37,6,932,9.523809523809524,63.0
11,45,1049,-8,"[1626196, 1627732, 201143, 202699, 203516]",1610612748,1610612755,"[1627884, 1629639, 201609, 202710, 203086]",37,8,996,12.121212121212121,66.0
12,49,1221,-6,"[1627732, 1627788, 201143, 202699, 203516]",1610612748,1610612755,"[1627884, 1629639, 201609, 202710, 203086]",43,6,1050,7.6923076923076925,78.0
13,49,1255,-3,"[1627732, 1627788, 201143, 202699, 203516]",1610612748,1610612755,"[1627884, 1629130, 201609, 202710, 203086]",46,3,1222,3.75,80.0
14,56,1409,-4,"[1626196, 1627732, 1627788, 203118, 203954]",1610612748,1610612755,"[1627884, 1629130, 1629134, 202710, 203086]",52,4,1256,4.49438202247191,89.0
15,58,1434,-6,"[1626196, 1627732, 1627788, 203118, 203954]",1610612748,1610612755,"[1628389, 1629130, 1629134, 202710, 203086]",52,6,1410,6.593406593406594,91.0
16,59,1439,-7,"[1626196, 1627732, 1627788, 203118, 203954]",1610612748,1610612755,"[1629134, 1629639, 201609, 202710, 203086]",52,7,1435,7.608695652173914,92.0
17,65,1740,3,"[1626196, 1627732, 1627788, 202699, 203118]",1610612748,1610612755,"[1629134, 1629639, 201609, 202710, 203086]",68,-3,1440,-2.6785714285714284,112.0
18,67,1843,5,"[202699, 201143, 203954, 1626196, 1627732]",1610612748,1610612755,"[202710, 1628389, 203086, 1629130, 1629134]",72,-5,1741,-4.201680672268908,119.0
19,69,1881,5,"[1627732, 1627788, 201143, 202699, 203516]",1610612748,1610612755,"[202710, 1628389, 203086, 1629130, 1629134]",74,-5,1844,-4.098360655737705,122.0
20,72,1921,6,"[1627732, 1627788, 201143, 202699, 203516]",1610612748,1610612755,"[1627884, 1629134, 1629639, 202710, 203086]",78,-6,1882,-4.8,125.0
21,73,1939,5,"[1627732, 1627788, 201143, 202699, 203516]",1610612748,1610612755,"[1627884, 1629639, 201609, 202710, 203086]",78,-5,1922,-3.968253968253968,126.0
22,73,2018,7,"[1627732, 1627788, 201143, 203118, 203516]",1610612748,1610612755,"[1627884, 1629639, 201609, 202710, 203086]",80,-7,1940,-5.343511450381679,131.0
23,75,2079,8,"[1626196, 1627732, 1627788, 203118, 203954]",1610612748,1610612755,"[1627884, 1629639, 201609, 202710, 203086]",83,-8,2019,-5.88235294117647,136.0
24,79,2159,6,"[1626196, 1627732, 203118, 203516, 203954]",1610612748,1610612755,"[1627884, 1629639, 201609, 202710, 203086]",85,-6,2080,-4.195804195804196,143.0
25,88,2381,2,"[1626196, 1627732, 203118, 203516, 203954]",1610612748,1610612755,"[1627884, 1628389, 1629639, 201609, 203086]",90,-2,2160,-1.282051282051282,156.0
26,90,2503,6,"[203954, 1626196, 203516, 203118, 203504]",1610612748,1610612755,"[1628389, 1629134, 1627884, 1629639, 201609]",96,-6,2382,-3.6809815950920246,163.0
27,96,2658,2,"[1627732, 201143, 203118, 203504, 203516]",1610612748,1610612755,"[1627884, 1628389, 1629639, 201609, 202710]",98,-2,2504,-1.1695906432748537,171.0
28,106,2873,-2,"[1626196, 1627732, 201143, 202699, 203504]",1610612748,1610612755,"[1627884, 1628389, 1629639, 201609, 202710]",104,2,2659,1.0869565217391304,184.0
29,106,2879,2,"[1626196, 1627732, 202699, 203504, 203954]",1610612748,1610612755,"[1627884, 1628389, 1629639, 201609, 202710]",108,-2,2874,-1.06951871657754,187.0
30,114,3154,2,"[1626196, 1627732, 201143, 202699, 203954]",1610612748,1610612755,"[1627884, 1628389, 201609, 202710, 203086]",116,-2,2880,-0.9852216748768473,203.0
31,114,3161,2,"[202699, 203954, 1626196, 1627732, 203504]",1610612748,1610612755,"[202710, 1628389, 1627884, 1629639, 201609]",116,-2,3155,-0.9852216748768473,203.0
32,116,3177,0,"[202699, 203954, 1626196, 1627732, 203504]",1610612748,1610612755,"[1627884, 1628389, 201609, 202710, 203086]",116,0,3162,0.0,204.0
33,116,9999999,1,"[1626196, 1627732, 201143, 202699, 203954]",1610612748,1610612755,"[1627884, 1628389, 1629639, 201609, 202710]",117,-1,3178,-0.48543689320388345,206.0
