,team1_id,team1_player1,team1_player2,team1_player3,team1_player4,team1_player5,team2_id,team2_player1,team2_player2,team2_player3,team2_player4,team2_player5,game_id,period,possession_start,possession_end,team1_points,team2_points,possession_team
0,1610612758,1629002,203090,1626158,1627741,1626153,1610612763,203937,1628991,202685,1628415,1629630,0022000255,1,0,19,0,2,1610612763
1,1610612758,1629002,203090,1626158,1627741,1626153,1610612763,203937,1628991,202685,1628415,1629630,0022000255,1,35,38,0,0,1610612758
2,1610612758,1629002,203090,1626158,1627741,1626153,1610612763,203937,1628991,202685,1628415,1629630,0022000255,1,44,47,0,0,1610612763
3,1610612758,1629002,203090,1626158,1627741,1626153,1610612763,203937,1628991,202685,1628415,1629630,0022000255,1,57,61,3,0,1610612758
4,1610612758,1629002,203090,1626158,1627741,1626153,1610612763,203937,1628991,202685,1628415,1629630,0022000255,1,78,82,0,0,1610612763
5,1610612758,1629002,203090,1626158,1627741,1626153,1610612763,203937,1628991,202685,1628415,1629630,0022000255,1,88,88,3,0,1610612758
6,1610612758,1629002,203090,1626158,1627741,1626153,1610612763,203937,1628991,202685,1628415,1629630,0022000255,1,102,102,0,2,1610612763
7,1610612758,1629002,203090,1626158,1627741,1626153,1610612763,203937,1628991,202685,1628415,1629630,0022000255,1,117,127,2,0,1610612758
8,1610612758,1629002,203090,1626158,1627741,1626153,1610612763,203937,1628991,202685,1628415,1629630,0022000255,1,141,141,0,3,1610612763
9,1610612758,1629002,203090,1626158,1627741,1626153,1610612763,203937,1628991,202685,1628415,1629630,0022000255,1,156,162,0,0,1610612758
10,1610612758,1629002,203090,1626158,1627741,1626153,1610612763,203937,1628991,202685,1628415,1629630,0022000255,1,168,182,0,2,1610612763
11,1610612758,1629002,203090,1626158,1627741,1626153,1610612763,203937,1628991,202685,1628415,1629630,0022000255,1,191,195,0,0,1610612758
12,1610612758,1629002,203090,1626158,1627741,1626153,1610612763,203937,1628991,202685,1628415,1629630,0022000255,1,212,212,0,0,1610612763
13,1610612758,1629002,203090,1626158,1627741,1626153,1610612763,203937,1628991,202685,1628415,1629630,0022000255,1,215,215,2,0,1610612758
14,1610612758,1629002,203090,1626158,1627741,1626153,1610612763,203937,1628991,202685,1628415,1629630,0022000255,1,230,230,0,2,1610612763
15,1610612758,1629002,203090,1626158,1627741,1626153,1610612763,203937,1628991,202685,1628415,1629630,0022000255,1,251,254,0,0,1610612758
16,1610612758,1629002,203090,1626158,1627741,1626153,1610612763,203937,1628991,202685,1628415,1629630,0022000255,1,274,274,0,2,1610612763
17,1610612758,1629002,203090,1626158,1627741,1626153,1610612763,203937,1628991,202685,1628415,1629630,0022000255,1,294,297,0,0,1610612758
18,1610612758,1629002,203090,1626158,1627741,1626153,1610612763,203937,1628991,202685,1628415,1629630,0022000255,1,297,297,0,1,1610612763
19,1610612758,1629002,203090,1626158,1627741,1626153,1610612763,203937,1628991,202685,1628415,1629630,0022000255,1,310,310,0,0,1610612758
20,1610612758,1629002,203090,1626158,1627741,1626153,1610612763,203937,1628991,202685,1628415,1629630,0022000255,1,310,334,0,0,1610612763
21,1610612758,1629002,203090,1626158,1627741,1626153,1610612763,1628415,1629630,1630217,202685,203937,0022000255,1,337,337,3,0,1610612758
22,1610612758,1629002,203090,1626158,1627741,1626153,1610612763,1628415,1629630,1630217,202685,203937,0022000255,1,354,354,0,2,1610612763
23,1610612758,1629002,203090,1626158,1627741,1626153,1610612763,1628415,1629630,1630217,202685,203937,0022000255,1,370,370,0,0,1610612758
24,1610612758,1629002,203090,1626158,1627741,1626153,1610612763,1628415,1629630,1630217,202685,203937,0022000255,1,382,384,0,0,1610612763
25,1610612758,1629002,203090,1626158,1627741,1626153,1610612763,1628415,1629630,1630217,202685,203937,0022000255,1,390,390,3,0,1610612758
26,1610612758,1629002,203090,1626158,1627741,1626153,1610612763,1628415,1629630,1630217,202685,203937,0022000255,1,400,407,0,3,1610612763
27,1610612758,1626153,1626158,1627741,1629056,203090,1610612763,1628415,1629630,1630217,202685,203937,0022000255,1,418,423,2,0,1610612758
28,1610612758,1626153,1626158,1627741,1629056,203090,1610612763,1628415,1629630,1630217,202685,203937,0022000255,1,429,430,0,2,1610612763
29,1610612758,1626153,1626158,1627741,1629056,203090,1610612763,1629001,1629630,1630217,202685,203937,0022000255,1,446,446,2,0,1610612758
30,1610612758,1626153,1626158,1627741,1629056,203090,1610612763,1629001,1629630,1630217,202685,203937,0022000255,1,458,471,0,3,1610612763
31,1610612758,1626153,1627741,1627745,1629056,203090,1610612763,1629001,1629630,1630217,202685,203937,0022000255,1,490,495,3,0,1610612758
32,1610612758,1626153,1627741,1627745,1629056,203090,1610612763,1629001,1629630,1630217,202685,203937,0022000255,1,505,507,0,0,1610612763
33,1610612758,1626153,1627741,1627745,1629002,1629056,1610612763,1629001,1629630,1629634,1630217,202685,0022000255,1,523,534,0,0,1610612758
34,1610612758,1626153,1627741,1627745,1629002,1629056,1610612763,1629001,1629630,1629634,1630217,202685,0022000255,1,537,537,0,2,1610612763
35,1610612758,1626153,1627741,1627745,1629002,1629056,1610612763,1629001,1629630,1629634,1630217,202685,0022000255,1,543,554,0,0,1610612758
36,1610612758,1626153,1627745,1629002,1629056,1629713,1610612763,1628991,1629001,1629630,1629634,1630217,0022000255,1,558,558,0,3,1610612763
37,1610612758,1626153,1627745,1629002,1629056,1629713,1610612763,1628991,1629001,1629630,1629634,1630217,0022000255,1,578,578,3,0,1610612758
38,1610612758,1626153,1627745,1629002,1629056,1629713,1610612763,1628991,1629001,1629630,1629634,1630217,0022000255,1,593,593,0,2,1610612763
39,1610612758,1626153,1627745,1629002,1629056,1629713,1610612763,1628991,1629001,1629630,1629634,1630217,0022000255,1,606,608,0,0,1610612758
40,1610612758,1626153,1627745,1629002,1629056,1629713,1610612763,1628991,1629001,1629630,1629634,1630217,0022000255,1,614,620,0,2,1610612763
41,1610612758,1626153,1627745,1629002,1629056,1629713,1610612763,1628991,1629001,1629630,1629634,1630217,0022000255,1,631,633,3,0,1610612758
42,1610612758,1626153,1627745,1629002,1629056,1629713,1610612763,1628991,1629001,1629630,1629634,1630217,0022000255,1,661,664,0,0,1610612763
43,1610612758,1626153,1627745,1629002,1629056,1629713,1610612763,1628991,1629001,1629630,1629634,1630217,0022000255,1,668,668,3,0,1610612758
44,1610612758,1626153,1627745,1629002,1629056,1629713,1610612763,1628991,1629001,1629630,1629634,1630217,0022000255,1,687,687,0,2,1610612763
45,1610612758,1626153,1627745,1629002,1629056,1629713,1610612763,1628991,1629001,1629630,1629634,1630217,0022000255,1,693,703,0,0,1610612758
46,1610612758,1626153,1627745,1629002,1629056,1629713,1610612763,1628991,1629001,1629630,1629634,1630217,0022000255,1,703,703,0,1,1610612763
47,1610612758,1626153,1627741,1629002,1629056,1629713,1610612763,1629001,1629630,1629634,1630214,1630217,0022000255,1,717,717,0,0,1610612758
48,1610612758,1626153,1627741,1629002,1629056,1629713,1610612763,1629001,1629630,1629634,1630214,1630217,0022000255,1,720,720,0,0,1610612758
49,1610612758,203090,1627741,1629056,1627745,1629713,1610612763,1628991,1628415,1629634,1626145,1629723,0022000255,2,720,741,2,0,1610612758
50,1610612758,203090,1627741,1629056,1627745,1629713,1610612763,1626145,1628415,1629634,1629723,1630214,0022000255,2,756,770,0,0,1610612763
51,1610612758,203090,1627741,1629056,1627745,1629713,1610612763,1626145,1628415,1629634,1629723,1630214,0022000255,2,772,775,3,0,1610612758
52,1610612758,203090,1627741,1629056,1627745,1629713,1610612763,1626145,1628415,1629634,1629723,1630214,0022000255,2,788,788,0,2,1610612763
53,1610612758,203090,1627741,1629056,1627745,1629713,1610612763,1626145,1628415,1629634,1629723,1630214,0022000255,2,800,800,2,0,1610612758
54,1610612758,203090,1627741,1629056,1627745,1629713,1610612763,1626145,1628415,1629634,1629723,1630214,0022000255,2,817,817,0,0,1610612763
55,1610612758,203090,1627741,1629056,1627745,1629713,1610612763,1626145,1628415,1629634,1629723,1630214,0022000255,2,836,836,2,0,1610612758
56,1610612758,203090,1627741,1629056,1627745,1629713,1610612763,1626145,1628415,1629634,1629723,1630214,0022000255,2,850,853,0,0,1610612763
57,1610612758,203090,1627741,1629056,1627745,1629713,1610612763,1626145,1628415,1629634,1629723,1630214,0022000255,2,864,864,0,0,1610612758
58,1610612758,203090,1627741,1629056,1627745,1629713,1610612763,1626145,1628415,1629634,1629723,1630214,0022000255,2,867,867,0,0,1610612763
59,1610612758,203090,1627741,1629056,1627745,1629713,1610612763,1626145,1628415,1629634,1629723,1630214,0022000255,2,871,871,2,0,1610612758
60,1610612758,203090,1627741,1629056,1627745,1629713,1610612763,1626145,1628415,1629634,1629723,1630214,0022000255,2,871,883,0,0,1610612763
61,1610612758,203090,1627741,1629056,1627745,1629713,1610612763,1626145,1628415,1629634,1629723,1630214,0022000255,2,887,891,0,0,1610612758
62,1610612758,203090,1627741,1629056,1627745,1629713,1610612763,1626145,1628415,1629634,1629723,1630214,0022000255,2,893,893,0,3,1610612763
63,1610612758,203090,1627741,1629056,1627745,1629713,1610612763,1626145,1628415,1629634,1629723,1630214,0022000255,2,911,911,2,0,1610612758
64,1610612758,203090,1627741,1629056,1627745,1629713,1610612763,1626145,1628415,1629634,1629723,1630214,0022000255,2,927,930,0,0,1610612763
65,1610612758,203090,1627741,1629056,1627745,1629713,1610612763,1626145,1628415,1629634,1629723,1630214,0022000255,2,937,941,0,0,1610612758
66,1610612758,203090,1627741,1629056,1627745,1629713,1610612763,1626145,1628415,1629634,1629723,1630214,0022000255,2,954,954,0,0,1610612763
67,1610612758,1626158,1627741,1629002,1629056,1629713,1610612763,1626145,1628415,1629634,1629723,1630214,0022000255,2,971,974,0,0,1610612758
68,1610612758,1626158,1627741,1629002,1629056,1629713,1610612763,1626145,1628415,1629634,1629723,1630214,0022000255,2,983,991,0,2,1610612763
69,1610612758,1626158,1627741,1629002,1629056,1629713,1610612763,1626145,1628415,1629634,1629723,1630214,0022000255,2,999,1023,0,0,1610612758
70,1610612758,1626153,1626158,1629002,1629056,1629713,1610612763,1626145,1628415,1629634,1629723,1630214,0022000255,2,1033,1036,0,0,1610612763
71,1610612758,1626153,1626158,1629002,1629056,1629713,1610612763,1626145,1628415,1629634,1629723,1630214,0022000255,2,1039,1039,0,0,1610612758
72,1610612758,1626153,1626158,1629002,1629056,1629713,1610612763,1628415,1629630,1629634,1630217,202685,0022000255,2,1053,1059,0,0,1610612763
73,1610612758,1626153,1626158,1629002,1629713,203090,1610612763,1628415,1629630,1629634,1630217,202685,0022000255,2,1068,1068,2,0,1610612758
74,1610612758,1626153,1626158,1629002,1629713,203090,1610612763,1628415,1629630,1629634,1630217,202685,0022000255,2,1083,1083,0,2,1610612763
75,1610612758,1626153,1626158,1629002,1629713,203090,1610612763,1628415,1629630,1629634,1630217,202685,0022000255,2,1094,1097,0,0,1610612758
76,1610612758,1626153,1626158,1629002,1629713,203090,1610612763,1628415,1629630,1629634,1630217,202685,0022000255,2,1101,1101,0,3,1610612763
77,1610612758,1626153,1626158,1629002,1629713,203090,1610612763,1628415,1629630,1629634,1630217,202685,0022000255,2,1123,1123,2,0,1610612758
78,1610612758,1626153,1626158,1629002,1629713,203090,1610612763,1628415,1629630,1629634,1630217,202685,0022000255,2,1133,1145,0,0,1610612763
79,1610612758,1626153,1627745,1629002,1629713,203090,1610612763,1629001,1629630,1630217,202685,203937,0022000255,2,1156,1161,0,0,1610612758
80,1610612758,1626153,1627745,1629002,1629713,203090,1610612763,1629001,1629630,1630217,202685,203937,0022000255,2,1169,1169,0,0,1610612763
81,1610612758,1626153,1627745,1629002,1629713,203090,1610612763,1629001,1629630,1630217,202685,203937,0022000255,2,1188,1188,2,0,1610612758
82,1610612758,1626153,1627745,1629002,1629713,203090,1610612763,1629001,1629630,1630217,202685,203937,0022000255,2,1209,1209,0,2,1610612763
83,1610612758,1626153,1627745,1629002,1629713,203090,1610612763,1629001,1629630,1630217,202685,203937,0022000255,2,1220,1224,0,0,1610612758
84,1610612758,1626153,1627745,1629002,1629713,203090,1610612763,1629001,1629630,1630217,202685,203937,0022000255,2,1225,1225,0,0,1610612763
85,1610612758,1626153,1627745,1629002,1629713,203090,1610612763,1629001,1629630,1630217,202685,203937,0022000255,2,1233,1233,3,0,1610612758
86,1610612758,1626153,1627745,1629002,1629713,203090,1610612763,1629001,1629630,1630217,202685,203937,0022000255,2,1245,1245,0,2,1610612763
87,1610612758,1626153,1627745,1629002,1629713,203090,1610612763,1629001,1629630,1630217,202685,203937,0022000255,2,1258,1260,1,0,1610612758
88,1610612758,1626153,1627745,1629002,1629713,203090,1610612763,1629001,1629630,1630217,202685,203937,0022000255,2,1265,1266,0,0,1610612763
89,1610612758,1626153,1627745,1629002,1629713,203090,1610612763,1629001,1629630,1630217,202685,203937,0022000255,2,1282,1282,2,0,1610612758
90,1610612758,1626153,1627745,1629002,1629713,203090,1610612763,1629001,1629630,1630217,202685,203937,0022000255,2,1283,1304,0,2,1610612763
91,1610612758,1626153,1627745,1629002,1629713,203090,1610612763,1628415,1629630,1630217,202685,203937,0022000255,2,1330,1330,3,0,1610612758
92,1610612758,1626153,1627745,1629002,1629713,203090,1610612763,1628415,1629630,1630217,202685,203937,0022000255,2,1353,1353,0,2,1610612763
93,1610612758,1626153,1627745,1629002,1629713,203090,1610612763,1628415,1629630,1630217,202685,203937,0022000255,2,1364,1366,0,0,1610612758
94,1610612758,1626153,1627745,1629002,1629713,203090,1610612763,1628415,1629630,1630217,202685,203937,0022000255,2,1369,1369,0,0,1610612763
95,1610612758,1626153,1627745,1629002,1629713,203090,1610612763,1628415,1629630,1630217,202685,203937,0022000255,2,1369,1393,0,0,1610612758
96,1610612758,1626153,1627745,1629002,1629713,203090,1610612763,1628415,1629630,1630217,202685,203937,0022000255,2,1398,1398,0,3,1610612763
97,1610612758,1626153,1627745,1629002,1629713,203090,1610612763,1628415,1629630,1630217,202685,203937,0022000255,2,1410,1413,0,0,1610612758
98,1610612758,1626153,1627745,1629002,1629713,203090,1610612763,1628415,1629630,1630217,202685,203937,0022000255,2,1435,1440,0,0,1610612758
99,1610612758,1629002,203090,1627741,1626153,1627745,1610612763,203937,1628991,202685,1628415,1629630,0022000255,3,1440,1449,1,0,1610612758
100,1610612758,1629002,203090,1627741,1626153,1627745,1610612763,203937,1628991,202685,1628415,1629630,0022000255,3,1458,1463,0,2,1610612763
101,1610612758,1629002,203090,1627741,1626153,1627745,1610612763,203937,1628991,202685,1628415,1629630,0022000255,3,1471,1474,0,0,1610612758
102,1610612758,1629002,203090,1627741,1626153,1627745,1610612763,203937,1628991,202685,1628415,1629630,0022000255,3,1485,1485,0,0,1610612763
103,1610612758,1629002,203090,1627741,1626153,1627745,1610612763,203937,1628991,202685,1628415,1629630,0022000255,3,1497,1497,2,0,1610612758
104,1610612758,1629002,203090,1627741,1626153,1627745,1610612763,203937,1628991,202685,1628415,1629630,0022000255,3,1510,1510,0,3,1610612763
105,1610612758,1629002,203090,1627741,1626153,1627745,1610612763,203937,1628991,202685,1628415,1629630,0022000255,3,1522,1522,0,0,1610612758
106,1610612758,1629002,203090,1627741,1626153,1627745,1610612763,203937,1628991,202685,1628415,1629630,0022000255,3,1537,1544,0,2,1610612763
107,1610612758,1629002,203090,1627741,1626153,1627745,1610612763,203937,1628991,202685,1628415,1629630,0022000255,3,1571,1571,2,0,1610612758
108,1610612758,1629002,203090,1627741,1626153,1627745,1610612763,203937,1628991,202685,1628415,1629630,0022000255,3,1583,1590,0,0,1610612763
109,1610612758,1629002,203090,1627741,1626153,1627745,1610612763,203937,1628991,202685,1628415,1629630,0022000255,3,1593,1596,0,0,1610612758
110,1610612758,1629002,203090,1627741,1626153,1627745,1610612763,203937,1628991,202685,1628415,1629630,0022000255,3,1609,1614,0,0,1610612763
111,1610612758,1626153,1627741,1627745,1629056,203090,1610612763,203937,1628991,202685,1628415,1629630,0022000255,3,1626,1629,0,0,1610612758
112,1610612758,1626153,1627741,1627745,1629056,203090,1610612763,203937,1628991,202685,1628415,1629630,0022000255,3,1632,1632,0,2,1610612763
113,1610612758,1626153,1627741,1627745,1629056,203090,1610612763,203937,1628991,202685,1628415,1629630,0022000255,3,1649,1649,0,0,1610612758
114,1610612758,1626153,1627741,1627745,1629056,203090,1610612763,203937,1628991,202685,1628415,1629630,0022000255,3,1658,1664,0,2,1610612763
115,1610612758,1626153,1627741,1627745,1629056,203090,1610612763,203937,1628991,202685,1628415,1629630,0022000255,3,1664,1675,3,0,1610612758
116,1610612758,1626153,1627741,1627745,1629056,203090,1610612763,203937,1628991,202685,1628415,1629630,0022000255,3,1690,1693,0,0,1610612763
117,1610612758,1626153,1627741,1627745,1629056,203090,1610612763,203937,1628991,202685,1628415,1629630,0022000255,3,1698,1701,0,0,1610612758
118,1610612758,1626153,1627741,1627745,1629056,203090,1610612763,203937,1628991,202685,1628415,1629630,0022000255,3,1715,1715,0,3,1610612763
119,1610612758,1626153,1627741,1627745,1629056,203090,1610612763,203937,1628991,202685,1628415,1629630,0022000255,3,1741,1744,0,0,1610612758
120,1610612758,1626153,1627741,1627745,1629056,203090,1610612763,203937,1628991,202685,1628415,1629630,0022000255,3,1750,1753,0,0,1610612763
121,1610612758,1626153,1627741,1627745,1629056,203090,1610612763,203937,1628991,202685,1628415,1629630,0022000255,3,1755,1761,0,0,1610612758
122,1610612758,1626153,1627741,1627745,1629056,203090,1610612763,1628415,1629630,1630217,202685,203937,0022000255,3,1768,1768,0,3,1610612763
123,1610612758,1626153,1627741,1627745,1629056,203090,1610612763,1628415,1629630,1630217,202685,203937,0022000255,3,1785,1785,2,0,1610612758
124,1610612758,1626153,1627741,1627745,1629056,203090,1610612763,1628415,1629630,1630217,202685,203937,0022000255,3,1799,1799,0,2,1610612763
125,1610612758,1626153,1627741,1627745,1629056,203090,1610612763,1628415,1629630,1630217,202685,203937,0022000255,3,1811,1818,0,0,1610612758
126,1610612758,1626153,1627741,1627745,1629056,203090,1610612763,1628415,1629630,1630217,202685,203937,0022000255,3,1829,1829,0,0,1610612763
127,1610612758,1626153,1627741,1627745,1629056,203090,1610612763,1628415,1629630,1630217,202685,203937,0022000255,3,1830,1841,0,0,1610612758
128,1610612758,1626153,1627741,1627745,1629056,1629713,1610612763,1628415,1629630,1630217,202685,203937,0022000255,3,1841,1863,0,0,1610612763
129,1610612758,1626153,1627741,1627745,1629056,1629713,1610612763,1628415,1629630,1630217,202685,203937,0022000255,3,1875,1875,2,0,1610612758
130,1610612758,1626153,1627741,1627745,1629056,1629713,1610612763,1628415,1629630,1630217,202685,203937,0022000255,3,1884,1888,0,0,1610612763
131,1610612758,1626153,1627741,1627745,1629056,1629713,1610612763,1628415,1629630,1630217,202685,203937,0022000255,3,1893,1893,2,0,1610612758
132,1610612758,1626153,1627741,1627745,1629056,1629713,1610612763,1628415,1629630,1630217,202685,203937,0022000255,3,1907,1907,0,2,1610612763
133,1610612758,1626153,1627741,1627745,1629056,1629713,1610612763,1628415,1629630,1630217,202685,203937,0022000255,3,1923,1925,0,0,1610612758
134,1610612758,1626153,1627741,1627745,1629056,1629713,1610612763,1628415,1629630,1630217,202685,203937,0022000255,3,1926,1926,0,0,1610612763
135,1610612758,1626153,1627741,1627745,1629056,1629713,1610612763,1628415,1629630,1630217,202685,203937,0022000255,3,1943,1945,0,0,1610612758
136,1610612758,1626153,1627741,1627745,1629056,1629713,1610612763,1628415,1629630,1630217,202685,203937,0022000255,3,1960,1960,0,0,1610612763
137,1610612758,1626153,1627745,1629056,1629663,1629713,1610612763,1628415,1629630,1629634,1630217,202685,0022000255,3,1981,1982,0,0,1610612758
138,1610612758,1626153,1627745,1629056,1629663,1629713,1610612763,1628991,1629001,1629630,1629634,1630217,0022000255,3,1996,1996,0,2,1610612763
139,1610612758,1626153,1627745,1629056,1629663,1629713,1610612763,1628991,1629001,1629630,1629634,1630217,0022000255,3,2014,2014,2,0,1610612758
140,1610612758,1626153,1627745,1629056,1629663,1629713,1610612763,1628991,1629001,1629630,1629634,1630217,0022000255,3,2028,2028,0,0,1610612763
141,1610612758,1626153,1627745,1629056,1629663,1629713,1610612763,1628991,1629001,1629630,1629634,1630217,0022000255,3,2033,2033,2,0,1610612758
142,1610612758,1626153,1627745,1629056,1629663,1629713,1610612763,1628991,1629001,1629630,1629634,1630217,0022000255,3,2051,2051,0,2,1610612763
143,1610612758,1626153,1627745,1629056,1629663,1629713,1610612763,1628991,1629001,1629630,1629634,1630217,0022000255,3,2061,2061,2,0,1610612758
144,1610612758,1626153,1627745,1629056,1629663,1629713,1610612763,1628991,1629001,1629630,1629634,1630217,0022000255,3,2083,2083,0,3,1610612763
145,1610612758,1626153,1627745,1629056,1629663,1629713,1610612763,1628991,1629001,1629630,1629634,1630217,0022000255,3,2097,2114,3,0,1610612758
146,1610612758,1626153,1629002,1629056,1629663,1629713,1610612763,1628991,1629001,1629630,1629634,1630217,0022000255,3,2126,2141,0,2,1610612763
147,1610612758,1626153,1629002,1629056,1629663,1629713,1610612763,1628991,1629001,1629630,1629634,1630217,0022000255,3,2160,2160,0,0,1610612763
148,1610612758,1629002,1627741,1629056,1629713,1629663,1610612763,1628991,1630217,1629001,1629634,1626145,0022000255,4,2160,2187,0,0,1610612763
149,1610612758,1629002,1627741,1629056,1629713,1629663,1610612763,1628991,1630217,1629001,1629634,1626145,0022000255,4,2187,2187,3,0,1610612758
150,1610612758,1629002,1627741,1629056,1629713,1629663,1610612763,1626145,1628415,1628991,1629001,1629634,0022000255,4,2204,2207,0,0,1610612763
151,1610612758,1629002,1627741,1629056,1629713,1629663,1610612763,1626145,1628415,1628991,1629001,1629634,0022000255,4,2225,2229,0,0,1610612758
152,1610612758,1629002,1627741,1629056,1629713,1629663,1610612763,1626145,1628415,1628991,1629001,1629634,0022000255,4,2234,2234,0,2,1610612763
153,1610612758,1629002,1627741,1629056,1629713,1629663,1610612763,1626145,1628415,1628991,1629001,1629634,0022000255,4,2251,2251,2,0,1610612758
154,1610612758,1629002,1627741,1629056,1629713,1629663,1610612763,1626145,1628415,1628991,1629001,1629634,0022000255,4,2270,2273,0,0,1610612763
155,1610612758,1629002,1627741,1629056,1629713,1629663,1610612763,1626145,1628415,1628991,1629001,1629634,0022000255,4,2284,2284,2,0,1610612758
156,1610612758,1629002,1627741,1629056,1629713,1629663,1610612763,1626145,1628415,1628991,1629001,1629634,0022000255,4,2284,2307,0,0,1610612763
157,1610612758,1629002,1627741,1629056,1629713,1629663,1610612763,1626145,1628415,1628991,1629001,1629634,0022000255,4,2316,2316,3,0,1610612758
158,1610612758,1629002,1627741,1629056,1629713,1629663,1610612763,1626145,1628415,1628991,1629001,1629634,0022000255,4,2337,2342,0,0,1610612763
159,1610612758,1629002,1627741,1629056,1629713,1629663,1610612763,1626145,1628415,1628991,1629001,1629634,0022000255,4,2351,2351,3,0,1610612758
160,1610612758,1629002,1627741,1629056,1629713,1629663,1610612763,1626145,1628415,1628991,1629001,1629634,0022000255,4,2375,2375,0,0,1610612763
161,1610612758,1629002,1627741,1629056,1629713,1629663,1610612763,1626145,1628415,1628991,1629001,1629634,0022000255,4,2375,2390,3,0,1610612758
162,1610612758,1629002,1627741,1629056,1629713,1629663,1610612763,1626145,1628415,1629001,202685,203937,0022000255,4,2408,2417,0,2,1610612763
163,1610612758,1629002,1627741,1629056,1629713,1629663,1610612763,1626145,1628415,1629001,202685,203937,0022000255,4,2438,2439,1,0,1610612758
164,1610612758,1629002,1627741,1629056,1629713,1629663,1610612763,1628415,1629001,1629630,202685,203937,0022000255,4,2447,2447,0,3,1610612763
165,1610612758,1629002,1627741,1629056,1629713,1629663,1610612763,1628415,1629001,1629630,202685,203937,0022000255,4,2470,2470,2,0,1610612758
166,1610612758,1629002,1627741,1629056,1629713,1629663,1610612763,1628415,1629001,1629630,202685,203937,0022000255,4,2482,2482,0,0,1610612763
167,1610612758,1629002,1627741,1629056,1629713,1629663,1610612763,1628415,1629001,1629630,202685,203937,0022000255,4,2492,2495,0,0,1610612758
168,1610612758,1629002,1627741,1629056,1629713,1629663,1610612763,1628415,1629001,1629630,202685,203937,0022000255,4,2509,2517,0,2,1610612763
169,1610612758,1629002,1627741,1629056,1629713,1629663,1610612763,1628415,1629001,1629630,202685,203937,0022000255,4,2520,2538,0,0,1610612758
170,1610612758,1626153,1627741,1629002,1629713,203090,1610612763,1628415,1629630,1629634,202685,203937,0022000255,4,2547,2551,0,0,1610612763
171,1610612758,1626153,1627741,1629002,1629713,203090,1610612763,1628415,1629630,1629634,202685,203937,0022000255,4,2568,2570,0,0,1610612758
172,1610612758,1626153,1627741,1629002,1629713,203090,1610612763,1628415,1629630,1629634,202685,203937,0022000255,4,2581,2581,0,2,1610612763
173,1610612758,1626153,1627741,1629002,1629713,203090,1610612763,1628415,1629630,1629634,202685,203937,0022000255,4,2598,2598,3,0,1610612758
174,1610612758,1626153,1627741,1629002,1629713,203090,1610612763,1628415,1629630,1629634,202685,203937,0022000255,4,2614,2614,0,2,1610612763
175,1610612758,1626153,1627741,1629002,1629713,203090,1610612763,1628415,1629630,1629634,202685,203937,0022000255,4,2639,2641,0,0,1610612758
176,1610612758,1626153,1627741,1629002,1629713,203090,1610612763,1628415,1629630,1629634,202685,203937,0022000255,4,2647,2650,0,0,1610612763
177,1610612758,1626153,1627741,1629002,1629713,203090,1610612763,1628415,1629630,1629634,202685,203937,0022000255,4,2660,2660,3,0,1610612758
178,1610612758,1626153,1627741,1629002,1629713,203090,1610612763,1628415,1629630,1629634,202685,203937,0022000255,4,2674,2674,0,2,1610612763
179,1610612758,1626153,1627741,1629002,1629713,203090,1610612763,1628415,1629630,1629634,202685,203937,0022000255,4,2692,2692,2,0,1610612758
180,1610612758,1626153,1627741,1629002,1629713,203090,1610612763,1628415,1629630,1629634,202685,203937,0022000255,4,2707,2707,0,2,1610612763
181,1610612758,1626153,1627741,1629002,1629713,203090,1610612763,1628415,1629630,1629634,202685,203937,0022000255,4,2724,2724,0,0,1610612758
182,1610612758,1626153,1627741,1629002,1629056,1629713,1610612763,1628415,1629630,1629634,202685,203937,0022000255,4,2734,2734,0,0,1610612763
183,1610612758,1626153,1627741,1629002,1629056,1629713,1610612763,1628415,1629630,1630217,202685,203937,0022000255,4,2745,2749,0,0,1610612758
184,1610612758,1626153,1627741,1629002,1629056,1629713,1610612763,1628415,1629630,1630217,202685,203937,0022000255,4,2756,2756,0,3,1610612763
185,1610612758,1626153,1627741,1629002,1629056,1629713,1610612763,1628415,1629630,1630217,202685,203937,0022000255,4,2779,2784,0,0,1610612758
186,1610612758,1626153,1627741,1629002,1629056,1629713,1610612763,1628415,1629630,1630217,202685,203937,0022000255,4,2784,2797,0,3,1610612763
187,1610612758,1626153,1627741,1629002,1629056,1629713,1610612763,1628415,1629630,1630217,202685,203937,0022000255,4,2809,2812,0,0,1610612758
188,1610612758,1626153,1627741,1629002,1629056,1629713,1610612763,1628415,1629630,1630217,202685,203937,0022000255,4,2816,2816,0,2,1610612763
189,1610612758,1626153,1627741,1629002,1629056,1629713,1610612763,1628415,1629630,1630217,202685,203937,0022000255,4,2830,2840,0,0,1610612758
190,1610612758,1626153,1627741,1629002,1629713,203090,1610612763,1628415,1629630,1630217,202685,203937,0022000255,4,2846,2846,0,2,1610612763
191,1610612758,1626153,1627741,1629002,1629056,1629713,1610612763,1628415,1629630,1630217,202685,203937,0022000255,4,2857,2859,0,0,1610612758
