,team1_id,team1_player1,team1_player2,team1_player3,team1_player4,team1_player5,team2_id,team2_player1,team2_player2,team2_player3,team2_player4,team2_player5,game_id,period,possession_start,possession_end,team1_points,team2_points,possession_team
0,1610612748,1628997,200782,1630209,1629622,200768,1610612737,1627789,1628381,1630168,203992,1629027,0022100621,1,0,7,0,0,1610612748
1,1610612748,1628997,200782,1630209,1629622,200768,1610612737,1627789,1628381,1630168,203992,1629027,0022100621,1,31,31,0,2,1610612737
2,1610612748,1628997,200782,1630209,1629622,200768,1610612737,1627789,1628381,1630168,203992,1629027,0022100621,1,52,54,0,0,1610612748
3,1610612748,1628997,200782,1630209,1629622,200768,1610612737,1627789,1628381,1630168,203992,1629027,0022100621,1,60,63,0,0,1610612737
4,1610612748,1628997,200782,1630209,1629622,200768,1610612737,1627789,1628381,1630168,203992,1629027,0022100621,1,74,79,0,0,1610612748
5,1610612748,1628997,200782,1630209,1629622,200768,1610612737,1627789,1628381,1630168,203992,1629027,0022100621,1,82,82,0,0,1610612737
6,1610612748,1628997,200782,1630209,1629622,200768,1610612737,1627789,1628381,1630168,203992,1629027,0022100621,1,91,95,0,0,1610612748
7,1610612748,1628997,200782,1630209,1629622,200768,1610612737,1627789,1628381,1630168,203992,1629027,0022100621,1,98,101,0,0,1610612737
8,1610612748,1628997,200782,1630209,1629622,200768,1610612737,1627789,1628381,1630168,203992,1629027,0022100621,1,110,113,0,0,1610612748
9,1610612748,1628997,200782,1630209,1629622,200768,1610612737,1627789,1628381,1630168,203992,1629027,0022100621,1,120,120,0,0,1610612737
10,1610612748,1628997,200782,1630209,1629622,200768,1610612737,1627789,1628381,1630168,203992,1629027,0022100621,1,132,132,0,0,1610612748
11,1610612748,1628997,200782,1630209,1629622,200768,1610612737,1627789,1628381,1630168,203992,1629027,0022100621,1,136,136,0,2,1610612737
12,1610612748,1628997,200782,1630209,1629622,200768,1610612737,1627789,1628381,1630168,203992,1629027,0022100621,1,154,156,0,0,1610612748
13,1610612748,1628997,200782,1630209,1629622,200768,1610612737,1627789,1628381,1630168,203992,1629027,0022100621,1,161,161,0,2,1610612737
14,1610612748,1628997,200782,1630209,1629622,200768,1610612737,1627789,1628381,1630168,203992,1629027,0022100621,1,182,185,0,0,1610612748
15,1610612748,1628997,200782,1630209,1629622,200768,1610612737,1627789,1628381,1630168,203992,1629027,0022100621,1,194,194,0,2,1610612737
16,1610612748,1628997,200782,1630209,1629622,200768,1610612737,1627789,1628381,1630168,203992,1629027,0022100621,1,210,210,2,0,1610612748
17,1610612748,1628997,200782,1630209,1629622,200768,1610612737,1627789,1628381,1630168,203992,1629027,0022100621,1,227,232,0,2,1610612737
18,1610612748,1628997,200782,1630209,1629622,200768,1610612737,1627789,1628381,1630168,203992,1629027,0022100621,1,241,245,0,0,1610612748
19,1610612748,1628997,200782,1630209,1629622,200768,1610612737,1627789,1628381,1630168,203992,1629027,0022100621,1,251,251,0,0,1610612737
20,1610612748,1628997,200782,1630209,1629622,200768,1610612737,1627789,1628381,1630168,203992,1629027,0022100621,1,270,270,0,0,1610612748
21,1610612748,1628997,200782,1630209,1629622,200768,1610612737,1627789,1628381,1630168,203992,1629027,0022100621,1,279,279,0,3,1610612737
22,1610612748,1628997,200782,1630209,1629622,200768,1610612737,1627789,1628381,1630168,203992,1629027,0022100621,1,281,293,2,0,1610612748
23,1610612748,1628997,200782,1630209,1629622,200768,1610612737,1627789,1628381,1630168,203992,1629027,0022100621,1,308,311,0,0,1610612737
24,1610612748,1628997,200782,1630209,1629622,200768,1610612737,1627789,1628381,1630168,203992,1629027,0022100621,1,327,330,0,0,1610612748
25,1610612748,1628997,200782,1630209,1629622,200768,1610612737,1627789,1628381,1630168,203992,1629027,0022100621,1,336,339,0,0,1610612737
26,1610612748,1628997,200782,1630209,1629622,200768,1610612737,1627789,1628381,1630168,203992,1629027,0022100621,1,342,355,2,0,1610612748
27,1610612748,1629622,1629639,1630209,200768,200782,1610612737,1627789,1628381,1629027,201568,203992,0022100621,1,370,370,0,3,1610612737
28,1610612748,1629622,1629639,1630209,200768,200782,1610612737,1627789,1628381,1629027,201568,203992,0022100621,1,381,381,0,0,1610612748
29,1610612748,1629622,1629639,1630209,200768,200782,1610612737,1627789,1628381,1629027,201568,203992,0022100621,1,397,400,0,0,1610612737
30,1610612748,1629622,1629639,1630209,200768,200782,1610612737,1627789,1628381,1629027,201568,203992,0022100621,1,406,406,3,0,1610612748
31,1610612748,1629622,1629639,1630209,200768,200782,1610612737,1627789,1628381,1629027,201568,203992,0022100621,1,409,420,0,0,1610612737
32,1610612748,1629130,1629639,200768,200782,203473,1610612737,1626153,1628381,1628989,201568,203992,0022100621,1,439,439,2,0,1610612748
33,1610612748,1629130,1629639,200768,200782,203473,1610612737,1626153,1628381,1628989,201568,203992,0022100621,1,456,466,0,2,1610612737
34,1610612748,1629130,1629639,200768,200782,203473,1610612737,1626153,1628381,1628989,201568,203992,0022100621,1,481,498,2,0,1610612748
35,1610612748,1629130,1629639,200768,200782,203473,1610612737,1626153,1628381,1628989,201568,203992,0022100621,1,519,519,0,2,1610612737
36,1610612748,1629130,1629639,200768,200782,203473,1610612737,1626153,1628381,1628989,201568,203992,0022100621,1,529,529,0,0,1610612748
37,1610612748,1629130,1629639,200768,200782,203473,1610612737,1626153,1628381,1628989,201568,203992,0022100621,1,534,534,0,0,1610612737
38,1610612748,1629130,1629639,200768,200782,203473,1610612737,1628989,1629027,1629631,1630168,201568,0022100621,1,549,549,0,0,1610612748
39,1610612748,1628997,1629130,1629639,200768,203473,1610612737,1628989,1629027,1629631,1630168,201568,0022100621,1,562,564,0,0,1610612737
40,1610612748,1628997,1629130,1629639,200768,203473,1610612737,1628989,1629027,1629631,1630168,201568,0022100621,1,577,577,2,0,1610612748
41,1610612748,1628997,1629130,1629639,200768,203473,1610612737,1628989,1629027,1629631,1630168,201568,0022100621,1,591,595,0,0,1610612737
42,1610612748,1628997,1629130,1629639,200768,203473,1610612737,1628989,1629027,1629631,1630168,201568,0022100621,1,606,606,2,0,1610612748
43,1610612748,1628997,1629130,1629639,200768,203473,1610612737,1628989,1629027,1629631,1630168,201568,0022100621,1,632,632,0,2,1610612737
44,1610612748,1628997,1629130,1629639,200768,203473,1610612737,1628989,1629027,1629631,1630168,201568,0022100621,1,645,645,2,0,1610612748
45,1610612748,1628997,1629130,1629639,200768,203473,1610612737,1628989,1629027,1629631,1630168,201568,0022100621,1,657,660,0,0,1610612737
46,1610612748,1628997,1629130,1629639,200768,203473,1610612737,1628989,1629027,1629631,1630168,201568,0022100621,1,665,665,0,0,1610612748
47,1610612748,1628997,1629130,1629639,200768,203473,1610612737,1628989,1629027,1629631,1630168,201568,0022100621,1,668,668,0,2,1610612737
48,1610612748,1628997,1629130,1629639,200768,203473,1610612737,1628989,1629027,1629631,1630168,201568,0022100621,1,690,690,2,0,1610612748
49,1610612748,1628997,1629130,1629639,200768,203473,1610612737,1628989,1629027,1629631,1630168,201568,0022100621,1,705,705,0,3,1610612737
50,1610612748,1628997,1629130,1629639,200768,203473,1610612737,1628989,1629027,1629631,1630168,201568,0022100621,1,719,719,0,0,1610612737
51,1610612748,1628997,1630209,1629639,1629130,1629216,1610612737,1630168,201568,1626153,1628989,1629631,0022100621,2,720,739,0,3,1610612737
52,1610612748,1628997,1630209,1629639,1629130,1629216,1610612737,1630168,201568,1626153,1628989,1629631,0022100621,2,756,766,3,0,1610612748
53,1610612748,1628997,1630209,1629639,1629130,1629216,1610612737,1630168,201568,1626153,1628989,1629631,0022100621,2,780,780,0,0,1610612737
54,1610612748,1628997,1630209,1629639,1629130,1629216,1610612737,1630168,201568,1626153,1628989,1629631,0022100621,2,787,787,3,0,1610612748
55,1610612748,1628997,1630209,1629639,1629130,1629216,1610612737,1630168,201568,1626153,1628989,1629631,0022100621,2,806,806,0,3,1610612737
56,1610612748,1628997,1630209,1629639,1629130,1629216,1610612737,1630168,201568,1626153,1628989,1629631,0022100621,2,816,816,3,0,1610612748
57,1610612748,1628997,1630209,1629639,1629130,1629216,1610612737,1630168,201568,1626153,1628989,1629631,0022100621,2,843,847,0,0,1610612737
58,1610612748,1628997,1630209,1629639,1629130,1629216,1610612737,1630168,201568,1626153,1628989,1629631,0022100621,2,860,860,2,0,1610612748
59,1610612748,1628997,1630209,1629639,1629130,1629216,1610612737,1630168,201568,1626153,1628989,1629631,0022100621,2,873,902,0,2,1610612737
60,1610612748,1628997,1630209,1629639,1629130,1629216,1610612737,1626153,1628381,1628989,1629631,201568,0022100621,2,916,916,3,0,1610612748
61,1610612748,1628997,1630209,1629639,1629130,1629216,1610612737,1626153,1628381,1628989,1629631,201568,0022100621,2,934,937,0,0,1610612737
62,1610612748,1628997,1630209,1629639,1629130,1629216,1610612737,1626153,1628381,1628989,1629631,201568,0022100621,2,951,958,0,0,1610612748
63,1610612748,1628997,1630209,1629639,1629130,1629216,1610612737,1626153,1628381,1628989,1629631,201568,0022100621,2,960,962,0,0,1610612737
64,1610612748,1628997,1630209,1629639,1629130,1629216,1610612737,1626153,1628381,1628989,1629631,201568,0022100621,2,969,971,2,0,1610612748
65,1610612748,1628997,1630209,1629639,1629130,1629216,1610612737,1626153,1628381,1628989,1629631,201568,0022100621,2,985,994,0,2,1610612737
66,1610612748,1628997,1630209,1629639,1629130,1629216,1610612737,1628381,1628989,1629027,201568,203992,0022100621,2,1011,1014,0,0,1610612748
67,1610612748,1628997,1630209,1629639,1629130,1629216,1610612737,1628381,1628989,1629027,201568,203992,0022100621,2,1019,1019,0,0,1610612737
68,1610612748,1628997,1630209,1629639,1629130,1629216,1610612737,1628381,1628989,1629027,201568,203992,0022100621,2,1030,1033,0,0,1610612748
69,1610612748,1628997,1630209,1629639,1629130,1629216,1610612737,1628381,1628989,1629027,201568,203992,0022100621,2,1039,1044,0,1,1610612737
70,1610612748,1629130,1629639,200768,200782,203473,1610612737,1627789,1628381,1629027,201568,203992,0022100621,2,1056,1056,2,0,1610612748
71,1610612748,1629130,1629639,200768,200782,203473,1610612737,1627789,1628381,1629027,201568,203992,0022100621,2,1067,1067,0,0,1610612737
72,1610612748,1629130,1629639,200768,200782,203473,1610612737,1627789,1628381,1629027,201568,203992,0022100621,2,1076,1076,0,0,1610612748
73,1610612748,1629130,1629639,200768,200782,203473,1610612737,1627789,1628381,1629027,201568,203992,0022100621,2,1081,1081,0,3,1610612737
74,1610612748,1629130,1629639,200768,200782,203473,1610612737,1627789,1628381,1629027,201568,203992,0022100621,2,1089,1092,0,0,1610612748
75,1610612748,1629130,1629639,200768,200782,203473,1610612737,1627789,1628381,1629027,201568,203992,0022100621,2,1100,1103,0,0,1610612737
76,1610612748,1629130,1629639,200768,200782,203473,1610612737,1627789,1628381,1629027,1629631,203992,0022100621,2,1117,1117,0,0,1610612748
77,1610612748,1629130,1629639,200768,200782,203473,1610612737,1627789,1628381,1629027,1629631,203992,0022100621,2,1134,1140,0,3,1610612737
78,1610612748,1629130,1629639,200768,200782,203473,1610612737,1627789,1628381,1629027,1629631,203992,0022100621,2,1162,1162,2,0,1610612748
79,1610612748,1629130,1629639,200768,200782,203473,1610612737,1627789,1628381,1629027,1629631,203992,0022100621,2,1180,1183,0,0,1610612737
80,1610612748,1629130,1629639,200768,200782,203473,1610612737,1627789,1628381,1629027,1629631,203992,0022100621,2,1186,1186,3,0,1610612748
81,1610612748,1629130,1629639,200768,200782,203473,1610612737,1627789,1628381,1629027,1629631,203992,0022100621,2,1206,1208,0,0,1610612737
82,1610612748,1629130,1629639,200768,200782,203473,1610612737,1627789,1628381,1629027,1629631,203992,0022100621,2,1212,1212,2,0,1610612748
83,1610612748,1629130,1629639,200768,200782,203473,1610612737,1627789,1628381,1629027,1629631,203992,0022100621,2,1229,1229,0,3,1610612737
84,1610612748,1629130,1629639,200768,200782,203473,1610612737,1627789,1628381,1629027,1629631,203992,0022100621,2,1253,1253,3,0,1610612748
85,1610612748,1629130,1629639,200768,200782,203473,1610612737,1627789,1628381,1629027,1629631,203992,0022100621,2,1269,1273,0,0,1610612737
86,1610612748,1629130,1629639,200768,200782,203473,1610612737,1627789,1628381,1629027,1629631,203992,0022100621,2,1279,1283,0,0,1610612748
87,1610612748,1629130,1629639,200768,200782,203473,1610612737,1627789,1628381,1629027,1629631,203992,0022100621,2,1287,1291,0,0,1610612737
88,1610612748,1629130,1629639,200768,200782,203473,1610612737,1627789,1628381,1629027,1629631,203992,0022100621,2,1300,1306,3,0,1610612748
89,1610612748,1629130,1629639,200768,200782,203473,1610612737,1628381,1628989,1629027,1629631,203992,0022100621,2,1320,1322,0,0,1610612737
90,1610612748,1629130,1629639,200768,200782,203473,1610612737,1628381,1628989,1629027,1629631,203992,0022100621,2,1334,1336,0,0,1610612748
91,1610612748,1629130,1629639,200768,200782,203473,1610612737,1628381,1628989,1629027,1629631,203992,0022100621,2,1345,1345,0,2,1610612737
92,1610612748,1629130,1629639,200768,200782,203473,1610612737,1628381,1628989,1629027,1629631,203992,0022100621,2,1360,1361,0,0,1610612748
93,1610612748,1629130,1629639,200768,200782,203473,1610612737,1628381,1628989,1629027,1629631,203992,0022100621,2,1368,1368,0,0,1610612737
94,1610612748,1629130,1629639,200768,200782,203473,1610612737,1628381,1628989,1629027,1629631,203992,0022100621,2,1376,1381,0,0,1610612748
95,1610612748,1629130,1629639,200768,200782,203473,1610612737,1628381,1628989,1629027,1629631,203992,0022100621,2,1387,1389,0,0,1610612737
96,1610612748,1629130,1629639,200768,200782,203473,1610612737,1628381,1628989,1629027,1629631,203992,0022100621,2,1398,1398,2,0,1610612748
97,1610612748,1629130,1629639,200768,200782,203473,1610612737,1628989,1629027,1629631,1630168,203992,0022100621,2,1410,1413,0,0,1610612737
98,1610612748,1629130,1629639,200768,200782,203473,1610612737,1628989,1629027,1629631,1630168,203992,0022100621,2,1432,1432,2,0,1610612748
99,1610612748,1629130,1629639,200768,200782,203473,1610612737,1628989,1629027,1629631,1630168,203992,0022100621,2,1439,1439,0,2,1610612737
100,1610612748,1628997,200782,1630209,1629622,200768,1610612737,1627789,1628381,1630168,203992,1629027,0022100621,3,1440,1458,0,0,1610612737
101,1610612748,1628997,200782,1630209,1629622,200768,1610612737,1627789,1628381,1630168,203992,1629027,0022100621,3,1475,1475,3,0,1610612748
102,1610612748,1628997,200782,1630209,1629622,200768,1610612737,1627789,1628381,1630168,203992,1629027,0022100621,3,1487,1489,0,0,1610612737
103,1610612748,1628997,200782,1630209,1629622,200768,1610612737,1627789,1628381,1630168,203992,1629027,0022100621,3,1491,1491,2,0,1610612748
104,1610612748,1628997,200782,1630209,1629622,200768,1610612737,1627789,1628381,1630168,203992,1629027,0022100621,3,1510,1515,0,0,1610612737
105,1610612748,1628997,200782,1630209,1629622,200768,1610612737,1627789,1628381,1630168,203992,1629027,0022100621,3,1520,1520,3,0,1610612748
106,1610612748,1628997,200782,1630209,1629622,200768,1610612737,1627789,1628381,1630168,203992,1629027,0022100621,3,1532,1534,0,0,1610612737
107,1610612748,1628997,200782,1630209,1629622,200768,1610612737,1627789,1628381,1630168,203992,1629027,0022100621,3,1537,1542,0,0,1610612748
108,1610612748,1628997,200782,1630209,1629622,200768,1610612737,1627789,1628381,1630168,203992,1629027,0022100621,3,1548,1548,0,0,1610612737
109,1610612748,1628997,200782,1630209,1629622,200768,1610612737,1628381,1628989,1629027,1630168,203992,0022100621,3,1559,1570,0,0,1610612748
110,1610612748,1628997,200782,1630209,1629622,200768,1610612737,1628381,1628989,1629027,1630168,203992,0022100621,3,1575,1578,0,0,1610612737
111,1610612748,1628997,200782,1630209,1629622,200768,1610612737,1628381,1628989,1629027,1630168,203992,0022100621,3,1587,1587,3,0,1610612748
112,1610612748,1628997,200782,1630209,1629622,200768,1610612737,1628381,1628989,1629027,1630168,203992,0022100621,3,1606,1612,0,0,1610612737
113,1610612748,1628997,200782,1630209,1629622,200768,1610612737,1628381,1628989,1629027,1630168,203992,0022100621,3,1623,1626,0,0,1610612748
114,1610612748,1628997,200782,1630209,1629622,200768,1610612737,1628381,1628989,1629027,1630168,203992,0022100621,3,1632,1632,0,0,1610612737
115,1610612748,1628997,200782,1630209,1629622,200768,1610612737,1628381,1628989,1629027,1630168,203992,0022100621,3,1634,1634,1,0,1610612748
116,1610612748,1628997,200782,1630209,1629622,200768,1610612737,1628381,1628989,1629027,201568,203992,0022100621,3,1652,1662,0,0,1610612737
117,1610612748,1628997,200782,1630209,1629622,200768,1610612737,1628381,1628989,1629027,201568,203992,0022100621,3,1665,1673,2,0,1610612748
118,1610612748,1628997,200782,1630209,1629622,200768,1610612737,1628381,1628989,1629027,201568,203992,0022100621,3,1680,1690,0,0,1610612737
119,1610612748,1628997,200782,1630209,1629622,200768,1610612737,1628381,1628989,1629027,201568,203992,0022100621,3,1700,1700,2,0,1610612748
120,1610612748,1628997,200782,1630209,1629622,200768,1610612737,1628381,1628989,1629027,201568,203992,0022100621,3,1720,1720,0,2,1610612737
121,1610612748,1628997,200782,1630209,1629622,200768,1610612737,1628381,1628989,1629027,201568,203992,0022100621,3,1740,1743,0,0,1610612748
122,1610612748,1628997,200782,1630209,1629622,200768,1610612737,1628381,1628989,1629027,201568,203992,0022100621,3,1752,1755,0,0,1610612737
123,1610612748,1628997,200782,1630209,1629622,200768,1610612737,1628381,1628989,1629027,201568,203992,0022100621,3,1766,1766,3,0,1610612748
124,1610612748,1628997,200782,1630209,1629622,200768,1610612737,1628381,1628989,1629027,201568,203992,0022100621,3,1768,1781,0,2,1610612737
125,1610612748,1628997,200782,1630209,1629622,200768,1610612737,1628381,1628989,1629027,1629631,201568,0022100621,3,1801,1801,2,0,1610612748
126,1610612748,1628997,200782,1630209,1629622,200768,1610612737,1628381,1628989,1629027,1629631,201568,0022100621,3,1801,1814,0,2,1610612737
127,1610612748,1628997,200782,1630209,1629622,200768,1610612737,1628381,1628989,1629027,1629631,201568,0022100621,3,1836,1853,0,0,1610612748
128,1610612748,1629622,1629639,1630209,200768,200782,1610612737,1628381,1628989,1629027,1629631,201568,0022100621,3,1863,1863,0,2,1610612737
129,1610612748,1629622,1629639,1630209,200768,200782,1610612737,1628381,1628989,1629027,1629631,201568,0022100621,3,1884,1888,0,0,1610612748
130,1610612748,1629622,1629639,1630209,200768,200782,1610612737,1628381,1628989,1629027,1629631,201568,0022100621,3,1894,1896,0,0,1610612737
131,1610612748,1629622,1629639,1630209,200768,200782,1610612737,1628381,1628989,1629027,1629631,201568,0022100621,3,1896,1916,2,0,1610612748
132,1610612748,1629622,1629639,1630209,200768,200782,1610612737,1628381,1628989,1629027,1629631,201568,0022100621,3,1932,1932,0,2,1610612737
133,1610612748,1629130,1629639,1630209,200768,200782,1610612737,1628989,1629027,1629631,1630168,201568,0022100621,3,1954,1959,0,0,1610612748
134,1610612748,1629130,1629639,1630209,200768,200782,1610612737,1628989,1629027,1629631,1630168,201568,0022100621,3,1963,1963,0,3,1610612737
135,1610612748,1629130,1629639,200768,200782,203473,1610612737,1628989,1629027,1629631,1630168,201568,0022100621,3,1978,1983,2,0,1610612748
136,1610612748,1629130,1629216,1629639,200782,203473,1610612737,1628989,1629027,1629631,1630168,201568,0022100621,3,1999,1999,0,1,1610612737
137,1610612748,1629130,1629216,1629639,200782,203473,1610612737,1628989,1629027,1629631,1630168,201568,0022100621,3,2007,2009,0,0,1610612748
138,1610612748,1629130,1629216,1629639,200782,203473,1610612737,1626153,1628989,1629631,1630168,201568,0022100621,3,2019,2022,0,0,1610612737
139,1610612748,1629130,1629216,1629639,200782,203473,1610612737,1626153,1628989,1629631,1630168,201568,0022100621,3,2035,2038,0,0,1610612748
140,1610612748,1629130,1629216,1629639,200782,203473,1610612737,1626153,1628989,1629631,1630168,201568,0022100621,3,2044,2047,0,0,1610612737
141,1610612748,1629130,1629216,1629639,200782,203473,1610612737,1626153,1628989,1629631,1630168,201568,0022100621,3,2051,2051,3,0,1610612748
142,1610612748,1629130,1629216,1629639,200782,203473,1610612737,1626153,1628989,1629631,1630168,201568,0022100621,3,2069,2072,0,0,1610612737
143,1610612748,1629130,1629216,1629639,200782,203473,1610612737,1626153,1628989,1629631,1630168,201568,0022100621,3,2086,2089,0,0,1610612748
144,1610612748,1629130,1629216,1629639,200782,203473,1610612737,1626153,1628989,1629631,1630168,201568,0022100621,3,2105,2108,0,0,1610612737
145,1610612748,1629130,1629216,1629639,200782,203473,1610612737,1626153,1628989,1629631,1630168,201568,0022100621,3,2112,2112,2,0,1610612748
146,1610612748,1629130,1629216,1629639,200782,203473,1610612737,1626153,1628989,1629631,1630168,201568,0022100621,3,2125,2125,0,2,1610612737
147,1610612748,1629130,1629216,1629639,200782,203473,1610612737,1626153,1628989,1629631,1630168,201568,0022100621,3,2132,2136,0,0,1610612748
148,1610612748,1629130,1629216,1629639,200782,203473,1610612737,1626153,1628989,1629631,1630168,201568,0022100621,3,2147,2148,0,0,1610612737
149,1610612748,1629130,1629216,1629639,200782,203473,1610612737,1626153,1628989,1629631,1630168,201568,0022100621,3,2148,2159,0,0,1610612737
150,1610612748,1628997,1629639,1629130,203473,1629216,1610612737,1630168,203992,201568,1626153,1628989,0022100621,4,2160,2174,0,0,1610612748
151,1610612748,1628997,1629639,1629130,203473,1629216,1610612737,1630168,203992,201568,1626153,1628989,0022100621,4,2196,2200,0,0,1610612737
152,1610612748,1628997,1629639,1629130,203473,1629216,1610612737,1630168,203992,201568,1626153,1628989,0022100621,4,2220,2223,0,0,1610612748
153,1610612748,1628997,1629639,1629130,203473,1629216,1610612737,1630168,203992,201568,1626153,1628989,0022100621,4,2232,2243,0,1,1610612737
154,1610612748,1628997,1629639,1629130,203473,1629216,1610612737,1630168,203992,201568,1626153,1628989,0022100621,4,2255,2255,2,0,1610612748
155,1610612748,1628997,1629639,1629130,203473,1629216,1610612737,1630168,203992,201568,1626153,1628989,0022100621,4,2271,2271,0,2,1610612737
156,1610612748,1628997,1629639,1629130,203473,1629216,1610612737,1630168,203992,201568,1626153,1628989,0022100621,4,2284,2287,0,0,1610612748
157,1610612748,1628997,1629639,1629130,203473,1629216,1610612737,1630168,203992,201568,1626153,1628989,0022100621,4,2294,2299,0,2,1610612737
158,1610612748,1628997,1629639,1629130,203473,1629216,1610612737,1630168,203992,201568,1626153,1628989,0022100621,4,2318,2321,0,0,1610612748
159,1610612748,1628997,1629639,1629130,203473,1629216,1610612737,1630168,203992,201568,1626153,1628989,0022100621,4,2325,2325,0,3,1610612737
160,1610612748,1628997,1629639,1629130,203473,1629216,1610612737,1630168,203992,201568,1626153,1628989,0022100621,4,2327,2341,2,0,1610612748
161,1610612748,1628997,1629130,1629216,1629639,1630209,1610612737,1626153,1628381,1628989,201568,203992,0022100621,4,2356,2359,0,0,1610612737
162,1610612748,1628997,1629130,1629216,1629639,1630209,1610612737,1626153,1628381,1628989,201568,203992,0022100621,4,2375,2379,2,0,1610612748
163,1610612748,1628997,1629130,1629216,1629639,1630209,1610612737,1626153,1628381,1628989,201568,203992,0022100621,4,2390,2390,0,3,1610612737
164,1610612748,1628997,1629130,1629216,1629639,1630209,1610612737,1626153,1628381,1628989,201568,203992,0022100621,4,2407,2409,0,0,1610612748
165,1610612748,1628997,1629130,1629216,1629639,1630209,1610612737,1626153,1628381,1628989,201568,203992,0022100621,4,2420,2424,0,0,1610612737
166,1610612748,1628997,1629130,1629216,1629639,1630209,1610612737,1626153,1628381,1628989,201568,203992,0022100621,4,2428,2438,0,0,1610612748
167,1610612748,1628997,1629130,1629216,1629639,1630209,1610612737,1628381,1628989,1629027,201568,203992,0022100621,4,2454,2454,0,0,1610612737
168,1610612748,1628997,1629130,1629216,1629639,1630209,1610612737,1628381,1628989,1629027,1629631,203992,0022100621,4,2466,2466,0,0,1610612748
169,1610612748,1628997,1629130,1629216,1629639,1630209,1610612737,1628381,1628989,1629027,1629631,203992,0022100621,4,2475,2478,0,0,1610612737
170,1610612748,1628997,1629130,1629216,1629639,1630209,1610612737,1628381,1628989,1629027,1629631,203992,0022100621,4,2488,2491,2,0,1610612748
171,1610612748,1628997,1629130,1629216,1629639,1630209,1610612737,1628381,1628989,1629027,1629631,203992,0022100621,4,2504,2504,0,0,1610612737
172,1610612748,1628997,1629130,1629216,1629639,1630209,1610612737,1628381,1628989,1629027,1629631,203992,0022100621,4,2509,2510,2,0,1610612748
173,1610612748,1628997,1629130,1629216,1629639,1630209,1610612737,1628381,1628989,1629027,1629631,203992,0022100621,4,2510,2528,0,0,1610612737
174,1610612748,1628997,1629130,1629216,1629639,1630209,1610612737,1628381,1628989,1629027,1629631,203992,0022100621,4,2534,2537,0,0,1610612748
175,1610612748,1628997,1629130,1629216,1629639,1630209,1610612737,1628381,1628989,1629027,1629631,203992,0022100621,4,2541,2541,0,3,1610612737
176,1610612748,1628997,1629130,1629216,1629639,1630209,1610612737,1628381,1628989,1629027,1629631,203992,0022100621,4,2570,2570,0,0,1610612748
177,1610612748,1628997,1629130,1629216,1629639,1630209,1610612737,1628381,1628989,1629027,1629631,203992,0022100621,4,2574,2574,0,2,1610612737
178,1610612748,1628997,1629130,1629216,1629639,1630209,1610612737,1628381,1628989,1629027,1629631,203992,0022100621,4,2574,2594,3,0,1610612748
179,1610612748,1628997,1629130,1629216,1629639,1630209,1610612737,1628381,1628989,1629027,1629631,203992,0022100621,4,2613,2615,0,0,1610612737
180,1610612748,1628997,1629130,1629216,1629639,1630209,1610612737,1628381,1628989,1629027,1629631,203992,0022100621,4,2623,2623,3,0,1610612748
181,1610612748,1628997,1629130,1629216,1629639,1630209,1610612737,1628381,1628989,1629027,1629631,203992,0022100621,4,2638,2642,0,0,1610612737
182,1610612748,1628997,1629130,1629216,1629639,1630209,1610612737,1628381,1628989,1629027,1629631,203992,0022100621,4,2644,2644,0,0,1610612748
183,1610612748,1628997,1629130,1629216,1629639,1630209,1610612737,1628381,1628989,1629027,1629631,203992,0022100621,4,2650,2650,0,2,1610612737
184,1610612748,1628997,1629130,1629216,1629639,1630209,1610612737,1628381,1628989,1629027,1629631,203992,0022100621,4,2670,2670,2,0,1610612748
185,1610612748,1628997,1629130,1629216,1629639,1630209,1610612737,1628381,1628989,1629027,1629631,203992,0022100621,4,2686,2686,0,3,1610612737
186,1610612748,1628997,1629130,1629216,1629639,1630209,1610612737,1628381,1628989,1629027,1629631,203992,0022100621,4,2709,2709,3,0,1610612748
187,1610612748,1628997,1629130,1629216,1629639,1630209,1610612737,1628381,1628989,1629027,1629631,203992,0022100621,4,2722,2726,0,0,1610612737
188,1610612748,1628997,1629130,1629216,1629639,1630209,1610612737,1628381,1628989,1629027,1629631,203992,0022100621,4,2740,2740,2,0,1610612748
189,1610612748,1628997,1629130,1629216,1629639,1630209,1610612737,1628381,1628989,1629027,1629631,203992,0022100621,4,2740,2755,0,0,1610612737
190,1610612748,1628997,1629130,1629216,1629639,1630209,1610612737,1626153,1630168,1630219,1630536,203476,0022100621,4,2764,2768,0,0,1610612748
191,1610612748,1628997,1629130,1629216,1629639,1630209,1610612737,1626153,1630168,1630219,1630536,203476,0022100621,4,2786,2790,0,0,1610612737
192,1610612748,1628997,1629130,1629216,1629639,1630209,1610612737,1626153,1630168,1630219,1630536,203476,0022100621,4,2796,2796,3,0,1610612748
193,1610612748,1628997,1629130,1629216,1629639,1630209,1610612737,1626153,1630168,1630219,1630536,203476,0022100621,4,2797,2812,0,3,1610612737
194,1610612748,1628997,1629216,1629639,1629657,1629735,1610612737,1626153,1630168,1630219,1630536,203476,0022100621,4,2826,2826,3,0,1610612748
195,1610612748,1628997,1629216,1629639,1629657,1629735,1610612737,1626153,1630168,1630219,1630536,203476,0022100621,4,2843,2846,0,0,1610612737
196,1610612748,1628997,1629216,1629639,1629657,1629735,1610612737,1626153,1630168,1630219,1630536,203476,0022100621,4,2869,2869,0,0,1610612748
197,1610612748,1628997,1629216,1629639,1629657,1629735,1610612737,1626153,1630168,1630219,1630536,203476,0022100621,4,2875,2879,0,0,1610612748
