,team1_id,team1_player1,team1_player2,team1_player3,team1_player4,team1_player5,team2_id,team2_player1,team2_player2,team2_player3,team2_player4,team2_player5,game_id,period,possession_start,possession_end,team1_points,team2_points,possession_team
0,1610612761,1628384,1630567,1627783,1629018,1627832,1610612764,203484,1630166,1629655,203078,203915,0022100689,1,0,10,0,0,1610612761
1,1610612761,1628384,1630567,1627783,1629018,1627832,1610612764,203484,1630166,1629655,203078,203915,0022100689,1,31,31,0,3,1610612764
2,1610612761,1628384,1630567,1627783,1629018,1627832,1610612764,203484,1630166,1629655,203078,203915,0022100689,1,44,47,0,0,1610612761
3,1610612761,1628384,1630567,1627783,1629018,1627832,1610612764,203484,1630166,1629655,203078,203915,0022100689,1,59,59,0,2,1610612764
4,1610612761,1628384,1630567,1627783,1629018,1627832,1610612764,203484,1630166,1629655,203078,203915,0022100689,1,74,74,3,0,1610612761
5,1610612761,1628384,1630567,1627783,1629018,1627832,1610612764,203484,1630166,1629655,203078,203915,0022100689,1,87,87,0,3,1610612764
6,1610612761,1628384,1630567,1627783,1629018,1627832,1610612764,203484,1630166,1629655,203078,203915,0022100689,1,98,101,0,0,1610612761
7,1610612761,1628384,1630567,1627783,1629018,1627832,1610612764,203484,1630166,1629655,203078,203915,0022100689,1,108,108,0,2,1610612764
8,1610612761,1628384,1630567,1627783,1629018,1627832,1610612764,203484,1630166,1629655,203078,203915,0022100689,1,113,126,2,0,1610612761
9,1610612761,1627783,1627832,1628384,1628449,1629018,1610612764,203484,1630166,1629655,203078,203915,0022100689,1,152,166,0,0,1610612764
10,1610612761,1627783,1627832,1628384,1628449,1629018,1610612764,203484,1630166,1629655,203078,203915,0022100689,1,174,177,0,0,1610612761
11,1610612761,1627783,1627832,1628384,1628449,1629018,1610612764,203484,1630166,1629655,203078,203915,0022100689,1,179,179,0,0,1610612764
12,1610612761,1627783,1627832,1628384,1628449,1629018,1610612764,203484,1630166,1629655,203078,203915,0022100689,1,189,193,0,0,1610612761
13,1610612761,1627783,1627832,1628384,1628449,1629018,1610612764,203484,1630166,1629655,203078,203915,0022100689,1,209,209,0,0,1610612764
14,1610612761,1627783,1627832,1628384,1628449,1629018,1610612764,203484,1630166,1629655,203078,203915,0022100689,1,212,212,0,0,1610612761
15,1610612761,1627783,1627832,1628384,1628449,1629018,1610612764,203484,1630166,1629655,203078,203915,0022100689,1,227,229,0,0,1610612764
16,1610612761,1627783,1627832,1628384,1628449,1629018,1610612764,203484,1630166,1629655,203078,203915,0022100689,1,240,243,0,0,1610612761
17,1610612761,1627783,1627832,1628384,1628449,1629018,1610612764,203484,1630166,1629655,203078,203915,0022100689,1,251,254,0,0,1610612764
18,1610612761,1627783,1627832,1628384,1628449,1629018,1610612764,203484,1630166,1629655,203078,203915,0022100689,1,260,260,2,0,1610612761
19,1610612761,1627783,1627832,1628384,1628449,1629018,1610612764,203484,1630166,1629655,203078,203915,0022100689,1,267,279,0,2,1610612764
20,1610612761,1627783,1627832,1628384,1628449,1629018,1610612764,203484,1630166,1629655,203078,203915,0022100689,1,289,289,0,0,1610612761
21,1610612761,1627783,1627832,1628384,1628449,1629018,1610612764,203484,1630166,1629655,203078,203915,0022100689,1,294,294,0,2,1610612764
22,1610612761,1627783,1627832,1628384,1628449,1629018,1610612764,203484,1630166,1629655,203078,203915,0022100689,1,310,310,3,0,1610612761
23,1610612761,1627783,1627832,1628384,1628449,1629018,1610612764,203484,1630166,1629655,203078,203915,0022100689,1,335,335,0,2,1610612764
24,1610612761,1627783,1627832,1628384,1628449,1629018,1610612764,203484,1630166,1629655,203078,203915,0022100689,1,346,348,0,0,1610612761
25,1610612761,1627783,1627832,1628384,1628449,1629018,1610612764,203484,1630166,1629655,203078,203915,0022100689,1,356,359,0,0,1610612764
26,1610612761,1627783,1627832,1628384,1628449,1629018,1610612764,203484,1630166,1629655,203078,203915,0022100689,1,364,380,0,0,1610612761
27,1610612761,1627783,1627832,1628384,1628449,1629018,1610612764,203484,1630166,1629655,203078,203915,0022100689,1,386,386,0,2,1610612764
28,1610612761,1627783,1627832,1628449,1630173,1630567,1610612764,1628418,1630166,1630557,203078,203484,0022100689,1,409,412,0,0,1610612761
29,1610612761,1627783,1627832,1628449,1630173,1630567,1610612764,1628418,1630166,1630557,203078,203484,0022100689,1,421,429,0,2,1610612764
30,1610612761,1627783,1627832,1628449,1630173,1630567,1610612764,1628418,1630166,1630557,203078,203484,0022100689,1,429,437,2,0,1610612761
31,1610612761,1627783,1627832,1628449,1630173,1630567,1610612764,1628418,1630166,1630557,203078,203484,0022100689,1,455,472,0,0,1610612764
32,1610612761,1627832,1628449,1629139,1630173,1630567,1610612764,1628418,1629060,1630166,1630557,203078,0022100689,1,482,484,0,0,1610612761
33,1610612761,1627832,1628449,1629139,1630173,1630567,1610612764,1628418,1629060,1630166,1630557,203078,0022100689,1,492,497,0,2,1610612764
34,1610612761,1627832,1628449,1629139,1630173,1630567,1610612764,1628418,1629060,1630166,1630557,203078,0022100689,1,509,520,0,0,1610612761
35,1610612761,1627832,1628449,1629139,1630173,1630567,1610612764,1628418,1629060,1630166,1630557,203078,0022100689,1,529,529,0,2,1610612764
36,1610612761,1627832,1628449,1629139,1630173,1630567,1610612764,1628418,1629060,1630166,1630557,203078,0022100689,1,536,536,3,0,1610612761
37,1610612761,1627832,1628449,1629139,1630173,1630567,1610612764,1628418,1629060,1630166,1630557,203078,0022100689,1,554,561,0,0,1610612764
38,1610612761,1627832,1628384,1629139,1630173,1630567,1610612764,1628418,1629060,1630557,202722,203915,0022100689,1,568,576,0,0,1610612761
39,1610612761,1627832,1628384,1629139,1630173,1630567,1610612764,1628418,1629060,1630557,202722,203915,0022100689,1,590,590,0,2,1610612764
40,1610612761,1627832,1628384,1629139,1630173,1630567,1610612764,1628418,1629060,1630557,202722,203915,0022100689,1,606,609,0,0,1610612761
41,1610612761,1627832,1628384,1629139,1630173,1630567,1610612764,1628418,1629060,1630557,202722,203915,0022100689,1,622,625,0,0,1610612764
42,1610612761,1627832,1628384,1629139,1630173,1630567,1610612764,1628418,1629060,1630557,202722,203915,0022100689,1,633,633,2,0,1610612761
43,1610612761,1627832,1628384,1629139,1630173,1630567,1610612764,1628418,1629060,1630557,202722,203915,0022100689,1,648,648,0,2,1610612764
44,1610612761,1627832,1628384,1629139,1630173,1630567,1610612764,1628418,1629060,1630557,202722,203915,0022100689,1,663,663,3,0,1610612761
45,1610612761,1627832,1628384,1629139,1630173,1630567,1610612764,1628418,1629060,1630557,202722,203915,0022100689,1,678,696,0,2,1610612764
46,1610612761,1627832,1628384,1629139,1630173,1630567,1610612764,1628418,1629060,1630557,202722,203915,0022100689,1,707,710,0,0,1610612761
47,1610612761,1627832,1628384,1629139,1630173,1630567,1610612764,1628418,1629060,1630557,202722,203915,0022100689,1,720,720,0,0,1610612761
48,1610612761,1628384,1630567,1627783,1630173,1629139,1610612764,203915,1630557,1628418,1629060,202722,0022100689,2,720,739,0,0,1610612764
49,1610612761,1628384,1630567,1627783,1630173,1629139,1610612764,203915,1630557,1628418,1629060,202722,0022100689,2,746,747,0,0,1610612761
50,1610612761,1628384,1630567,1627783,1630173,1629139,1610612764,203915,1630557,1628418,1629060,202722,0022100689,2,765,770,0,0,1610612764
51,1610612761,1628384,1630567,1627783,1630173,1629139,1610612764,203915,1630557,1628418,1629060,202722,0022100689,2,788,791,0,0,1610612761
52,1610612761,1628384,1630567,1627783,1630173,1629139,1610612764,203915,1630557,1628418,1629060,202722,0022100689,2,796,799,0,0,1610612764
53,1610612761,1628384,1630567,1627783,1630173,1629139,1610612764,203915,1630557,1628418,1629060,202722,0022100689,2,802,814,0,0,1610612761
54,1610612761,1627783,1628384,1629018,1630173,1630567,1610612764,1626149,1629060,1630557,202722,203915,0022100689,2,831,831,0,2,1610612764
55,1610612761,1627783,1628384,1629018,1630173,1630567,1610612764,1626149,1629060,1630557,202722,203915,0022100689,2,847,847,2,0,1610612761
56,1610612761,1627783,1628384,1629018,1630173,1630567,1610612764,1626149,1629060,1630557,202722,203915,0022100689,2,863,863,0,2,1610612764
57,1610612761,1627783,1628384,1629018,1630173,1630567,1610612764,1626149,1629060,1630557,202722,203915,0022100689,2,878,878,3,0,1610612761
58,1610612761,1627783,1628384,1629018,1630173,1630567,1610612764,1626149,1629060,1630557,202722,203915,0022100689,2,902,902,0,2,1610612764
59,1610612761,1627783,1628384,1629018,1630173,1630567,1610612764,1626149,1629060,1630557,202722,203915,0022100689,2,919,922,0,0,1610612761
60,1610612761,1627783,1628384,1629018,1630173,1630567,1610612764,1626149,1629060,1630557,202722,203915,0022100689,2,930,940,0,2,1610612764
61,1610612761,1627783,1628384,1629018,1630173,1630551,1610612764,1626149,1629060,202722,203078,203915,0022100689,2,947,954,2,0,1610612761
62,1610612761,1627783,1628384,1629018,1630173,1630551,1610612764,1626149,1629060,202722,203078,203915,0022100689,2,972,972,0,2,1610612764
63,1610612761,1627783,1628384,1629018,1630173,1630551,1610612764,1626149,1629060,202722,203078,203915,0022100689,2,993,993,2,0,1610612761
64,1610612761,1627783,1628384,1629018,1630173,1630551,1610612764,1626149,1629060,202722,203078,203915,0022100689,2,1009,1009,0,0,1610612764
65,1610612761,1627783,1628384,1629018,1630173,1630551,1610612764,1626149,1629060,202722,203078,203915,0022100689,2,1009,1020,3,0,1610612761
66,1610612761,1627783,1627832,1629018,1630173,1630551,1610612764,1626149,1629060,1630166,202722,203078,0022100689,2,1041,1043,0,0,1610612764
67,1610612761,1627783,1627832,1629018,1630173,1630551,1610612764,1626149,1629060,1630166,202722,203078,0022100689,2,1046,1046,2,0,1610612761
68,1610612761,1627783,1627832,1629018,1630173,1630551,1610612764,1626149,1630166,1630557,203078,203484,0022100689,2,1052,1052,0,0,1610612764
69,1610612761,1627783,1627832,1628384,1629018,1630567,1610612764,1626149,1630166,1630557,203078,203484,0022100689,2,1069,1069,2,0,1610612761
70,1610612761,1627783,1627832,1628384,1629018,1630567,1610612764,1626149,1630166,1630557,203078,203484,0022100689,2,1085,1085,0,3,1610612764
71,1610612761,1627783,1627832,1628384,1629018,1630567,1610612764,1626149,1630166,1630557,203078,203484,0022100689,2,1104,1108,0,0,1610612761
72,1610612761,1627783,1627832,1628384,1629018,1630567,1610612764,1626149,1630166,1630557,203078,203484,0022100689,2,1111,1111,0,2,1610612764
73,1610612761,1627783,1627832,1628384,1629018,1630567,1610612764,1626149,1630166,1630557,203078,203484,0022100689,2,1123,1123,2,0,1610612761
74,1610612761,1627783,1627832,1628384,1629018,1630567,1610612764,1626149,1630166,1630557,203078,203484,0022100689,2,1139,1139,0,2,1610612764
75,1610612761,1627783,1627832,1628384,1629018,1630567,1610612764,1626149,1630166,1630557,203078,203484,0022100689,2,1148,1154,2,0,1610612761
76,1610612761,1627783,1627832,1628384,1629018,1630567,1610612764,1626149,1630166,1630557,203078,203484,0022100689,2,1168,1168,0,0,1610612764
77,1610612761,1627783,1627832,1628384,1629018,1630567,1610612764,1626149,1630166,1630557,203078,203484,0022100689,2,1181,1181,2,0,1610612761
78,1610612761,1627783,1627832,1628384,1629018,1630567,1610612764,1626149,1630166,1630557,203078,203484,0022100689,2,1193,1193,0,0,1610612764
79,1610612761,1627783,1627832,1628384,1629018,1630567,1610612764,1626149,1630166,203078,203484,203915,0022100689,2,1205,1205,2,0,1610612761
80,1610612761,1627783,1627832,1628384,1629018,1630567,1610612764,1626149,1630166,203078,203484,203915,0022100689,2,1219,1219,0,0,1610612764
81,1610612761,1627783,1627832,1628384,1629018,1630567,1610612764,1626149,1630166,203078,203484,203915,0022100689,2,1224,1229,3,0,1610612761
82,1610612761,1627783,1627832,1628384,1629018,1630567,1610612764,1626149,1630166,203078,203484,203915,0022100689,2,1244,1257,0,2,1610612764
83,1610612761,1627783,1627832,1628384,1629018,1630567,1610612764,1626149,1630166,203078,203484,203915,0022100689,2,1264,1264,0,0,1610612761
84,1610612761,1627783,1627832,1628384,1629018,1630567,1610612764,1626149,1630166,203078,203484,203915,0022100689,2,1264,1285,0,2,1610612764
85,1610612761,1627783,1627832,1628384,1628449,1630567,1610612764,1626149,1630166,203078,203484,203915,0022100689,2,1305,1305,2,0,1610612761
86,1610612761,1627783,1627832,1628384,1628449,1630567,1610612764,1626149,1630166,203078,203484,203915,0022100689,2,1324,1324,0,0,1610612764
87,1610612761,1627783,1627832,1628384,1628449,1630567,1610612764,1626149,1630166,203078,203484,203915,0022100689,2,1338,1341,0,0,1610612761
88,1610612761,1627783,1627832,1628384,1628449,1630567,1610612764,1626149,1630166,203078,203484,203915,0022100689,2,1346,1346,0,0,1610612764
89,1610612761,1627783,1627832,1628384,1628449,1630567,1610612764,1626149,1630166,203078,203484,203915,0022100689,2,1352,1352,2,0,1610612761
90,1610612761,1627783,1627832,1628384,1628449,1630567,1610612764,1626149,1630166,203078,203484,203915,0022100689,2,1359,1359,0,0,1610612764
91,1610612761,1627783,1627832,1628384,1628449,1630567,1610612764,1626149,1630166,203078,203484,203915,0022100689,2,1363,1363,2,0,1610612761
92,1610612761,1627783,1627832,1628384,1628449,1630567,1610612764,1626149,1630166,203078,203484,203915,0022100689,2,1382,1387,0,0,1610612764
93,1610612761,1627783,1627832,1628384,1628449,1630567,1610612764,1626149,1630166,203078,203484,203915,0022100689,2,1409,1409,2,0,1610612761
94,1610612761,1627783,1627832,1628384,1628449,1630567,1610612764,1626149,1630166,203078,203484,203915,0022100689,2,1432,1432,0,3,1610612764
95,1610612761,1628384,1630567,1627783,1629018,1627832,1610612764,203484,1630166,1629655,203078,203915,0022100689,3,1440,1456,0,2,1610612764
96,1610612761,1628384,1630567,1627783,1629018,1627832,1610612764,203484,1630166,1629655,203078,203915,0022100689,3,1482,1487,0,0,1610612761
97,1610612761,1628384,1630567,1627783,1629018,1627832,1610612764,203484,1630166,1629655,203078,203915,0022100689,3,1492,1492,0,2,1610612764
98,1610612761,1628384,1630567,1627783,1629018,1627832,1610612764,203484,1630166,1629655,203078,203915,0022100689,3,1507,1507,2,0,1610612761
99,1610612761,1628384,1630567,1627783,1629018,1627832,1610612764,203484,1630166,1629655,203078,203915,0022100689,3,1522,1522,0,0,1610612764
100,1610612761,1628384,1630567,1627783,1629018,1627832,1610612764,203484,1630166,1629655,203078,203915,0022100689,3,1534,1534,2,0,1610612761
101,1610612761,1628384,1630567,1627783,1629018,1627832,1610612764,203484,1630166,1629655,203078,203915,0022100689,3,1541,1547,0,2,1610612764
102,1610612761,1628384,1630567,1627783,1629018,1627832,1610612764,203484,1630166,1629655,203078,203915,0022100689,3,1553,1553,3,0,1610612761
103,1610612761,1628384,1630567,1627783,1629018,1627832,1610612764,203484,1630166,1629655,203078,203915,0022100689,3,1570,1570,0,3,1610612764
104,1610612761,1628384,1630567,1627783,1629018,1627832,1610612764,203484,1630166,1629655,203078,203915,0022100689,3,1578,1578,0,0,1610612761
105,1610612761,1628384,1630567,1627783,1629018,1627832,1610612764,203484,1630166,1629655,203078,203915,0022100689,3,1593,1597,0,0,1610612764
106,1610612761,1628384,1630567,1627783,1629018,1627832,1610612764,203484,1630166,1629655,203078,203915,0022100689,3,1616,1632,2,0,1610612761
107,1610612761,1628384,1630567,1627783,1629018,1627832,1610612764,203484,1630166,1629655,203078,203915,0022100689,3,1638,1640,0,0,1610612764
108,1610612761,1628384,1630567,1627783,1629018,1627832,1610612764,203484,1630166,1629655,203078,203915,0022100689,3,1640,1640,0,0,1610612761
109,1610612761,1628384,1630567,1627783,1629018,1627832,1610612764,203484,1630166,1629655,203078,203915,0022100689,3,1653,1653,0,3,1610612764
110,1610612761,1628384,1630567,1627783,1629018,1627832,1610612764,203484,1630166,1629655,203078,203915,0022100689,3,1683,1683,2,0,1610612761
111,1610612761,1628384,1630567,1627783,1629018,1627832,1610612764,203484,1630166,1629655,203078,203915,0022100689,3,1701,1707,0,0,1610612764
112,1610612761,1628384,1630567,1627783,1629018,1627832,1610612764,203484,1630166,1629655,203078,203915,0022100689,3,1718,1722,0,0,1610612761
113,1610612761,1628384,1630567,1627783,1629018,1627832,1610612764,203484,1630166,1629655,203078,203915,0022100689,3,1736,1736,0,3,1610612764
114,1610612761,1628384,1630567,1627783,1629018,1627832,1610612764,203484,1630166,1629655,203078,203915,0022100689,3,1745,1753,3,0,1610612761
115,1610612761,1627783,1627832,1628384,1628449,1629018,1610612764,1628418,1630166,203078,203484,203915,0022100689,3,1767,1767,0,2,1610612764
116,1610612761,1627783,1627832,1628384,1628449,1629018,1610612764,1628418,1630166,203078,203484,203915,0022100689,3,1787,1787,2,0,1610612761
117,1610612761,1627783,1627832,1628384,1628449,1629018,1610612764,1628418,1630166,203078,203484,203915,0022100689,3,1794,1798,0,0,1610612764
118,1610612761,1627783,1627832,1628384,1628449,1629018,1610612764,1628418,1630166,203078,203484,203915,0022100689,3,1804,1804,0,0,1610612761
119,1610612761,1627783,1627832,1628384,1628449,1629018,1610612764,1628418,1630166,203078,203484,203915,0022100689,3,1822,1825,0,0,1610612764
120,1610612761,1627783,1627832,1628384,1628449,1629018,1610612764,1628418,1630166,203078,203484,203915,0022100689,3,1837,1837,2,0,1610612761
121,1610612761,1627783,1627832,1628384,1628449,1629018,1610612764,1628418,1630166,203078,203484,203915,0022100689,3,1847,1855,0,0,1610612764
122,1610612761,1627783,1627832,1628449,1630173,1630567,1610612764,1628418,1629060,1630166,203078,203526,0022100689,3,1869,1869,3,0,1610612761
123,1610612761,1627783,1627832,1628449,1630173,1630567,1610612764,1628418,1629060,1630166,203078,203526,0022100689,3,1884,1884,0,0,1610612764
124,1610612761,1627783,1627832,1628449,1630173,1630567,1610612764,1628418,1629060,1630166,203078,203526,0022100689,3,1896,1899,1,0,1610612761
125,1610612761,1627783,1627832,1628449,1630173,1630567,1610612764,1628418,1629060,1630557,203078,203526,0022100689,3,1917,1920,0,0,1610612764
126,1610612761,1627783,1627832,1628449,1630173,1630567,1610612764,1628418,1629060,1630557,203078,203526,0022100689,3,1922,1922,3,0,1610612761
127,1610612761,1627783,1627832,1628449,1630173,1630567,1610612764,1628418,1629060,1630557,203078,203526,0022100689,3,1945,1945,0,2,1610612764
128,1610612761,1627783,1627832,1628449,1630173,1630567,1610612764,1628418,1629060,1630557,203078,203526,0022100689,3,1956,1959,0,0,1610612761
129,1610612761,1627783,1627832,1628449,1630173,1630567,1610612764,1628418,1629060,1630557,203078,203526,0022100689,3,1972,1972,0,3,1610612764
130,1610612761,1627783,1627832,1628449,1630173,1630567,1610612764,1628418,1629060,1630557,203078,203526,0022100689,3,1993,1993,2,0,1610612761
131,1610612761,1627783,1627832,1628449,1630173,1630567,1610612764,1628418,1629060,1630557,203078,203526,0022100689,3,2000,2004,0,0,1610612764
132,1610612761,1627783,1627832,1628449,1630173,1630567,1610612764,1628418,1629060,1630557,203078,203526,0022100689,3,2007,2011,0,0,1610612761
133,1610612761,1627783,1627832,1628449,1630173,1630567,1610612764,1628418,1629060,1630557,203078,203526,0022100689,3,2013,2017,0,0,1610612764
134,1610612761,1627783,1627832,1628449,1630173,1630567,1610612764,1628418,1629060,1630557,203078,203526,0022100689,3,2028,2028,3,0,1610612761
135,1610612761,1627832,1628384,1628449,1630173,1630567,1610612764,1628418,1629060,1630557,203526,203915,0022100689,3,2041,2044,0,0,1610612764
136,1610612761,1627832,1628384,1628449,1630173,1630567,1610612764,1628418,1629060,1630557,203526,203915,0022100689,3,2059,2064,3,0,1610612761
137,1610612761,1627832,1628384,1628449,1630173,1630567,1610612764,1628418,1629060,1630557,203526,203915,0022100689,3,2083,2086,0,0,1610612764
138,1610612761,1627832,1628384,1628449,1630173,1630567,1610612764,1628418,1629060,1630557,203526,203915,0022100689,3,2098,2098,3,0,1610612761
139,1610612761,1627832,1628384,1628449,1630173,1630567,1610612764,1628418,1629060,1630557,203526,203915,0022100689,3,2108,2115,0,1,1610612764
140,1610612761,1627832,1628384,1628449,1630173,1630567,1610612764,1628418,1629060,1630557,203526,203915,0022100689,3,2128,2129,0,0,1610612761
141,1610612761,1627832,1628384,1628449,1630173,1630567,1610612764,1628418,1629060,1630557,203526,203915,0022100689,3,2146,2149,0,0,1610612764
142,1610612761,1627832,1628384,1628449,1630173,1630567,1610612764,1628418,1629060,1630557,203526,203915,0022100689,3,2159,2159,0,0,1610612764
143,1610612761,1628384,1630567,1627783,1628449,1630173,1610612764,203078,203915,1629060,202722,1626149,0022100689,4,2160,2173,2,0,1610612761
144,1610612761,1628384,1630567,1627783,1628449,1630173,1610612764,203078,203915,1629060,202722,1626149,0022100689,4,2200,2204,0,0,1610612764
145,1610612761,1628384,1630567,1627783,1628449,1630173,1610612764,203078,203915,1629060,202722,1626149,0022100689,4,2220,2220,2,0,1610612761
146,1610612761,1628384,1630567,1627783,1628449,1630173,1610612764,203078,203915,1629060,202722,1626149,0022100689,4,2240,2240,0,3,1610612764
147,1610612761,1628384,1630567,1627783,1628449,1630173,1610612764,203078,203915,1629060,202722,1626149,0022100689,4,2260,2263,0,0,1610612761
148,1610612761,1628384,1630567,1627783,1628449,1630173,1610612764,203078,203915,1629060,202722,1626149,0022100689,4,2266,2275,0,0,1610612764
149,1610612761,1628384,1630567,1627783,1628449,1630173,1610612764,203078,203915,1629060,202722,1626149,0022100689,4,2284,2297,0,0,1610612761
150,1610612761,1628384,1630567,1627783,1628449,1630173,1610612764,203078,203915,1629060,202722,1626149,0022100689,4,2303,2306,0,2,1610612764
151,1610612761,1628384,1630567,1627783,1628449,1630173,1610612764,203078,203915,1629060,202722,1626149,0022100689,4,2323,2326,0,0,1610612761
152,1610612761,1628384,1630567,1627783,1628449,1630173,1610612764,203078,203915,1629060,202722,1626149,0022100689,4,2331,2331,0,2,1610612764
153,1610612761,1628384,1630567,1627783,1628449,1630173,1610612764,203078,203915,1629060,202722,1626149,0022100689,4,2332,2354,2,0,1610612761
154,1610612761,1627783,1628384,1628449,1629018,1630567,1610612764,203078,203915,1629060,202722,1626149,0022100689,4,2368,2368,0,2,1610612764
155,1610612761,1627783,1628384,1628449,1629018,1630567,1610612764,203078,203915,1629060,202722,1626149,0022100689,4,2393,2395,0,0,1610612761
156,1610612761,1627783,1628384,1628449,1629018,1630567,1610612764,203078,203915,1629060,202722,1626149,0022100689,4,2404,2408,0,0,1610612764
157,1610612761,1627783,1628384,1628449,1629018,1630567,1610612764,203078,203915,1629060,202722,1626149,0022100689,4,2410,2422,0,0,1610612761
158,1610612761,1627783,1627832,1628384,1629018,1630567,1610612764,203078,203915,1629060,202722,1626149,0022100689,4,2438,2438,0,0,1610612764
159,1610612761,1627783,1627832,1628384,1629018,1630567,1610612764,203078,203915,1629060,202722,1626149,0022100689,4,2446,2449,2,0,1610612761
160,1610612761,1627783,1627832,1628384,1629018,1630567,1610612764,1626149,1630166,203078,203484,203915,0022100689,4,2469,2469,0,3,1610612764
161,1610612761,1627783,1627832,1628384,1629018,1630567,1610612764,1626149,1630166,203078,203484,203915,0022100689,4,2498,2501,0,0,1610612761
162,1610612761,1627783,1627832,1628384,1629018,1630567,1610612764,1626149,1630166,203078,203484,203915,0022100689,4,2506,2506,0,2,1610612764
163,1610612761,1627783,1627832,1628384,1629018,1630567,1610612764,1626149,1630166,203078,203484,203915,0022100689,4,2526,2529,0,0,1610612761
164,1610612761,1627783,1627832,1628384,1629018,1630567,1610612764,1626149,1630166,203078,203484,203915,0022100689,4,2533,2533,0,2,1610612764
165,1610612761,1627783,1627832,1628384,1629018,1630567,1610612764,1626149,1630166,203078,203484,203915,0022100689,4,2533,2549,2,0,1610612761
166,1610612761,1627783,1627832,1628384,1629018,1630567,1610612764,1626149,1630166,203078,203484,203915,0022100689,4,2564,2564,0,2,1610612764
167,1610612761,1627783,1627832,1628384,1629018,1630567,1610612764,1626149,1630166,203078,203484,203915,0022100689,4,2589,2592,0,0,1610612761
168,1610612761,1627783,1627832,1628384,1629018,1630567,1610612764,1626149,1630166,203078,203484,203915,0022100689,4,2607,2607,0,2,1610612764
169,1610612761,1627783,1627832,1628384,1629018,1630567,1610612764,1626149,1630166,203078,203484,203915,0022100689,4,2620,2620,1,0,1610612761
170,1610612761,1627783,1627832,1628384,1629018,1630567,1610612764,1626149,1630166,203078,203484,203915,0022100689,4,2640,2647,0,0,1610612764
171,1610612761,1627783,1627832,1628384,1629018,1630567,1610612764,1626149,1630166,203078,203484,203915,0022100689,4,2665,2673,0,0,1610612761
172,1610612761,1627783,1627832,1628384,1629018,1630567,1610612764,1626149,1630166,203078,203484,203915,0022100689,4,2689,2689,0,0,1610612764
173,1610612761,1627783,1627832,1628384,1629018,1630567,1610612764,1626149,1630166,203078,203484,203915,0022100689,4,2711,2725,0,0,1610612761
174,1610612761,1627783,1627832,1628384,1629018,1630567,1610612764,1626149,1630166,203078,203484,203915,0022100689,4,2747,2750,0,0,1610612764
175,1610612761,1627783,1627832,1628384,1629018,1630567,1610612764,1626149,1630166,203078,203484,203915,0022100689,4,2752,2771,0,0,1610612761
176,1610612761,1627783,1627832,1628384,1628449,1630567,1610612764,1626149,1630166,203078,203484,203915,0022100689,4,2779,2781,0,3,1610612764
177,1610612761,1627783,1627832,1628384,1628449,1630567,1610612764,1626149,1630166,203078,203484,203915,0022100689,4,2807,2809,0,0,1610612761
178,1610612761,1627783,1627832,1628384,1628449,1630567,1610612764,1626149,1630166,203078,203484,203915,0022100689,4,2810,2810,0,2,1610612764
179,1610612761,1627783,1627832,1628384,1628449,1630567,1610612764,1626149,1630166,203078,203484,203915,0022100689,4,2810,2821,3,0,1610612761
180,1610612761,1627783,1627832,1628384,1629018,1630567,1610612764,1626149,1630166,203078,203484,203915,0022100689,4,2833,2837,0,0,1610612764
181,1610612761,1627783,1627832,1628384,1629018,1630567,1610612764,1626149,1630166,203078,203484,203915,0022100689,4,2858,2860,2,0,1610612761
182,1610612761,1627783,1627832,1628384,1629018,1630567,1610612764,1626149,1630166,203078,203484,203915,0022100689,4,2860,2862,0,0,1610612764
183,1610612761,1627783,1627832,1628384,1629018,1630567,1610612764,1626149,1630166,203078,203484,203915,0022100689,4,2871,2871,2,0,1610612761
184,1610612761,1627783,1627832,1628384,1629018,1630567,1610612764,1626149,1630166,203078,203484,203915,0022100689,4,2876,2876,0,3,1610612764
