,t2_pm,t1_players,stint_end,t2_points_scored,stint_start,t1_points_scored,t1_id,t2_id,t2_players,t1_pm,margin_per_100,num_poss
0,5,"[203114, 203507, 1626171, 1628960, 201950]",291,11,0,6,1610612749,1610612744,"[1629673, 203952, 1626172, 202691, 201939]",-5,-22.727272727272727,22.0
1,5,"[203114, 203507, 1626171, 1628960, 201950]",315,11,292,6,1610612749,1610612744,"[1629673, 203952, 1626172, 202691, 201939]",-5,-21.73913043478261,23.0
2,2,"[1626171, 1628960, 1628975, 203114, 203507]",370,13,316,11,1610612749,1610612744,"[1629673, 203952, 1626172, 202691, 201939]",-2,-7.4074074074074066,27.0
3,1,"[1628960, 1628975, 202083, 203114, 203507]",489,15,371,14,1610612749,1610612744,"[1629673, 203952, 1626172, 202691, 201939]",-1,-2.857142857142857,35.0
4,5,"[1628960, 1628975, 201586, 202083, 203114]",516,19,490,14,1610612749,1610612744,"[1626172, 1630228, 1630541, 201939, 203952]",-5,-13.157894736842104,38.0
5,-1,"[1628975, 201586, 201950, 202083, 203114]",607,24,517,25,1610612749,1610612744,"[1630228, 1630541, 201939, 202357, 202691]",1,2.2222222222222223,45.0
6,0,"[1629670, 201586, 201950, 202083, 203114]",716,28,608,28,1610612749,1610612744,"[1630228, 1630541, 201939, 202357, 202691]",0,0.0,51.0
7,3,"[1626171, 1629670, 201586, 201950, 202083]",940,43,717,40,1610612749,1610612744,"[1629673, 1630228, 1630541, 202357, 202691]",-3,-4.477611940298507,67.0
8,9,"[203507, 1626171, 1628960, 201950, 1629670]",1071,50,941,41,1610612749,1610612744,"[1629673, 203952, 202691, 1630228, 202357]",-9,-12.32876712328767,73.0
9,9,"[1628960, 1628975, 202083, 203114, 203507]",1112,52,1072,43,1610612749,1610612744,"[1629673, 203952, 202691, 1630228, 202357]",-9,-11.842105263157894,76.0
10,11,"[1627761, 1628975, 202083, 203114, 203507]",1168,54,1113,43,1610612749,1610612744,"[1626172, 1630228, 1630541, 201939, 202691]",-11,-13.750000000000002,80.0
11,11,"[1627761, 1628975, 202083, 203114, 203507]",1175,54,1169,43,1610612749,1610612744,"[1626172, 1630228, 1630541, 201939, 203952]",-11,-13.580246913580247,81.0
12,8,"[1627761, 1628975, 201950, 203114, 203507]",1234,56,1176,48,1610612749,1610612744,"[1626172, 1630228, 1630541, 201939, 203952]",-8,-9.411764705882353,85.0
13,8,"[1627761, 1628975, 201950, 203114, 203507]",1375,62,1235,54,1610612749,1610612744,"[1626172, 1629673, 1630541, 201939, 203952]",-8,-8.421052631578947,95.0
14,7,"[1628975, 201586, 201950, 203114, 203507]",1405,65,1376,58,1610612749,1610612744,"[1626172, 1629673, 1630541, 201939, 203952]",-7,-7.142857142857142,98.0
15,9,"[201586, 201950, 202083, 203114, 203507]",1439,67,1406,58,1610612749,1610612744,"[1626172, 1629673, 201939, 202691, 203952]",-9,-8.91089108910891,101.0
16,20,"[1626171, 1628960, 201950, 202083, 203114]",1556,78,1440,58,1610612749,1610612744,"[1629673, 1630228, 201939, 202691, 203952]",-20,-18.34862385321101,109.0
17,19,"[203114, 203507, 1626171, 1628960, 201950]",1810,88,1557,69,1610612749,1610612744,"[1629673, 203952, 1626172, 202691, 201939]",-19,-15.2,125.0
18,17,"[1626171, 201950, 202083, 203114, 203507]",1820,88,1811,71,1610612749,1610612744,"[1629673, 203952, 1626172, 202691, 201939]",-17,-13.492063492063492,126.0
19,14,"[1628975, 201950, 202083, 203114, 203507]",1882,88,1821,74,1610612749,1610612744,"[1626172, 1630228, 1630541, 201939, 203952]",-14,-10.852713178294573,129.0
20,17,"[1628975, 201950, 202083, 203114, 203507]",1936,93,1883,76,1610612749,1610612744,"[1630228, 1630541, 201939, 202357, 203952]",-17,-12.781954887218044,133.0
21,12,"[1628975, 201950, 202083, 203114, 203507]",2008,93,1937,81,1610612749,1610612744,"[1630228, 1630541, 201939, 202357, 202691]",-12,-8.695652173913043,138.0
22,19,"[1627761, 1628975, 201950, 202083, 203507]",2158,103,2009,84,1610612749,1610612744,"[1629673, 1630228, 201939, 202357, 202691]",-19,-12.925170068027212,147.0
23,17,"[1628960, 1628975, 201950, 202083, 203507]",2409,112,2159,95,1610612749,1610612744,"[1629673, 1630228, 201939, 202357, 202691]",-17,-10.429447852760736,163.0
24,17,"[203114, 1626171, 1628960, 1628975, 201586]",2506,114,2410,97,1610612749,1610612744,"[1629673, 203952, 202691, 1630228, 202357]",-17,-10.059171597633137,169.0
25,15,"[1628960, 201586, 201950, 203114, 203507]",2532,114,2507,99,1610612749,1610612744,"[1630228, 1630541, 201939, 202357, 203952]",-15,-8.771929824561402,171.0
26,18,"[201586, 201950, 202083, 203114, 203507]",2601,117,2533,99,1610612749,1610612744,"[1630228, 1630541, 201939, 202357, 203952]",-18,-10.285714285714285,175.0
27,18,"[201586, 201950, 202083, 203114, 203507]",2629,117,2602,99,1610612749,1610612744,"[1626172, 1629673, 1630228, 201939, 203952]",-18,-10.227272727272728,176.0
28,20,"[1628975, 201586, 201950, 203114, 203507]",2673,119,2630,99,1610612749,1610612744,"[1626172, 1629673, 1630228, 201939, 203952]",-20,-11.11111111111111,180.0
29,20,"[1628975, 201586, 201950, 203114, 203507]",2702,119,2674,99,1610612749,1610612744,"[1626172, 1629673, 201939, 202691, 203952]",-20,-10.989010989010989,182.0
30,13,"[1628960, 1628975, 1629670, 1630572, 203648]",2876,122,2703,109,1610612749,1610612744,"[1626172, 1629673, 201939, 202691, 203952]",-13,-6.770833333333333,192.0
31,13,"[1628960, 1628975, 1629670, 1630572, 203648]",9999999,122,2877,109,1610612749,1610612744,"[1627814, 1629185, 1629308, 1629683, 1630541]",-13,-6.7357512953367875,193.0
