,team1_id,team1_player1,team1_player2,team1_player3,team1_player4,team1_player5,team2_id,team2_player1,team2_player2,team2_player3,team2_player4,team2_player5,game_id,period,possession_start,possession_end,team1_points,team2_points,possession_team
0,1610612751,203925,201142,201599,203915,202681,1610612738,1628369,202684,1628464,1627759,203935,0022000007,1,0,27,0,0,1610612751
1,1610612751,203925,201142,201599,203915,202681,1610612738,1628369,202684,1628464,1627759,203935,0022000007,1,46,57,0,0,1610612738
2,1610612751,203925,201142,201599,203915,202681,1610612738,1628369,202684,1628464,1627759,203935,0022000007,1,58,73,0,0,1610612751
3,1610612751,203925,201142,201599,203915,202681,1610612738,1628369,202684,1628464,1627759,203935,0022000007,1,77,80,0,0,1610612738
4,1610612751,203925,201142,201599,203915,202681,1610612738,1628369,202684,1628464,1627759,203935,0022000007,1,85,87,0,0,1610612751
5,1610612751,203925,201142,201599,203915,202681,1610612738,1628369,202684,1628464,1627759,203935,0022000007,1,99,109,0,0,1610612738
6,1610612751,203925,201142,201599,203915,202681,1610612738,1628369,202684,1628464,1627759,203935,0022000007,1,120,120,2,0,1610612751
7,1610612751,203925,201142,201599,203915,202681,1610612738,1628369,202684,1628464,1627759,203935,0022000007,1,141,144,0,2,1610612738
8,1610612751,203925,201142,201599,203915,202681,1610612738,1628369,202684,1628464,1627759,203935,0022000007,1,166,166,3,0,1610612751
9,1610612751,203925,201142,201599,203915,202681,1610612738,1628369,202684,1628464,1627759,203935,0022000007,1,175,175,0,2,1610612738
10,1610612751,203925,201142,201599,203915,202681,1610612738,1628369,202684,1628464,1627759,203935,0022000007,1,186,186,2,0,1610612751
11,1610612751,203925,201142,201599,203915,202681,1610612738,1628369,202684,1628464,1627759,203935,0022000007,1,213,216,0,0,1610612738
12,1610612751,203925,201142,201599,203915,202681,1610612738,1628369,202684,1628464,1627759,203935,0022000007,1,220,225,3,0,1610612751
13,1610612751,203925,201142,201599,203915,202681,1610612738,1628369,202684,1628464,1627759,203935,0022000007,1,248,248,0,3,1610612738
14,1610612751,203925,201142,201599,203915,202681,1610612738,1628369,202684,1628464,1627759,203935,0022000007,1,257,260,0,0,1610612751
15,1610612751,203925,201142,201599,203915,202681,1610612738,1628369,202684,1628464,1627759,203935,0022000007,1,274,274,0,2,1610612738
16,1610612751,203925,201142,201599,203915,202681,1610612738,1628369,202684,1628464,1627759,203935,0022000007,1,283,285,1,0,1610612751
17,1610612751,203925,201142,201599,203915,202681,1610612738,1627759,1628369,1628464,201952,203935,0022000007,1,301,304,0,0,1610612738
18,1610612751,203925,201142,201599,203915,202681,1610612738,1627759,1628369,1628464,201952,203935,0022000007,1,308,311,0,0,1610612751
19,1610612751,203925,201142,201599,203915,202681,1610612738,1627759,1628369,1628464,201952,203935,0022000007,1,315,332,0,0,1610612738
20,1610612751,203925,201142,201599,203915,202681,1610612738,1627759,1628369,1628464,201952,203935,0022000007,1,338,338,0,0,1610612751
21,1610612751,203925,201142,201599,203915,202681,1610612738,1627759,1628369,1628464,201952,203935,0022000007,1,358,363,0,0,1610612738
22,1610612751,1628386,201142,202681,203915,203925,1610612738,1627759,1628369,1628464,201952,203935,0022000007,1,371,371,2,0,1610612751
23,1610612751,1628386,201142,202681,203915,203925,1610612738,1627759,1628369,1628464,201952,203935,0022000007,1,391,391,0,3,1610612738
24,1610612751,1628386,201142,202681,203915,203925,1610612738,1627759,1628369,1628464,201952,203935,0022000007,1,404,404,2,0,1610612751
25,1610612751,1628386,201142,202681,203915,203925,1610612738,1627759,1628464,1629684,201952,203935,0022000007,1,425,425,0,0,1610612738
26,1610612751,1628386,201142,202681,203915,203925,1610612738,1627759,1628464,1629684,201952,203935,0022000007,1,430,435,0,0,1610612751
27,1610612751,1628386,201142,202681,203915,203925,1610612738,1627759,1628464,1629684,201952,203935,0022000007,1,448,451,0,2,1610612738
28,1610612751,1627747,1628386,1629013,201142,202681,1610612738,1627759,1628464,1629684,201952,203935,0022000007,1,467,467,3,0,1610612751
29,1610612751,1627747,1628386,1629013,201142,202681,1610612738,1627759,1628464,1629684,201952,203935,0022000007,1,467,467,3,0,1610612751
30,1610612751,1627747,1628386,1629013,201142,202681,1610612738,1627759,1628464,1629684,201952,203935,0022000007,1,478,478,0,0,1610612738
31,1610612751,1627747,1628386,1629013,201142,202681,1610612738,1627759,1628464,1629684,201952,203935,0022000007,1,486,500,0,0,1610612751
32,1610612751,1627747,1628386,1629013,201142,202681,1610612738,1627759,1629684,201952,202684,203935,0022000007,1,507,507,0,0,1610612738
33,1610612751,1627747,1627752,1628386,1629013,201145,1610612738,1627759,1629684,201952,202684,203935,0022000007,1,520,523,0,0,1610612751
34,1610612751,1627747,1627752,1628386,1629013,201145,1610612738,1627759,1629684,201952,202684,203935,0022000007,1,534,537,0,0,1610612738
35,1610612751,1627747,1627752,1628386,1629013,201145,1610612738,1627759,1629684,201952,202684,203935,0022000007,1,542,542,0,0,1610612751
36,1610612751,1627747,1627752,1628386,1629013,201145,1610612738,1628369,1629684,1630202,201952,202684,0022000007,1,563,563,0,3,1610612738
37,1610612751,1627747,1627752,1628386,1629013,201145,1610612738,1628369,1629684,1630202,201952,202684,0022000007,1,577,581,2,0,1610612751
38,1610612751,1627747,1627752,1628386,1629013,201145,1610612738,1628369,1629684,1630202,201952,202684,0022000007,1,596,602,0,2,1610612738
39,1610612751,1627747,1627752,1628386,1629013,201145,1610612738,1628369,1629684,1630202,201952,202684,0022000007,1,614,615,0,0,1610612751
40,1610612751,1627747,1627752,1628386,1629013,201145,1610612738,1628369,1629684,1630202,201952,202684,0022000007,1,622,632,0,0,1610612738
41,1610612751,1627747,1627752,1628386,1629013,201145,1610612738,1628369,1629684,1630202,201952,202684,0022000007,1,632,632,2,0,1610612751
42,1610612751,1627747,1627752,1628386,1629013,201145,1610612738,1628369,1629684,1630202,201952,202684,0022000007,1,648,648,0,0,1610612738
43,1610612751,1627747,1627752,1628386,1629013,201145,1610612738,1628369,1629684,1630202,201952,202684,0022000007,1,658,658,0,0,1610612751
44,1610612751,1627747,1627752,1628386,1629013,201145,1610612738,1628369,1628400,1629684,1630202,201952,0022000007,1,673,673,0,1,1610612738
45,1610612751,1627747,1629013,201142,201145,202681,1610612738,1628369,1628400,1629684,1630202,201952,0022000007,1,686,686,2,0,1610612751
46,1610612751,1627747,1629013,201142,201145,202681,1610612738,1628369,1628400,1629684,1630202,201952,0022000007,1,694,694,0,2,1610612738
47,1610612751,1627747,1629013,201142,201145,202681,1610612738,1628369,1628400,1629684,201952,203935,0022000007,1,717,719,2,0,1610612751
48,1610612751,1627747,1629013,201142,201145,202681,1610612738,1628369,1628400,1629684,201952,203935,0022000007,1,720,720,0,0,1610612751
49,1610612751,1628386,1629013,1627747,1627752,201145,1610612738,1628369,201952,1629684,1630202,1628400,0022000007,2,720,742,0,0,1610612738
50,1610612751,1628386,1629013,1627747,1627752,201145,1610612738,1628369,201952,1629684,1630202,1628400,0022000007,2,748,748,0,0,1610612751
51,1610612751,1628386,1629013,1627747,1627752,201145,1610612738,1628369,201952,1629684,1630202,1628400,0022000007,2,758,758,0,2,1610612738
52,1610612751,1628386,1629013,1627747,1627752,201145,1610612738,1628369,201952,1629684,1630202,1628400,0022000007,2,773,773,0,0,1610612751
53,1610612751,1628386,1629013,1627747,1627752,201145,1610612738,1628369,201952,1629684,1630202,1628400,0022000007,2,788,788,0,2,1610612738
54,1610612751,1628386,1629013,1627747,1627752,201145,1610612738,1628369,201952,1629684,1630202,1628400,0022000007,2,796,798,1,0,1610612751
55,1610612751,1628386,1629013,1627747,1627752,201145,1610612738,1628369,201952,1629684,1630202,1628400,0022000007,2,809,813,0,2,1610612738
56,1610612751,1628386,1629013,1627747,1627752,201145,1610612738,1628369,201952,1629684,1630202,1628400,0022000007,2,821,829,3,0,1610612751
57,1610612751,1628386,1629013,1627747,1627752,201145,1610612738,1628369,201952,1629684,1630202,1628400,0022000007,2,847,849,0,0,1610612738
58,1610612751,1628386,1629013,1627747,1627752,201145,1610612738,1628369,201952,1629684,1630202,1628400,0022000007,2,852,852,0,0,1610612751
59,1610612751,1627747,1627752,1629013,201599,203915,1610612738,1628369,201952,1629684,1630202,1628400,0022000007,2,869,869,0,2,1610612738
60,1610612751,1627747,1627752,1629013,201599,203915,1610612738,1628369,201952,1629684,1630202,1628400,0022000007,2,878,878,0,0,1610612751
61,1610612751,1627747,1627752,1629013,201599,203915,1610612738,1628369,201952,1629684,1630202,1628400,0022000007,2,882,884,0,2,1610612738
62,1610612751,1627747,1627752,1629013,201599,203915,1610612738,1628369,201952,1629684,1630202,1628400,0022000007,2,892,900,2,0,1610612751
63,1610612751,1627747,1627752,1629013,201599,203915,1610612738,1628369,1628400,1628464,1630202,201952,0022000007,2,919,919,0,3,1610612738
64,1610612751,1627747,1627752,1629013,201599,203915,1610612738,1628369,1628400,1628464,1630202,201952,0022000007,2,936,936,0,0,1610612751
65,1610612751,1627747,1627752,1629013,201599,203915,1610612738,1628369,1628400,1628464,1630202,201952,0022000007,2,954,960,0,2,1610612738
66,1610612751,1627747,1627752,1629013,201599,203915,1610612738,1628369,1628400,1628464,1630202,201952,0022000007,2,977,977,0,0,1610612751
67,1610612751,1627747,1627752,1629013,201599,203915,1610612738,1628369,1628400,1628464,1630202,201952,0022000007,2,987,988,0,0,1610612738
68,1610612751,1627747,1627752,1629013,201599,203915,1610612738,1628369,1628400,1628464,1630202,201952,0022000007,2,988,1020,0,0,1610612751
69,1610612751,201142,201599,202681,203915,203925,1610612738,1627759,1628400,1628464,1630202,203935,0022000007,2,1020,1044,0,0,1610612738
70,1610612751,201142,201599,202681,203915,203925,1610612738,1627759,1628400,1628464,1630202,203935,0022000007,2,1056,1056,2,0,1610612751
71,1610612751,201142,201599,202681,203915,203925,1610612738,1627759,1628400,1628464,1630202,203935,0022000007,2,1076,1076,0,2,1610612738
72,1610612751,201142,201599,202681,203915,203925,1610612738,1627759,1628400,1628464,1630202,203935,0022000007,2,1093,1093,0,0,1610612751
73,1610612751,201142,201599,202681,203915,203925,1610612738,1627759,1628400,1628464,1630202,203935,0022000007,2,1098,1102,0,0,1610612738
74,1610612751,201142,201599,202681,203915,203925,1610612738,1627759,1628400,1628464,1630202,203935,0022000007,2,1111,1111,2,0,1610612751
75,1610612751,201142,201599,202681,203915,203925,1610612738,1627759,1628400,1628464,1630202,203935,0022000007,2,1135,1135,0,0,1610612738
76,1610612751,201142,201599,202681,203915,203925,1610612738,1627759,1628400,1628464,1630202,203935,0022000007,2,1139,1141,0,0,1610612751
77,1610612751,201142,201599,202681,203915,203925,1610612738,1627759,1628400,1628464,1630202,203935,0022000007,2,1148,1154,0,2,1610612738
78,1610612751,201142,201599,202681,203915,203925,1610612738,1627759,1628369,1628464,1629684,203935,0022000007,2,1164,1167,0,0,1610612751
79,1610612751,201142,201599,202681,203915,203925,1610612738,1627759,1628369,1628464,1629684,203935,0022000007,2,1173,1173,0,0,1610612738
80,1610612751,201142,201599,202681,203915,203925,1610612738,1627759,1628369,1628464,1629684,203935,0022000007,2,1183,1189,2,0,1610612751
81,1610612751,201142,201599,202681,203915,203925,1610612738,1627759,1628369,1628400,1629684,203935,0022000007,2,1205,1212,1,2,1610612738
82,1610612751,201142,201145,202681,203915,203925,1610612738,1627759,1628369,1628400,1629684,203935,0022000007,2,1223,1223,3,0,1610612751
83,1610612751,201142,201145,202681,203915,203925,1610612738,1627759,1628369,1628400,1629684,203935,0022000007,2,1228,1242,0,0,1610612738
84,1610612751,201142,201145,202681,203915,203925,1610612738,1627759,1628369,1628400,1629684,203935,0022000007,2,1245,1245,3,0,1610612751
85,1610612751,201142,201145,202681,203915,203925,1610612738,1627759,1628369,1628400,1629684,203935,0022000007,2,1259,1259,0,0,1610612738
86,1610612751,201142,201145,202681,203915,203925,1610612738,1627759,1628369,1628400,1629684,203935,0022000007,2,1260,1260,0,0,1610612751
87,1610612751,201142,201145,202681,203915,203925,1610612738,1627759,1628369,1628400,1629684,203935,0022000007,2,1264,1264,0,1,1610612738
88,1610612751,201142,201145,202681,203915,203925,1610612738,1627759,1628369,1629684,201952,203935,0022000007,2,1273,1277,0,0,1610612751
89,1610612751,201142,201145,202681,203915,203925,1610612738,1627759,1628369,1629684,201952,203935,0022000007,2,1300,1300,0,3,1610612738
90,1610612751,201142,201145,202681,203915,203925,1610612738,1627759,1628369,1629684,201952,203935,0022000007,2,1317,1320,0,0,1610612751
91,1610612751,201142,201145,202681,203915,203925,1610612738,1627759,1628369,1629684,201952,203935,0022000007,2,1324,1324,0,0,1610612738
92,1610612751,201142,201145,202681,203915,203925,1610612738,1627759,1628369,1629684,201952,203935,0022000007,2,1327,1327,2,0,1610612751
93,1610612751,201142,201145,202681,203915,203925,1610612738,1627759,1628369,1629684,201952,203935,0022000007,2,1339,1339,0,2,1610612738
94,1610612751,201142,201145,202681,203915,203925,1610612738,1627759,1628369,1629684,201952,203935,0022000007,2,1352,1352,2,0,1610612751
95,1610612751,201142,201145,202681,203915,203925,1610612738,1627759,1628369,1629684,201952,203935,0022000007,2,1375,1375,0,2,1610612738
96,1610612751,201142,201145,202681,203915,203925,1610612738,1627759,1628369,1629684,201952,203935,0022000007,2,1385,1385,2,0,1610612751
97,1610612751,201142,201145,202681,203915,203925,1610612738,1628369,1629684,1630202,201952,203935,0022000007,2,1399,1399,0,3,1610612738
98,1610612751,201142,201145,202681,203915,203925,1610612738,1628369,1629684,1630202,201952,203935,0022000007,2,1405,1407,0,0,1610612751
99,1610612751,201142,201145,202681,203915,203925,1610612738,1628369,1629684,1630202,201952,203935,0022000007,2,1428,1428,0,0,1610612738
100,1610612751,201142,201145,202681,203915,203925,1610612738,1628369,1629684,1630202,201952,203935,0022000007,2,1432,1432,0,0,1610612751
101,1610612751,201142,201145,202681,203915,203925,1610612738,1628369,1629684,1630202,201952,203935,0022000007,2,1437,1440,0,0,1610612738
102,1610612751,203925,201142,201599,203915,202681,1610612738,1628369,202684,1628464,1627759,203935,0022000007,3,1440,1455,0,0,1610612738
103,1610612751,203925,201142,201599,203915,202681,1610612738,1628369,202684,1628464,1627759,203935,0022000007,3,1461,1461,3,0,1610612751
104,1610612751,203925,201142,201599,203915,202681,1610612738,1628369,202684,1628464,1627759,203935,0022000007,3,1488,1488,0,3,1610612738
105,1610612751,203925,201142,201599,203915,202681,1610612738,1628369,202684,1628464,1627759,203935,0022000007,3,1506,1506,2,0,1610612751
106,1610612751,203925,201142,201599,203915,202681,1610612738,1628369,202684,1628464,1627759,203935,0022000007,3,1517,1517,0,2,1610612738
107,1610612751,203925,201142,201599,203915,202681,1610612738,1628369,202684,1628464,1627759,203935,0022000007,3,1525,1532,0,0,1610612751
108,1610612751,203925,201142,201599,203915,202681,1610612738,1628369,202684,1628464,1627759,203935,0022000007,3,1545,1545,0,0,1610612738
109,1610612751,203925,201142,201599,203915,202681,1610612738,1628369,202684,1628464,1627759,203935,0022000007,3,1554,1554,2,0,1610612751
110,1610612751,203925,201142,201599,203915,202681,1610612738,1628369,202684,1628464,1627759,203935,0022000007,3,1569,1582,0,0,1610612738
111,1610612751,203925,201142,201599,203915,202681,1610612738,1628369,202684,1628464,1627759,203935,0022000007,3,1590,1590,2,0,1610612751
112,1610612751,203925,201142,201599,203915,202681,1610612738,1628369,202684,1628464,1627759,203935,0022000007,3,1604,1617,0,2,1610612738
113,1610612751,203925,201142,201599,203915,202681,1610612738,1627759,1628369,1629684,202684,203935,0022000007,3,1630,1630,3,0,1610612751
114,1610612751,203925,201142,201599,203915,202681,1610612738,1627759,1628369,1629684,202684,203935,0022000007,3,1653,1656,0,0,1610612738
115,1610612751,203925,201142,201599,203915,202681,1610612738,1627759,1628369,1629684,202684,203935,0022000007,3,1658,1660,1,0,1610612751
116,1610612751,203925,201142,201599,203915,202681,1610612738,1627759,1628369,1629684,202684,203935,0022000007,3,1672,1672,0,2,1610612738
117,1610612751,203925,201142,201599,203915,202681,1610612738,1627759,1628369,1629684,202684,203935,0022000007,3,1692,1692,2,0,1610612751
118,1610612751,203925,201142,201599,203915,202681,1610612738,1627759,1628369,1629684,202684,203935,0022000007,3,1722,1724,0,0,1610612738
119,1610612751,203925,201142,201599,203915,202681,1610612738,1627759,1628369,1629684,202684,203935,0022000007,3,1730,1730,2,0,1610612751
120,1610612751,203925,201142,201599,203915,202681,1610612738,1627759,1628369,1629684,202684,203935,0022000007,3,1741,1752,0,0,1610612738
121,1610612751,203925,201142,201599,203915,202681,1610612738,1627759,1628369,1629684,202684,203935,0022000007,3,1765,1765,3,0,1610612751
122,1610612751,203925,201142,201599,203915,202681,1610612738,1627759,1628369,1629684,202684,203935,0022000007,3,1786,1787,0,2,1610612738
123,1610612751,203925,201142,201599,203915,202681,1610612738,1627759,1629750,1630202,202684,203935,0022000007,3,1798,1802,0,0,1610612751
124,1610612751,203925,201142,201599,203915,202681,1610612738,1627759,1629750,1630202,202684,203935,0022000007,3,1814,1816,0,0,1610612738
125,1610612751,203925,201142,201599,203915,202681,1610612738,1627759,1629750,1630202,202684,203935,0022000007,3,1821,1824,0,0,1610612751
126,1610612751,203925,201142,201599,203915,202681,1610612738,1627759,1629750,1630202,202684,203935,0022000007,3,1827,1827,0,2,1610612738
127,1610612751,1629013,201142,201599,202681,203915,1610612738,1627759,1628464,1629750,1630202,203935,0022000007,3,1844,1844,2,0,1610612751
128,1610612751,1629013,201142,201599,202681,203915,1610612738,1627759,1628464,1629750,1630202,203935,0022000007,3,1859,1859,0,2,1610612738
129,1610612751,1629013,201142,201599,202681,203915,1610612738,1627759,1628464,1629750,1630202,203935,0022000007,3,1878,1878,0,0,1610612751
130,1610612751,1627747,1628386,1629013,201142,202681,1610612738,1627759,1628464,1629750,1630202,203935,0022000007,3,1885,1885,0,1,1610612738
131,1610612751,1627747,1628386,1629013,201142,202681,1610612738,1627759,1628464,1629750,1630202,203935,0022000007,3,1895,1899,2,0,1610612751
132,1610612751,1627747,1628386,1629013,201142,202681,1610612738,1628369,1628464,1629750,1630202,201952,0022000007,3,1909,1911,0,0,1610612738
133,1610612751,1627747,1628386,1629013,201142,202681,1610612738,1628369,1628464,1629750,1630202,201952,0022000007,3,1917,1923,3,0,1610612751
134,1610612751,1627747,1628386,1629013,201142,202681,1610612738,1628369,1628464,1629750,1630202,201952,0022000007,3,1953,1954,0,0,1610612738
135,1610612751,1627747,1628386,1629013,201142,202681,1610612738,1628369,1628464,1629750,1630202,201952,0022000007,3,1976,1976,2,0,1610612751
136,1610612751,1627747,1628386,1629013,201142,202681,1610612738,1628369,1628464,1629750,1630202,201952,0022000007,3,2001,2007,0,0,1610612738
137,1610612751,1627747,1628386,1629013,201142,202681,1610612738,1628369,1628464,1629750,1630202,201952,0022000007,3,2010,2010,2,0,1610612751
138,1610612751,1627747,1628386,1629013,201142,202681,1610612738,1628369,1628464,1629750,1630202,201952,0022000007,3,2010,2033,0,2,1610612738
139,1610612751,1627747,1628386,1629013,201142,202681,1610612738,1628369,1628400,1628464,1630202,201952,0022000007,3,2042,2042,2,0,1610612751
140,1610612751,1627747,1628386,1629013,201142,202681,1610612738,1628369,1628400,1628464,1630202,201952,0022000007,3,2057,2057,0,2,1610612738
141,1610612751,1627747,1628386,1629013,201142,202681,1610612738,1628369,1628400,1628464,1630202,201952,0022000007,3,2080,2080,2,0,1610612751
142,1610612751,1627747,1628386,1629013,201142,202681,1610612738,1628369,1628400,1628464,1630202,201952,0022000007,3,2107,2117,0,2,1610612738
143,1610612751,1627747,1628386,1629013,201142,202681,1610612738,1628369,1628400,1628464,1630202,201952,0022000007,3,2132,2132,0,0,1610612751
144,1610612751,1627747,1628386,1629013,201142,202681,1610612738,1628369,1628400,1628464,1630202,201952,0022000007,3,2151,2155,0,1,1610612738
145,1610612751,1628386,1629013,1627747,1627752,201145,1610612738,1628369,202684,201952,1630202,1628400,0022000007,4,2160,2181,0,0,1610612751
146,1610612751,1628386,1629013,1627747,1627752,201145,1610612738,1628369,202684,201952,1630202,1628400,0022000007,4,2190,2192,0,2,1610612738
147,1610612751,1628386,1629013,1627747,1627752,201145,1610612738,1628369,202684,201952,1630202,1628400,0022000007,4,2202,2202,2,0,1610612751
148,1610612751,1628386,1629013,1627747,1627752,201145,1610612738,1628369,202684,201952,1630202,1628400,0022000007,4,2219,2219,0,0,1610612738
149,1610612751,1628386,1629013,1627747,1627752,201145,1610612738,1628369,202684,201952,1630202,1628400,0022000007,4,2232,2232,2,0,1610612751
150,1610612751,1628386,1629013,1627747,1627752,201145,1610612738,1628369,202684,201952,1630202,1628400,0022000007,4,2248,2248,0,0,1610612738
151,1610612751,1628386,1629013,1627747,1627752,201145,1610612738,1628369,202684,201952,1630202,1628400,0022000007,4,2257,2257,2,0,1610612751
152,1610612751,1628386,1629013,1627747,1627752,201145,1610612738,1628369,202684,201952,1630202,1628400,0022000007,4,2282,2284,0,0,1610612738
153,1610612751,1628386,1629013,1627747,1627752,201145,1610612738,1628369,202684,201952,1630202,1628400,0022000007,4,2296,2296,3,0,1610612751
154,1610612751,1628386,1629013,1627747,1627752,201145,1610612738,1628369,202684,201952,1630202,1628400,0022000007,4,2296,2309,0,0,1610612738
155,1610612751,1628386,1629013,1627747,1627752,201145,1610612738,1627759,1628369,1630174,202684,203935,0022000007,4,2323,2323,0,0,1610612751
156,1610612751,1628386,1629013,1627747,1627752,201145,1610612738,1627759,1628369,1630174,202684,203935,0022000007,4,2329,2329,0,2,1610612738
157,1610612751,1628386,1629013,1627747,1627752,201145,1610612738,1627759,1628369,1630174,202684,203935,0022000007,4,2350,2353,2,0,1610612751
158,1610612751,1628386,1629013,1627747,1627752,201145,1610612738,1627759,1628369,1630174,202684,203935,0022000007,4,2366,2366,0,2,1610612738
159,1610612751,1628386,1629013,1627747,1627752,201145,1610612738,1627759,1628369,1630174,202684,203935,0022000007,4,2385,2387,0,0,1610612751
160,1610612751,1628386,1629013,1627747,1627752,201145,1610612738,1627759,1628369,1630174,202684,203935,0022000007,4,2391,2391,0,1,1610612738
161,1610612751,1628386,1629013,1627747,1627752,201145,1610612738,1627759,1630174,1630202,202684,203935,0022000007,4,2410,2410,2,0,1610612751
162,1610612751,1628386,1629013,1627747,1627752,201145,1610612738,1627759,1630174,1630202,202684,203935,0022000007,4,2427,2427,0,2,1610612738
163,1610612751,1628386,1629013,1627747,1627752,201145,1610612738,1627759,1630174,1630202,202684,203935,0022000007,4,2436,2436,0,0,1610612751
164,1610612751,1628386,1629013,1627747,1627752,201145,1610612738,1627759,1630174,1630202,202684,203935,0022000007,4,2445,2448,0,0,1610612738
165,1610612751,1628386,1629013,1627747,1627752,201145,1610612738,1627759,1630174,1630202,202684,203935,0022000007,4,2452,2462,0,0,1610612751
166,1610612751,1628386,201142,202681,203915,203925,1610612738,1627759,1630174,1630202,202684,203935,0022000007,4,2475,2475,0,2,1610612738
167,1610612751,1628386,201142,202681,203915,203925,1610612738,1627759,1630174,1630202,202684,203935,0022000007,4,2488,2488,3,0,1610612751
168,1610612751,1628386,201142,202681,203915,203925,1610612738,1627759,1630174,1630202,202684,203935,0022000007,4,2503,2506,0,0,1610612738
169,1610612751,1628386,201142,202681,203915,203925,1610612738,1627759,1630174,1630202,202684,203935,0022000007,4,2515,2517,0,0,1610612751
170,1610612751,1628386,201142,202681,203915,203925,1610612738,1627759,1630174,1630202,202684,203935,0022000007,4,2524,2529,0,0,1610612738
171,1610612751,1628386,201142,202681,203915,203925,1610612738,1627759,1630174,1630202,202684,203935,0022000007,4,2541,2549,2,0,1610612751
172,1610612751,1628386,201142,202681,203915,203925,1610612738,1627759,1628369,1630202,202684,203935,0022000007,4,2565,2565,0,0,1610612738
173,1610612751,1628386,201142,202681,203915,203925,1610612738,1627759,1628369,1630202,202684,203935,0022000007,4,2575,2575,2,0,1610612751
174,1610612751,1628386,201142,202681,203915,203925,1610612738,1627759,1628369,1630202,202684,203935,0022000007,4,2593,2597,0,0,1610612738
175,1610612751,1628386,201142,202681,203915,203925,1610612738,1627759,1628369,1630202,202684,203935,0022000007,4,2603,2603,2,0,1610612751
176,1610612751,1628386,201142,202681,203915,203925,1610612738,1627759,1628369,1628464,1630174,203935,0022000007,4,2617,2620,0,0,1610612738
177,1610612751,1628386,201142,202681,203915,203925,1610612738,1627759,1628369,1628464,1630174,203935,0022000007,4,2634,2637,0,0,1610612751
178,1610612751,1628386,201142,202681,203915,203925,1610612738,1627759,1628369,1628464,1630174,203935,0022000007,4,2639,2639,0,2,1610612738
179,1610612751,1628386,201142,202681,203915,203925,1610612738,1627759,1628369,1628464,1630174,203935,0022000007,4,2656,2656,3,0,1610612751
180,1610612751,1628386,201142,202681,203915,203925,1610612738,1627759,1628369,1628464,1630174,203935,0022000007,4,2671,2685,0,0,1610612738
181,1610612751,1628386,201142,202681,203915,203925,1610612738,1627759,1628369,1628464,1630174,203935,0022000007,4,2690,2690,2,0,1610612751
182,1610612751,1628386,201142,202681,203915,203925,1610612738,1627759,1628369,1628464,1630174,203935,0022000007,4,2703,2703,0,2,1610612738
183,1610612751,1628386,201142,202681,203915,203925,1610612738,1627759,1628369,1628464,1630174,203935,0022000007,4,2721,2721,3,0,1610612751
184,1610612751,1628386,201142,202681,203915,203925,1610612738,1627759,1628369,1628464,1630174,203935,0022000007,4,2730,2743,0,3,1610612738
185,1610612751,1627789,1628971,1629066,1629617,204020,1610612738,1629035,1629682,1629684,1630174,1630202,0022000007,4,2764,2764,2,0,1610612751
186,1610612751,1627789,1628971,1629066,1629617,204020,1610612738,1629035,1629682,1629684,1630174,1630202,0022000007,4,2779,2779,0,0,1610612738
187,1610612751,1627789,1628971,1629066,1629617,204020,1610612738,1629035,1629682,1629684,1630174,1630202,0022000007,4,2785,2788,0,0,1610612751
188,1610612751,1627789,1628971,1629066,1629617,204020,1610612738,1629035,1629682,1629684,1630174,1630202,0022000007,4,2793,2793,0,0,1610612738
189,1610612751,1627789,1628971,1629066,1629617,204020,1610612738,1629035,1629682,1629684,1630174,1630202,0022000007,4,2801,2801,2,0,1610612751
190,1610612751,1627789,1628971,1629066,1629617,204020,1610612738,1629035,1629682,1629684,1630174,1630202,0022000007,4,2807,2822,0,0,1610612738
191,1610612751,1627789,1628971,1629066,1629617,204020,1610612738,1629035,1629682,1629684,1630174,1630202,0022000007,4,2835,2835,3,0,1610612751
192,1610612751,1627789,1628971,1629066,1629617,204020,1610612738,1629035,1629682,1629684,1630174,1630202,0022000007,4,2848,2851,0,0,1610612738
193,1610612751,1627789,1628971,1629066,1629617,204020,1610612738,1629035,1629682,1629684,1630174,1630202,0022000007,4,2874,2874,0,0,1610612751
