,TEAM_ID_1,TEAM_1_PLAYERS,TEAM_ID_2,TEAM_2_PLAYERS,PERIOD
0,1610612742,[ 203084 1629029  201599 1627827 1628372],1610612763,[ 203937 1628991  201188  202066  201144],1
1,1610612742,[1629029  201599    2734 1628467 1628973],1610612763,[1628991 1627782  202714  202705  201956],2
2,1610612742,[ 203084 1629029  201599 1627827 1628372],1610612763,[ 203937 1628991  201188  202066  201144],3
3,1610612742,[1629029  201599    2734 1628467 1628973],1610612763,[1628991  201188 1627782  202714  202705],4
