,t1_players,t1_id,t2_points_scored,t1_pm,t2_id,stint_end,t2_pm,t1_points_scored,stint_start,t2_players,margin_per_100,num_poss
0,"[1628989, 1627789, 203991, 1630219, 1629027]",1610612737,7,-7,1610612757,134,7,0,0,"[1629642, 1626204, 203994, 1626181, 1629014]",-116.66666666666667,6.0
1,"[1628989, 1627789, 203991, 1630219, 1629027]",1610612737,21,-8,1610612757,376,8,13,135,"[1629642, 1626204, 203994, 1626181, 1629014]",-34.78260869565217,23.0
2,"[1627789, 1628989, 1629027, 201568, 203991]",1610612737,33,-9,1610612757,619,9,24,377,"[1629642, 1626204, 203994, 1626181, 1629014]",-23.076923076923077,39.0
3,"[1626153, 1628989, 1629027, 201568, 203991]",1610612737,36,-4,1610612757,719,4,32,620,"[1626181, 1626204, 1629014, 203463, 203496]",-8.88888888888889,45.0
4,"[1626153, 1629027, 1630168, 1630219, 201568]",1610612737,41,1,1610612757,943,-1,42,720,"[1626181, 1628372, 1630570, 203463, 203496]",1.694915254237288,59.0
5,"[1627789, 1630219, 1626153, 1630168, 101150]",1610612737,44,-2,1610612757,958,2,42,944,"[1629642, 203463, 203496, 1628372, 1630570]",-3.278688524590164,61.0
6,"[1627789, 1630219, 1626153, 1630168, 101150]",1610612737,48,-6,1610612757,1007,6,42,959,"[1626204, 1629014, 1629642, 1630570, 203463]",-9.230769230769232,65.0
7,"[1627789, 1630219, 1626153, 1630168, 101150]",1610612737,50,-8,1610612757,1034,8,42,1008,"[1626204, 1629014, 1629642, 203463, 203994]",-12.121212121212121,66.0
8,"[101150, 1626153, 1630168, 1630219, 201568]",1610612737,50,-6,1610612757,1090,6,44,1035,"[1626204, 1629014, 1629642, 203463, 203994]",-8.695652173913043,69.0
9,"[101150, 1628989, 1630168, 1630219, 201568]",1610612737,58,-12,1610612757,1189,12,46,1091,"[1626181, 1626204, 1629014, 1629642, 203994]",-16.216216216216218,74.0
10,"[1628989, 1629027, 1630219, 201568, 203991]",1610612737,63,-10,1610612757,1302,10,53,1190,"[1626181, 1626204, 1629014, 1629642, 203994]",-12.048192771084338,83.0
11,"[1627789, 1628989, 1629027, 201568, 203991]",1610612737,70,-8,1610612757,1436,8,62,1303,"[1626181, 1626204, 1629014, 1629642, 203994]",-8.695652173913043,92.0
12,"[1626153, 1628989, 1629027, 201568, 203991]",1610612737,84,-8,1610612757,1722,8,76,1437,"[1626181, 1626204, 1629014, 1629642, 203496]",-7.079646017699115,113.0
13,"[1628989, 1627789, 203991, 1629027, 201568]",1610612737,84,-5,1610612757,1731,5,79,1723,"[1629642, 1626204, 203994, 1626181, 1629014]",-4.385964912280701,114.0
14,"[1628989, 1627789, 203991, 1629027, 201568]",1610612737,87,-6,1610612757,1771,6,81,1732,"[1626181, 1629014, 1629642, 203496, 203994]",-5.084745762711865,118.0
15,"[1626153, 1628989, 1629027, 201568, 203991]",1610612737,89,-6,1610612757,1821,6,83,1772,"[1626181, 1629014, 1629642, 203496, 203994]",-4.918032786885246,122.0
16,"[1626153, 1628989, 1629027, 201568, 203991]",1610612737,90,-4,1610612757,1869,4,86,1822,"[1626181, 1629014, 203463, 203496, 203994]",-3.149606299212598,127.0
17,"[1626153, 1628989, 1629027, 1630219, 203991]",1610612737,90,1,1610612757,1937,-1,91,1870,"[1626181, 1629014, 203463, 203496, 203994]",0.7575757575757576,132.0
18,"[1626153, 1628989, 1629027, 1630219, 203991]",1610612737,94,2,1610612757,2000,-2,96,1938,"[1626181, 1629014, 1630570, 203463, 203496]",1.4492753623188406,138.0
19,"[1626153, 1628989, 1629027, 1630168, 1630219]",1610612737,100,3,1610612757,2159,-3,103,2001,"[1626181, 1629014, 1630570, 203463, 203496]",2.0408163265306123,147.0
20,"[1626153, 1628989, 1629027, 1630168, 1630219]",1610612737,109,-2,1610612757,2403,2,107,2160,"[1628372, 1629014, 1630570, 203463, 203496]",-1.2422360248447204,161.0
21,"[1630219, 201568, 1626153, 1630168, 101150]",1610612737,112,-5,1610612757,2419,5,107,2404,"[1629642, 1626204, 203463, 203496, 1628372]",-3.067484662576687,163.0
22,"[1630219, 201568, 1626153, 1630168, 101150]",1610612737,112,-3,1610612757,2455,3,109,2420,"[1626181, 1626204, 1629014, 1629642, 203496]",-1.8292682926829267,164.0
23,"[1626153, 1627789, 1628989, 1629027, 1630168]",1610612737,127,-2,1610612757,2832,2,125,2456,"[1626181, 1626204, 1629014, 1629642, 203496]",-1.0638297872340425,188.0
24,"[1626153, 1628989, 1629027, 201568, 203991]",1610612737,127,-2,1610612757,2837,2,125,2833,"[1626181, 1626204, 1629014, 1629642, 203994]",-1.0638297872340425,188.0
25,"[1626153, 1627789, 1628989, 201568, 203991]",1610612737,134,-3,1610612757,2879,3,131,2838,"[1626181, 1626204, 1629014, 1629642, 203994]",-1.5463917525773196,194.0
26,"[1626153, 1628989, 1629027, 201568, 203991]",1610612737,136,-5,1610612757,9999999,5,131,2880,"[1626181, 1626204, 1629014, 1629642, 203994]",-2.5510204081632653,196.0
