,team1_id,team1_player1,team1_player2,team1_player3,team1_player4,team1_player5,team2_id,team2_player1,team2_player2,team2_player3,team2_player4,team2_player5,game_id,period,possession_start,possession_end,team1_points,team2_points,possession_team
0,1610612738,202330,1628369,1628464,1627759,202689,1610612748,203109,203482,1628389,1629130,1629134,0021901260,1,0,18,0,0,1610612748
1,1610612738,202330,1628369,1628464,1627759,202689,1610612748,203109,203482,1628389,1629130,1629134,0021901260,1,36,39,0,0,1610612738
2,1610612738,202330,1628369,1628464,1627759,202689,1610612748,203109,203482,1628389,1629130,1629134,0021901260,1,61,62,0,0,1610612748
3,1610612738,202330,1628369,1628464,1627759,202689,1610612748,203109,203482,1628389,1629130,1629134,0021901260,1,69,69,0,0,1610612738
4,1610612738,202330,1628369,1628464,1627759,202689,1610612748,203109,203482,1628389,1629130,1629134,0021901260,1,79,84,0,0,1610612748
5,1610612738,202330,1628369,1628464,1627759,202689,1610612748,203109,203482,1628389,1629130,1629134,0021901260,1,100,101,0,0,1610612738
6,1610612738,202330,1628369,1628464,1627759,202689,1610612748,203109,203482,1628389,1629130,1629134,0021901260,1,108,111,0,0,1610612748
7,1610612738,202330,1628369,1628464,1627759,202689,1610612748,203109,203482,1628389,1629130,1629134,0021901260,1,122,125,0,0,1610612738
8,1610612738,202330,1628369,1628464,1627759,202689,1610612748,203109,203482,1628389,1629130,1629134,0021901260,1,132,132,0,2,1610612748
9,1610612738,202330,1628369,1628464,1627759,202689,1610612748,203109,203482,1628389,1629130,1629134,0021901260,1,148,148,2,0,1610612738
10,1610612738,202330,1628369,1628464,1627759,202689,1610612748,203109,203482,1628389,1629130,1629134,0021901260,1,169,169,0,3,1610612748
11,1610612738,202330,1628369,1628464,1627759,202689,1610612748,203109,203482,1628389,1629130,1629134,0021901260,1,184,184,2,0,1610612738
12,1610612738,202330,1628369,1628464,1627759,202689,1610612748,203109,203482,1628389,1629130,1629134,0021901260,1,195,199,0,0,1610612748
13,1610612738,202330,1628369,1628464,1627759,202689,1610612748,203109,203482,1628389,1629130,1629134,0021901260,1,205,207,0,0,1610612738
14,1610612738,202330,1628369,1628464,1627759,202689,1610612748,203109,203482,1628389,1629130,1629134,0021901260,1,227,230,0,2,1610612748
15,1610612738,202330,1628369,1628464,1627759,202689,1610612748,203109,203482,1628389,1629130,1629134,0021901260,1,245,245,2,0,1610612738
16,1610612738,202330,1628369,1628464,1627759,202689,1610612748,203109,203482,1628389,1629130,1629134,0021901260,1,266,266,0,3,1610612748
17,1610612738,202330,1628369,1628464,1627759,202689,1610612748,203109,203482,1628389,1629130,1629134,0021901260,1,292,292,0,0,1610612738
18,1610612738,202330,1628369,1628464,1627759,202689,1610612748,203109,203482,1628389,1629130,1629134,0021901260,1,305,305,0,0,1610612748
19,1610612738,202330,1628369,1628464,1627759,202689,1610612748,203109,203482,1628389,1629130,1629134,0021901260,1,308,308,0,0,1610612738
20,1610612738,202330,1628369,1628464,1627759,202689,1610612748,203109,203482,1628389,1629130,1629134,0021901260,1,309,323,0,2,1610612748
21,1610612738,1627759,1628464,202330,202689,203935,1610612748,203109,203482,1628389,1629130,1629134,0021901260,1,339,341,0,0,1610612738
22,1610612738,1627759,1628464,202330,202689,203935,1610612748,203109,203482,1628389,1629130,1629134,0021901260,1,348,348,0,0,1610612748
23,1610612738,1627759,1628464,202330,202689,203935,1610612748,203109,203482,1628389,1629130,1629134,0021901260,1,352,358,2,0,1610612738
24,1610612738,1627759,1628464,202330,202689,203935,1610612748,203109,203482,1628389,1629130,1629134,0021901260,1,373,373,0,3,1610612748
25,1610612738,1627759,1628464,202330,202689,203935,1610612748,203109,203482,1628389,1629130,1629134,0021901260,1,393,394,0,0,1610612738
26,1610612738,1627759,1628464,202330,202689,203935,1610612748,203109,203482,1628389,1629130,1629134,0021901260,1,407,407,0,3,1610612748
27,1610612738,1627759,1628464,202330,202689,203935,1610612748,203109,203482,1628389,1629130,1629134,0021901260,1,423,423,2,0,1610612738
28,1610612738,1627759,1628464,202330,202689,203935,1610612748,1627884,1628389,1629130,1629134,203109,0021901260,1,439,442,0,0,1610612748
29,1610612738,1627759,1628464,202330,202954,203935,1610612748,1627884,1628389,1629130,1629134,203109,0021901260,1,445,454,2,0,1610612738
30,1610612738,1627759,1628464,202330,202954,203935,1610612748,1627884,1628389,1629130,1629134,203109,0021901260,1,467,467,0,2,1610612748
31,1610612738,1627759,1628369,202683,202954,203935,1610612748,1627884,1628389,1629130,201609,203109,0021901260,1,484,487,2,0,1610612738
32,1610612738,1627759,1628369,202683,202954,203935,1610612748,1627884,1628389,1629130,201609,203109,0021901260,1,496,496,0,2,1610612748
33,1610612738,1627759,1628369,202683,202954,203935,1610612748,1627884,1628389,1629130,201609,203109,0021901260,1,504,504,2,0,1610612738
34,1610612738,1627759,1628369,202683,202954,203935,1610612748,1627884,1628389,1629130,201609,203109,0021901260,1,526,526,0,2,1610612748
35,1610612738,1627759,1628369,202683,202954,203935,1610612748,1627884,1628389,1629130,201609,203109,0021901260,1,536,546,2,0,1610612738
36,1610612738,1627759,1628369,202683,202954,203935,1610612748,1627884,1629130,201609,203482,2738,0021901260,1,562,568,0,2,1610612748
37,1610612738,1627759,1628369,202683,202954,203935,1610612748,1627884,1629130,201609,203482,2738,0021901260,1,584,584,0,0,1610612738
38,1610612738,1627759,1628369,202683,202954,203935,1610612748,1627884,1629130,201609,203482,2738,0021901260,1,587,590,0,0,1610612748
39,1610612738,1627759,1628369,202683,202954,203935,1610612748,1627884,1629130,201609,203482,2738,0021901260,1,606,610,2,0,1610612738
40,1610612738,1627759,1628369,202683,202954,203935,1610612748,1627884,1629130,201609,203482,2738,0021901260,1,623,628,0,0,1610612748
41,1610612738,1627759,1628369,202683,202954,203935,1610612748,1627884,1629130,201609,203482,2738,0021901260,1,634,636,0,0,1610612738
42,1610612738,1628369,1628400,202683,202954,203935,1610612748,1627884,1629639,201609,203482,2738,0021901260,1,645,645,0,3,1610612748
43,1610612738,1628369,1628400,202683,202954,203935,1610612748,1627884,1629639,201609,203482,2738,0021901260,1,665,665,3,0,1610612738
44,1610612738,1628369,1628400,202683,202954,203935,1610612748,1627884,1629639,201609,203482,2738,0021901260,1,685,685,0,2,1610612748
45,1610612738,1628369,1628400,202683,202954,203935,1610612748,1627884,1629639,201609,203482,2738,0021901260,1,693,693,3,0,1610612738
46,1610612738,1628369,1628400,202683,202954,203935,1610612748,1629130,1629639,201609,203482,2738,0021901260,1,712,712,0,2,1610612748
47,1610612738,1628369,1628400,202683,202954,203935,1610612748,1629130,1629639,201609,203482,2738,0021901260,1,720,720,2,0,1610612738
48,1610612738,1628369,203935,202954,202683,1628400,1610612748,203482,1627884,201609,2738,1629639,0021901260,2,720,740,0,0,1610612738
49,1610612738,1628369,203935,202954,202683,1628400,1610612748,203482,1627884,201609,2738,1629639,0021901260,2,755,760,0,3,1610612748
50,1610612738,1628369,203935,202954,202683,1628400,1610612748,203482,1627884,201609,2738,1629639,0021901260,2,772,772,3,0,1610612738
51,1610612738,1628369,203935,202954,202683,1628400,1610612748,203482,1627884,201609,2738,1629639,0021901260,2,794,794,0,0,1610612748
52,1610612738,1628369,203935,202954,202683,1628400,1610612748,203482,1627884,201609,2738,1629639,0021901260,2,801,805,0,0,1610612738
53,1610612738,1628369,203935,202954,202683,1628400,1610612748,203482,1627884,201609,2738,1629639,0021901260,2,815,815,0,1,1610612748
54,1610612738,1628369,1628400,1629684,202954,203935,1610612748,203482,1627884,201609,2738,1629639,0021901260,2,833,846,0,0,1610612738
55,1610612738,1628369,1628400,1629684,202954,203935,1610612748,203482,1627884,201609,2738,1629639,0021901260,2,854,854,0,2,1610612748
56,1610612738,1628369,1628400,1629684,202954,203935,1610612748,203482,1627884,201609,2738,1629639,0021901260,2,867,867,2,0,1610612738
57,1610612738,1628369,1628400,1629684,202330,202954,1610612748,203482,1627884,201609,2738,1629639,0021901260,2,891,891,0,3,1610612748
58,1610612738,1628369,1628400,1629684,202330,202954,1610612748,203482,1627884,201609,2738,1629639,0021901260,2,902,905,0,0,1610612738
59,1610612738,1628369,1628400,1629684,202330,202954,1610612748,203482,1627884,201609,2738,1629639,0021901260,2,916,916,0,3,1610612748
60,1610612738,1628369,1628400,1629684,202330,202954,1610612748,203482,1627884,201609,2738,1629639,0021901260,2,938,940,0,0,1610612738
61,1610612738,1628369,1628400,1629684,202330,202954,1610612748,203482,1627884,201609,2738,1629639,0021901260,2,962,962,0,0,1610612748
62,1610612738,1628369,1628400,1629684,202330,202954,1610612748,203482,1627884,201609,2738,1629639,0021901260,2,973,973,0,0,1610612738
63,1610612738,1628369,1628400,1629684,202330,202954,1610612748,203482,1627884,201609,2738,1629639,0021901260,2,976,986,0,0,1610612748
64,1610612738,1628369,1628400,1629684,202330,202954,1610612748,203482,1627884,201609,2738,1629639,0021901260,2,999,999,3,0,1610612738
65,1610612738,1628369,1628400,1629684,202330,202954,1610612748,203482,1627884,201609,2738,1629639,0021901260,2,1000,1010,0,0,1610612748
66,1610612738,1627759,1628400,1628464,202330,202689,1610612748,203482,1627884,201609,2738,1629639,0021901260,2,1027,1027,2,0,1610612738
67,1610612738,1627759,1628400,1628464,202330,202689,1610612748,203482,1627884,201609,2738,1629639,0021901260,2,1041,1043,0,0,1610612748
68,1610612738,1627759,1628400,1628464,202330,202689,1610612748,203482,1627884,201609,2738,1629639,0021901260,2,1050,1050,0,0,1610612738
69,1610612738,1627759,1628400,1628464,202330,202689,1610612748,203482,1627884,201609,2738,1629639,0021901260,2,1060,1060,0,2,1610612748
70,1610612738,1627759,1628400,1628464,202330,202689,1610612748,203482,1627884,201609,2738,1629639,0021901260,2,1089,1089,3,0,1610612738
71,1610612738,1627759,1628400,1628464,202330,202689,1610612748,203482,1627884,201609,2738,1629639,0021901260,2,1113,1124,0,3,1610612748
72,1610612738,1627759,1628400,1628464,202330,202689,1610612748,203482,1627884,201609,2738,1629639,0021901260,2,1141,1141,3,0,1610612738
73,1610612738,1627759,1628400,1628464,202330,202689,1610612748,203482,1627884,201609,2738,1629639,0021901260,2,1156,1156,0,3,1610612748
74,1610612738,1627759,1628400,1628464,202330,202689,1610612748,203482,1627884,201609,2738,1629639,0021901260,2,1170,1170,3,0,1610612738
75,1610612738,1627759,1628464,202330,202689,203935,1610612748,1628389,1629134,1629639,203109,2738,0021901260,2,1191,1195,0,0,1610612748
76,1610612738,1627759,1628464,202330,202689,203935,1610612748,1628389,1629134,1629639,203109,2738,0021901260,2,1201,1204,0,0,1610612738
77,1610612738,1627759,1628464,202330,202689,203935,1610612748,1628389,1629134,1629639,203109,2738,0021901260,2,1221,1224,0,0,1610612748
78,1610612738,1627759,1628464,202330,202689,203935,1610612748,1628389,1629134,1629639,203109,2738,0021901260,2,1231,1252,0,0,1610612738
79,1610612738,1627759,1628369,202330,202689,203935,1610612748,1628389,1629130,1629134,203109,2738,0021901260,2,1255,1255,0,3,1610612748
80,1610612738,1627759,1628369,202330,202689,203935,1610612748,1628389,1629130,1629134,203109,2738,0021901260,2,1270,1270,0,0,1610612738
81,1610612738,1627759,1628369,202330,202689,203935,1610612748,1628389,1629130,1629134,203109,2738,0021901260,2,1290,1290,0,0,1610612748
82,1610612738,1627759,1628369,202330,202689,203935,1610612748,1628389,1629130,1629134,203109,2738,0021901260,2,1299,1302,0,0,1610612738
83,1610612738,1627759,1628369,202330,202689,203935,1610612748,1628389,1629130,1629134,203109,2738,0021901260,2,1305,1311,0,2,1610612748
84,1610612738,1627759,1628369,202330,202689,203935,1610612748,1628389,1629130,1629134,203109,2738,0021901260,2,1325,1327,0,0,1610612738
85,1610612738,1627759,1628369,202330,202689,203935,1610612748,1628389,1629130,1629134,203109,2738,0021901260,2,1334,1334,0,1,1610612748
86,1610612738,1627759,1628369,202330,202689,203935,1610612748,1628389,1629130,1629134,203109,2738,0021901260,2,1356,1358,0,0,1610612738
87,1610612738,1627759,1628369,202330,202689,203935,1610612748,1628389,1629130,1629134,203109,2738,0021901260,2,1370,1370,0,2,1610612748
88,1610612738,1627759,1628369,202330,202689,203935,1610612748,1628389,1629134,1629639,203109,2738,0021901260,2,1381,1384,0,0,1610612738
89,1610612738,1627759,1628369,202330,202689,203935,1610612748,1628389,1629134,1629639,203109,2738,0021901260,2,1389,1389,0,2,1610612748
90,1610612738,1627759,1628369,202330,202689,203935,1610612748,1628389,1629134,1629639,203109,2738,0021901260,2,1399,1399,2,0,1610612738
91,1610612738,1627759,1628369,202330,202689,203935,1610612748,1628389,1629134,1629639,203109,2738,0021901260,2,1411,1413,0,0,1610612748
92,1610612738,1627759,1628369,202330,202683,202689,1610612748,1627884,1628389,1629134,203109,2738,0021901260,2,1431,1431,2,0,1610612738
93,1610612738,1627759,1628369,1629684,202330,202689,1610612748,1628389,1629130,1629639,201609,203109,0021901260,2,1440,1440,0,0,1610612738
94,1610612738,202330,1628369,1628464,1627759,202689,1610612748,203109,203482,1628389,1629130,1629134,0021901260,3,1440,1455,1,0,1610612738
95,1610612738,202330,1628369,1628464,1627759,202689,1610612748,203109,203482,1628389,1629130,1629134,0021901260,3,1468,1476,0,3,1610612748
96,1610612738,202330,1628369,1628464,1627759,202689,1610612748,203109,203482,1628389,1629130,1629134,0021901260,3,1501,1515,1,0,1610612738
97,1610612738,202330,1628369,1628464,1627759,202689,1610612748,203109,203482,1628389,1629130,1629134,0021901260,3,1537,1539,0,0,1610612748
98,1610612738,202330,1628369,1628464,1627759,202689,1610612748,203109,203482,1628389,1629130,1629134,0021901260,3,1551,1551,0,0,1610612738
99,1610612738,202330,1628369,1628464,1627759,202689,1610612748,203109,203482,1628389,1629130,1629134,0021901260,3,1563,1563,0,2,1610612748
100,1610612738,202330,1628369,1628464,1627759,202689,1610612748,203109,203482,1628389,1629130,1629134,0021901260,3,1580,1580,2,0,1610612738
101,1610612738,202330,1628369,1628464,1627759,202689,1610612748,203109,203482,1628389,1629130,1629134,0021901260,3,1601,1603,0,0,1610612748
102,1610612738,202330,1628369,1628464,1627759,202689,1610612748,203109,203482,1628389,1629130,1629134,0021901260,3,1606,1606,2,0,1610612738
103,1610612738,202330,1628369,1628464,1627759,202689,1610612748,203109,203482,1628389,1629130,1629134,0021901260,3,1620,1623,0,0,1610612748
104,1610612738,202330,1628369,1628464,1627759,202689,1610612748,203109,203482,1628389,1629130,1629134,0021901260,3,1632,1632,3,0,1610612738
105,1610612738,202330,1628369,1628464,1627759,202689,1610612748,203109,203482,1628389,1629130,1629134,0021901260,3,1646,1646,0,0,1610612748
106,1610612738,202330,1628369,1628464,1627759,202689,1610612748,203109,203482,1628389,1629130,1629134,0021901260,3,1655,1655,2,0,1610612738
107,1610612738,202330,1628369,1628464,1627759,202689,1610612748,203109,203482,1628389,1629130,1629134,0021901260,3,1655,1667,0,0,1610612748
108,1610612738,202330,1628369,1628464,1627759,202689,1610612748,203109,203482,1628389,1629130,1629134,0021901260,3,1688,1688,2,0,1610612738
109,1610612738,202330,1628369,1628464,1627759,202689,1610612748,203109,203482,1628389,1629130,1629134,0021901260,3,1702,1704,0,1,1610612748
110,1610612738,202330,1628369,1628464,1627759,202689,1610612748,1628389,1629130,201609,203109,203482,0021901260,3,1717,1720,0,0,1610612738
111,1610612738,202330,1628369,1628464,1627759,202689,1610612748,1628389,1629130,201609,203109,203482,0021901260,3,1728,1730,0,0,1610612748
112,1610612738,202330,1628369,1628464,1627759,202689,1610612748,1628389,1629130,201609,203109,203482,0021901260,3,1736,1740,0,0,1610612738
113,1610612738,202330,1628369,1628464,1627759,202689,1610612748,1628389,1629130,201609,203109,203482,0021901260,3,1743,1747,0,0,1610612748
114,1610612738,202330,1628369,1628464,1627759,202689,1610612748,1628389,1629130,201609,203109,203482,0021901260,3,1756,1759,2,0,1610612738
115,1610612738,202330,1628369,1628464,1627759,202689,1610612748,1628389,1629130,201609,203109,203482,0021901260,3,1776,1776,0,0,1610612748
116,1610612738,1627759,1628369,1628464,202330,203935,1610612748,1628389,1629130,201609,203109,203482,0021901260,3,1786,1786,2,0,1610612738
117,1610612738,1627759,1628369,1628464,202330,203935,1610612748,1628389,1629130,201609,203109,203482,0021901260,3,1805,1805,0,2,1610612748
118,1610612738,1627759,1628369,1628464,202330,203935,1610612748,1628389,1629130,201609,203109,203482,0021901260,3,1824,1824,0,0,1610612738
119,1610612738,1627759,1628369,1628464,202330,203935,1610612748,1628389,1629130,201609,203109,203482,0021901260,3,1824,1850,0,3,1610612748
120,1610612738,1627759,1628400,1628464,202330,203935,1610612748,1627884,1628389,1629130,201609,203109,0021901260,3,1865,1865,0,0,1610612738
121,1610612738,1627759,1628400,1628464,202330,203935,1610612748,1627884,1628389,1629130,201609,203109,0021901260,3,1872,1872,0,2,1610612748
122,1610612738,1627759,1628400,1628464,202330,203935,1610612748,1627884,1628389,1629130,201609,203109,0021901260,3,1887,1887,2,0,1610612738
123,1610612738,1627759,1628400,1628464,202330,203935,1610612748,1627884,1628389,1629130,201609,203109,0021901260,3,1903,1903,0,2,1610612748
124,1610612738,1627759,1628400,1628464,202330,203935,1610612748,1627884,1628389,1629130,201609,203109,0021901260,3,1924,1924,1,0,1610612738
125,1610612738,1627759,1628400,202330,202683,203935,1610612748,1627884,1628389,1629130,201609,2738,0021901260,3,1934,1934,0,2,1610612748
126,1610612738,1627759,1628400,202330,202683,202954,1610612748,1627884,1628389,1629130,201609,2738,0021901260,3,1956,1956,0,0,1610612738
127,1610612738,1627759,1628400,202330,202683,202954,1610612748,1627884,1628389,1629130,201609,2738,0021901260,3,1960,1960,0,3,1610612748
128,1610612738,1628369,1628400,202330,202683,202954,1610612748,1627884,1628389,1629130,201609,2738,0021901260,3,1982,1982,0,0,1610612738
129,1610612738,1628369,1628400,202330,202683,202954,1610612748,1627884,1629639,201609,203482,2738,0021901260,3,1995,1997,0,0,1610612748
130,1610612738,1628369,1628400,202330,202683,202954,1610612748,1627884,1629639,201609,203482,2738,0021901260,3,2003,2003,2,0,1610612738
131,1610612738,1628369,1628400,202330,202683,202954,1610612748,1627884,1629639,201609,203482,2738,0021901260,3,2018,2022,0,0,1610612748
132,1610612738,1628369,1628400,202330,202683,202954,1610612748,1627884,1629639,201609,203482,2738,0021901260,3,2027,2027,2,0,1610612738
133,1610612738,1628369,1628400,202330,202683,202954,1610612748,1627884,1629639,201609,203482,2738,0021901260,3,2043,2043,0,3,1610612748
134,1610612738,1628369,1628400,202330,202683,202954,1610612748,1627884,1629639,201609,203482,2738,0021901260,3,2061,2061,2,0,1610612738
135,1610612738,1628369,1628400,202330,202683,202954,1610612748,1627884,1629639,201609,203482,2738,0021901260,3,2083,2083,0,0,1610612748
136,1610612738,1628369,1628400,202330,202683,202954,1610612748,1627884,1629639,201609,203482,2738,0021901260,3,2090,2090,0,0,1610612738
137,1610612738,1628400,202330,202683,202689,202954,1610612748,1627884,1629639,201609,203482,2738,0021901260,3,2096,2096,0,2,1610612748
138,1610612738,1628400,202330,202683,202689,202954,1610612748,1627884,1629639,201609,203482,2738,0021901260,3,2112,2114,0,0,1610612738
139,1610612738,1628400,202330,202683,202689,202954,1610612748,1627884,1629639,201609,203482,2738,0021901260,3,2117,2117,0,2,1610612748
140,1610612738,1628400,202330,202683,202689,202954,1610612748,1627884,1629639,201609,203482,2738,0021901260,3,2130,2138,3,0,1610612738
141,1610612738,1628400,202330,202683,202689,202954,1610612748,1627884,1629639,201609,203482,2738,0021901260,3,2154,2157,0,1,1610612748
142,1610612738,1628400,202330,202683,202689,202954,1610612748,1627884,1628389,1629639,203109,2738,0021901260,3,2160,2160,3,0,1610612738
143,1610612738,1628400,202330,202683,202689,202954,1610612748,1627884,1628389,1629639,203109,2738,0021901260,3,2160,2160,0,0,515
144,1610612738,1627759,202689,202954,202683,1628400,1610612748,203482,1627884,201609,2738,1629639,0021901260,4,2160,2179,0,2,1610612748
145,1610612738,1627759,202689,202954,202683,1628400,1610612748,203482,1627884,201609,2738,1629639,0021901260,4,2198,2200,0,0,1610612738
146,1610612738,1627759,202689,202954,202683,1628400,1610612748,203482,1627884,201609,2738,1629639,0021901260,4,2209,2211,0,0,1610612748
147,1610612738,1627759,202689,202954,202683,1628400,1610612748,203482,1627884,201609,2738,1629639,0021901260,4,2227,2227,2,0,1610612738
148,1610612738,1627759,202689,202954,202683,1628400,1610612748,203482,1627884,201609,2738,1629639,0021901260,4,2242,2244,0,0,1610612748
149,1610612738,1627759,202689,202954,202683,1628400,1610612748,203482,1627884,201609,2738,1629639,0021901260,4,2244,2265,0,0,1610612738
150,1610612738,1627759,1628400,1629641,202683,202954,1610612748,203482,1627884,201609,2738,1629639,0021901260,4,2275,2276,0,0,1610612748
151,1610612738,1627759,1628400,1629641,202683,202954,1610612748,203482,1627884,201609,2738,1629639,0021901260,4,2285,2285,0,0,1610612738
152,1610612738,1627759,1628400,1629641,202683,202954,1610612748,203482,1627884,201609,2738,1629639,0021901260,4,2310,2310,0,0,1610612748
153,1610612738,1627759,1628400,1629641,202683,202954,1610612748,203482,1627884,201609,2738,1629639,0021901260,4,2315,2319,2,0,1610612738
154,1610612738,1627759,1628400,1629641,202683,202954,1610612748,203482,1627884,201609,2738,1629639,0021901260,4,2330,2351,0,3,1610612748
155,1610612738,1627759,1628400,1629641,202683,202954,1610612748,1628389,1629639,201609,203482,2738,0021901260,4,2372,2376,2,0,1610612738
156,1610612738,1627759,1628400,1629641,202683,202954,1610612748,1628389,1629639,201609,203482,2738,0021901260,4,2389,2389,0,2,1610612748
157,1610612738,1627759,1628400,1629641,202683,202954,1610612748,1628389,1629639,201609,203482,2738,0021901260,4,2411,2415,0,0,1610612738
158,1610612738,1627759,1628400,1629641,202683,202954,1610612748,1628389,1629639,201609,203482,2738,0021901260,4,2428,2431,0,0,1610612748
159,1610612738,1627759,1628400,1629641,202683,202954,1610612748,1628389,1629639,201609,203482,2738,0021901260,4,2436,2436,2,0,1610612738
160,1610612738,1627759,1628400,1629641,202683,202954,1610612748,1628389,1629639,201609,203482,2738,0021901260,4,2458,2462,0,0,1610612748
161,1610612738,1627759,1628400,1629641,202683,202954,1610612748,1628389,1629639,201609,203482,2738,0021901260,4,2468,2482,3,0,1610612738
162,1610612738,1627759,1628369,1628464,202330,202954,1610612748,1628389,1629130,1629639,203109,2738,0021901260,4,2496,2496,0,2,1610612748
163,1610612738,1627759,1628369,1628464,202330,202954,1610612748,1628389,1629130,1629639,203109,2738,0021901260,4,2509,2514,0,0,1610612738
164,1610612738,1627759,1628369,1628464,202330,202954,1610612748,1628389,1629130,1629639,203109,2738,0021901260,4,2528,2530,0,2,1610612748
165,1610612738,1627759,1628369,1628464,202330,202954,1610612748,1628389,1629130,1629639,203109,2738,0021901260,4,2553,2558,0,0,1610612738
166,1610612738,1627759,1628369,1628464,202330,202954,1610612748,1628389,1629130,1629639,203109,2738,0021901260,4,2569,2571,0,0,1610612748
167,1610612738,1627759,1628369,1628464,202330,202954,1610612748,1628389,1629130,1629639,203109,2738,0021901260,4,2580,2580,2,0,1610612738
168,1610612738,1627759,1628369,1628464,202330,202954,1610612748,1628389,1629130,1629639,203109,2738,0021901260,4,2595,2595,0,0,1610612748
169,1610612738,1627759,1628369,1628464,202330,202954,1610612748,1628389,1629130,1629639,203109,2738,0021901260,4,2599,2599,2,0,1610612738
170,1610612738,1627759,1628369,1628464,202330,202954,1610612748,1628389,1629130,1629639,203109,2738,0021901260,4,2621,2624,0,0,1610612748
171,1610612738,1627759,1628369,1628464,202330,202954,1610612748,1628389,1629130,1629639,203109,2738,0021901260,4,2642,2659,0,0,1610612738
172,1610612738,1627759,1628369,1628464,202330,202689,1610612748,1628389,1629130,201609,203109,2738,0021901260,4,2676,2681,0,3,1610612748
173,1610612738,1627759,1628369,1628464,202330,202689,1610612748,1628389,1629130,201609,203109,2738,0021901260,4,2697,2702,0,0,1610612738
174,1610612738,1627759,1628369,1628464,202330,202689,1610612748,1628389,1629130,201609,203109,2738,0021901260,4,2712,2712,0,0,1610612748
175,1610612738,1627759,1628369,1628464,202330,202689,1610612748,1628389,1629130,201609,203109,2738,0021901260,4,2723,2727,0,0,1610612738
176,1610612738,1627759,1628369,1628464,202330,202689,1610612748,1628389,1629130,201609,203109,2738,0021901260,4,2748,2750,0,0,1610612748
177,1610612738,1627759,1628369,1628464,202330,202689,1610612748,1628389,1629130,201609,203109,2738,0021901260,4,2756,2756,0,0,1610612738
178,1610612738,1627759,1628369,1628464,202330,202689,1610612748,1628389,1629130,201609,203109,2738,0021901260,4,2777,2777,0,3,1610612748
179,1610612738,1627759,1628369,1628464,202330,202689,1610612748,1628389,1629130,201609,203109,2738,0021901260,4,2786,2794,3,0,1610612738
180,1610612738,1627759,1628369,1628464,202330,202689,1610612748,1628389,1629130,201609,203109,2738,0021901260,4,2810,2813,0,0,1610612748
181,1610612738,1627759,1628369,1628464,202330,202689,1610612748,1628389,1629130,201609,203109,2738,0021901260,4,2816,2816,0,0,1610612738
182,1610612738,1627759,1628369,1628464,202330,202689,1610612748,1628389,1629130,201609,203109,2738,0021901260,4,2816,2828,0,0,1610612748
183,1610612738,1627759,1628369,1628464,202330,202689,1610612748,1628389,1629130,201609,203109,2738,0021901260,4,2832,2838,0,0,1610612738
184,1610612738,1627759,1628369,1628464,202330,202689,1610612748,1628389,1629130,201609,203109,2738,0021901260,4,2855,2858,0,0,1610612748
185,1610612738,1627759,1628369,1628464,202330,202689,1610612748,1628389,1629130,201609,203109,2738,0021901260,4,2859,2861,2,1,1610612738
186,1610612738,1627759,1628369,1628464,202330,202689,1610612748,1628389,1629130,201609,203109,2738,0021901260,4,2862,2862,0,0,1610612748
187,1610612738,1627759,1628369,1628464,202330,202689,1610612748,1628389,1629130,201609,203109,2738,0021901260,4,2867,2867,3,0,1610612738
188,1610612738,1627759,1628369,1628464,202330,202689,1610612748,1628389,1629130,201609,203109,2738,0021901260,4,2867,2877,0,3,1610612748
189,1610612738,1627759,1628369,1629057,202330,202689,1610612748,1627884,1628389,1629130,203109,2738,0021901260,4,2880,2880,0,0,1610612748
