,t1_pm,t2_pm,stint_start,t2_points_scored,t2_players,t2_id,t1_id,t1_players,stint_end,t1_points_scored,margin_per_100,num_poss
0,-2,2,0,14,"[1627827, 1628467, 204001, 1626196, 1629029]",1610612742,1610612750,"[1630162, 1629006, 1629675, 1627736, 1626156]",285,12,-10.526315789473683,19.0
1,0,0,286,14,"[1627827, 1628467, 204001, 1626196, 1629029]",1610612742,1610612750,"[1630162, 1629006, 1629675, 1627736, 1626156]",334,14,0.0,22.0
2,-3,3,335,17,"[1626196, 1627827, 1628973, 203501, 204001]",1610612742,1610612750,"[1630162, 1629006, 1629675, 1627736, 1626156]",356,14,-13.043478260869565,23.0
3,-6,6,357,25,"[1626196, 1627827, 1628973, 203501, 204001]",1610612742,1610612750,"[1627736, 1629675, 1630162, 1630183, 201937]",483,19,-18.75,32.0
4,-10,10,484,29,"[1626196, 1627827, 1628973, 203501, 204001]",1610612742,1610612750,"[1627736, 1629020, 1630162, 1630183, 201937]",515,19,-28.57142857142857,35.0
5,-12,12,516,34,"[1628467, 1628973, 1629029, 203501, 204001]",1610612742,1610612750,"[1627736, 1629020, 1630162, 1630183, 201937]",579,22,-30.0,40.0
6,-19,19,580,41,"[1628467, 1628973, 1629029, 203501, 203939]",1610612742,1610612750,"[1627736, 1629020, 1629669, 1630183, 201937]",719,22,-38.0,50.0
7,-22,22,720,45,"[1628467, 1628973, 1629029, 203501, 203939]",1610612742,1610612750,"[1627774, 1629020, 1629669, 1630183, 201937]",779,23,-39.285714285714285,56.0
8,-19,19,780,45,"[1628467, 1629029, 203939, 203504, 1628411]",1610612742,1610612750,"[1629006, 201937, 1629020, 1629669, 1627774]",832,26,-31.666666666666664,60.0
9,-17,17,833,48,"[1628467, 1629029, 203939, 203504, 1628411]",1610612742,1610612750,"[1627774, 1629006, 1629669, 1629675, 201937]",945,31,-25.37313432835821,67.0
10,-16,16,946,50,"[1628467, 1629029, 203939, 203504, 1628411]",1610612742,1610612750,"[1627774, 1629006, 1629020, 1629669, 201937]",997,34,-22.535211267605636,71.0
11,-17,17,998,56,"[1628467, 1629029, 203939, 203504, 1628411]",1610612742,1610612750,"[1627774, 1629006, 1629020, 1629669, 1630162]",1113,39,-21.518987341772153,79.0
12,-19,19,1114,58,"[1626196, 1627827, 1628973, 203501, 204001]",1610612742,1610612750,"[1627736, 1629020, 1629669, 1630162, 1630183]",1162,39,-22.89156626506024,83.0
13,-22,22,1163,69,"[1626196, 1627827, 1628973, 203501, 204001]",1610612742,1610612750,"[1627736, 1629669, 1630162, 1630183, 202334]",1355,47,-23.157894736842106,95.0
14,-22,22,1356,71,"[1626196, 1627827, 1629029, 203501, 204001]",1610612742,1610612750,"[1627736, 1630162, 1630183, 201937, 202334]",1438,49,-22.0,100.0
15,-18,18,1439,80,"[1626196, 1627827, 1629029, 203501, 203939]",1610612742,1610612750,"[1627736, 1630162, 1630183, 201937, 202334]",1782,62,-14.285714285714285,126.0
16,-13,13,1783,84,"[1627827, 1628467, 204001, 1626196, 1629029]",1610612742,1610612750,"[1630162, 1629006, 1629675, 1627736, 201937]",1958,71,-9.420289855072465,138.0
17,-16,16,1959,89,"[1626196, 1627827, 1628973, 203501, 204001]",1610612742,1610612750,"[1627736, 1629669, 1629675, 1630183, 201937]",1999,73,-11.347517730496454,141.0
18,-18,18,2000,95,"[1626196, 1628973, 1629029, 203501, 203939]",1610612742,1610612750,"[1627774, 1629020, 1629669, 1630162, 1630183]",2158,77,-11.920529801324504,151.0
19,-18,18,2159,97,"[1628467, 1628973, 1629029, 203501, 203939]",1610612742,1610612750,"[1627774, 1629020, 1629669, 1630162, 1630183]",2196,79,-11.688311688311687,154.0
20,-20,20,2197,102,"[1628467, 1629029, 1628973, 203939, 203504]",1610612742,1610612750,"[1630162, 1629675, 1629669, 1627774, 1627823]",2257,82,-12.658227848101266,158.0
21,-19,19,2258,105,"[1626196, 1628467, 1629029, 203504, 203939]",1610612742,1610612750,"[1630162, 1629675, 1629669, 1627774, 1627823]",2360,86,-11.44578313253012,166.0
22,-18,18,2361,107,"[1626196, 1628467, 1629029, 203504, 203939]",1610612742,1610612750,"[1627823, 1629006, 1629669, 1629675, 201937]",2399,89,-10.588235294117647,170.0
23,-18,18,2400,110,"[1626196, 1627827, 1628973, 1629029, 203939]",1610612742,1610612750,"[1627736, 1627823, 1629006, 1629675, 201937]",2476,92,-10.344827586206897,174.0
24,-12,12,2477,110,"[1626196, 1627827, 1628973, 203501, 204001]",1610612742,1610612750,"[1627736, 1627823, 1629006, 1629675, 201937]",2513,98,-6.741573033707865,178.0
25,-11,11,2514,116,"[1626196, 1627827, 1628973, 203501, 204001]",1610612742,1610612750,"[1627736, 1627823, 1629006, 1629020, 201937]",2674,105,-5.88235294117647,187.0
26,-3,3,2675,123,"[1626196, 1627827, 1629029, 203501, 204001]",1610612742,1610612750,"[1627736, 1627823, 1629006, 1629020, 201937]",2852,120,-1.5,200.0
27,-7,7,2853,127,"[1626196, 1627827, 1629029, 203501, 204001]",1610612742,1610612750,"[1627736, 1629006, 1629020, 1630162, 201937]",2871,120,-3.4482758620689653,203.0
28,-5,5,2872,127,"[1626196, 1627827, 1628467, 1629029, 203501]",1610612742,1610612750,"[1627736, 1629020, 1629669, 1630162, 201937]",9999999,122,-2.450980392156863,204.0
