,t1_pm,t2_pm,stint_start,t2_points_scored,t2_players,t2_id,t1_id,t1_players,stint_end,t1_points_scored,margin_per_100,num_poss
0,-2,2,0,13,"[202330, 1629023, 203469, 1626179, 1628984]",1610612766,1610612754,"[203200, 1627734, 1626167, 203087, 1627763]",302,11,-13.333333333333334,15.0
1,6,-6,303,15,"[202330, 1629023, 203469, 1626179, 1628984]",1610612766,1610612754,"[203200, 1627734, 1626167, 203087, 1627763]",419,21,24.0,25.0
2,6,-6,420,15,"[1626179, 1628970, 1630163, 202330, 202687]",1610612766,1610612754,"[203200, 1627734, 1626167, 203087, 1627763]",471,21,21.428571428571427,28.0
3,13,-13,472,15,"[1626179, 1628970, 1630163, 202330, 202687]",1610612766,1610612754,"[1626167, 1627734, 1627763, 203200, 203926]",563,28,38.23529411764706,34.0
4,13,-13,564,15,"[1628970, 1628984, 1630163, 202330, 202687]",1610612766,1610612754,"[1626167, 1627734, 1627763, 203200, 203926]",585,28,37.142857142857146,35.0
5,15,-15,586,15,"[1628370, 1628970, 1628984, 1630163, 202687]",1610612766,1610612754,"[1627734, 1627763, 203200, 203926, 204456]",625,30,39.473684210526315,38.0
6,13,-13,626,19,"[1628370, 1628970, 1628984, 1630163, 202687]",1610612766,1610612754,"[1627734, 1627763, 1628988, 203926, 204456]",676,32,30.952380952380953,42.0
7,17,-17,677,19,"[1628370, 1628970, 1628984, 1629023, 1630163]",1610612766,1610612754,"[1627763, 1628988, 1629048, 203926, 204456]",719,36,37.77777777777778,45.0
8,10,-10,720,30,"[1628370, 1628970, 1628984, 1629023, 1630163]",1610612766,1610612754,"[1628988, 1629048, 203087, 203926, 204456]",905,40,16.94915254237288,59.0
9,5,-5,906,35,"[202330, 1629023, 1628984, 1628970, 1628370]",1610612766,1610612754,"[203087, 203926, 204456, 1628988, 1629048]",974,40,7.6923076923076925,65.0
10,5,-5,975,35,"[1628370, 1628984, 1629023, 202330, 203469]",1610612766,1610612754,"[203087, 203926, 204456, 1628988, 1629048]",1000,40,7.575757575757576,66.0
11,5,-5,1001,35,"[1628370, 1629023, 1630163, 202330, 203469]",1610612766,1610612754,"[1626167, 1627734, 1628988, 203926, 204456]",1027,40,7.352941176470589,68.0
12,5,-5,1028,35,"[1628370, 1629023, 1630163, 202330, 203469]",1610612766,1610612754,"[1626167, 1627734, 1627763, 203200, 203926]",1046,40,7.142857142857142,70.0
13,2,-2,1047,42,"[1626179, 1629023, 1630163, 202330, 203469]",1610612766,1610612754,"[1626167, 1627734, 1627763, 203200, 203926]",1143,44,2.564102564102564,78.0
14,1,-1,1144,46,"[1626179, 1628984, 1629023, 1630163, 203469]",1610612766,1610612754,"[1626167, 1627734, 1627763, 203200, 203926]",1214,47,1.2048192771084338,83.0
15,5,-5,1215,49,"[1626179, 1628970, 1628984, 1630163, 203469]",1610612766,1610612754,"[1626167, 1627734, 1627763, 203200, 204456]",1331,54,5.555555555555555,90.0
16,-1,1,1332,55,"[1626179, 1628970, 1628984, 202330, 203469]",1610612766,1610612754,"[1626167, 1627734, 1627763, 203200, 204456]",1393,54,-1.0526315789473684,95.0
17,4,-4,1394,55,"[1626179, 1628970, 1628984, 202330, 203469]",1610612766,1610612754,"[1627734, 1627763, 203087, 203200, 204456]",1439,59,4.081632653061225,98.0
18,0,0,1440,67,"[1626179, 1628984, 1629023, 202330, 203469]",1610612766,1610612754,"[1627734, 1627763, 203087, 203200, 204456]",1800,67,0.0,121.0
19,3,-3,1801,67,"[202330, 1629023, 203469, 1626179, 1628984]",1610612766,1610612754,"[203200, 1627734, 1626167, 203087, 1627763]",1859,70,2.4193548387096775,124.0
20,6,-6,1860,73,"[1626179, 1628970, 1630163, 202330, 203469]",1610612766,1610612754,"[1626167, 1627734, 1627763, 203200, 203926]",2025,79,4.411764705882353,136.0
21,1,-1,2026,78,"[1626179, 1628970, 1630163, 202330, 202687]",1610612766,1610612754,"[1626167, 1627734, 1627763, 203200, 203926]",2087,79,0.7142857142857143,140.0
22,6,-6,2088,78,"[1628370, 1628970, 1628984, 1630163, 202687]",1610612766,1610612754,"[1627734, 1627763, 1628988, 203926, 204456]",2157,84,4.195804195804196,143.0
23,9,-9,2158,83,"[1628370, 1628970, 1628984, 1629023, 1630163]",1610612766,1610612754,"[1627763, 1628988, 1629048, 203926, 204456]",2312,92,5.844155844155844,154.0
24,7,-7,2313,87,"[202330, 1629023, 1628984, 1628970, 1628370]",1610612766,1610612754,"[203200, 203926, 204456, 1628988, 1629048]",2388,94,4.40251572327044,159.0
25,5,-5,2389,94,"[1628370, 1629023, 1630163, 202330, 203469]",1610612766,1610612754,"[203200, 203926, 204456, 1628988, 1629048]",2490,99,3.0120481927710845,166.0
26,10,-10,2491,98,"[1626179, 1629023, 1630163, 202330, 203469]",1610612766,1610612754,"[1627734, 1628988, 203200, 203926, 204456]",2631,108,5.747126436781609,174.0
27,12,-12,2632,100,"[1626179, 1628970, 1630163, 202330, 203469]",1610612766,1610612754,"[1627734, 1627763, 203200, 203926, 204456]",2714,112,6.666666666666667,180.0
28,10,-10,2715,104,"[1626179, 1628984, 1629023, 202330, 203469]",1610612766,1610612754,"[1627734, 1627763, 203200, 203926, 204456]",2831,114,5.347593582887701,187.0
29,10,-10,2832,106,"[1626179, 1628984, 1629023, 202330, 203469]",1610612766,1610612754,"[1626167, 1627734, 1627763, 203200, 204456]",2855,116,5.291005291005291,189.0
30,10,-10,2856,106,"[1626179, 1628970, 1628984, 1629023, 202330]",1610612766,1610612754,"[1627734, 1627763, 203087, 203926, 204456]",9999999,116,5.263157894736842,190.0
