,team1_id,team1_player1,team1_player2,team1_player3,team1_player4,team1_player5,team2_id,team2_player1,team2_player2,team2_player3,team2_player4,team2_player5,game_id,period,possession_start,possession_end,team1_points,team2_points,possession_team
0,1610612763,1628415,1628991,203500,1630217,1629630,1610612740,1628404,1627742,202685,1629638,1628984,0022100188,1,0,16,0,2,1610612740
1,1610612763,1628415,1628991,203500,1630217,1629630,1610612740,1628404,1627742,202685,1629638,1628984,0022100188,1,34,34,2,0,1610612763
2,1610612763,1628415,1628991,203500,1630217,1629630,1610612740,1628404,1627742,202685,1629638,1628984,0022100188,1,43,46,0,0,1610612740
3,1610612763,1628415,1628991,203500,1630217,1629630,1610612740,1628404,1627742,202685,1629638,1628984,0022100188,1,61,63,0,0,1610612763
4,1610612763,1628415,1628991,203500,1630217,1629630,1610612740,1628404,1627742,202685,1629638,1628984,0022100188,1,73,73,0,3,1610612740
5,1610612763,1628415,1628991,203500,1630217,1629630,1610612740,1628404,1627742,202685,1629638,1628984,0022100188,1,84,84,0,0,1610612763
6,1610612763,1628415,1628991,203500,1630217,1629630,1610612740,1628404,1627742,202685,1629638,1628984,0022100188,1,100,100,0,2,1610612740
7,1610612763,1628415,1628991,203500,1630217,1629630,1610612740,1628404,1627742,202685,1629638,1628984,0022100188,1,116,119,0,0,1610612763
8,1610612763,1628415,1628991,203500,1630217,1629630,1610612740,1628404,1627742,202685,1629638,1628984,0022100188,1,132,136,0,0,1610612740
9,1610612763,1628415,1628991,203500,1630217,1629630,1610612740,1628404,1627742,202685,1629638,1628984,0022100188,1,144,144,2,0,1610612763
10,1610612763,1628415,1628991,203500,1630217,1629630,1610612740,1628404,1627742,202685,1629638,1628984,0022100188,1,160,160,0,2,1610612740
11,1610612763,1628415,1628991,203500,1630217,1629630,1610612740,1628404,1627742,202685,1629638,1628984,0022100188,1,174,174,2,0,1610612763
12,1610612763,1628415,1628991,203500,1630217,1629630,1610612740,1628404,1627742,202685,1629638,1628984,0022100188,1,191,191,0,2,1610612740
13,1610612763,1628415,1628991,203500,1630217,1629630,1610612740,1628404,1627742,202685,1629638,1628984,0022100188,1,204,204,2,0,1610612763
14,1610612763,1628415,1628991,203500,1630217,1629630,1610612740,1628404,1627742,202685,1629638,1628984,0022100188,1,216,216,0,2,1610612740
15,1610612763,1628415,1628991,203500,1630217,1629630,1610612740,1628404,1627742,202685,1629638,1628984,0022100188,1,227,229,0,0,1610612763
16,1610612763,1628415,1628991,203500,1630217,1629630,1610612740,1628404,1627742,202685,1629638,1628984,0022100188,1,251,251,0,2,1610612740
17,1610612763,1628415,1628991,203500,1630217,1629630,1610612740,1628404,1627742,202685,1629638,1628984,0022100188,1,253,271,0,0,1610612763
18,1610612763,1628415,1628991,203500,1630217,1629630,1610612740,1628404,1627742,202685,1629638,1628984,0022100188,1,285,285,0,2,1610612740
19,1610612763,1628415,1628991,203500,1630217,1629630,1610612740,1628404,1627742,202685,1629638,1628984,0022100188,1,294,298,0,0,1610612763
20,1610612763,1628415,1628991,203500,1630217,1629630,1610612740,1628404,1627742,202685,1629638,1628984,0022100188,1,301,303,0,0,1610612740
21,1610612763,1628415,1628991,203500,1630217,1629630,1610612740,1628404,1627742,202685,1629638,1628984,0022100188,1,306,306,3,0,1610612763
22,1610612763,1628415,1628991,203500,1630217,1629630,1610612740,1628404,1627742,202685,1629638,1628984,0022100188,1,330,330,0,0,1610612740
23,1610612763,1628415,1628991,203500,1630217,1629630,1610612740,1628404,1627742,202685,1629638,1628984,0022100188,1,336,336,0,0,1610612763
24,1610612763,1629001,1629630,1630217,203500,203937,1610612740,1627742,1628404,1628984,1630529,202685,0022100188,1,353,353,0,0,1610612740
25,1610612763,1629001,1629630,1630217,203500,203937,1610612740,1627742,1628404,1628984,1630529,202685,0022100188,1,369,373,0,0,1610612763
26,1610612763,1629001,1629630,1630217,203500,203937,1610612740,1627742,1628404,1628984,1630529,202685,0022100188,1,391,391,0,2,1610612740
27,1610612763,1629001,1629630,1630217,203500,203937,1610612740,1627742,1628404,1628984,1630529,202685,0022100188,1,407,407,3,0,1610612763
28,1610612763,1629001,1629630,1630217,203500,203937,1610612740,1627742,1628404,1628984,1630529,202685,0022100188,1,425,425,0,2,1610612740
29,1610612763,1629001,1629630,1630217,203500,203937,1610612740,1627742,1628404,1628984,1630529,202685,0022100188,1,439,447,0,0,1610612763
30,1610612763,1629001,1629630,1630217,203500,203937,1610612740,1627742,1628404,1628984,1630529,202685,0022100188,1,449,449,0,3,1610612740
31,1610612763,1629001,1629630,1630217,203500,203937,1610612740,1627742,1628404,1628984,1630529,202685,0022100188,1,464,467,0,0,1610612763
32,1610612763,1629001,1629630,1630217,203500,203937,1610612740,1627742,1628404,1628984,1630529,202685,0022100188,1,482,482,0,2,1610612740
33,1610612763,1629001,1629630,1630217,203500,203937,1610612740,1627742,1628404,1628984,1630529,202685,0022100188,1,483,503,3,0,1610612763
34,1610612763,1628991,1629001,1629630,1630533,203937,1610612740,1629637,1629638,1630529,202066,203107,0022100188,1,530,530,0,2,1610612740
35,1610612763,1628991,1629001,1629630,1630533,203937,1610612740,1629637,1629638,1630529,202066,203107,0022100188,1,545,552,0,0,1610612763
36,1610612763,1628991,1629001,1629630,1630533,203937,1610612740,1629637,1629638,1630529,202066,203107,0022100188,1,560,560,0,3,1610612740
37,1610612763,1628991,1629001,1629630,1630533,203937,1610612740,1629637,1629638,1630529,202066,203107,0022100188,1,576,588,0,0,1610612763
38,1610612763,1628991,1629001,1629630,1630533,203937,1610612740,1629637,1629638,1630529,202066,203107,0022100188,1,602,602,0,3,1610612740
39,1610612763,1628991,1629001,1629630,1630533,203937,1610612740,1629637,1629638,1630529,202066,203107,0022100188,1,624,624,0,0,1610612763
40,1610612763,1628991,1629001,1629630,1630533,203937,1610612740,1629637,1629638,1630529,202066,203107,0022100188,1,627,627,0,1,1610612740
41,1610612763,1628991,1629001,1629630,1630533,203937,1610612740,1629637,1629638,1630529,202066,203107,0022100188,1,642,646,0,0,1610612763
42,1610612763,1628991,1629001,1629630,1630533,203937,1610612740,1629637,1629638,1630529,202066,203107,0022100188,1,649,649,0,0,1610612740
43,1610612763,1628415,1628991,1629630,1629634,1630533,1610612740,1629637,1629638,1630529,202066,203107,0022100188,1,660,667,2,0,1610612763
44,1610612763,1628415,1628991,1629630,1629634,1630533,1610612740,1629637,1629638,1630529,202066,203107,0022100188,1,689,694,0,0,1610612740
45,1610612763,1628415,1628991,1629630,1629634,1630533,1610612740,1629637,1629638,1630529,202066,203107,0022100188,1,698,698,3,0,1610612763
46,1610612763,1628415,1628991,1629630,1629634,1630533,1610612740,1629637,1629638,1630529,202066,203107,0022100188,1,719,720,0,0,1610612763
47,1610612763,1628415,1628991,1630533,1629634,1626145,1610612740,1628404,202685,1629638,203107,202066,0022100188,2,720,743,0,0,1610612763
48,1610612763,1628415,1628991,1630533,1629634,1626145,1610612740,1628404,202685,1629638,203107,202066,0022100188,2,759,765,0,0,1610612740
49,1610612763,1628415,1628991,1630533,1629634,1626145,1610612740,1628404,202685,1629638,203107,202066,0022100188,2,767,767,2,0,1610612763
50,1610612763,1628415,1628991,1630533,1629634,1626145,1610612740,1628404,202685,1629638,203107,202066,0022100188,2,782,782,0,0,1610612740
51,1610612763,1628415,1628991,1630533,1629634,1626145,1610612740,1628404,202685,1629638,203107,202066,0022100188,2,782,799,0,0,1610612763
52,1610612763,1628415,1628991,1630533,1629634,1626145,1610612740,1628404,202685,1629638,203107,202066,0022100188,2,800,800,0,1,1610612740
53,1610612763,1628415,1628991,1630533,1629634,1626145,1610612740,1628404,202685,1629638,203107,202066,0022100188,2,815,815,0,0,1610612763
54,1610612763,1628415,1628991,1630533,1629634,1626145,1610612740,1628404,202685,1629638,203107,202066,0022100188,2,823,823,0,0,1610612740
55,1610612763,1628415,1628991,1630533,1629634,1626145,1610612740,1628404,202685,1629638,203107,202066,0022100188,2,831,835,0,0,1610612763
56,1610612763,1628415,1628991,1630533,1629634,1626145,1610612740,1628404,202685,1629638,203107,202066,0022100188,2,835,843,0,3,1610612740
57,1610612763,1628415,1628991,1630533,1629634,1626145,1610612740,1628404,202685,1629638,203107,202066,0022100188,2,843,868,0,0,1610612763
58,1610612763,1628415,1628991,1630533,1629634,1626145,1610612740,1628404,202685,1629638,203107,202066,0022100188,2,877,879,0,2,1610612740
59,1610612763,1628415,1628991,1630533,1629634,1626145,1610612740,1628404,202685,1629638,203107,202066,0022100188,2,880,898,2,0,1610612763
60,1610612763,1626145,1628415,1629634,1630533,203500,1610612740,1628404,202685,1629638,203107,202066,0022100188,2,913,916,0,0,1610612740
61,1610612763,1626145,1628415,1629634,1630533,203500,1610612740,1628404,202685,1629638,203107,202066,0022100188,2,928,939,2,0,1610612763
62,1610612763,1626145,1628415,1629634,1630533,203500,1610612740,1628404,202685,1629638,203107,202066,0022100188,2,958,959,0,0,1610612740
63,1610612763,1626145,1628415,1629634,1630533,203500,1610612740,1628404,202685,1629638,203107,202066,0022100188,2,965,979,0,0,1610612763
64,1610612763,1626145,1628415,1629634,1630533,203500,1610612740,1628404,1630529,1630530,202685,203107,0022100188,2,984,984,0,0,1610612740
65,1610612763,1626145,1628415,1629634,1630533,203500,1610612740,1628404,1630529,1630530,202685,203107,0022100188,2,990,990,0,0,1610612763
66,1610612763,1626145,1628415,1629634,1630533,203500,1610612740,1628404,1630529,1630530,202685,203107,0022100188,2,996,996,0,3,1610612740
67,1610612763,1626145,1628415,1629634,1630533,203500,1610612740,1628404,1630529,1630530,202685,203107,0022100188,2,1016,1021,0,0,1610612763
68,1610612763,1626145,1628415,1629634,1630533,203500,1610612740,1628404,1630529,1630530,202685,203107,0022100188,2,1026,1031,0,0,1610612740
69,1610612763,1626145,1628415,1629634,1630533,203500,1610612740,1628404,1630529,1630530,202685,203107,0022100188,2,1039,1041,0,0,1610612763
70,1610612763,1626145,1628415,1629634,1630533,203500,1610612740,1628404,1630529,1630530,202685,203107,0022100188,2,1051,1051,0,3,1610612740
71,1610612763,1626145,1628415,1629634,1630533,203500,1610612740,1628404,1630529,1630530,202685,203107,0022100188,2,1069,1069,0,0,1610612763
72,1610612763,1626145,1629001,1630217,203500,203937,1610612740,1627742,1628984,1629637,1630529,1630530,0022100188,2,1084,1084,0,3,1610612740
73,1610612763,1626145,1629001,1630217,203500,203937,1610612740,1627742,1628984,1629637,1630529,1630530,0022100188,2,1092,1097,2,0,1610612763
74,1610612763,1629001,1629630,1630217,203500,203937,1610612740,1627742,1628984,1629637,1630529,1630530,0022100188,2,1113,1117,0,0,1610612740
75,1610612763,1629001,1629630,1630217,203500,203937,1610612740,1627742,1628984,1629637,1630529,1630530,0022100188,2,1128,1128,2,0,1610612763
76,1610612763,1629001,1629630,1630217,203500,203937,1610612740,1627742,1628984,1629637,1630529,1630530,0022100188,2,1143,1143,0,2,1610612740
77,1610612763,1629001,1629630,1630217,203500,203937,1610612740,1627742,1628984,1629637,1630529,1630530,0022100188,2,1156,1156,2,0,1610612763
78,1610612763,1629001,1629630,1630217,203500,203937,1610612740,1627742,1628984,1629637,1630529,1630530,0022100188,2,1172,1178,0,0,1610612740
79,1610612763,1629001,1629630,1630217,203500,203937,1610612740,1627742,1628984,1629637,1630529,1630530,0022100188,2,1188,1188,2,0,1610612763
80,1610612763,1629001,1629630,1630217,203500,203937,1610612740,1627742,1628984,1629637,1630529,1630530,0022100188,2,1215,1226,0,2,1610612740
81,1610612763,1629001,1629630,1630217,203500,203937,1610612740,1627742,1628984,1629637,1630529,1630530,0022100188,2,1237,1237,2,0,1610612763
82,1610612763,1629001,1629630,1630217,203500,203937,1610612740,1627742,1628984,1629637,1630529,1630530,0022100188,2,1248,1252,0,0,1610612740
83,1610612763,1629001,1629630,1630217,203500,203937,1610612740,1627742,1628984,1629637,1630529,1630530,0022100188,2,1268,1268,0,0,1610612763
84,1610612763,1629001,1629630,1630217,203500,203937,1610612740,1627742,1628984,1629637,1630529,1630530,0022100188,2,1279,1279,0,2,1610612740
85,1610612763,1629001,1629630,1630217,203500,203937,1610612740,1627742,1628984,1629637,1630529,1630530,0022100188,2,1303,1303,2,0,1610612763
86,1610612763,1629001,1629630,1630217,203500,203937,1610612740,1627742,1628984,1629637,1630529,1630530,0022100188,2,1322,1322,0,3,1610612740
87,1610612763,1629001,1629630,1630217,203500,203937,1610612740,1627742,1628984,1629637,1630529,1630530,0022100188,2,1337,1338,0,0,1610612763
88,1610612763,1629001,1629630,1630217,203500,203937,1610612740,1627742,1628984,1629637,1630529,1630530,0022100188,2,1338,1340,0,1,1610612740
89,1610612763,1628415,1629630,1630217,203500,203937,1610612740,1627742,1628404,1628984,1629637,1630529,0022100188,2,1363,1363,2,0,1610612763
90,1610612763,1628415,1629630,1630217,203500,203937,1610612740,1627742,1628404,1628984,1629637,1630529,0022100188,2,1376,1376,0,2,1610612740
91,1610612763,1628415,1629630,1630217,203500,203937,1610612740,1627742,1628404,1628984,1629637,1630529,0022100188,2,1395,1395,2,0,1610612763
92,1610612763,1628415,1629630,1630217,203500,203937,1610612740,1627742,1628404,1628984,1629637,1630529,0022100188,2,1416,1417,0,0,1610612740
93,1610612763,1628415,1629630,1630217,203500,203937,1610612740,1627742,1628404,1628984,1629637,1630529,0022100188,2,1436,1440,0,0,0
94,1610612763,1628415,1628991,203500,1630217,1629630,1610612740,1628404,1627742,202685,1629638,1628984,0022100188,3,1440,1458,0,0,1610612763
95,1610612763,1628415,1628991,203500,1630217,1629630,1610612740,1628404,1627742,202685,1629638,1628984,0022100188,3,1465,1465,0,3,1610612740
96,1610612763,1628415,1628991,203500,1630217,1629630,1610612740,1628404,1627742,202685,1629638,1628984,0022100188,3,1485,1489,0,0,1610612763
97,1610612763,1628415,1628991,203500,1630217,1629630,1610612740,1628404,1627742,202685,1629638,1628984,0022100188,3,1507,1509,0,0,1610612740
98,1610612763,1628415,1628991,203500,1630217,1629630,1610612740,1628404,1627742,202685,1629638,1628984,0022100188,3,1512,1512,2,0,1610612763
99,1610612763,1628415,1628991,203500,1630217,1629630,1610612740,1628404,1627742,202685,1629638,1628984,0022100188,3,1531,1531,0,2,1610612740
100,1610612763,1628415,1628991,203500,1630217,1629630,1610612740,1628404,1627742,202685,1629638,1628984,0022100188,3,1544,1550,2,0,1610612763
101,1610612763,1628415,1628991,203500,1630217,1629630,1610612740,1628404,1627742,202685,1629638,1628984,0022100188,3,1564,1564,0,0,1610612740
102,1610612763,1628415,1628991,203500,1630217,1629630,1610612740,1628404,1627742,202685,1629638,1628984,0022100188,3,1577,1587,0,0,1610612763
103,1610612763,1628415,1628991,203500,1630217,1629630,1610612740,1628404,1627742,202685,1629638,1628984,0022100188,3,1589,1593,0,0,1610612740
104,1610612763,1628415,1628991,203500,1630217,1629630,1610612740,1628404,1627742,202685,1629638,1628984,0022100188,3,1596,1606,2,0,1610612763
105,1610612763,1628415,1628991,203500,1630217,1629630,1610612740,1628404,1627742,202685,1629638,1628984,0022100188,3,1631,1631,0,0,1610612740
106,1610612763,1628415,1628991,203500,1630217,1629630,1610612740,1628404,1627742,202685,1629638,1628984,0022100188,3,1633,1642,2,0,1610612763
107,1610612763,1628415,1628991,203500,1630217,1629630,1610612740,1628404,1627742,202685,1629638,1628984,0022100188,3,1659,1659,0,3,1610612740
108,1610612763,1628415,1628991,203500,1630217,1629630,1610612740,1628404,1627742,202685,1629638,1628984,0022100188,3,1671,1671,2,0,1610612763
109,1610612763,1628415,1628991,203500,1630217,1629630,1610612740,1628404,1627742,202685,1629638,1628984,0022100188,3,1684,1684,0,2,1610612740
110,1610612763,1628415,1628991,203500,1630217,1629630,1610612740,1628404,1627742,202685,1629638,1628984,0022100188,3,1695,1695,2,0,1610612763
111,1610612763,1628415,1628991,203500,1630217,1629630,1610612740,1628404,1627742,202685,1629638,1628984,0022100188,3,1713,1713,0,3,1610612740
112,1610612763,1628415,1628991,203500,1630217,1629630,1610612740,1628404,1627742,202685,1629638,1628984,0022100188,3,1727,1732,0,0,1610612763
113,1610612763,1628415,1628991,203500,1630217,1629630,1610612740,1628404,1627742,202685,1629638,1628984,0022100188,3,1736,1742,0,0,1610612740
114,1610612763,1628415,1628991,203500,1630217,1629630,1610612740,1628404,1627742,202685,1629638,1628984,0022100188,3,1746,1749,0,0,1610612763
115,1610612763,1628415,1628991,203500,1630217,1629630,1610612740,1628404,1627742,202685,1629638,1628984,0022100188,3,1749,1749,0,2,1610612740
116,1610612763,1628415,1629001,1629630,1630217,203500,1610612740,1627742,1628404,1628984,1630529,202685,0022100188,3,1755,1780,2,0,1610612763
117,1610612763,1628415,1629001,1629630,1630217,203500,1610612740,1627742,1628404,1628984,1630529,202685,0022100188,3,1794,1794,0,2,1610612740
118,1610612763,1628415,1629001,1629630,1630217,203500,1610612740,1627742,1628404,1628984,1630529,202685,0022100188,3,1811,1811,2,0,1610612763
119,1610612763,1628415,1629001,1629630,1630217,203500,1610612740,1627742,1628404,1628984,1630529,202685,0022100188,3,1832,1850,0,0,1610612740
120,1610612763,1629001,1629630,1630217,203500,203937,1610612740,1628404,1628984,1630529,202066,202685,0022100188,3,1862,1869,2,0,1610612763
121,1610612763,1629001,1629630,1630217,203500,203937,1610612740,1628404,1628984,1630529,202066,202685,0022100188,3,1878,1878,0,0,1610612740
122,1610612763,1629001,1629630,1630217,203500,203937,1610612740,1628404,1628984,1630529,202066,202685,0022100188,3,1884,1887,0,0,1610612763
123,1610612763,1629001,1629630,1630217,203500,203937,1610612740,1628404,1628984,1630529,202066,202685,0022100188,3,1892,1904,0,2,1610612740
124,1610612763,1629001,1629630,1630217,203500,203937,1610612740,1628404,1628984,1630529,202066,202685,0022100188,3,1923,1945,0,0,1610612763
125,1610612763,1629001,1629630,1630217,203500,203937,1610612740,1628404,1628984,1630529,202066,202685,0022100188,3,1951,1954,0,0,1610612740
126,1610612763,1629001,1629630,1630217,203500,203937,1610612740,1628404,1628984,1630529,202066,202685,0022100188,3,1968,1968,3,0,1610612763
127,1610612763,1629001,1629630,1630217,203500,203937,1610612740,1628404,1628984,1630529,202066,202685,0022100188,3,1990,1993,0,0,1610612740
128,1610612763,1629001,1629630,1630217,203500,203937,1610612740,1628404,1628984,1630529,202066,202685,0022100188,3,1999,1999,2,0,1610612763
129,1610612763,1629001,1629630,1630217,203500,203937,1610612740,1628404,1628984,1630529,202066,202685,0022100188,3,2020,2024,0,0,1610612740
130,1610612763,1629001,1629630,1630217,203500,203937,1610612740,1628404,1628984,1630529,202066,202685,0022100188,3,2025,2025,3,0,1610612763
131,1610612763,1629001,1629630,1630533,203500,203937,1610612740,1629637,1629638,1630529,202066,203107,0022100188,3,2037,2041,0,0,1610612740
132,1610612763,1629001,1629630,1630533,203500,203937,1610612740,1629637,1629638,1630529,202066,203107,0022100188,3,2049,2049,2,0,1610612763
133,1610612763,1629001,1629630,1630533,203500,203937,1610612740,1629637,1629638,1630529,202066,203107,0022100188,3,2049,2082,0,2,1610612740
134,1610612763,1628991,1629001,1629630,1630533,203937,1610612740,1629637,1629638,1630529,202066,203107,0022100188,3,2099,2102,0,0,1610612763
135,1610612763,1628991,1629001,1629630,1630533,203937,1610612740,1629637,1629638,1630529,202066,203107,0022100188,3,2106,2106,0,0,1610612740
136,1610612763,1628991,1629001,1629630,1630533,203937,1610612740,1629637,1629638,1630529,202066,203107,0022100188,3,2117,2118,0,0,1610612763
137,1610612763,1628991,1629001,1629630,1630533,203937,1610612740,1629637,1629638,1630529,202066,203107,0022100188,3,2139,2140,0,0,1610612740
138,1610612763,1628991,1629001,1629630,1630533,203937,1610612740,1629637,1629638,1630529,202066,203107,0022100188,3,2159,2159,0,0,1610612740
139,1610612763,1628415,1628991,1630533,1629634,1626145,1610612740,1628404,202685,1629638,203107,202066,0022100188,4,2160,2177,0,0,1610612740
140,1610612763,1628415,1628991,1630533,1629634,1626145,1610612740,1628404,202685,1629638,203107,202066,0022100188,4,2180,2186,0,0,1610612763
141,1610612763,1628415,1628991,1630533,1629634,1626145,1610612740,1628404,202685,1629638,203107,202066,0022100188,4,2205,2205,0,2,1610612740
142,1610612763,1628415,1628991,1630533,1629634,1626145,1610612740,1628404,202685,1629638,203107,202066,0022100188,4,2213,2213,2,0,1610612763
143,1610612763,1628415,1628991,1630533,1629634,1626145,1610612740,1628404,202685,1629638,203107,202066,0022100188,4,2229,2229,0,2,1610612740
144,1610612763,1628415,1628991,1630533,1629634,1626145,1610612740,1628404,202685,1629638,203107,202066,0022100188,4,2245,2245,0,0,1610612763
145,1610612763,1628415,1628991,1630533,1629634,1626145,1610612740,1628404,202685,1629638,203107,202066,0022100188,4,2255,2255,0,2,1610612740
146,1610612763,1628415,1628991,1630533,1629634,1626145,1610612740,1628404,202685,1629638,203107,202066,0022100188,4,2255,2270,2,0,1610612763
147,1610612763,1628415,1628991,1630533,1629634,1626145,1610612740,1628404,202685,1629638,203107,202066,0022100188,4,2279,2291,0,3,1610612740
148,1610612763,1628415,1628991,1630533,1629634,1626145,1610612740,1628404,202685,1629638,203107,202066,0022100188,4,2304,2307,2,0,1610612763
149,1610612763,1628415,1628991,1630533,1629634,1626145,1610612740,1628404,202685,1629638,203107,202066,0022100188,4,2328,2328,0,2,1610612740
150,1610612763,1628415,1628991,1630533,1629634,1626145,1610612740,1628404,202685,1629638,203107,202066,0022100188,4,2333,2333,0,0,1610612763
151,1610612763,1628415,1628991,1630533,1629634,1626145,1610612740,1628404,202685,1629638,203107,202066,0022100188,4,2333,2358,1,0,1610612740
152,1610612763,1626145,1628415,1629634,1630533,203500,1610612740,1628404,202685,1629638,203107,202066,0022100188,4,2366,2374,2,0,1610612763
153,1610612763,1626145,1628415,1629634,1630533,203500,1610612740,1628404,202685,1629638,203107,202066,0022100188,4,2382,2393,0,3,1610612740
154,1610612763,1626145,1628415,1629634,1630533,203500,1610612740,1627742,1629638,1630529,202685,203107,0022100188,4,2403,2416,0,0,1610612763
155,1610612763,1626145,1628415,1629634,1630533,203500,1610612740,1627742,1629638,1630529,202685,203107,0022100188,4,2431,2431,0,3,1610612740
156,1610612763,1626145,1628415,1629634,1630533,203500,1610612740,1627742,1629638,1630529,202685,203107,0022100188,4,2431,2442,3,0,1610612763
157,1610612763,1629001,1629630,1630217,203500,203937,1610612740,1627742,1630529,1630530,202685,203107,0022100188,4,2454,2457,0,2,1610612740
158,1610612763,1629001,1629630,1630217,203500,203937,1610612740,1627742,1629637,1630529,1630530,203107,0022100188,4,2475,2480,3,0,1610612763
159,1610612763,1629001,1629630,1630217,203500,203937,1610612740,1627742,1628984,1629637,1630529,1630530,0022100188,4,2505,2505,0,2,1610612740
160,1610612763,1629001,1629630,1630217,203500,203937,1610612740,1627742,1628984,1629637,1630529,1630530,0022100188,4,2514,2514,2,0,1610612763
161,1610612763,1629001,1629630,1630217,203500,203937,1610612740,1627742,1628984,1629637,1630529,1630530,0022100188,4,2539,2552,0,0,1610612740
162,1610612763,1629001,1629630,1630217,203500,203937,1610612740,1627742,1628984,1629637,1630529,1630530,0022100188,4,2558,2558,3,0,1610612763
163,1610612763,1629001,1629630,1630217,203500,203937,1610612740,1627742,1628984,1629637,1630529,1630530,0022100188,4,2559,2575,0,2,1610612740
164,1610612763,1628415,1629630,1630217,203500,203937,1610612740,1627742,1628984,1630529,1630530,202685,0022100188,4,2584,2584,3,0,1610612763
165,1610612763,1628415,1629630,1630217,203500,203937,1610612740,1627742,1628984,1630529,1630530,202685,0022100188,4,2605,2606,0,0,1610612740
166,1610612763,1628415,1629630,1630217,203500,203937,1610612740,1627742,1628984,1630529,1630530,202685,0022100188,4,2614,2614,2,0,1610612763
167,1610612763,1628415,1629630,1630217,203500,203937,1610612740,1627742,1628984,1630529,1630530,202685,0022100188,4,2640,2640,0,2,1610612740
168,1610612763,1628415,1629630,1630217,203500,203937,1610612740,1627742,1628984,1630529,1630530,202685,0022100188,4,2663,2663,0,0,1610612763
169,1610612763,1628415,1629630,1630217,203500,203937,1610612740,1627742,1628404,1628984,1630529,202685,0022100188,4,2684,2684,0,2,1610612740
170,1610612763,1628415,1629630,1630217,203500,203937,1610612740,1627742,1628404,1628984,1630529,202685,0022100188,4,2695,2695,0,0,1610612763
171,1610612763,1628415,1629630,1630217,203500,203937,1610612740,1627742,1628404,1628984,1630529,202685,0022100188,4,2702,2702,0,0,1610612740
172,1610612763,1628415,1629630,1630217,203500,203937,1610612740,1627742,1628404,1628984,1630529,202685,0022100188,4,2721,2734,0,0,1610612763
173,1610612763,1628415,1629630,1630217,203500,203937,1610612740,1627742,1628404,1628984,1630529,202685,0022100188,4,2754,2759,0,2,1610612740
174,1610612763,1628415,1629630,1630217,203500,203937,1610612740,1627742,1628404,1628984,1630529,202685,0022100188,4,2767,2772,0,0,1610612763
175,1610612763,1628415,1629630,1630217,203500,203937,1610612740,1627742,1628404,1628984,1630529,202685,0022100188,4,2789,2793,0,0,1610612740
176,1610612763,1628415,1629630,1630217,203500,203937,1610612740,1627742,1628404,1628984,1630529,202685,0022100188,4,2793,2793,2,0,1610612763
177,1610612763,1628415,1629630,1630217,203500,203937,1610612740,1627742,1628404,1628984,1630529,202685,0022100188,4,2815,2818,0,0,1610612740
178,1610612763,1628415,1629630,1630217,203500,203937,1610612740,1627742,1628404,1628984,1630529,202685,0022100188,4,2825,2829,0,0,1610612763
179,1610612763,1628415,1629630,1630217,203500,203937,1610612740,1627742,1628404,1628984,1630529,202685,0022100188,4,2849,2849,0,0,1610612740
180,1610612763,1628415,1629630,1630217,203500,203937,1610612740,1627742,1628404,1628984,1630529,202685,0022100188,4,2855,2855,2,0,1610612763
181,1610612763,1628415,1629630,1630217,203500,203937,1610612740,1627742,1628404,1628984,1630529,202685,0022100188,4,2879,2879,0,0,1610612740
