,t1_players,t2_pm,t2_id,t1_points_scored,stint_start,t1_pm,stint_end,t1_id,t2_points_scored,t2_players,margin_per_100,num_poss
0,"[1629652, 1629647, 201143, 1628983, 201588]",0,1610612766,8,0,0,284,1610612760,8,"[202330, 1629023, 202687, 1626179, 1628984]",0.0,19.0
1,"[1629652, 1629647, 201143, 1628983, 201588]",1,1610612766,10,285,-1,354,1610612760,11,"[202330, 1629023, 202687, 1626179, 1628984]",-4.3478260869565215,23.0
2,"[1629652, 1629647, 201143, 1628983, 201588]",-3,1610612766,20,355,3,507,1610612760,17,"[1626179, 1628970, 1630163, 202330, 202687]",9.090909090909092,33.0
3,"[1628983, 1629647, 1629652, 201588, 203488]",-1,1610612766,20,508,1,523,1610612760,19,"[1626179, 1628970, 1630163, 202330, 202687]",2.941176470588235,34.0
4,"[1628977, 1628983, 1629647, 1629652, 203488]",-3,1610612766,22,524,3,549,1610612760,19,"[1626179, 1628970, 1628998, 1629023, 1630163]",8.333333333333332,36.0
5,"[1628977, 1628983, 1629647, 1629652, 203488]",-5,1610612766,24,550,5,582,1610612760,19,"[1628970, 1628984, 1628998, 1629023, 1630163]",12.82051282051282,39.0
6,"[1628977, 1628983, 1629647, 1630177, 203488]",-1,1610612766,26,583,1,719,1610612760,25,"[1628970, 1628984, 1628998, 1629023, 1630163]",2.127659574468085,47.0
7,"[1628977, 1629026, 1630177, 1630197, 203488]",7,1610612766,28,720,-7,861,1610612760,35,"[1628984, 1628997, 1628998, 1629023, 1629667]",-11.864406779661017,59.0
8,"[201143, 1628977, 1630177, 1630197, 1629026]",10,1610612766,31,862,-10,931,1610612760,41,"[202330, 202687, 1628984, 1629667, 1628997]",-15.384615384615385,65.0
9,"[201143, 1628977, 1630177, 1630197, 1629026]",10,1610612766,31,932,-10,950,1610612760,41,"[1628984, 1628998, 1629667, 202330, 202687]",-15.151515151515152,66.0
10,"[1629026, 1629652, 1630177, 1630197, 201143]",11,1610612766,31,951,-11,962,1610612760,42,"[1628984, 1628998, 1629667, 202330, 202687]",-16.417910447761194,67.0
11,"[1629026, 1629652, 1630177, 1630197, 203488]",11,1610612766,33,963,-11,1024,1610612760,44,"[1628984, 1628998, 1629023, 1629667, 202330]",-15.492957746478872,71.0
12,"[1628983, 1629026, 1629652, 1630177, 203488]",7,1610612766,39,1025,-7,1095,1610612760,46,"[1628970, 1628998, 1629023, 1630163, 202330]",-9.090909090909092,77.0
13,"[1628983, 1629026, 1629652, 1630177, 203488]",3,1610612766,43,1096,-3,1135,1610612760,46,"[1626179, 1628970, 1628998, 1629023, 1630163]",-3.75,80.0
14,"[1628983, 1629026, 1629652, 1630177, 203488]",7,1610612766,43,1136,-7,1176,1610612760,50,"[1626179, 1628970, 1628998, 1630163, 202687]",-8.433734939759036,83.0
15,"[1628983, 1629647, 1629652, 1630177, 203488]",7,1610612766,43,1177,-7,1188,1610612760,50,"[1626179, 1628970, 1628998, 1630163, 202687]",-8.333333333333332,84.0
16,"[1628983, 1629647, 1629652, 1630177, 203488]",7,1610612766,47,1189,-7,1263,1610612760,54,"[1626179, 1628970, 1628984, 202330, 202687]",-7.954545454545454,88.0
17,"[1628983, 1629647, 1629652, 201143, 201588]",-1,1610612766,55,1264,1,1385,1610612760,54,"[1626179, 1628970, 1628984, 202330, 202687]",1.0416666666666665,96.0
18,"[1628983, 1629647, 1629652, 201143, 201588]",2,1610612766,57,1386,-2,1439,1610612760,59,"[1626179, 1628984, 1629023, 202330, 202687]",-2.0202020202020203,99.0
19,"[1628983, 1629647, 1629652, 201143, 201588]",-3,1610612766,66,1440,3,1708,1610612760,63,"[1626179, 1628970, 1628984, 202330, 202687]",2.479338842975207,121.0
20,"[1629652, 1629647, 201143, 1628983, 201588]",-3,1610612766,68,1709,3,1736,1610612760,65,"[202330, 1629023, 202687, 1626179, 1628984]",2.4390243902439024,123.0
21,"[1629652, 1629647, 201143, 1628983, 201588]",-8,1610612766,73,1737,8,1800,1610612760,65,"[1626179, 1628970, 1628984, 202330, 202687]",6.349206349206349,126.0
22,"[1629652, 1629647, 201143, 1628983, 201588]",-6,1610612766,73,1801,6,1855,1610612760,67,"[1626179, 1628970, 1630163, 202330, 202687]",4.615384615384616,130.0
23,"[1628977, 1628983, 1629647, 1629652, 203488]",-8,1610612766,75,1856,8,1888,1610612760,67,"[1628970, 1628997, 1630163, 202330, 202687]",6.015037593984962,133.0
24,"[1628977, 1628983, 1629647, 1629652, 203488]",-9,1610612766,76,1889,9,1935,1610612760,67,"[1628970, 1628997, 1628998, 1629023, 1630163]",6.61764705882353,136.0
25,"[1628977, 1628983, 1629647, 1629652, 1630177]",-9,1610612766,76,1936,9,1965,1610612760,67,"[1628970, 1628997, 1628998, 1629023, 1630163]",6.428571428571428,140.0
26,"[1628977, 1628983, 1629647, 1629652, 1630177]",-6,1610612766,76,1966,6,2013,1610612760,70,"[1628970, 1628984, 1628997, 1628998, 1629023]",4.225352112676056,142.0
27,"[1628977, 1628983, 1629026, 1630177, 203488]",-6,1610612766,76,2014,6,2030,1610612760,70,"[1628970, 1628984, 1628997, 1628998, 1629023]",4.195804195804196,143.0
28,"[1628977, 1629026, 1630177, 1630197, 203488]",-5,1610612766,80,2031,5,2158,1610612760,75,"[1628970, 1628984, 1628997, 1628998, 1629023]",3.3333333333333335,150.0
29,"[1628977, 1629026, 1630177, 1630197, 203488]",-6,1610612766,83,2159,6,2314,1610612760,77,"[1628984, 1628997, 1628998, 1629023, 1629667]",3.7267080745341614,161.0
30,"[201143, 1628977, 1630177, 1630197, 1629026]",-8,1610612766,85,2315,8,2376,1610612760,77,"[202330, 202687, 1628984, 1629667, 1628997]",4.848484848484849,165.0
31,"[1628977, 1629026, 1629647, 1630177, 201143]",-8,1610612766,85,2377,8,2390,1610612760,77,"[1626179, 1628984, 1628997, 202330, 202687]",4.819277108433735,166.0
32,"[1628977, 1629026, 1629647, 1630177, 201143]",-7,1610612766,87,2391,7,2476,1610612760,80,"[1626179, 1628997, 1630163, 202330, 202687]",4.093567251461988,171.0
33,"[1628977, 1629647, 1629652, 1630177, 203488]",-10,1610612766,93,2477,10,2569,1610612760,83,"[1626179, 1628997, 1630163, 202330, 202687]",5.617977528089887,178.0
34,"[1628977, 1628983, 1629647, 1629652, 203488]",-10,1610612766,93,2570,10,2608,1610612760,83,"[1626179, 1628970, 1628998, 1629023, 1630163]",5.555555555555555,180.0
35,"[1628983, 1629647, 1629652, 201588, 203488]",0,1610612766,107,2609,0,2870,1610612760,107,"[1626179, 1628970, 1628984, 1628998, 1629023]",0.0,207.0
36,"[1628983, 1629647, 1629652, 201143, 201588]",0,1610612766,107,2871,0,2878,1610612760,107,"[1626179, 1628970, 1628984, 1629023, 202330]",0.0,207.0
37,"[1628983, 1629647, 1629652, 201143, 201588]",-2,1610612766,109,2879,2,9999999,1610612760,107,"[1626179, 1628970, 1628998, 1629023, 202330]",0.9569377990430622,209.0
