,stint_start,t1_points_scored,t2_pm,stint_end,t1_id,t2_points_scored,t1_players,t2_id,t1_pm,t2_players,margin_per_100,num_poss
0,0,14,4,307,1610612758,18,"[203084, 202357, 1626158, 1627741, 1628368]",1610612743,-4,"[1629008, 203924, 203999, 203115, 1627750]",-18.181818181818183,22.0
1,308,19,3,437,1610612758,22,"[203084, 202357, 1626158, 1627741, 1628368]",1610612743,-3,"[1629008, 203924, 203999, 203115, 1627750]",-10.714285714285714,28.0
2,438,23,3,506,1610612758,26,"[1626158, 1627741, 202357, 202709, 203084]",1610612743,-3,"[1629008, 203924, 203999, 203115, 1627750]",-9.090909090909092,33.0
3,507,28,-2,578,1610612758,26,"[1626158, 1627741, 202357, 202709, 203992]",1610612743,2,"[1628420, 1629008, 203115, 203924, 203999]",5.555555555555555,36.0
4,579,32,-3,711,1610612758,29,"[1626158, 1627741, 202357, 202709, 203992]",1610612743,3,"[1627823, 1628420, 203115, 203486, 203924]",6.8181818181818175,44.0
5,712,32,-1,718,1610612758,31,"[1627741, 1628385, 202709, 203084, 203992]",1610612743,1,"[1627736, 1627750, 1627823, 1628420, 203486]",2.2222222222222223,45.0
6,719,42,-5,948,1610612758,37,"[1627741, 1628368, 1628385, 203084, 203992]",1610612743,5,"[1627736, 1627823, 1628420, 1628470, 203486]",8.19672131147541,61.0
7,949,47,-3,1057,1610612758,44,"[203084, 1628368, 203992, 1628385, 2772]",1610612743,3,"[1628420, 1627823, 203486, 1627736, 1628470]",4.411764705882353,68.0
8,1058,47,1,1128,1610612758,48,"[1628385, 202357, 202709, 203992, 2772]",1610612743,-1,"[1628420, 1627823, 203486, 1627736, 1628470]",-1.36986301369863,73.0
9,1129,49,2,1169,1610612758,51,"[1626158, 1627741, 202357, 202709, 2772]",1610612743,-2,"[1627736, 1627750, 203115, 203924, 203999]",-2.631578947368421,76.0
10,1170,50,5,1232,1610612758,55,"[1626158, 1627741, 202357, 202709, 2772]",1610612743,-5,"[1627750, 1629008, 203115, 203924, 203999]",-6.25,80.0
11,1233,50,5,1254,1610612758,55,"[1626158, 1627741, 202357, 202709, 203084]",1610612743,-5,"[1627750, 1629008, 203115, 203924, 203999]",-6.097560975609756,82.0
12,1255,57,5,1435,1610612758,62,"[1626158, 1627741, 1628368, 203084, 203992]",1610612743,-5,"[1627750, 1629008, 203115, 203924, 203999]",-5.263157894736842,95.0
13,1436,76,2,1769,1610612758,78,"[1626158, 1627741, 1628368, 203084, 203992]",1610612743,-2,"[1627750, 1629008, 203115, 203486, 203924]",-1.6528925619834711,121.0
14,1770,76,6,1897,1610612758,82,"[203084, 202357, 1626158, 1627741, 1628368]",1610612743,-6,"[1629008, 203924, 203999, 203115, 1627750]",-4.761904761904762,126.0
15,1898,76,9,1935,1610612758,85,"[203084, 202357, 1626158, 1627741, 1628368]",1610612743,-9,"[1627750, 1627823, 203115, 203924, 203999]",-7.03125,128.0
16,1936,76,9,1971,1610612758,85,"[1628385, 202357, 202709, 203992, 2772]",1610612743,-9,"[1627750, 1627823, 203115, 203924, 203999]",-6.923076923076923,130.0
17,1972,77,8,2028,1610612758,85,"[1628385, 202357, 202709, 203992, 2772]",1610612743,-8,"[1627736, 1627750, 1627823, 203924, 203999]",-5.970149253731343,134.0
18,2029,80,6,2140,1610612758,86,"[1628385, 202357, 202709, 203992, 2772]",1610612743,-6,"[1627736, 1627750, 1627823, 203486, 203924]",-4.25531914893617,141.0
19,2141,80,8,2159,1610612758,88,"[1628385, 202357, 202709, 203992, 2772]",1610612743,-8,"[1627736, 1627823, 1628420, 1628470, 203486]",-5.633802816901409,142.0
20,2160,80,8,2159,1610612758,88,"[1628368, 1628385, 202357, 203992, 2772]",1610612743,-8,"[1627736, 1627823, 1628420, 1628470, 203486]",-5.633802816901409,142.0
21,2160,83,13,2320,1610612758,96,"[1628368, 1628385, 202357, 203992, 2772]",1610612743,-13,"[1627736, 1627823, 1628470, 203486, 203999]",-8.49673202614379,153.0
22,2321,90,11,2445,1610612758,101,"[1626158, 1628368, 202709, 203992, 2772]",1610612743,-11,"[1629008, 1628420, 1627823, 203486, 1627736]",-6.875000000000001,160.0
23,2446,92,12,2510,1610612758,104,"[1626158, 1627741, 1628368, 203084, 2772]",1610612743,-12,"[1629008, 1628420, 1627823, 203486, 1627736]",-7.317073170731707,164.0
24,2511,99,9,2578,1610612758,108,"[1627741, 1628368, 1628385, 203084, 2772]",1610612743,-9,"[1627736, 1627750, 1629008, 203486, 203924]",-5.294117647058823,170.0
25,2579,107,3,2733,1610612758,110,"[1627741, 1628368, 1628385, 202357, 203992]",1610612743,-3,"[1627750, 1629008, 203115, 203924, 203999]",-1.6853932584269662,178.0
26,2734,112,6,2854,1610612758,118,"[1627741, 1628368, 1628385, 202357, 203992]",1610612743,-6,"[1627736, 1627750, 203115, 203924, 203999]",-3.2085561497326207,187.0
27,2855,115,3,2863,1610612758,118,"[1626158, 1627741, 1628368, 202357, 203992]",1610612743,-3,"[1627736, 1627750, 203115, 203924, 203999]",-1.5957446808510638,188.0
28,2864,115,5,2877,1610612758,120,"[1626158, 1627741, 1628368, 202357, 203992]",1610612743,-5,"[1627736, 1628470, 203115, 203486, 203924]",-2.6455026455026456,189.0
29,2878,115,5,9999999,1610612758,120,"[1627741, 1628368, 202357, 203084, 203992]",1610612743,-5,"[1627736, 1628470, 203115, 203486, 203924]",-2.631578947368421,190.0
