,team1_id,team1_player1,team1_player2,team1_player3,team1_player4,team1_player5,team2_id,team2_player1,team2_player2,team2_player3,team2_player4,team2_player5,game_id,period,possession_start,possession_end,team1_points,team2_points,possession_team
0,1610612740,1627742,1629627,202324,201950,1628366,1610612750,1629006,1627823,1629675,1627736,1626156,0021900947,1,0,16,2,0,1610612740
1,1610612740,1627742,1629627,202324,201950,1628366,1610612750,1629006,1627823,1629675,1627736,1626156,0021900947,1,33,34,0,0,1610612750
2,1610612740,1627742,1629627,202324,201950,1628366,1610612750,1629006,1627823,1629675,1627736,1626156,0021900947,1,38,38,3,0,1610612740
3,1610612740,1627742,1629627,202324,201950,1628366,1610612750,1629006,1627823,1629675,1627736,1626156,0021900947,1,48,50,0,0,1610612750
4,1610612740,1627742,1629627,202324,201950,1628366,1610612750,1629006,1627823,1629675,1627736,1626156,0021900947,1,55,55,0,0,1610612740
5,1610612740,1627742,1629627,202324,201950,1628366,1610612750,1629006,1627823,1629675,1627736,1626156,0021900947,1,67,67,0,2,1610612750
6,1610612740,1627742,1629627,202324,201950,1628366,1610612750,1629006,1627823,1629675,1627736,1626156,0021900947,1,82,88,0,0,1610612740
7,1610612740,1627742,1629627,202324,201950,1628366,1610612750,1629006,1627823,1629675,1627736,1626156,0021900947,1,99,99,0,2,1610612750
8,1610612740,1627742,1629627,202324,201950,1628366,1610612750,1629006,1627823,1629675,1627736,1626156,0021900947,1,110,110,0,0,1610612740
9,1610612740,1627742,1629627,202324,201950,1628366,1610612750,1629006,1627823,1629675,1627736,1626156,0021900947,1,115,116,0,0,1610612750
10,1610612740,1627742,1629627,202324,201950,1628366,1610612750,1629006,1627823,1629675,1627736,1626156,0021900947,1,124,124,0,0,1610612740
11,1610612740,1627742,1629627,202324,201950,1628366,1610612750,1629006,1627823,1629675,1627736,1626156,0021900947,1,134,137,0,0,1610612750
12,1610612740,1627742,1629627,202324,201950,1628366,1610612750,1629006,1627823,1629675,1627736,1626156,0021900947,1,146,146,2,0,1610612740
13,1610612740,1627742,1629627,202324,201950,1628366,1610612750,1629006,1627823,1629675,1627736,1626156,0021900947,1,160,160,0,2,1610612750
14,1610612740,1627742,1629627,202324,201950,1628366,1610612750,1629006,1627823,1629675,1627736,1626156,0021900947,1,172,176,0,0,1610612740
15,1610612740,1627742,1629627,202324,201950,1628366,1610612750,1629006,1627823,1629675,1627736,1626156,0021900947,1,179,179,0,2,1610612750
16,1610612740,1627742,1629627,202324,201950,1628366,1610612750,1629006,1627823,1629675,1627736,1626156,0021900947,1,193,193,2,0,1610612740
17,1610612740,1627742,1629627,202324,201950,1628366,1610612750,1629006,1627823,1629675,1627736,1626156,0021900947,1,209,210,0,0,1610612750
18,1610612740,1627742,1629627,202324,201950,1628366,1610612750,1629006,1627823,1629675,1627736,1626156,0021900947,1,214,215,1,0,1610612740
19,1610612740,1627742,1629627,202324,201950,1628366,1610612750,1629006,1627823,1629675,1627736,1626156,0021900947,1,224,224,0,2,1610612750
20,1610612740,1627742,1629627,202324,201950,1628366,1610612750,1629006,1627823,1629675,1627736,1626156,0021900947,1,236,236,2,0,1610612740
21,1610612740,1627742,1629627,202324,201950,1628366,1610612750,1629006,1627823,1629675,1627736,1626156,0021900947,1,253,253,0,2,1610612750
22,1610612740,1627742,1629627,202324,201950,1628366,1610612750,1629006,1627823,1629675,1627736,1626156,0021900947,1,260,260,2,0,1610612740
23,1610612740,1627742,1629627,202324,201950,1628366,1610612750,1629006,1627823,1629675,1627736,1626156,0021900947,1,268,269,0,0,1610612750
24,1610612740,1627742,1629627,202324,201950,1628366,1610612750,1629006,1627823,1629675,1627736,1626156,0021900947,1,271,271,3,0,1610612740
25,1610612740,1627742,1629627,202324,201950,1628366,1610612750,1629006,1627823,1629675,1627736,1626156,0021900947,1,271,290,0,0,1610612750
26,1610612740,1627742,1629627,202324,201950,1628366,1610612750,1629006,1627823,1629675,1627736,1626156,0021900947,1,294,300,0,0,1610612740
27,1610612740,1627742,1629627,202324,201950,1628366,1610612750,1627736,1629006,1629162,1629675,201949,0021900947,1,304,304,0,3,1610612750
28,1610612740,1627742,1629627,202324,201950,1628366,1610612750,1627736,1629006,1629162,1629675,201949,0021900947,1,314,314,2,0,1610612740
29,1610612740,1627742,1629627,202324,201950,1628366,1610612750,1627736,1629006,1629162,1629675,201949,0021900947,1,325,327,0,0,1610612750
30,1610612740,1627742,1629627,202324,201950,1628366,1610612750,1627736,1629006,1629162,1629675,201949,0021900947,1,331,331,2,0,1610612740
31,1610612740,1627742,1629627,202324,201950,1628366,1610612750,1627736,1629006,1629162,1629675,201949,0021900947,1,337,338,0,1,1610612750
32,1610612740,1627742,1629627,202324,201950,1628366,1610612750,1627736,1629006,1629162,1629675,201949,0021900947,1,346,346,3,0,1610612740
33,1610612740,1627742,1629627,202324,201950,1628366,1610612750,1627736,1629006,1629162,1629675,201949,0021900947,1,359,360,0,0,1610612750
34,1610612740,1627742,1629627,202324,201950,1628366,1610612750,1627736,1629006,1629162,1629675,201949,0021900947,1,364,367,0,0,1610612740
35,1610612740,1627742,1629627,202324,201950,1628366,1610612750,1627736,1629006,1629162,1629675,201949,0021900947,1,387,390,0,0,1610612750
36,1610612740,1627742,1629627,202324,201950,1628366,1610612750,1627736,1629006,1629162,1629675,201949,0021900947,1,393,393,2,0,1610612740
37,1610612740,1627742,1629627,202324,201950,1628366,1610612750,1627736,1629006,1629162,1629675,201949,0021900947,1,409,410,0,0,1610612750
38,1610612740,1627742,1629627,202324,201950,1628366,1610612750,1627736,1629006,1629162,1629675,201949,0021900947,1,418,418,2,0,1610612740
39,1610612740,1627742,1629627,202324,201950,1628366,1610612750,1627736,1629006,1629162,1629675,201949,0021900947,1,434,437,0,0,1610612750
40,1610612740,1627742,1629627,202324,201950,1628366,1610612750,1627736,1629006,1629162,1629675,201949,0021900947,1,439,439,2,0,1610612740
41,1610612740,1627742,1629627,202324,201950,1628366,1610612750,1627736,1629006,1629162,1629675,201949,0021900947,1,439,439,2,0,1610612740
42,1610612740,1627742,1629627,202324,201950,1628366,1610612750,1627736,1629006,1629162,1629675,201949,0021900947,1,439,454,0,0,1610612750
43,1610612740,1627742,1628366,1628404,1629740,201950,1610612750,1627736,1627774,1629162,1629633,201949,0021900947,1,467,469,0,0,1610612740
44,1610612740,1627742,1628366,1628404,1629740,201950,1610612750,1627736,1627774,1629162,1629633,201949,0021900947,1,477,481,0,0,1610612750
45,1610612740,1627742,1628366,1628404,1629740,201950,1610612750,1627736,1627774,1629162,1629633,201949,0021900947,1,495,495,3,0,1610612740
46,1610612740,1627742,1628402,1628404,1629740,201950,1610612750,1627736,1627774,1629162,1629633,201949,0021900947,1,507,507,0,1,1610612750
47,1610612740,1627742,1628402,1628404,1629740,202734,1610612750,1626156,1627774,1629162,1629633,201949,0021900947,1,520,520,1,0,1610612740
48,1610612740,1627742,1628402,1628404,1629740,202734,1610612750,1626156,1627774,1629162,1629633,201949,0021900947,1,535,535,0,2,1610612750
49,1610612740,1627742,1628402,1628404,1629740,202734,1610612750,1626156,1627774,1629162,1629633,201949,0021900947,1,543,551,0,0,1610612740
50,1610612740,1627742,1628402,1628404,1629740,202734,1610612750,1626156,1627774,1629162,1629633,201949,0021900947,1,556,556,0,2,1610612750
51,1610612740,1627742,1628402,1628404,1629740,202734,1610612750,1626156,1627774,1629162,1629633,201949,0021900947,1,566,568,0,0,1610612740
52,1610612740,1627742,1628402,1628404,1629740,202734,1610612750,1626156,1627774,1629162,1629633,201949,0021900947,1,578,578,0,0,1610612750
53,1610612740,1627742,1628402,1628404,1629740,202734,1610612750,1626156,1627774,1629162,1629633,201949,0021900947,1,593,594,0,0,1610612740
54,1610612740,1627742,1628402,1628404,1629740,202734,1610612750,1626156,1627774,1629162,1629633,201949,0021900947,1,603,606,0,0,1610612750
55,1610612740,1627742,1628402,1628404,1629740,202734,1610612750,1626156,1627774,1629162,1629633,201949,0021900947,1,617,617,0,0,1610612740
56,1610612740,1627742,1628402,1628404,1629740,202734,1610612750,1626156,1627774,1629162,1629633,201949,0021900947,1,617,617,0,2,1610612750
57,1610612740,1627742,1628402,1628404,1629740,202734,1610612750,1626156,1627774,1629162,1629633,201949,0021900947,1,631,635,0,0,1610612740
58,1610612740,1627742,1628402,1628404,1629740,202734,1610612750,1626156,1627774,1629162,1629633,201949,0021900947,1,643,643,0,2,1610612750
59,1610612740,1627742,1628402,1628404,1629740,202734,1610612750,1626156,1627774,1629162,1629633,201949,0021900947,1,659,659,2,0,1610612740
60,1610612740,1627742,1628402,1628404,1629740,202734,1610612750,1626156,1627774,1629162,1629633,201949,0021900947,1,668,668,0,2,1610612750
61,1610612740,1627742,1628402,1628404,1629740,202734,1610612750,1626156,1627774,1629162,1629633,201949,0021900947,1,679,679,0,0,1610612740
62,1610612740,1627742,1628402,1628404,1629740,202734,1610612750,1626156,1627774,1629162,1629633,201949,0021900947,1,690,693,0,2,1610612750
63,1610612740,1627742,1628402,1628404,1629740,202734,1610612750,1626156,1627774,1629162,1629633,201949,0021900947,1,713,716,0,0,1610612740
64,1610612740,1627742,1628402,1628404,1629740,202734,1610612750,1626156,1627774,1629162,1629633,201949,0021900947,1,720,720,0,0,1610612740
65,1610612740,1629627,1628366,1629740,1628404,202734,1610612750,1629675,1626156,1627774,1629633,1629669,0021900947,2,720,738,0,2,1610612750
66,1610612740,1629627,1628366,1629740,1628404,202734,1610612750,1629675,1626156,1627774,1629633,1629669,0021900947,2,753,763,0,0,1610612740
67,1610612740,1629627,1628366,1629740,1628404,202734,1610612750,1629675,1626156,1627774,1629633,1629669,0021900947,2,770,779,0,2,1610612750
68,1610612740,1629627,1628366,1629740,1628404,202734,1610612750,1629675,1626156,1627774,1629633,1629669,0021900947,2,791,791,3,0,1610612740
69,1610612740,1629627,1628366,1629740,1628404,202734,1610612750,1629675,1626156,1627774,1629633,1629669,0021900947,2,798,806,0,2,1610612750
70,1610612740,1628366,1628404,1629627,202324,202734,1610612750,1629675,1626156,1627774,1629633,1629669,0021900947,2,820,820,0,0,1610612740
71,1610612740,1628366,1628404,1629627,202324,202734,1610612750,1629675,1626156,1627774,1629633,1629669,0021900947,2,820,827,0,0,1610612750
72,1610612740,1628366,1628404,1629627,202324,202734,1610612750,1629675,1626156,1627774,1629633,1629669,0021900947,2,833,833,3,0,1610612740
73,1610612740,1628366,1628404,1629627,202324,202734,1610612750,1629675,1626156,1627774,1629633,1629669,0021900947,2,856,859,0,0,1610612750
74,1610612740,1628366,1628404,1629627,202324,202734,1610612750,1629675,1626156,1627774,1629633,1629669,0021900947,2,864,875,1,0,1610612740
75,1610612740,1628366,1628404,1629627,202324,202734,1610612750,1626156,1627774,1627823,1629633,1629669,0021900947,2,884,884,0,1,1610612750
76,1610612740,1628366,1628404,1629627,1629740,202734,1610612750,1626156,1627774,1627823,1629633,1629669,0021900947,2,908,908,0,0,1610612740
77,1610612740,1628366,1628404,1629627,1629740,202734,1610612750,1626156,1627774,1627823,1629633,1629669,0021900947,2,908,908,0,2,1610612750
78,1610612740,1628366,1628404,1629627,1629740,201950,1610612750,1626156,1627774,1627823,1629633,1629669,0021900947,2,919,919,0,0,1610612740
79,1610612740,1628366,1628404,1629627,1629740,201950,1610612750,1626156,1627774,1627823,1629633,1629669,0021900947,2,931,934,0,0,1610612750
80,1610612740,1628366,1628404,1629627,1629740,201950,1610612750,1626156,1627774,1627823,1629633,1629669,0021900947,2,941,941,3,0,1610612740
81,1610612740,1628366,1628404,1629627,1629740,201950,1610612750,1626156,1627774,1627823,1629633,1629669,0021900947,2,960,962,0,0,1610612750
82,1610612740,1628366,1628404,1629627,1629740,201950,1610612750,1626156,1627774,1627823,1629633,1629669,0021900947,2,979,981,0,0,1610612740
83,1610612740,1628366,1628404,1629627,1629740,201950,1610612750,1626156,1627774,1627823,1629633,1629669,0021900947,2,990,990,0,2,1610612750
84,1610612740,1628366,1628404,1629627,1629740,201950,1610612750,1626156,1627774,1627823,1629633,1629669,0021900947,2,998,1000,0,0,1610612740
85,1610612740,1628366,1628404,1629627,1629740,201950,1610612750,1626156,1627774,1627823,1629633,1629669,0021900947,2,1000,1000,0,2,1610612750
86,1610612740,1628402,1628404,1629627,1629740,201950,1610612750,1626156,1627823,1629633,1629669,201949,0021900947,2,1011,1011,2,0,1610612740
87,1610612740,1628402,1628404,1629627,1629740,201950,1610612750,1626156,1627823,1629633,1629669,201949,0021900947,2,1022,1022,0,3,1610612750
88,1610612740,1628402,1628404,1629627,1629740,201950,1610612750,1626156,1627736,1627823,1629006,201949,0021900947,2,1037,1040,0,0,1610612740
89,1610612740,1628402,1628404,1629627,1629740,201950,1610612750,1627736,1627823,1629006,1629162,201949,0021900947,2,1050,1050,0,3,1610612750
90,1610612740,1628402,1628404,1629627,1629740,201950,1610612750,1627736,1627823,1629006,1629162,201949,0021900947,2,1060,1073,0,0,1610612740
91,1610612740,1627742,1628402,1628404,1629740,201950,1610612750,1627736,1627823,1629006,1629162,201949,0021900947,2,1087,1089,0,0,1610612750
92,1610612740,1627742,1628402,1628404,1629740,201950,1610612750,1627736,1627823,1629006,1629162,201949,0021900947,2,1094,1094,3,0,1610612740
93,1610612740,1627742,1628402,1628404,1629740,201950,1610612750,1627736,1627823,1629006,1629162,201949,0021900947,2,1109,1109,0,2,1610612750
94,1610612740,1627742,1628402,1628404,1629740,201950,1610612750,1627736,1627823,1629006,1629162,201949,0021900947,2,1118,1118,0,0,1610612740
95,1610612740,1627742,1628402,1628404,1629740,201950,1610612750,1627736,1627823,1629006,1629162,201949,0021900947,2,1140,1143,0,0,1610612750
96,1610612740,1627742,1628402,1628404,1629740,201950,1610612750,1627736,1627823,1629006,1629162,201949,0021900947,2,1150,1150,2,0,1610612740
97,1610612740,1627742,1628402,1628404,1629740,201950,1610612750,1627736,1627823,1629006,1629162,201949,0021900947,2,1163,1164,0,0,1610612750
98,1610612740,1627742,1628402,1628404,1629740,201950,1610612750,1627736,1627823,1629006,1629162,201949,0021900947,2,1171,1174,2,0,1610612740
99,1610612740,1627742,1628402,1628404,1629740,201950,1610612750,1627736,1627823,1629006,1629162,201949,0021900947,2,1189,1189,0,0,1610612750
100,1610612740,1627742,1628402,1628404,1629740,201950,1610612750,1627736,1627823,1629006,1629162,201949,0021900947,2,1197,1197,2,0,1610612740
101,1610612740,1627742,1628402,1628404,1629740,201950,1610612750,1627736,1627823,1629006,1629162,201949,0021900947,2,1209,1209,0,3,1610612750
102,1610612740,1627742,1628402,1628404,1629740,201950,1610612750,1627736,1627823,1629006,1629162,201949,0021900947,2,1224,1224,2,0,1610612740
103,1610612740,1627742,1628402,1628404,1629740,201950,1610612750,1627736,1627823,1629006,1629162,201949,0021900947,2,1234,1234,0,3,1610612750
104,1610612740,1627742,1628402,1628404,1629740,201950,1610612750,1627736,1627823,1629006,1629162,201949,0021900947,2,1246,1246,3,0,1610612740
105,1610612740,1627742,1628402,1628404,1629740,201950,1610612750,1627736,1627823,1629006,1629162,201949,0021900947,2,1261,1261,0,0,1610612750
106,1610612740,1627742,1628402,1628404,1629740,201950,1610612750,1627736,1627823,1629006,1629162,201949,0021900947,2,1269,1273,0,0,1610612740
107,1610612740,1627742,1628402,1628404,1629740,201950,1610612750,1627736,1627823,1629006,1629162,201949,0021900947,2,1274,1274,0,0,1610612750
108,1610612740,1627742,1628402,1628404,1629740,201950,1610612750,1627736,1627823,1629006,1629162,201949,0021900947,2,1275,1275,1,0,1610612740
109,1610612740,1627742,1628404,1629627,1629740,201950,1610612750,1626156,1627736,1627774,1629006,201949,0021900947,2,1287,1287,0,2,1610612750
110,1610612740,1627742,1628404,1629627,1629740,201950,1610612750,1626156,1627736,1627774,1629006,201949,0021900947,2,1308,1308,2,0,1610612740
111,1610612740,1627742,1628404,1629627,1629740,201950,1610612750,1626156,1627736,1627774,1629006,201949,0021900947,2,1322,1322,0,2,1610612750
112,1610612740,1627742,1628404,1629627,1629740,201950,1610612750,1626156,1627736,1627774,1629006,201949,0021900947,2,1337,1337,2,0,1610612740
113,1610612740,1627742,1628404,1629627,1629740,201950,1610612750,1626156,1627736,1627774,1629006,201949,0021900947,2,1357,1358,0,0,1610612750
114,1610612740,1627742,1628404,1629627,1629740,201950,1610612750,1626156,1627736,1627774,1629006,201949,0021900947,2,1364,1364,2,0,1610612740
115,1610612740,1627742,1628404,1629627,1629740,201950,1610612750,1626156,1627736,1627774,1629006,201949,0021900947,2,1381,1381,0,3,1610612750
116,1610612740,1627742,1628404,1629627,1629740,201950,1610612750,1626156,1627736,1627774,1629006,201949,0021900947,2,1400,1400,0,0,1610612740
117,1610612740,1627742,1628404,1629627,1629740,201950,1610612750,1626156,1627736,1627774,1629006,201949,0021900947,2,1406,1408,0,0,1610612750
118,1610612740,1627742,1628404,1629627,1629740,201950,1610612750,1626156,1627736,1627774,1629006,201949,0021900947,2,1414,1414,0,0,1610612740
119,1610612740,1628402,1628404,1629627,1629740,201950,1610612750,1626156,1627736,1627774,1629006,201949,0021900947,2,1434,1434,0,0,1610612750
120,1610612740,1628402,1628404,1629627,1629740,201950,1610612750,1626156,1627736,1627774,1629006,201949,0021900947,2,1434,1438,2,0,1610612740
121,1610612740,1628402,1628404,1629627,1629740,201950,1610612750,1626156,1627736,1627774,1629006,201949,0021900947,2,1439,1439,0,0,1610612740
122,1610612740,1627742,1629627,202324,201950,1628366,1610612750,1629006,1627823,1629675,1627736,1626156,0021900947,3,1440,1453,0,0,1610612750
123,1610612740,1627742,1629627,202324,201950,1628366,1610612750,1629006,1627823,1629675,1627736,1626156,0021900947,3,1470,1472,0,0,1610612740
124,1610612740,1627742,1629627,202324,201950,1628366,1610612750,1629006,1627823,1629675,1627736,1626156,0021900947,3,1489,1491,0,0,1610612750
125,1610612740,1627742,1629627,202324,201950,1628366,1610612750,1629006,1627823,1629675,1627736,1626156,0021900947,3,1499,1499,3,0,1610612740
126,1610612740,1627742,1629627,202324,201950,1628366,1610612750,1629006,1627823,1629675,1627736,1626156,0021900947,3,1525,1525,0,2,1610612750
127,1610612740,1627742,1629627,202324,201950,1628366,1610612750,1629006,1627823,1629675,1627736,1626156,0021900947,3,1535,1537,0,0,1610612740
128,1610612740,1627742,1629627,202324,201950,1628366,1610612750,1629006,1627823,1629675,1627736,1626156,0021900947,3,1543,1545,0,0,1610612750
129,1610612740,1627742,1629627,202324,201950,1628366,1610612750,1629006,1627823,1629675,1627736,1626156,0021900947,3,1550,1550,0,0,1610612740
130,1610612740,1627742,1629627,202324,201950,1628366,1610612750,1629006,1627823,1629675,1627736,1626156,0021900947,3,1555,1557,0,0,1610612750
131,1610612740,1627742,1629627,202324,201950,1628366,1610612750,1629006,1627823,1629675,1627736,1626156,0021900947,3,1577,1582,0,0,1610612740
132,1610612740,1627742,1629627,202324,201950,1628366,1610612750,1629006,1627823,1629675,1627736,1626156,0021900947,3,1586,1592,0,0,1610612750
133,1610612740,1627742,1629627,202324,201950,1628366,1610612750,1629006,1627823,1629675,1627736,1626156,0021900947,3,1599,1599,3,0,1610612740
134,1610612740,1627742,1629627,202324,201950,1628366,1610612750,1629006,1627823,1629675,1627736,1626156,0021900947,3,1620,1620,0,3,1610612750
135,1610612740,1627742,1629627,202324,201950,1628366,1610612750,1629006,1627823,1629675,1627736,1626156,0021900947,3,1634,1634,2,0,1610612740
136,1610612740,1627742,1629627,202324,201950,1628366,1610612750,1629006,1627823,1629675,1627736,1626156,0021900947,3,1645,1646,0,0,1610612750
137,1610612740,1627742,1629627,202324,201950,1628366,1610612750,1629006,1627823,1629675,1627736,1626156,0021900947,3,1658,1660,0,0,1610612740
138,1610612740,1627742,1629627,202324,201950,1628366,1610612750,1629006,1627823,1629675,1627736,1626156,0021900947,3,1668,1674,0,0,1610612750
139,1610612740,1627742,1629627,202324,201950,1628366,1610612750,1629006,1627823,1629675,1627736,1626156,0021900947,3,1675,1675,0,0,1610612740
140,1610612740,1627742,1629627,202324,201950,1628366,1610612750,1629006,1627823,1629675,1627736,1626156,0021900947,3,1679,1679,0,2,1610612750
141,1610612740,1627742,1629627,202324,201950,1628366,1610612750,1629006,1627823,1629675,1627736,1626156,0021900947,3,1682,1682,3,0,1610612740
142,1610612740,1627742,1629627,202324,201950,1628366,1610612750,1629006,1627823,1629675,1627736,1626156,0021900947,3,1692,1692,0,0,1610612750
143,1610612740,1627742,1629627,202324,201950,1628366,1610612750,1629006,1627823,1629675,1627736,1626156,0021900947,3,1700,1701,0,0,1610612740
144,1610612740,1627742,1629627,202324,201950,1628366,1610612750,1629006,1627823,1629675,1627736,1626156,0021900947,3,1709,1711,0,2,1610612750
145,1610612740,1627742,1629627,202324,201950,1628366,1610612750,1629006,1627823,1629675,1627736,1626156,0021900947,3,1711,1722,0,0,1610612740
146,1610612740,1627742,1629627,202324,201950,1628366,1610612750,1629006,1627823,1629675,1627736,1626156,0021900947,3,1726,1726,0,2,1610612750
147,1610612740,1627742,1629627,202324,201950,1628366,1610612750,1629006,1627823,1629675,1627736,1626156,0021900947,3,1739,1741,0,0,1610612740
148,1610612740,1627742,1629627,202324,201950,1628366,1610612750,1629006,1627823,1629675,1627736,1626156,0021900947,3,1744,1749,0,0,1610612750
149,1610612740,1627742,1629627,202324,201950,1628366,1610612750,1629006,1627823,1629675,1627736,1626156,0021900947,3,1755,1755,3,0,1610612740
150,1610612740,1627742,1629627,202324,201950,1628366,1610612750,1627736,1627823,1629006,1629162,1629675,0021900947,3,1774,1775,0,0,1610612750
151,1610612740,1627742,1629627,202324,201950,1628366,1610612750,1627736,1627823,1629006,1629162,1629675,0021900947,3,1781,1783,0,0,1610612740
152,1610612740,1627742,1629627,202324,201950,1628366,1610612750,1627736,1627823,1629006,1629162,1629675,0021900947,3,1789,1789,0,0,1610612750
153,1610612740,1627742,1629627,202324,201950,1628366,1610612750,1627736,1627823,1629006,1629162,1629675,0021900947,3,1793,1793,2,0,1610612740
154,1610612740,1627742,1629627,202324,201950,1628366,1610612750,1627736,1627823,1629006,1629162,1629675,0021900947,3,1810,1810,0,0,1610612750
155,1610612740,1627742,1629627,202324,201950,1628366,1610612750,1627736,1627823,1629006,1629162,1629675,0021900947,3,1821,1832,2,0,1610612740
156,1610612740,1627742,1629627,202324,201950,1628366,1610612750,1627736,1627823,1629006,1629162,1629675,0021900947,3,1833,1847,0,2,1610612750
157,1610612740,1627742,1628366,1628404,201950,202324,1610612750,1627736,1627823,1629006,1629162,201949,0021900947,3,1861,1861,0,0,1610612740
158,1610612740,1627742,1628366,1628404,201950,202324,1610612750,1627736,1627823,1629006,1629162,201949,0021900947,3,1867,1867,0,0,1610612750
159,1610612740,1627742,1628366,1628404,1629740,201950,1610612750,1627736,1627823,1629162,1629633,201949,0021900947,3,1877,1878,0,0,1610612740
160,1610612740,1627742,1628366,1628404,1629740,201950,1610612750,1627736,1627823,1629162,1629633,201949,0021900947,3,1892,1894,0,0,1610612750
161,1610612740,1627742,1628366,1628404,1629740,201950,1610612750,1627736,1627823,1629162,1629633,201949,0021900947,3,1905,1905,2,0,1610612740
162,1610612740,1627742,1628366,1628404,1629740,201950,1610612750,1627736,1627823,1629162,1629633,201949,0021900947,3,1916,1916,0,0,1610612750
163,1610612740,1627742,1628366,1628404,1629740,202734,1610612750,1627736,1627823,1629162,1629633,201949,0021900947,3,1931,1933,0,0,1610612740
164,1610612740,1627742,1628366,1628404,1629740,202734,1610612750,1627736,1627823,1629162,1629633,201949,0021900947,3,1938,1951,0,0,1610612750
165,1610612740,1627742,1628366,1628404,1629740,202734,1610612750,1627736,1627823,1629162,1629633,201949,0021900947,3,1964,1964,0,0,1610612740
166,1610612740,1627742,1628366,1628404,1629740,202734,1610612750,1627736,1627823,1629162,1629633,201949,0021900947,3,1969,1969,0,2,1610612750
167,1610612740,1627742,1628366,1628404,1629740,202734,1610612750,1627736,1627823,1629162,1629633,201949,0021900947,3,1980,1980,2,0,1610612740
168,1610612740,1627742,1628366,1628404,1629740,202734,1610612750,1627736,1627823,1629162,1629633,201949,0021900947,3,1992,1992,0,0,1610612750
169,1610612740,1627742,1628366,1628404,1629740,202734,1610612750,1626156,1627774,1627823,1629633,1629675,0021900947,3,2001,2001,2,0,1610612740
170,1610612740,1627742,1628366,1628404,1629740,202734,1610612750,1626156,1627774,1627823,1629633,1629675,0021900947,3,2019,2020,0,0,1610612750
171,1610612740,1627742,1628366,1628404,1629740,202734,1610612750,1626156,1627774,1627823,1629633,1629675,0021900947,3,2030,2030,3,0,1610612740
172,1610612740,1627742,1628366,1628404,1629740,202734,1610612750,1626156,1627774,1627823,1629633,1629675,0021900947,3,2047,2047,0,2,1610612750
173,1610612740,1627742,1628366,1628404,1629740,202734,1610612750,1626156,1627774,1627823,1629633,1629675,0021900947,3,2051,2068,0,0,1610612740
174,1610612740,1627742,1628366,1628404,202324,202734,1610612750,1626156,1627774,1629006,1629633,1629675,0021900947,3,2087,2087,0,0,1610612750
175,1610612740,1627742,1628366,1628404,202324,202734,1610612750,1626156,1627774,1629006,1629633,1629675,0021900947,3,2091,2091,0,0,1610612740
176,1610612740,1627742,1628366,1628404,202324,202734,1610612750,1626156,1627774,1629006,1629633,1629675,0021900947,3,2102,2102,0,2,1610612750
177,1610612740,1627742,1628366,1628404,202324,202734,1610612750,1626156,1627774,1629006,1629633,1629675,0021900947,3,2112,2129,0,0,1610612740
178,1610612740,1627742,1628366,1628404,202324,202734,1610612750,1626156,1627774,1629006,1629633,1629675,0021900947,3,2141,2141,0,2,1610612750
179,1610612740,1627742,1628366,1628404,202324,202734,1610612750,1626156,1627774,1629006,1629633,1629675,0021900947,3,2160,2160,0,0,1610612750
180,1610612740,1629627,201950,1629740,1628404,202734,1610612750,1629675,1626156,1627774,1629633,1629669,0021900947,4,2160,2181,0,0,1610612740
181,1610612740,1629627,201950,1629740,1628404,202734,1610612750,1629675,1626156,1627774,1629633,1629669,0021900947,4,2197,2200,0,0,1610612750
182,1610612740,1629627,201950,1629740,1628404,202734,1610612750,1629675,1626156,1627774,1629633,1629669,0021900947,4,2207,2207,2,0,1610612740
183,1610612740,1629627,201950,1629740,1628404,202734,1610612750,1629675,1626156,1627774,1629633,1629669,0021900947,4,2226,2227,0,1,1610612750
184,1610612740,1629627,201950,1629740,1628404,202734,1610612750,1629675,1626156,1627774,1629633,1629669,0021900947,4,2243,2243,0,0,1610612740
185,1610612740,1629627,201950,1629740,1628404,202734,1610612750,1629675,1626156,1627774,1629633,1629669,0021900947,4,2247,2247,0,2,1610612750
186,1610612740,1629627,201950,1629740,1628404,202734,1610612750,1629675,1626156,1627774,1629633,1629669,0021900947,4,2262,2262,0,0,1610612740
187,1610612740,1629627,201950,1629740,1628404,202734,1610612750,1629675,1626156,1627774,1629633,1629669,0021900947,4,2271,2271,0,2,1610612750
188,1610612740,1629627,201950,1629740,1628404,202734,1610612750,1629675,1626156,1627774,1629633,1629669,0021900947,4,2272,2287,2,0,1610612740
189,1610612740,1627742,1628366,1629627,201950,202324,1610612750,1629675,1626156,1627774,1629633,1629669,0021900947,4,2302,2305,0,0,1610612750
190,1610612740,1627742,1628366,1629627,201950,202324,1610612750,1629675,1626156,1627774,1629633,1629669,0021900947,4,2315,2318,0,0,1610612740
191,1610612740,1627742,1628366,1629627,201950,202324,1610612750,1629675,1626156,1627774,1629633,1629669,0021900947,4,2321,2321,0,0,1610612750
192,1610612740,1627742,1628366,1629627,201950,202324,1610612750,1629675,1626156,1627774,1629633,1629669,0021900947,4,2331,2337,0,0,1610612740
193,1610612740,1627742,1628366,1629627,201950,202324,1610612750,1629675,1626156,1627774,1629633,1629669,0021900947,4,2344,2346,0,0,1610612750
194,1610612740,1627742,1628366,1629627,201950,202324,1610612750,1629675,1626156,1627774,1629633,1629669,0021900947,4,2351,2351,1,0,1610612740
195,1610612740,1627742,1628366,1629627,201950,202324,1610612750,1629675,1626156,1627774,1629633,1629669,0021900947,4,2367,2379,0,0,1610612750
196,1610612740,1627742,1628366,1629627,201950,202324,1610612750,1629675,1626156,1627774,1629633,1629669,0021900947,4,2396,2396,0,0,1610612740
197,1610612740,1627742,1628366,1629627,201950,202324,1610612750,1629675,1626156,1627774,1629633,1629669,0021900947,4,2405,2405,0,2,1610612750
198,1610612740,1627742,1628366,1629627,201950,202324,1610612750,1629675,1626156,1627774,1629633,1629669,0021900947,4,2421,2421,3,0,1610612740
199,1610612740,1627742,1628366,1629627,201950,202324,1610612750,1627736,1629162,1629633,1629675,201949,0021900947,4,2431,2435,0,0,1610612750
200,1610612740,1627742,1628366,1629627,201950,202324,1610612750,1627736,1629162,1629633,1629675,201949,0021900947,4,2457,2457,2,0,1610612740
201,1610612740,1627742,1628366,1629627,201950,202324,1610612750,1627736,1629162,1629633,1629675,201949,0021900947,4,2468,2471,0,0,1610612750
202,1610612740,1627742,1628366,1629627,201950,202324,1610612750,1627736,1629162,1629633,1629675,201949,0021900947,4,2483,2486,0,0,1610612740
203,1610612740,1627742,1628366,1629627,201950,202324,1610612750,1627736,1629162,1629633,1629675,201949,0021900947,4,2503,2505,0,0,1610612750
204,1610612740,1627742,1628366,1629627,201950,202324,1610612750,1627736,1629162,1629633,1629675,201949,0021900947,4,2516,2516,2,0,1610612740
205,1610612740,1627742,1628366,1629627,201950,202324,1610612750,1627736,1629162,1629633,1629675,201949,0021900947,4,2516,2524,0,3,1610612750
206,1610612740,1627742,1628366,1628404,1629740,201950,1610612750,1626156,1627736,1627823,1629006,201949,0021900947,4,2538,2557,0,0,1610612740
207,1610612740,1627742,1628366,1628404,1629740,201950,1610612750,1626156,1627736,1627823,1629006,201949,0021900947,4,2568,2568,0,1,1610612750
208,1610612740,1627742,1628366,1628402,1628404,1629740,1610612750,1626156,1627736,1627823,1629006,201949,0021900947,4,2584,2586,0,0,1610612740
209,1610612740,1627742,1628366,1628402,1628404,1629740,1610612750,1626156,1627736,1627823,1629006,201949,0021900947,4,2593,2593,0,2,1610612750
210,1610612740,1627742,1628366,1628402,1628404,1629740,1610612750,1626156,1627736,1627823,1629006,201949,0021900947,4,2606,2612,0,0,1610612740
211,1610612740,1627742,1628366,1628402,1628404,1629740,1610612750,1626156,1627736,1627823,1629006,201949,0021900947,4,2620,2621,0,0,1610612750
212,1610612740,1627742,1628366,1628402,1628404,1629740,1610612750,1626156,1627736,1627823,1629006,201949,0021900947,4,2626,2626,0,0,1610612740
213,1610612740,1627742,1628366,1628402,1628404,1629740,1610612750,1626156,1627736,1627823,1629006,201949,0021900947,4,2635,2635,0,3,1610612750
214,1610612740,1627742,1628366,1628402,1628404,1629740,1610612750,1626156,1627736,1627823,1629006,201949,0021900947,4,2654,2654,3,0,1610612740
215,1610612740,1627742,1628366,1628402,1628404,1629740,1610612750,1626156,1627736,1627823,1629006,201949,0021900947,4,2671,2671,0,0,1610612750
216,1610612740,1627742,1628366,1629627,1629740,201950,1610612750,1626156,1627736,1627823,1629006,201949,0021900947,4,2691,2691,0,0,1610612740
217,1610612740,1627742,1628366,1629627,1629740,201950,1610612750,1626156,1627736,1627823,1629006,201949,0021900947,4,2696,2696,0,0,1610612750
218,1610612740,1627742,1628366,1629627,1629740,201950,1610612750,1626156,1627736,1627823,1629006,201949,0021900947,4,2700,2702,0,0,1610612740
219,1610612740,1627742,1628366,1629627,1629740,201950,1610612750,1626156,1627736,1627823,1629006,201949,0021900947,4,2712,2712,0,3,1610612750
220,1610612740,1627742,1628366,1629627,1629740,201950,1610612750,1626156,1627736,1627823,1629006,201949,0021900947,4,2738,2740,2,0,1610612740
221,1610612740,1627742,1628366,1629627,1629740,201950,1610612750,1626156,1627736,1627823,1629006,201949,0021900947,4,2745,2746,0,0,1610612750
222,1610612740,1627742,1628366,1629627,1629740,201950,1610612750,1626156,1627736,1627823,1629006,201949,0021900947,4,2766,2768,0,0,1610612740
223,1610612740,1627742,1628366,1629627,1629740,201950,1610612750,1626156,1627736,1627823,1629006,201949,0021900947,4,2774,2774,0,2,1610612750
224,1610612740,1627742,1628366,1629627,1629740,201950,1610612750,1626156,1627736,1627823,1629006,201949,0021900947,4,2787,2787,2,0,1610612740
225,1610612740,1627742,1628366,1629627,1629740,201950,1610612750,1626156,1627736,1627823,1629006,201949,0021900947,4,2795,2797,0,0,1610612750
226,1610612740,1627742,1628366,1629627,1629740,201950,1610612750,1626156,1627736,1627823,1629006,201949,0021900947,4,2814,2814,2,0,1610612740
227,1610612740,1627742,1628366,1629627,1629740,201950,1610612750,1626156,1627736,1627823,1629006,201949,0021900947,4,2814,2817,0,2,1610612750
228,1610612740,1627742,1628366,1629627,1629740,201950,1610612750,1626156,1627736,1627823,1629006,201949,0021900947,4,2834,2859,1,0,1610612740
229,1610612740,1627742,1628366,1629627,1629740,201950,1610612750,1626156,1627736,1627823,1629006,201949,0021900947,4,2864,2873,0,0,1610612750
