,TEAM_ID_1,TEAM_1_PLAYERS,TEAM_ID_2,TEAM_2_PLAYERS,PERIOD
0,1610612764,[ 203078 1630264  203458  203526  201566],1610612761,[1626169 1627783  203920 1629018 1627832],1
1,1610612764,[ 201566  202397 1629655  202722 1628990],1610612761,[1630273 1630201 1627761 1630223  203918],2
2,1610612764,[203078 203458 203526 201566 202722],1610612761,[1626169 1627783  203920 1629018 1627832],3
3,1610612764,[ 203078  201566  202397 1629655 1629726],1610612761,[1627832 1630273 1630201 1627761  203918],4
4,1610612764,[203078 203526 201566 202722 201577],1610612761,[1627783  203920 1629018 1627832 1627761],5
