,team1_id,team1_player1,team1_player2,team1_player3,team1_player4,team1_player5,team2_id,team2_player1,team2_player2,team2_player3,team2_player4,team2_player5,game_id,period,possession_start,possession_end,team1_points,team2_points,possession_team
0,1610612741,203107,201152,1628976,1627885,203897,1610612752,203090,203944,201959,1629628,203901,0021900887,1,0,24,0,0,1610612752
1,1610612741,203107,201152,1628976,1627885,203897,1610612752,203090,203944,201959,1629628,203901,0021900887,1,38,40,0,0,1610612741
2,1610612741,203107,201152,1628976,1627885,203897,1610612752,203090,203944,201959,1629628,203901,0021900887,1,49,49,0,2,1610612752
3,1610612741,203107,201152,1628976,1627885,203897,1610612752,203090,203944,201959,1629628,203901,0021900887,1,59,59,2,0,1610612741
4,1610612741,203107,201152,1628976,1627885,203897,1610612752,203090,203944,201959,1629628,203901,0021900887,1,75,78,0,0,1610612752
5,1610612741,203107,201152,1628976,1627885,203897,1610612752,203090,203944,201959,1629628,203901,0021900887,1,88,91,0,0,1610612741
6,1610612741,203107,201152,1628976,1627885,203897,1610612752,203090,203944,201959,1629628,203901,0021900887,1,95,112,0,0,1610612752
7,1610612741,203107,201152,1628976,1627885,203897,1610612752,203090,203944,201959,1629628,203901,0021900887,1,131,133,0,0,1610612741
8,1610612741,203107,201152,1628976,1627885,203897,1610612752,203090,203944,201959,1629628,203901,0021900887,1,138,138,0,1,1610612752
9,1610612741,203107,201152,1628976,1627885,203897,1610612752,203090,203944,201959,1629628,203901,0021900887,1,145,149,0,0,1610612741
10,1610612741,203107,201152,1628976,1627885,203897,1610612752,203090,203944,201959,1629628,203901,0021900887,1,154,155,0,2,1610612752
11,1610612741,203107,201152,1628976,1627885,203897,1610612752,203090,203944,201959,1629628,203901,0021900887,1,178,180,0,0,1610612741
12,1610612741,203107,201152,1628976,1627885,203897,1610612752,203090,203944,201959,1629628,203901,0021900887,1,190,190,0,2,1610612752
13,1610612741,203107,201152,1628976,1627885,203897,1610612752,203090,203944,201959,1629628,203901,0021900887,1,205,208,0,0,1610612741
14,1610612741,203107,201152,1628976,1627885,203897,1610612752,203090,203944,201959,1629628,203901,0021900887,1,217,223,0,2,1610612752
15,1610612741,203107,201152,1628976,1627885,203897,1610612752,203090,203944,201959,1629628,203901,0021900887,1,229,241,3,0,1610612741
16,1610612741,1627885,1629655,201152,203107,203897,1610612752,203090,203944,201959,1629628,203901,0021900887,1,254,254,0,0,1610612752
17,1610612741,1627885,1629655,201152,203107,203897,1610612752,203090,203944,201959,1629628,203901,0021900887,1,258,258,2,0,1610612741
18,1610612741,1627885,1629655,201152,203107,203897,1610612752,203090,203944,201959,1629628,203901,0021900887,1,282,282,0,2,1610612752
19,1610612741,1627885,1629655,201152,203107,203897,1610612752,203090,203944,201959,1629628,203901,0021900887,1,298,298,2,0,1610612741
20,1610612741,1627885,1629655,201152,203107,203897,1610612752,203090,203944,201959,1629628,203901,0021900887,1,319,319,0,3,1610612752
21,1610612741,1627885,1629655,201152,203107,203897,1610612752,203090,203944,201959,1629628,203901,0021900887,1,342,342,0,0,1610612741
22,1610612741,1627885,1629655,201152,203107,203897,1610612752,203090,203944,201959,1629628,203901,0021900887,1,350,350,0,2,1610612752
23,1610612741,1627885,1629655,201152,203107,203897,1610612752,203090,203944,201959,1629628,203901,0021900887,1,366,368,0,0,1610612741
24,1610612741,1627885,1629655,201152,203107,203897,1610612752,203090,203944,201959,1629628,203901,0021900887,1,375,375,0,0,1610612752
25,1610612741,1627885,1629655,201152,203107,203897,1610612752,203090,203944,201959,1629628,203901,0021900887,1,380,383,2,0,1610612741
26,1610612741,1627885,1629655,201152,203107,203897,1610612752,203090,203944,201959,1629628,203901,0021900887,1,402,402,0,2,1610612752
27,1610612741,1627885,1629655,201152,203107,203897,1610612752,203090,203944,201959,1629628,203901,0021900887,1,419,420,0,0,1610612741
28,1610612741,1627885,1629655,201152,203107,203897,1610612752,203090,203944,201959,1629628,203901,0021900887,1,430,430,0,0,1610612752
29,1610612741,1627885,1629655,201152,203107,203897,1610612752,203090,203944,201959,1629628,203901,0021900887,1,434,434,2,0,1610612741
30,1610612741,1627885,1629655,201152,203107,203897,1610612752,203090,203944,201959,1629628,203901,0021900887,1,440,452,0,0,1610612752
31,1610612741,1629632,1629655,201152,203107,203897,1610612752,1628995,1629011,1629628,203901,203944,0021900887,1,463,463,2,0,1610612741
32,1610612741,1629632,1629655,201152,203107,203897,1610612752,1628995,1629011,1629628,203901,203944,0021900887,1,475,475,0,2,1610612752
33,1610612741,1629632,1629655,201152,203107,203897,1610612752,1628995,1629011,1629628,203901,203944,0021900887,1,492,494,0,0,1610612741
34,1610612741,1629632,1629655,201152,203107,203897,1610612752,1628995,1629011,1629628,203901,203944,0021900887,1,507,507,0,3,1610612752
35,1610612741,1627853,1629632,1629655,201152,203897,1610612752,1628373,1628995,1629011,203901,203944,0021900887,1,527,527,2,0,1610612741
36,1610612741,1627853,1629632,1629655,201152,203897,1610612752,1628373,1628995,1629011,203901,203944,0021900887,1,542,542,0,2,1610612752
37,1610612741,1627853,1629632,1629655,201152,203897,1610612752,1628373,1628995,1629011,203901,203944,0021900887,1,562,562,2,0,1610612741
38,1610612741,1627853,1629632,1629655,201152,203897,1610612752,1628373,1628995,1629011,203901,203944,0021900887,1,575,582,0,0,1610612752
39,1610612741,1627756,1627853,1628976,1629632,201152,1610612752,1628373,1628995,1629011,203901,203944,0021900887,1,589,592,0,0,1610612741
40,1610612741,1627756,1627853,1628976,1629632,201152,1610612752,1628373,1628995,1629011,203901,203944,0021900887,1,607,613,0,0,1610612752
41,1610612741,1627756,1627853,1628976,1629632,201152,1610612752,1628373,1628995,1629011,203901,203944,0021900887,1,619,624,2,0,1610612741
42,1610612741,1627756,1627853,1628976,1629632,1629690,1610612752,1628373,1628995,1629011,201961,203944,0021900887,1,642,646,0,2,1610612752
43,1610612741,1627756,1627853,1628976,1629632,1629690,1610612752,1628373,1628995,1629011,201961,203944,0021900887,1,651,653,2,0,1610612741
44,1610612741,1627756,1627853,1628976,1629632,1629690,1610612752,1626171,1628373,1628995,1629011,201961,0021900887,1,666,671,0,2,1610612752
45,1610612741,1627756,1627853,1628976,1629632,1629690,1610612752,1626171,1628373,1628995,1629011,201961,0021900887,1,686,686,2,0,1610612741
46,1610612741,1627756,1627853,1628976,1629632,1629690,1610612752,1626171,1628373,1628995,1629011,201961,0021900887,1,686,707,0,2,1610612752
47,1610612741,1627756,1627853,1628976,1629632,1629690,1610612752,1626171,1628373,1628995,1629011,201961,0021900887,1,719,719,0,0,1610612752
48,1610612741,1628976,1629632,1627853,1627756,1629690,1610612752,1629011,1628995,1628373,201961,1626171,0021900887,2,720,737,0,0,1610612741
49,1610612741,1628976,1629632,1627853,1627756,1629690,1610612752,1629011,1628995,1628373,201961,1626171,0021900887,2,751,751,0,3,1610612752
50,1610612741,1628976,1629632,1627853,1627756,1629690,1610612752,1629011,1628995,1628373,201961,1626171,0021900887,2,774,778,3,0,1610612741
51,1610612741,1628976,1629632,1627853,1627756,1629690,1610612752,1629011,1628995,1628373,201961,1626171,0021900887,2,797,801,0,3,1610612752
52,1610612741,1628976,1629632,1627853,1627756,1629690,1610612752,1629011,1628995,1628373,201961,1626171,0021900887,2,812,812,3,0,1610612741
53,1610612741,1628976,1629632,1627853,1627756,1629690,1610612752,1629011,1628995,1628373,201961,1626171,0021900887,2,822,822,0,0,1610612752
54,1610612741,1627756,1627853,1629632,1629655,1629690,1610612752,1629011,1628995,1628373,201961,1626171,0021900887,2,837,837,3,0,1610612741
55,1610612741,1627756,1627853,1629632,1629655,1629690,1610612752,1629011,1628995,1628373,201961,1626171,0021900887,2,855,860,0,2,1610612752
56,1610612741,1627756,1627853,1629632,1629655,1629690,1610612752,1629011,1628995,1628373,201961,1626171,0021900887,2,872,876,0,0,1610612741
57,1610612741,1627853,1629632,1629655,1629690,203897,1610612752,1629011,1628995,1628373,201961,1626171,0021900887,2,890,890,0,0,1610612752
58,1610612741,1627853,1629632,1629655,1629690,203897,1610612752,1629011,1628995,1628373,201961,1626171,0021900887,2,893,893,2,0,1610612741
59,1610612741,1627853,1629632,1629655,1629690,203897,1610612752,1626171,1628995,1629011,201961,203901,0021900887,2,905,916,0,0,1610612752
60,1610612741,1627853,1629655,1629690,203107,203897,1610612752,1626171,1628995,1629011,201961,203901,0021900887,2,924,924,2,0,1610612741
61,1610612741,1627853,1629655,1629690,203107,203897,1610612752,1626171,1628995,1629011,201961,203901,0021900887,2,933,944,0,0,1610612752
62,1610612741,1627853,1629655,1629690,203107,203897,1610612752,1626171,1628995,1629011,201961,203901,0021900887,2,952,952,0,0,1610612741
63,1610612741,1627853,1629655,1629690,203107,203897,1610612752,1626171,1628995,1629011,201961,203901,0021900887,2,964,969,0,0,1610612752
64,1610612741,1627853,1629655,1629690,203107,203897,1610612752,1626171,1628995,1629011,201961,203901,0021900887,2,991,991,2,0,1610612741
65,1610612741,1626245,1627853,1629690,203107,203897,1610612752,1626171,1629011,1629628,203090,203901,0021900887,2,1009,1009,0,2,1610612752
66,1610612741,1626245,1627853,1629690,203107,203897,1610612752,1626171,1629011,1629628,203090,203901,0021900887,2,1028,1028,3,0,1610612741
67,1610612741,1626245,1627853,1629690,203107,203897,1610612752,1626171,1629011,1629628,203090,203901,0021900887,2,1044,1048,0,2,1610612752
68,1610612741,1626245,1627853,1629690,203107,203897,1610612752,1626171,1629011,1629628,203090,203901,0021900887,2,1064,1064,3,0,1610612741
69,1610612741,1626245,1627853,1629690,203107,203897,1610612752,1626171,1629011,1629628,203090,203901,0021900887,2,1080,1083,0,0,1610612752
70,1610612741,1626245,1627853,1629690,203107,203897,1610612752,1626171,1629011,1629628,203090,203901,0021900887,2,1089,1092,0,0,1610612741
71,1610612741,1626245,1627853,1629690,203107,203897,1610612752,1626171,1629011,1629628,203090,203901,0021900887,2,1100,1100,0,2,1610612752
72,1610612741,1626245,1627853,1629690,203107,203897,1610612752,1626171,1629011,1629628,203090,203901,0021900887,2,1109,1109,2,0,1610612741
73,1610612741,1626245,1629632,201152,203107,203897,1610612752,1629011,1629628,203090,203901,203944,0021900887,2,1123,1147,0,2,1610612752
74,1610612741,1626245,1629632,201152,203107,203897,1610612752,1629011,1629628,203090,203901,203944,0021900887,2,1154,1156,0,0,1610612741
75,1610612741,1626245,1629632,201152,203107,203897,1610612752,1629011,1629628,203090,203901,203944,0021900887,2,1162,1162,0,0,1610612752
76,1610612741,1626245,1629632,201152,203107,203897,1610612752,1629011,1629628,203090,203901,203944,0021900887,2,1172,1175,0,0,1610612741
77,1610612741,1626245,1629632,201152,203107,203897,1610612752,1629011,1629628,203090,203901,203944,0021900887,2,1184,1184,0,3,1610612752
78,1610612741,1626245,1629632,201152,203107,203897,1610612752,1629011,1629628,203090,203901,203944,0021900887,2,1204,1217,3,0,1610612741
79,1610612741,1626245,1629632,201152,203107,203897,1610612752,1629011,1629628,203090,203901,203944,0021900887,2,1234,1234,0,2,1610612752
80,1610612741,1626245,1629632,201152,203107,203897,1610612752,1629011,1629628,203090,203901,203944,0021900887,2,1250,1257,0,0,1610612741
81,1610612741,1626245,1629632,201152,203107,203897,1610612752,1629011,1629628,203090,203901,203944,0021900887,2,1257,1273,0,2,1610612752
82,1610612741,1628976,1629632,201152,203107,203897,1610612752,1629628,201959,203090,203901,203944,0021900887,2,1286,1290,0,0,1610612741
83,1610612741,1628976,1629632,201152,203107,203897,1610612752,1629628,201959,203090,203901,203944,0021900887,2,1293,1293,0,3,1610612752
84,1610612741,1628976,1629632,201152,203107,203897,1610612752,1629628,201959,203090,203901,203944,0021900887,2,1309,1309,2,0,1610612741
85,1610612741,1628976,1629632,201152,203107,203897,1610612752,1629628,201959,203090,203901,203944,0021900887,2,1330,1330,0,2,1610612752
86,1610612741,1628976,1629632,201152,203107,203897,1610612752,1629628,201959,203090,203901,203944,0021900887,2,1348,1349,0,0,1610612741
87,1610612741,1628976,1629632,201152,203107,203897,1610612752,1629628,201959,203090,203901,203944,0021900887,2,1363,1363,0,0,1610612752
88,1610612741,1628976,1629632,201152,203107,203897,1610612752,1629628,201959,203090,203901,203944,0021900887,2,1368,1370,0,0,1610612741
89,1610612741,1628976,1629632,201152,203107,203897,1610612752,1629628,201959,203090,203901,203944,0021900887,2,1372,1372,0,2,1610612752
90,1610612741,1628976,1629632,201152,203107,203897,1610612752,1629628,201959,203090,203901,203944,0021900887,2,1381,1382,0,0,1610612741
91,1610612741,1628976,1629632,201152,203107,203897,1610612752,1629628,201959,203090,203901,203944,0021900887,2,1388,1388,0,2,1610612752
92,1610612741,1628976,1629632,201152,203107,203897,1610612752,1629628,201959,203090,203901,203944,0021900887,2,1403,1405,0,0,1610612741
93,1610612741,1628976,1629632,201152,203107,203897,1610612752,1629628,201959,203090,203901,203944,0021900887,2,1410,1426,0,3,1610612752
94,1610612741,1628976,1629632,201152,203107,203897,1610612752,1629628,201959,203090,203901,203944,0021900887,2,1440,1440,0,0,1610612741
95,1610612741,203107,201152,1628976,1627885,203897,1610612752,203090,203944,201959,1629628,203901,0021900887,3,1440,1455,0,0,1610612741
96,1610612741,203107,201152,1628976,1627885,203897,1610612752,203090,203944,201959,1629628,203901,0021900887,3,1473,1473,0,2,1610612752
97,1610612741,203107,201152,1628976,1627885,203897,1610612752,203090,203944,201959,1629628,203901,0021900887,3,1484,1484,0,0,1610612741
98,1610612741,203107,201152,1628976,1627885,203897,1610612752,203090,203944,201959,1629628,203901,0021900887,3,1492,1492,0,2,1610612752
99,1610612741,203107,201152,1628976,1627885,203897,1610612752,203090,203944,201959,1629628,203901,0021900887,3,1508,1508,3,0,1610612741
100,1610612741,203107,201152,1628976,1627885,203897,1610612752,203090,203944,201959,1629628,203901,0021900887,3,1524,1526,0,0,1610612752
101,1610612741,203107,201152,1628976,1627885,203897,1610612752,203090,203944,201959,1629628,203901,0021900887,3,1533,1533,0,0,1610612741
102,1610612741,203107,201152,1628976,1627885,203897,1610612752,203090,203944,201959,1629628,203901,0021900887,3,1554,1556,0,0,1610612752
103,1610612741,203107,201152,1628976,1627885,203897,1610612752,203090,203944,201959,1629628,203901,0021900887,3,1563,1574,0,0,1610612741
104,1610612741,203107,201152,1628976,1627885,203897,1610612752,203090,203944,201959,1629628,203901,0021900887,3,1580,1580,0,2,1610612752
105,1610612741,203107,201152,1628976,1627885,203897,1610612752,203090,203944,201959,1629628,203901,0021900887,3,1602,1602,3,0,1610612741
106,1610612741,203107,201152,1628976,1627885,203897,1610612752,203090,203944,201959,1629628,203901,0021900887,3,1616,1618,0,0,1610612752
107,1610612741,203107,201152,1628976,1627885,203897,1610612752,203090,203944,201959,1629628,203901,0021900887,3,1623,1623,3,0,1610612741
108,1610612741,203107,201152,1628976,1627885,203897,1610612752,203090,203944,201959,1629628,203901,0021900887,3,1641,1641,0,1,1610612752
109,1610612741,1627885,1629655,201152,203107,203897,1610612752,203090,203944,201959,1629628,203901,0021900887,3,1654,1659,0,0,1610612741
110,1610612741,1627885,1629655,201152,203107,203897,1610612752,203090,203944,201959,1629628,203901,0021900887,3,1667,1667,0,0,1610612752
111,1610612741,1627885,1629655,201152,203107,203897,1610612752,203090,203944,201959,1629628,203901,0021900887,3,1672,1672,2,0,1610612741
112,1610612741,1627885,1629655,201152,203107,203897,1610612752,203090,203944,201959,1629628,203901,0021900887,3,1672,1691,0,0,1610612752
113,1610612741,1627885,1629655,201152,203107,203897,1610612752,203090,203944,201959,1629628,203901,0021900887,3,1705,1705,2,0,1610612741
114,1610612741,1627885,1629655,201152,203107,203897,1610612752,203090,203944,201959,1629628,203901,0021900887,3,1728,1742,0,0,1610612752
115,1610612741,1627885,1629655,201152,203107,203897,1610612752,203090,203944,201959,1629628,203901,0021900887,3,1742,1755,0,0,1610612741
116,1610612741,1627885,1629655,201152,203107,203897,1610612752,203090,203944,201959,1629628,203901,0021900887,3,1760,1762,0,0,1610612752
117,1610612741,1627885,1629655,201152,203107,203897,1610612752,1629011,1629628,203090,203901,203944,0021900887,3,1779,1779,0,0,1610612741
118,1610612741,1627885,1629655,201152,203107,203897,1610612752,1629011,1629628,203090,203901,203944,0021900887,3,1794,1798,0,0,1610612752
119,1610612741,1627885,1629655,201152,203107,203897,1610612752,1629011,1629628,203090,203901,203944,0021900887,3,1802,1802,2,0,1610612741
120,1610612741,1629632,1629655,201152,203107,203897,1610612752,1629011,1629628,203090,203901,203944,0021900887,3,1817,1817,0,2,1610612752
121,1610612741,1629632,1629655,201152,203107,203897,1610612752,1629011,1629628,203090,203901,203944,0021900887,3,1830,1830,2,0,1610612741
122,1610612741,1629632,1629655,201152,203107,203897,1610612752,1629011,1629628,203090,203901,203944,0021900887,3,1845,1847,0,0,1610612752
123,1610612741,1629632,1629655,201152,203107,203897,1610612752,1629011,1629628,203090,203901,203944,0021900887,3,1861,1865,0,0,1610612741
124,1610612741,1629632,1629655,201152,203107,203897,1610612752,1629011,1629628,203090,203901,203944,0021900887,3,1880,1880,0,2,1610612752
125,1610612741,1629632,1629655,201152,203107,203897,1610612752,1629011,1629628,203090,203901,203944,0021900887,3,1893,1893,2,0,1610612741
126,1610612741,1629632,1629655,201152,203107,203897,1610612752,1629011,1629628,203090,203901,203944,0021900887,3,1905,1905,0,0,1610612752
127,1610612741,1629632,1629655,201152,203107,203897,1610612752,1629011,1629628,203090,203901,203944,0021900887,3,1912,1912,2,0,1610612741
128,1610612741,1629632,1629655,201152,203107,203897,1610612752,1629011,1629628,203090,203901,203944,0021900887,3,1912,1929,0,2,1610612752
129,1610612741,1627853,1628976,1629632,201152,203897,1610612752,1628373,1628995,1629011,1629628,203944,0021900887,3,1944,1946,0,0,1610612741
130,1610612741,1627853,1628976,1629632,201152,203897,1610612752,1628373,1628995,1629011,1629628,203944,0021900887,3,1958,1959,0,2,1610612752
131,1610612741,1627853,1628976,1629632,201152,203897,1610612752,1628373,1628995,1629011,1629628,203944,0021900887,3,1971,1974,0,0,1610612741
132,1610612741,1627853,1628976,1629632,201152,203897,1610612752,1628373,1628995,1629011,1629628,203944,0021900887,3,1982,1982,0,0,1610612752
133,1610612741,1627853,1628976,1629632,201152,203897,1610612752,1628373,1628995,1629011,1629628,203944,0021900887,3,1988,1988,2,0,1610612741
134,1610612741,1627853,1628976,1629632,201152,203897,1610612752,1628373,1628995,1629011,1629628,203944,0021900887,3,2006,2010,0,2,1610612752
135,1610612741,1627853,1628976,1629632,201152,203897,1610612752,1628373,1628995,1629011,1629628,203944,0021900887,3,2023,2023,2,0,1610612741
136,1610612741,1627756,1627853,1628976,1629632,1629690,1610612752,1626171,1628373,1628995,1629011,201961,0021900887,3,2042,2042,0,3,1610612752
137,1610612741,1627756,1627853,1628976,1629632,1629690,1610612752,1626171,1628373,1628995,1629011,201961,0021900887,3,2060,2072,3,0,1610612741
138,1610612741,1627756,1627853,1628976,1629632,1629690,1610612752,1626171,1628373,1628995,1629011,201961,0021900887,3,2085,2089,0,1,1610612752
139,1610612741,1627756,1627853,1628976,1629632,1629690,1610612752,1626171,1628373,1628995,1629011,201961,0021900887,3,2104,2104,2,0,1610612741
140,1610612741,1627756,1627853,1628976,1629632,1629690,1610612752,1626171,1628373,1628995,1629011,201961,0021900887,3,2120,2120,0,2,1610612752
141,1610612741,1627756,1627853,1628976,1629632,1629690,1610612752,1626171,1628373,1628995,1629011,201961,0021900887,3,2134,2134,3,0,1610612741
142,1610612741,1627756,1627853,1628976,1629632,1629690,1610612752,1626171,1628373,1628995,1629011,201961,0021900887,3,2153,2159,0,0,1610612752
143,1610612741,1627756,1627853,1628976,1629632,1629690,1610612752,1626171,1628373,1628995,1629011,201961,0021900887,3,2160,2160,0,0,1610612752
144,1610612741,1629632,1627853,1627756,1629690,1626245,1610612752,1629011,1628995,1628373,201961,1626171,0021900887,4,2160,2180,0,2,1610612752
145,1610612741,1629632,1627853,1627756,1629690,1626245,1610612752,1629011,1628995,1628373,201961,1626171,0021900887,4,2195,2196,0,0,1610612741
146,1610612741,1629632,1627853,1627756,1629690,1626245,1610612752,1629011,1628995,1628373,201961,1626171,0021900887,4,2210,2213,0,0,1610612752
147,1610612741,1629632,1627853,1627756,1629690,1626245,1610612752,1629011,1628995,1628373,201961,1626171,0021900887,4,2227,2229,0,0,1610612741
148,1610612741,1629632,1627853,1627756,1629690,1626245,1610612752,1629011,1628995,1628373,201961,1626171,0021900887,4,2239,2239,0,2,1610612752
149,1610612741,1629632,1627853,1627756,1629690,1626245,1610612752,1629011,1628995,1628373,201961,1626171,0021900887,4,2239,2264,2,0,1610612741
150,1610612741,1629632,1627853,1627756,1629690,1626245,1610612752,1629011,1628995,1628373,201961,1626171,0021900887,4,2279,2279,0,0,1610612752
151,1610612741,1629632,1627853,1627756,1629690,1626245,1610612752,1629011,1628995,1628373,201961,1626171,0021900887,4,2283,2283,2,0,1610612741
152,1610612741,1629632,1627853,1627756,1629690,1626245,1610612752,1629011,1628995,1628373,201961,1626171,0021900887,4,2300,2300,0,2,1610612752
153,1610612741,1629632,1627853,1627756,1629690,1626245,1610612752,1629011,1628995,1628373,201961,1626171,0021900887,4,2312,2312,3,0,1610612741
154,1610612741,1629632,1627853,1627756,1629690,1626245,1610612752,1629011,1628995,1628373,201961,1626171,0021900887,4,2333,2333,0,3,1610612752
155,1610612741,1629632,1627853,1627756,1629690,1626245,1610612752,1629011,1628995,1628373,201961,1626171,0021900887,4,2349,2349,0,0,1610612741
156,1610612741,1626245,1627853,1629632,1629690,203897,1610612752,1629011,1628995,1628373,201961,1626171,0021900887,4,2359,2359,0,3,1610612752
157,1610612741,1626245,1627853,1629632,1629690,203897,1610612752,1629011,1628995,1628373,201961,1626171,0021900887,4,2360,2369,3,0,1610612741
158,1610612741,1626245,1627853,1629690,203107,203897,1610612752,1629011,1628995,1628373,201961,1626171,0021900887,4,2382,2388,0,2,1610612752
159,1610612741,1626245,1627853,1629690,203107,203897,1610612752,1629011,1628995,1628373,201961,1626171,0021900887,4,2405,2406,0,0,1610612741
160,1610612741,1626245,1627853,1629690,203107,203897,1610612752,1629011,1628995,1628373,201961,1626171,0021900887,4,2406,2429,0,1,1610612752
161,1610612741,1626245,1627853,1629690,203107,203897,1610612752,1629011,1628995,1628373,201961,1626171,0021900887,4,2442,2444,0,0,1610612741
162,1610612741,1626245,1627853,1629690,203107,203897,1610612752,1629011,1628995,1628373,201961,1626171,0021900887,4,2461,2464,0,0,1610612752
163,1610612741,1626245,1627853,1629690,203107,203897,1610612752,1629011,1628995,1628373,201961,1626171,0021900887,4,2472,2472,3,0,1610612741
164,1610612741,1626245,1627853,1629690,203107,203897,1610612752,1629011,1628995,1628373,201961,1626171,0021900887,4,2490,2506,0,2,1610612752
165,1610612741,1626245,1627853,1629690,203107,203897,1610612752,1629011,1628995,1628373,201961,1626171,0021900887,4,2518,2538,2,0,1610612741
166,1610612741,1629632,1629655,201152,203107,203897,1610612752,1628995,1629628,201959,203901,203944,0021900887,4,2554,2557,0,2,1610612752
167,1610612741,1629632,1629655,201152,203107,203897,1610612752,1628995,1629628,201959,203901,203944,0021900887,4,2580,2580,0,0,1610612741
168,1610612741,1629632,1629655,201152,203107,203897,1610612752,1628995,1629628,201959,203901,203944,0021900887,4,2592,2592,0,0,1610612752
169,1610612741,1629632,1629655,201152,203107,203897,1610612752,1628995,1629628,201959,203901,203944,0021900887,4,2608,2615,2,0,1610612741
170,1610612741,1629632,1629655,201152,203107,203897,1610612752,1628995,1629628,201959,203901,203944,0021900887,4,2615,2632,0,2,1610612752
171,1610612741,1629632,1629655,201152,203107,203897,1610612752,1629628,201959,203090,203901,203944,0021900887,4,2641,2644,2,0,1610612741
172,1610612741,1629632,1629655,201152,203107,203897,1610612752,1629628,201959,203090,203901,203944,0021900887,4,2655,2655,0,3,1610612752
173,1610612741,1629632,1629655,201152,203107,203897,1610612752,1629628,201959,203090,203901,203944,0021900887,4,2671,2671,0,0,1610612741
174,1610612741,1629632,1629655,201152,203107,203897,1610612752,1629628,201959,203090,203901,203944,0021900887,4,2677,2677,0,0,1610612752
175,1610612741,1629632,1629655,201152,203107,203897,1610612752,1629628,201959,203090,203901,203944,0021900887,4,2693,2693,2,0,1610612741
176,1610612741,1629632,1629655,201152,203107,203897,1610612752,1629628,201959,203090,203901,203944,0021900887,4,2717,2718,0,2,1610612752
177,1610612741,1629632,1629655,201152,203107,203897,1610612752,1629011,1629628,203090,203901,203944,0021900887,4,2730,2733,0,0,1610612741
178,1610612741,1629632,1629655,201152,203107,203897,1610612752,1629011,1629628,203090,203901,203944,0021900887,4,2752,2752,0,2,1610612752
179,1610612741,1629632,1629655,201152,203107,203897,1610612752,1629011,1629628,203090,203901,203944,0021900887,4,2759,2759,0,0,1610612741
180,1610612741,1629632,1629655,201152,203107,203897,1610612752,1629011,1629628,203090,203901,203944,0021900887,4,2760,2760,0,2,1610612752
181,1610612741,1629632,1629655,201152,203107,203897,1610612752,1629011,1629628,203090,203901,203944,0021900887,4,2776,2776,3,0,1610612741
182,1610612741,1629632,1629655,201152,203107,203897,1610612752,1629011,1629628,203090,203901,203944,0021900887,4,2796,2796,0,2,1610612752
183,1610612741,1629632,1629655,201152,203107,203897,1610612752,1629011,1629628,203090,203901,203944,0021900887,4,2807,2809,0,0,1610612741
184,1610612741,1629632,1629655,201152,203107,203897,1610612752,1629011,1629628,203090,203901,203944,0021900887,4,2829,2829,0,0,1610612752
185,1610612741,1629632,1629655,201152,203107,203897,1610612752,1629011,1629628,203090,203901,203944,0021900887,4,2833,2833,2,0,1610612741
186,1610612741,1629632,1629655,201152,203107,203897,1610612752,1629011,1629628,203090,203901,203944,0021900887,4,2839,2844,3,2,1610612741
187,1610612741,1629632,1629655,201152,203107,203897,1610612752,1629011,1629628,203090,203901,203944,0021900887,4,2845,2864,0,2,1610612752
