,TEAM_ID_1,TEAM_1_PLAYERS,TEAM_ID_2,TEAM_2_PLAYERS,PERIOD
0,1610612749,[ 203114 1626192 1626171 1628960  201950],1610612761,[1630567 1627783 1630173 1629018 1627832],1
1,1610612749,[ 203114 1626192 1626171 1628960  201950],1610612761,[1630567 1629018 1630625 1628449 1629004],2
2,1610612749,[ 203114 1626192 1626171 1628960  201950],1610612761,[1630567 1627783 1630173 1629018 1627832],3
3,1610612749,[ 203114 1626192 1626171 1628960  201588],1610612761,[1627783 1630173 1630625 1629004 1629139],4
