,team1_id,team1_player1,team1_player2,team1_player3,team1_player4,team1_player5,team2_id,team2_player1,team2_player2,team2_player3,team2_player4,team2_player5,game_id,period,possession_start,possession_end,team1_points,team2_points,possession_team
0,1610612744,203952,1629308,1626172,1629673,1627780,1610612765,1630180,203924,1630191,1630165,1630595,0022100231,1,0,14,0,0,1610612765
1,1610612744,203952,1629308,1626172,1629673,1627780,1610612765,1630180,203924,1630191,1630165,1630595,0022100231,1,18,21,0,0,1610612744
2,1610612744,203952,1629308,1626172,1629673,1627780,1610612765,1630180,203924,1630191,1630165,1630595,0022100231,1,36,36,0,3,1610612765
3,1610612744,203952,1629308,1626172,1629673,1627780,1610612765,1630180,203924,1630191,1630165,1630595,0022100231,1,49,49,0,0,1610612744
4,1610612744,203952,1629308,1626172,1629673,1627780,1610612765,1630180,203924,1630191,1630165,1630595,0022100231,1,65,69,0,0,1610612765
5,1610612744,203952,1629308,1626172,1629673,1627780,1610612765,1630180,203924,1630191,1630165,1630595,0022100231,1,78,78,2,0,1610612744
6,1610612744,203952,1629308,1626172,1629673,1627780,1610612765,1630180,203924,1630191,1630165,1630595,0022100231,1,91,93,0,0,1610612765
7,1610612744,203952,1629308,1626172,1629673,1627780,1610612765,1630180,203924,1630191,1630165,1630595,0022100231,1,103,103,0,0,1610612744
8,1610612744,203952,1629308,1626172,1629673,1627780,1610612765,1630180,203924,1630191,1630165,1630595,0022100231,1,109,112,0,0,1610612765
9,1610612744,203952,1629308,1626172,1629673,1627780,1610612765,1630180,203924,1630191,1630165,1630595,0022100231,1,124,141,0,0,1610612744
10,1610612744,203952,1629308,1626172,1629673,1627780,1610612765,1630180,203924,1630191,1630165,1630595,0022100231,1,155,164,0,0,1610612765
11,1610612744,203952,1629308,1626172,1629673,1627780,1610612765,1630180,203924,1630191,1630165,1630595,0022100231,1,174,174,3,0,1610612744
12,1610612744,203952,1629308,1626172,1629673,1627780,1610612765,1630180,203924,1630191,1630165,1630595,0022100231,1,191,195,0,0,1610612765
13,1610612744,203952,1629308,1626172,1629673,1627780,1610612765,1630180,203924,1630191,1630165,1630595,0022100231,1,198,206,3,0,1610612744
14,1610612744,203952,1629308,1626172,1629673,1627780,1610612765,1630180,203924,1630191,1630165,1630595,0022100231,1,226,229,0,1,1610612765
15,1610612744,203952,1629308,1626172,1629673,1627780,1610612765,1630180,203924,1630191,1630165,1630595,0022100231,1,237,246,4,0,1610612744
16,1610612744,203952,1629308,1626172,1629673,1627780,1610612765,1630180,203924,1630191,1630165,1630595,0022100231,1,252,271,0,0,1610612765
17,1610612744,203952,1629308,1626172,1629673,1627780,1610612765,1630180,203924,1630191,1630165,1630595,0022100231,1,293,295,0,0,1610612744
18,1610612744,203952,1629308,1626172,1629673,1627780,1610612765,1630180,203924,1630191,1630165,1630595,0022100231,1,299,304,0,0,1610612765
19,1610612744,203952,1629308,1626172,1629673,1627780,1610612765,1630180,203924,1630191,1630165,1630595,0022100231,1,308,319,3,0,1610612744
20,1610612744,203952,1629308,1626172,1629673,1627780,1610612765,1630180,1630191,1630595,202709,203924,0022100231,1,344,347,0,0,1610612765
21,1610612744,203952,1629308,1626172,1629673,1627780,1610612765,1630180,1630191,1630595,202709,203924,0022100231,1,360,360,2,0,1610612744
22,1610612744,203952,1629308,1626172,1629673,1627780,1610612765,1630180,1630191,1630595,202709,203924,0022100231,1,366,378,0,3,1610612765
23,1610612744,1626172,1627780,1629185,1629308,203952,1610612765,1628402,1630191,1630595,202709,203924,0022100231,1,399,402,0,0,1610612744
24,1610612744,1626172,1627780,1629185,1629308,203952,1610612765,1628402,1630191,1630595,202709,203924,0022100231,1,405,418,0,3,1610612765
25,1610612744,1627814,1629185,1629308,202357,203952,1610612765,1628402,1630191,1630595,202709,203924,0022100231,1,442,445,0,0,1610612744
26,1610612744,1627814,1629185,1629308,202357,203952,1610612765,1628402,1630191,1630595,202709,203924,0022100231,1,453,453,0,0,1610612765
27,1610612744,1627814,1629185,1629308,202357,203952,1610612765,1628402,1630191,1630595,202709,203924,0022100231,1,462,467,0,0,1610612744
28,1610612744,1627814,1629185,1629308,202357,203952,1610612765,1628402,1630191,1630595,202709,203924,0022100231,1,474,474,0,2,1610612765
29,1610612744,1627814,1629185,1629308,202357,203952,1610612765,1628402,1630191,1630595,202709,203924,0022100231,1,474,498,2,0,1610612744
30,1610612744,1627814,1629185,1630228,202357,203952,1610612765,1626168,1628402,1630595,202709,203924,0022100231,1,515,518,0,0,1610612765
31,1610612744,1627814,1629185,1630228,202357,203952,1610612765,1626168,1628402,1630595,202709,203924,0022100231,1,533,536,0,0,1610612744
32,1610612744,1627814,1629185,1630228,202357,203952,1610612765,1626168,1628402,1630595,202709,203924,0022100231,1,551,551,0,2,1610612765
33,1610612744,1627814,1629185,1630228,202357,203952,1610612765,1626168,1628402,1630595,202709,203924,0022100231,1,570,570,0,0,1610612744
34,1610612744,1627814,1629185,1630228,202357,203952,1610612765,1626168,1628402,1630595,202709,203924,0022100231,1,577,577,0,2,1610612765
35,1610612744,1627814,1629185,1629673,1630228,202357,1610612765,1626168,1628402,1628977,202709,203924,0022100231,1,594,594,3,0,1610612744
36,1610612744,1627814,1629185,1629673,1630228,202357,1610612765,1626168,1628402,1628977,202709,203924,0022100231,1,602,602,0,2,1610612765
37,1610612744,1627814,1629185,1629673,1630228,202357,1610612765,1626168,1628402,1628977,202709,203924,0022100231,1,616,616,0,0,1610612744
38,1610612744,1627814,1629185,1629673,1630228,202357,1610612765,1626168,1628402,1628977,202709,203924,0022100231,1,619,621,0,0,1610612765
39,1610612744,1627814,1629185,1629673,1630228,202357,1610612765,1626168,1628402,1628977,202709,203924,0022100231,1,630,633,0,0,1610612744
40,1610612744,1627814,1629185,1629673,1630228,202357,1610612765,1626168,1628402,1628977,202709,203924,0022100231,1,645,648,0,0,1610612765
41,1610612744,1627814,1629185,1629673,1630228,202357,1610612765,1626168,1628402,1628977,202709,203924,0022100231,1,651,651,0,0,1610612744
42,1610612744,1627814,1629185,1629673,1630228,202357,1610612765,1626168,1628402,1628977,202709,203924,0022100231,1,662,662,0,3,1610612765
43,1610612744,1627814,1629185,1629673,1630228,202357,1610612765,1626168,1628402,1628977,202709,203924,0022100231,1,684,684,2,0,1610612744
44,1610612744,1627814,1629185,1629673,1630228,202357,1610612765,1626168,1628402,1628977,202709,203924,0022100231,1,689,689,0,2,1610612765
45,1610612744,1627814,1629185,1629673,1630228,202357,1610612765,1626168,1628402,1628977,202709,203924,0022100231,1,706,706,2,0,1610612744
46,1610612744,1626172,1627814,1629185,1629308,1630228,1610612765,1626168,1628402,1628977,202709,203924,0022100231,1,717,720,0,0,1610612765
47,1610612744,1629673,202357,1627814,1630228,1630541,1610612765,1630180,202709,1628402,1626168,1628977,0022100231,2,720,742,2,0,1610612744
48,1610612744,1629673,202357,1627814,1630228,1630541,1610612765,1630180,202709,1628402,1626168,1628977,0022100231,2,758,758,0,3,1610612765
49,1610612744,1629673,202357,1627814,1630228,1630541,1610612765,1630180,202709,1628402,1626168,1628977,0022100231,2,774,788,0,0,1610612744
50,1610612744,1629673,202357,1627814,1630228,1630541,1610612765,1630180,202709,1628402,1626168,1628977,0022100231,2,794,794,0,1,1610612765
51,1610612744,1629673,202357,1627814,1630228,1630541,1610612765,1630180,202709,1628402,1626168,1628977,0022100231,2,815,815,2,0,1610612744
52,1610612744,1629673,202357,1627814,1630228,1630541,1610612765,1630180,202709,1628402,1626168,1628977,0022100231,2,827,827,0,0,1610612765
53,1610612744,1629673,202357,1627814,1630228,1630541,1610612765,1630180,202709,1628402,1626168,1628977,0022100231,2,833,833,2,0,1610612744
54,1610612744,1629673,202357,1627814,1630228,1630541,1610612765,1630180,202709,1628402,1626168,1628977,0022100231,2,839,843,0,1,1610612765
55,1610612744,1629673,202357,1627814,1630228,1630541,1610612765,1630180,202709,1628402,1626168,1628977,0022100231,2,864,864,2,0,1610612744
56,1610612744,1629673,202357,1627814,1630228,1630541,1610612765,1630180,202709,1628402,1626168,1628977,0022100231,2,880,882,0,3,1610612765
57,1610612744,1627814,1629308,1629673,1630541,202357,1610612765,1630180,202709,1628402,1626168,1628977,0022100231,2,901,901,0,0,1610612744
58,1610612744,1627814,1629308,1629673,1630541,202357,1610612765,1630180,202709,1628402,1626168,1628977,0022100231,2,907,907,0,3,1610612765
59,1610612744,1627814,1629308,1629673,1630541,202357,1610612765,1630180,202709,1628402,1626168,1628977,0022100231,2,926,930,2,0,1610612744
60,1610612744,1627814,1629308,1629673,1630541,202357,1610612765,1630180,202709,1628402,1626168,1628977,0022100231,2,946,949,0,0,1610612765
61,1610612744,1627814,1629308,1629673,1630541,202357,1610612765,1630180,202709,1628402,1626168,1628977,0022100231,2,953,953,2,0,1610612744
62,1610612744,1629185,1629308,1630541,202357,203952,1610612765,1626168,1628402,1630165,1630180,1630595,0022100231,2,966,969,0,0,1610612765
63,1610612744,1629185,1629308,1630541,202357,203952,1610612765,1626168,1628402,1630165,1630180,1630595,0022100231,2,984,984,2,0,1610612744
64,1610612744,1629185,1629308,1630541,202357,203952,1610612765,1626168,1628402,1630165,1630180,1630595,0022100231,2,997,999,0,0,1610612765
65,1610612744,1629185,1629308,1630541,202357,203952,1610612765,1626168,1628402,1630165,1630180,1630595,0022100231,2,1011,1014,0,0,1610612744
66,1610612744,1629185,1629308,1630541,202357,203952,1610612765,1626168,1628402,1630165,1630180,1630595,0022100231,2,1033,1033,0,2,1610612765
67,1610612744,1629185,1629308,1630541,202357,203952,1610612765,1626168,1628402,1630165,1630180,1630595,0022100231,2,1046,1046,2,0,1610612744
68,1610612744,1629185,1629308,1630541,202357,203952,1610612765,1626168,1628402,1630165,1630180,1630595,0022100231,2,1052,1064,0,3,1610612765
69,1610612744,1626172,1629185,1629308,1630541,203952,1610612765,1628402,1630165,1630180,1630191,1630595,0022100231,2,1085,1085,0,0,1610612744
70,1610612744,1626172,1629185,1629308,1630541,203952,1610612765,1628402,1630165,1630180,1630191,1630595,0022100231,2,1098,1098,0,3,1610612765
71,1610612744,1626172,1629185,1629308,1630541,203952,1610612765,1628402,1630165,1630180,1630191,1630595,0022100231,2,1110,1110,0,0,1610612744
72,1610612744,1626172,1627780,1629185,1629308,203952,1610612765,1628402,1630165,1630180,1630191,1630595,0022100231,2,1127,1127,0,3,1610612765
73,1610612744,1626172,1627780,1629185,1629308,203952,1610612765,1628402,1630165,1630180,1630191,1630595,0022100231,2,1127,1147,0,0,1610612744
74,1610612744,1626172,1627780,1629308,1629673,203952,1610612765,1630165,1630180,1630191,1630595,203924,0022100231,2,1151,1151,0,0,1610612765
75,1610612744,1626172,1627780,1629308,1629673,203952,1610612765,1630165,1630180,1630191,1630595,203924,0022100231,2,1164,1164,2,0,1610612744
76,1610612744,1626172,1627780,1629308,1629673,203952,1610612765,1630165,1630180,1630191,1630595,203924,0022100231,2,1183,1186,0,0,1610612765
77,1610612744,1626172,1627780,1629308,1629673,203952,1610612765,1630165,1630180,1630191,1630595,203924,0022100231,2,1191,1191,0,0,1610612744
78,1610612744,1626172,1627780,1629308,1629673,203952,1610612765,1630165,1630180,1630191,1630595,203924,0022100231,2,1196,1196,0,1,1610612765
79,1610612744,1626172,1627780,1629308,1629673,203952,1610612765,1630165,1630180,1630191,1630595,203924,0022100231,2,1211,1211,2,0,1610612744
80,1610612744,1626172,1627780,1629308,1629673,203952,1610612765,1630180,1630191,1630595,202709,203924,0022100231,2,1225,1228,0,0,1610612765
81,1610612744,1626172,1627780,1629308,1629673,203952,1610612765,1630180,1630191,1630595,202709,203924,0022100231,2,1247,1247,3,0,1610612744
82,1610612744,1626172,1627780,1629308,1629673,203952,1610612765,1630180,1630191,1630595,202709,203924,0022100231,2,1265,1267,0,0,1610612765
83,1610612744,1626172,1627780,1629308,1629673,203952,1610612765,1630180,1630191,1630595,202709,203924,0022100231,2,1269,1290,0,0,1610612744
84,1610612744,1626172,1627780,1629308,1629673,203952,1610612765,1630180,1630191,1630595,202709,203924,0022100231,2,1295,1300,0,2,1610612765
85,1610612744,1626172,1627780,1629308,1629673,203952,1610612765,1630180,1630191,1630595,202709,203924,0022100231,2,1307,1307,2,0,1610612744
86,1610612744,1626172,1627780,1629308,1629673,203952,1610612765,1630180,1630191,1630595,202709,203924,0022100231,2,1330,1331,0,0,1610612765
87,1610612744,1626172,1627780,1629308,1629673,203952,1610612765,1628402,1630191,1630595,202709,203924,0022100231,2,1346,1346,0,0,1610612744
88,1610612744,1626172,1627780,1629308,1629673,203952,1610612765,1628402,1630191,1630595,202709,203924,0022100231,2,1346,1346,0,1,1610612765
89,1610612744,1626172,1627780,1629308,1629673,203952,1610612765,1628402,1630191,1630595,202709,203924,0022100231,2,1364,1364,2,0,1610612744
90,1610612744,1626172,1627780,1629308,1629673,203952,1610612765,1628402,1630191,1630595,202709,203924,0022100231,2,1385,1387,0,0,1610612765
91,1610612744,1626172,1627780,1629308,1629673,203952,1610612765,1628402,1630191,1630595,202709,203924,0022100231,2,1396,1396,3,0,1610612744
92,1610612744,1626172,1627780,1629308,1629673,203952,1610612765,1628402,1630191,1630595,202709,203924,0022100231,2,1411,1411,0,2,1610612765
93,1610612744,1626172,1627780,1629308,1629673,203952,1610612765,1628402,1630191,1630595,202709,203924,0022100231,2,1428,1439,0,0,1610612744
94,1610612744,1627814,1629308,1629673,202357,203952,1610612765,1628402,1628977,1630191,202709,203924,0022100231,2,1440,1440,0,0,1610612744
95,1610612744,203952,1629308,1626172,1629673,1627780,1610612765,1630180,203924,1630191,1630165,1630595,0022100231,3,1440,1464,0,0,1610612744
96,1610612744,203952,1629308,1626172,1629673,1627780,1610612765,1630180,203924,1630191,1630165,1630595,0022100231,3,1479,1482,0,0,1610612765
97,1610612744,203952,1629308,1626172,1629673,1627780,1610612765,1630180,203924,1630191,1630165,1630595,0022100231,3,1493,1495,0,0,1610612744
98,1610612744,203952,1629308,1626172,1629673,1627780,1610612765,1630180,203924,1630191,1630165,1630595,0022100231,3,1499,1499,0,2,1610612765
99,1610612744,203952,1629308,1626172,1629673,1627780,1610612765,1630180,203924,1630191,1630165,1630595,0022100231,3,1509,1517,2,0,1610612744
100,1610612744,203952,1629308,1626172,1629673,1627780,1610612765,1630165,1630180,1630568,1630595,203924,0022100231,3,1537,1540,0,0,1610612765
101,1610612744,203952,1629308,1626172,1629673,1627780,1610612765,1630165,1630180,1630568,1630595,203924,0022100231,3,1547,1547,3,0,1610612744
102,1610612744,203952,1629308,1626172,1629673,1627780,1610612765,1630165,1630180,1630568,1630595,203924,0022100231,3,1574,1574,0,2,1610612765
103,1610612744,203952,1629308,1626172,1629673,1627780,1610612765,1630165,1630180,1630568,1630595,203924,0022100231,3,1587,1593,2,0,1610612744
104,1610612744,203952,1629308,1626172,1629673,1627780,1610612765,1630165,1630180,1630568,1630595,203924,0022100231,3,1609,1611,0,0,1610612765
105,1610612744,203952,1629308,1626172,1629673,1627780,1610612765,1630165,1630180,1630568,1630595,203924,0022100231,3,1616,1638,0,0,1610612744
106,1610612744,203952,1629308,1626172,1629673,1627780,1610612765,1630165,1630180,1630568,1630595,203924,0022100231,3,1639,1654,0,0,1610612765
107,1610612744,203952,1629308,1626172,1629673,1627780,1610612765,1630165,1630180,1630568,1630595,203924,0022100231,3,1669,1672,0,0,1610612744
108,1610612744,203952,1629308,1626172,1629673,1627780,1610612765,1630165,1630180,1630568,1630595,203924,0022100231,3,1679,1679,0,3,1610612765
109,1610612744,203952,1629308,1626172,1629673,1627780,1610612765,1630165,1630180,1630568,1630595,203924,0022100231,3,1691,1691,2,0,1610612744
110,1610612744,203952,1629308,1626172,1629673,1627780,1610612765,1630165,1630180,1630568,1630595,203924,0022100231,3,1705,1707,0,0,1610612765
111,1610612744,203952,1629308,1626172,1629673,1627780,1610612765,1630165,1630180,1630568,1630595,203924,0022100231,3,1714,1714,0,0,1610612744
112,1610612744,203952,1629308,1626172,1629673,1627780,1610612765,1630165,1630180,1630568,1630595,203924,0022100231,3,1726,1735,0,3,1610612765
113,1610612744,203952,1629308,1626172,1629673,1627780,1610612765,1630165,1630180,1630568,1630595,203924,0022100231,3,1752,1752,3,0,1610612744
114,1610612744,203952,1629308,1626172,1629673,1627780,1610612765,1630165,1630180,1630568,1630595,203924,0022100231,3,1762,1762,0,0,1610612765
115,1610612744,203952,1629308,1626172,1629673,1627780,1610612765,1630165,1630180,1630568,1630595,203924,0022100231,3,1768,1772,2,0,1610612744
116,1610612744,203952,1629308,1626172,1629673,1627780,1610612765,1630165,1630180,1630568,1630595,203924,0022100231,3,1776,1792,0,3,1610612765
117,1610612744,203952,1629308,1626172,1629673,1627780,1610612765,1628402,1630568,1630595,202709,203924,0022100231,3,1804,1804,2,0,1610612744
118,1610612744,203952,1629308,1626172,1629673,1627780,1610612765,1628402,1630568,1630595,202709,203924,0022100231,3,1830,1832,0,0,1610612765
119,1610612744,203952,1629308,1626172,1629673,1627780,1610612765,1628402,1630568,1630595,202709,203924,0022100231,3,1838,1847,3,0,1610612744
120,1610612744,1627780,1629185,1629308,202357,203952,1610612765,1628402,1630568,1630595,202709,203924,0022100231,3,1873,1876,0,0,1610612765
121,1610612744,1627780,1629185,1629308,202357,203952,1610612765,1628402,1630568,1630595,202709,203924,0022100231,3,1882,1882,0,0,1610612744
122,1610612744,1627780,1629185,1629308,202357,203952,1610612765,1628402,1630568,1630595,202709,203924,0022100231,3,1898,1898,0,0,1610612765
123,1610612744,1627780,1629185,1629308,202357,203952,1610612765,1628402,1630568,1630595,202709,203924,0022100231,3,1902,1902,2,0,1610612744
124,1610612744,1627780,1629185,1629308,202357,203952,1610612765,1628402,1630568,1630595,202709,203924,0022100231,3,1922,1922,0,2,1610612765
125,1610612744,1627780,1629185,1629308,202357,203952,1610612765,1628402,1630568,1630595,202709,203924,0022100231,3,1942,1951,0,0,1610612744
126,1610612744,1627780,1629185,1629308,202357,203952,1610612765,1628402,1630568,1630595,202709,203924,0022100231,3,1951,1971,0,0,1610612765
127,1610612744,1627814,1629185,1629308,202357,203952,1610612765,1628402,1628977,1630595,202709,203924,0022100231,3,1981,1981,0,0,1610612744
128,1610612744,1627814,1629185,1629308,202357,203952,1610612765,1628402,1628977,1630595,202709,203924,0022100231,3,1990,1992,0,2,1610612765
129,1610612744,1627814,1629185,1629308,202357,203952,1610612765,1628402,1628977,1630595,202709,203924,0022100231,3,1992,2018,0,0,1610612744
130,1610612744,1627814,1629185,1630228,202357,203952,1610612765,1628402,1628977,1630595,202709,203924,0022100231,3,2027,2027,0,0,1610612765
131,1610612744,1627814,1629185,1630228,202357,203952,1610612765,1628402,1628977,1630595,202709,203924,0022100231,3,2033,2033,1,0,1610612744
132,1610612744,1627814,1629185,1630228,202357,203952,1610612765,1626168,1628402,1628977,1630180,202709,0022100231,3,2048,2048,0,0,1610612765
133,1610612744,1627814,1629185,1629673,1630228,202357,1610612765,1626168,1628402,1628977,1630180,202709,0022100231,3,2069,2074,3,0,1610612744
134,1610612744,1627814,1629185,1629673,1630228,202357,1610612765,1626168,1628402,1628977,1630180,202709,0022100231,3,2099,2099,0,2,1610612765
135,1610612744,1627814,1629185,1629673,1630228,202357,1610612765,1626168,1628402,1628977,1630180,202709,0022100231,3,2113,2113,2,0,1610612744
136,1610612744,1627814,1629185,1629673,1630228,202357,1610612765,1626168,1628402,1628977,1630180,202709,0022100231,3,2126,2126,0,0,1610612765
137,1610612744,1627814,1629185,1629673,1630228,202357,1610612765,1626168,1628402,1628977,1630180,202709,0022100231,3,2144,2144,3,0,1610612744
138,1610612744,1627814,1629185,1629673,1630228,202357,1610612765,1626168,1628402,1628977,1630180,202709,0022100231,3,2154,2159,0,0,1610612744
139,1610612744,1629673,1629185,202357,1627814,1630228,1610612765,1630180,202709,1628402,1626168,1628977,0022100231,4,2160,2178,0,2,1610612765
140,1610612744,1629673,1629185,202357,1627814,1630228,1610612765,1630180,202709,1628402,1626168,1628977,0022100231,4,2195,2200,0,0,1610612744
141,1610612744,1629673,1629185,202357,1627814,1630228,1610612765,1630180,202709,1628402,1626168,1628977,0022100231,4,2200,2200,0,2,1610612765
142,1610612744,1629673,1629185,202357,1627814,1630228,1610612765,1630180,202709,1628402,1626168,1628977,0022100231,4,2218,2218,3,0,1610612744
143,1610612744,1629673,1629185,202357,1627814,1630228,1610612765,1630180,202709,1628402,1626168,1628977,0022100231,4,2242,2255,0,2,1610612765
144,1610612744,1629673,1629185,202357,1627814,1630228,1610612765,1630180,202709,1628402,1626168,1628977,0022100231,4,2269,2271,0,0,1610612744
145,1610612744,1629673,1629185,202357,1627814,1630228,1610612765,1630180,202709,1628402,1626168,1628977,0022100231,4,2276,2279,0,1,1610612765
146,1610612744,1627814,1629308,1629673,1630541,202357,1610612765,1630180,202709,1628402,1626168,1628977,0022100231,4,2288,2288,2,0,1610612744
147,1610612744,1627814,1629308,1629673,1630541,202357,1610612765,1630180,202709,1628402,1626168,1628977,0022100231,4,2302,2304,0,0,1610612765
148,1610612744,1627814,1629308,1629673,1630541,202357,1610612765,1630180,202709,1628402,1626168,1628977,0022100231,4,2306,2310,0,0,1610612744
149,1610612744,1627814,1629308,1629673,1630541,202357,1610612765,1630180,202709,1628402,1626168,1628977,0022100231,4,2310,2322,0,3,1610612765
150,1610612744,1627814,1629308,1629673,1630541,202357,1610612765,1630180,202709,1628402,1626168,1628977,0022100231,4,2338,2338,0,0,1610612744
151,1610612744,1627814,1629308,1629673,1630541,202357,1610612765,1630180,202709,1628402,1626168,1628977,0022100231,4,2350,2350,0,3,1610612765
152,1610612744,1627814,1629308,1629673,1630541,202357,1610612765,1630180,202709,1628402,1626168,1628977,0022100231,4,2350,2367,0,0,1610612744
153,1610612744,1627814,1629308,1629673,1630541,202357,1610612765,1626168,1628402,1630180,1630595,202709,0022100231,4,2367,2367,0,2,1610612765
154,1610612744,1627780,1629308,1629673,202357,203952,1610612765,1626168,1628402,1630180,1630595,202709,0022100231,4,2386,2386,2,0,1610612744
155,1610612744,1627780,1629308,1629673,202357,203952,1610612765,1626168,1628402,1630180,1630595,202709,0022100231,4,2409,2409,0,0,1610612765
156,1610612744,1627780,1629308,1629673,202357,203952,1610612765,1626168,1628402,1630180,1630595,202709,0022100231,4,2425,2425,0,0,1610612744
157,1610612744,1627780,1629308,1629673,202357,203952,1610612765,1626168,1628402,1630180,1630595,202709,0022100231,4,2447,2449,0,0,1610612765
158,1610612744,1627780,1629308,1629673,202357,203952,1610612765,1626168,1628402,1630180,1630595,202709,0022100231,4,2462,2466,2,0,1610612744
159,1610612744,1626172,1627780,1629308,1629673,203952,1610612765,1628402,1630165,1630180,1630595,203924,0022100231,4,2490,2503,0,0,1610612765
160,1610612744,1626172,1627780,1629308,1629673,203952,1610612765,1628402,1630165,1630180,1630595,203924,0022100231,4,2514,2514,2,0,1610612744
161,1610612744,1626172,1627780,1629308,1629673,203952,1610612765,1628402,1630165,1630180,1630595,203924,0022100231,4,2537,2537,0,2,1610612765
162,1610612744,1626172,1627780,1629308,1629673,203952,1610612765,1628402,1630165,1630180,1630595,203924,0022100231,4,2554,2554,2,0,1610612744
163,1610612744,1626172,1627780,1629308,1629673,203952,1610612765,1628402,1630165,1630180,1630595,203924,0022100231,4,2554,2573,0,0,1610612765
164,1610612744,1626172,1627780,1629308,1629673,203952,1610612765,1628402,1630165,1630180,1630595,203924,0022100231,4,2582,2582,2,0,1610612744
165,1610612744,1626172,1627780,1629308,1629673,203952,1610612765,1628402,1630165,1630180,1630595,203924,0022100231,4,2583,2604,0,2,1610612765
166,1610612744,1626172,1627780,1629308,1629673,203952,1610612765,1628402,1630165,1630180,1630595,203924,0022100231,4,2618,2632,0,0,1610612744
167,1610612744,1626172,1627780,1629308,1629673,203952,1610612765,1628402,1630165,1630180,1630595,203924,0022100231,4,2642,2642,0,2,1610612765
168,1610612744,1626172,1627780,1629308,1629673,203952,1610612765,1628402,1630165,1630180,1630595,203924,0022100231,4,2651,2651,1,0,1610612744
169,1610612744,1626172,1627780,1629308,1629673,203952,1610612765,1628402,1630180,1630595,202709,203924,0022100231,4,2671,2671,0,3,1610612765
170,1610612744,1626172,1627780,1629308,1629673,203952,1610612765,1628402,1630180,1630595,202709,203924,0022100231,4,2690,2690,2,0,1610612744
171,1610612744,1626172,1627780,1629308,1629673,203952,1610612765,1628402,1630180,1630595,202709,203924,0022100231,4,2704,2704,0,2,1610612765
172,1610612744,1626172,1627780,1629308,1629673,203952,1610612765,1628402,1630180,1630595,202709,203924,0022100231,4,2722,2725,0,0,1610612744
173,1610612744,1626172,1627780,1629308,1629673,203952,1610612765,1628402,1630180,1630595,202709,203924,0022100231,4,2727,2727,0,2,1610612765
174,1610612744,1626172,1627780,1629308,1629673,203952,1610612765,1628402,1630180,1630595,202709,203924,0022100231,4,2748,2748,0,0,1610612744
175,1610612744,1626172,1627780,1629308,1629673,203952,1610612765,1628402,1630180,1630595,202709,203924,0022100231,4,2766,2769,0,0,1610612765
176,1610612744,1626172,1627780,1629308,1629673,203952,1610612765,1628402,1630180,1630595,202709,203924,0022100231,4,2777,2777,0,0,1610612744
177,1610612744,1626172,1627780,1629308,1629673,203952,1610612765,1628402,1630180,1630595,202709,203924,0022100231,4,2777,2777,0,2,1610612765
178,1610612744,1627780,1629308,1629673,202357,203952,1610612765,1628402,1630180,1630595,202709,203924,0022100231,4,2798,2798,1,0,1610612744
179,1610612744,1626172,1627780,1629308,1629673,203952,1610612765,1628402,1630180,1630595,202709,203924,0022100231,4,2816,2816,0,0,1610612765
180,1610612744,1626172,1627780,1629308,1629673,203952,1610612765,1628402,1630180,1630595,202709,203924,0022100231,4,2832,2835,0,0,1610612744
181,1610612744,1626172,1627780,1629308,1629673,203952,1610612765,1628402,1630180,1630595,202709,203924,0022100231,4,2847,2847,0,2,1610612765
182,1610612744,1626172,1627780,1629308,1629673,203952,1610612765,1628402,1630180,1630595,202709,203924,0022100231,4,2847,2854,0,0,1610612744
183,1610612744,1626172,1627780,1629308,1629673,203952,1610612765,1628402,1630180,1630595,202709,203924,0022100231,4,2860,2880,0,0,1610612744
