,TEAM_ID_1,TEAM_1_PLAYERS,TEAM_ID_2,TEAM_2_PLAYERS,PERIOD
0,1610612764,[ 203484 1628398 1629655  203078 1628988],1610612756,[1628969  203109 1629028 1629013  101108],1
1,1610612764,[ 203484 1628398 1629655  203526  202722],1610612756,[1628969 1626166  201580 1629661  203901],2
2,1610612764,[ 203484 1628398 1629655  203078 1628988],1610612756,[1628969  203109 1629028 1629013  101108],3
3,1610612764,[ 203484 1628398 1629655 1628988 1630557],1610612756,[1626166  201580 1629661 1630188  203901],4
