,TEAM_ID_1,TEAM_1_PLAYERS,TEAM_ID_2,TEAM_2_PLAYERS,PERIOD
0,1610612753,[],1610612740,[1627742 1629627  203500  202339 1628366],1
1,1610612753,[],1610612740,[1629627 1628404 1626195  200755 1630184],2
2,1610612753,[],1610612740,[1627742 1629627  203500  202339 1628366],3
3,1610612753,[],1610612740,[1627742 1629627 1626195  200755 1630184],4
