,team1_id,team1_player1,team1_player2,team1_player3,team1_player4,team1_player5,team2_id,team2_player1,team2_player2,team2_player3,team2_player4,team2_player5,game_id,period,possession_start,possession_end,team1_points,team2_points,possession_team
0,1610612761,1628384,1627783,201188,200768,1627832,1610612741,203490,1628374,1628976,203897,203107,0021900031,1,0,25,0,2,1610612741
1,1610612761,1628384,1627783,201188,200768,1627832,1610612741,203490,1628374,1628976,203897,203107,0021900031,1,40,40,3,0,1610612761
2,1610612761,1628384,1627783,201188,200768,1627832,1610612741,203490,1628374,1628976,203897,203107,0021900031,1,60,60,0,3,1610612741
3,1610612761,1628384,1627783,201188,200768,1627832,1610612741,203490,1628374,1628976,203897,203107,0021900031,1,86,86,0,0,1610612761
4,1610612761,1628384,1627783,201188,200768,1627832,1610612741,203490,1628374,1628976,203897,203107,0021900031,1,88,90,0,0,1610612741
5,1610612761,1628384,1627783,201188,200768,1627832,1610612741,203490,1628374,1628976,203897,203107,0021900031,1,104,104,2,0,1610612761
6,1610612761,1628384,1627783,201188,200768,1627832,1610612741,203490,1628374,1628976,203897,203107,0021900031,1,110,112,0,0,1610612741
7,1610612761,1628384,1627783,201188,200768,1627832,1610612741,203490,1628374,1628976,203897,203107,0021900031,1,118,138,0,0,1610612761
8,1610612761,1628384,1627783,201188,200768,1627832,1610612741,203490,1628374,1628976,203897,203107,0021900031,1,147,158,0,0,1610612741
9,1610612761,1628384,1627783,201188,200768,1627832,1610612741,203490,1628374,1628976,203897,203107,0021900031,1,162,162,3,0,1610612761
10,1610612761,1628384,1627783,201188,200768,1627832,1610612741,203490,1628374,1628976,203897,203107,0021900031,1,177,182,0,0,1610612741
11,1610612761,1628384,1627783,201188,200768,1627832,1610612741,203490,1628374,1628976,203897,203107,0021900031,1,183,184,0,0,1610612761
12,1610612761,1628384,1627783,201188,200768,1627832,1610612741,203490,1628374,1628976,203897,203107,0021900031,1,186,203,0,0,1610612741
13,1610612761,1628384,1627783,201188,200768,1627832,1610612741,203490,1628374,1628976,203897,203107,0021900031,1,216,218,0,0,1610612761
14,1610612761,1628384,1627783,201188,200768,1627832,1610612741,203490,1628374,1628976,203897,203107,0021900031,1,234,234,0,2,1610612741
15,1610612761,1628384,1627783,201188,200768,1627832,1610612741,203490,1628374,1628976,203897,203107,0021900031,1,239,239,0,0,1610612761
16,1610612761,1626181,1627832,1628384,200768,201188,1610612741,203490,1628374,1628976,203897,203107,0021900031,1,254,256,0,0,1610612741
17,1610612761,1626181,1627832,1628384,200768,201188,1610612741,203490,1628374,1628976,203897,203107,0021900031,1,263,263,3,0,1610612761
18,1610612761,1626181,1627832,1628384,200768,201188,1610612741,203490,1628374,1628976,203897,203107,0021900031,1,276,290,0,2,1610612741
19,1610612761,1626181,1627832,1628384,200768,201586,1610612741,203490,1628374,1628976,203897,203107,0021900031,1,297,297,3,0,1610612761
20,1610612761,1626181,1627832,1628384,200768,201586,1610612741,203490,1628374,1628976,203897,203107,0021900031,1,306,306,0,2,1610612741
21,1610612761,1626181,1627832,1628384,200768,201586,1610612741,203490,1628374,1628976,203897,203107,0021900031,1,322,327,0,0,1610612761
22,1610612761,1626181,1627832,1628384,200768,201586,1610612741,203490,1628374,1628976,203897,203107,0021900031,1,335,337,0,0,1610612741
23,1610612761,1626181,1627832,1628384,200768,201586,1610612741,203490,1628374,1628976,203897,203107,0021900031,1,340,340,2,0,1610612761
24,1610612761,1626181,1627832,1628384,200768,201586,1610612741,203490,1628374,1628976,203897,203107,0021900031,1,340,355,0,3,1610612741
25,1610612761,1626181,1627832,1628384,200768,201586,1610612741,1628374,201152,203107,203490,203897,0021900031,1,369,381,0,0,1610612761
26,1610612761,1626181,1627832,1628384,200768,201586,1610612741,1628374,201152,203107,203490,203897,0021900031,1,387,387,0,0,1610612741
27,1610612761,1626181,1627832,1628384,200768,201586,1610612741,1628374,201152,203107,203490,203897,0021900031,1,389,403,2,0,1610612761
28,1610612761,1626181,1627832,1628384,200768,201586,1610612741,1627739,1628374,201152,203490,203897,0021900031,1,421,436,0,1,1610612741
29,1610612761,1626181,1627832,1628384,200768,201586,1610612741,1627739,1628374,1629632,201152,203897,0021900031,1,441,443,0,0,1610612761
30,1610612761,1626181,1627832,1628384,200768,201586,1610612741,1627739,1628374,1629632,201152,203897,0021900031,1,446,449,0,0,1610612741
31,1610612761,1626181,1627832,1628384,200768,201586,1610612741,1627739,1628374,1629632,201152,203897,0021900031,1,449,449,0,0,1610612761
32,1610612761,1626181,1627832,1628384,1629056,201586,1610612741,1627739,1628374,1629632,201152,203897,0021900031,1,462,462,0,2,1610612741
33,1610612761,1626181,1627832,1628384,1629056,201586,1610612741,1627739,1628374,1629632,201152,203897,0021900031,1,487,490,2,0,1610612761
34,1610612761,1626181,1627832,1628384,1629056,201586,1610612741,1627739,1628374,1629632,201152,203897,0021900031,1,490,503,0,0,1610612741
35,1610612761,1626181,1627832,1628384,1629056,201586,1610612741,1627739,1628374,1629632,201152,203897,0021900031,1,509,509,0,0,1610612761
36,1610612761,1626181,1627832,1628384,1629056,201586,1610612741,1627739,1627853,1628976,1629632,201152,0021900031,1,516,518,0,0,1610612741
37,1610612761,1626181,1627832,1628384,1629056,201586,1610612741,1627739,1627853,1628976,1629632,201152,0021900031,1,524,526,0,0,1610612761
38,1610612761,1626181,1627832,1628384,1629056,201586,1610612741,1627739,1627853,1628976,1629632,201152,0021900031,1,531,536,0,0,1610612741
39,1610612761,1626169,1626181,1627832,1629056,201586,1610612741,1627739,1627853,1628976,1629632,201152,0021900031,1,536,556,0,0,1610612761
40,1610612761,1626169,1626181,1627832,1629056,201586,1610612741,1627739,1627853,1628976,1629632,201152,0021900031,1,571,573,0,0,1610612741
41,1610612761,1626169,1626181,1629056,200768,201586,1610612741,1627739,1627853,1628976,1629632,201152,0021900031,1,585,601,2,0,1610612761
42,1610612761,1626169,1626181,1629056,200768,201586,1610612741,1627739,1627853,1628976,1629632,201152,0021900031,1,613,613,0,0,1610612741
43,1610612761,1626169,1626181,1629056,200768,201586,1610612741,1627739,1627853,1628976,1629632,201152,0021900031,1,618,618,2,0,1610612761
44,1610612761,1626169,1626181,1629056,200768,201586,1610612741,1627739,1627853,1628976,1629632,201152,0021900031,1,634,635,0,0,1610612741
45,1610612761,1626169,1626181,1629056,200768,201586,1610612741,1627739,1627853,1628976,1629632,201152,0021900031,1,654,654,0,0,1610612761
46,1610612761,1626169,1626181,1629056,200768,201586,1610612741,1627739,1627853,1628976,1629632,201152,0021900031,1,660,660,0,2,1610612741
47,1610612761,1626169,1626181,1629056,200768,201586,1610612741,1627739,1627853,1628976,1629632,201152,0021900031,1,671,676,0,0,1610612761
48,1610612761,1626169,1626181,1629056,200768,201586,1610612741,1627739,1627853,1628976,1629632,201152,0021900031,1,685,685,0,2,1610612741
49,1610612761,1626169,1626181,1629056,200768,201586,1610612741,1627739,1627853,1628976,1629632,201152,0021900031,1,709,709,0,0,1610612761
50,1610612761,1626169,1626181,1629056,200768,201586,1610612741,1627739,1627853,1628976,1629632,201152,0021900031,1,718,720,0,2,1610612741
51,1610612761,200768,1626181,201586,1629056,1626169,1610612741,203490,1627739,1629632,1627853,1628436,0021900031,2,720,733,0,0,1610612761
52,1610612761,200768,1626181,201586,1629056,1626169,1610612741,203490,1627739,1629632,1627853,1628436,0021900031,2,755,755,0,3,1610612741
53,1610612761,200768,1626181,201586,1629056,1626169,1610612741,203490,1627739,1629632,1627853,1628436,0021900031,2,770,770,0,0,1610612761
54,1610612761,200768,1626181,201586,1629056,1626169,1610612741,203490,1627739,1629632,1627853,1628436,0021900031,2,770,779,0,1,1610612741
55,1610612761,200768,1626181,201586,1629056,1626169,1610612741,1627739,1627853,1628374,1628436,1629632,0021900031,2,789,789,0,0,1610612761
56,1610612761,200768,1626181,201586,1629056,1626169,1610612741,1627739,1627853,1628374,1628436,1629632,0021900031,2,801,801,0,2,1610612741
57,1610612761,200768,1626181,201586,1629056,1626169,1610612741,1627739,1627853,1628374,1628436,1629632,0021900031,2,821,821,0,0,1610612761
58,1610612761,1626181,1627783,1629744,200768,201188,1610612741,1627739,1627853,1628374,1628436,1629632,0021900031,2,831,831,0,0,1610612741
59,1610612761,1626181,1627783,1629744,200768,201188,1610612741,1627739,1627853,1628374,1628436,1629632,0021900031,2,836,836,2,0,1610612761
60,1610612761,1626181,1627783,1629744,200768,201188,1610612741,1627739,1627853,1628374,1628436,1629632,0021900031,2,847,850,0,0,1610612741
61,1610612761,1626181,1627783,1629744,200768,201188,1610612741,1627739,1627853,1628374,1628436,1629632,0021900031,2,857,857,0,0,1610612761
62,1610612761,1626181,1627783,1629744,200768,201188,1610612741,1627739,1627853,1628374,1628436,1629632,0021900031,2,869,871,0,0,1610612741
63,1610612761,1626181,1627783,1629744,200768,201188,1610612741,1627739,1627853,1628374,1628436,1629632,0021900031,2,888,891,0,0,1610612761
64,1610612761,1626181,1627783,1629744,200768,201188,1610612741,1627739,1627853,1628374,1628436,1629632,0021900031,2,894,898,0,0,1610612741
65,1610612761,1627783,1627832,1629744,200768,201188,1610612741,1627739,1627853,1628374,1628436,1629632,0021900031,2,906,909,0,0,1610612761
66,1610612761,1627783,1627832,1629744,200768,201188,1610612741,1627739,1627853,1628374,1628436,1629632,0021900031,2,915,915,0,2,1610612741
67,1610612761,1627783,1627832,1629744,200768,201188,1610612741,1627739,1627853,1628374,1628436,1629632,0021900031,2,923,946,2,0,1610612761
68,1610612761,1627783,1627832,1629744,200768,201188,1610612741,1628374,1628436,1629632,203107,203897,0021900031,2,964,964,0,0,1610612741
69,1610612761,1627783,1627832,1629744,200768,201188,1610612741,1628374,1628436,1629632,203107,203897,0021900031,2,973,973,3,0,1610612761
70,1610612761,1627783,1627832,1629744,200768,201188,1610612741,1628374,1628436,1629632,203107,203897,0021900031,2,975,994,0,3,1610612741
71,1610612761,1627783,1627832,1629744,200768,201188,1610612741,1628374,1628436,1629632,203107,203897,0021900031,2,1020,1022,0,0,1610612761
72,1610612761,1627783,1627832,1629744,200768,201188,1610612741,1628374,1628436,1629632,203107,203897,0021900031,2,1027,1027,0,2,1610612741
73,1610612761,1627783,1627832,1629744,200768,201188,1610612741,1628374,1628436,1629632,203107,203897,0021900031,2,1043,1043,2,0,1610612761
74,1610612761,1627783,1627832,1629744,200768,201188,1610612741,1628374,1628436,1629632,203107,203897,0021900031,2,1064,1064,0,0,1610612741
75,1610612761,1627783,1627832,1629744,200768,201188,1610612741,1628374,1628436,1629632,203107,203897,0021900031,2,1086,1090,0,0,1610612761
76,1610612761,1627783,1627832,1629744,200768,201188,1610612741,1628374,1628436,1629632,203107,203897,0021900031,2,1096,1099,0,0,1610612741
77,1610612761,1627783,1627832,1629744,200768,201188,1610612741,1628374,1628436,1629632,203107,203897,0021900031,2,1102,1104,0,0,1610612761
78,1610612761,1627783,1627832,1629744,200768,201188,1610612741,1628374,1628436,1629632,203107,203897,0021900031,2,1121,1124,0,0,1610612741
79,1610612761,1627783,1627832,1629744,200768,201188,1610612741,1628374,1628436,1629632,203107,203897,0021900031,2,1138,1138,3,0,1610612761
80,1610612761,1627783,1627832,1629744,200768,201188,1610612741,1628374,1628436,1629632,203107,203897,0021900031,2,1159,1164,0,0,1610612741
81,1610612761,1627783,1627832,1628384,1629744,201188,1610612741,1627885,1628374,1628976,203107,203897,0021900031,2,1182,1182,2,0,1610612761
82,1610612761,1627783,1627832,1628384,1629744,201188,1610612741,1627885,1628374,1628976,203107,203897,0021900031,2,1195,1198,0,0,1610612741
83,1610612761,1627783,1627832,1628384,1629744,201188,1610612741,1627885,1628374,1628976,203107,203897,0021900031,2,1203,1203,3,0,1610612761
84,1610612761,1627783,1627832,1628384,1629744,201188,1610612741,1627885,1628374,1628976,203107,203897,0021900031,2,1227,1230,0,0,1610612741
85,1610612761,1627783,1627832,1628384,1629744,201188,1610612741,1627885,1628374,1628976,203107,203897,0021900031,2,1238,1241,0,0,1610612761
86,1610612761,1627783,1627832,1628384,1629744,201188,1610612741,1627885,1628374,1628976,203107,203897,0021900031,2,1251,1254,0,0,1610612741
87,1610612761,1627783,1627832,1628384,1629744,201188,1610612741,1627885,1628374,1628976,203107,203897,0021900031,2,1265,1265,0,0,1610612761
88,1610612761,1627783,1627832,1628384,1629744,201188,1610612741,1627885,1628374,1628976,203107,203897,0021900031,2,1270,1272,0,0,1610612741
89,1610612761,1627783,1627832,1628384,1629744,201188,1610612741,1627885,1628374,1628976,203107,203897,0021900031,2,1281,1281,2,0,1610612761
90,1610612761,1627783,1627832,1628384,1629744,201188,1610612741,1627885,1628976,201152,203107,203897,0021900031,2,1300,1300,0,2,1610612741
91,1610612761,1627783,1627832,1628384,1629744,201188,1610612741,1627885,1628976,201152,203107,203897,0021900031,2,1306,1306,2,0,1610612761
92,1610612761,1627832,1628384,1629744,200768,201188,1610612741,1627885,1628976,201152,203107,203897,0021900031,2,1312,1326,0,0,1610612741
93,1610612761,1627832,1628384,1629744,200768,201188,1610612741,1627885,1628976,201152,203107,203897,0021900031,2,1341,1345,0,0,1610612761
94,1610612761,1627832,1628384,1629744,200768,201188,1610612741,1627885,1628976,201152,203107,203897,0021900031,2,1345,1362,0,0,1610612741
95,1610612761,1627832,1628384,1629744,200768,201188,1610612741,1627885,1628976,201152,203107,203897,0021900031,2,1366,1368,0,0,1610612761
96,1610612761,1627832,1628384,1629744,200768,201188,1610612741,1627885,1628976,201152,203107,203897,0021900031,2,1372,1375,0,2,1610612741
97,1610612761,1627832,1628384,1629744,200768,201188,1610612741,1627885,1628976,201152,203107,203897,0021900031,2,1392,1392,3,0,1610612761
98,1610612761,1627832,1628384,1629744,200768,201188,1610612741,1627885,1628976,201152,203107,203897,0021900031,2,1407,1409,0,0,1610612741
99,1610612761,1627832,1628384,1629744,200768,201188,1610612741,1627885,1628976,201152,203107,203897,0021900031,2,1414,1417,0,0,1610612761
100,1610612761,1627832,1628384,1629744,200768,201188,1610612741,1627885,1628976,201152,203107,203897,0021900031,2,1439,1439,0,0,1610612741
101,1610612761,1628384,1627783,201188,200768,1627832,1610612741,203490,1628374,1628976,203897,203107,0021900031,3,1440,1458,3,0,1610612761
102,1610612761,1628384,1627783,201188,200768,1627832,1610612741,203490,1628374,1628976,203897,203107,0021900031,3,1477,1477,0,2,1610612741
103,1610612761,1628384,1627783,201188,200768,1627832,1610612741,203490,1628374,1628976,203897,203107,0021900031,3,1496,1503,2,0,1610612761
104,1610612761,1628384,1627783,201188,200768,1627832,1610612741,203490,1628374,1628976,203897,203107,0021900031,3,1514,1517,0,0,1610612741
105,1610612761,1628384,1627783,201188,200768,1627832,1610612741,203490,1628374,1628976,203897,203107,0021900031,3,1523,1523,0,0,1610612761
106,1610612761,1628384,1627783,201188,200768,1627832,1610612741,203490,1628374,1628976,203897,203107,0021900031,3,1530,1530,0,3,1610612741
107,1610612761,1628384,1627783,201188,200768,1627832,1610612741,203490,1628374,1628976,203897,203107,0021900031,3,1557,1559,0,0,1610612761
108,1610612761,1628384,1627783,201188,200768,1627832,1610612741,203490,1628374,1628976,203897,203107,0021900031,3,1562,1564,0,1,1610612741
109,1610612761,1628384,1627783,201188,200768,1627832,1610612741,203490,1628374,1628976,203897,203107,0021900031,3,1576,1585,0,0,1610612761
110,1610612761,1628384,1627783,201188,200768,1627832,1610612741,203490,1628374,1628976,203897,203107,0021900031,3,1595,1598,0,0,1610612741
111,1610612761,1628384,1627783,201188,200768,1627832,1610612741,203490,1628374,1628976,203897,203107,0021900031,3,1605,1605,3,0,1610612761
112,1610612761,1628384,1627783,201188,200768,1627832,1610612741,203490,1628374,1628976,203897,203107,0021900031,3,1618,1621,0,0,1610612741
113,1610612761,1628384,1627783,201188,200768,1627832,1610612741,203490,1628374,1628976,203897,203107,0021900031,3,1623,1623,3,0,1610612761
114,1610612761,1628384,1627783,201188,200768,1627832,1610612741,203490,1628374,1628976,203897,203107,0021900031,3,1626,1635,0,0,1610612741
115,1610612761,1628384,1627783,201188,200768,1627832,1610612741,203490,1628374,1628976,203897,203107,0021900031,3,1640,1649,0,0,1610612761
116,1610612761,1628384,1627783,201188,200768,1627832,1610612741,203490,1628374,1628976,203897,203107,0021900031,3,1658,1660,0,0,1610612741
117,1610612761,1628384,1627783,201188,200768,1627832,1610612741,203490,1628374,1628976,203897,203107,0021900031,3,1675,1675,0,0,1610612761
118,1610612761,1628384,1627783,201188,200768,1627832,1610612741,203490,1628374,1628976,203897,203107,0021900031,3,1677,1677,0,0,1610612741
119,1610612761,1628384,1627783,201188,200768,1627832,1610612741,203490,1628374,1628976,203897,203107,0021900031,3,1693,1693,3,0,1610612761
120,1610612761,1628384,1627783,201188,200768,1627832,1610612741,203490,1628374,1628976,203897,203107,0021900031,3,1705,1705,0,0,1610612741
121,1610612761,1628384,1627783,201188,200768,1627832,1610612741,203490,1628374,1628976,203897,203107,0021900031,3,1707,1707,0,0,1610612761
122,1610612761,1628384,1627783,201188,200768,1627832,1610612741,203490,1628374,1628976,203897,203107,0021900031,3,1716,1716,0,2,1610612741
123,1610612761,1628384,1627783,201188,200768,1627832,1610612741,203490,1628374,1628976,203897,203107,0021900031,3,1723,1726,0,0,1610612761
124,1610612761,1628384,1627783,201188,200768,1627832,1610612741,203490,1628374,1628976,203897,203107,0021900031,3,1736,1736,0,2,1610612741
125,1610612761,1628384,1627783,201188,200768,1627832,1610612741,203490,1628374,1628976,203897,203107,0021900031,3,1739,1739,2,0,1610612761
126,1610612761,1628384,1627783,201188,200768,1627832,1610612741,1628374,201152,203107,203490,203897,0021900031,3,1751,1751,0,3,1610612741
127,1610612761,1628384,1627783,201188,200768,1627832,1610612741,1628374,201152,203107,203490,203897,0021900031,3,1777,1777,2,0,1610612761
128,1610612761,1628384,1627783,201188,200768,1627832,1610612741,1628374,201152,203107,203490,203897,0021900031,3,1797,1797,0,3,1610612741
129,1610612761,1628384,1627783,201188,200768,1627832,1610612741,1628374,201152,203107,203490,203897,0021900031,3,1814,1814,3,0,1610612761
130,1610612761,1628384,1627783,201188,200768,1627832,1610612741,1628374,201152,203107,203490,203897,0021900031,3,1817,1828,0,0,1610612741
131,1610612761,1628384,1627783,201188,200768,1627832,1610612741,1627739,1628374,201152,203490,203897,0021900031,3,1839,1839,2,0,1610612761
132,1610612761,1628384,1627783,201188,200768,1627832,1610612741,1627739,1628374,201152,203490,203897,0021900031,3,1854,1854,0,2,1610612741
133,1610612761,1628384,1627783,201188,200768,1627832,1610612741,1627739,1628374,201152,203490,203897,0021900031,3,1876,1880,0,0,1610612761
134,1610612761,1628384,1627783,201188,200768,1627832,1610612741,1627739,1628374,201152,203490,203897,0021900031,3,1885,1896,0,0,1610612741
135,1610612761,1626181,1627783,1627832,1628384,201188,1610612741,1627739,1628374,1629632,201152,203897,0021900031,3,1904,1904,2,0,1610612761
136,1610612761,1626181,1627783,1627832,1628384,201188,1610612741,1627739,1628374,1629632,201152,203897,0021900031,3,1923,1925,0,0,1610612741
137,1610612761,1626181,1627783,1627832,1628384,201188,1610612741,1627739,1628374,1629632,201152,203897,0021900031,3,1934,1934,2,0,1610612761
138,1610612761,1626181,1627783,1627832,1628384,201188,1610612741,1627739,1628374,1629632,201152,203897,0021900031,3,1934,1948,0,0,1610612741
139,1610612761,1626181,1627783,1627832,1628384,201586,1610612741,1627739,1627853,1628436,1629632,201152,0021900031,3,1955,1955,0,0,1610612761
140,1610612761,1626181,1627832,1628384,1629744,201586,1610612741,1627739,1627853,1628436,1629632,201152,0021900031,3,1965,1965,0,0,1610612741
141,1610612761,1626181,1627832,1628384,1629744,201586,1610612741,1627739,1627853,1628436,1629632,201152,0021900031,3,1970,1970,0,0,1610612761
142,1610612761,1626181,1627832,1628384,1629744,201586,1610612741,1627739,1627853,1628436,1629632,201152,0021900031,3,1976,1976,0,3,1610612741
143,1610612761,1626181,1627832,1628384,1629744,201586,1610612741,1627739,1627853,1628436,1629632,201152,0021900031,3,1990,1990,2,0,1610612761
144,1610612761,1626181,1627832,1628384,1629744,201586,1610612741,1627739,1627853,1628436,1629632,201152,0021900031,3,2003,2006,0,0,1610612741
145,1610612761,1626181,1627832,1628384,1629744,201586,1610612741,1627739,1627853,1628436,1629632,201152,0021900031,3,2008,2008,2,0,1610612761
146,1610612761,1626181,1627832,1628384,1629744,201586,1610612741,1627739,1627853,1628436,1629632,201152,0021900031,3,2014,2014,0,0,1610612741
147,1610612761,1626181,1627832,1628384,1629744,201586,1610612741,1627739,1627853,1628436,1629632,201152,0021900031,3,2028,2042,2,0,1610612761
148,1610612761,1626181,1627832,1628384,1629744,201586,1610612741,1627739,1627853,1628436,1629632,201152,0021900031,3,2053,2061,0,1,1610612741
149,1610612761,1626181,1627832,1628384,1629744,201586,1610612741,1627739,1627853,1628436,1629632,201152,0021900031,3,2064,2064,3,0,1610612761
150,1610612761,1626181,1627832,1628384,1629744,201586,1610612741,1627739,1627853,1628436,1629632,201152,0021900031,3,2076,2077,0,0,1610612741
151,1610612761,1626181,1627832,1628384,1629744,201586,1610612741,1627739,1627853,1628436,1629632,201152,0021900031,3,2098,2102,0,0,1610612761
152,1610612761,1626181,1627832,1628384,1629744,201586,1610612741,1627739,1627853,1628436,1629632,201152,0021900031,3,2111,2111,0,0,1610612741
153,1610612761,1626181,1627832,1628384,1629744,201586,1610612741,1627739,1627853,1628436,1629632,201152,0021900031,3,2120,2123,0,0,1610612761
154,1610612761,1626181,1627832,1628384,1629744,201586,1610612741,1627739,1627853,1628436,1629632,201152,0021900031,3,2126,2130,0,0,1610612741
155,1610612761,1626181,1627832,1628384,1629744,201586,1610612741,1627739,1627853,1628436,1629632,201152,0021900031,3,2148,2150,0,0,1610612761
156,1610612761,1626181,1627832,1628384,1629744,201586,1610612741,1627739,1627853,1628436,1629632,201152,0021900031,3,2155,2160,0,0,1610612741
157,1610612761,1627783,200768,1626181,201586,1629744,1610612741,203490,1628374,1628976,203897,203107,0021900031,4,2160,2188,0,2,1610612741
158,1610612761,1627783,200768,1626181,201586,1629744,1610612741,203490,1628374,1628976,203897,203107,0021900031,4,2214,2217,0,0,1610612761
159,1610612761,1627783,200768,1626181,201586,1629744,1610612741,203490,1628374,1628976,203897,203107,0021900031,4,2222,2224,0,0,1610612741
160,1610612761,1627783,200768,1626181,201586,1629744,1610612741,203490,1628374,1628976,203897,203107,0021900031,4,2240,2240,3,0,1610612761
161,1610612761,1627783,200768,1626181,201586,1629744,1610612741,203490,1628374,1628976,203897,203107,0021900031,4,2253,2256,0,0,1610612741
162,1610612761,1627783,200768,1626181,201586,1629744,1610612741,203490,1628374,1628976,203897,203107,0021900031,4,2262,2262,2,0,1610612761
163,1610612761,1627783,200768,1626181,201586,1629744,1610612741,203490,1628374,1628976,203897,203107,0021900031,4,2270,2272,0,2,1610612741
164,1610612761,1627783,200768,1626181,201586,1629744,1610612741,203490,1628374,1628976,203897,203107,0021900031,4,2290,2291,0,0,1610612761
165,1610612761,1627783,200768,1626181,201586,1629744,1610612741,203490,1628374,1628976,203897,203107,0021900031,4,2296,2299,0,0,1610612741
166,1610612761,1627783,200768,1626181,201586,1629744,1610612741,203490,1628374,1628976,203897,203107,0021900031,4,2307,2319,0,0,1610612761
167,1610612761,1627783,200768,1626181,201586,1629744,1610612741,203490,1628374,1628976,203897,203107,0021900031,4,2329,2329,0,3,1610612741
168,1610612761,1627783,200768,1626181,201586,1629744,1610612741,203490,1628374,1628976,203897,203107,0021900031,4,2343,2343,0,0,1610612761
169,1610612761,1627783,200768,1626181,201586,1629744,1610612741,203490,1628374,1628976,203897,203107,0021900031,4,2356,2357,0,2,1610612741
170,1610612761,1627783,200768,1626181,201586,1629744,1610612741,203490,1628374,1628976,203897,203107,0021900031,4,2370,2370,2,0,1610612761
171,1610612761,1627783,200768,1626181,201586,1629744,1610612741,203490,1628374,1628976,203897,203107,0021900031,4,2382,2382,0,1,1610612741
172,1610612761,1627783,200768,1626181,201586,1629744,1610612741,203490,1628374,1628976,203897,203107,0021900031,4,2399,2403,2,0,1610612761
173,1610612761,1627783,200768,1626181,201586,1629744,1610612741,203490,1628374,1628976,203897,203107,0021900031,4,2413,2423,0,0,1610612741
174,1610612761,1627783,200768,1626181,201586,1629744,1610612741,203490,1628374,1628976,203897,203107,0021900031,4,2426,2426,3,0,1610612761
175,1610612761,1627783,200768,1626181,201586,1629744,1610612741,1628374,1628436,203107,203490,203897,0021900031,4,2439,2439,0,2,1610612741
176,1610612761,1627783,200768,1626181,201586,1629744,1610612741,1628374,1628436,203107,203490,203897,0021900031,4,2464,2464,0,0,1610612761
177,1610612761,1627783,200768,1626181,201586,1629744,1610612741,1628374,1628436,203107,203490,203897,0021900031,4,2464,2488,0,0,1610612741
178,1610612761,1627783,200768,1626181,201586,1629744,1610612741,1627739,1627853,1627885,1628436,1629632,0021900031,4,2498,2501,0,0,1610612761
179,1610612761,1627783,200768,1626181,201586,1629744,1610612741,1627739,1627853,1627885,1628436,1629632,0021900031,4,2511,2513,0,0,1610612741
180,1610612761,1627783,200768,1626181,201586,1629744,1610612741,1627739,1627853,1627885,1628436,1629632,0021900031,4,2526,2526,0,0,1610612761
181,1610612761,1627783,200768,1626181,201586,1629744,1610612741,1627739,1627853,1627885,1628436,1629632,0021900031,4,2532,2533,0,0,1610612741
182,1610612761,1627783,200768,1626181,201586,1629744,1610612741,1627739,1627853,1627885,1628436,1629632,0021900031,4,2533,2554,0,0,1610612761
183,1610612761,1626181,1627783,1629056,200768,201586,1610612741,1627739,1627853,1627885,1628436,1629632,0021900031,4,2556,2556,0,2,1610612741
184,1610612761,1626181,1627783,1629056,200768,201586,1610612741,1627739,1627853,1627885,1628436,1629632,0021900031,4,2582,2584,0,0,1610612761
185,1610612761,1626181,1627783,1629056,200768,201586,1610612741,1627739,1627853,1627885,1628436,1629632,0021900031,4,2587,2599,0,0,1610612741
186,1610612761,1626181,1627783,1629056,200768,201586,1610612741,1627739,1627853,1627885,1628436,1629632,0021900031,4,2606,2606,2,0,1610612761
187,1610612761,1626181,1626259,1628449,1629056,201586,1610612741,1627739,1627853,1627885,1628436,1629632,0021900031,4,2606,2618,0,0,1610612741
188,1610612761,1626181,1626259,1628449,1629056,201586,1610612741,1627756,1627853,1627885,1628436,1629632,0021900031,4,2623,2623,2,0,1610612761
189,1610612761,1626181,1626259,1628449,1629056,201586,1610612741,1627756,1627853,1627885,1628436,1629632,0021900031,4,2641,2641,0,2,1610612741
190,1610612761,1626178,1626181,1626259,1628449,1629056,1610612741,1627756,1627853,1627885,1628436,1629632,0021900031,4,2650,2650,0,0,1610612761
191,1610612761,1626178,1626181,1626259,1628449,1629056,1610612741,1627756,1627853,1627885,1628436,1629632,0021900031,4,2666,2666,0,0,1610612741
192,1610612761,1626178,1626181,1626259,1628449,1629056,1610612741,1627756,1627853,1627885,1628436,1629632,0021900031,4,2682,2682,2,0,1610612761
193,1610612761,1626178,1626181,1626259,1628449,1629056,1610612741,1627756,1627853,1627885,1628436,1629632,0021900031,4,2694,2694,0,3,1610612741
194,1610612761,1626178,1626181,1626259,1628449,1629056,1610612741,1627756,1627853,1627885,1628436,1629632,0021900031,4,2709,2715,0,0,1610612761
195,1610612761,1626178,1626181,1626259,1628449,1629056,1610612741,1627756,1627853,1627885,1628436,1629632,0021900031,4,2722,2724,0,0,1610612741
196,1610612761,1626178,1626181,1626259,1628449,1629056,1610612741,1627756,1627853,1627885,1628436,1629632,0021900031,4,2742,2745,0,0,1610612761
197,1610612761,1626178,1626181,1626259,1628449,1629056,1610612741,1627756,1627853,1627885,1628436,1629632,0021900031,4,2753,2753,0,0,1610612741
198,1610612761,1626178,1626181,1626259,1628449,1629056,1610612741,1627756,1627853,1627885,1628436,1629632,0021900031,4,2757,2757,0,0,1610612761
199,1610612761,1626178,1626181,1626259,1628449,1629056,1610612741,1627756,1627853,1627885,1629632,1629655,0021900031,4,2769,2774,0,0,1610612741
200,1610612761,1626178,1626181,1626259,1628449,1629056,1610612741,1627756,1627853,1627885,1629632,1629655,0021900031,4,2778,2778,1,0,1610612761
201,1610612761,1626178,1626181,1626259,1628449,1629056,1610612741,1627739,1627756,1627853,1627885,1629655,0021900031,4,2791,2795,0,0,1610612741
202,1610612761,1626178,1626181,1626259,1628449,1629056,1610612741,1627739,1627756,1627853,1627885,1629655,0021900031,4,2801,2801,3,0,1610612761
203,1610612761,1626178,1626181,1626259,1628449,1629056,1610612741,1627739,1627756,1627853,1627885,1629655,0021900031,4,2811,2817,0,0,1610612741
204,1610612761,1626178,1626181,1626259,1628449,1629056,1610612741,1627739,1627756,1627853,1627885,1629655,0021900031,4,2818,2825,0,0,1610612761
205,1610612761,1626178,1626181,1626259,1628449,1629056,1610612741,1627739,1627756,1627853,1627885,1629655,0021900031,4,2826,2828,0,0,1610612741
206,1610612761,1626178,1626181,1626259,1628449,1629056,1610612741,1627739,1627756,1627853,1627885,1629655,0021900031,4,2845,2845,0,0,1610612761
207,1610612761,1626178,1626181,1626259,1628449,1629056,1610612741,1627739,1627756,1627853,1627885,1629655,0021900031,4,2855,2855,0,1,1610612741
208,1610612761,1626178,1626181,1626259,1628449,1629056,1610612741,1627739,1627756,1627853,1627885,1629655,0021900031,4,2859,2859,2,0,1610612761
209,1610612761,1626178,1626181,1626259,1628449,1629056,1610612741,1627739,1627756,1627853,1627885,1629655,0021900031,4,2873,2873,0,2,1610612741
