,TEAM_ID_1,TEAM_1_PLAYERS,TEAM_ID_2,TEAM_2_PLAYERS,PERIOD
0,1610612753,[ 203082 1630532 1628976  203914 1630591],1610612738,[1628369 1627823 1629057 1627759  203935],1
1,1610612753,[1630532 1630181 1630175 1628964  202734],1610612738,[1628369 1629057  203471 1630202 1630174],2
2,1610612753,[ 203082 1630532 1628976  203914 1630591],1610612738,[1628369 1627823 1629057 1627759  203935],3
3,1610612753,[1630181 1629021 1630175 1628964  202734],1610612738,[ 201143 1626196  203471 1630202 1629684],4
