,team1_id,team1_player1,team1_player2,team1_player3,team1_player4,team1_player5,team2_id,team2_player1,team2_player2,team2_player3,team2_player4,team2_player5,game_id,period,possession_start,possession_end,team1_points,team2_points,possession_team
0,1610612760,1629676,1629647,1629650,1630197,1629026,1610612758,203090,1629002,1626158,1627741,1626153,0022001040,1,0,30,0,0,1610612758
1,1610612760,1629676,1629647,1629650,1630197,1629026,1610612758,203090,1629002,1626158,1627741,1626153,0022001040,1,33,36,0,0,1610612760
2,1610612760,1629676,1629647,1629650,1630197,1629026,1610612758,203090,1629002,1626158,1627741,1626153,0022001040,1,45,45,0,2,1610612758
3,1610612760,1629676,1629647,1629650,1630197,1629026,1610612758,203090,1629002,1626158,1627741,1626153,0022001040,1,61,61,2,0,1610612760
4,1610612760,1629676,1629647,1629650,1630197,1629026,1610612758,203090,1629002,1626158,1627741,1626153,0022001040,1,77,77,0,2,1610612758
5,1610612760,1629676,1629647,1629650,1630197,1629026,1610612758,203090,1629002,1626158,1627741,1626153,0022001040,1,94,97,0,0,1610612760
6,1610612760,1629676,1629647,1629650,1630197,1629026,1610612758,203090,1629002,1626158,1627741,1626153,0022001040,1,114,114,0,2,1610612758
7,1610612760,1629676,1629647,1629650,1630197,1629026,1610612758,203090,1629002,1626158,1627741,1626153,0022001040,1,131,135,0,0,1610612760
8,1610612760,1629676,1629647,1629650,1630197,1629026,1610612758,203090,1629002,1626158,1627741,1626153,0022001040,1,146,146,0,2,1610612758
9,1610612760,1629676,1629647,1629650,1630197,1629026,1610612758,203090,1629002,1626158,1627741,1626153,0022001040,1,160,160,3,0,1610612760
10,1610612760,1629676,1629647,1629650,1630197,1629026,1610612758,203090,1629002,1626158,1627741,1626153,0022001040,1,176,178,0,0,1610612758
11,1610612760,1629676,1629647,1629650,1630197,1629026,1610612758,203090,1629002,1626158,1627741,1626153,0022001040,1,182,182,2,0,1610612760
12,1610612760,1629676,1629647,1629650,1630197,1629026,1610612758,203090,1629002,1626158,1627741,1626153,0022001040,1,190,202,0,0,1610612758
13,1610612760,1629676,1629647,1629650,1630197,1629026,1610612758,203090,1629002,1626158,1627741,1626153,0022001040,1,220,223,0,0,1610612760
14,1610612760,1629676,1629647,1629650,1630197,1629026,1610612758,203090,1629002,1626158,1627741,1626153,0022001040,1,234,234,0,2,1610612758
15,1610612760,1629676,1629647,1629650,1630197,1629026,1610612758,203090,1629002,1626158,1627741,1626153,0022001040,1,247,247,3,0,1610612760
16,1610612760,1629676,1629647,1629650,1630197,1629026,1610612758,203090,1629002,1626158,1627741,1626153,0022001040,1,267,270,0,0,1610612758
17,1610612760,1629676,1629647,1629650,1630197,1629026,1610612758,203090,1629002,1626158,1627741,1626153,0022001040,1,273,273,0,0,1610612760
18,1610612760,1629676,1629647,1629650,1630197,1629026,1610612758,203090,1629002,1626158,1627741,1626153,0022001040,1,281,285,0,0,1610612758
19,1610612760,1629676,1629647,1629650,1630197,1629026,1610612758,203090,1629002,1626158,1627741,1626153,0022001040,1,293,293,2,0,1610612760
20,1610612760,1629676,1629647,1629650,1630197,1629026,1610612758,203090,1629002,1626158,1627741,1626153,0022001040,1,308,311,0,0,1610612758
21,1610612760,1629676,1629647,1629650,1630197,1629026,1610612758,203090,1629002,1626158,1627741,1626153,0022001040,1,314,314,2,0,1610612760
22,1610612760,1629676,1629647,1629650,1630197,1629026,1610612758,1626153,1626158,1627741,1629056,203090,0022001040,1,331,331,0,0,1610612758
23,1610612760,1629676,1629647,1629650,1630197,1629026,1610612758,1626153,1626158,1627741,1629056,203090,0022001040,1,331,345,2,0,1610612760
24,1610612760,1629676,1629647,1629650,1630197,1629026,1610612758,1626153,1626158,1627741,1629056,203090,0022001040,1,355,355,0,0,1610612758
25,1610612760,1629676,1629647,1629650,1630197,1629026,1610612758,1626153,1626158,1627741,1629056,203090,0022001040,1,366,366,3,0,1610612760
26,1610612760,1629676,1629647,1629650,1630197,1629026,1610612758,1626153,1626158,1627741,1629056,203090,0022001040,1,368,380,0,3,1610612758
27,1610612760,1629676,1629647,1629650,1630197,1629026,1610612758,1626153,1626158,1627741,1629056,203090,0022001040,1,400,400,2,0,1610612760
28,1610612760,1629676,1629647,1629650,1630197,1629026,1610612758,1626153,1626158,1627741,1629056,203090,0022001040,1,418,418,0,0,1610612758
29,1610612760,1629676,1629647,1629650,1630197,1629026,1610612758,1626153,1626158,1627741,1629056,203090,0022001040,1,421,421,2,0,1610612760
30,1610612760,1629676,1629647,1629650,1630197,1629026,1610612758,1626153,1626158,1627741,1629056,203090,0022001040,1,432,432,0,2,1610612758
31,1610612760,1629676,1629647,1629650,1630197,1629026,1610612758,1626153,1626158,1627741,1629056,203090,0022001040,1,443,443,0,0,1610612760
32,1610612760,1629676,1629647,1629650,1630197,1629026,1610612758,1626153,1626158,1627741,1629056,203090,0022001040,1,459,459,0,3,1610612758
33,1610612760,1629676,1629647,1629650,1630197,1629026,1610612758,1626153,1626158,1627741,1629056,203090,0022001040,1,485,485,2,0,1610612760
34,1610612760,1629676,1629647,1629650,1630197,1629026,1610612758,1626153,1626158,1627741,1629056,203090,0022001040,1,495,498,0,0,1610612758
35,1610612760,1629676,1629647,1629650,1630197,1629026,1610612758,1626153,1626158,1627741,1629056,203090,0022001040,1,502,502,3,0,1610612760
36,1610612760,1629676,1629647,1629650,1630197,1629026,1610612758,1626153,1626158,1627741,1629056,203090,0022001040,1,514,518,0,0,1610612758
37,1610612760,1629676,1629647,1629650,1630197,1629026,1610612758,1626153,1626158,1627741,1629056,203090,0022001040,1,529,532,0,0,1610612760
38,1610612760,1629676,1629647,1629650,1630197,1629026,1610612758,1626153,1626158,1627741,1629056,203090,0022001040,1,539,543,0,0,1610612758
39,1610612760,1629676,1629647,1629650,1630197,1629026,1610612758,1626153,1626158,1627741,1629056,203090,0022001040,1,544,544,0,0,1610612760
40,1610612760,1629676,1629647,1629650,1630197,1629026,1610612758,1626153,1626158,1627741,1629056,203090,0022001040,1,549,549,0,3,1610612758
41,1610612760,1629676,1629647,1629650,1630197,1629026,1610612758,1626153,1626158,1627741,1629056,203090,0022001040,1,564,564,0,0,1610612760
42,1610612760,1629676,1629647,1629650,1630197,1629026,1610612758,1626153,1626158,1627741,1629056,203090,0022001040,1,569,569,0,2,1610612758
43,1610612760,1628396,1629004,1629647,1629658,1630466,1610612758,1627741,1627745,1629002,1629056,1629713,0022001040,1,590,590,2,0,1610612760
44,1610612760,1628396,1629004,1629647,1629658,1630466,1610612758,1627745,1629002,1629056,1629657,1629713,0022001040,1,602,608,0,0,1610612758
45,1610612760,1628396,1629004,1629647,1629658,1630466,1610612758,1627745,1629002,1629056,1629657,1629713,0022001040,1,612,615,0,0,1610612760
46,1610612760,1628396,1629004,1629647,1629658,1630466,1610612758,1627745,1629002,1629056,1629657,1629713,0022001040,1,622,622,0,2,1610612758
47,1610612760,1628396,1629004,1629647,1629658,1630466,1610612758,1627745,1629002,1629056,1629657,1629713,0022001040,1,644,644,2,0,1610612760
48,1610612760,1628396,1629004,1629647,1629658,1630466,1610612758,1627745,1629002,1629056,1629657,1629713,0022001040,1,658,661,0,0,1610612758
49,1610612760,1628396,1629004,1629647,1629658,1630466,1610612758,1627745,1629002,1629056,1629657,1629713,0022001040,1,670,670,0,0,1610612760
50,1610612760,1628396,1629004,1629647,1629658,1630466,1610612758,1627745,1629002,1629056,1629657,1629713,0022001040,1,673,673,0,2,1610612758
51,1610612760,1628396,1629004,1629658,1629718,1630466,1610612758,1627745,1629002,1629056,1629657,1629713,0022001040,1,698,701,0,0,1610612760
52,1610612760,1628396,1629004,1629658,1629718,1630466,1610612758,1627745,1629002,1629056,1629657,1629713,0022001040,1,714,720,0,0,1610612758
53,1610612760,1629658,1630466,1629004,1628396,1629718,1610612758,203090,1629056,1629713,1627745,1629657,0022001040,2,720,730,0,0,1610612760
54,1610612760,1629658,1630466,1629004,1628396,1629718,1610612758,203090,1629056,1629713,1627745,1629657,0022001040,2,735,749,0,0,1610612758
55,1610612760,1629658,1630466,1629004,1628396,1629718,1610612758,203090,1629056,1629713,1627745,1629657,0022001040,2,765,765,2,0,1610612760
56,1610612760,1629658,1630466,1629004,1628396,1629718,1610612758,203090,1629056,1629713,1627745,1629657,0022001040,2,790,790,0,3,1610612758
57,1610612760,1629658,1630466,1629004,1628396,1629718,1610612758,203090,1629056,1629713,1627745,1629657,0022001040,2,810,810,2,0,1610612760
58,1610612760,1629658,1630466,1629004,1628396,1629718,1610612758,203090,1629056,1629713,1627745,1629657,0022001040,2,810,821,0,0,1610612758
59,1610612760,1629658,1630466,1629004,1628396,1629718,1610612758,203090,1629056,1629713,1627745,1629657,0022001040,2,826,826,2,0,1610612760
60,1610612760,1629658,1630466,1629004,1628396,1629718,1610612758,203090,1629056,1629713,1627745,1629657,0022001040,2,838,852,0,0,1610612758
61,1610612760,1629658,1630466,1629004,1628396,1629718,1610612758,1626153,1627745,1629056,1629713,203090,0022001040,2,857,857,2,0,1610612760
62,1610612760,1629658,1630466,1629004,1628396,1629718,1610612758,1626153,1627745,1629056,1629713,203090,0022001040,2,872,872,0,3,1610612758
63,1610612760,1629658,1630466,1629004,1628396,1629718,1610612758,1626153,1627745,1629056,1629713,203090,0022001040,2,883,883,3,0,1610612760
64,1610612760,1629658,1630466,1629004,1628396,1629718,1610612758,1626153,1627745,1629056,1629713,203090,0022001040,2,900,903,0,0,1610612758
65,1610612760,1629658,1630466,1629004,1628396,1629718,1610612758,1626153,1627745,1629056,1629713,203090,0022001040,2,909,909,2,0,1610612760
66,1610612760,1629658,1630466,1629004,1628396,1629718,1610612758,1626153,1627745,1629056,1629713,203090,0022001040,2,909,924,0,0,1610612758
67,1610612760,1629658,1630466,1629004,1628396,1629718,1610612758,1626153,1626158,1627741,1629002,203090,0022001040,2,932,932,2,0,1610612760
68,1610612760,1629658,1630466,1629004,1628396,1629718,1610612758,1626153,1626158,1627741,1629002,203090,0022001040,2,946,950,0,0,1610612758
69,1610612760,1629658,1630466,1629004,1628396,1629718,1610612758,1626153,1626158,1627741,1629002,203090,0022001040,2,950,950,0,0,1610612760
70,1610612760,1629658,1630466,1629004,1628396,1629718,1610612758,1626153,1626158,1627741,1629002,203090,0022001040,2,955,955,0,3,1610612758
71,1610612760,1629658,1630466,1629004,1628396,1629718,1610612758,1626153,1626158,1627741,1629002,203090,0022001040,2,966,966,2,0,1610612760
72,1610612760,1629658,1630466,1629004,1628396,1629718,1610612758,1626153,1626158,1627741,1629002,203090,0022001040,2,987,987,0,2,1610612758
73,1610612760,1629658,1630466,1629004,1628396,1629718,1610612758,1626153,1626158,1627741,1629002,203090,0022001040,2,1000,1000,2,0,1610612760
74,1610612760,1629658,1630466,1629004,1628396,1629718,1610612758,1626153,1626158,1627741,1629002,203090,0022001040,2,1019,1019,0,2,1610612758
75,1610612760,1629658,1630466,1629004,1628396,1629718,1610612758,1626153,1626158,1627741,1629002,203090,0022001040,2,1038,1043,0,0,1610612760
76,1610612760,1629658,1630466,1629004,1628396,1629718,1610612758,1626153,1626158,1627741,1629002,203090,0022001040,2,1043,1043,0,2,1610612758
77,1610612760,1629658,1630466,1629004,1628396,1629718,1610612758,1626153,1626158,1627741,1629002,203090,0022001040,2,1043,1057,2,0,1610612760
78,1610612760,1629658,1630466,1629004,1628396,1629718,1610612758,1626153,1626158,1627741,1629002,1629056,0022001040,2,1079,1081,0,0,1610612758
79,1610612760,1629658,1630466,1629004,1628396,1629718,1610612758,1626153,1626158,1627741,1629002,1629056,0022001040,2,1087,1087,2,0,1610612760
80,1610612760,1629658,1630466,1629004,1628396,1629718,1610612758,1626153,1626158,1627741,1629002,1629056,0022001040,2,1087,1101,0,2,1610612758
81,1610612760,1629004,1629650,1629676,1629718,1630197,1610612758,1626153,1626158,1627741,1629002,1629056,0022001040,2,1109,1109,0,0,1610612760
82,1610612760,1629004,1629650,1629676,1629718,1630197,1610612758,1626153,1626158,1627741,1629002,1629056,0022001040,2,1119,1123,0,0,1610612758
83,1610612760,1629004,1629650,1629676,1629718,1630197,1610612758,1626153,1626158,1627741,1629002,1629056,0022001040,2,1130,1130,0,0,1610612760
84,1610612760,1629026,1629647,1629650,1629676,1630197,1610612758,1626153,1626158,1627741,1629002,1629056,0022001040,2,1141,1141,0,3,1610612758
85,1610612760,1629026,1629647,1629650,1629676,1630197,1610612758,1626153,1626158,1627741,1629002,1629056,0022001040,2,1159,1159,2,0,1610612760
86,1610612760,1629026,1629647,1629650,1629676,1630197,1610612758,1626153,1626158,1627741,1629002,1629056,0022001040,2,1173,1173,0,2,1610612758
87,1610612760,1629026,1629647,1629650,1629676,1630197,1610612758,1626153,1626158,1627741,1629002,1629056,0022001040,2,1190,1194,0,0,1610612760
88,1610612760,1629026,1629647,1629650,1629676,1630197,1610612758,1626153,1626158,1627741,1629002,1629056,0022001040,2,1197,1197,0,3,1610612758
89,1610612760,1629026,1629647,1629650,1629676,1630197,1610612758,1626153,1626158,1627741,1629002,1629056,0022001040,2,1212,1212,3,0,1610612760
90,1610612760,1629026,1629647,1629650,1629676,1630197,1610612758,1626153,1626158,1627741,1629002,1629056,0022001040,2,1234,1234,0,2,1610612758
91,1610612760,1629026,1629647,1629650,1629676,1630197,1610612758,1626153,1626158,1627741,1629002,1629056,0022001040,2,1247,1250,0,0,1610612760
92,1610612760,1629026,1629647,1629650,1629676,1630197,1610612758,1626153,1626158,1627741,1629056,203090,0022001040,2,1269,1269,0,3,1610612758
93,1610612760,1629026,1629647,1629650,1629676,1630197,1610612758,1626153,1626158,1627741,1629056,203090,0022001040,2,1280,1280,2,0,1610612760
94,1610612760,1629026,1629647,1629650,1629676,1630197,1610612758,1626153,1626158,1627741,1629056,203090,0022001040,2,1296,1298,0,0,1610612758
95,1610612760,1629026,1629647,1629650,1629676,1630197,1610612758,1626153,1626158,1627741,1629056,203090,0022001040,2,1299,1299,0,0,1610612760
96,1610612760,1629026,1629647,1629650,1629676,1630197,1610612758,1626153,1626158,1627741,1629056,203090,0022001040,2,1304,1312,0,2,1610612758
97,1610612760,1629026,1629647,1629650,1629676,1630197,1610612758,1626153,1626158,1627741,1629056,203090,0022001040,2,1324,1324,2,0,1610612760
98,1610612760,1629026,1629647,1629650,1629676,1630197,1610612758,1626153,1626158,1627741,1629056,203090,0022001040,2,1337,1337,0,0,1610612758
99,1610612760,1629026,1629647,1629650,1629676,1630197,1610612758,1626153,1626158,1627741,1629056,203090,0022001040,2,1352,1354,1,0,1610612760
100,1610612760,1629026,1629647,1629650,1629676,1630197,1610612758,1626153,1626158,1629056,1629713,203090,0022001040,2,1369,1372,0,0,1610612758
101,1610612760,1629026,1629647,1629650,1629676,1630197,1610612758,1626153,1626158,1629056,1629713,203090,0022001040,2,1379,1379,0,0,1610612760
102,1610612760,1629026,1629647,1629650,1629676,1630197,1610612758,1626153,1626158,1629056,1629713,203090,0022001040,2,1394,1394,0,2,1610612758
103,1610612760,1629026,1629647,1629650,1629676,1630197,1610612758,1626153,1626158,1629056,1629713,203090,0022001040,2,1409,1412,0,0,1610612760
104,1610612760,1629026,1629647,1629650,1629676,1630197,1610612758,1626153,1626158,1629056,1629713,203090,0022001040,2,1412,1435,0,1,1610612758
105,1610612760,1629676,1629647,1629650,1630197,1629026,1610612758,203090,1629002,1626158,1627741,1626153,0022001040,3,1440,1457,0,0,1610612760
106,1610612760,1629676,1629647,1629650,1630197,1629026,1610612758,203090,1629002,1626158,1627741,1626153,0022001040,3,1463,1463,0,2,1610612758
107,1610612760,1629676,1629647,1629650,1630197,1629026,1610612758,203090,1629002,1626158,1627741,1626153,0022001040,3,1487,1487,2,0,1610612760
108,1610612760,1629676,1629647,1629650,1630197,1629026,1610612758,203090,1629002,1626158,1627741,1626153,0022001040,3,1506,1506,0,2,1610612758
109,1610612760,1629676,1629647,1629650,1630197,1629026,1610612758,203090,1629002,1626158,1627741,1626153,0022001040,3,1517,1522,0,0,1610612760
110,1610612760,1629676,1629647,1629650,1630197,1629026,1610612758,203090,1629002,1626158,1627741,1626153,0022001040,3,1524,1524,0,0,1610612758
111,1610612760,1629676,1629647,1629650,1630197,1629026,1610612758,203090,1629002,1626158,1627741,1626153,0022001040,3,1526,1544,0,0,1610612760
112,1610612760,1629676,1629647,1629650,1630197,1629026,1610612758,203090,1629002,1626158,1627741,1626153,0022001040,3,1558,1562,0,0,1610612758
113,1610612760,1629676,1629647,1629650,1630197,1629026,1610612758,203090,1629002,1626158,1627741,1626153,0022001040,3,1574,1579,0,0,1610612760
114,1610612760,1629676,1629647,1629650,1630197,1629026,1610612758,203090,1629002,1626158,1627741,1626153,0022001040,3,1586,1595,0,2,1610612758
115,1610612760,1629676,1629647,1629650,1630197,1629026,1610612758,203090,1629002,1626158,1627741,1626153,0022001040,3,1595,1612,0,0,1610612760
116,1610612760,1629676,1629647,1629650,1630197,1629026,1610612758,203090,1629002,1626158,1627741,1626153,0022001040,3,1621,1621,0,3,1610612758
117,1610612760,1629676,1629647,1629650,1630197,1629026,1610612758,203090,1629002,1626158,1627741,1626153,0022001040,3,1641,1641,3,0,1610612760
118,1610612760,1629676,1629647,1629650,1630197,1629026,1610612758,203090,1629002,1626158,1627741,1626153,0022001040,3,1665,1665,0,2,1610612758
119,1610612760,1629676,1629647,1629650,1630197,1629026,1610612758,203090,1629002,1626158,1627741,1626153,0022001040,3,1678,1689,0,0,1610612760
120,1610612760,1629676,1629647,1629650,1630197,1629026,1610612758,203090,1629002,1626158,1627741,1626153,0022001040,3,1699,1702,0,0,1610612758
121,1610612760,1629676,1629647,1629650,1630197,1629026,1610612758,203090,1629002,1626158,1627741,1626153,0022001040,3,1702,1718,1,0,1610612760
122,1610612760,1629676,1629647,1629650,1630197,1629026,1610612758,203090,1629002,1626158,1627741,1626153,0022001040,3,1731,1734,0,2,1610612758
123,1610612760,1629676,1629647,1629650,1630197,1629026,1610612758,203090,1629002,1626158,1627741,1626153,0022001040,3,1742,1749,2,0,1610612760
124,1610612760,1629676,1629647,1629650,1630197,1629026,1610612758,203090,1629002,1626158,1627741,1626153,0022001040,3,1758,1758,0,3,1610612758
125,1610612760,1629676,1629647,1629650,1630197,1629026,1610612758,203090,1629002,1626158,1627741,1626153,0022001040,3,1770,1770,0,0,1610612760
126,1610612760,1629676,1629647,1629650,1630197,1629026,1610612758,203090,1629002,1626158,1627741,1626153,0022001040,3,1779,1781,0,1,1610612758
127,1610612760,1629676,1629647,1629650,1630197,1629026,1610612758,203090,1629002,1626158,1627741,1626153,0022001040,3,1790,1794,0,0,1610612760
128,1610612760,1629676,1629647,1629650,1630197,1629026,1610612758,203090,1629002,1626158,1627741,1626153,0022001040,3,1794,1794,0,0,1610612758
129,1610612760,1629676,1629647,1629650,1630197,1629026,1610612758,203090,1629002,1626158,1627741,1626153,0022001040,3,1802,1802,2,0,1610612760
130,1610612760,1629676,1629647,1629650,1630197,1629026,1610612758,203090,1629002,1626158,1627741,1626153,0022001040,3,1818,1818,0,2,1610612758
131,1610612760,1629676,1629647,1629650,1630197,1629026,1610612758,203090,1629002,1626158,1627741,1626153,0022001040,3,1831,1844,1,0,1610612760
132,1610612760,1629676,1629647,1629650,1630197,1629026,1610612758,1626153,1626158,1627741,1629056,203090,0022001040,3,1857,1857,0,2,1610612758
133,1610612760,1629676,1629647,1629650,1630197,1629026,1610612758,1626153,1626158,1627741,1629056,203090,0022001040,3,1876,1885,1,0,1610612760
134,1610612760,1628396,1629026,1629647,1630197,1630466,1610612758,1626153,1626158,1627741,1629056,203090,0022001040,3,1902,1902,0,3,1610612758
135,1610612760,1628396,1629026,1629647,1630197,1630466,1610612758,1626153,1626158,1627741,1629056,203090,0022001040,3,1917,1920,0,0,1610612760
136,1610612760,1628396,1629026,1629647,1630197,1630466,1610612758,1626153,1626158,1627741,1629056,203090,0022001040,3,1932,1932,0,3,1610612758
137,1610612760,1628396,1629026,1629647,1630197,1630466,1610612758,1626153,1626158,1627741,1629056,203090,0022001040,3,1934,1942,2,0,1610612760
138,1610612760,1628396,1629026,1629647,1630197,1630466,1610612758,1626153,1627745,1629002,1629056,1629713,0022001040,3,1958,1958,0,3,1610612758
139,1610612760,1628396,1629026,1629647,1630197,1630466,1610612758,1626153,1627745,1629002,1629056,1629713,0022001040,3,1976,1979,0,0,1610612760
140,1610612760,1628396,1629026,1629647,1630197,1630466,1610612758,1626153,1627745,1629002,1629056,1629713,0022001040,3,1994,1994,0,3,1610612758
141,1610612760,1628396,1629026,1629647,1630197,1630466,1610612758,1626153,1627745,1629002,1629056,1629713,0022001040,3,2012,2012,0,0,1610612760
142,1610612760,1628396,1629026,1629647,1630197,1630466,1610612758,1626153,1627745,1629002,1629056,1629713,0022001040,3,2015,2019,0,2,1610612758
143,1610612760,1628396,1629026,1629647,1630197,1630466,1610612758,1626153,1627745,1629002,1629056,1629713,0022001040,3,2032,2032,2,0,1610612760
144,1610612760,1628396,1629026,1629647,1630197,1630466,1610612758,1626153,1627745,1629002,1629056,1629713,0022001040,3,2049,2052,0,0,1610612758
145,1610612760,1628396,1629026,1629647,1630197,1630466,1610612758,1626153,1627745,1629002,1629056,1629713,0022001040,3,2054,2054,0,0,1610612760
146,1610612760,1628396,1629004,1629658,1629718,1630466,1610612758,1626153,1627745,1629002,1629056,1629713,0022001040,3,2076,2076,0,3,1610612758
147,1610612760,1628396,1629004,1629658,1629718,1630466,1610612758,1626153,1627745,1629002,1629056,1629713,0022001040,3,2101,2103,0,0,1610612760
148,1610612760,1628396,1629004,1629658,1629718,1630466,1610612758,1626153,1627745,1629002,1629056,1629713,0022001040,3,2113,2126,0,0,1610612758
149,1610612760,1628396,1629004,1629658,1629718,1630466,1610612758,1626153,1627745,1629002,1629056,1629713,0022001040,3,2138,2138,2,0,1610612760
150,1610612760,1628396,1629004,1629658,1629718,1630466,1610612758,1626153,1627745,1629002,1629056,1629713,0022001040,3,2154,2159,0,3,1610612758
151,1610612760,1629647,1630466,1629004,1628396,1629718,1610612758,203090,1627741,1629056,1627745,1629663,0022001040,4,2160,2173,0,0,1610612758
152,1610612760,1629647,1630466,1629004,1628396,1629718,1610612758,203090,1627741,1629056,1627745,1629663,0022001040,4,2177,2182,0,0,1610612760
153,1610612760,1629647,1630466,1629004,1628396,1629718,1610612758,203090,1627741,1629056,1627745,1629663,0022001040,4,2193,2197,0,0,1610612758
154,1610612760,1629647,1630466,1629004,1628396,1629718,1610612758,203090,1627741,1629056,1627745,1629663,0022001040,4,2202,2202,3,0,1610612760
155,1610612760,1629647,1630466,1629004,1628396,1629718,1610612758,203090,1627741,1629056,1627745,1629663,0022001040,4,2226,2229,0,0,1610612758
156,1610612760,1629647,1630466,1629004,1628396,1629718,1610612758,203090,1627741,1629056,1627745,1629663,0022001040,4,2231,2238,0,0,1610612760
157,1610612760,1629647,1630466,1629004,1628396,1629718,1610612758,203090,1627741,1629056,1627745,1629663,0022001040,4,2254,2254,0,2,1610612758
158,1610612760,1629647,1630466,1629004,1628396,1629718,1610612758,203090,1627741,1629056,1627745,1629663,0022001040,4,2271,2274,0,0,1610612760
159,1610612760,1629647,1630466,1629004,1628396,1629718,1610612758,203090,1627741,1629056,1627745,1629663,0022001040,4,2282,2282,0,2,1610612758
160,1610612760,1629647,1630466,1629004,1628396,1629718,1610612758,203090,1627741,1629056,1627745,1629663,0022001040,4,2304,2308,0,0,1610612760
161,1610612760,1629647,1630466,1629004,1628396,1629718,1610612758,203090,1627741,1629056,1627745,1629663,0022001040,4,2324,2324,0,3,1610612758
162,1610612760,1629647,1630466,1629004,1628396,1629718,1610612758,203090,1627741,1629056,1627745,1629663,0022001040,4,2336,2345,0,0,1610612760
163,1610612760,1629004,1629026,1629647,1629658,1630466,1610612758,203090,1627741,1629056,1627745,1629663,0022001040,4,2354,2358,0,1,1610612758
164,1610612760,1629004,1629026,1629647,1629658,1630466,1610612758,203090,1627741,1629056,1627745,1629663,0022001040,4,2370,2370,2,0,1610612760
165,1610612760,1629004,1629026,1629647,1629658,1630466,1610612758,203090,1627741,1629056,1627745,1629663,0022001040,4,2393,2398,0,2,1610612758
166,1610612760,1629004,1629026,1629647,1629658,1630466,1610612758,203090,1627741,1629056,1627745,1629663,0022001040,4,2415,2419,0,0,1610612760
167,1610612760,1629004,1629026,1629647,1629658,1630466,1610612758,203090,1627741,1629056,1627745,1629663,0022001040,4,2429,2429,0,0,1610612758
168,1610612760,1629004,1629026,1629647,1629658,1630466,1610612758,203090,1627741,1629056,1627745,1629663,0022001040,4,2432,2434,0,0,1610612760
169,1610612760,1629004,1629026,1629647,1629658,1630466,1610612758,203090,1627741,1629056,1627745,1629663,0022001040,4,2451,2451,0,0,1610612758
170,1610612760,1629004,1629026,1629647,1629658,1630466,1610612758,203090,1627741,1629056,1627745,1629663,0022001040,4,2469,2469,2,0,1610612760
171,1610612760,1629004,1629026,1629647,1629658,1630466,1610612758,203090,1627741,1629056,1627745,1629663,0022001040,4,2469,2490,0,0,1610612758
172,1610612760,1629004,1629026,1629647,1629658,1630197,1610612758,1626153,1627745,1629056,1629663,203090,0022001040,4,2490,2505,0,0,1610612760
173,1610612760,1629004,1629026,1629647,1629658,1630197,1610612758,1626153,1627745,1629056,1629663,203090,0022001040,4,2518,2518,0,2,1610612758
174,1610612760,1629004,1629026,1629647,1629658,1630197,1610612758,1626153,1627745,1629056,1629663,203090,0022001040,4,2533,2536,0,0,1610612760
175,1610612760,1629004,1629026,1629647,1629658,1630197,1610612758,1626153,1627745,1629056,1629663,203090,0022001040,4,2549,2549,0,0,1610612758
176,1610612760,1629004,1629026,1629647,1629658,1630197,1610612758,1626153,1627745,1629002,1629056,1629663,0022001040,4,2562,2562,0,0,1610612760
177,1610612760,1629004,1629026,1629647,1629658,1630197,1610612758,1626153,1627745,1629002,1629056,1629663,0022001040,4,2572,2572,0,3,1610612758
178,1610612760,1629004,1629026,1629647,1629658,1630197,1610612758,1626153,1627745,1629002,1629056,1629663,0022001040,4,2573,2583,2,0,1610612760
179,1610612760,1629004,1629026,1629647,1629650,1630197,1610612758,1627745,1629002,1629657,1629663,1630186,0022001040,4,2594,2594,0,0,1610612758
180,1610612760,1629004,1629026,1629647,1629650,1630197,1610612758,1627745,1629002,1629657,1629663,1630186,0022001040,4,2597,2597,2,0,1610612760
181,1610612760,1629004,1629026,1629647,1629650,1630197,1610612758,1627745,1629002,1629657,1629663,1630186,0022001040,4,2615,2618,0,0,1610612758
182,1610612760,1629004,1629026,1629647,1629650,1630197,1610612758,1627745,1629002,1629657,1629663,1630186,0022001040,4,2638,2638,3,0,1610612760
183,1610612760,1629004,1629026,1629647,1629650,1630197,1610612758,1627745,1629002,1629657,1629663,1630186,0022001040,4,2653,2660,0,0,1610612758
184,1610612760,1629004,1629026,1629647,1629650,1630197,1610612758,1627745,1629002,1629657,1629663,1630186,0022001040,4,2661,2661,2,0,1610612760
185,1610612760,1629004,1629026,1629647,1629650,1630197,1610612758,1627745,1629002,1629657,1629663,1630186,0022001040,4,2661,2676,0,0,1610612758
186,1610612760,1629004,1629026,1629650,1629676,1630197,1610612758,1627745,1629002,1629657,1629663,1630186,0022001040,4,2684,2684,2,0,1610612760
187,1610612760,1629004,1629026,1629650,1629676,1630197,1610612758,1627745,1629002,1629657,1629663,1630186,0022001040,4,2707,2707,0,0,1610612758
188,1610612760,1629004,1629026,1629650,1629676,1630197,1610612758,1627745,1629002,1629663,1629713,1630186,0022001040,4,2720,2724,0,0,1610612760
189,1610612760,1629004,1629026,1629650,1629676,1630197,1610612758,1627745,1629002,1629663,1629713,1630186,0022001040,4,2738,2742,0,0,1610612758
190,1610612760,1629004,1629026,1629650,1629676,1630197,1610612758,1627745,1629002,1629663,1629713,1630186,0022001040,4,2742,2742,0,0,1610612760
191,1610612760,1629004,1629026,1629650,1629676,1630197,1610612758,1627745,1629002,1629056,1629713,203090,0022001040,4,2758,2758,0,0,1610612758
192,1610612760,1629004,1629026,1629650,1629676,1630197,1610612758,1627745,1629002,1629056,1629713,203090,0022001040,4,2760,2760,0,0,1610612760
193,1610612760,1629004,1629026,1629650,1629676,1630197,1610612758,1627745,1629002,1629056,1629713,203090,0022001040,4,2776,2779,0,0,1610612758
194,1610612760,1629004,1629026,1629650,1629676,1630197,1610612758,1627745,1629002,1629056,1629713,203090,0022001040,4,2787,2800,1,0,1610612760
195,1610612760,1629004,1629026,1629650,1629676,1630197,1610612758,1627745,1629002,1629056,1629663,1629713,0022001040,4,2815,2820,0,0,1610612758
196,1610612760,1629004,1629026,1629650,1629676,1630197,1610612758,1627745,1629002,1629056,1629663,1629713,0022001040,4,2820,2820,2,0,1610612760
197,1610612760,1629004,1629650,1629676,1629718,1630197,1610612758,1627745,1629002,1629056,1629663,1629713,0022001040,4,2826,2826,0,0,1610612758
198,1610612760,1629004,1629650,1629676,1629718,1630197,1610612758,1627745,1629002,1629056,1629663,1629713,0022001040,4,2827,2827,2,0,1610612760
199,1610612760,1629004,1629650,1629676,1629718,1630197,1610612758,1627745,1629002,1629056,1629663,1629713,0022001040,4,2831,2831,0,2,1610612758
200,1610612760,1629004,1629650,1629676,1629718,1630197,1610612758,1627745,1629002,1629056,1629663,1629713,0022001040,4,2836,2840,0,0,1610612760
201,1610612760,1629004,1629650,1629676,1629718,1630197,1610612758,1627745,1629002,1629056,1629663,1629713,0022001040,4,2852,2859,0,2,1610612758
202,1610612760,1629004,1629650,1629676,1629718,1630197,1610612758,1627745,1629002,1629056,1629663,1629713,0022001040,4,2871,2871,0,0,1610612760
