,stint_start,t2_players,t2_pm,t1_points_scored,t1_pm,t1_id,t2_id,t2_points_scored,stint_end,t1_players,margin_per_100,num_poss
0,0,"[203484, 1628398, 1629655, 203078, 203915]",0,11,0,1610612766,1610612764,11,325,"[202330, 1628970, 203486, 1626179, 1630163]",0.0,22.0
1,326,"[203484, 1628398, 1629655, 203078, 203915]",0,16,0,1610612766,1610612764,16,413,"[202330, 1628970, 203486, 1626179, 1630163]",0.0,28.0
2,414,"[1628398, 1629655, 203078, 203484, 203526]",2,18,-2,1610612766,1610612764,20,475,"[1626179, 1628970, 1628998, 1630163, 203486]",-6.25,32.0
3,476,"[1626149, 1628398, 1630166, 203078, 203526]",1,21,-1,1610612766,1610612764,22,516,"[1626162, 1626179, 1628998, 1630163, 1630208]",-2.941176470588235,34.0
4,517,"[1626149, 1630166, 1630557, 203078, 203526]",-1,23,1,1610612766,1610612764,22,549,"[1626162, 1626179, 1628998, 1630163, 1630208]",2.7027027027027026,37.0
5,550,"[1626149, 1630166, 1630557, 203078, 203526]",1,26,-1,1610612766,1610612764,27,658,"[1626162, 1628970, 1628998, 1630163, 1630208]",-2.2222222222222223,45.0
6,659,"[1626149, 1628988, 1630166, 1630557, 203915]",1,26,-1,1610612766,1610612764,27,716,"[1626162, 1628970, 1628998, 1630163, 1630208]",-2.083333333333333,48.0
7,717,"[1626149, 1628988, 1630166, 1630557, 203915]",-1,34,1,1610612766,1610612764,33,894,"[1626162, 1628970, 1630163, 1630208, 202330]",1.6129032258064515,62.0
8,895,"[203915, 1626149, 1630166, 1630557, 1628988]",-1,34,1,1610612766,1610612764,33,915,"[202330, 1628970, 1626179, 1626162, 1629667]",1.5873015873015872,63.0
9,916,"[203915, 1626149, 1630166, 1630557, 1628988]",1,34,-1,1610612766,1610612764,35,946,"[1626162, 1626179, 1629667, 202330, 203486]",-1.5384615384615385,65.0
10,947,"[1626149, 1628988, 1630166, 203078, 203526]",1,34,-1,1610612766,1610612764,35,958,"[1626162, 1626179, 1629667, 202330, 203486]",-1.5151515151515151,66.0
11,959,"[1626149, 1628988, 1630166, 203078, 203526]",1,36,-1,1610612766,1610612764,37,1030,"[1626162, 1626179, 1628998, 1629667, 203486]",-1.3888888888888888,72.0
12,1031,"[1626149, 1628398, 1630166, 203078, 203526]",4,38,-4,1610612766,1610612764,42,1087,"[1626162, 1626179, 1628998, 1629667, 203486]",-5.194805194805195,77.0
13,1088,"[1628398, 1629655, 1630166, 203078, 203484]",2,45,-2,1610612766,1610612764,47,1265,"[1626162, 1628970, 1628998, 1630163, 203486]",-2.247191011235955,89.0
14,1266,"[1628398, 1629655, 203078, 203484, 203526]",0,47,0,1610612766,1610612764,47,1287,"[1628970, 1628998, 1630163, 202330, 203486]",0.0,90.0
15,1288,"[1628398, 1629655, 203078, 203484, 203915]",-9,59,9,1610612766,1610612764,50,1438,"[1626179, 1628970, 1630163, 202330, 203486]",8.737864077669903,103.0
16,1439,"[1628398, 1629655, 203078, 203484, 203915]",-9,59,9,1610612766,1610612764,50,1439,"[1626179, 1628970, 1628998, 1630163, 202330]",8.653846153846153,104.0
17,1440,"[1628398, 1629655, 203078, 203484, 203915]",-13,73,13,1610612766,1610612764,60,1772,"[1628970, 1628998, 1629667, 1630163, 202330]",10.317460317460316,126.0
18,1773,"[203484, 1628398, 1629655, 203078, 203915]",-15,77,15,1610612766,1610612764,62,1851,"[202330, 1628970, 203486, 1626179, 1630163]",11.450381679389313,131.0
19,1852,"[1626149, 1628398, 203078, 203484, 203526]",-15,77,15,1610612766,1610612764,62,1870,"[1626179, 1628970, 1628998, 1630163, 1630208]",11.278195488721805,133.0
20,1871,"[1626149, 1628398, 1630166, 203078, 203526]",-13,77,13,1610612766,1610612764,64,1926,"[1626179, 1628970, 1628998, 1630163, 1630208]",9.420289855072465,138.0
21,1927,"[1626149, 1630166, 1630557, 203078, 203526]",-13,77,13,1610612766,1610612764,64,1935,"[1626162, 1626179, 1628998, 1630163, 1630208]",9.352517985611511,139.0
22,1936,"[1626149, 1630166, 1630557, 203078, 203526]",-13,81,13,1610612766,1610612764,68,2027,"[1626162, 1628998, 1630163, 1630208, 202330]",8.96551724137931,145.0
23,2028,"[1626149, 1628988, 1630166, 1630557, 203078]",-11,81,11,1610612766,1610612764,70,2089,"[1626162, 1628998, 1630163, 1630208, 202330]",7.38255033557047,149.0
24,2090,"[1626149, 1628988, 1630166, 1630557, 203078]",-10,83,10,1610612766,1610612764,73,2157,"[1626162, 1628970, 1628998, 1630163, 202330]",6.493506493506493,154.0
25,2158,"[1626149, 1628988, 1630166, 1630557, 203078]",-15,90,15,1610612766,1610612764,75,2313,"[1626162, 1626179, 1628970, 1628998, 202330]",9.202453987730062,163.0
26,2314,"[203915, 1626149, 1630166, 1630557, 1628988]",-7,90,7,1610612766,1610612764,83,2362,"[202330, 1628970, 1626179, 1626162, 1629667]",4.166666666666666,168.0
27,2363,"[1626149, 1628988, 1630557, 203078, 203915]",-8,91,8,1610612766,1610612764,83,2415,"[202330, 1628970, 1626179, 1626162, 1629667]",4.678362573099415,171.0
28,2416,"[1628988, 1629655, 1630557, 203078, 203915]",-9,93,9,1610612766,1610612764,84,2478,"[1626162, 1628970, 1628998, 1630163, 203486]",5.142857142857142,175.0
29,2479,"[1628398, 1628988, 1629655, 203078, 203484]",-11,97,11,1610612766,1610612764,86,2540,"[1626162, 1628970, 1628998, 1630163, 203486]",6.145251396648044,179.0
30,2541,"[1626149, 1628398, 1628988, 203078, 203484]",-5,108,5,1610612766,1610612764,103,2876,"[1626162, 1628970, 1628998, 1630163, 203486]",2.450980392156863,204.0
31,2877,"[1626149, 1628398, 203078, 203484, 203915]",-6,109,6,1610612766,1610612764,103,9999999,"[1626179, 1628970, 1628998, 1630163, 202330]",2.9268292682926833,205.0
