,TEAM_ID_1,TEAM_1_PLAYERS,TEAM_ID_2,TEAM_2_PLAYERS,PERIOD
0,1610612755,[ 201980  202699  203118  203552 1627732],1610612747,[1628398  202693  201188  203484  203471],1
1,1610612755,[1627732 1629003 1629680 1627788 1630194],1610612747,[ 202693  203471 1626149 1627936 1629659],2
2,1610612755,[ 201980  202699  203118  203552 1627732],1610612747,[1628398  202693  201188  203484  203471],3
3,1610612755,[ 202699 1629003 1629680 1627788 1630194],1610612747,[1628398  203471 1626149 1629659 1628035],4
