,TEAM_ID_1,TEAM_1_PLAYERS,TEAM_ID_2,TEAM_2_PLAYERS,PERIOD
0,1610612742,[ 203501  204001  203939 1626196 1628973],1610612765,[1630180 1629635 1630191 1628367 1630165],1
1,1610612742,[ 203939 1628973 1628467 1630182  200755],1610612765,[1628402 1628977 1626143 1630240 1629076],2
2,1610612742,[ 203501  204001  203939 1626196 1628973],1610612765,[1630180 1629635 1630191 1628367 1630165],3
3,1610612742,[ 203939 1628973 1628467 1630182  200755],1610612765,[1629635 1628402 1628977 1626143 1630240],4
