,t1_points_scored,stint_end,t2_pm,t1_players,t2_id,t1_id,t2_players,t2_points_scored,t1_pm,stint_start,margin_per_100,num_poss
0,10,225,2,"[1628970, 1629023, 203469, 1628984, 1626179]",1610612737,1610612766,"[1629631, 1628381, 203473, 1628989, 1629027]",12,-2,0,-14.285714285714285,14.0
1,17,425,3,"[1628970, 1629023, 203469, 1628984, 1626179]",1610612737,1610612766,"[1629631, 1628381, 203473, 1628989, 1629027]",20,-3,226,-11.11111111111111,27.0
2,27,566,0,"[1626179, 1628970, 1628984, 1629667, 203469]",1610612737,1610612766,"[1629631, 1628381, 203473, 1628989, 1629027]",27,0,426,0.0,36.0
3,29,631,-2,"[1626179, 1628970, 1628998, 1629667, 202687]",1610612737,1610612766,"[1628381, 1628989, 1629027, 1629629, 1629631]",27,2,567,5.0,40.0
4,32,718,0,"[1628984, 1628998, 1629023, 1629667, 202687]",1610612737,1610612766,"[1626203, 1629629, 1713, 201952, 203473]",32,0,632,0.0,45.0
5,45,990,0,"[1628984, 1628997, 1628998, 1629667, 202687]",1610612737,1610612766,"[1626203, 1629629, 1713, 201952, 203473]",45,0,719,0.0,61.0
6,52,1093,-2,"[1628970, 1628984, 202687, 1628998, 1628997]",1610612737,1610612766,"[1628989, 1629629, 201952, 1713, 1628981]",50,2,991,2.9850746268656714,67.0
7,55,1160,-2,"[1626179, 1628970, 1628997, 1629667, 202687]",1610612737,1610612766,"[1628381, 1628989, 1629027, 1629631, 1713]",53,2,1094,2.8169014084507045,71.0
8,55,1196,1,"[1626179, 1628970, 1628997, 1629667, 203469]",1610612737,1610612766,"[1628381, 1628989, 1629027, 1629631, 1713]",56,-1,1161,-1.3513513513513513,74.0
9,58,1358,5,"[1626179, 1628997, 1628998, 1629667, 203469]",1610612737,1610612766,"[1628381, 1628989, 1629027, 1629631, 203473]",63,-5,1197,-6.024096385542169,83.0
10,58,1386,6,"[1626179, 1628984, 1628998, 1629667, 203469]",1610612737,1610612766,"[1628381, 1629027, 1629629, 1629631, 203473]",64,-6,1359,-7.0588235294117645,85.0
11,58,1409,8,"[1626179, 1628984, 1628998, 1629667, 203469]",1610612737,1610612766,"[1626203, 1628381, 1629027, 1629629, 1629631]",66,-8,1387,-9.090909090909092,88.0
12,60,1431,6,"[1626179, 1628984, 1628997, 1629667, 203469]",1610612737,1610612766,"[1626203, 1628381, 1629027, 1629629, 1629631]",66,-6,1410,-6.741573033707865,89.0
13,60,1437,6,"[1626179, 1628970, 1628984, 1628997, 1629667]",1610612737,1610612766,"[1628381, 1628989, 1629027, 1629629, 1713]",66,-6,1432,-6.666666666666667,90.0
14,71,1687,6,"[1626179, 1628970, 1628984, 1628997, 1629667]",1610612737,1610612766,"[1626203, 1628381, 1628989, 1629027, 1629629]",77,-6,1438,-5.714285714285714,105.0
15,73,1706,4,"[1628970, 1629023, 203469, 1628984, 1626179]",1610612737,1610612766,"[1629631, 1628381, 203473, 1628989, 1629027]",77,-4,1688,-3.7735849056603774,106.0
16,75,1815,6,"[1626179, 1628970, 1628984, 1629667, 202687]",1610612737,1610612766,"[1629631, 1628381, 203473, 1628989, 1629027]",81,-6,1707,-5.3097345132743365,113.0
17,79,1867,4,"[1626179, 1628970, 1628984, 1629667, 202687]",1610612737,1610612766,"[1628381, 1628989, 1629027, 1629629, 1629631]",83,-4,1816,-3.418803418803419,117.0
18,83,1938,3,"[1628984, 1628997, 1628998, 1629667, 202687]",1610612737,1610612766,"[1626203, 1628381, 1629027, 1629629, 1629631]",86,-3,1868,-2.4390243902439024,123.0
19,87,2054,4,"[1626179, 1628997, 1628998, 1629667, 202687]",1610612737,1610612766,"[1626203, 1628381, 1629027, 1629629, 1713]",91,-4,1939,-3.076923076923077,130.0
20,92,2136,4,"[1626179, 1628997, 1628998, 1629667, 202687]",1610612737,1610612766,"[1626203, 1629629, 1713, 201952, 203473]",96,-4,2055,-2.9629629629629632,135.0
21,94,2159,4,"[1626179, 1628998, 1629023, 1629667, 202687]",1610612737,1610612766,"[1626203, 1629629, 1713, 201952, 203473]",98,-4,2137,-2.9197080291970803,137.0
22,94,2227,4,"[1626179, 1628997, 1628998, 1629667, 202687]",1610612737,1610612766,"[1629027, 1629629, 1713, 201952, 203473]",98,-4,2160,-2.8368794326241136,141.0
23,96,2350,4,"[1629023, 203469, 1626179, 1628998, 1628997]",1610612737,1610612766,"[1628381, 203473, 1628989, 1629629, 201952]",100,-4,2228,-2.7027027027027026,148.0
24,96,2374,4,"[1628984, 1628997, 1628998, 1629023, 203469]",1610612737,1610612766,"[1628381, 203473, 1628989, 1629629, 201952]",100,-4,2351,-2.666666666666667,150.0
25,96,2411,7,"[1628984, 1628997, 1629023, 1629667, 203469]",1610612737,1610612766,"[1628381, 1628989, 1629631, 201952, 203473]",103,-7,2375,-4.57516339869281,153.0
26,99,2502,6,"[1628984, 1628997, 1629023, 1629667, 203469]",1610612737,1610612766,"[1628381, 1628989, 1629027, 1629631, 203473]",105,-6,2412,-3.821656050955414,157.0
27,101,2516,4,"[1628984, 1628997, 1629023, 1629667, 203469]",1610612737,1610612766,"[1626203, 1628381, 1628989, 1629027, 1629631]",105,-4,2503,-2.5316455696202533,158.0
28,106,2614,6,"[1628970, 1628984, 1628997, 1629667, 203469]",1610612737,1610612766,"[1626203, 1628381, 1628989, 1629027, 1629631]",112,-6,2517,-3.6585365853658534,164.0
29,109,2659,6,"[1628970, 1628984, 1628997, 1629667, 202687]",1610612737,1610612766,"[1626203, 1628989, 1629027, 1629629, 203473]",115,-6,2615,-3.614457831325301,166.0
30,120,2859,-1,"[1626179, 1628970, 1628984, 1628997, 202687]",1610612737,1610612766,"[1628381, 1628989, 1629027, 1629629, 203473]",119,1,2660,0.5617977528089888,178.0
31,120,2874,1,"[1626179, 1628984, 1628997, 1628998, 202687]",1610612737,1610612766,"[1628381, 1628989, 1629027, 1629629, 1629631]",121,-1,2860,-0.5586592178770949,179.0
32,122,2879,0,"[1626179, 1628984, 1628997, 1628998, 202687]",1610612737,1610612766,"[1626203, 1628381, 1628989, 1629629, 1629631]",122,0,2875,0.0,181.0
33,131,3176,0,"[1626179, 1628970, 1628984, 1628997, 203469]",1610612737,1610612766,"[1628381, 1628989, 1629027, 1629629, 1629631]",131,0,2880,0.0,197.0
34,131,3178,0,"[1628984, 1626179, 202687, 1628998, 1628997]",1610612737,1610612766,"[1629631, 1628381, 1628989, 1629027, 1629629]",131,0,3177,0.0,198.0
35,135,3315,1,"[1626179, 1628984, 1628997, 1628998, 203469]",1610612737,1610612766,"[1626203, 1628381, 1628989, 1629629, 1629631]",136,-1,3179,-0.4878048780487805,205.0
36,135,3446,1,"[1628984, 1626179, 202687, 1628998, 1628997]",1610612737,1610612766,"[1628381, 1628989, 1629027, 1629629, 1626203]",136,-1,3316,-0.47393364928909953,211.0
37,138,3455,0,"[1628984, 1626179, 202687, 1628998, 1628997]",1610612737,1610612766,"[1628381, 1628989, 1629027, 1629629, 1629631]",138,0,3447,0.0,213.0
38,138,3466,0,"[1628984, 1626179, 202687, 1628998, 1628997]",1610612737,1610612766,"[1626203, 1628381, 1628989, 1629629, 1629631]",138,0,3456,0.0,213.0
39,138,3476,3,"[1626179, 1628984, 1629023, 202687, 203469]",1610612737,1610612766,"[1628381, 1628989, 1629027, 1629629, 1629631]",141,-3,3467,-1.3953488372093024,215.0
40,138,9999999,5,"[1626179, 1628984, 1629023, 1629667, 203469]",1610612737,1610612766,"[1626203, 1628381, 1628989, 1629027, 1629629]",143,-5,3477,-2.314814814814815,216.0
