,team1_id,team1_player1,team1_player2,team1_player3,team1_player4,team1_player5,team2_id,team2_player1,team2_player2,team2_player3,team2_player4,team2_player5,game_id,period,possession_start,possession_end,team1_points,team2_points,possession_team
0,1610612764,1628972,1629060,1628418,203078,202738,1610612756,1626162,203967,1626163,1626164,201937,0021900263,1,0,20,2,0,1610612764
1,1610612764,1628972,1629060,1628418,203078,202738,1610612756,1626162,203967,1626163,1626164,201937,0021900263,1,39,42,0,0,1610612756
2,1610612764,1628972,1629060,1628418,203078,202738,1610612756,1626162,203967,1626163,1626164,201937,0021900263,1,51,51,2,0,1610612764
3,1610612764,1628972,1629060,1628418,203078,202738,1610612756,1626162,203967,1626163,1626164,201937,0021900263,1,64,78,0,0,1610612756
4,1610612764,1628972,1629060,1628418,203078,202738,1610612756,1626162,203967,1626163,1626164,201937,0021900263,1,85,89,0,0,1610612764
5,1610612764,1628972,1629060,1628418,203078,202738,1610612756,1626162,203967,1626163,1626164,201937,0021900263,1,93,97,0,0,1610612756
6,1610612764,1628972,1629060,1628418,203078,202738,1610612756,1626162,203967,1626163,1626164,201937,0021900263,1,103,105,0,0,1610612764
7,1610612764,1628972,1629060,1628418,203078,202738,1610612756,1626162,203967,1626163,1626164,201937,0021900263,1,111,111,0,1,1610612756
8,1610612764,1628972,1629060,1628418,203078,202738,1610612756,1626162,203967,1626163,1626164,201937,0021900263,1,132,132,2,0,1610612764
9,1610612764,1628972,1629060,1628418,203078,202738,1610612756,1626162,203967,1626163,1626164,201937,0021900263,1,143,143,0,2,1610612756
10,1610612764,1628972,1629060,1628418,203078,202738,1610612756,1626162,203967,1626163,1626164,201937,0021900263,1,149,163,2,0,1610612764
11,1610612764,1628972,1629060,1628418,203078,202738,1610612756,1626162,203967,1626163,1626164,201937,0021900263,1,176,179,0,0,1610612756
12,1610612764,1628972,1629060,1628418,203078,202738,1610612756,1626162,203967,1626163,1626164,201937,0021900263,1,181,183,0,0,1610612764
13,1610612764,1628972,1629060,1628418,203078,202738,1610612756,1626162,203967,1626163,1626164,201937,0021900263,1,187,187,0,3,1610612756
14,1610612764,1628972,1629060,1628418,203078,202738,1610612756,1626162,203967,1626163,1626164,201937,0021900263,1,201,201,3,0,1610612764
15,1610612764,1628972,1629060,1628418,203078,202738,1610612756,1626162,203967,1626163,1626164,201937,0021900263,1,209,209,0,3,1610612756
16,1610612764,1628972,1629060,1628418,203078,202738,1610612756,1626162,203967,1626163,1626164,201937,0021900263,1,227,227,2,0,1610612764
17,1610612764,1628972,1629060,1628418,203078,202738,1610612756,1626162,203967,1626163,1626164,201937,0021900263,1,236,236,0,2,1610612756
18,1610612764,1628972,1629060,1628418,203078,202738,1610612756,1626162,203967,1626163,1626164,201937,0021900263,1,245,245,0,0,1610612764
19,1610612764,1628972,1629021,1629060,202738,203078,1610612756,1626162,203967,1626163,1626164,201937,0021900263,1,253,253,0,0,1610612756
20,1610612764,1628972,1629021,1629060,202738,203078,1610612756,1626162,203967,1626163,1626164,201937,0021900263,1,268,268,2,0,1610612764
21,1610612764,1628972,1629021,1629060,202738,203078,1610612756,1626162,203967,1626163,1626164,201937,0021900263,1,268,279,0,2,1610612756
22,1610612764,1628972,1629021,1629060,202738,203078,1610612756,1626163,1626164,1629661,201937,203967,0021900263,1,296,307,0,0,1610612764
23,1610612764,1628972,1629021,1629060,202738,203078,1610612756,1626163,1626164,1629661,201937,203967,0021900263,1,321,321,0,2,1610612756
24,1610612764,1628972,1629021,1629060,202738,203078,1610612756,1626163,1626164,1629661,201937,203967,0021900263,1,331,331,0,0,1610612764
25,1610612764,1628972,1629021,1629060,202738,203078,1610612756,1626163,1626164,1629661,201937,203967,0021900263,1,344,347,0,0,1610612756
26,1610612764,1629021,1629060,202738,203078,203895,1610612756,1626163,1626164,1629661,201937,203967,0021900263,1,366,367,0,0,1610612764
27,1610612764,1629021,1629060,202738,203078,203895,1610612756,1626163,1626164,1629661,201937,203967,0021900263,1,376,385,0,0,1610612756
28,1610612764,1629021,1629060,202738,203078,203895,1610612756,1626163,1626164,1629661,201937,203967,0021900263,1,397,397,3,0,1610612764
29,1610612764,1629021,1629060,202738,203078,203895,1610612756,1626163,1626164,1629661,201937,203967,0021900263,1,408,408,0,2,1610612756
30,1610612764,1629021,1629060,202738,203078,203895,1610612756,1626164,1627767,1629661,201937,203967,0021900263,1,426,427,0,0,1610612764
31,1610612764,1629021,1629060,202738,203078,203895,1610612756,1626164,1627767,1629661,201937,203967,0021900263,1,432,441,0,2,1610612756
32,1610612764,1629021,1629060,202738,203078,203895,1610612756,1626164,1627767,1629661,201937,203967,0021900263,1,454,454,0,0,1610612764
33,1610612764,1629021,202397,202722,203078,203895,1610612756,1626164,1627767,1629059,1629661,203967,0021900263,1,468,468,0,2,1610612756
34,1610612764,1629021,202397,202722,203078,203895,1610612756,1626164,1627767,1629059,1629661,203967,0021900263,1,479,479,2,0,1610612764
35,1610612764,1629021,202397,202722,203078,203895,1610612756,1626164,1627767,1629059,1629661,203967,0021900263,1,499,499,0,2,1610612756
36,1610612764,1629021,202397,202722,203078,203895,1610612756,1626164,1627767,1629059,1629661,203967,0021900263,1,499,517,3,0,1610612764
37,1610612764,1629021,202397,202722,203078,203895,1610612756,1626164,1627767,1629059,1629661,203967,0021900263,1,532,532,0,2,1610612756
38,1610612764,1629021,202397,202722,203078,203895,1610612756,1626164,1627767,1628969,1629059,1629661,0021900263,1,544,544,3,0,1610612764
39,1610612764,1629021,202397,202722,203078,203895,1610612756,1626164,1627767,1628969,1629059,1629661,0021900263,1,559,563,0,0,1610612756
40,1610612764,1629021,202397,202722,203078,203895,1610612756,1626164,1627767,1628969,1629059,1629661,0021900263,1,570,570,2,0,1610612764
41,1610612764,1629021,202397,202722,203078,203895,1610612756,1626164,1627767,1628969,1629059,1629661,0021900263,1,580,580,0,2,1610612756
42,1610612764,1629021,202397,202722,203078,203895,1610612756,1626164,1627767,1628969,1629059,1629661,0021900263,1,592,592,3,0,1610612764
43,1610612764,1629021,202397,202722,203078,203895,1610612756,1626164,1627767,1628969,1629059,1629661,0021900263,1,610,610,0,3,1610612756
44,1610612764,1629021,202397,202722,203078,203895,1610612756,1626164,1627767,1628969,1629059,1629661,0021900263,1,620,622,0,0,1610612764
45,1610612764,1629021,202397,202722,203078,203895,1610612756,1626164,1627767,1628969,1629059,1629661,0021900263,1,627,627,0,0,1610612756
46,1610612764,1629021,202397,202722,203078,203895,1610612756,1626164,1627767,1628969,1629059,1629661,0021900263,1,634,638,0,0,1610612764
47,1610612764,1629021,202397,202722,203078,203895,1610612756,1626164,1627767,1628969,1629059,1629661,0021900263,1,643,643,0,2,1610612756
48,1610612764,1629021,202397,202722,203078,203895,1610612756,1626164,1627767,1628969,1629059,1629661,0021900263,1,662,662,2,0,1610612764
49,1610612764,1629021,202397,202722,203078,203895,1610612756,1626164,1627767,1628969,1629059,1629661,0021900263,1,678,678,0,2,1610612756
50,1610612764,1629021,202397,202722,203078,203895,1610612756,1626164,1627767,1628969,1629059,1629661,0021900263,1,682,690,3,0,1610612764
51,1610612764,1629021,202397,202722,203078,203895,1610612756,1627767,1628969,1629059,1629661,204020,0021900263,1,706,706,0,0,1610612756
52,1610612764,1629021,203895,202722,202397,1629067,1610612756,1626162,1629661,1627767,1629059,204020,0021900263,2,720,737,0,0,1610612756
53,1610612764,1629021,203895,202722,202397,1629067,1610612756,1626162,1629661,1627767,1629059,204020,0021900263,2,751,751,0,0,1610612764
54,1610612764,1629021,203895,202722,202397,1629067,1610612756,1626162,1629661,1627767,1629059,204020,0021900263,2,759,759,0,2,1610612756
55,1610612764,1629021,203895,202722,202397,1629067,1610612756,1626162,1629661,1627767,1629059,204020,0021900263,2,772,772,2,0,1610612764
56,1610612764,1629021,203895,202722,202397,1629067,1610612756,1626162,1629661,1627767,1629059,204020,0021900263,2,789,789,0,3,1610612756
57,1610612764,1629021,203895,202722,202397,1629067,1610612756,1626162,1629661,1627767,1629059,204020,0021900263,2,801,801,2,0,1610612764
58,1610612764,1629021,203895,202722,202397,1629067,1610612756,1626162,1629661,1627767,1629059,204020,0021900263,2,818,822,0,0,1610612756
59,1610612764,1629021,203895,202722,202397,1629067,1610612756,1626162,1629661,1627767,1629059,204020,0021900263,2,822,822,2,0,1610612764
60,1610612764,1629021,203895,202722,202397,1629067,1610612756,1626162,1627767,1628969,1629059,204020,0021900263,2,835,835,0,3,1610612756
61,1610612764,1629021,203895,202722,202397,1629067,1610612756,1626162,1627767,1628969,1629059,204020,0021900263,2,848,848,0,0,1610612764
62,1610612764,1629021,203895,202722,202397,1629067,1610612756,1626162,1627767,1628969,1629059,204020,0021900263,2,864,867,0,0,1610612756
63,1610612764,1629021,203895,202722,202397,1629067,1610612756,1626162,1627767,1628969,1629059,204020,0021900263,2,872,876,0,0,1610612764
64,1610612764,1629021,203895,202722,202397,1629067,1610612756,1626162,1627767,1628969,1629059,204020,0021900263,2,881,885,0,2,1610612756
65,1610612764,1629021,203895,202722,202397,1629067,1610612756,1626162,1627767,1628969,1629059,204020,0021900263,2,908,908,3,0,1610612764
66,1610612764,1629021,203895,202722,202397,1629067,1610612756,1626162,1627767,1628969,1629059,204020,0021900263,2,934,934,0,2,1610612756
67,1610612764,1629021,203895,202722,202397,1629067,1610612756,1626162,1627767,1628969,1629059,204020,0021900263,2,943,943,2,0,1610612764
68,1610612764,1629021,203895,202722,202397,1629067,1610612756,1626162,1627767,1628969,1629059,204020,0021900263,2,959,959,0,3,1610612756
69,1610612764,1629021,203895,202722,202397,1629067,1610612756,1626162,1627767,1628969,1629059,204020,0021900263,2,978,978,3,0,1610612764
70,1610612764,1629021,203895,202722,202397,1629067,1610612756,1626162,1627767,1628969,1629059,204020,0021900263,2,978,996,0,0,1610612756
71,1610612764,1628418,202397,202722,203078,203895,1610612756,1626162,1626163,1628969,1629059,204020,0021900263,2,1000,1000,2,0,1610612764
72,1610612764,1628418,202397,202722,203078,203895,1610612756,1626162,1626163,1628969,201937,204020,0021900263,2,1008,1008,0,0,1610612756
73,1610612764,1628418,202397,202722,203078,203895,1610612756,1626162,1626163,1628969,201937,204020,0021900263,2,1026,1044,2,0,1610612764
74,1610612764,1628418,1629060,202397,202722,203078,1610612756,1626163,1626164,201937,203967,204020,0021900263,2,1051,1051,0,0,1610612756
75,1610612764,1628418,1629060,202397,202722,203078,1610612756,1626163,1626164,201937,203967,204020,0021900263,2,1057,1071,3,0,1610612764
76,1610612764,1628418,1629060,202397,202722,203078,1610612756,1626163,1626164,201937,203967,204020,0021900263,2,1087,1087,0,2,1610612756
77,1610612764,1628418,1629060,202397,202722,203078,1610612756,1626163,1626164,1628969,201937,203967,0021900263,2,1096,1098,3,0,1610612764
78,1610612764,1628418,1629060,202397,202722,203078,1610612756,1626163,1626164,1628969,201937,203967,0021900263,2,1116,1116,0,2,1610612756
79,1610612764,1628418,1629060,202397,202722,203078,1610612756,1626163,1626164,1628969,201937,203967,0021900263,2,1125,1125,3,0,1610612764
80,1610612764,1628418,1629060,202397,202722,203078,1610612756,1626163,1626164,1628969,201937,203967,0021900263,2,1138,1138,0,2,1610612756
81,1610612764,1628418,1629060,202397,202722,203078,1610612756,1626163,1626164,1628969,201937,203967,0021900263,2,1149,1160,2,0,1610612764
82,1610612764,1628418,1629060,202397,202738,203078,1610612756,1626163,1626164,1628969,201937,203967,0021900263,2,1174,1178,0,2,1610612756
83,1610612764,1628418,1629060,202397,202738,203078,1610612756,1626163,1626164,1628969,201937,203967,0021900263,2,1186,1190,0,0,1610612764
84,1610612764,1628418,1629060,202397,202738,203078,1610612756,1626163,1626164,1628969,201937,203967,0021900263,2,1197,1197,0,0,1610612756
85,1610612764,1628418,1629060,202397,202738,203078,1610612756,1626163,1626164,1628969,201937,203967,0021900263,2,1208,1208,0,0,1610612764
86,1610612764,1628418,1629060,202397,202738,203078,1610612756,1626163,1626164,1628969,201937,203967,0021900263,2,1216,1216,0,0,1610612756
87,1610612764,1628418,1629060,202397,202738,203078,1610612756,1626163,1626164,1629059,1629661,203967,0021900263,2,1235,1235,2,0,1610612764
88,1610612764,1628418,1629060,202397,202738,203078,1610612756,1626163,1626164,1629059,1629661,203967,0021900263,2,1246,1246,0,2,1610612756
89,1610612764,1628418,1629060,202397,202738,203078,1610612756,1626163,1626164,1629059,1629661,203967,0021900263,2,1258,1260,0,0,1610612764
90,1610612764,1628418,1629060,202397,202738,203078,1610612756,1626163,1626164,1629059,1629661,203967,0021900263,2,1265,1265,0,3,1610612756
91,1610612764,1628418,1629060,202397,202738,203078,1610612756,1626163,1626164,1629059,1629661,203967,0021900263,2,1273,1273,2,0,1610612764
92,1610612764,1628418,1629060,202397,202738,203078,1610612756,1626163,1626164,1629059,1629661,203967,0021900263,2,1287,1287,0,2,1610612756
93,1610612764,1628418,1629060,202397,202738,203078,1610612756,1626163,1626164,1629059,1629661,203967,0021900263,2,1307,1307,3,0,1610612764
94,1610612764,1628418,1629060,202397,202738,203078,1610612756,1626163,1626164,1629059,1629661,203967,0021900263,2,1325,1325,0,2,1610612756
95,1610612764,1628418,1629060,202397,202738,203078,1610612756,1626163,1626164,1629059,1629661,203967,0021900263,2,1347,1349,0,0,1610612764
96,1610612764,1628418,1629060,202397,202738,203078,1610612756,1626163,1626164,1629059,1629661,203967,0021900263,2,1363,1365,0,0,1610612756
97,1610612764,1628418,1629060,202397,202738,203078,1610612756,1626163,1626164,1629059,1629661,203967,0021900263,2,1368,1373,0,0,1610612764
98,1610612764,1628418,1629060,202738,203078,203895,1610612756,1626164,1627767,1629059,1629661,203967,0021900263,2,1388,1388,0,3,1610612756
99,1610612764,1628418,1629060,202738,203078,203895,1610612756,1626164,1627767,1629059,1629661,203967,0021900263,2,1408,1418,2,0,1610612764
100,1610612764,1628418,1629060,202738,203078,203895,1610612756,1626164,1627767,1629059,1629661,203967,0021900263,2,1440,1440,0,0,1610612756
101,1610612764,1628972,1629060,1628418,203078,202738,1610612756,1626162,203967,1626163,1626164,201937,0021900263,3,1440,1450,0,0,1610612756
102,1610612764,1628972,1629060,1628418,203078,202738,1610612756,1626162,203967,1626163,1626164,201937,0021900263,3,1465,1465,3,0,1610612764
103,1610612764,1628972,1629060,1628418,203078,202738,1610612756,1626162,203967,1626163,1626164,201937,0021900263,3,1479,1479,0,2,1610612756
104,1610612764,1628972,1629060,1628418,203078,202738,1610612756,1626162,203967,1626163,1626164,201937,0021900263,3,1495,1495,3,0,1610612764
105,1610612764,1628972,1629060,1628418,203078,202738,1610612756,1626162,203967,1626163,1626164,201937,0021900263,3,1507,1510,0,0,1610612756
106,1610612764,1628972,1629060,1628418,203078,202738,1610612756,1626162,203967,1626163,1626164,201937,0021900263,3,1516,1516,2,0,1610612764
107,1610612764,1628972,1629060,1628418,203078,202738,1610612756,1626162,203967,1626163,1626164,201937,0021900263,3,1525,1525,0,0,1610612756
108,1610612764,1628972,1629060,1628418,203078,202738,1610612756,1626162,203967,1626163,1626164,201937,0021900263,3,1533,1533,2,0,1610612764
109,1610612764,1628972,1629060,1628418,203078,202738,1610612756,1626162,203967,1626163,1626164,201937,0021900263,3,1533,1549,0,0,1610612756
110,1610612764,1628972,1629060,1628418,203078,202738,1610612756,1626162,203967,1626163,1626164,201937,0021900263,3,1561,1561,3,0,1610612764
111,1610612764,1628972,1629060,1628418,203078,202738,1610612756,1626162,203967,1626163,1626164,201937,0021900263,3,1577,1580,0,0,1610612756
112,1610612764,1628972,1629060,1628418,203078,202738,1610612756,1626162,203967,1626163,1626164,201937,0021900263,3,1591,1598,0,0,1610612764
113,1610612764,1628972,1629060,1628418,203078,202738,1610612756,1626162,1626164,1627767,201937,203967,0021900263,3,1603,1603,0,0,1610612756
114,1610612764,1628972,1629060,1628418,203078,202738,1610612756,1626162,1626164,1627767,201937,203967,0021900263,3,1608,1608,3,0,1610612764
115,1610612764,1628972,1629060,1628418,203078,202738,1610612756,1626162,1626164,1627767,201937,203967,0021900263,3,1626,1626,0,3,1610612756
116,1610612764,1628972,1629060,1628418,203078,202738,1610612756,1626162,1626164,1627767,201937,203967,0021900263,3,1644,1647,0,0,1610612764
117,1610612764,1628972,1629060,1628418,203078,202738,1610612756,1626162,1626164,1627767,201937,203967,0021900263,3,1654,1656,0,0,1610612756
118,1610612764,1628972,1629060,1628418,203078,202738,1610612756,1626162,1626164,1627767,201937,203967,0021900263,3,1662,1662,2,0,1610612764
119,1610612764,1628972,1629060,1628418,203078,202738,1610612756,1626162,1626164,1627767,201937,203967,0021900263,3,1672,1676,0,0,1610612756
120,1610612764,1628972,1629060,1628418,203078,202738,1610612756,1626162,1626164,1627767,201937,203967,0021900263,3,1690,1690,2,0,1610612764
121,1610612764,1628972,1629060,1628418,203078,202738,1610612756,1626164,1627767,1629661,201937,203967,0021900263,3,1709,1709,0,0,1610612756
122,1610612764,1628972,1629060,1628418,203078,202738,1610612756,1626164,1627767,1629661,201937,203967,0021900263,3,1710,1712,1,0,1610612764
123,1610612764,1628972,1629060,1628418,203078,202738,1610612756,1626164,1627767,1629661,201937,203967,0021900263,3,1729,1733,0,2,1610612756
124,1610612764,1628972,1629060,1628418,203078,202738,1610612756,1626164,1627767,1629661,201937,203967,0021900263,3,1754,1757,0,0,1610612764
125,1610612764,1628972,1629060,1628418,203078,202738,1610612756,1626164,1627767,1629661,201937,203967,0021900263,3,1761,1762,0,2,1610612756
126,1610612764,1628972,1629060,1628418,203078,202738,1610612756,1626164,1627767,1629661,201937,203967,0021900263,3,1768,1772,0,0,1610612764
127,1610612764,1628972,1629060,1628418,203078,202738,1610612756,1626164,1627767,1629661,201937,203967,0021900263,3,1776,1776,0,2,1610612756
128,1610612764,1628972,1629060,1628418,203078,202738,1610612756,1626164,1627767,1629661,201937,203967,0021900263,3,1776,1798,2,0,1610612764
129,1610612764,1628972,1629060,1628418,203078,202738,1610612756,1626164,1627767,1629661,201937,203967,0021900263,3,1809,1809,0,2,1610612756
130,1610612764,1628972,1629060,1628418,203078,202738,1610612756,1626164,1627767,1629661,201937,203967,0021900263,3,1830,1832,0,0,1610612764
131,1610612764,1628972,1629060,1628418,203078,202738,1610612756,1626164,1627767,1629661,201937,203967,0021900263,3,1846,1846,0,3,1610612756
132,1610612764,1628972,1629060,1628418,203078,202738,1610612756,1626164,1627767,1629661,201937,203967,0021900263,3,1847,1858,2,0,1610612764
133,1610612764,1628972,1629060,1628418,203078,202738,1610612756,1626164,1627767,1629661,201937,203967,0021900263,3,1874,1883,0,0,1610612756
134,1610612764,1628972,1629060,1628418,203078,202738,1610612756,1626164,1627767,1629661,201937,203967,0021900263,3,1894,1897,0,0,1610612764
135,1610612764,1628972,1629060,1628418,203078,202738,1610612756,1626164,1627767,1629661,201937,203967,0021900263,3,1902,1905,0,0,1610612756
136,1610612764,1628972,1629060,1628418,203078,202738,1610612756,1626164,1627767,1629661,201937,203967,0021900263,3,1924,1927,0,0,1610612764
137,1610612764,1628972,1629060,1628418,203078,202738,1610612756,1626164,1627767,1629661,201937,203967,0021900263,3,1932,1942,0,2,1610612756
138,1610612764,1628418,1629060,202397,202722,203078,1610612756,1626164,1627767,1629059,1629661,203967,0021900263,3,1964,1964,2,0,1610612764
139,1610612764,1628418,1629060,202397,202722,203078,1610612756,1626164,1627767,1629059,1629661,203967,0021900263,3,1986,1986,0,0,1610612756
140,1610612764,1628418,1629060,202397,202722,203078,1610612756,1626164,1627767,1629059,1629661,203967,0021900263,3,1990,1993,0,0,1610612764
141,1610612764,1628418,1629060,202397,202722,203078,1610612756,1626164,1627767,1629059,1629661,203967,0021900263,3,1998,2003,0,0,1610612756
142,1610612764,1628418,1629060,202397,202722,203078,1610612756,1626164,1627767,1629059,1629661,203967,0021900263,3,2013,2013,0,0,1610612764
143,1610612764,1628418,1629060,202397,202722,203078,1610612756,1626164,1627767,1629059,1629661,203967,0021900263,3,2017,2017,0,2,1610612756
144,1610612764,1628418,1629060,202397,202722,203078,1610612756,1626164,1627767,1629059,1629661,203967,0021900263,3,2023,2026,0,0,1610612764
145,1610612764,1628418,1629060,202397,202722,203078,1610612756,1626164,1627767,1629059,1629661,203967,0021900263,3,2035,2035,0,3,1610612756
146,1610612764,1628418,1629060,202397,202722,203078,1610612756,1626164,1627767,1629059,1629661,203967,0021900263,3,2062,2062,3,0,1610612764
147,1610612764,1628418,1629060,202397,202722,203078,1610612756,1626164,1627767,1629059,1629661,203967,0021900263,3,2085,2087,0,0,1610612756
148,1610612764,1628418,1629060,202397,202722,203078,1610612756,1626164,1627767,1629059,1629661,203967,0021900263,3,2104,2104,2,0,1610612764
149,1610612764,1628418,1629060,202397,202722,203078,1610612756,1626164,1627767,1629059,1629661,203967,0021900263,3,2127,2127,0,3,1610612756
150,1610612764,1628418,1629060,202397,202722,203078,1610612756,1626164,1627767,1629059,1629661,203967,0021900263,3,2150,2155,2,0,1610612764
151,1610612764,1628418,1629060,202397,202722,203078,1610612756,1626164,1627767,1629059,1629661,203967,0021900263,3,2160,2160,0,0,1610612764
152,1610612764,1629060,1629021,203895,202722,202397,1610612756,1629661,1627767,1629059,1628969,204020,0021900263,4,2160,2175,0,0,1610612764
153,1610612764,1629060,1629021,203895,202722,202397,1610612756,1629661,1627767,1629059,1628969,204020,0021900263,4,2180,2186,0,2,1610612756
154,1610612764,1629060,1629021,203895,202722,202397,1610612756,1629661,1627767,1629059,1628969,204020,0021900263,4,2198,2198,2,0,1610612764
155,1610612764,1629060,1629021,203895,202722,202397,1610612756,1629661,1627767,1629059,1628969,204020,0021900263,4,2213,2216,0,0,1610612756
156,1610612764,1629060,1629021,203895,202722,202397,1610612756,1629661,1627767,1629059,1628969,204020,0021900263,4,2220,2220,3,0,1610612764
157,1610612764,1629060,1629021,203895,202722,202397,1610612756,1629661,1627767,1629059,1628969,204020,0021900263,4,2231,2231,0,2,1610612756
158,1610612764,1629060,1629021,203895,202722,202397,1610612756,1629661,1627767,1629059,1628969,204020,0021900263,4,2249,2252,0,0,1610612764
159,1610612764,1629060,1629021,203895,202722,202397,1610612756,1629661,1627767,1629059,1628969,204020,0021900263,4,2262,2262,0,3,1610612756
160,1610612764,1629060,1629021,203895,202722,202397,1610612756,1629661,1627767,1629059,1628969,204020,0021900263,4,2285,2285,0,0,1610612764
161,1610612764,1629060,1629021,203895,202722,202397,1610612756,1629661,1627767,1629059,1628969,204020,0021900263,4,2295,2295,0,2,1610612756
162,1610612764,1629060,1629021,203895,202722,202397,1610612756,1629661,1627767,1629059,1628969,204020,0021900263,4,2295,2310,3,0,1610612764
163,1610612764,1629060,1629021,203895,202722,202397,1610612756,1629661,1627767,1629059,1628969,204020,0021900263,4,2328,2330,0,0,1610612756
164,1610612764,1629060,1629021,203895,202722,202397,1610612756,1629661,1627767,1629059,1628969,204020,0021900263,4,2336,2336,2,0,1610612764
165,1610612764,1629060,1629021,203895,202722,202397,1610612756,1629661,1627767,1629059,1628969,204020,0021900263,4,2348,2348,0,2,1610612756
166,1610612764,1629060,1629021,203895,202722,202397,1610612756,1626162,1629059,1629661,203967,204020,0021900263,4,2367,2367,0,0,1610612764
167,1610612764,1629060,1629021,203895,202722,202397,1610612756,1626162,1629059,1629661,203967,204020,0021900263,4,2371,2371,0,3,1610612756
168,1610612764,1629060,1629021,203895,202722,202397,1610612756,1626162,1629059,1629661,203967,204020,0021900263,4,2391,2395,0,0,1610612764
169,1610612764,1629060,1629021,203895,202722,202397,1610612756,1626162,1629059,1629661,203967,204020,0021900263,4,2400,2400,0,0,1610612756
170,1610612764,1629021,202397,202722,203078,203895,1610612756,1626162,1629059,1629661,203967,204020,0021900263,4,2409,2409,2,0,1610612764
171,1610612764,1629021,202397,202722,203078,203895,1610612756,1626162,1626164,1629661,203967,204020,0021900263,4,2418,2418,0,1,1610612756
172,1610612764,1629021,202397,202722,203078,203895,1610612756,1626162,1626164,1629661,203967,204020,0021900263,4,2423,2437,0,0,1610612764
173,1610612764,1629021,202397,202722,203078,203895,1610612756,1626162,1626164,1629661,203967,204020,0021900263,4,2441,2441,0,3,1610612756
174,1610612764,1629021,202397,202722,203078,203895,1610612756,1626162,1626164,1629661,203967,204020,0021900263,4,2466,2466,2,0,1610612764
175,1610612764,1629021,202397,202722,203078,203895,1610612756,1626162,1626164,1629661,203967,204020,0021900263,4,2475,2478,0,0,1610612756
176,1610612764,1629021,202397,202722,203078,203895,1610612756,1626162,1626164,1629661,203967,204020,0021900263,4,2484,2484,2,0,1610612764
177,1610612764,1629021,202397,202722,203078,203895,1610612756,1626162,1626164,1629661,203967,204020,0021900263,4,2492,2498,0,0,1610612756
178,1610612764,1629021,202397,202722,203078,203895,1610612756,1626162,1626164,1629661,203967,204020,0021900263,4,2508,2511,0,0,1610612764
179,1610612764,1629021,202397,202722,203078,203895,1610612756,1626162,1626164,1629661,203967,204020,0021900263,4,2519,2520,0,1,1610612756
180,1610612764,1628418,202397,202722,203078,203895,1610612756,1626162,1626164,201937,203967,204020,0021900263,4,2520,2532,0,0,1610612764
181,1610612764,1628418,202397,202722,203078,203895,1610612756,1626162,1626164,201937,203967,204020,0021900263,4,2542,2547,0,0,1610612756
182,1610612764,1628418,202397,202722,203078,203895,1610612756,1626162,1626164,201937,203967,204020,0021900263,4,2552,2554,0,0,1610612764
183,1610612764,1628418,202397,202722,203078,203895,1610612756,1626162,1626164,201937,203967,204020,0021900263,4,2556,2556,0,2,1610612756
184,1610612764,1628418,202722,202738,203078,203895,1610612756,1626162,1626164,201937,203967,204020,0021900263,4,2575,2580,0,0,1610612764
185,1610612764,1628418,202722,202738,203078,203895,1610612756,1626162,1626164,201937,203967,204020,0021900263,4,2580,2599,0,0,1610612756
186,1610612764,1628418,202722,202738,203078,203895,1610612756,1626164,1629661,201937,203967,204020,0021900263,4,2615,2615,0,0,1610612764
187,1610612764,1628418,202722,202738,203078,203895,1610612756,1626164,1629661,201937,203967,204020,0021900263,4,2629,2629,0,0,1610612756
188,1610612764,1628418,202722,202738,203078,203895,1610612756,1626164,1629661,201937,203967,204020,0021900263,4,2640,2644,0,0,1610612764
189,1610612764,1628418,202722,202738,203078,203895,1610612756,1626164,1629661,201937,203967,204020,0021900263,4,2651,2651,0,2,1610612756
190,1610612764,1628418,202722,202738,203078,203895,1610612756,1626164,1629661,201937,203967,204020,0021900263,4,2675,2676,0,0,1610612764
191,1610612764,1628418,202722,202738,203078,203895,1610612756,1626164,1629661,201937,203967,204020,0021900263,4,2676,2692,0,2,1610612756
192,1610612764,1628418,202722,202738,203078,203895,1610612756,1626164,1629661,201937,203967,204020,0021900263,4,2711,2711,2,0,1610612764
193,1610612764,1628418,202722,202738,203078,203895,1610612756,1626164,1629661,201937,203967,204020,0021900263,4,2724,2724,0,0,1610612756
194,1610612764,1628418,202722,202738,203078,203895,1610612756,1626164,1629661,201937,203967,204020,0021900263,4,2744,2744,3,0,1610612764
195,1610612764,1628418,202722,202738,203078,203895,1610612756,1626164,1629661,201937,203967,204020,0021900263,4,2753,2753,0,2,1610612756
196,1610612764,1628418,202722,202738,203078,203895,1610612756,1626164,1629661,201937,203967,204020,0021900263,4,2768,2768,3,0,1610612764
197,1610612764,1628418,202722,202738,203078,203895,1610612756,1626164,1629661,201937,203967,204020,0021900263,4,2776,2784,0,0,1610612756
198,1610612764,1628418,202722,202738,203078,203895,1610612756,1626164,1629661,201937,203967,204020,0021900263,4,2784,2784,2,0,1610612764
199,1610612764,1628418,202722,202738,203078,203895,1610612756,1626164,1629661,201937,203967,204020,0021900263,4,2784,2795,0,3,1610612756
200,1610612764,1628418,202722,202738,203078,203895,1610612756,1626164,1629661,201937,203967,204020,0021900263,4,2808,2808,0,0,1610612764
201,1610612764,1628418,202722,202738,203078,203895,1610612756,1626164,1629661,201937,203967,204020,0021900263,4,2815,2815,0,2,1610612756
202,1610612764,1628418,202722,202738,203078,203895,1610612756,1626164,1629661,201937,203967,204020,0021900263,4,2815,2815,0,0,1610612764
203,1610612764,1628418,202722,202738,203078,203895,1610612756,1626164,1629661,201937,203967,204020,0021900263,4,2825,2828,0,0,1610612756
204,1610612764,1628418,202722,202738,203078,203895,1610612756,1626164,1629661,201937,203967,204020,0021900263,4,2831,2831,2,0,1610612764
205,1610612764,1628418,202722,202738,203078,203895,1610612756,1626164,1629661,201937,203967,204020,0021900263,4,2836,2836,0,3,1610612756
206,1610612764,1628418,202722,202738,203078,203895,1610612756,1626164,1629661,201937,203967,204020,0021900263,4,2837,2845,2,0,1610612764
207,1610612764,1628418,1629060,202722,203078,203895,1610612756,1626164,1629661,201937,203967,204020,0021900263,4,2849,2852,0,0,1610612756
208,1610612764,1628418,1629060,202722,203078,203895,1610612756,1626164,1629661,201937,203967,204020,0021900263,4,2852,2852,2,0,1610612764
209,1610612764,1628418,1629060,202722,203078,203895,1610612756,1626164,1629661,201937,203967,204020,0021900263,4,2852,2855,0,2,1610612756
210,1610612764,1628418,1629060,202722,203078,203895,1610612756,1626164,1629661,201937,203967,204020,0021900263,4,2879,2879,0,0,1610612764
