,stint_start,t1_points_scored,t2_pm,stint_end,t1_id,t2_points_scored,t1_players,t2_id,t1_pm,t2_players,margin_per_100,num_poss
0,0,14,4,364,1610612744,18,"[1629308, 1627737, 1627733, 203952, 1627814]",1610612756,-4,"[1628969, 203967, 1629028, 1626164, 201937]",-16.0,25.0
1,365,14,6,394,1610612744,20,"[1629308, 1627737, 1627733, 203952, 1627814]",1610612756,-6,"[1628969, 203967, 1629028, 1626164, 201937]",-22.22222222222222,27.0
2,395,16,4,428,1610612744,20,"[1627733, 1627814, 1629308, 1629672, 203952]",1610612756,-4,"[1628969, 203967, 1629028, 1626164, 201937]",-13.333333333333334,30.0
3,429,18,8,472,1610612744,26,"[1627733, 1627814, 1628539, 1629308, 1629672]",1610612756,-8,"[1626164, 1628969, 1629059, 1629661, 203382]",-23.52941176470588,34.0
4,473,24,4,548,1610612744,28,"[1626172, 1627733, 1627814, 1628539, 1629672]",1610612756,-4,"[1626164, 1628969, 1629059, 1629661, 203382]",-10.0,40.0
5,549,24,9,625,1610612744,33,"[1626172, 1627733, 1627814, 1628539, 1629672]",1610612756,-9,"[1626164, 1628975, 1629059, 1629661, 203382]",-20.0,45.0
6,626,28,13,719,1610612744,41,"[1626172, 1628539, 1629308, 1629672, 203952]",1610612756,-13,"[1626164, 1628975, 1629059, 1629661, 203382]",-25.49019607843137,51.0
7,720,28,15,787,1610612744,43,"[1626172, 1628539, 1629308, 1629672, 203952]",1610612756,-15,"[1628969, 1628975, 1629059, 1629661, 203382]",-26.785714285714285,56.0
8,788,33,13,862,1610612744,46,"[1629308, 1627733, 203952, 1629672, 1628539]",1610612756,-13,"[1628969, 1629059, 1629661, 203382, 1628975]",-21.311475409836063,61.0
9,863,33,13,893,1610612744,46,"[1629308, 1627733, 203952, 1629672, 1628539]",1610612756,-13,"[1628969, 1628975, 1629059, 1629661, 203967]",-20.967741935483872,62.0
10,894,36,12,942,1610612744,48,"[1629308, 1627733, 203952, 1629672, 1628539]",1610612756,-12,"[1628969, 1628975, 1629661, 201937, 203967]",-18.461538461538463,65.0
11,943,36,13,950,1610612744,49,"[1629308, 1627733, 203952, 1629672, 1628539]",1610612756,-13,"[1628969, 1628975, 1629028, 201937, 203967]",-19.696969696969695,66.0
12,951,46,7,1108,1610612744,53,"[1627733, 1627737, 1627814, 1628539, 1629308]",1610612756,-7,"[1628969, 1628975, 1629028, 201937, 203967]",-9.210526315789473,76.0
13,1109,48,5,1196,1610612744,53,"[1627733, 1627737, 1627814, 1628539, 1629672]",1610612756,-5,"[1626164, 1628969, 1629028, 201937, 203967]",-6.172839506172839,81.0
14,1197,55,4,1301,1610612744,59,"[1627733, 1627737, 1627814, 1628539, 1629672]",1610612756,-4,"[1626164, 1629028, 1629661, 201937, 203967]",-4.597701149425287,87.0
15,1302,59,2,1409,1610612744,61,"[1626172, 1627814, 1628539, 1629308, 203952]",1610612756,-2,"[1626164, 1629028, 1629661, 201937, 203967]",-2.1505376344086025,93.0
16,1410,61,1,1439,1610612744,62,"[1626172, 1627814, 1628539, 1629672, 203952]",1610612756,-1,"[1626164, 1628969, 1629028, 1629661, 201937]",-1.0526315789473684,95.0
17,1440,74,1,1789,1610612744,75,"[1626172, 1627814, 1628539, 1629672, 203952]",1610612756,-1,"[1626164, 1628969, 1629661, 201937, 203967]",-0.8333333333333334,120.0
18,1790,74,4,1806,1610612744,78,"[1629308, 1627737, 1627733, 203952, 1627814]",1610612756,-4,"[1628969, 203967, 1629028, 1626164, 201937]",-3.3057851239669422,121.0
19,1807,78,0,1892,1610612744,78,"[1627733, 1627814, 1629308, 1629672, 203952]",1610612756,0,"[1628969, 203967, 1629028, 1626164, 201937]",0.0,127.0
20,1893,81,-3,1999,1610612744,78,"[1627733, 1627814, 1629308, 1629672, 203952]",1610612756,3,"[1626164, 1628969, 1629028, 1629059, 1629661]",2.18978102189781,137.0
21,2000,84,-6,2035,1610612744,78,"[1626172, 1627733, 1627814, 1628539, 1629672]",1610612756,6,"[1626164, 1628969, 1629059, 1629661, 203382]",4.316546762589928,139.0
22,2036,88,-10,2125,1610612744,78,"[1626172, 1627814, 1628539, 1629308, 1629672]",1610612756,10,"[1628969, 1628975, 1629059, 1629661, 203382]",6.993006993006993,143.0
23,2126,90,-12,2153,1610612744,78,"[1626172, 1628539, 1629308, 1629672, 203952]",1610612756,12,"[1628969, 1628975, 1629059, 1629661, 203382]",8.333333333333332,144.0
24,2154,90,-12,2153,1610612744,78,"[1626172, 1628539, 1629308, 1629672, 203952]",1610612756,12,"[1628975, 1629059, 1629661, 203382, 203967]",8.333333333333332,144.0
25,2154,90,-12,2153,1610612744,78,"[1627733, 1627814, 1628539, 1629672, 203952]",1610612756,12,"[1628975, 1629059, 1629661, 203382, 203967]",8.333333333333332,144.0
26,2154,90,-9,2159,1610612744,81,"[1626172, 1628539, 1629308, 1629672, 203952]",1610612756,9,"[1626164, 1628975, 1629059, 1629661, 203967]",6.122448979591836,147.0
27,2160,92,-11,2216,1610612744,81,"[1627733, 1627814, 1628539, 1629672, 203952]",1610612756,11,"[1626164, 1628975, 1629059, 1629661, 203967]",7.236842105263158,152.0
28,2217,92,-9,2309,1610612744,83,"[1629308, 1627733, 203952, 1629672, 1628539]",1610612756,9,"[1629028, 1626164, 201937, 1629059, 1629661]",5.660377358490567,159.0
29,2310,99,-11,2458,1610612744,88,"[1629308, 1627733, 203952, 1629672, 1628539]",1610612756,11,"[1626164, 1628969, 1629028, 1629661, 201937]",6.508875739644971,169.0
30,2459,102,-14,2535,1610612744,88,"[1627737, 1627814, 1628539, 1629308, 1629672]",1610612756,14,"[1626164, 1628969, 1629028, 1629661, 201937]",8.092485549132949,173.0
31,2536,113,-17,2777,1610612744,96,"[1627737, 1627814, 1628539, 1629672, 203952]",1610612756,17,"[1626164, 1628969, 1629028, 1629661, 201937]",8.947368421052632,190.0
32,2778,115,-16,2861,1610612744,99,"[1627737, 1627814, 1628539, 1629672, 203952]",1610612756,16,"[1626164, 1628969, 1629028, 1629059, 203967]",8.205128205128204,195.0
33,2862,115,-16,9999999,1610612744,99,"[1626172, 1627733, 1627737, 1627814, 1628539]",1610612756,16,"[1627767, 1628975, 1629059, 1629660, 203967]",8.16326530612245,196.0
