,team1_id,team1_player1,team1_player2,team1_player3,team1_player4,team1_player5,team2_id,team2_player1,team2_player2,team2_player3,team2_player4,team2_player5,game_id,period,possession_start,possession_end,team1_points,team2_points,possession_team
0,1610612751,201142,203925,201933,202681,201935,1610612738,203095,1628369,202684,203935,202689,0042000113,1,0,21,0,0,1610612751
1,1610612751,201142,203925,201933,202681,201935,1610612738,203095,1628369,202684,203935,202689,0042000113,1,32,32,0,2,1610612738
2,1610612751,201142,203925,201933,202681,201935,1610612738,203095,1628369,202684,203935,202689,0042000113,1,43,43,3,0,1610612751
3,1610612751,201142,203925,201933,202681,201935,1610612738,203095,1628369,202684,203935,202689,0042000113,1,55,60,0,0,1610612738
4,1610612751,201142,203925,201933,202681,201935,1610612738,203095,1628369,202684,203935,202689,0042000113,1,62,62,3,0,1610612751
5,1610612751,201142,203925,201933,202681,201935,1610612738,203095,1628369,202684,203935,202689,0042000113,1,74,77,0,0,1610612738
6,1610612751,201142,203925,201933,202681,201935,1610612738,203095,1628369,202684,203935,202689,0042000113,1,94,94,3,0,1610612751
7,1610612751,201142,203925,201933,202681,201935,1610612738,203095,1628369,202684,203935,202689,0042000113,1,111,123,0,0,1610612738
8,1610612751,201142,203925,201933,202681,201935,1610612738,203095,1628369,202684,203935,202689,0042000113,1,131,131,2,0,1610612751
9,1610612751,201142,203925,201933,202681,201935,1610612738,203095,1628369,202684,203935,202689,0042000113,1,136,138,0,2,1610612738
10,1610612751,201142,203925,201933,202681,201935,1610612738,203095,1628369,202684,203935,202689,0042000113,1,138,151,2,0,1610612751
11,1610612751,201142,203925,201933,202681,201935,1610612738,203095,1628369,202684,203935,202689,0042000113,1,164,164,0,0,1610612738
12,1610612751,201142,203925,201933,202681,201935,1610612738,203095,1628369,202684,203935,202689,0042000113,1,177,177,3,0,1610612751
13,1610612751,201142,203925,201933,202681,201935,1610612738,203095,1628369,202684,203935,202689,0042000113,1,196,201,0,0,1610612738
14,1610612751,201142,203925,201933,202681,201935,1610612738,203095,1628369,202684,203935,202689,0042000113,1,204,204,3,0,1610612751
15,1610612751,201142,203925,201933,202681,201935,1610612738,203095,1628369,202684,203935,202689,0042000113,1,205,225,0,0,1610612738
16,1610612751,201142,203925,201933,202681,201935,1610612738,1628369,1629057,202689,203095,203935,0042000113,1,231,234,0,0,1610612751
17,1610612751,201142,203925,201933,202681,201935,1610612738,1628369,1629057,202689,203095,203935,0042000113,1,242,242,0,2,1610612738
18,1610612751,201142,203925,201933,202681,201935,1610612738,1628369,1629057,1629641,202689,203935,0042000113,1,268,271,0,0,1610612751
19,1610612751,201142,203925,201933,202681,201935,1610612738,1628369,1629057,1629641,202689,203935,0042000113,1,274,274,0,2,1610612738
20,1610612751,201142,203925,201933,202681,201935,1610612738,1628369,1629057,1629641,202689,203935,0042000113,1,292,294,0,0,1610612751
21,1610612751,201142,203925,201933,202681,201935,1610612738,1628369,1629057,1629641,202689,203935,0042000113,1,299,299,0,2,1610612738
22,1610612751,201142,203925,201933,202681,201935,1610612738,1628369,1629057,1629641,202689,203935,0042000113,1,316,316,0,0,1610612751
23,1610612751,201142,203925,201933,202681,201935,1610612738,1628369,1629057,1629641,202689,203935,0042000113,1,321,321,0,2,1610612738
24,1610612751,201142,203925,201933,202681,201935,1610612738,1628369,1629057,1629641,202689,203935,0042000113,1,336,336,3,0,1610612751
25,1610612751,201142,203925,201933,202681,201935,1610612738,1628369,1629057,1629641,202689,203935,0042000113,1,354,354,0,2,1610612738
26,1610612751,201142,203925,201933,202681,201935,1610612738,1628369,1629057,1629641,202689,203935,0042000113,1,366,366,2,0,1610612751
27,1610612751,201142,203925,201933,202681,201935,1610612738,1628369,1629057,1629641,202689,203935,0042000113,1,377,377,0,3,1610612738
28,1610612751,201142,203925,201933,202681,201935,1610612738,1628369,1629057,1629641,202689,203935,0042000113,1,390,390,2,0,1610612751
29,1610612751,201142,203925,201933,202681,201935,1610612738,1628369,1629057,1629641,202689,203935,0042000113,1,402,406,0,0,1610612738
30,1610612751,201142,203925,201933,202681,201935,1610612738,1628369,1629057,1629641,202689,203935,0042000113,1,420,424,0,0,1610612751
31,1610612751,201142,203925,201933,202681,201935,1610612738,1628369,1629057,1629641,202689,203935,0042000113,1,428,428,0,0,1610612738
32,1610612751,201142,203925,201933,202681,201935,1610612738,1628369,1629057,1629641,202689,203935,0042000113,1,433,437,0,0,1610612751
33,1610612751,201142,203925,201933,202681,201935,1610612738,1628369,1629057,1629641,202689,203935,0042000113,1,453,456,0,0,1610612738
34,1610612751,201142,203925,201933,202681,201935,1610612738,1628369,1629057,1629641,202689,203935,0042000113,1,472,475,0,0,1610612751
35,1610612751,201142,203925,201933,202681,201935,1610612738,1628369,1629057,1629641,202689,203935,0042000113,1,481,484,0,0,1610612738
36,1610612751,1629651,201142,202681,203925,204020,1610612738,1628369,1629057,1629641,202689,203935,0042000113,1,501,501,2,0,1610612751
37,1610612751,1629651,201142,202681,203925,204020,1610612738,1628369,1629057,1629641,202689,203935,0042000113,1,513,523,0,3,1610612738
38,1610612751,1629651,201142,202681,203925,204020,1610612738,1629057,1629641,202689,203095,203935,0042000113,1,537,541,0,0,1610612751
39,1610612751,1629651,201142,202681,203925,204020,1610612738,1629057,1629641,202689,203095,203935,0042000113,1,544,548,0,0,1610612738
40,1610612751,1629651,201142,202681,203925,204020,1610612738,1629057,1629641,202689,203095,203935,0042000113,1,558,558,2,0,1610612751
41,1610612751,1629651,201142,202681,203925,204020,1610612738,1629057,1629641,202689,203095,203935,0042000113,1,573,573,0,3,1610612738
42,1610612751,1629651,201142,202681,203925,204020,1610612738,1629057,1629641,202689,203095,203935,0042000113,1,581,599,0,0,1610612751
43,1610612751,1629651,201142,202681,203925,204020,1610612738,1628369,1629641,202684,203095,203935,0042000113,1,606,606,0,0,1610612738
44,1610612751,1629013,1629651,201142,202681,204020,1610612738,1628369,1629641,202684,203095,203935,0042000113,1,618,618,2,0,1610612751
45,1610612751,1629013,1629651,201142,202681,204020,1610612738,1628369,1629641,202684,203095,203935,0042000113,1,642,642,0,2,1610612738
46,1610612751,1629013,1629651,201142,202681,204020,1610612738,1628369,1629641,202684,203095,203935,0042000113,1,657,659,0,0,1610612751
47,1610612751,1629013,1629651,201142,202681,204020,1610612738,1628369,1629641,202684,203095,203935,0042000113,1,664,664,0,2,1610612738
48,1610612751,1629013,1629651,201142,202681,204020,1610612738,1628369,1629641,202684,203095,203935,0042000113,1,677,677,0,0,1610612751
49,1610612751,1629013,1629651,201142,202681,204020,1610612738,1628369,1629641,202684,203095,203935,0042000113,1,681,681,0,3,1610612738
50,1610612751,1629013,1629651,201142,202681,204020,1610612738,1628369,1629641,202684,203095,203935,0042000113,1,688,692,0,0,1610612751
51,1610612751,1629013,1629651,201142,202681,204020,1610612738,1628369,1629641,202684,203095,203935,0042000113,1,696,708,0,3,1610612738
52,1610612751,1629013,1629651,201142,202681,204020,1610612738,1628369,1629641,202684,203095,203935,0042000113,1,720,720,0,0,1610612738
53,1610612751,203925,201935,1629651,204020,1629013,1610612738,203095,1628369,202684,1629641,1630202,0042000113,2,720,740,0,2,1610612738
54,1610612751,203925,201935,1629651,204020,1629013,1610612738,203095,1628369,202684,1629641,1630202,0042000113,2,758,758,2,0,1610612751
55,1610612751,203925,201935,1629651,204020,1629013,1610612738,203095,1628369,202684,1629641,1630202,0042000113,2,770,772,0,0,1610612738
56,1610612751,203925,201935,1629651,204020,1629013,1610612738,203095,1628369,202684,1629641,1630202,0042000113,2,786,789,0,0,1610612751
57,1610612751,203925,201935,1629651,204020,1629013,1610612738,203095,1628369,202684,1629641,1630202,0042000113,2,796,801,0,2,1610612738
58,1610612751,203925,201935,1629651,204020,1629013,1610612738,203095,1628369,202684,1629641,1630202,0042000113,2,818,825,0,0,1610612751
59,1610612751,203925,201935,1629651,204020,1629013,1610612738,203095,1628369,202684,1629641,1630202,0042000113,2,842,842,0,3,1610612738
60,1610612751,203925,201935,1629651,204020,1629013,1610612738,203095,1628369,202684,1629641,1630202,0042000113,2,867,867,3,0,1610612751
61,1610612751,203925,201935,1629651,204020,1629013,1610612738,203095,1628369,202684,1629641,1630202,0042000113,2,890,890,0,3,1610612738
62,1610612751,203925,201935,1629651,204020,1629013,1610612738,203095,1628369,202684,1629641,1630202,0042000113,2,918,918,2,0,1610612751
63,1610612751,203925,201935,1629651,204020,1629013,1610612738,203095,1628369,202684,1629641,1630202,0042000113,2,939,939,0,2,1610612738
64,1610612751,203925,201935,1629651,204020,1629013,1610612738,203095,1628369,202684,1629641,1630202,0042000113,2,955,959,0,0,1610612751
65,1610612751,1628971,1629013,201933,201935,202681,1610612738,203095,1628369,202684,1629641,1630202,0042000113,2,977,977,0,2,1610612738
66,1610612751,1628971,1629013,201933,201935,202681,1610612738,203095,1628369,202684,1629641,1630202,0042000113,2,991,991,2,0,1610612751
67,1610612751,1628971,1629013,201933,201935,202681,1610612738,203095,1628369,202684,1629641,1630202,0042000113,2,1009,1024,0,0,1610612738
68,1610612751,1628971,1629013,201933,201935,202681,1610612738,1629641,1630202,202684,202689,203095,0042000113,2,1033,1033,2,0,1610612751
69,1610612751,1628971,1629013,201933,201935,202681,1610612738,1629641,1630202,202684,202689,203095,0042000113,2,1044,1049,0,0,1610612738
70,1610612751,1628971,1629013,201933,201935,202681,1610612738,1629641,1630202,202684,202689,203095,0042000113,2,1059,1062,0,0,1610612751
71,1610612751,1628971,1629013,201933,201935,202681,1610612738,1629641,1630202,202684,202689,203095,0042000113,2,1062,1080,0,0,1610612738
72,1610612751,1628971,1629013,201142,201933,202681,1610612738,1629641,202684,202689,203095,203935,0042000113,2,1092,1099,2,0,1610612751
73,1610612751,1628971,1629013,201142,201933,202681,1610612738,1629641,1629684,202689,203095,203935,0042000113,2,1108,1120,0,0,1610612738
74,1610612751,1628971,1629013,201142,201933,202681,1610612738,1629641,1629684,202689,203095,203935,0042000113,2,1131,1137,0,0,1610612751
75,1610612751,1628971,1629013,201142,201933,202681,1610612738,1629641,1629684,202689,203095,203935,0042000113,2,1146,1146,0,3,1610612738
76,1610612751,1628971,1629013,201142,201933,202681,1610612738,1629641,1629684,202689,203095,203935,0042000113,2,1161,1161,2,0,1610612751
77,1610612751,1628971,1629013,201142,201933,202681,1610612738,1629641,1629684,202689,203095,203935,0042000113,2,1173,1173,0,2,1610612738
78,1610612751,1628971,1629013,201142,201933,202681,1610612738,1629641,1629684,202689,203095,203935,0042000113,2,1191,1194,0,0,1610612751
79,1610612751,1628971,1629013,201142,201933,202681,1610612738,1629641,1629684,202689,203095,203935,0042000113,2,1199,1199,0,0,1610612738
80,1610612751,1628971,1629013,201142,201933,202681,1610612738,1629641,1629684,202689,203095,203935,0042000113,2,1199,1218,0,0,1610612751
81,1610612751,1628971,201142,201933,201935,202681,1610612738,1628369,1629684,202689,203095,203935,0042000113,2,1226,1226,0,3,1610612738
82,1610612751,1628971,201142,201933,201935,202681,1610612738,1628369,1629684,202689,203095,203935,0042000113,2,1245,1245,2,0,1610612751
83,1610612751,1628971,201142,201933,201935,202681,1610612738,1628369,1629684,202689,203095,203935,0042000113,2,1256,1256,0,2,1610612738
84,1610612751,1628971,201142,201933,201935,202681,1610612738,1628369,1629684,202689,203095,203935,0042000113,2,1285,1286,0,0,1610612751
85,1610612751,1628971,201142,201933,201935,202681,1610612738,1628369,1629684,202689,203095,203935,0042000113,2,1293,1293,0,2,1610612738
86,1610612751,1628971,201142,201933,201935,202681,1610612738,1628369,1629684,202689,203095,203935,0042000113,2,1312,1312,2,0,1610612751
87,1610612751,1628971,201142,201933,201935,202681,1610612738,1628369,1629684,202689,203095,203935,0042000113,2,1320,1320,0,0,1610612738
88,1610612751,1628971,201142,201933,201935,202681,1610612738,1628369,1629684,202689,203095,203935,0042000113,2,1333,1333,2,0,1610612751
89,1610612751,1628971,201142,201933,201935,202681,1610612738,1628369,202684,202689,203095,203935,0042000113,2,1345,1350,0,2,1610612738
90,1610612751,1628971,201142,201933,201935,202681,1610612738,1628369,202684,202689,203095,203935,0042000113,2,1368,1368,2,0,1610612751
91,1610612751,1628971,201142,201933,201935,202681,1610612738,1628369,202684,202689,203095,203935,0042000113,2,1385,1389,0,0,1610612738
92,1610612751,1628971,201142,201933,201935,202681,1610612738,1628369,202684,202689,203095,203935,0042000113,2,1402,1402,0,0,1610612751
93,1610612751,1628971,201142,201933,201935,202681,1610612738,1628369,202684,202689,203095,203935,0042000113,2,1409,1412,0,0,1610612738
94,1610612751,1628971,201142,201933,201935,202681,1610612738,1628369,202684,202689,203095,203935,0042000113,2,1431,1431,2,0,1610612751
95,1610612751,1628971,1629651,201142,201935,202681,1610612738,1628369,202684,202689,203095,203935,0042000113,2,1440,1440,0,0,1610612738
96,1610612751,201142,203925,201933,202681,201935,1610612738,203095,1628369,202684,203935,202689,0042000113,3,1440,1458,0,3,1610612738
97,1610612751,201142,203925,201933,202681,201935,1610612738,203095,1628369,202684,203935,202689,0042000113,3,1473,1473,0,0,1610612751
98,1610612751,201142,203925,201933,202681,201935,1610612738,203095,1628369,202684,203935,202689,0042000113,3,1477,1477,0,2,1610612738
99,1610612751,201142,203925,201933,202681,201935,1610612738,203095,1628369,202684,203935,202689,0042000113,3,1499,1505,0,0,1610612751
100,1610612751,201142,203925,201933,202681,201935,1610612738,203095,1628369,202684,203935,202689,0042000113,3,1515,1515,0,1,1610612738
101,1610612751,201142,203925,201933,202681,201935,1610612738,203095,1628369,202684,203935,202689,0042000113,3,1528,1535,3,0,1610612751
102,1610612751,201142,203925,201933,202681,201935,1610612738,203095,1628369,202684,203935,202689,0042000113,3,1551,1554,0,0,1610612738
103,1610612751,201142,203925,201933,202681,201935,1610612738,203095,1628369,202684,203935,202689,0042000113,3,1562,1562,0,0,1610612751
104,1610612751,201142,203925,201933,202681,201935,1610612738,203095,1628369,202684,203935,202689,0042000113,3,1576,1576,0,2,1610612738
105,1610612751,201142,203925,201933,202681,201935,1610612738,203095,1628369,202684,203935,202689,0042000113,3,1584,1590,2,0,1610612751
106,1610612751,201142,203925,201933,202681,201935,1610612738,203095,1628369,202684,203935,202689,0042000113,3,1605,1608,0,1,1610612738
107,1610612751,201142,203925,201933,202681,201935,1610612738,203095,1628369,202684,203935,202689,0042000113,3,1623,1626,0,0,1610612751
108,1610612751,201142,203925,201933,202681,201935,1610612738,203095,1628369,202684,203935,202689,0042000113,3,1632,1637,0,0,1610612738
109,1610612751,201142,203925,201933,202681,201935,1610612738,203095,1628369,202684,203935,202689,0042000113,3,1639,1639,2,0,1610612751
110,1610612751,201142,203925,201933,202681,201935,1610612738,203095,1628369,202684,203935,202689,0042000113,3,1659,1659,0,0,1610612738
111,1610612751,1629651,201142,201935,202681,203925,1610612738,203095,1628369,202684,203935,202689,0042000113,3,1668,1668,0,0,1610612751
112,1610612751,1629651,201142,201935,202681,203925,1610612738,203095,1628369,202684,203935,202689,0042000113,3,1668,1683,0,2,1610612738
113,1610612751,1629651,201142,201935,202681,203925,1610612738,203095,1628369,202684,203935,202689,0042000113,3,1696,1696,2,0,1610612751
114,1610612751,1629651,201142,201935,202681,203925,1610612738,203095,1628369,202684,203935,202689,0042000113,3,1696,1715,0,0,1610612738
115,1610612751,1629651,201142,201935,202681,203925,1610612738,203095,1628369,202684,203935,202689,0042000113,3,1722,1722,2,0,1610612751
116,1610612751,1629651,201142,201935,202681,203925,1610612738,1628369,1629641,202684,203095,203935,0042000113,3,1738,1738,0,0,1610612738
117,1610612751,1629651,201142,201935,202681,203925,1610612738,1628369,1629641,202684,203095,203935,0042000113,3,1754,1759,3,0,1610612751
118,1610612751,1629651,201142,201935,202681,203925,1610612738,1628369,1629641,202684,203095,203935,0042000113,3,1761,1781,0,0,1610612738
119,1610612751,1629651,201142,201935,202681,203925,1610612738,1628369,1629641,202684,203095,203935,0042000113,3,1795,1795,2,0,1610612751
120,1610612751,1629651,201142,201935,202681,203925,1610612738,1628369,1629641,202684,203095,203935,0042000113,3,1821,1821,0,3,1610612738
121,1610612751,1629651,201142,201935,202681,203925,1610612738,1628369,1629641,202684,203095,203935,0042000113,3,1837,1837,2,0,1610612751
122,1610612751,1629013,1629651,201142,202681,203925,1610612738,1628369,1629641,1629684,203095,203935,0042000113,3,1849,1849,0,4,1610612738
123,1610612751,1629013,1629651,201142,202681,203925,1610612738,1628369,1629641,1629684,203095,203935,0042000113,3,1862,1865,0,0,1610612751
124,1610612751,1629013,1629651,201142,202681,203925,1610612738,1628369,1629641,1629684,203095,203935,0042000113,3,1874,1874,0,2,1610612738
125,1610612751,1629013,1629651,201142,202681,203925,1610612738,1628369,1629641,1629684,203095,203935,0042000113,3,1886,1889,0,0,1610612751
126,1610612751,1629013,1629651,201142,202681,203925,1610612738,1628369,1629641,1629684,203095,203935,0042000113,3,1897,1900,0,0,1610612738
127,1610612751,1629013,1629651,201142,202681,203925,1610612738,1628369,1629641,1629684,203095,203935,0042000113,3,1915,1915,2,0,1610612751
128,1610612751,1629013,1629651,201142,202681,203925,1610612738,1628369,1629641,1629684,203095,203935,0042000113,3,1933,1933,0,3,1610612738
129,1610612751,1629013,1629651,201142,202681,203925,1610612738,1628369,1629641,1629684,203095,203935,0042000113,3,1956,1961,0,0,1610612751
130,1610612751,1629013,1629651,201142,202681,203925,1610612738,1628369,1629641,1629684,203095,203935,0042000113,3,1967,1967,0,0,1610612738
131,1610612751,1629013,1629651,201142,202681,203925,1610612738,1628369,1629641,1629684,203095,203935,0042000113,3,1973,1975,0,0,1610612751
132,1610612751,1629013,1629651,201142,202681,203925,1610612738,1628369,1629641,1629684,203095,203935,0042000113,3,1991,1993,0,4,1610612738
133,1610612751,1629013,1629651,201142,201935,202681,1610612738,1628369,1629641,1629684,203095,203935,0042000113,3,2010,2015,0,0,1610612751
134,1610612751,1629013,1629651,201142,201935,202681,1610612738,1628369,1629641,1629684,1630174,203935,0042000113,3,2026,2026,0,3,1610612738
135,1610612751,1629013,1629651,201142,201935,202681,1610612738,1628369,1629641,1629684,1630174,203935,0042000113,3,2040,2040,2,0,1610612751
136,1610612751,1629013,1629651,201142,201935,202681,1610612738,1628369,1629641,1629684,1630174,203935,0042000113,3,2063,2063,0,3,1610612738
137,1610612751,1629013,1629651,201142,201935,202681,1610612738,1628369,1629641,1629684,1630174,203935,0042000113,3,2078,2087,0,0,1610612751
138,1610612751,1629013,1629651,201142,201935,202681,1610612738,1628369,1629641,1629684,1630174,203935,0042000113,3,2102,2102,0,2,1610612738
139,1610612751,1629013,1629651,201142,201935,202681,1610612738,1628369,1629641,1629684,1630174,203935,0042000113,3,2115,2115,3,0,1610612751
140,1610612751,1629013,1629651,201142,201935,202681,1610612738,1628369,1629641,1629684,1630174,203935,0042000113,3,2128,2133,0,0,1610612738
141,1610612751,1629013,1629651,201142,201935,202681,1610612738,1628369,1629641,1629684,1630174,203935,0042000113,3,2154,2154,2,0,1610612751
142,1610612751,1629013,1629651,201142,201935,202681,1610612738,1628369,1629641,1629684,1630174,203935,0042000113,3,2158,2160,0,0,1610612751
143,1610612751,203925,201933,201935,204020,1629013,1610612738,203095,202684,202689,1629641,1630174,0042000113,4,2160,2180,3,0,1610612751
144,1610612751,203925,201933,201935,204020,1629013,1610612738,203095,202684,202689,1629641,1630174,0042000113,4,2202,2202,0,3,1610612738
145,1610612751,203925,201933,201935,204020,1629013,1610612738,203095,202684,202689,1629641,1630174,0042000113,4,2215,2217,0,0,1610612751
146,1610612751,203925,201933,201935,204020,1629013,1610612738,203095,202684,202689,1629641,1630174,0042000113,4,2237,2246,0,2,1610612738
147,1610612751,203925,201933,201935,204020,1629013,1610612738,203095,202684,202689,1629641,1630174,0042000113,4,2265,2269,0,0,1610612751
148,1610612751,203925,201933,201935,204020,1629013,1610612738,203095,202684,202689,1629641,1630174,0042000113,4,2272,2272,0,0,1610612738
149,1610612751,1629013,201142,201933,201935,203925,1610612738,203095,202684,202689,1629641,1630174,0042000113,4,2291,2293,0,0,1610612751
150,1610612751,1629013,201142,201933,201935,203925,1610612738,203095,202684,202689,1629641,1630174,0042000113,4,2308,2315,0,2,1610612738
151,1610612751,1629013,201142,201933,201935,203925,1610612738,203095,202684,202689,1629641,1630174,0042000113,4,2325,2325,4,0,1610612751
152,1610612751,1629013,201142,201933,201935,203925,1610612738,203095,202684,202689,1629641,1630174,0042000113,4,2339,2339,0,2,1610612738
153,1610612751,201142,201933,201935,202681,203925,1610612738,1628369,1629641,202684,202689,203935,0042000113,4,2357,2357,3,0,1610612751
154,1610612751,201142,201933,201935,202681,203925,1610612738,1628369,1629641,202684,202689,203935,0042000113,4,2374,2374,0,0,1610612738
155,1610612751,201142,201933,201935,202681,203925,1610612738,1628369,1629641,202684,202689,203935,0042000113,4,2389,2392,0,0,1610612751
156,1610612751,201142,201933,201935,202681,203925,1610612738,1628369,1629641,202684,202689,203935,0042000113,4,2405,2406,0,0,1610612738
157,1610612751,201142,201933,201935,202681,203925,1610612738,1628369,1629641,202684,202689,203935,0042000113,4,2418,2424,3,0,1610612751
158,1610612751,201142,201933,201935,202681,203925,1610612738,1628369,1629641,202684,202689,203935,0042000113,4,2425,2446,0,0,1610612738
159,1610612751,201142,201933,201935,202681,203925,1610612738,1628369,1630174,202684,202689,203935,0042000113,4,2450,2469,0,0,1610612751
160,1610612751,201142,201933,201935,202681,203925,1610612738,1628369,1630174,202684,202689,203935,0042000113,4,2469,2486,0,2,1610612738
161,1610612751,1628971,201142,201935,202681,203925,1610612738,1628369,1630174,202684,202689,203935,0042000113,4,2498,2510,3,0,1610612751
162,1610612751,1628971,201142,201935,202681,203925,1610612738,1628369,1630174,202684,202689,203935,0042000113,4,2530,2530,0,2,1610612738
163,1610612751,1628971,201142,201935,202681,203925,1610612738,1628369,1630174,202684,202689,203935,0042000113,4,2543,2543,2,0,1610612751
164,1610612751,1628971,201142,201935,202681,203925,1610612738,1628369,1629684,1630174,202689,203935,0042000113,4,2557,2557,0,2,1610612738
165,1610612751,1628971,201142,201935,202681,203925,1610612738,1628369,1629684,1630174,202689,203935,0042000113,4,2571,2571,2,0,1610612751
166,1610612751,1628971,201142,201935,202681,203925,1610612738,1628369,1629684,1630174,202689,203935,0042000113,4,2594,2597,0,0,1610612738
167,1610612751,1628971,201142,201935,202681,203925,1610612738,1628369,1629684,1630174,202689,203935,0042000113,4,2597,2597,1,0,1610612751
168,1610612751,1628971,201142,201935,202681,203925,1610612738,1628369,202684,202689,203095,203935,0042000113,4,2614,2614,0,3,1610612738
169,1610612751,1628971,201142,201935,202681,203925,1610612738,1628369,202684,202689,203095,203935,0042000113,4,2627,2627,0,0,1610612751
170,1610612751,1628971,201142,201935,202681,203925,1610612738,1628369,202684,202689,203095,203935,0042000113,4,2640,2643,0,0,1610612738
171,1610612751,1628971,201142,201935,202681,203925,1610612738,1628369,202684,202689,203095,203935,0042000113,4,2647,2652,0,0,1610612751
172,1610612751,1628971,201142,201935,202681,203925,1610612738,1628369,202684,202689,203095,203935,0042000113,4,2664,2664,0,2,1610612738
173,1610612751,1628971,201142,201935,202681,203925,1610612738,1628369,202684,202689,203095,203935,0042000113,4,2665,2674,1,0,1610612751
174,1610612751,1628971,201142,201935,202681,203925,1610612738,1628369,202684,202689,203095,203935,0042000113,4,2686,2697,0,2,1610612738
175,1610612751,1628971,201142,201935,202681,203925,1610612738,1628369,202684,202689,203095,203935,0042000113,4,2707,2707,3,0,1610612751
176,1610612751,1628971,201142,201935,202681,203925,1610612738,1628369,202684,202689,203095,203935,0042000113,4,2726,2727,0,0,1610612738
177,1610612751,1628971,201142,201935,202681,203925,1610612738,1628369,202684,202689,203095,203935,0042000113,4,2727,2727,2,0,1610612751
178,1610612751,1628971,201142,201935,202681,203925,1610612738,1628369,202684,202689,203095,203935,0042000113,4,2742,2742,0,2,1610612738
179,1610612751,1628971,201142,201935,202681,203925,1610612738,1628369,202684,202689,203095,203935,0042000113,4,2749,2749,2,0,1610612751
180,1610612751,1628971,201142,201935,202681,203925,1610612738,1628369,202684,202689,203095,203935,0042000113,4,2772,2775,0,0,1610612738
181,1610612751,1628971,201142,201935,202681,203925,1610612738,1628369,202684,202689,203095,203935,0042000113,4,2780,2785,0,0,1610612751
182,1610612751,1628971,201142,201935,202681,203925,1610612738,1628369,202684,202689,203095,203935,0042000113,4,2799,2817,0,0,1610612738
183,1610612751,1628971,201142,201935,202681,203925,1610612738,1628369,202684,202689,203095,203935,0042000113,4,2822,2822,2,0,1610612751
184,1610612751,1628971,201142,201935,202681,203925,1610612738,1628369,1629684,202689,203095,203935,0042000113,4,2839,2839,0,2,1610612738
185,1610612751,1628971,201142,201935,202681,203925,1610612738,1628369,1629684,202689,203095,203935,0042000113,4,2840,2851,1,0,1610612751
186,1610612751,1629013,201142,201935,202681,203925,1610612738,1628369,1629684,202689,203095,203935,0042000113,4,2855,2855,0,1,1610612738
187,1610612751,1629013,201142,201933,201935,202681,1610612738,1628369,1629684,202689,203095,203935,0042000113,4,2855,2859,3,0,1610612751
188,1610612751,201142,201933,201935,202681,203925,1610612738,1628369,1629684,202689,203095,203935,0042000113,4,2859,2867,0,2,1610612738
189,1610612751,1628971,201142,201935,202681,203925,1610612738,1628369,1629684,202689,203095,203935,0042000113,4,2878,2878,0,0,1610612751
