,TEAM_ID_1,TEAM_1_PLAYERS,TEAM_ID_2,TEAM_2_PLAYERS,PERIOD
0,1610612737,[1629631 1628381  203991  203992 1629027],1610612764,[ 203484 1628398 1626149  203078 1628988],1
1,1610612737,[1629629 1628989  201568 1626153  203476],1610612764,[1628398 1626149  203078 1628988 1630557],2
2,1610612737,[1629631 1628381  203991  203992 1629027],1610612764,[ 203484 1628398 1626149  203078 1628988],3
3,1610612737,[1629631 1629629 1628989  201568  101150],1610612764,[1628398 1626149  203078 1628988 1630557],4
