,team1_id,team1_player1,team1_player2,team1_player3,team1_player4,team1_player5,team2_id,team2_player1,team2_player2,team2_player3,team2_player4,team2_player5,game_id,period,possession_start,possession_end,team1_points,team2_points,possession_team
0,1610612745,1627863,200782,203991,201935,201566,1610612751,203925,1627752,1628386,1627747,202681,0021900069,1,0,14,0,0,1610612751
1,1610612745,1627863,200782,203991,201935,201566,1610612751,203925,1627752,1628386,1627747,202681,0021900069,1,23,23,0,0,1610612745
2,1610612745,1627863,200782,203991,201935,201566,1610612751,203925,1627752,1628386,1627747,202681,0021900069,1,36,36,0,3,1610612751
3,1610612745,1627863,200782,203991,201935,201566,1610612751,203925,1627752,1628386,1627747,202681,0021900069,1,57,60,0,0,1610612745
4,1610612745,1627863,200782,203991,201935,201566,1610612751,203925,1627752,1628386,1627747,202681,0021900069,1,64,64,0,0,1610612751
5,1610612745,1627863,200782,203991,201935,201566,1610612751,203925,1627752,1628386,1627747,202681,0021900069,1,72,72,2,0,1610612745
6,1610612745,1627863,200782,203991,201935,201566,1610612751,203925,1627752,1628386,1627747,202681,0021900069,1,90,90,0,2,1610612751
7,1610612745,1627863,200782,203991,201935,201566,1610612751,203925,1627752,1628386,1627747,202681,0021900069,1,109,121,3,0,1610612745
8,1610612745,1627863,200782,203991,201935,201566,1610612751,203925,1627752,1628386,1627747,202681,0021900069,1,140,140,0,3,1610612751
9,1610612745,1627863,200782,203991,201935,201566,1610612751,203925,1627752,1628386,1627747,202681,0021900069,1,152,152,2,0,1610612745
10,1610612745,1627863,200782,203991,201935,201566,1610612751,203925,1627752,1628386,1627747,202681,0021900069,1,162,162,0,3,1610612751
11,1610612745,1627863,200782,203991,201935,201566,1610612751,203925,1627752,1628386,1627747,202681,0021900069,1,183,183,2,0,1610612745
12,1610612745,1627863,200782,203991,201935,201566,1610612751,203925,1627752,1628386,1627747,202681,0021900069,1,193,193,0,0,1610612751
13,1610612745,1627863,200782,203991,201935,201566,1610612751,203925,1627752,1628386,1627747,202681,0021900069,1,197,197,2,0,1610612745
14,1610612745,1627863,200782,203991,201935,201566,1610612751,203925,1627752,1628386,1627747,202681,0021900069,1,210,210,0,0,1610612751
15,1610612745,1627863,200782,203991,201935,201566,1610612751,203925,1627752,1628386,1627747,202681,0021900069,1,219,219,0,0,1610612745
16,1610612745,1627863,200782,203991,201935,201566,1610612751,203925,1627752,1628386,1627747,202681,0021900069,1,224,224,0,0,1610612751
17,1610612745,1627863,200782,203991,201935,201566,1610612751,203925,1627752,1628386,1627747,202681,0021900069,1,237,239,0,0,1610612745
18,1610612745,1627863,200782,203991,201935,201566,1610612751,203925,1627752,1628386,1627747,202681,0021900069,1,254,254,0,0,1610612751
19,1610612745,1627863,200782,203991,201935,201566,1610612751,203925,1627752,1628386,1627747,202681,0021900069,1,264,265,0,0,1610612745
20,1610612745,1627863,200782,203991,201935,201566,1610612751,203925,1627752,1628386,1627747,202681,0021900069,1,270,270,0,2,1610612751
21,1610612745,1627863,200782,203991,201935,201566,1610612751,203925,1627752,1628386,1627747,202681,0021900069,1,291,291,0,0,1610612745
22,1610612745,1627863,200782,203991,201935,201566,1610612751,203925,1627752,1628386,1627747,202681,0021900069,1,292,308,0,2,1610612751
23,1610612745,200782,201566,201569,201935,203991,1610612751,1627752,1628386,202066,202681,203925,0021900069,1,313,315,0,0,1610612745
24,1610612745,200782,201566,201569,201935,203991,1610612751,1627752,1628386,202066,202681,203925,0021900069,1,318,318,0,2,1610612751
25,1610612745,200782,201566,201569,201935,203991,1610612751,1627752,1628386,202066,202681,203925,0021900069,1,330,333,0,0,1610612745
26,1610612745,200782,201566,201569,201935,203991,1610612751,1627752,1628386,202066,202681,203925,0021900069,1,346,348,0,0,1610612751
27,1610612745,200782,201566,201569,201935,203991,1610612751,1627752,1628386,202066,202681,203925,0021900069,1,358,358,2,0,1610612745
28,1610612745,200782,201566,201569,201935,203991,1610612751,1627752,1628386,202066,202681,203925,0021900069,1,367,367,0,0,1610612751
29,1610612745,200782,201566,201569,201935,203991,1610612751,1627752,1628386,202066,202681,203925,0021900069,1,374,377,0,0,1610612745
30,1610612745,200782,201566,201569,201935,203991,1610612751,1627752,1628386,202066,202681,203925,0021900069,1,378,378,0,0,1610612751
31,1610612745,200782,201566,201569,201935,203991,1610612751,1627752,1628386,202066,202681,203925,0021900069,1,385,388,0,0,1610612745
32,1610612745,200782,201566,201569,201935,203991,1610612751,1627752,1628386,202066,202681,203925,0021900069,1,391,391,0,3,1610612751
33,1610612745,200782,201566,201569,201935,203991,1610612751,1627752,1628386,202066,202681,203925,0021900069,1,417,419,0,0,1610612745
34,1610612745,200782,201566,201569,201935,203991,1610612751,1627752,1628386,202066,202681,203925,0021900069,1,426,428,0,0,1610612751
35,1610612745,200782,201566,201569,201935,203991,1610612751,1627752,1628386,202066,202681,203925,0021900069,1,436,436,2,0,1610612745
36,1610612745,200782,201566,201569,201935,203991,1610612751,1627752,1628386,202066,202681,203925,0021900069,1,451,451,0,3,1610612751
37,1610612745,200782,201566,201569,201935,203991,1610612751,1627752,1628386,202066,202681,203925,0021900069,1,455,478,3,0,1610612745
38,1610612745,201569,201935,203085,203463,2199,1610612751,1627752,1629058,201599,202066,203915,0021900069,1,496,496,0,0,1610612751
39,1610612745,201569,201935,203085,203463,2199,1610612751,1627752,1629058,201599,202066,203915,0021900069,1,496,508,3,0,1610612745
40,1610612745,201569,201935,203085,203463,2199,1610612751,1627752,1629058,201599,202066,203915,0021900069,1,527,528,0,0,1610612751
41,1610612745,201569,201935,203085,203463,2199,1610612751,1627752,1629058,201599,202066,203915,0021900069,1,548,548,3,0,1610612745
42,1610612745,201569,201935,203085,203463,2199,1610612751,1627752,1629058,201599,202066,203915,0021900069,1,560,560,0,0,1610612751
43,1610612745,201569,201935,203085,203463,2199,1610612751,1627752,1629058,201599,202066,203915,0021900069,1,569,572,2,0,1610612745
44,1610612745,201569,201935,203085,203463,2199,1610612751,1627747,1629058,1629066,201599,203915,0021900069,1,584,588,0,0,1610612751
45,1610612745,201569,201935,203085,203463,2199,1610612751,1627747,1629058,1629066,201599,203915,0021900069,1,592,592,2,0,1610612745
46,1610612745,201569,201935,203085,203463,2199,1610612751,1627747,1629058,1629066,201599,203915,0021900069,1,611,615,0,0,1610612751
47,1610612745,201569,201935,203085,203463,2199,1610612751,1627747,1629058,1629066,201599,203915,0021900069,1,630,634,0,0,1610612745
48,1610612745,201569,201935,203085,203463,2199,1610612751,1627747,1629058,1629066,201599,203915,0021900069,1,637,637,0,0,1610612751
49,1610612745,201566,201569,203085,203463,2199,1610612751,1627747,1629058,1629066,201599,203915,0021900069,1,655,665,0,0,1610612745
50,1610612745,201566,201569,203085,203463,2199,1610612751,1629058,1629066,201599,202681,203915,0021900069,1,670,670,0,1,1610612751
51,1610612745,201566,201569,203085,203463,2199,1610612751,1629058,1629066,201599,202681,203915,0021900069,1,681,681,3,0,1610612745
52,1610612745,201566,201569,203085,203463,2199,1610612751,1629058,1629066,201599,202681,203915,0021900069,1,693,693,0,0,1610612751
53,1610612745,201566,201569,203085,203463,2199,1610612751,1629058,1629066,201599,202681,203915,0021900069,1,699,699,2,0,1610612745
54,1610612745,201566,201569,203085,203463,2199,1610612751,1629058,1629066,201599,202681,203915,0021900069,1,718,718,0,0,1610612751
55,1610612745,201566,201569,203085,203463,2199,1610612751,1629058,1629066,201599,202681,203915,0021900069,1,720,720,0,0,1610612751
56,1610612745,201566,201569,2199,203463,203085,1610612751,203925,202681,201599,203915,1629066,0021900069,2,720,733,2,0,1610612745
57,1610612745,201566,201569,2199,203463,203085,1610612751,203925,202681,201599,203915,1629066,0021900069,2,751,751,0,0,1610612751
58,1610612745,201566,201569,2199,203463,203085,1610612751,203925,202681,201599,203915,1629066,0021900069,2,756,759,0,0,1610612745
59,1610612745,201566,201569,2199,203463,203085,1610612751,203925,202681,201599,203915,1629066,0021900069,2,765,765,0,2,1610612751
60,1610612745,201566,201569,2199,203463,203085,1610612751,203925,202681,201599,203915,1629066,0021900069,2,778,780,0,0,1610612745
61,1610612745,201566,201569,2199,203463,203085,1610612751,203925,202681,201599,203915,1629066,0021900069,2,792,795,0,0,1610612751
62,1610612745,1627863,201566,201569,203085,203463,1610612751,203925,202681,201599,203915,1629066,0021900069,2,808,812,0,0,1610612745
63,1610612745,1627863,201566,201569,203085,203463,1610612751,203925,202681,201599,203915,1629066,0021900069,2,827,827,0,0,1610612751
64,1610612745,1627863,201566,201569,203085,203463,1610612751,203925,202681,201599,203915,1629066,0021900069,2,832,833,3,0,1610612745
65,1610612745,1627863,201566,201569,203463,2199,1610612751,203925,202681,201599,203915,1629066,0021900069,2,844,844,0,2,1610612751
66,1610612745,1627863,201566,201569,203463,2199,1610612751,203925,202681,201599,203915,1629066,0021900069,2,851,851,2,0,1610612745
67,1610612745,1627863,201566,201569,203463,2199,1610612751,203925,202681,201599,203915,1629066,0021900069,2,865,865,0,2,1610612751
68,1610612745,1627863,201566,201569,203463,2199,1610612751,203925,202681,201599,203915,1629066,0021900069,2,885,885,3,0,1610612745
69,1610612745,1627863,201566,201569,203463,2199,1610612751,203925,202681,201599,203915,1629066,0021900069,2,901,901,0,0,1610612751
70,1610612745,1627863,201566,201569,203463,2199,1610612751,203925,202681,201599,203915,1629066,0021900069,2,901,921,0,0,1610612745
71,1610612745,1627863,200782,201566,201569,203991,1610612751,203925,202681,201599,203915,1629066,0021900069,2,923,933,0,0,1610612751
72,1610612745,1627863,200782,201566,201569,203991,1610612751,1627752,1629066,201599,202681,203925,0021900069,2,939,939,2,0,1610612745
73,1610612745,1627863,200782,201566,201569,203991,1610612751,1627752,1629066,201599,202681,203925,0021900069,2,947,947,0,3,1610612751
74,1610612745,1627863,200782,201569,201935,203991,1610612751,1627752,1629066,201599,202681,203925,0021900069,2,961,961,2,0,1610612745
75,1610612745,1627863,200782,201569,201935,203991,1610612751,1627752,1629066,201599,202681,203925,0021900069,2,986,986,0,3,1610612751
76,1610612745,1627863,200782,201569,201935,203991,1610612751,1627752,1629066,201599,202681,203925,0021900069,2,986,1001,2,0,1610612745
77,1610612745,1627863,200782,201569,201935,203991,1610612751,1627752,1629066,201599,202681,203925,0021900069,2,1017,1017,0,2,1610612751
78,1610612745,1627863,200782,201569,201935,203991,1610612751,1627752,1629066,201599,202681,203925,0021900069,2,1030,1047,0,0,1610612745
79,1610612745,1627863,200782,201569,201935,203991,1610612751,1627747,1627752,201599,202066,202681,0021900069,2,1059,1059,0,3,1610612751
80,1610612745,1627863,200782,201569,201935,203991,1610612751,1627747,1627752,201599,202066,202681,0021900069,2,1075,1075,2,0,1610612745
81,1610612745,1627863,200782,201569,201935,203991,1610612751,1627747,1627752,201599,202066,202681,0021900069,2,1082,1082,0,3,1610612751
82,1610612745,1627863,200782,201569,201935,203991,1610612751,1627747,1627752,201599,202066,202681,0021900069,2,1089,1089,0,0,1610612745
83,1610612745,1627863,200782,201569,201935,203991,1610612751,1627747,1627752,201599,202066,202681,0021900069,2,1097,1100,0,0,1610612751
84,1610612745,1627863,200782,201569,201935,203991,1610612751,1627747,1627752,201599,202066,202681,0021900069,2,1117,1117,2,0,1610612745
85,1610612745,1627863,200782,201569,201935,203991,1610612751,1627747,1627752,201599,202066,202681,0021900069,2,1126,1132,0,3,1610612751
86,1610612745,1627863,200782,201566,201935,203991,1610612751,1627747,1627752,1628386,202066,203915,0021900069,2,1157,1157,2,0,1610612745
87,1610612745,1627863,200782,201566,201935,203991,1610612751,1627747,1627752,1628386,202066,203915,0021900069,2,1173,1190,0,0,1610612751
88,1610612745,1627863,200782,201566,201935,203991,1610612751,1627747,1627752,1628386,202066,203915,0021900069,2,1205,1208,0,0,1610612745
89,1610612745,1627863,200782,201566,201935,203991,1610612751,1627747,1627752,1628386,202066,203915,0021900069,2,1210,1210,0,2,1610612751
90,1610612745,1627863,200782,201566,201935,203991,1610612751,1627747,1627752,1628386,202066,203915,0021900069,2,1210,1218,0,0,1610612745
91,1610612745,1627863,200782,201566,201935,203991,1610612751,1627747,1627752,1628386,202066,203915,0021900069,2,1234,1234,0,3,1610612751
92,1610612745,1627863,200782,201566,201935,203991,1610612751,1627747,1627752,1628386,202066,203915,0021900069,2,1248,1248,0,0,1610612745
93,1610612745,1627863,200782,201566,201935,203991,1610612751,1627747,1627752,1628386,202066,203915,0021900069,2,1254,1254,0,2,1610612751
94,1610612745,1627863,200782,201566,201935,203991,1610612751,1627747,1627752,1628386,202066,203915,0021900069,2,1254,1263,0,0,1610612745
95,1610612745,200782,201566,201935,203463,2199,1610612751,1627747,1627752,1628386,202066,203915,0021900069,2,1281,1283,0,1,1610612751
96,1610612745,200782,201566,201935,203463,2199,1610612751,1627747,1627752,1628386,202066,203915,0021900069,2,1289,1302,0,0,1610612745
97,1610612745,200782,201566,201935,203463,2199,1610612751,1627747,1627752,1628386,202066,203915,0021900069,2,1308,1311,0,0,1610612751
98,1610612745,200782,201566,201935,203463,2199,1610612751,1627747,1627752,1628386,202066,203915,0021900069,2,1321,1323,0,0,1610612745
99,1610612745,200782,201566,201935,203463,2199,1610612751,1627747,1627752,1628386,202066,203915,0021900069,2,1327,1327,0,2,1610612751
100,1610612745,200782,201566,201935,203463,2199,1610612751,1627747,1627752,1628386,202066,203915,0021900069,2,1346,1349,0,0,1610612745
101,1610612745,200782,201566,201935,203463,2199,1610612751,1627747,1627752,1628386,202066,203915,0021900069,2,1358,1358,0,2,1610612751
102,1610612745,200782,201566,201935,203463,2199,1610612751,1627747,1627752,1628386,202066,203915,0021900069,2,1375,1375,3,0,1610612745
103,1610612745,200782,201566,201935,203463,2199,1610612751,1627747,1627752,1628386,202066,203915,0021900069,2,1386,1386,0,2,1610612751
104,1610612745,200782,201566,201935,203463,2199,1610612751,1627747,1627752,1628386,202066,203915,0021900069,2,1390,1390,1,0,1610612745
105,1610612745,200782,201566,201935,203463,2199,1610612751,1627747,1627752,1628386,202066,203915,0021900069,2,1411,1413,0,0,1610612751
106,1610612745,200782,201566,201935,203463,2199,1610612751,1627747,1627752,1628386,202066,203915,0021900069,2,1431,1435,0,0,1610612751
107,1610612745,1627863,200782,203991,201935,201566,1610612751,203925,1627752,1628386,1627747,202681,0021900069,3,1440,1460,2,0,1610612745
108,1610612745,1627863,200782,203991,201935,201566,1610612751,203925,1627752,1628386,1627747,202681,0021900069,3,1483,1483,0,2,1610612751
109,1610612745,1627863,200782,203991,201935,201566,1610612751,203925,1627752,1628386,1627747,202681,0021900069,3,1496,1500,0,0,1610612745
110,1610612745,1627863,200782,203991,201935,201566,1610612751,203925,1627752,1628386,1627747,202681,0021900069,3,1507,1509,0,0,1610612751
111,1610612745,1627863,200782,203991,201935,201566,1610612751,203925,1627752,1628386,1627747,202681,0021900069,3,1516,1517,0,0,1610612745
112,1610612745,1627863,200782,203991,201935,201566,1610612751,203925,1627752,1628386,1627747,202681,0021900069,3,1517,1517,0,0,1610612751
113,1610612745,1627863,200782,203991,201935,201566,1610612751,203925,1627752,1628386,1627747,202681,0021900069,3,1519,1519,3,0,1610612745
114,1610612745,1627863,200782,203991,201935,201566,1610612751,203925,1627752,1628386,1627747,202681,0021900069,3,1531,1531,0,3,1610612751
115,1610612745,1627863,200782,203991,201935,201566,1610612751,203925,1627752,1628386,1627747,202681,0021900069,3,1544,1547,0,0,1610612745
116,1610612745,1627863,200782,203991,201935,201566,1610612751,203925,1627752,1628386,1627747,202681,0021900069,3,1552,1555,0,0,1610612751
117,1610612745,1627863,200782,203991,201935,201566,1610612751,203925,1627752,1628386,1627747,202681,0021900069,3,1569,1572,0,0,1610612745
118,1610612745,1627863,200782,203991,201935,201566,1610612751,203925,1627752,1628386,1627747,202681,0021900069,3,1573,1591,0,0,1610612751
119,1610612745,1627863,200782,203991,201935,201566,1610612751,203925,1627752,1628386,1627747,202681,0021900069,3,1604,1606,0,0,1610612745
120,1610612745,1627863,200782,203991,201935,201566,1610612751,203925,1627752,1628386,1627747,202681,0021900069,3,1607,1607,0,0,1610612751
121,1610612745,1627863,200782,203991,201935,201566,1610612751,203925,1627752,1628386,1627747,202681,0021900069,3,1615,1618,0,0,1610612745
122,1610612745,1627863,200782,203991,201935,201566,1610612751,203925,1627752,1628386,1627747,202681,0021900069,3,1626,1626,0,2,1610612751
123,1610612745,1627863,200782,203991,201935,201566,1610612751,203925,1627752,1628386,1627747,202681,0021900069,3,1639,1639,2,0,1610612745
124,1610612745,1627863,200782,203991,201935,201566,1610612751,203925,1627752,1628386,1627747,202681,0021900069,3,1658,1662,0,0,1610612751
125,1610612745,1627863,200782,203991,201935,201566,1610612751,203925,1627752,1628386,1627747,202681,0021900069,3,1664,1664,2,0,1610612745
126,1610612745,1627863,200782,203991,201935,201566,1610612751,203925,1627752,1628386,1627747,202681,0021900069,3,1684,1684,0,2,1610612751
127,1610612745,1627863,200782,203991,201935,201566,1610612751,203925,1627752,1628386,1627747,202681,0021900069,3,1697,1701,0,0,1610612745
128,1610612745,1627863,200782,203991,201935,201566,1610612751,203925,1627752,1628386,1627747,202681,0021900069,3,1712,1712,0,3,1610612751
129,1610612745,1627863,200782,203991,201935,201566,1610612751,203925,1627752,1628386,1627747,202681,0021900069,3,1731,1734,0,0,1610612745
130,1610612745,1627863,200782,203991,201935,201566,1610612751,203925,1627752,1628386,1627747,202681,0021900069,3,1740,1740,0,0,1610612751
131,1610612745,1627863,200782,203991,201935,201566,1610612751,203925,1627752,1628386,1627747,202681,0021900069,3,1750,1752,0,0,1610612745
132,1610612745,1627863,200782,203991,201935,201566,1610612751,203925,1627752,1628386,1627747,202681,0021900069,3,1755,1755,0,2,1610612751
133,1610612745,1627863,201569,201935,203085,203991,1610612751,203925,1627752,1628386,1627747,202681,0021900069,3,1771,1771,0,0,1610612745
134,1610612745,1627863,201569,201935,203085,203991,1610612751,203925,1627752,1628386,1627747,202681,0021900069,3,1776,1776,0,2,1610612751
135,1610612745,1627863,201569,201935,203085,203991,1610612751,203925,1627752,1628386,1627747,202681,0021900069,3,1792,1795,0,0,1610612745
136,1610612745,1627863,201569,201935,203085,203991,1610612751,203925,1627752,1628386,1627747,202681,0021900069,3,1807,1810,0,0,1610612751
137,1610612745,1627863,201569,201935,203085,203991,1610612751,203925,1627752,1628386,1627747,202681,0021900069,3,1812,1812,2,0,1610612745
138,1610612745,201569,201935,203085,203463,2199,1610612751,1627752,1628386,202066,202681,203925,0021900069,3,1824,1826,0,0,1610612751
139,1610612745,201569,201935,203085,203463,2199,1610612751,1627752,1628386,202066,202681,203925,0021900069,3,1837,1837,2,0,1610612745
140,1610612745,201569,201935,203085,203463,2199,1610612751,1627752,1628386,202066,202681,203925,0021900069,3,1854,1854,0,3,1610612751
141,1610612745,201569,201935,203085,203463,2199,1610612751,1627752,1628386,202066,202681,203925,0021900069,3,1873,1875,0,0,1610612745
142,1610612745,201569,201935,203085,203463,2199,1610612751,1627752,1628386,202066,202681,203925,0021900069,3,1888,1890,0,0,1610612751
143,1610612745,201569,201935,203085,203463,2199,1610612751,1627752,1628386,202066,202681,203925,0021900069,3,1895,1895,1,0,1610612745
144,1610612745,201569,201935,203085,203463,2199,1610612751,1627752,1628386,202066,202681,203925,0021900069,3,1903,1903,0,3,1610612751
145,1610612745,201569,201935,203085,203463,2199,1610612751,1627752,1628386,202066,202681,203925,0021900069,3,1926,1926,0,0,1610612745
146,1610612745,201569,201935,203085,203463,2199,1610612751,1627752,1628386,202066,202681,203925,0021900069,3,1932,1932,0,2,1610612751
147,1610612745,201569,201935,203085,203463,2199,1610612751,1627752,1628386,202066,202681,203925,0021900069,3,1948,1948,2,0,1610612745
148,1610612745,201569,201935,203085,203463,2199,1610612751,1627752,1628386,202066,202681,203925,0021900069,3,1961,1978,0,0,1610612751
149,1610612745,201566,201569,203085,203463,2199,1610612751,1627747,201599,202066,202681,203925,0021900069,3,1992,2005,0,0,1610612745
150,1610612745,201566,201569,203085,203463,2199,1610612751,1627747,201599,202066,202681,203925,0021900069,3,2009,2012,0,0,1610612751
151,1610612745,201566,201569,203085,203463,2199,1610612751,1627747,201599,202066,202681,203925,0021900069,3,2017,2017,2,0,1610612745
152,1610612745,201566,201569,203085,203463,2199,1610612751,1627747,201599,202066,202681,203925,0021900069,3,2034,2036,0,0,1610612751
153,1610612745,201566,201569,203085,203463,2199,1610612751,1627747,201599,202066,202681,203925,0021900069,3,2048,2048,0,0,1610612745
154,1610612745,201566,201569,203085,203463,2199,1610612751,1627747,201599,202066,202681,203925,0021900069,3,2052,2052,0,3,1610612751
155,1610612745,201566,201569,203085,203463,2199,1610612751,1627747,1629066,201599,202066,203915,0021900069,3,2060,2069,0,0,1610612745
156,1610612745,201566,201569,203085,203463,2199,1610612751,1627747,1629066,201599,202066,203915,0021900069,3,2084,2084,0,2,1610612751
157,1610612745,201566,201569,203085,203463,2199,1610612751,1627747,1629066,201599,202066,203915,0021900069,3,2094,2100,1,0,1610612745
158,1610612745,1627863,200782,201566,201569,203085,1610612751,1627747,1629066,201599,202066,203915,0021900069,3,2113,2113,0,3,1610612751
159,1610612745,1627863,200782,201566,201569,203085,1610612751,1627747,1629066,201599,202066,203915,0021900069,3,2127,2129,2,0,1610612745
160,1610612745,1627863,200782,201566,201569,203085,1610612751,1627747,201599,202066,203915,203925,0021900069,3,2142,2142,0,2,1610612751
161,1610612745,1627863,200782,201566,201569,203085,1610612751,1627747,201599,202066,203915,203925,0021900069,3,2159,2159,3,0,1610612745
162,1610612745,1627863,200782,201566,201569,203085,1610612751,203925,1627747,202066,201599,203915,0021900069,4,2160,2183,0,3,1610612751
163,1610612745,1627863,200782,201566,201569,203085,1610612751,203925,1627747,202066,201599,203915,0021900069,4,2201,2201,3,0,1610612745
164,1610612745,1627863,200782,201566,201569,203085,1610612751,203925,1627747,202066,201599,203915,0021900069,4,2220,2222,0,0,1610612751
165,1610612745,1627863,200782,201566,201569,203085,1610612751,203925,1627747,202066,201599,203915,0021900069,4,2229,2229,2,0,1610612745
166,1610612745,1627863,200782,201566,201569,203085,1610612751,203925,1627747,202066,201599,203915,0021900069,4,2247,2249,0,0,1610612751
167,1610612745,1627863,200782,201566,201569,203085,1610612751,203925,1627747,202066,201599,203915,0021900069,4,2250,2256,2,0,1610612745
168,1610612745,1627863,200782,201566,201569,203085,1610612751,203925,1627747,202066,201599,203915,0021900069,4,2266,2267,0,0,1610612751
169,1610612745,1627863,200782,201566,201569,203085,1610612751,203925,1627747,202066,201599,203915,0021900069,4,2267,2277,0,0,1610612745
170,1610612745,1627863,200782,201566,201569,203085,1610612751,1627747,1628386,202066,203915,203925,0021900069,4,2299,2299,0,0,1610612751
171,1610612745,1627863,200782,201566,201569,203085,1610612751,1627747,1628386,202066,203915,203925,0021900069,4,2306,2310,0,0,1610612745
172,1610612745,1627863,200782,201566,201569,203085,1610612751,1627747,1628386,202066,203915,203925,0021900069,4,2321,2321,0,2,1610612751
173,1610612745,1627863,200782,201566,201569,203085,1610612751,1627747,1628386,202066,203915,203925,0021900069,4,2327,2327,2,0,1610612745
174,1610612745,1627863,200782,201566,201569,203085,1610612751,1627747,1628386,202066,203915,203925,0021900069,4,2342,2342,0,2,1610612751
175,1610612745,1627863,200782,201569,201935,203463,1610612751,1627747,1628386,202066,202681,203925,0021900069,4,2355,2355,0,0,1610612745
176,1610612745,1627863,200782,201569,201935,203463,1610612751,1627747,1628386,202066,202681,203925,0021900069,4,2370,2370,0,1,1610612751
177,1610612745,1627863,200782,201569,201935,203463,1610612751,1627747,1628386,202066,202681,203925,0021900069,4,2381,2384,0,0,1610612745
178,1610612745,1627863,200782,201569,201935,203463,1610612751,1627747,1628386,202066,202681,203925,0021900069,4,2396,2398,0,0,1610612751
179,1610612745,1627863,200782,201569,201935,203463,1610612751,1627747,1628386,202066,202681,203925,0021900069,4,2406,2406,2,0,1610612745
180,1610612745,1627863,200782,201569,201935,203463,1610612751,1627747,1628386,202066,202681,203925,0021900069,4,2426,2429,0,0,1610612751
181,1610612745,1627863,200782,201569,201935,203463,1610612751,1627747,1628386,202066,202681,203925,0021900069,4,2437,2438,0,0,1610612745
182,1610612745,1627863,200782,201569,201935,203463,1610612751,1627747,1628386,202066,202681,203925,0021900069,4,2438,2438,0,0,1610612751
183,1610612745,1627863,200782,201569,201935,203463,1610612751,1627752,1628386,202066,202681,203915,0021900069,4,2451,2454,0,0,1610612745
184,1610612745,1627863,200782,201569,201935,203463,1610612751,1627752,1628386,202066,202681,203915,0021900069,4,2461,2478,0,0,1610612751
185,1610612745,1627863,200782,201566,201935,203463,1610612751,1627752,1628386,202066,202681,203915,0021900069,4,2490,2493,0,0,1610612745
186,1610612745,1627863,200782,201566,201935,203463,1610612751,1627752,1628386,202066,202681,203915,0021900069,4,2503,2503,0,1,1610612751
187,1610612745,1627863,200782,201566,201935,203463,1610612751,1627752,1628386,202066,202681,203915,0021900069,4,2517,2517,2,0,1610612745
188,1610612745,1627863,200782,201566,201935,203463,1610612751,1627752,1628386,202066,202681,203915,0021900069,4,2539,2541,0,0,1610612751
189,1610612745,1627863,200782,201566,201935,203463,1610612751,1627752,1628386,202066,202681,203915,0021900069,4,2548,2548,2,0,1610612745
190,1610612745,1627863,200782,201566,201935,203463,1610612751,1627747,1627752,1628386,202681,203925,0021900069,4,2567,2567,0,2,1610612751
191,1610612745,1627863,200782,201566,201935,203463,1610612751,1627747,1627752,1628386,202681,203925,0021900069,4,2578,2580,0,0,1610612745
192,1610612745,1627863,200782,201566,201935,203463,1610612751,1627747,1627752,1628386,202681,203925,0021900069,4,2587,2587,0,3,1610612751
193,1610612745,1627863,200782,201566,201935,203463,1610612751,1627747,1627752,1628386,202681,203925,0021900069,4,2588,2599,3,0,1610612745
194,1610612745,1627863,200782,201566,201935,203463,1610612751,1627747,1627752,1628386,202681,203925,0021900069,4,2617,2621,0,0,1610612751
195,1610612745,1627863,200782,201566,201935,203463,1610612751,1627747,1627752,1628386,202681,203925,0021900069,4,2630,2630,2,0,1610612745
196,1610612745,1627863,200782,201566,201935,203463,1610612751,1627747,1627752,1628386,202681,203925,0021900069,4,2641,2641,0,2,1610612751
197,1610612745,1627863,200782,201566,201935,203463,1610612751,1627747,1627752,1628386,202681,203925,0021900069,4,2650,2650,3,0,1610612745
198,1610612745,1627863,200782,201566,201935,203463,1610612751,1627747,1627752,1628386,202681,203925,0021900069,4,2667,2668,0,0,1610612751
199,1610612745,1627863,200782,201566,201935,203463,1610612751,1627747,1627752,1628386,202681,203925,0021900069,4,2672,2676,0,0,1610612745
200,1610612745,1627863,200782,201566,201935,203463,1610612751,1627747,1627752,1628386,202681,203925,0021900069,4,2697,2702,0,0,1610612751
201,1610612745,1627863,200782,201566,201935,203463,1610612751,1627747,1627752,1628386,202681,203925,0021900069,4,2710,2720,0,0,1610612745
202,1610612745,1627863,200782,201566,201569,201935,1610612751,1627747,1627752,1628386,202681,203925,0021900069,4,2732,2735,0,0,1610612751
203,1610612745,1627863,200782,201566,201569,201935,1610612751,1627747,1627752,1628386,202681,203925,0021900069,4,2739,2739,0,0,1610612745
204,1610612745,1627863,200782,201566,201569,201935,1610612751,1627747,1627752,1628386,202681,203925,0021900069,4,2760,2760,0,3,1610612751
205,1610612745,1627863,200782,201566,201569,201935,1610612751,1627747,1627752,1628386,202681,203925,0021900069,4,2768,2777,0,0,1610612745
206,1610612745,1627863,200782,201566,201569,201935,1610612751,1627747,1627752,1628386,202681,203925,0021900069,4,2792,2796,0,0,1610612751
207,1610612745,1627863,200782,201566,201569,201935,1610612751,1627747,1627752,1628386,202681,203925,0021900069,4,2801,2801,2,0,1610612745
208,1610612745,1627863,200782,201566,201569,201935,1610612751,1627747,1627752,1628386,202681,203925,0021900069,4,2825,2825,0,3,1610612751
209,1610612745,1627863,200782,201566,201569,201935,1610612751,1627747,1627752,1628386,202681,203925,0021900069,4,2832,2836,0,0,1610612745
210,1610612745,1627863,200782,201566,201569,201935,1610612751,1627747,1627752,1628386,202681,203925,0021900069,4,2839,2839,0,1,1610612751
211,1610612745,1627863,200782,201566,201569,201935,1610612751,1627747,1627752,202066,202681,203925,0021900069,4,2844,2844,2,0,1610612745
212,1610612745,1627863,200782,201566,201569,201935,1610612751,1627747,1627752,202066,202681,203925,0021900069,4,2846,2846,0,2,1610612751
213,1610612745,1627863,200782,201566,201569,201935,1610612751,1627747,1627752,202066,202681,203925,0021900069,4,2853,2853,2,0,1610612745
214,1610612745,1627863,200782,201566,201569,201935,1610612751,1627747,1627752,202066,202681,203925,0021900069,4,2853,2855,0,2,1610612751
215,1610612745,1627863,200782,201566,201569,201935,1610612751,1627747,1627752,202066,202681,203925,0021900069,4,2863,2863,2,0,1610612745
216,1610612745,1627863,200782,201566,201569,201935,1610612751,1627747,1627752,202066,202681,203925,0021900069,4,2866,2866,0,1,1610612751
217,1610612745,1627863,200782,201566,201569,201935,1610612751,1627747,1627752,202066,202681,203925,0021900069,4,2872,2872,2,0,1610612745
