,TEAM_ID_1,TEAM_1_PLAYERS,TEAM_ID_2,TEAM_2_PLAYERS,PERIOD
0,1610612748,[ 202710  203482 1628389 1629130 1629134],1610612745,[1630256  200782  202326  203506  202322],1
1,1610612748,[1628389 1629130 1629134    2738 1629216],1610612745,[1630256  201569 1627863 1628425 1628021],2
2,1610612748,[ 202710  203482 1628389 1629130 1629134],1610612745,[1630256  200782  202326  202322  201569],3
3,1610612748,[1628389 1629130 1629134 1629622    2738],1610612745,[1630256  201569 1627863 1628425  203463],4
