,TEAM_ID_1,TEAM_1_PLAYERS,TEAM_ID_2,TEAM_2_PLAYERS,PERIOD
0,1610612759,[ 201942  200746 1626168 1629022 1628401],1610612749,[203114 203507 201572 202083 202339],1
1,1610612759,[ 201988 1627854  200752  201158 1627751],1610612749,[ 203507  202339 1626192  201577    2594],2
2,1610612759,[ 201942  200746 1626168 1629022 1628401],1610612749,[203114 203507 201572 202083 202339],3
3,1610612759,[ 201942  200746 1628401  200752  201158],1610612749,[ 202339 1626192  201577  101141    2594],4
