,team1_id,team1_player1,team1_player2,team1_player3,team1_player4,team1_player5,team2_id,team2_player1,team2_player2,team2_player3,team2_player4,team2_player5,game_id,period,possession_start,possession_end,team1_points,team2_points,possession_team
0,1610612746,202695,201587,201586,202331,202704,1610612739,1630171,1627752,203083,1629012,1629636,0022000328,1,0,33,0,0,1610612739
1,1610612746,202695,201587,201586,202331,202704,1610612739,1630171,1627752,203083,1629012,1629636,0022000328,1,42,44,0,0,1610612746
2,1610612746,202695,201587,201586,202331,202704,1610612739,1630171,1627752,203083,1629012,1629636,0022000328,1,49,49,0,2,1610612739
3,1610612746,202695,201587,201586,202331,202704,1610612739,1630171,1627752,203083,1629012,1629636,0022000328,1,71,71,2,0,1610612746
4,1610612746,202695,201587,201586,202331,202704,1610612739,1630171,1627752,203083,1629012,1629636,0022000328,1,89,89,0,2,1610612739
5,1610612746,202695,201587,201586,202331,202704,1610612739,1630171,1627752,203083,1629012,1629636,0022000328,1,106,106,3,0,1610612746
6,1610612746,202695,201587,201586,202331,202704,1610612739,1630171,1627752,203083,1629012,1629636,0022000328,1,135,135,0,2,1610612739
7,1610612746,202695,201587,201586,202331,202704,1610612739,1630171,1627752,203083,1629012,1629636,0022000328,1,149,158,2,0,1610612746
8,1610612746,202695,201587,201586,202331,202704,1610612739,1630171,1627752,203083,1629012,1629636,0022000328,1,177,179,0,0,1610612739
9,1610612746,202695,201587,201586,202331,202704,1610612739,1630171,1627752,203083,1629012,1629636,0022000328,1,185,185,2,0,1610612746
10,1610612746,202695,201587,201586,202331,202704,1610612739,1630171,1627752,203083,1629012,1629636,0022000328,1,197,199,0,0,1610612739
11,1610612746,202695,201587,201586,202331,202704,1610612739,1630171,1627752,203083,1629012,1629636,0022000328,1,209,209,1,0,1610612746
12,1610612746,202695,201587,201586,202331,202704,1610612739,1630171,1627752,203083,1629012,1629636,0022000328,1,226,230,0,0,1610612739
13,1610612746,202695,201587,201586,202331,202704,1610612739,1630171,1627752,203083,1629012,1629636,0022000328,1,237,237,3,0,1610612746
14,1610612746,202695,201587,201586,202331,202704,1610612739,1630171,1627752,203083,1629012,1629636,0022000328,1,247,247,0,3,1610612739
15,1610612746,202695,201587,201586,202331,202704,1610612739,1630171,1627752,203083,1629012,1629636,0022000328,1,260,260,3,0,1610612746
16,1610612746,202695,201587,201586,202331,202704,1610612739,1630171,1627752,203083,1629012,1629636,0022000328,1,273,273,0,2,1610612739
17,1610612746,202695,201587,201586,202331,202704,1610612739,1630171,1627752,203083,1629012,1629636,0022000328,1,284,284,2,0,1610612746
18,1610612746,202695,201587,201586,202331,202704,1610612739,1630171,1627752,203083,1629012,1629636,0022000328,1,292,303,0,2,1610612739
19,1610612746,202695,201587,201586,202331,202704,1610612739,1630171,1627752,203083,1629012,1629636,0022000328,1,319,319,2,0,1610612746
20,1610612746,202695,201587,201586,202331,202704,1610612739,1630171,1627752,203083,1629012,1629636,0022000328,1,329,338,0,2,1610612739
21,1610612746,202695,201587,201586,202331,202704,1610612739,1630171,1627752,203083,1629012,1629636,0022000328,1,359,359,3,0,1610612746
22,1610612746,202695,201587,201586,202331,202704,1610612739,1630171,1627752,203083,1629012,1629636,0022000328,1,378,386,0,0,1610612739
23,1610612746,202695,201587,201586,202331,202704,1610612739,1630171,1627752,203083,1629012,1629636,0022000328,1,400,400,2,0,1610612746
24,1610612746,202695,201587,201586,202331,202704,1610612739,1630171,1627752,203083,1629012,1629636,0022000328,1,414,415,0,0,1610612739
25,1610612746,202695,201587,201586,202331,202704,1610612739,1630171,1627752,203083,1629012,1629636,0022000328,1,426,426,2,0,1610612746
26,1610612746,101150,201586,202331,202694,202695,1610612739,1626224,1627752,1628386,1629636,1630171,0022000328,1,440,446,0,2,1610612739
27,1610612746,101150,201586,202331,202694,202695,1610612739,1626224,1627752,1628386,1629636,1630171,0022000328,1,456,467,3,0,1610612746
28,1610612746,101150,201586,202331,202694,202695,1610612739,1626224,1628386,1629636,1629685,1630171,0022000328,1,481,483,0,0,1610612739
29,1610612746,101150,201586,202331,202694,202695,1610612739,1626224,1628386,1629636,1629685,1630171,0022000328,1,494,496,0,0,1610612746
30,1610612746,101150,201586,202331,202694,202695,1610612739,1626224,1628386,1629636,1629685,1630171,0022000328,1,506,506,0,2,1610612739
31,1610612746,101150,201586,202331,202694,202695,1610612739,1626224,1628386,1629636,1629685,1630171,0022000328,1,507,526,0,0,1610612746
32,1610612746,101150,1627826,1628379,202694,202695,1610612739,1626224,1628386,1629636,1629685,1630171,0022000328,1,531,534,0,0,1610612739
33,1610612746,101150,1627826,1628379,202694,202695,1610612739,1626224,1628386,1629636,1629685,1630171,0022000328,1,537,539,0,0,1610612746
34,1610612746,101150,1627826,1628379,202694,202695,1610612739,1626224,1628386,1629636,1629685,1630171,0022000328,1,546,551,0,0,1610612739
35,1610612746,101150,1627826,1628379,202694,202695,1610612739,1626224,1628386,1629636,1629685,1630205,0022000328,1,566,569,0,0,1610612746
36,1610612746,101150,1627826,1628379,202694,202695,1610612739,1626224,1628386,1629636,1629685,1630205,0022000328,1,574,574,0,2,1610612739
37,1610612746,101150,1627826,1628379,202694,202695,1610612739,1626224,1628386,1629636,1629685,1630205,0022000328,1,602,602,3,0,1610612746
38,1610612746,101150,1627826,1628379,202694,202695,1610612739,1626224,1628386,1629636,1629685,1630205,0022000328,1,616,616,0,2,1610612739
39,1610612746,101150,1627826,1628379,202694,202695,1610612739,1626224,1628386,1629636,1629685,1630205,0022000328,1,640,640,0,0,1610612746
40,1610612746,101150,1627826,1628379,202331,202694,1610612739,1626224,1628386,1629636,1629685,1630205,0022000328,1,658,663,0,0,1610612739
41,1610612746,101150,1627826,1628379,202331,202694,1610612739,1626224,1628386,1629636,1629685,1630205,0022000328,1,679,681,0,0,1610612746
42,1610612746,101150,1627826,1628379,202331,202694,1610612739,1626224,1628386,1629636,1629685,1630205,0022000328,1,688,688,0,2,1610612739
43,1610612746,101150,1627826,1628379,202331,202694,1610612739,1626224,1628386,1629636,1629685,1630205,0022000328,1,710,712,0,0,1610612746
44,1610612746,101150,1627826,1628379,202331,202694,1610612739,1626224,1628386,1629636,1629685,1630205,0022000328,1,716,716,0,0,1610612739
45,1610612746,101150,1627826,1628379,202331,202694,1610612739,1626224,1628386,1629636,1629685,1630205,0022000328,1,720,720,0,0,1610612739
46,1610612746,202331,101150,202694,1628379,1627826,1610612739,1629012,1626224,1628386,1629685,1630205,0022000328,2,720,741,0,0,1610612746
47,1610612746,202331,101150,202694,1628379,1627826,1610612739,1629012,1626224,1628386,1629685,1630205,0022000328,2,755,755,0,2,1610612739
48,1610612746,202331,101150,202694,1628379,1627826,1610612739,1629012,1626224,1628386,1629685,1630205,0022000328,2,774,774,2,0,1610612746
49,1610612746,202331,101150,202694,1628379,1627826,1610612739,1629012,1626224,1628386,1629685,1630205,0022000328,2,789,807,0,0,1610612739
50,1610612746,202331,101150,202694,1628379,1627826,1610612739,1629012,1626224,1628386,1629685,1630205,0022000328,2,810,810,3,0,1610612746
51,1610612746,202331,101150,202694,1628379,1627826,1610612739,1629012,1626224,1628386,1629685,1630205,0022000328,2,830,832,0,0,1610612739
52,1610612746,202331,101150,202694,1628379,1627826,1610612739,1629012,1626224,1628386,1629685,1630205,0022000328,2,840,840,0,0,1610612746
53,1610612746,202331,101150,202694,1628379,1627826,1610612739,1629012,1626224,1628386,1629685,1630205,0022000328,2,851,853,0,0,1610612739
54,1610612746,202331,101150,202694,1628379,1627826,1610612739,1629012,1626224,1628386,1629685,1630205,0022000328,2,861,861,0,0,1610612746
55,1610612746,202331,101150,202694,1628379,1627826,1610612739,1629012,1626224,1628386,1629685,1630205,0022000328,2,867,877,0,2,1610612739
56,1610612746,202331,101150,202694,1628379,1627826,1610612739,1629012,1626224,1628386,1629685,1630205,0022000328,2,889,892,0,0,1610612746
57,1610612746,202331,101150,202694,1628379,1627826,1610612739,1629012,1626224,1628386,1629685,1630205,0022000328,2,905,912,0,2,1610612739
58,1610612746,202331,101150,202694,1628379,1627826,1610612739,1629012,1626224,1628386,1629685,1630205,0022000328,2,912,921,1,0,1610612746
59,1610612746,202331,101150,202694,1628379,1627826,1610612739,1629012,1626224,1628386,1629685,1630205,0022000328,2,938,938,0,2,1610612739
60,1610612746,202331,101150,202694,1628379,1627826,1610612739,1629012,1626224,1628386,1629685,1630205,0022000328,2,949,953,0,0,1610612746
61,1610612746,202331,101150,202694,1628379,1627826,1610612739,1629012,1626224,1628386,1629685,1630205,0022000328,2,954,976,0,0,1610612739
62,1610612746,202331,101150,202694,1628379,1627826,1610612739,1629012,1626224,1628386,1629685,1630205,0022000328,2,976,988,0,0,1610612746
63,1610612746,202331,101150,202694,1628379,1627826,1610612739,1629012,1626224,1628386,1629685,1630205,0022000328,2,996,998,0,0,1610612739
64,1610612746,202331,101150,202694,1628379,1627826,1610612739,1629012,1626224,1628386,1629685,1630205,0022000328,2,1018,1019,0,0,1610612746
65,1610612746,202331,101150,202694,1628379,1627826,1610612739,1629012,1626224,1628386,1629685,1630205,0022000328,2,1019,1030,0,2,1610612739
66,1610612746,1627826,1628379,201587,202694,202704,1610612739,1627752,1628386,1629012,1629636,1630171,0022000328,2,1031,1044,0,0,1610612746
67,1610612746,201586,201587,202694,202695,202704,1610612739,1627752,1628386,1629012,1629636,1630171,0022000328,2,1055,1055,0,2,1610612739
68,1610612746,201586,201587,202694,202695,202704,1610612739,1627752,1628386,1629012,1629636,1630171,0022000328,2,1076,1076,0,0,1610612746
69,1610612746,201586,201587,202694,202695,202704,1610612739,1627752,1628386,1629012,1629636,1630171,0022000328,2,1087,1087,0,2,1610612739
70,1610612746,201586,201587,202694,202695,202704,1610612739,1627752,1628386,1629012,1629636,1630171,0022000328,2,1104,1104,0,0,1610612746
71,1610612746,201586,201587,202694,202695,202704,1610612739,1627752,1628386,1629012,1629636,1630171,0022000328,2,1109,1109,0,2,1610612739
72,1610612746,201586,201587,202694,202695,202704,1610612739,1627752,1628386,1629012,1629636,1630171,0022000328,2,1136,1139,0,0,1610612746
73,1610612746,201586,201587,202694,202695,202704,1610612739,1627752,1628386,1629012,1629636,1630171,0022000328,2,1153,1156,0,0,1610612739
74,1610612746,201586,201587,202694,202695,202704,1610612739,1627752,1628386,1629012,1629636,1630171,0022000328,2,1169,1172,0,0,1610612746
75,1610612746,201586,201587,202694,202695,202704,1610612739,1627752,1628386,1629012,1629636,1630171,0022000328,2,1182,1205,0,2,1610612739
76,1610612746,201586,201587,202331,202695,202704,1610612739,1627752,1629012,1629636,1630171,203083,0022000328,2,1217,1221,0,0,1610612746
77,1610612746,201586,201587,202331,202695,202704,1610612739,1627752,1629012,1629636,1630171,203083,0022000328,2,1240,1243,0,0,1610612739
78,1610612746,201586,201587,202331,202695,202704,1610612739,1627752,1629012,1629636,1630171,203083,0022000328,2,1252,1252,2,0,1610612746
79,1610612746,201586,201587,202331,202695,202704,1610612739,1627752,1629012,1629636,1630171,203083,0022000328,2,1265,1265,0,2,1610612739
80,1610612746,201586,201587,202331,202695,202704,1610612739,1627752,1629012,1629636,1630171,203083,0022000328,2,1291,1291,2,0,1610612746
81,1610612746,201586,201587,202331,202695,202704,1610612739,1627752,1629012,1629636,1630171,203083,0022000328,2,1311,1311,0,2,1610612739
82,1610612746,201586,201587,202331,202695,202704,1610612739,1627752,1629012,1629636,1630205,203083,0022000328,2,1332,1332,2,0,1610612746
83,1610612746,201586,201587,202331,202695,202704,1610612739,1627752,1629012,1629636,1630205,203083,0022000328,2,1346,1346,0,0,1610612739
84,1610612746,201586,201587,202331,202695,202704,1610612739,1627752,1629012,1629636,1630205,203083,0022000328,2,1365,1369,3,0,1610612746
85,1610612746,201586,201587,202331,202695,202704,1610612739,1627752,1629012,1629636,1630205,203083,0022000328,2,1388,1390,0,0,1610612739
86,1610612746,1628379,201586,201587,202695,202704,1610612739,1627752,1629012,1629636,1630205,203083,0022000328,2,1407,1407,2,0,1610612746
87,1610612746,1628379,201586,201587,202695,202704,1610612739,1627752,1629012,1629636,1630205,203083,0022000328,2,1416,1416,0,0,1610612739
88,1610612746,1628379,201586,201587,202695,202704,1610612739,1627752,1629012,1629636,1630205,203083,0022000328,2,1420,1420,0,0,1610612746
89,1610612746,1628379,201586,201587,202695,202704,1610612739,1627752,1629012,1629636,1630205,203083,0022000328,2,1421,1421,0,2,1610612739
90,1610612746,1628379,201586,201587,202695,202704,1610612739,1627752,1629012,1629636,1630205,203083,0022000328,2,1440,1440,2,0,1610612746
91,1610612746,1628379,201586,201587,202695,202704,1610612739,1627752,1629012,1629636,1630205,203083,0022000328,2,1440,1458,0,0,1610612746
92,1610612746,202695,201587,201586,202331,202704,1610612739,1630171,1627752,203083,1629012,1629636,0022000328,3,1478,1480,0,0,1610612739
93,1610612746,202695,201587,201586,202331,202704,1610612739,1630171,1627752,203083,1629012,1629636,0022000328,3,1494,1494,2,0,1610612746
94,1610612746,202695,201587,201586,202331,202704,1610612739,1630171,1627752,203083,1629012,1629636,0022000328,3,1513,1516,0,0,1610612739
95,1610612746,202695,201587,201586,202331,202704,1610612739,1630171,1627752,203083,1629012,1629636,0022000328,3,1522,1522,3,0,1610612746
96,1610612746,202695,201587,201586,202331,202704,1610612739,1630171,1627752,203083,1629012,1629636,0022000328,3,1543,1546,0,0,1610612739
97,1610612746,202695,201587,201586,202331,202704,1610612739,1630171,1627752,203083,1629012,1629636,0022000328,3,1557,1557,2,0,1610612746
98,1610612746,202695,201587,201586,202331,202704,1610612739,1630171,1627752,203083,1629012,1629636,0022000328,3,1558,1587,0,0,1610612739
99,1610612746,202695,201587,201586,202331,202704,1610612739,1630171,1627752,203083,1629012,1629636,0022000328,3,1594,1594,2,0,1610612746
100,1610612746,202695,201587,201586,202331,202704,1610612739,1630171,1627752,203083,1629012,1629636,0022000328,3,1612,1614,0,0,1610612739
101,1610612746,202695,201587,201586,202331,202704,1610612739,1630171,1627752,203083,1629012,1629636,0022000328,3,1620,1623,0,0,1610612746
102,1610612746,202695,201587,201586,202331,202704,1610612739,1630171,1627752,203083,1629012,1629636,0022000328,3,1635,1636,0,2,1610612739
103,1610612746,202695,201587,201586,202331,202704,1610612739,1630171,1627752,203083,1629012,1629636,0022000328,3,1656,1662,2,0,1610612746
104,1610612746,202695,201587,201586,202331,202704,1610612739,1630171,1627752,203083,1629012,1629636,0022000328,3,1662,1684,0,2,1610612739
105,1610612746,202695,201587,201586,202331,202704,1610612739,1630171,1627752,203083,1629012,1629636,0022000328,3,1700,1700,0,0,1610612746
106,1610612746,202695,201587,201586,202331,202704,1610612739,1630171,1627752,203083,1629012,1629636,0022000328,3,1702,1702,0,0,1610612739
107,1610612746,202695,201587,201586,202331,202704,1610612739,1630171,1627752,203083,1629012,1629636,0022000328,3,1719,1719,3,0,1610612746
108,1610612746,202695,201587,201586,202331,202704,1610612739,1630171,1627752,203083,1629012,1629636,0022000328,3,1740,1740,0,2,1610612739
109,1610612746,1627826,201587,202331,202695,202704,1610612739,1630171,1627752,203083,1629012,1629636,0022000328,3,1751,1751,0,0,1610612746
110,1610612746,1627826,201587,202331,202695,202704,1610612739,1630171,1627752,203083,1629012,1629636,0022000328,3,1765,1765,0,2,1610612739
111,1610612746,1627826,201587,202331,202695,202704,1610612739,1630171,1627752,203083,1629012,1629636,0022000328,3,1779,1779,0,0,1610612746
112,1610612746,1627826,201587,202331,202695,202704,1610612739,1630171,1627752,203083,1629012,1629636,0022000328,3,1798,1798,0,2,1610612739
113,1610612746,1627826,201587,202331,202695,202704,1610612739,1630171,1627752,203083,1629012,1629636,0022000328,3,1809,1809,3,0,1610612746
114,1610612746,1627826,201587,202331,202695,202704,1610612739,1630171,1627752,203083,1629012,1629636,0022000328,3,1822,1822,0,0,1610612739
115,1610612746,1627826,201587,202331,202695,202704,1610612739,1630171,1627752,203083,1629012,1629636,0022000328,3,1835,1835,3,0,1610612746
116,1610612746,1627826,201587,202331,202695,202704,1610612739,1630171,1627752,203083,1629012,1629636,0022000328,3,1852,1854,0,0,1610612739
117,1610612746,1627826,201587,202331,202695,202704,1610612739,1630171,1627752,203083,1629012,1629636,0022000328,3,1865,1867,0,0,1610612746
118,1610612746,1627826,201587,202331,202695,202704,1610612739,1630171,1627752,203083,1629012,1629636,0022000328,3,1873,1873,0,3,1610612739
119,1610612746,1627826,201587,202331,202695,202704,1610612739,1630171,1627752,203083,1629012,1629636,0022000328,3,1882,1898,2,0,1610612746
120,1610612746,101150,1627826,202694,202695,202704,1610612739,1626224,1627752,1628386,1629636,1630171,0022000328,3,1898,1919,0,0,1610612739
121,1610612746,101150,1627826,202694,202695,202704,1610612739,1626224,1627752,1628386,1629636,1630171,0022000328,3,1924,1924,3,0,1610612746
122,1610612746,101150,1627826,202694,202695,202704,1610612739,1626224,1627752,1628386,1629636,1630171,0022000328,3,1951,1951,0,2,1610612739
123,1610612746,101150,1627826,202694,202695,202704,1610612739,1626224,1627752,1628386,1629636,1630171,0022000328,3,1974,1977,0,0,1610612746
124,1610612746,101150,1627826,202694,202695,202704,1610612739,1626224,1627752,1628386,1629636,1630171,0022000328,3,1984,1984,0,2,1610612739
125,1610612746,101150,1627826,202694,202695,202704,1610612739,1626224,1627752,1628386,1629636,1630171,0022000328,3,1998,1998,2,0,1610612746
126,1610612746,101150,1627826,1628379,202694,202695,1610612739,1626224,1628386,1629636,1629685,1630205,0022000328,3,2008,2011,0,3,1610612739
127,1610612746,101150,1627826,1628379,202694,202695,1610612739,1626224,1628386,1629636,1629685,1630205,0022000328,3,2028,2028,0,0,1610612746
128,1610612746,101150,1627826,1628379,202694,202695,1610612739,1626224,1628386,1629636,1629685,1630205,0022000328,3,2034,2042,0,2,1610612739
129,1610612746,101150,1627826,1628379,202694,202695,1610612739,1626224,1628386,1629636,1629685,1630205,0022000328,3,2047,2057,2,0,1610612746
130,1610612746,101150,1627826,1628379,202694,202695,1610612739,1626224,1628386,1629636,1629685,1630205,0022000328,3,2069,2069,0,0,1610612739
131,1610612746,101150,1627826,1628379,202694,202695,1610612739,1626224,1628386,1629636,1629685,1630205,0022000328,3,2088,2088,1,0,1610612746
132,1610612746,101150,1627826,1628379,202694,202695,1610612739,1626224,1628386,1629636,1629685,1630205,0022000328,3,2096,2099,0,0,1610612739
133,1610612746,101150,1627826,1628379,202694,202695,1610612739,1626224,1628386,1629636,1629685,1630205,0022000328,3,2110,2118,0,0,1610612746
134,1610612746,101150,1627826,1628379,202694,202695,1610612739,1626224,1628386,1629636,1629685,1630205,0022000328,3,2121,2124,0,1,1610612739
135,1610612746,101150,1627826,1628379,202331,202694,1610612739,1627752,1628386,1629636,1630171,1630205,0022000328,3,2133,2133,3,0,1610612746
136,1610612746,101150,1627826,1628379,202331,202694,1610612739,1627752,1628386,1629636,1630171,1630205,0022000328,3,2153,2153,0,2,1610612739
137,1610612746,101150,1627826,1628379,202331,202694,1610612739,1627752,1628386,1629636,1630171,1630205,0022000328,3,2160,2160,3,0,1610612746
138,1610612746,101150,1627826,1628379,202331,202694,1610612739,1627752,1628386,1629636,1630171,1630205,0022000328,3,2160,2174,0,3,1610612739
139,1610612746,202331,101150,202694,1628379,1627826,1610612739,1629012,1626224,1628386,1629685,1630205,0022000328,4,2194,2194,1,0,1610612746
140,1610612746,202331,101150,202694,1628379,1627826,1610612739,1629012,1626224,1628386,1629685,1630205,0022000328,4,2208,2208,0,2,1610612739
141,1610612746,202331,101150,202694,1628379,1627826,1610612739,1629012,1626224,1628386,1629685,1630205,0022000328,4,2227,2227,3,0,1610612746
142,1610612746,202331,101150,202694,1628379,1627826,1610612739,1629012,1626224,1628386,1629685,1630205,0022000328,4,2243,2243,0,2,1610612739
143,1610612746,202331,101150,202694,1628379,1627826,1610612739,1629012,1626224,1628386,1629685,1630205,0022000328,4,2252,2252,2,0,1610612746
144,1610612746,202331,101150,202694,1628379,1627826,1610612739,1629012,1626224,1628386,1629685,1630205,0022000328,4,2262,2271,0,2,1610612739
145,1610612746,202331,101150,202694,1628379,1627826,1610612739,1629012,1626224,1628386,1629685,1630205,0022000328,4,2292,2292,2,0,1610612746
146,1610612746,202331,101150,202694,1628379,1627826,1610612739,1629012,1626224,1628386,1629685,1630205,0022000328,4,2308,2308,0,2,1610612739
147,1610612746,202331,101150,202694,1628379,1627826,1610612739,1629012,1626224,1628386,1629685,1630205,0022000328,4,2316,2316,2,0,1610612746
148,1610612746,202331,101150,202694,1628379,1627826,1610612739,1629012,1626224,1628386,1629685,1630205,0022000328,4,2331,2331,0,3,1610612739
149,1610612746,202331,101150,202694,1628379,1627826,1610612739,1629012,1626224,1628386,1629685,1630205,0022000328,4,2357,2370,3,0,1610612746
150,1610612746,202331,101150,202694,1628379,1627826,1610612739,1629012,1626224,1628386,1629685,1630205,0022000328,4,2383,2387,0,0,1610612739
151,1610612746,202331,101150,202694,1628379,1627826,1610612739,1629012,1626224,1628386,1629685,1630205,0022000328,4,2395,2398,0,0,1610612746
152,1610612746,202331,101150,202694,1628379,1627826,1610612739,1629012,1626224,1628386,1629685,1630205,0022000328,4,2404,2407,0,0,1610612739
153,1610612746,202331,101150,202694,1628379,1627826,1610612739,1629012,1626224,1628386,1629685,1630205,0022000328,4,2410,2413,0,0,1610612746
154,1610612746,202331,101150,202694,1628379,1627826,1610612739,1629012,1626224,1628386,1629685,1630205,0022000328,4,2424,2424,0,0,1610612739
155,1610612746,202331,101150,202694,1628379,1627826,1610612739,1629012,1626224,1628386,1629685,1630205,0022000328,4,2424,2443,0,0,1610612746
156,1610612746,202331,101150,202694,1628379,1627826,1610612739,1627752,1629012,1629636,1630171,203083,0022000328,4,2445,2446,0,0,1610612739
157,1610612746,202331,101150,202694,1628379,1627826,1610612739,1627752,1629012,1629636,1630171,203083,0022000328,4,2446,2446,0,0,1610612746
158,1610612746,202331,101150,202694,1628379,1627826,1610612739,1627752,1629012,1629636,1630171,203083,0022000328,4,2446,2463,0,2,1610612739
159,1610612746,202331,101150,202694,1628379,1627826,1610612739,1627752,1629012,1629636,1630171,203083,0022000328,4,2469,2469,2,0,1610612746
160,1610612746,202331,101150,202694,1628379,1627826,1610612739,1627752,1629012,1629636,1630171,203083,0022000328,4,2481,2494,0,3,1610612739
161,1610612746,101150,1627826,202331,202694,202695,1610612739,1627752,1629012,1629636,1630171,203083,0022000328,4,2508,2508,2,0,1610612746
162,1610612746,101150,1627826,201587,202331,202695,1610612739,1627752,1629012,1629636,1630171,203083,0022000328,4,2527,2529,0,0,1610612739
163,1610612746,101150,1627826,201587,202331,202695,1610612739,1627752,1629012,1629636,1630171,203083,0022000328,4,2538,2538,2,0,1610612746
164,1610612746,101150,1627826,201587,202331,202695,1610612739,1627752,1629012,1629636,1630171,203083,0022000328,4,2553,2568,0,0,1610612739
165,1610612746,101150,1627826,201587,202331,202695,1610612739,1627752,1629012,1629636,1630171,203083,0022000328,4,2571,2571,3,0,1610612746
166,1610612746,101150,1627826,201587,202331,202695,1610612739,1627752,1629012,1629636,1630171,203083,0022000328,4,2590,2592,0,0,1610612739
167,1610612746,101150,1627826,201587,202331,202695,1610612739,1627752,1629012,1629636,1630171,203083,0022000328,4,2607,2607,2,0,1610612746
168,1610612746,101150,1627826,201587,202331,202695,1610612739,1627752,1629012,1629636,1630171,203083,0022000328,4,2630,2630,0,0,1610612739
169,1610612746,101150,1627826,201587,202331,202695,1610612739,1627752,1629012,1629636,1630171,203083,0022000328,4,2642,2642,3,0,1610612746
170,1610612746,101150,1627826,201587,202331,202695,1610612739,1627752,1629012,1629636,1630171,203083,0022000328,4,2644,2663,0,0,1610612739
171,1610612746,1627826,1628379,1629599,1629611,1629662,1610612739,1628386,1629012,1629685,1629731,1630205,0022000328,4,2673,2673,0,0,1610612746
172,1610612746,1627826,1628379,1629599,1629611,1629662,1610612739,1628386,1629012,1629685,1629731,1630205,0022000328,4,2677,2677,0,2,1610612739
173,1610612746,1627826,1628379,1629599,1629611,1629662,1610612739,1628386,1629012,1629685,1629731,1630205,0022000328,4,2699,2706,0,0,1610612746
174,1610612746,1627826,1628379,1629599,1629611,1629662,1610612739,1628386,1629012,1629685,1629731,1630205,0022000328,4,2712,2715,0,0,1610612739
175,1610612746,1627826,1628379,1629599,1629611,1629662,1610612739,1628386,1629012,1629685,1629731,1630205,0022000328,4,2721,2721,3,0,1610612746
176,1610612746,1627826,1628379,1629599,1629611,1629662,1610612739,1628386,1629012,1629685,1629731,1630205,0022000328,4,2746,2748,0,0,1610612739
177,1610612746,1627826,1628379,1629599,1629611,1629662,1610612739,1628386,1629012,1629685,1629731,1630205,0022000328,4,2752,2756,0,0,1610612746
178,1610612746,1627826,1628379,1629599,1629611,1629662,1610612739,1628386,1629012,1629685,1629731,1630205,0022000328,4,2764,2777,0,0,1610612739
179,1610612746,1627826,1628379,1629599,1629611,1629662,1610612739,1628386,1629012,1629685,1629731,1630205,0022000328,4,2786,2790,0,0,1610612746
180,1610612746,1627826,1628379,1629599,1629611,1629662,1610612739,1628386,1629012,1629685,1629731,1630205,0022000328,4,2794,2794,0,1,1610612739
181,1610612746,1627826,1628379,1629599,1629611,1629662,1610612739,1628386,1629012,1629685,1629731,1630205,0022000328,4,2807,2810,0,0,1610612746
182,1610612746,1627826,1628379,1629599,1629611,1629662,1610612739,1628386,1629012,1629685,1629731,1630205,0022000328,4,2813,2815,0,0,1610612739
183,1610612746,1627826,1628379,1629599,1629611,1629662,1610612739,1628386,1629012,1629685,1629731,1630205,0022000328,4,2827,2827,0,0,1610612746
184,1610612746,1627826,1628379,1629599,1629611,1629662,1610612739,1628386,1629012,1629685,1629731,1630205,0022000328,4,2830,2830,0,3,1610612739
185,1610612746,1627826,1628379,1629599,1629611,1629662,1610612739,1628386,1629012,1629685,1629731,1630205,0022000328,4,2843,2843,3,0,1610612746
186,1610612746,1627826,1628379,1629599,1629611,1629662,1610612739,1628386,1629012,1629685,1629731,1630205,0022000328,4,2856,2862,0,0,1610612739
187,1610612746,1627826,1628379,1629599,1629611,1629662,1610612739,1628386,1629012,1629685,1629731,1630205,0022000328,4,2880,2880,0,0,1610612746
