,team1_id,team1_player1,team1_player2,team1_player3,team1_player4,team1_player5,team2_id,team2_player1,team2_player2,team2_player3,team2_player4,team2_player5,game_id,period,possession_start,possession_end,team1_points,team2_points,possession_team
0,1610612761,1628384,1627783,201188,1627832,200768,1610612738,1628369,1627759,1628464,203935,202689,0041900216,1,0,22,1,0,1610612761
1,1610612761,1628384,1627783,201188,1627832,200768,1610612738,1628369,1627759,1628464,203935,202689,0041900216,1,38,38,0,0,1610612738
2,1610612761,1628384,1627783,201188,1627832,200768,1610612738,1628369,1627759,1628464,203935,202689,0041900216,1,47,48,0,0,1610612761
3,1610612761,1628384,1627783,201188,1627832,200768,1610612738,1628369,1627759,1628464,203935,202689,0041900216,1,48,59,0,3,1610612738
4,1610612761,1628384,1627783,201188,1627832,200768,1610612738,1628369,1627759,1628464,203935,202689,0041900216,1,81,82,0,0,1610612761
5,1610612761,1628384,1627783,201188,1627832,200768,1610612738,1628369,1627759,1628464,203935,202689,0041900216,1,98,98,0,0,1610612738
6,1610612761,1628384,1627783,201188,1627832,200768,1610612738,1628369,1627759,1628464,203935,202689,0041900216,1,101,101,1,0,1610612761
7,1610612761,1628384,1627783,201188,1627832,200768,1610612738,1628369,1627759,1628464,203935,202689,0041900216,1,111,119,0,0,1610612738
8,1610612761,1628384,1627783,201188,1627832,200768,1610612738,1628369,1627759,1628464,203935,202689,0041900216,1,125,135,0,0,1610612761
9,1610612761,1628384,1627783,201188,1627832,200768,1610612738,1628369,1627759,1628464,203935,202689,0041900216,1,144,144,0,3,1610612738
10,1610612761,1628384,1627783,201188,1627832,200768,1610612738,1628369,1627759,1628464,203935,202689,0041900216,1,162,165,2,0,1610612761
11,1610612761,1628384,1627783,201188,1627832,200768,1610612738,1628369,1627759,1628464,203935,202689,0041900216,1,180,180,0,3,1610612738
12,1610612761,1628384,1627783,201188,1627832,200768,1610612738,1628369,1627759,1628464,203935,202689,0041900216,1,195,196,0,0,1610612761
13,1610612761,1628384,1627783,201188,1627832,200768,1610612738,1628369,1627759,1628464,203935,202689,0041900216,1,204,205,0,0,1610612738
14,1610612761,1628384,1627783,201188,1627832,200768,1610612738,1628369,1627759,1628464,203935,202689,0041900216,1,227,227,3,0,1610612761
15,1610612761,1628384,1627783,201188,1627832,200768,1610612738,1628369,1627759,1628464,203935,202689,0041900216,1,240,252,0,0,1610612738
16,1610612761,1628384,1627783,201188,1627832,200768,1610612738,1628369,1627759,1628464,203935,202689,0041900216,1,258,258,2,0,1610612761
17,1610612761,1628384,1627783,201188,1627832,200768,1610612738,1628369,1627759,1628464,203935,202689,0041900216,1,277,277,0,3,1610612738
18,1610612761,1628384,1627783,201188,1627832,200768,1610612738,1628369,1627759,1628464,203935,202689,0041900216,1,293,294,0,0,1610612761
19,1610612761,1628384,1627783,201188,1627832,200768,1610612738,1628369,1627759,1628464,203935,202689,0041900216,1,300,301,0,3,1610612738
20,1610612761,1628384,1627783,201188,1627832,200768,1610612738,1628369,1627759,1628464,203935,202689,0041900216,1,314,314,4,0,1610612761
21,1610612761,1628384,1627783,201188,1627832,200768,1610612738,1628369,1627759,1628464,203935,202689,0041900216,1,337,362,0,0,1610612738
22,1610612761,1628384,1627783,201188,1627832,200768,1610612738,1628369,1627759,1628464,203935,202689,0041900216,1,371,372,0,0,1610612761
23,1610612761,1628384,1627783,201188,1627832,200768,1610612738,1628369,1627759,1628464,203935,202689,0041900216,1,377,378,0,0,1610612738
24,1610612761,1628384,1627783,201188,1627832,200768,1610612738,1628369,1627759,1628464,203935,202689,0041900216,1,390,391,0,0,1610612761
25,1610612761,1628384,1627783,201188,1627832,200768,1610612738,1628369,1627759,1628464,203935,202689,0041900216,1,399,405,0,2,1610612738
26,1610612761,1628384,1627783,201188,1627832,200768,1610612738,1628369,1627759,1628464,203935,202689,0041900216,1,415,415,0,0,1610612761
27,1610612761,1626181,1627832,1628384,200768,201586,1610612738,1627759,1628369,1628464,202689,202954,0041900216,1,438,440,0,0,1610612738
28,1610612761,1626181,1627832,1628384,200768,201586,1610612738,1627759,1628369,1628464,202689,202954,0041900216,1,443,458,0,0,1610612761
29,1610612761,1626181,1627832,1628384,200768,201586,1610612738,1627759,1628369,1628400,1628464,202954,0041900216,1,461,461,0,2,1610612738
30,1610612761,1626181,1627832,1628384,200768,201586,1610612738,1627759,1628369,1628400,1628464,202954,0041900216,1,476,477,0,0,1610612761
31,1610612761,1626181,1627832,1628384,200768,201586,1610612738,1627759,1628369,1628400,1628464,202954,0041900216,1,482,482,0,1,1610612738
32,1610612761,1626181,1627783,1627832,200768,201586,1610612738,1627759,1628369,1628400,1628464,202954,0041900216,1,499,510,2,0,1610612761
33,1610612761,1626181,1627783,1627832,200768,201586,1610612738,1627759,1628369,1628400,1628464,202954,0041900216,1,526,526,0,3,1610612738
34,1610612761,1626181,1627783,1627832,200768,201586,1610612738,1627759,1628369,1628400,1628464,202954,0041900216,1,540,540,2,0,1610612761
35,1610612761,1626181,1627783,1628384,200768,201586,1610612738,1627759,1628369,1628400,1628464,202954,0041900216,1,554,555,0,0,1610612738
36,1610612761,1626181,1627783,1628384,200768,201586,1610612738,1627759,1628369,1628400,1628464,202954,0041900216,1,565,565,2,0,1610612761
37,1610612761,1626181,1627783,1628384,200768,201586,1610612738,1627759,1628369,1628400,1628464,202954,0041900216,1,578,578,0,1,1610612738
38,1610612761,1626181,1627783,1628384,200768,201586,1610612738,1628369,1628400,1628464,202689,202954,0041900216,1,597,598,0,0,1610612761
39,1610612761,1626181,1627783,1628384,200768,201586,1610612738,1628369,1628400,1628464,202689,202954,0041900216,1,614,615,0,0,1610612738
40,1610612761,1626181,1627783,1628384,200768,201586,1610612738,1628369,1628400,1628464,202689,202954,0041900216,1,624,625,0,0,1610612761
41,1610612761,1626181,1627783,1628384,200768,201586,1610612738,1628369,1628400,1628464,202689,202954,0041900216,1,625,625,0,1,1610612738
42,1610612761,1626181,1627783,1627832,1628384,201586,1610612738,1628369,1628400,1629057,202689,202954,0041900216,1,648,649,0,0,1610612761
43,1610612761,1626181,1627783,1627832,1628384,201586,1610612738,1628369,1628400,1629057,202689,202954,0041900216,1,665,682,0,0,1610612738
44,1610612761,1626181,1627783,1627832,1628384,201586,1610612738,1628369,1628400,1629057,202689,202954,0041900216,1,688,701,2,0,1610612761
45,1610612761,1626181,1627783,1627832,1628384,201586,1610612738,1628369,1628400,1629057,202689,202954,0041900216,1,714,720,0,0,1610612738
46,1610612761,1628384,1627783,1627832,1626181,201586,1610612738,1627759,203935,202689,202954,1629057,0041900216,2,720,737,0,0,1610612738
47,1610612761,1628384,1627783,1627832,1626181,201586,1610612738,1627759,203935,202689,202954,1629057,0041900216,2,750,751,0,0,1610612761
48,1610612761,1628384,1627783,1627832,1626181,201586,1610612738,1627759,203935,202689,202954,1629057,0041900216,2,765,766,0,2,1610612738
49,1610612761,1628384,1627783,1627832,1626181,201586,1610612738,1627759,203935,202689,202954,1629057,0041900216,2,785,785,2,0,1610612761
50,1610612761,1628384,1627783,1627832,1626181,201586,1610612738,1627759,203935,202689,202954,1629057,0041900216,2,812,812,0,0,1610612738
51,1610612761,1628384,1627783,1627832,1626181,201586,1610612738,1627759,203935,202689,202954,1629057,0041900216,2,825,826,0,0,1610612761
52,1610612761,1628384,1627783,1627832,1626181,201586,1610612738,1627759,203935,202689,202954,1629057,0041900216,2,831,831,0,2,1610612738
53,1610612761,1628384,1627783,1627832,1626181,201586,1610612738,1627759,203935,202689,202954,1629057,0041900216,2,853,855,2,0,1610612761
54,1610612761,1628384,1627783,1627832,1626181,201586,1610612738,1627759,203935,202689,202954,1629057,0041900216,2,875,875,0,2,1610612738
55,1610612761,1628384,1627783,1627832,1626181,201586,1610612738,1627759,203935,202689,202954,1629057,0041900216,2,896,904,0,0,1610612761
56,1610612761,1626181,1627832,1628384,200768,201586,1610612738,1627759,203935,202689,202954,1629057,0041900216,2,920,920,0,2,1610612738
57,1610612761,1626181,1627832,1628384,200768,201586,1610612738,1627759,203935,202689,202954,1629057,0041900216,2,932,934,0,0,1610612761
58,1610612761,1626181,1627832,1628384,200768,201586,1610612738,1627759,203935,202689,202954,1629057,0041900216,2,949,950,0,0,1610612738
59,1610612761,1626181,1627832,1628384,200768,201586,1610612738,1627759,203935,202689,202954,1629057,0041900216,2,956,957,0,0,1610612761
60,1610612761,1626181,1627832,1628384,200768,201586,1610612738,1627759,203935,202689,202954,1629057,0041900216,2,963,963,0,3,1610612738
61,1610612761,1626181,1627832,1628384,200768,201586,1610612738,1627759,203935,202689,202954,1629057,0041900216,2,964,980,2,0,1610612761
62,1610612761,1626181,1627832,1628384,200768,201586,1610612738,1627759,203935,202689,202954,1629057,0041900216,2,1004,1004,0,3,1610612738
63,1610612761,1626181,1627832,1628384,200768,201586,1610612738,1627759,203935,202689,202954,1629057,0041900216,2,1012,1026,2,0,1610612761
64,1610612761,1626181,1627832,1628384,200768,201586,1610612738,1627759,203935,202689,202954,1629057,0041900216,2,1050,1050,0,2,1610612738
65,1610612761,1627783,1627832,1629744,200768,201586,1610612738,1627759,203935,202689,202954,1629057,0041900216,2,1073,1074,0,0,1610612761
66,1610612761,1627783,1627832,1629744,200768,201586,1610612738,1627759,203935,202689,202954,1629057,0041900216,2,1082,1083,0,0,1610612738
67,1610612761,1627783,1627832,1629744,200768,201586,1610612738,1627759,203935,202689,202954,1629057,0041900216,2,1092,1092,3,0,1610612761
68,1610612761,1627783,1627832,1629744,200768,201586,1610612738,1627759,203935,202689,202954,1629057,0041900216,2,1120,1120,0,0,1610612738
69,1610612761,1627783,1627832,1629744,200768,201586,1610612738,1627759,203935,202689,202954,1629057,0041900216,2,1126,1126,3,0,1610612761
70,1610612761,1627783,1627832,1629744,200768,201586,1610612738,1627759,203935,202689,202954,1629057,0041900216,2,1127,1148,0,0,1610612738
71,1610612761,1627783,1627832,1629744,200768,201586,1610612738,1627759,1628369,1628464,202689,203935,0041900216,2,1170,1171,0,0,1610612761
72,1610612761,1627783,1627832,1629744,200768,201586,1610612738,1627759,1628369,1628464,202689,203935,0041900216,2,1188,1188,0,2,1610612738
73,1610612761,1627783,1627832,1629744,200768,201586,1610612738,1627759,1628369,1628464,202689,203935,0041900216,2,1205,1205,3,0,1610612761
74,1610612761,1627783,1627832,1629744,200768,201586,1610612738,1627759,1628369,1628464,202689,203935,0041900216,2,1205,1205,0,0,1610612761
75,1610612761,1627783,1627832,1629744,200768,201586,1610612738,1627759,1628369,1628464,202954,203935,0041900216,2,1216,1216,0,2,1610612738
76,1610612761,1627783,1627832,1629744,200768,201586,1610612738,1627759,1628369,1628464,202954,203935,0041900216,2,1227,1228,0,0,1610612761
77,1610612761,1627783,1627832,1629744,200768,201586,1610612738,1627759,1628369,1628464,202954,203935,0041900216,2,1242,1243,0,0,1610612738
78,1610612761,1627783,1627832,1629744,200768,201586,1610612738,1627759,1628369,1628464,202954,203935,0041900216,2,1250,1252,0,0,1610612761
79,1610612761,1627783,1627832,1629744,200768,201586,1610612738,1627759,1628369,1628464,202954,203935,0041900216,2,1256,1256,0,2,1610612738
80,1610612761,1627783,1627832,1629744,200768,201586,1610612738,1627759,1628369,1628464,202954,203935,0041900216,2,1273,1273,2,0,1610612761
81,1610612761,1627783,1627832,1629744,200768,201586,1610612738,1627759,1628369,1628464,202954,203935,0041900216,2,1285,1308,0,0,1610612738
82,1610612761,1626181,1627783,1628384,1629744,200768,1610612738,1627759,1628369,1628464,202689,202954,0041900216,2,1325,1326,0,0,1610612761
83,1610612761,1626181,1627783,1628384,1629744,200768,1610612738,1627759,1628369,1628464,202689,202954,0041900216,2,1340,1340,0,3,1610612738
84,1610612761,1626181,1627783,1628384,1629744,200768,1610612738,1627759,1628369,1628464,202689,202954,0041900216,2,1354,1354,3,0,1610612761
85,1610612761,1626181,1627783,1628384,1629744,200768,1610612738,1627759,1628369,1628464,202689,202954,0041900216,2,1370,1370,0,0,1610612738
86,1610612761,1626181,1627783,1628384,1629744,200768,1610612738,1627759,1628369,1628464,202689,202954,0041900216,2,1378,1378,2,0,1610612761
87,1610612761,1626181,1627783,1628384,1629744,200768,1610612738,1627759,1628369,1628464,202689,202954,0041900216,2,1400,1400,0,0,1610612738
88,1610612761,1626181,1627783,1628384,1629744,200768,1610612738,1627759,1628369,1628464,202689,202954,0041900216,2,1408,1408,3,0,1610612761
89,1610612761,1626181,1627783,1628384,1629744,200768,1610612738,1627759,1628369,1628464,202689,202954,0041900216,2,1428,1428,0,2,1610612738
90,1610612761,1626181,1627783,1628384,1629744,200768,1610612738,1627759,1628369,202689,202954,203935,0041900216,2,1440,1440,0,0,1610612761
91,1610612761,1628384,1627783,201188,1627832,200768,1610612738,1628369,1627759,1628464,203935,202689,0041900216,3,1440,1457,0,0,1610612738
92,1610612761,1628384,1627783,201188,1627832,200768,1610612738,1628369,1627759,1628464,203935,202689,0041900216,3,1468,1468,3,0,1610612761
93,1610612761,1628384,1627783,201188,1627832,200768,1610612738,1628369,1627759,1628464,203935,202689,0041900216,3,1483,1491,0,0,1610612738
94,1610612761,1628384,1627783,201188,1627832,200768,1610612738,1628369,1627759,1628464,203935,202689,0041900216,3,1506,1507,0,0,1610612761
95,1610612761,1628384,1627783,201188,1627832,200768,1610612738,1628369,1627759,1628464,203935,202689,0041900216,3,1513,1513,0,3,1610612738
96,1610612761,1628384,1627783,201188,1627832,200768,1610612738,1628369,1627759,1628464,203935,202689,0041900216,3,1530,1541,3,0,1610612761
97,1610612761,1628384,1627783,201188,1627832,200768,1610612738,1628369,1627759,1628464,203935,202689,0041900216,3,1554,1554,0,2,1610612738
98,1610612761,1628384,1627783,201188,1627832,200768,1610612738,1628369,1627759,1628464,203935,202689,0041900216,3,1570,1570,2,0,1610612761
99,1610612761,1628384,1627783,201188,1627832,200768,1610612738,1628369,1627759,1628464,203935,202689,0041900216,3,1592,1592,0,2,1610612738
100,1610612761,1628384,1627783,201188,1627832,200768,1610612738,1628369,1627759,1628464,203935,202689,0041900216,3,1593,1606,0,0,1610612761
101,1610612761,1628384,1627783,201188,1627832,200768,1610612738,1628369,1627759,1628464,203935,202689,0041900216,3,1613,1613,0,0,1610612738
102,1610612761,1628384,1627783,201188,1627832,200768,1610612738,1628369,1627759,1628464,203935,202689,0041900216,3,1625,1625,2,0,1610612761
103,1610612761,1628384,1627783,201188,1627832,200768,1610612738,1628369,1627759,1628464,203935,202689,0041900216,3,1651,1651,0,3,1610612738
104,1610612761,1628384,1627783,201188,1627832,200768,1610612738,1628369,1627759,1628464,203935,202689,0041900216,3,1663,1664,0,0,1610612761
105,1610612761,1628384,1627783,201188,1627832,200768,1610612738,1628369,1627759,1628464,203935,202689,0041900216,3,1681,1681,0,0,1610612738
106,1610612761,1628384,1627783,201188,1627832,200768,1610612738,1628369,1627759,1628464,203935,202689,0041900216,3,1689,1691,0,0,1610612761
107,1610612761,1628384,1627783,201188,1627832,200768,1610612738,1628369,1627759,1628464,203935,202689,0041900216,3,1696,1698,0,0,1610612738
108,1610612761,1628384,1627783,201188,1627832,200768,1610612738,1628369,1627759,1628464,203935,202689,0041900216,3,1704,1716,6,0,1610612761
109,1610612761,1628384,1627783,201188,1627832,200768,1610612738,1628369,1628464,1629684,202689,203935,0041900216,3,1727,1729,0,0,1610612738
110,1610612761,1628384,1627783,201188,1627832,200768,1610612738,1628369,1628464,1629684,202689,203935,0041900216,3,1742,1742,3,0,1610612761
111,1610612761,1628384,1627783,201188,1627832,200768,1610612738,1628369,1628464,1629684,202689,203935,0041900216,3,1771,1771,0,2,1610612738
112,1610612761,1628384,1627783,201188,1627832,200768,1610612738,1628369,1628464,1629684,202689,203935,0041900216,3,1787,1787,3,0,1610612761
113,1610612761,1628384,1627783,201188,1627832,200768,1610612738,1628369,1628464,1629684,202689,203935,0041900216,3,1790,1807,0,3,1610612738
114,1610612761,1628384,1627783,201188,1627832,200768,1610612738,1628369,1628464,1629684,202689,203935,0041900216,3,1829,1829,0,0,1610612761
115,1610612761,1628384,1627783,201188,1627832,200768,1610612738,1628369,1628464,1629684,202689,203935,0041900216,3,1829,1843,0,2,1610612738
116,1610612761,1628384,1627783,201188,1627832,200768,1610612738,1628369,1628464,1629684,202689,203935,0041900216,3,1854,1854,3,0,1610612761
117,1610612761,1628384,1627783,201188,1627832,200768,1610612738,1628369,1628464,1629684,202689,203935,0041900216,3,1871,1871,0,0,1610612738
118,1610612761,1628384,1627783,201188,1627832,200768,1610612738,1628369,1628464,1629684,202689,203935,0041900216,3,1879,1879,3,0,1610612761
119,1610612761,1628384,1627783,201188,1627832,200768,1610612738,1628369,1628464,1629684,202689,203935,0041900216,3,1893,1893,0,0,1610612738
120,1610612761,1628384,1627783,201188,1627832,200768,1610612738,1628369,1628464,1629684,202689,203935,0041900216,3,1904,1905,0,0,1610612761
121,1610612761,1628384,1627783,201188,1627832,200768,1610612738,1628369,1628464,1629684,202689,203935,0041900216,3,1913,1914,0,0,1610612738
122,1610612761,1628384,1627783,201188,1627832,200768,1610612738,1628369,1628464,1629684,202689,203935,0041900216,3,1929,1930,0,0,1610612761
123,1610612761,1628384,1627783,201188,1627832,200768,1610612738,1628369,1628464,1629684,202689,203935,0041900216,3,1938,1939,0,0,1610612738
124,1610612761,1628384,1627783,201188,1627832,200768,1610612738,1628369,1628464,1629684,202689,203935,0041900216,3,1957,1958,0,0,1610612761
125,1610612761,1628384,1627783,201188,1627832,200768,1610612738,1628369,1628464,1629684,202689,203935,0041900216,3,1972,1972,0,2,1610612738
126,1610612761,1626181,1627783,1628384,200768,201586,1610612738,1627759,1628369,1628464,1629684,202954,0041900216,3,1992,1992,2,0,1610612761
127,1610612761,1626181,1627783,1628384,200768,201586,1610612738,1627759,1628369,1628464,1629684,202954,0041900216,3,2014,2015,0,0,1610612738
128,1610612761,1626181,1627783,1628384,200768,201586,1610612738,1627759,1628369,1628464,1629684,202954,0041900216,3,2017,2022,1,0,1610612761
129,1610612761,1626181,1627783,1628384,200768,201586,1610612738,1627759,1628369,1629684,202954,203935,0041900216,3,2034,2034,0,3,1610612738
130,1610612761,1626181,1627783,1628384,200768,201586,1610612738,1627759,1628369,1629684,202954,203935,0041900216,3,2064,2066,0,0,1610612761
131,1610612761,1626181,1627783,1628384,200768,201586,1610612738,1627759,1628369,1629684,202954,203935,0041900216,3,2084,2084,0,3,1610612738
132,1610612761,1626181,1627783,1628384,200768,201586,1610612738,1627759,1628369,1629684,202954,203935,0041900216,3,2105,2105,2,0,1610612761
133,1610612761,1626181,1627783,1628384,200768,201586,1610612738,1627759,1628369,1629684,202954,203935,0041900216,3,2125,2126,0,0,1610612738
134,1610612761,1626181,1627783,1628384,200768,201586,1610612738,1627759,1628369,1629684,202954,203935,0041900216,3,2133,2134,0,0,1610612761
135,1610612761,1626181,1627783,1628384,200768,201586,1610612738,1627759,1628369,1629684,202954,203935,0041900216,3,2137,2154,0,0,1610612738
136,1610612761,1626181,1627783,1628384,200768,201586,1610612738,1627759,1628369,1628464,202689,203935,0041900216,3,2158,2158,0,0,1610612761
137,1610612761,1627783,1627832,1628384,200768,201586,1610612738,1627759,1628369,1628464,202689,203935,0041900216,3,2160,2160,0,0,1610612738
138,1610612761,1627783,1627832,200768,1626181,201586,1610612738,1628369,1627759,1628464,203935,202689,0041900216,4,2160,2174,0,0,1610612761
139,1610612761,1627783,1627832,200768,1626181,201586,1610612738,1628369,1627759,1628464,203935,202689,0041900216,4,2195,2196,0,0,1610612738
140,1610612761,1627783,1627832,200768,1626181,201586,1610612738,1628369,1627759,1628464,203935,202689,0041900216,4,2205,2216,3,0,1610612761
141,1610612761,1627783,1627832,200768,1626181,201586,1610612738,1628369,1627759,1628464,203935,202689,0041900216,4,2231,2232,0,0,1610612738
142,1610612761,1627783,1627832,200768,1626181,201586,1610612738,1628369,1627759,1628464,203935,202689,0041900216,4,2235,2235,0,0,1610612761
143,1610612761,1627783,1627832,200768,1626181,201586,1610612738,1628369,1627759,1628464,203935,202689,0041900216,4,2245,2245,0,3,1610612738
144,1610612761,1627783,1627832,200768,1626181,201586,1610612738,1628369,1627759,1628464,203935,202689,0041900216,4,2271,2281,2,0,1610612761
145,1610612761,1627783,1627832,200768,1626181,201586,1610612738,1628369,1627759,1628464,203935,202689,0041900216,4,2301,2301,0,3,1610612738
146,1610612761,1627783,1627832,200768,1626181,201586,1610612738,1628369,1627759,1628464,203935,202689,0041900216,4,2319,2319,2,0,1610612761
147,1610612761,1627783,1627832,200768,1626181,201586,1610612738,1628369,1627759,1628464,203935,202689,0041900216,4,2335,2335,0,3,1610612738
148,1610612761,1627783,1627832,200768,1626181,201586,1610612738,1628369,1627759,1628464,203935,202689,0041900216,4,2355,2356,0,0,1610612761
149,1610612761,1627783,1627832,200768,1626181,201586,1610612738,1628369,1627759,1628464,203935,202689,0041900216,4,2378,2378,0,3,1610612738
150,1610612761,1627783,1627832,200768,1626181,201586,1610612738,1628369,1627759,1628464,203935,202689,0041900216,4,2378,2392,0,0,1610612761
151,1610612761,1626181,1627783,1627832,1628384,200768,1610612738,1628369,1627759,1628464,203935,202689,0041900216,4,2418,2419,0,0,1610612738
152,1610612761,1626181,1627783,1627832,1628384,200768,1610612738,1628369,1627759,1628464,203935,202689,0041900216,4,2429,2429,3,0,1610612761
153,1610612761,1626181,1627783,1627832,1628384,200768,1610612738,1628369,1627759,1628464,203935,202689,0041900216,4,2447,2448,0,0,1610612738
154,1610612761,1626181,1627783,1627832,1628384,200768,1610612738,1628369,1627759,1628464,203935,202689,0041900216,4,2463,2463,0,0,1610612761
155,1610612761,1626181,1627783,1627832,1628384,200768,1610612738,1628369,1627759,1628464,203935,202689,0041900216,4,2476,2478,0,0,1610612738
156,1610612761,1626181,1627783,1627832,1628384,200768,1610612738,1628369,1627759,1628464,203935,202689,0041900216,4,2481,2481,0,0,1610612761
157,1610612761,1626181,1627783,1627832,1628384,200768,1610612738,1628369,1627759,1628464,203935,202689,0041900216,4,2489,2490,0,0,1610612738
158,1610612761,1626181,1627783,1627832,1628384,200768,1610612738,1628369,1627759,1628464,203935,202689,0041900216,4,2500,2500,3,0,1610612761
159,1610612761,1626181,1627783,1627832,1628384,200768,1610612738,1628369,1627759,1628464,203935,202689,0041900216,4,2514,2514,0,2,1610612738
160,1610612761,1626181,1627783,1627832,1628384,200768,1610612738,1628369,1627759,1628464,203935,202689,0041900216,4,2536,2536,2,0,1610612761
161,1610612761,1626181,1627783,1627832,1628384,200768,1610612738,1628369,1627759,1628464,203935,202689,0041900216,4,2548,2561,0,3,1610612738
162,1610612761,1626181,1627783,1627832,1628384,200768,1610612738,1628369,1627759,1628464,203935,202689,0041900216,4,2580,2587,0,0,1610612761
163,1610612761,1626181,1627783,1627832,1628384,200768,1610612738,1628369,1627759,1628464,203935,202689,0041900216,4,2587,2607,0,0,1610612738
164,1610612761,1626181,1627783,1627832,1628384,200768,1610612738,1628369,1627759,1628464,203935,202689,0041900216,4,2616,2616,2,0,1610612761
165,1610612761,1626181,1627783,1627832,1628384,200768,1610612738,1628369,1627759,1628464,203935,202689,0041900216,4,2638,2639,0,0,1610612738
166,1610612761,1626181,1627783,1627832,1628384,200768,1610612738,1628369,1627759,1628464,203935,202689,0041900216,4,2648,2667,0,0,1610612761
167,1610612761,1626181,1627783,1627832,1628384,200768,1610612738,1628369,1627759,1628464,203935,202689,0041900216,4,2673,2692,0,0,1610612738
168,1610612761,1626181,1627783,1627832,1628384,200768,1610612738,1628369,1627759,1628464,203935,202689,0041900216,4,2705,2717,0,0,1610612761
169,1610612761,1626181,1627783,1627832,1628384,200768,1610612738,1628369,1627759,1628464,203935,202689,0041900216,4,2729,2731,0,2,1610612738
170,1610612761,1626181,1627783,1627832,1628384,200768,1610612738,1628369,1627759,1628464,203935,202689,0041900216,4,2753,2753,0,0,1610612761
171,1610612761,1626181,1627783,1627832,1628384,200768,1610612738,1628369,1627759,1628464,203935,202689,0041900216,4,2760,2760,0,2,1610612738
172,1610612761,1626181,1627783,1627832,1628384,200768,1610612738,1628369,1627759,1628464,203935,202689,0041900216,4,2775,2776,0,0,1610612761
173,1610612761,1626181,1627783,1627832,1628384,200768,1610612738,1628369,1627759,1628464,203935,202689,0041900216,4,2776,2801,0,0,1610612738
174,1610612761,1626181,1627783,1627832,1628384,200768,1610612738,1628369,1627759,1628464,203935,202689,0041900216,4,2816,2817,0,0,1610612761
175,1610612761,1626181,1627783,1627832,1628384,200768,1610612738,1628369,1627759,1628464,203935,202689,0041900216,4,2837,2837,0,0,1610612738
176,1610612761,1626181,1627783,1627832,1628384,200768,1610612738,1628369,1627759,1628464,203935,202689,0041900216,4,2837,2855,0,0,1610612761
177,1610612761,1626181,1627783,1627832,1628384,200768,1610612738,1628369,1627759,1628464,203935,202689,0041900216,4,2877,2878,0,0,1610612738
178,1610612761,1626181,1627783,1627832,1628384,200768,1610612738,1628369,1627759,1628464,203935,202689,0041900216,4,2878,2880,0,0,1610612738
179,1610612761,1628384,1627783,1627832,200768,1626181,1610612738,1628369,1627759,1628464,203935,202689,0041900216,5,2880,2901,0,0,1610612761
180,1610612761,1628384,1627783,1627832,200768,1626181,1610612738,1628369,1627759,1628464,203935,202689,0041900216,5,2923,2927,1,2,1610612738
181,1610612761,1628384,1627783,1627832,200768,1626181,1610612738,1628369,1627759,1628464,203935,202689,0041900216,5,2949,2949,2,0,1610612761
182,1610612761,1628384,1627783,1627832,200768,1626181,1610612738,1628369,1627759,1628464,203935,202689,0041900216,5,2964,2965,0,0,1610612738
183,1610612761,1628384,1627783,1627832,200768,1626181,1610612738,1628369,1627759,1628464,203935,202689,0041900216,5,2980,2981,0,0,1610612761
184,1610612761,1628384,1627783,1627832,200768,1626181,1610612738,1628369,1627759,1628464,203935,202689,0041900216,5,2990,2990,0,2,1610612738
185,1610612761,1628384,1627783,1627832,200768,1626181,1610612738,1628369,1627759,1628464,203935,202689,0041900216,5,3008,3009,0,0,1610612761
186,1610612761,1628384,1627783,1627832,200768,1626181,1610612738,1628369,1627759,1628464,203935,202689,0041900216,5,3017,3034,0,2,1610612738
187,1610612761,1628384,1627783,1627832,200768,1626181,1610612738,1628369,1627759,1628464,203935,202689,0041900216,5,3058,3058,3,0,1610612761
188,1610612761,1628384,1627783,1627832,200768,1626181,1610612738,1628369,1627759,1628464,203935,202689,0041900216,5,3081,3082,0,0,1610612738
189,1610612761,1628384,1627783,1627832,200768,1626181,1610612738,1628369,1627759,1628464,203935,202689,0041900216,5,3088,3088,2,0,1610612761
190,1610612761,1628384,1627783,1627832,200768,1626181,1610612738,1628369,1627759,1628464,203935,202689,0041900216,5,3100,3100,0,0,1610612738
191,1610612761,1628384,1627783,1627832,200768,1626181,1610612738,1628369,1627759,1628464,203935,202689,0041900216,5,3119,3120,0,0,1610612761
192,1610612761,1628384,1627783,1627832,200768,1626181,1610612738,1628369,1627759,1628464,203935,202689,0041900216,5,3135,3140,0,0,1610612738
193,1610612761,1628384,1627783,1627832,200768,1626181,1610612738,1628369,1627759,1628464,203935,202689,0041900216,5,3158,3160,0,0,1610612761
194,1610612761,1628384,1627783,1627832,200768,1626181,1610612738,1628369,1627759,1628464,203935,202689,0041900216,5,3161,3162,0,2,1610612738
195,1610612761,1627783,1627832,1628384,200768,201188,1610612738,1628369,1627759,1628464,203935,202689,0041900216,5,3162,3180,0,0,1610612761
196,1610612761,1628384,1627783,1627832,200768,1626181,1610612738,1628369,1627759,1628464,203935,202689,0041900216,6,3180,3198,0,0,1610612761
197,1610612761,1628384,1627783,1627832,200768,1626181,1610612738,1628369,1627759,1628464,203935,202689,0041900216,6,3202,3202,0,2,1610612738
198,1610612761,1628384,1627783,1627832,200768,1626181,1610612738,1628369,1627759,1628464,203935,202689,0041900216,6,3215,3221,0,0,1610612761
199,1610612761,1628384,1627783,1627832,200768,1626181,1610612738,1628369,1627759,1628464,203935,202689,0041900216,6,3238,3238,0,2,1610612738
200,1610612761,1628384,1627783,1627832,200768,1626181,1610612738,1628369,1627759,1628464,203935,202689,0041900216,6,3252,3254,0,0,1610612761
201,1610612761,1628384,1627783,1627832,200768,1626181,1610612738,1628369,1627759,1628464,203935,202689,0041900216,6,3261,3261,0,0,1610612738
202,1610612761,1628384,1627783,1627832,200768,1626181,1610612738,1628369,1627759,1628464,203935,202689,0041900216,6,3268,3268,2,0,1610612761
203,1610612761,1628384,1627783,1627832,200768,1626181,1610612738,1628369,1627759,1628464,203935,202689,0041900216,6,3292,3293,0,0,1610612738
204,1610612761,1628384,1627783,1627832,200768,1626181,1610612738,1628369,1627759,1628464,203935,202689,0041900216,6,3293,3303,0,0,1610612761
205,1610612761,1628384,1627783,1627832,200768,1626181,1610612738,1628369,1627759,1628464,203935,202689,0041900216,6,3317,3318,0,0,1610612738
206,1610612761,1628384,1627783,1627832,200768,1626181,1610612738,1628369,1627759,1628464,203935,202689,0041900216,6,3327,3327,2,0,1610612761
207,1610612761,1628384,1627783,1627832,200768,1626181,1610612738,1628369,1627759,1628464,203935,202689,0041900216,6,3344,3344,0,2,1610612738
208,1610612761,1628384,1627783,1627832,200768,1626181,1610612738,1628369,1627759,1628464,203935,202689,0041900216,6,3365,3365,2,0,1610612761
209,1610612761,1628384,1627783,1627832,200768,1626181,1610612738,1628369,1627759,1628464,203935,202689,0041900216,6,3383,3383,0,3,1610612738
210,1610612761,1628384,1627783,1627832,200768,1626181,1610612738,1628369,1627759,1628464,203935,202689,0041900216,6,3397,3397,3,0,1610612761
211,1610612761,1628384,1627783,1627832,200768,1626181,1610612738,1628369,1627759,1628464,203935,202689,0041900216,6,3410,3410,0,2,1610612738
212,1610612761,1628384,1627783,1627832,200768,1626181,1610612738,1628369,1627759,1628464,203935,202689,0041900216,6,3423,3423,3,0,1610612761
213,1610612761,1628384,1627783,1627832,200768,1626181,1610612738,1628369,1627759,1628464,203935,202689,0041900216,6,3439,3439,0,0,1610612738
214,1610612761,1628384,1627783,1627832,200768,1626181,1610612738,1628369,1627759,1628464,203935,202689,0041900216,6,3442,3442,3,0,1610612761
215,1610612761,1628384,1627783,1627832,200768,1626181,1610612738,1628369,1627759,1628464,203935,202689,0041900216,6,3442,3447,0,2,1610612738
216,1610612761,1628384,1627783,1627832,200768,1626181,1610612738,1628369,1627759,1628464,203935,202689,0041900216,6,3469,3469,2,0,1610612761
217,1610612761,1628384,1627783,1627832,200768,1626181,1610612738,1628369,1627759,1628464,203935,202689,0041900216,6,3469,3474,0,3,1610612738
218,1610612761,1628384,1627783,1627832,200768,1626181,1610612738,1628369,1627759,1628464,203935,202689,0041900216,6,3475,3475,2,0,1610612761
219,1610612761,1628384,1627783,1627832,200768,1626181,1610612738,1628369,1627759,1628464,203935,202689,0041900216,6,3479,3480,0,0,1610612738
220,1610612761,1628384,1627783,1627832,200768,1626181,1610612738,1628369,1627759,1628464,203935,202689,0041900216,6,3480,3480,0,0,744
