,TEAM_ID_1,TEAM_1_PLAYERS,TEAM_ID_2,TEAM_2_PLAYERS,PERIOD
0,1610612746,[202695 202694 201587 202331 202704],1610612742,[1627827  204001 1628467  203501 1629029],1
1,1610612746,[ 201587  202331  202704 1627826  200765],1610612742,[1627827  203501 1626196 1626161 1628973],2
2,1610612746,[202695 202694 201587 202331 202704],1610612742,[1627827  204001 1628467  203501 1629029],3
3,1610612746,[ 202695  201587  202704 1627826  200765 1629611],1610612742,[1628467  203501 1626246 1626196],4
