,TEAM_ID_1,TEAM_1_PLAYERS,TEAM_ID_2,TEAM_2_PLAYERS,PERIOD
0,1610612744,[ 203922  202692 1626161 1629673 1626156],1610612760,[1628390  201568  203500 1628983  101108],1
1,1610612744,[ 203922 1629016 1627737 1627814 1629065],1610612760,[ 101108 1628977  203471 1629647  203488],2
2,1610612744,[ 203922  202692 1626161 1629673 1626156],1610612760,[1628390  201568  203500 1628983  101108],3
3,1610612744,[ 203922 1626161 1629673 1627814 1629065],1610612760,[1628983  101108 1628977 1629647  203488],4
