,TEAM_ID_1,TEAM_1_PLAYERS,TEAM_ID_2,TEAM_2_PLAYERS,PERIOD
0,1610612750,[ 203496  201959 1626157  203952 1626145],1610612760,[ 202331  203924  203500 1628390  201566],1
1,1610612750,[ 203952  203967 1629006  201573  203476],1610612760,[ 202331  203471  203457  202335 1628977],2
2,1610612750,[ 203496  201959 1626157  203952 1626145],1610612760,[202331 203924 203500 201566 203518],3
3,1610612750,[ 203952  203967 1629006  201573  203476],1610612760,[ 203471  203518  203457  202335 1628977],4
