,TEAM_ID_1,TEAM_1_PLAYERS,TEAM_ID_2,TEAM_2_PLAYERS,PERIOD
0,1610612756,[1628969 1629661 1629028 1626164  101108],1610612763,[ 203937 1629634 1630214 1628415 1629630],1
1,1610612756,[1629661 1629028  101108 1628975  203109],1610612763,[ 203937 1629634 1630214 1628415 1629630],2
2,1610612756,[1628969 1629661 1629028 1626164  101108],1610612763,[ 203937 1629634 1630214 1628415 1629630],3
3,1610612756,[1629661 1629028  101108 1628975  204038],1610612763,[1629634 1630214 1629630 1630217 1629723],4
