,t1_pm,t2_pm,stint_start,t2_points_scored,t2_players,t2_id,t1_id,t1_players,stint_end,t1_points_scored,margin_per_100,num_poss
0,-1,1,0,4,"[203937, 1629634, 1630214, 1628415, 1629630]",1610612763,1610612756,"[1628969, 1629661, 1629028, 1626164, 101108]",235,3,-6.666666666666667,15.0
1,1,-1,236,4,"[203937, 1629634, 1630214, 1628415, 1629630]",1610612763,1610612756,"[1628969, 1629661, 1629028, 1626164, 101108]",265,5,5.555555555555555,18.0
2,6,-6,266,6,"[1628960, 1629630, 1629634, 1630214, 203937]",1610612763,1610612756,"[1628969, 1629661, 1629028, 1626164, 101108]",381,12,24.0,25.0
3,4,-4,382,8,"[1628960, 1629630, 1629634, 1630214, 1630217]",1610612763,1610612756,"[101108, 1626164, 1628975, 1629028, 1629661]",413,12,14.814814814814813,27.0
4,7,-7,414,8,"[1626145, 1628960, 1629634, 1630217, 203476]",1610612763,1610612756,"[1626164, 1626166, 1628975, 1629028, 203109]",470,15,21.875,32.0
5,4,-4,471,14,"[1626145, 1628960, 1629634, 1630217, 203476]",1610612763,1610612756,"[1626163, 1626164, 1626166, 1628975, 203109]",620,18,9.75609756097561,41.0
6,6,-6,621,18,"[1626145, 1628960, 1629723, 1630217, 203476]",1610612763,1610612756,"[1626163, 1626164, 1626166, 1628975, 203109]",719,24,12.5,48.0
7,8,-8,720,22,"[1626145, 1629630, 1629723, 1630217, 203476]",1610612763,1610612756,"[101108, 1628975, 1629028, 1629661, 203109]",867,30,13.333333333333334,60.0
8,6,-6,868,28,"[203937, 1629634, 1630214, 1628415, 1629630]",1610612763,1610612756,"[1629661, 1629028, 101108, 1628975, 203109]",971,34,8.823529411764707,68.0
9,7,-7,972,28,"[203937, 1629634, 1630214, 1628415, 1629630]",1610612763,1610612756,"[101108, 1628969, 1629028, 1629661, 203109]",983,35,10.144927536231885,69.0
10,5,-5,984,35,"[203937, 1629634, 1630214, 1628415, 1629630]",1610612763,1610612756,"[101108, 1628969, 1629028, 1629661, 204038]",1111,40,6.578947368421052,76.0
11,7,-7,1112,35,"[203937, 1629634, 1630214, 1628415, 1629630]",1610612763,1610612756,"[1626164, 1626166, 1628969, 1629028, 204038]",1164,42,8.860759493670885,79.0
12,-1,1,1165,44,"[1626145, 1628960, 1629634, 1630217, 203476]",1610612763,1610612756,"[1626164, 1626166, 1628969, 1629028, 204038]",1265,43,-1.1627906976744187,86.0
13,-3,3,1266,46,"[1626145, 1628960, 1629634, 1630217, 203476]",1610612763,1610612756,"[1626163, 1626164, 1626166, 1628969, 204038]",1312,43,-3.3707865168539324,89.0
14,-4,4,1313,52,"[1626145, 1628960, 1629634, 1630217, 203476]",1610612763,1610612756,"[101108, 1626163, 1626164, 1628969, 203109]",1414,48,-4.123711340206185,97.0
15,-7,7,1415,57,"[1628960, 1629630, 1630217, 203476, 203937]",1610612763,1610612756,"[101108, 1626164, 1628969, 1629028, 203109]",1654,50,-6.086956521739131,115.0
16,-5,5,1655,61,"[203937, 1629634, 1630214, 1628415, 1629630]",1610612763,1610612756,"[1628969, 1629661, 1629028, 1626164, 101108]",1705,56,-4.201680672268908,119.0
17,-4,4,1706,70,"[203937, 1629634, 1630214, 1628415, 1629630]",1610612763,1610612756,"[101108, 1626164, 1628969, 1629028, 203109]",1883,66,-3.125,128.0
18,-1,1,1884,70,"[1628415, 1628960, 1629630, 1629634, 1630214]",1610612763,1610612756,"[101108, 1626164, 1628969, 1629028, 203109]",1908,69,-0.7633587786259541,131.0
19,-3,3,1909,72,"[1626145, 1628415, 1628960, 203476, 203937]",1610612763,1610612756,"[1626164, 1626166, 1628969, 1629028, 203109]",1935,69,-2.272727272727273,132.0
20,-2,2,1936,73,"[1626145, 1628415, 1628960, 203476, 203937]",1610612763,1610612756,"[1626163, 1626164, 1626166, 1628975, 203109]",1999,71,-1.4925373134328357,134.0
21,0,0,2000,73,"[1626145, 1628960, 1630217, 203476, 203937]",1610612763,1610612756,"[1626163, 1626164, 1626166, 1628975, 203109]",2089,73,0.0,139.0
22,-2,2,2090,77,"[1626145, 1628960, 1630217, 203476, 203937]",1610612763,1610612756,"[101108, 1626163, 1626164, 1628975, 203109]",2159,75,-1.3888888888888888,144.0
23,3,-3,2160,84,"[1626145, 1628960, 1629630, 1630217, 203937]",1610612763,1610612756,"[101108, 1626163, 1628975, 203109, 204038]",2358,87,1.89873417721519,158.0
24,3,-3,2359,86,"[1629634, 1630214, 1629630, 1630217, 1629723]",1610612763,1610612756,"[1629661, 1629028, 101108, 1628975, 204038]",2486,89,1.8181818181818181,165.0
25,1,-1,2487,88,"[1626145, 1628415, 1630214, 1630217, 203937]",1610612763,1610612756,"[1626166, 1628969, 1628975, 1629028, 1629661]",2549,89,0.591715976331361,169.0
26,4,-4,2550,92,"[1626145, 1628415, 1628960, 1629634, 203937]",1610612763,1610612756,"[1626163, 1626164, 1626166, 1628969, 1629661]",2678,96,2.2346368715083798,179.0
27,2,-2,2679,94,"[1626145, 1628960, 1629630, 1629634, 203937]",1610612763,1610612756,"[1626163, 1626164, 1626166, 1628969, 203109]",2720,96,1.1049723756906076,181.0
28,-3,3,2721,103,"[1626145, 1628960, 1629630, 1629634, 1630214]",1610612763,1610612756,"[1626164, 1626166, 1628969, 1629028, 203109]",2853,100,-1.5873015873015872,189.0
29,-3,3,2854,103,"[1626145, 1628960, 1629630, 1629634, 1630214]",1610612763,1610612756,"[101108, 1626164, 1628969, 1629028, 203109]",2862,100,-1.5789473684210527,190.0
30,-4,4,2863,107,"[1626145, 1628960, 1629630, 1630217, 203937]",1610612763,1610612756,"[101108, 1626164, 1628969, 1629028, 203109]",2873,103,-2.072538860103627,193.0
31,-4,4,2874,107,"[1626145, 1628960, 1629630, 1629634, 203937]",1610612763,1610612756,"[101108, 1626164, 1628969, 1629028, 203109]",2878,103,-2.072538860103627,193.0
32,-4,4,2879,108,"[1628960, 1629630, 1629634, 1630214, 203937]",1610612763,1610612756,"[1626164, 1628969, 1629028, 1629661, 203109]",9999999,104,-2.051282051282051,195.0
