,team1_id,team1_player1,team1_player2,team1_player3,team1_player4,team1_player5,team2_id,team2_player1,team2_player2,team2_player3,team2_player4,team2_player5,game_id,period,possession_start,possession_end,team1_points,team2_points,possession_team
0,1610612743,203932,201145,203999,203115,1628420,1610612737,1627789,1628381,203991,1628989,1629027,0022100434,1,0,12,3,0,1610612743
1,1610612743,203932,201145,203999,203115,1628420,1610612737,1627789,1628381,203991,1628989,1629027,0022100434,1,30,34,0,0,1610612737
2,1610612743,203932,201145,203999,203115,1628420,1610612737,1627789,1628381,203991,1628989,1629027,0022100434,1,44,49,0,0,1610612743
3,1610612743,203932,201145,203999,203115,1628420,1610612737,1627789,1628381,203991,1628989,1629027,0022100434,1,54,59,0,0,1610612737
4,1610612743,203932,201145,203999,203115,1628420,1610612737,1627789,1628381,203991,1628989,1629027,0022100434,1,64,64,2,0,1610612743
5,1610612743,203932,201145,203999,203115,1628420,1610612737,1627789,1628381,203991,1628989,1629027,0022100434,1,82,84,0,0,1610612737
6,1610612743,203932,201145,203999,203115,1628420,1610612737,1627789,1628381,203991,1628989,1629027,0022100434,1,92,92,0,0,1610612743
7,1610612743,203932,201145,203999,203115,1628420,1610612737,1627789,1628381,203991,1628989,1629027,0022100434,1,98,98,0,3,1610612737
8,1610612743,203932,201145,203999,203115,1628420,1610612737,1627789,1628381,203991,1628989,1629027,0022100434,1,128,128,3,0,1610612743
9,1610612743,203932,201145,203999,203115,1628420,1610612737,1627789,1628381,203991,1628989,1629027,0022100434,1,146,151,0,0,1610612737
10,1610612743,203932,201145,203999,203115,1628420,1610612737,1627789,1628381,203991,1628989,1629027,0022100434,1,159,159,2,0,1610612743
11,1610612743,203932,201145,203999,203115,1628420,1610612737,1627789,1628381,203991,1628989,1629027,0022100434,1,170,170,0,0,1610612737
12,1610612743,203932,201145,203999,203115,1628420,1610612737,1627789,1628381,203991,1628989,1629027,0022100434,1,170,183,2,0,1610612743
13,1610612743,203932,201145,203999,203115,1628420,1610612737,1627789,1628381,203991,1628989,1629027,0022100434,1,189,199,0,0,1610612737
14,1610612743,203932,201145,203999,203115,1628420,1610612737,1627789,1628381,203991,1628989,1629027,0022100434,1,209,209,3,0,1610612743
15,1610612743,203932,201145,203999,203115,1628420,1610612737,1627789,1628381,203991,1628989,1629027,0022100434,1,219,219,0,2,1610612737
16,1610612743,203932,201145,203999,203115,1628420,1610612737,1627789,1628381,203991,1628989,1629027,0022100434,1,239,239,0,0,1610612743
17,1610612743,203932,201145,203999,203115,1628420,1610612737,1627789,1628381,203991,1628989,1629027,0022100434,1,245,245,0,2,1610612737
18,1610612743,203932,201145,203999,203115,1628420,1610612737,1627789,1628381,203991,1628989,1629027,0022100434,1,260,260,2,0,1610612743
19,1610612743,203932,201145,203999,203115,1628420,1610612737,1627789,1628381,203991,1628989,1629027,0022100434,1,270,270,0,2,1610612737
20,1610612743,203932,201145,203999,203115,1628420,1610612737,1627789,1628381,203991,1628989,1629027,0022100434,1,284,284,0,0,1610612743
21,1610612743,203932,201145,203999,203115,1628420,1610612737,1627789,1628381,203991,1628989,1629027,0022100434,1,292,292,0,3,1610612737
22,1610612743,203932,201145,203999,203115,1628420,1610612737,1627789,1628381,203991,1628989,1629027,0022100434,1,310,312,0,0,1610612743
23,1610612743,203932,201145,203999,203115,1628420,1610612737,1627789,1628381,203991,1628989,1629027,0022100434,1,312,312,0,0,1610612737
24,1610612743,203932,201145,203999,203115,1628420,1610612737,1627789,1628381,203991,1628989,1629027,0022100434,1,330,334,0,0,1610612743
25,1610612743,203932,201145,203999,203115,1628420,1610612737,1627789,1628381,203991,1628989,1629027,0022100434,1,336,337,0,2,1610612737
26,1610612743,203932,201145,203999,203115,1628420,1610612737,1627789,1628381,203991,1628989,1629027,0022100434,1,358,362,0,0,1610612743
27,1610612743,203932,201145,203999,203115,1628420,1610612737,1627789,1628381,203991,1628989,1629027,0022100434,1,364,366,0,0,1610612737
28,1610612743,203932,201145,203999,203115,1628420,1610612737,1627789,1628381,203991,1628989,1629027,0022100434,1,371,378,0,0,1610612743
29,1610612743,203932,201145,203999,203115,1628420,1610612737,1627789,1628381,203991,1628989,1629027,0022100434,1,388,388,0,2,1610612737
30,1610612743,203932,201145,203999,203115,1628420,1610612737,1627789,1628381,203991,1628989,1629027,0022100434,1,402,419,0,0,1610612743
31,1610612743,203932,201145,203999,203115,1628420,1610612737,1627789,1628381,1628989,1629027,201568,0022100434,1,429,429,0,3,1610612737
32,1610612743,203932,201145,203999,203115,1628420,1610612737,1627789,1628381,1628989,1629027,201568,0022100434,1,447,455,0,0,1610612743
33,1610612743,203932,201145,203999,203115,1628420,1610612737,1627789,1628381,1628989,1629027,201568,0022100434,1,464,467,0,0,1610612737
34,1610612743,203932,201145,203999,203115,1628420,1610612737,1627789,1628381,1628989,1629027,201568,0022100434,1,474,474,0,0,1610612743
35,1610612743,1630192,1630267,1630538,203932,203999,1610612737,1626153,1627789,1628381,1629027,201568,0022100434,1,480,502,0,0,1610612737
36,1610612743,1630192,1630267,1630538,203932,203999,1610612737,1626153,1628381,1629027,1629629,201568,0022100434,1,508,508,0,0,1610612743
37,1610612743,1630192,1630267,1630538,203085,203999,1610612737,1626153,1628381,1629027,1629629,201568,0022100434,1,524,524,0,0,1610612737
38,1610612743,1630192,1630267,1630538,203085,203999,1610612737,1626153,1628381,1629027,1629629,201568,0022100434,1,534,534,2,0,1610612743
39,1610612743,1630192,1630267,1630538,203085,203999,1610612737,1626153,1628381,1629027,1629629,201568,0022100434,1,543,543,0,3,1610612737
40,1610612743,1630192,1630267,1630538,203085,203999,1610612737,101150,1626153,1628381,1629629,201568,0022100434,1,557,557,2,0,1610612743
41,1610612743,1630192,1630267,1630538,203085,203999,1610612737,101150,1626153,1628381,1629629,201568,0022100434,1,573,573,0,2,1610612737
42,1610612743,1630192,1630267,1630538,203085,203999,1610612737,101150,1626153,1629629,1630168,201568,0022100434,1,593,593,3,0,1610612743
43,1610612743,1630192,1630267,1630538,203085,203999,1610612737,101150,1626153,1629629,1630168,201568,0022100434,1,615,618,0,0,1610612737
44,1610612743,1630192,1630267,1630538,203085,203999,1610612737,101150,1626153,1629629,1630168,201568,0022100434,1,623,623,2,0,1610612743
45,1610612743,1630192,1630267,1630538,203085,203999,1610612737,101150,1626153,1629629,1630168,201568,0022100434,1,634,637,0,0,1610612737
46,1610612743,1630192,1630267,1630538,203085,203999,1610612737,101150,1626153,1629629,1630168,201568,0022100434,1,639,649,0,0,1610612743
47,1610612743,1628427,1630192,1630267,1630538,203085,1610612737,101150,1626153,1629629,1630168,201568,0022100434,1,658,658,0,0,1610612737
48,1610612743,1628427,1630192,1630267,1630538,203085,1610612737,101150,1626153,1629629,1630168,201568,0022100434,1,673,675,0,0,1610612743
49,1610612743,1628427,1630192,1630267,1630538,203085,1610612737,101150,1626153,1629629,1630168,201568,0022100434,1,692,692,0,2,1610612737
50,1610612743,1628427,1630192,1630267,1630538,203085,1610612737,101150,1626153,1629629,1630168,201568,0022100434,1,714,714,3,0,1610612743
51,1610612743,1628427,1630192,1630267,1630538,203085,1610612737,101150,1626153,1629629,1630168,201568,0022100434,1,716,720,0,0,1610612737
52,1610612743,1630267,1630192,1630538,203085,1628427,1610612737,201568,1626153,1629629,101150,1630168,0022100434,2,720,733,0,0,1610612737
53,1610612743,1630267,1630192,1630538,203085,1628427,1610612737,201568,1626153,1629629,101150,1630168,0022100434,2,736,736,2,0,1610612743
54,1610612743,1630267,1630192,1630538,203085,1628427,1610612737,201568,1626153,1629629,101150,1630168,0022100434,2,749,749,0,2,1610612737
55,1610612743,1630267,1630192,1630538,203085,1628427,1610612737,201568,1626153,1629629,101150,1630168,0022100434,2,764,774,2,0,1610612743
56,1610612743,1630267,1630192,1630538,203085,1628427,1610612737,201568,1626153,1629629,101150,1630168,0022100434,2,788,788,0,2,1610612737
57,1610612743,1630267,1630192,1630538,203085,1628427,1610612737,201568,1626153,1629629,101150,1630168,0022100434,2,803,806,0,0,1610612743
58,1610612743,1630267,1630192,1630538,203085,1628427,1610612737,201568,1626153,1629629,101150,1630168,0022100434,2,811,811,0,2,1610612737
59,1610612743,1630267,1630192,1630538,203085,1628427,1610612737,201568,1626153,1629629,101150,1630168,0022100434,2,823,823,2,0,1610612743
60,1610612743,1630267,1630192,1630538,203085,1628427,1610612737,201568,1626153,1629629,101150,1630168,0022100434,2,841,841,0,2,1610612737
61,1610612743,1630267,1630192,1630538,203085,1628427,1610612737,201568,1626153,1629629,101150,1630168,0022100434,2,860,860,2,0,1610612743
62,1610612743,1630267,1630192,1630538,203085,1628427,1610612737,201568,1626153,1629629,101150,1630168,0022100434,2,874,874,0,2,1610612737
63,1610612743,1630267,1630192,1630538,203085,1628427,1610612737,201568,1626153,1629629,101150,1630168,0022100434,2,884,884,2,0,1610612743
64,1610612743,1630267,1630192,1630538,203085,1628427,1610612737,101150,1626153,1628381,1629629,201568,0022100434,2,894,894,0,2,1610612737
65,1610612743,1630267,1630192,1630538,203085,1628427,1610612737,101150,1626153,1628381,1629629,201568,0022100434,2,897,912,0,0,1610612743
66,1610612743,1628427,1630267,1630538,201145,203085,1610612737,101150,1626153,1628381,1629629,201568,0022100434,2,921,924,0,0,1610612737
67,1610612743,1628427,1630267,1630538,201145,203085,1610612737,101150,1626153,1628381,1629629,201568,0022100434,2,926,936,2,0,1610612743
68,1610612743,1628427,1630267,1630538,201145,203085,1610612737,101150,1626153,1628381,1629629,201568,0022100434,2,942,944,0,0,1610612737
69,1610612743,1628427,1630267,1630538,201145,203115,1610612737,101150,1628381,1628989,1629629,201568,0022100434,2,952,952,3,0,1610612743
70,1610612743,1628427,1630267,1630538,201145,203115,1610612737,101150,1628381,1628989,1629629,201568,0022100434,2,966,968,0,0,1610612737
71,1610612743,1628427,1630267,1630538,201145,203115,1610612737,101150,1628381,1628989,1629629,201568,0022100434,2,972,972,2,0,1610612743
72,1610612743,1628427,1630267,1630538,201145,203115,1610612737,101150,1628381,1628989,1629629,201568,0022100434,2,990,994,0,0,1610612737
73,1610612743,1628427,1630267,1630538,201145,203115,1610612737,101150,1628381,1628989,1629629,201568,0022100434,2,1006,1006,2,0,1610612743
74,1610612743,1628427,1630267,1630538,201145,203115,1610612737,101150,1628381,1628989,1629629,201568,0022100434,2,1007,1037,0,2,1610612737
75,1610612743,1630267,1630538,201145,203115,203932,1610612737,1627789,1628381,1628989,1629027,203991,0022100434,2,1052,1052,3,0,1610612743
76,1610612743,1630267,1630538,201145,203115,203932,1610612737,1627789,1628381,1628989,1629027,203991,0022100434,2,1066,1071,0,0,1610612737
77,1610612743,1630267,1630538,201145,203115,203932,1610612737,1627789,1628381,1628989,1629027,203991,0022100434,2,1079,1082,0,0,1610612743
78,1610612743,1630267,1630538,201145,203115,203932,1610612737,1627789,1628381,1628989,1629027,203991,0022100434,2,1086,1093,0,2,1610612737
79,1610612743,1628420,201145,203115,203932,203999,1610612737,1627789,1628381,1628989,1629027,203991,0022100434,2,1114,1119,0,0,1610612743
80,1610612743,1628420,201145,203115,203932,203999,1610612737,1627789,1628381,1628989,1629027,203991,0022100434,2,1126,1126,0,2,1610612737
81,1610612743,1628420,201145,203115,203932,203999,1610612737,1627789,1628381,1628989,1629027,203991,0022100434,2,1140,1140,3,0,1610612743
82,1610612743,1628420,201145,203115,203932,203999,1610612737,1627789,1628381,1628989,1629027,203991,0022100434,2,1157,1157,0,0,1610612737
83,1610612743,1628420,201145,203115,203932,203999,1610612737,1627789,1628381,1628989,1629027,203991,0022100434,2,1161,1161,2,0,1610612743
84,1610612743,1628420,201145,203115,203932,203999,1610612737,1627789,1628381,1628989,1629027,203991,0022100434,2,1167,1170,0,0,1610612737
85,1610612743,1628420,201145,203115,203932,203999,1610612737,1627789,1628381,1628989,1629027,203991,0022100434,2,1177,1177,2,0,1610612743
86,1610612743,1628420,201145,203115,203932,203999,1610612737,1627789,1628381,1628989,1629027,203991,0022100434,2,1184,1192,0,0,1610612737
87,1610612743,1628420,201145,203115,203932,203999,1610612737,1627789,1628381,1628989,1629027,201568,0022100434,2,1195,1195,0,0,1610612743
88,1610612743,1628420,201145,203115,203932,203999,1610612737,1627789,1628381,1628989,1629027,201568,0022100434,2,1206,1209,0,0,1610612737
89,1610612743,1628420,201145,203115,203932,203999,1610612737,1627789,1628381,1628989,1629027,201568,0022100434,2,1216,1216,2,0,1610612743
90,1610612743,1628420,201145,203115,203932,203999,1610612737,1627789,1628381,1628989,1629027,201568,0022100434,2,1235,1235,0,2,1610612737
91,1610612743,1628420,201145,203115,203932,203999,1610612737,1627789,1628381,1628989,1629027,201568,0022100434,2,1247,1247,2,0,1610612743
92,1610612743,1628420,201145,203115,203932,203999,1610612737,1627789,1628381,1628989,1629027,201568,0022100434,2,1255,1256,0,0,1610612737
93,1610612743,1628420,201145,203115,203932,203999,1610612737,1627789,1628381,1628989,1629027,201568,0022100434,2,1256,1256,2,0,1610612743
94,1610612743,1628420,201145,203115,203932,203999,1610612737,1627789,1628381,1628989,1629027,201568,0022100434,2,1265,1276,0,2,1610612737
95,1610612743,1628420,201145,203115,203932,203999,1610612737,1627789,1628381,1628989,1629027,201568,0022100434,2,1294,1297,0,0,1610612743
96,1610612743,1628420,201145,203115,203932,203999,1610612737,1627789,1628381,1628989,1629027,201568,0022100434,2,1312,1315,0,0,1610612737
97,1610612743,1628420,201145,203115,203932,203999,1610612737,1627789,1628381,1628989,1629027,201568,0022100434,2,1320,1320,3,0,1610612743
98,1610612743,1628420,201145,203115,203932,203999,1610612737,1627789,1628381,1628989,1629027,201568,0022100434,2,1339,1342,0,0,1610612737
99,1610612743,1628420,201145,203115,203932,203999,1610612737,1627789,1628381,1628989,1629027,201568,0022100434,2,1344,1344,3,0,1610612743
100,1610612743,1628420,201145,203115,203932,203999,1610612737,1627789,1628381,1628989,1629027,201568,0022100434,2,1353,1367,0,0,1610612737
101,1610612743,1628420,201145,203115,203932,203999,1610612737,1627789,1628989,1629027,201568,203991,0022100434,2,1379,1379,0,0,1610612743
102,1610612743,1628420,201145,203115,203932,203999,1610612737,1627789,1628989,1629027,201568,203991,0022100434,2,1380,1380,0,0,1610612737
103,1610612743,1628420,201145,203115,203932,203999,1610612737,1627789,1628989,1629027,201568,203991,0022100434,2,1380,1380,2,0,1610612743
104,1610612743,1628420,201145,203115,203932,203999,1610612737,1627789,1628989,1629027,201568,203991,0022100434,2,1388,1388,0,2,1610612737
105,1610612743,1628420,201145,203115,203932,203999,1610612737,1627789,1628989,1629027,201568,203991,0022100434,2,1401,1401,0,0,1610612743
106,1610612743,1628420,201145,203115,203932,203999,1610612737,1627789,1628989,1629027,201568,203991,0022100434,2,1404,1404,0,2,1610612737
107,1610612743,1628420,201145,203115,203932,203999,1610612737,1627789,1628989,1629027,201568,203991,0022100434,2,1409,1414,0,0,1610612743
108,1610612743,1628420,201145,203115,203932,203999,1610612737,1627789,1628989,1629027,201568,203991,0022100434,2,1433,1438,0,2,1610612737
109,1610612743,1628420,201145,203115,203932,203999,1610612737,1627789,1628989,1629027,201568,203991,0022100434,2,1440,1440,0,0,1610612737
110,1610612743,203932,201145,203999,203115,1628420,1610612737,1627789,1628381,203991,1628989,1629027,0022100434,3,1440,1456,0,0,1610612737
111,1610612743,203932,201145,203999,203115,1628420,1610612737,1627789,1628381,203991,1628989,1629027,0022100434,3,1467,1467,0,0,1610612743
112,1610612743,203932,201145,203999,203115,1628420,1610612737,1627789,1628381,203991,1628989,1629027,0022100434,3,1488,1491,0,0,1610612737
113,1610612743,203932,201145,203999,203115,1628420,1610612737,1627789,1628381,203991,1628989,1629027,0022100434,3,1501,1501,3,0,1610612743
114,1610612743,203932,201145,203999,203115,1628420,1610612737,1627789,1628381,203991,1628989,1629027,0022100434,3,1516,1517,0,1,1610612737
115,1610612743,1628420,1630538,201145,203115,203932,1610612737,1627789,1628381,203991,1628989,1629027,0022100434,3,1536,1536,3,0,1610612743
116,1610612743,1628420,1630538,201145,203115,203932,1610612737,1627789,1628381,203991,1628989,1629027,0022100434,3,1545,1545,0,2,1610612737
117,1610612743,1628420,1630538,201145,203115,203932,1610612737,1627789,1628381,203991,1628989,1629027,0022100434,3,1565,1569,0,0,1610612743
118,1610612743,1628420,1630538,201145,203115,203932,1610612737,1627789,1628381,203991,1628989,1629027,0022100434,3,1572,1572,0,2,1610612737
119,1610612743,1628420,1630538,201145,203115,203932,1610612737,1627789,1628381,203991,1628989,1629027,0022100434,3,1587,1587,2,0,1610612743
120,1610612743,1628420,1630538,201145,203115,203932,1610612737,1627789,1628381,203991,1628989,1629027,0022100434,3,1591,1599,0,2,1610612737
121,1610612743,1628420,1630538,201145,203115,203932,1610612737,1627789,1628381,203991,1628989,1629027,0022100434,3,1609,1609,2,0,1610612743
122,1610612743,1628420,1630538,201145,203115,203932,1610612737,1627789,1628381,203991,1628989,1629027,0022100434,3,1620,1620,0,2,1610612737
123,1610612743,1628420,1630538,201145,203115,203932,1610612737,1627789,1628381,203991,1628989,1629027,0022100434,3,1642,1642,3,0,1610612743
124,1610612743,1628420,1630538,201145,203115,203932,1610612737,1627789,1628381,203991,1628989,1629027,0022100434,3,1653,1656,0,0,1610612737
125,1610612743,1628420,1630538,201145,203115,203932,1610612737,1627789,1628381,203991,1628989,1629027,0022100434,3,1679,1682,0,0,1610612743
126,1610612743,1628420,1630538,201145,203115,203932,1610612737,1627789,1628381,203991,1628989,1629027,0022100434,3,1685,1685,0,1,1610612737
127,1610612743,1628420,1630192,201145,203115,203932,1610612737,1627789,1628381,203991,1628989,1629027,0022100434,3,1695,1698,0,0,1610612743
128,1610612743,1628420,1630192,201145,203115,203932,1610612737,1627789,1628381,203991,1628989,1629027,0022100434,3,1706,1706,0,2,1610612737
129,1610612743,1628420,1630192,201145,203115,203932,1610612737,1627789,1628381,203991,1628989,1629027,0022100434,3,1720,1722,0,0,1610612743
130,1610612743,1628420,1630192,201145,203115,203932,1610612737,1627789,1628381,203991,1628989,1629027,0022100434,3,1729,1729,0,2,1610612737
131,1610612743,1628420,1630192,201145,203115,203932,1610612737,1627789,1628381,203991,1628989,1629027,0022100434,3,1729,1754,0,0,1610612743
132,1610612743,1628420,1630192,201145,203115,203932,1610612737,1627789,1628381,203991,1628989,1629027,0022100434,3,1764,1764,0,2,1610612737
133,1610612743,1628420,1630192,201145,203115,203932,1610612737,1627789,1628381,203991,1628989,1629027,0022100434,3,1779,1779,2,0,1610612743
134,1610612743,1628420,1630192,201145,203115,203932,1610612737,1627789,1628381,203991,1628989,1629027,0022100434,3,1791,1794,0,0,1610612737
135,1610612743,1628420,1630192,201145,203115,203932,1610612737,1627789,1628381,203991,1628989,1629027,0022100434,3,1812,1816,0,0,1610612743
136,1610612743,1628420,1630192,201145,203115,203932,1610612737,1627789,1628381,203991,1628989,1629027,0022100434,3,1821,1824,0,2,1610612737
137,1610612743,1628420,1630192,201145,203115,203932,1610612737,1627789,1628381,203991,1628989,1629027,0022100434,3,1842,1842,2,0,1610612743
138,1610612743,1628420,1630192,201145,203115,203932,1610612737,1627789,1628381,203991,1628989,1629027,0022100434,3,1851,1851,0,3,1610612737
139,1610612743,1628420,1630192,201145,203115,203932,1610612737,1627789,1628381,203991,1628989,1629027,0022100434,3,1866,1866,3,0,1610612743
140,1610612743,1628420,1630192,201145,203115,203932,1610612737,1627789,1628381,203991,1628989,1629027,0022100434,3,1882,1882,0,2,1610612737
141,1610612743,1628420,1630192,201145,203115,203932,1610612737,1627789,1628381,203991,1628989,1629027,0022100434,3,1906,1906,2,0,1610612743
142,1610612743,1628420,1630192,201145,203115,203932,1610612737,1627789,1628381,203991,1628989,1629027,0022100434,3,1913,1916,0,0,1610612737
143,1610612743,1630192,1630267,1630538,201145,203932,1610612737,1626153,1627789,1628381,1629027,201568,0022100434,3,1935,1935,0,0,1610612743
144,1610612743,1630192,1630267,1630538,201145,203932,1610612737,1626153,1627789,1628381,1629027,201568,0022100434,3,1944,1944,0,2,1610612737
145,1610612743,1630192,1630267,1630538,201145,203932,1610612737,1626153,1627789,1628381,1629027,201568,0022100434,3,1965,1968,0,0,1610612743
146,1610612743,1630192,1630267,1630538,201145,203932,1610612737,1626153,1627789,1628381,1629027,201568,0022100434,3,1972,1972,0,0,1610612737
147,1610612743,1630192,1630267,1630538,201145,203932,1610612737,1626153,1627789,1628381,1629027,201568,0022100434,3,1985,1985,3,0,1610612743
148,1610612743,1630192,1630267,1630538,201145,203932,1610612737,1626153,1627789,1628381,1629027,201568,0022100434,3,1997,1997,0,3,1610612737
149,1610612743,1630192,1630267,1630538,201145,203932,1610612737,1626153,1627789,1628381,1629027,201568,0022100434,3,2019,2019,0,0,1610612743
150,1610612743,1630192,1630267,1630538,201145,203932,1610612737,1626153,1627789,1628381,1629027,201568,0022100434,3,2019,2044,0,0,1610612737
151,1610612743,1628427,1630267,1630538,203085,203932,1610612737,1626153,1629027,1629629,1630168,201568,0022100434,3,2055,2055,2,0,1610612743
152,1610612743,1628427,1630267,1630538,203085,203932,1610612737,1626153,1629027,1629629,1630168,201568,0022100434,3,2067,2071,0,0,1610612737
153,1610612743,1628427,1630267,1630538,203085,203932,1610612737,1626153,1629027,1629629,1630168,201568,0022100434,3,2079,2079,2,0,1610612743
154,1610612743,1628427,1630267,1630538,203085,203932,1610612737,1626153,1629027,1629629,1630168,201568,0022100434,3,2094,2094,0,1,1610612737
155,1610612743,1628427,1630267,1630538,201145,203085,1610612737,1626153,1629027,1629629,1630168,201568,0022100434,3,2115,2115,3,0,1610612743
156,1610612743,1628427,1630267,1630538,201145,203085,1610612737,1626153,1629027,1629629,1630168,201568,0022100434,3,2128,2128,0,2,1610612737
157,1610612743,1628427,1630267,1630538,201145,203085,1610612737,1626153,1629027,1629629,1630168,201568,0022100434,3,2134,2148,2,0,1610612743
158,1610612743,1628427,1630267,1630538,201145,203085,1610612737,1626153,1629027,1629629,1630168,201568,0022100434,3,2159,2159,0,2,1610612737
159,1610612743,1628427,1630267,1630538,201145,203085,1610612737,1626153,1629027,1629629,1630168,201568,0022100434,3,2160,2160,0,0,1610612737
160,1610612743,203999,1630267,1630538,203085,1628427,1610612737,1628989,201568,1629629,101150,1630168,0022100434,4,2160,2181,0,0,1610612743
161,1610612743,203999,1630267,1630538,203085,1628427,1610612737,1628989,201568,1629629,101150,1630168,0022100434,4,2193,2196,0,0,1610612737
162,1610612743,203999,1630267,1630538,203085,1628427,1610612737,1628989,201568,1629629,101150,1630168,0022100434,4,2207,2212,0,0,1610612743
163,1610612743,203999,1630267,1630538,203085,1628427,1610612737,1628989,201568,1629629,101150,1630168,0022100434,4,2219,2219,0,0,1610612737
164,1610612743,203999,1630267,1630538,203085,1628427,1610612737,1628989,201568,1629629,101150,1630168,0022100434,4,2222,2225,2,0,1610612743
165,1610612743,203999,1630267,1630538,203085,1628427,1610612737,1628989,201568,1629629,101150,1630168,0022100434,4,2237,2237,0,3,1610612737
166,1610612743,203999,1630267,1630538,203085,1628427,1610612737,1628989,201568,1629629,101150,1630168,0022100434,4,2252,2252,2,0,1610612743
167,1610612743,203999,1630267,1630538,203085,1628427,1610612737,1628989,201568,1629629,101150,1630168,0022100434,4,2272,2273,0,0,1610612737
168,1610612743,203999,1630267,1630538,203085,1628427,1610612737,1628989,201568,1629629,101150,1630168,0022100434,4,2281,2281,2,0,1610612743
169,1610612743,203999,1630267,1630538,203085,1628427,1610612737,1628989,201568,1629629,101150,1630168,0022100434,4,2281,2283,0,0,1610612737
170,1610612743,203999,1630267,1630538,203085,1628427,1610612737,1628989,201568,1629629,101150,1630168,0022100434,4,2284,2284,3,0,1610612743
171,1610612743,203999,1630267,1630538,203085,1628427,1610612737,1628989,201568,1629629,101150,1630168,0022100434,4,2302,2302,0,2,1610612737
172,1610612743,203999,1630267,1630538,203085,1628427,1610612737,1628989,201568,1629629,101150,1630168,0022100434,4,2316,2332,0,0,1610612743
173,1610612743,203999,1630267,1630538,203085,1628427,1610612737,1628381,1628989,1629027,1629629,201568,0022100434,4,2338,2348,0,0,1610612737
174,1610612743,203999,1630267,1630538,203085,1628427,1610612737,1628381,1628989,1629027,1629629,201568,0022100434,4,2365,2365,0,0,1610612743
175,1610612743,203999,1630267,1630538,203085,1628427,1610612737,1628381,1628989,1629027,1629629,203991,0022100434,4,2376,2376,0,2,1610612737
176,1610612743,203999,1630267,1630538,203085,1628427,1610612737,1628381,1628989,1629027,1629629,203991,0022100434,4,2391,2391,2,0,1610612743
177,1610612743,203999,1630267,1630538,203085,1628427,1610612737,1627789,1628381,1628989,1629027,203991,0022100434,4,2403,2403,0,2,1610612737
178,1610612743,203999,1630267,1630538,203085,1628427,1610612737,1627789,1628381,1628989,1629027,203991,0022100434,4,2424,2427,0,0,1610612743
179,1610612743,203999,1630267,1630538,203085,1628427,1610612737,1627789,1628381,1628989,1629027,203991,0022100434,4,2437,2442,0,2,1610612737
180,1610612743,203999,1630267,1630538,203085,1628427,1610612737,1627789,1628381,1628989,1629027,203991,0022100434,4,2443,2455,2,0,1610612743
181,1610612743,1630267,1630538,201145,203932,203999,1610612737,1627789,1628381,1628989,1629027,203991,0022100434,4,2475,2479,0,2,1610612737
182,1610612743,1630267,1630538,201145,203932,203999,1610612737,1627789,1628381,1628989,1629027,203991,0022100434,4,2493,2493,0,0,1610612743
183,1610612743,1628420,1630538,201145,203932,203999,1610612737,1627789,1628381,1628989,1629027,203991,0022100434,4,2504,2504,0,2,1610612737
184,1610612743,1628420,1630538,201145,203932,203999,1610612737,1627789,1628381,1628989,1629027,203991,0022100434,4,2520,2520,2,0,1610612743
185,1610612743,1628420,201145,203115,203932,203999,1610612737,1627789,1628381,1628989,1629027,203991,0022100434,4,2525,2542,0,0,1610612737
186,1610612743,1628420,201145,203115,203932,203999,1610612737,1627789,1628381,1628989,1629027,203991,0022100434,4,2550,2553,0,0,1610612743
187,1610612743,1628420,201145,203115,203932,203999,1610612737,1627789,1628381,1628989,1629027,203991,0022100434,4,2559,2559,0,2,1610612737
188,1610612743,1628420,201145,203115,203932,203999,1610612737,1627789,1628381,1628989,1629027,203991,0022100434,4,2588,2592,0,0,1610612743
189,1610612743,1628420,201145,203115,203932,203999,1610612737,1627789,1628381,1628989,1629027,203991,0022100434,4,2601,2601,0,0,1610612737
190,1610612743,1628420,201145,203115,203932,203999,1610612737,1627789,1628381,1628989,1629027,203991,0022100434,4,2606,2606,2,0,1610612743
191,1610612743,1628420,201145,203115,203932,203999,1610612737,1627789,1628381,1628989,1629027,203991,0022100434,4,2617,2620,0,0,1610612737
192,1610612743,1628420,201145,203115,203932,203999,1610612737,1627789,1628381,1628989,1629027,203991,0022100434,4,2630,2630,2,0,1610612743
193,1610612743,1628420,201145,203115,203932,203999,1610612737,1627789,1628381,1628989,1629027,203991,0022100434,4,2643,2643,0,2,1610612737
194,1610612743,1628420,201145,203115,203932,203999,1610612737,1627789,1628381,1628989,1629027,203991,0022100434,4,2656,2656,2,0,1610612743
195,1610612743,1628420,1628427,201145,203115,203932,1610612737,1626153,1627789,1630168,1630536,203476,0022100434,4,2671,2671,0,2,1610612737
196,1610612743,1628420,1628427,201145,203115,203932,1610612737,1626153,1627789,1630168,1630536,203476,0022100434,4,2672,2696,0,0,1610612743
197,1610612743,1628427,1630192,1630538,203085,203115,1610612737,1626153,1627789,1630168,1630536,203476,0022100434,4,2709,2709,0,2,1610612737
198,1610612743,1627822,1628427,1630192,1630538,203085,1610612737,1626153,1627789,1630168,1630536,203476,0022100434,4,2720,2723,0,0,1610612743
199,1610612743,1627822,1628427,1630192,1630538,203085,1610612737,1626153,1627789,1630168,1630536,203476,0022100434,4,2726,2726,0,0,1610612737
200,1610612743,1627822,1628427,1630192,1630538,203085,1610612737,1626153,1627789,1630168,1630536,203476,0022100434,4,2742,2742,3,0,1610612743
201,1610612743,1627822,1628427,1630192,1630538,203085,1610612737,1626153,1627789,1630168,1630536,203476,0022100434,4,2764,2764,0,2,1610612737
202,1610612743,1627822,1628427,1630192,1630538,203085,1610612737,1626153,1627789,1630168,1630536,203476,0022100434,4,2775,2775,1,0,1610612743
203,1610612743,1627822,1628427,1630192,1630538,203085,1610612737,1626153,1627789,1630168,1630536,203476,0022100434,4,2789,2789,0,0,1610612737
204,1610612743,1627822,1628427,1630192,1630538,203085,1610612737,1626153,1627789,1630168,1630536,203476,0022100434,4,2792,2792,2,0,1610612743
205,1610612743,1627822,1628427,1630192,1630538,203085,1610612737,1626153,1627789,1630168,1630536,203476,0022100434,4,2810,2814,0,0,1610612737
206,1610612743,1627822,1628427,1630192,1630538,203085,1610612737,1626153,1627789,1630168,1630536,203476,0022100434,4,2820,2822,0,0,1610612743
207,1610612743,1627822,1628427,1630192,1630538,203085,1610612737,1626153,1627789,1630168,1630536,203476,0022100434,4,2825,2830,0,3,1610612737
208,1610612743,1627822,1628427,1630192,1630538,203085,1610612737,1626153,1627789,1630168,1630536,203476,0022100434,4,2853,2853,0,0,1610612743
209,1610612743,1627822,1628427,1630192,1630538,203085,1610612737,1626153,1627789,1630168,1630536,203476,0022100434,4,2856,2856,0,0,1610612737
210,1610612743,1627822,1628427,1630192,1630538,203085,1610612737,1626153,1627789,1630168,1630536,203476,0022100434,4,2880,2880,0,0,1610612743
